<?xml version="1.0" encoding="utf-8"  standalone="no"?>
<svg 
 width="1280" height="720"
 viewBox="0 0 1280 720"
 xmlns="http://www.w3.org/2000/svg"
 xmlns:xlink="http://www.w3.org/1999/xlink"
>

<title>Gnuplot</title>
<desc>Produced by GNUPLOT 5.0 patchlevel 6 </desc>

<g id="gnuplot_canvas">

<rect x="0" y="0" width="1280" height="720" fill="none"/>
<defs>

	<circle id='gpDot' r='0.5' stroke-width='0.5'/>
	<path id='gpPt0' stroke-width='0.222' stroke='currentColor' d='M-1,0 h2 M0,-1 v2'/>
	<path id='gpPt1' stroke-width='0.222' stroke='currentColor' d='M-1,-1 L1,1 M1,-1 L-1,1'/>
	<path id='gpPt2' stroke-width='0.222' stroke='currentColor' d='M-1,0 L1,0 M0,-1 L0,1 M-1,-1 L1,1 M-1,1 L1,-1'/>
	<rect id='gpPt3' stroke-width='0.222' stroke='currentColor' x='-1' y='-1' width='2' height='2'/>
	<rect id='gpPt4' stroke-width='0.222' stroke='currentColor' fill='currentColor' x='-1' y='-1' width='2' height='2'/>
	<circle id='gpPt5' stroke-width='0.222' stroke='currentColor' cx='0' cy='0' r='1'/>
	<use xlink:href='#gpPt5' id='gpPt6' fill='currentColor' stroke='none'/>
	<path id='gpPt7' stroke-width='0.222' stroke='currentColor' d='M0,-1.33 L-1.33,0.67 L1.33,0.67 z'/>
	<use xlink:href='#gpPt7' id='gpPt8' fill='currentColor' stroke='none'/>
	<use xlink:href='#gpPt7' id='gpPt9' stroke='currentColor' transform='rotate(180)'/>
	<use xlink:href='#gpPt9' id='gpPt10' fill='currentColor' stroke='none'/>
	<use xlink:href='#gpPt3' id='gpPt11' stroke='currentColor' transform='rotate(45)'/>
	<use xlink:href='#gpPt11' id='gpPt12' fill='currentColor' stroke='none'/>
	<path id='gpPt13' stroke-width='0.222' stroke='currentColor' d='M0,1.330 L1.265,0.411 L0.782,-1.067 L-0.782,-1.076 L-1.265,0.411 z'/>
	<use xlink:href='#gpPt13' id='gpPt14' fill='currentColor' stroke='none'/>
	<filter id='textbox' filterUnits='objectBoundingBox' x='0' y='0' height='1' width='1'>
	  <feFlood flood-color='white' flood-opacity='1' result='bgnd'/>
	  <feComposite in='SourceGraphic' in2='bgnd' operator='atop'/>
	</filter>
	<filter id='greybox' filterUnits='objectBoundingBox' x='0' y='0' height='1' width='1'>
	  <feFlood flood-color='lightgrey' flood-opacity='1' result='grey'/>
	  <feComposite in='SourceGraphic' in2='grey' operator='atop'/>
	</filter>
</defs>
<g fill="none" color="white" stroke="currentColor" stroke-width="1.00" stroke-linecap="butt" stroke-linejoin="miter">
</g>
<g fill="none" color="black" stroke="currentColor" stroke-width="1.00" stroke-linecap="butt" stroke-linejoin="miter">
	<path stroke='black'  d='M87.1,683.5 L96.1,683.5 M1255.0,683.5 L1246.0,683.5  '/>	<g transform="translate(78.8,687.4)" stroke="none" fill="black" font-family="Arial" font-size="12.00"  text-anchor="end">
		<text><tspan font-family="Arial" > 0.06137</tspan></text>
	</g>
</g>
<g fill="none" color="black" stroke="currentColor" stroke-width="1.00" stroke-linecap="butt" stroke-linejoin="miter">
	<path stroke='black'  d='M87.1,378.5 L96.1,378.5 M1255.0,378.5 L1246.0,378.5  '/>	<g transform="translate(78.8,382.4)" stroke="none" fill="black" font-family="Arial" font-size="12.00"  text-anchor="end">
		<text><tspan font-family="Arial" > 44.4466</tspan></text>
	</g>
</g>
<g fill="none" color="black" stroke="currentColor" stroke-width="1.00" stroke-linecap="butt" stroke-linejoin="miter">
	<path stroke='black'  d='M87.1,73.5 L96.1,73.5 M1255.0,73.5 L1246.0,73.5  '/>	<g transform="translate(78.8,77.4)" stroke="none" fill="black" font-family="Arial" font-size="12.00"  text-anchor="end">
		<text><tspan font-family="Arial" > 32190</tspan></text>
	</g>
</g>
<g fill="none" color="black" stroke="currentColor" stroke-width="1.00" stroke-linecap="butt" stroke-linejoin="miter">
	<path stroke='black'  d='M87.1,684.0 L87.1,675.0 M87.1,54.1 L87.1,63.1  '/>	<g transform="translate(87.1,705.9)" stroke="none" fill="black" font-family="Arial" font-size="12.00"  text-anchor="middle">
		<text><tspan font-family="Arial" > 0</tspan></text>
	</g>
</g>
<g fill="none" color="black" stroke="currentColor" stroke-width="1.00" stroke-linecap="butt" stroke-linejoin="miter">
	<path stroke='black'  d='M671.1,684.0 L671.1,675.0 M671.1,54.1 L671.1,63.1  '/>	<g transform="translate(671.1,705.9)" stroke="none" fill="black" font-family="Arial" font-size="12.00"  text-anchor="middle">
		<text><tspan font-family="Arial" >pi/2</tspan></text>
	</g>
</g>
<g fill="none" color="black" stroke="currentColor" stroke-width="1.00" stroke-linecap="butt" stroke-linejoin="miter">
	<path stroke='black'  d='M1255.0,684.0 L1255.0,675.0 M1255.0,54.1 L1255.0,63.1  '/>	<g transform="translate(1255.0,705.9)" stroke="none" fill="black" font-family="Arial" font-size="12.00"  text-anchor="middle">
		<text><tspan font-family="Arial" >pi</tspan></text>
	</g>
</g>
<g fill="none" color="black" stroke="currentColor" stroke-width="1.00" stroke-linecap="butt" stroke-linejoin="miter">
</g>
<g fill="none" color="black" stroke="currentColor" stroke-width="1.00" stroke-linecap="butt" stroke-linejoin="miter">
	<path stroke='black'  d='M87.1,54.1 L87.1,684.0 L1255.0,684.0 L1255.0,54.1 L87.1,54.1 Z  '/></g>
<g fill="none" color="black" stroke="currentColor" stroke-width="1.00" stroke-linecap="butt" stroke-linejoin="miter">
	<g transform="translate(671.0,31.0)" stroke="none" fill="black" font-family="Arial" font-size="12.00"  text-anchor="middle">
		<text><tspan font-family="Arial" >Material 50</tspan></text>
	</g>
</g>
	<g id="gnuplot_plot_1" ><title>scattering function</title>
<g fill="none" color="black" stroke="currentColor" stroke-width="1.00" stroke-linecap="butt" stroke-linejoin="miter">
	<g transform="translate(1187.9,76.0)" stroke="none" fill="black" font-family="Arial" font-size="12.00"  text-anchor="end">
		<text><tspan font-family="Arial" >scattering function</tspan></text>
	</g>
</g>
<g fill="none" color="black" stroke="currentColor" stroke-width="1.00" stroke-linecap="butt" stroke-linejoin="miter">
	<use xlink:href='#gpPt5' transform='translate(87.1,73.5) scale(2.25)' color='black'/>
	<use xlink:href='#gpPt5' transform='translate(87.7,74.5) scale(2.25)' color='black'/>
	<use xlink:href='#gpPt5' transform='translate(88.4,77.6) scale(2.25)' color='black'/>
	<use xlink:href='#gpPt5' transform='translate(89.0,82.6) scale(2.25)' color='black'/>
	<use xlink:href='#gpPt5' transform='translate(89.7,89.5) scale(2.25)' color='black'/>
	<use xlink:href='#gpPt5' transform='translate(90.3,98.1) scale(2.25)' color='black'/>
	<use xlink:href='#gpPt5' transform='translate(91.0,108.3) scale(2.25)' color='black'/>
	<use xlink:href='#gpPt5' transform='translate(91.6,119.7) scale(2.25)' color='black'/>
	<use xlink:href='#gpPt5' transform='translate(92.3,132.2) scale(2.25)' color='black'/>
	<use xlink:href='#gpPt5' transform='translate(92.9,145.4) scale(2.25)' color='black'/>
	<use xlink:href='#gpPt5' transform='translate(93.6,158.9) scale(2.25)' color='black'/>
	<use xlink:href='#gpPt5' transform='translate(94.2,172.6) scale(2.25)' color='black'/>
	<use xlink:href='#gpPt5' transform='translate(94.9,186.0) scale(2.25)' color='black'/>
	<use xlink:href='#gpPt5' transform='translate(95.5,198.9) scale(2.25)' color='black'/>
	<use xlink:href='#gpPt5' transform='translate(96.2,211.2) scale(2.25)' color='black'/>
	<use xlink:href='#gpPt5' transform='translate(96.8,222.5) scale(2.25)' color='black'/>
	<use xlink:href='#gpPt5' transform='translate(97.5,233.1) scale(2.25)' color='black'/>
	<use xlink:href='#gpPt5' transform='translate(98.1,242.7) scale(2.25)' color='black'/>
	<use xlink:href='#gpPt5' transform='translate(98.8,251.5) scale(2.25)' color='black'/>
	<use xlink:href='#gpPt5' transform='translate(99.4,259.6) scale(2.25)' color='black'/>
	<use xlink:href='#gpPt5' transform='translate(100.1,267.0) scale(2.25)' color='black'/>
	<use xlink:href='#gpPt5' transform='translate(106.6,319.5) scale(2.25)' color='black'/>
	<use xlink:href='#gpPt5' transform='translate(113.1,350.3) scale(2.25)' color='black'/>
	<use xlink:href='#gpPt5' transform='translate(119.5,369.7) scale(2.25)' color='black'/>
	<use xlink:href='#gpPt5' transform='translate(126.0,381.9) scale(2.25)' color='black'/>
	<use xlink:href='#gpPt5' transform='translate(139.0,397.0) scale(2.25)' color='black'/>
	<use xlink:href='#gpPt5' transform='translate(152.0,404.6) scale(2.25)' color='black'/>
	<use xlink:href='#gpPt5' transform='translate(165.0,410.4) scale(2.25)' color='black'/>
	<use xlink:href='#gpPt5' transform='translate(177.9,416.1) scale(2.25)' color='black'/>
	<use xlink:href='#gpPt5' transform='translate(190.9,421.2) scale(2.25)' color='black'/>
	<use xlink:href='#gpPt5' transform='translate(203.9,426.5) scale(2.25)' color='black'/>
	<use xlink:href='#gpPt5' transform='translate(216.9,432.4) scale(2.25)' color='black'/>
	<use xlink:href='#gpPt5' transform='translate(229.8,437.1) scale(2.25)' color='black'/>
	<use xlink:href='#gpPt5' transform='translate(242.8,442.4) scale(2.25)' color='black'/>
	<use xlink:href='#gpPt5' transform='translate(255.8,448.0) scale(2.25)' color='black'/>
	<use xlink:href='#gpPt5' transform='translate(268.8,455.6) scale(2.25)' color='black'/>
	<use xlink:href='#gpPt5' transform='translate(281.8,462.4) scale(2.25)' color='black'/>
	<use xlink:href='#gpPt5' transform='translate(294.7,466.4) scale(2.25)' color='black'/>
	<use xlink:href='#gpPt5' transform='translate(307.7,470.3) scale(2.25)' color='black'/>
	<use xlink:href='#gpPt5' transform='translate(320.7,481.4) scale(2.25)' color='black'/>
	<use xlink:href='#gpPt5' transform='translate(333.7,481.7) scale(2.25)' color='black'/>
	<use xlink:href='#gpPt5' transform='translate(346.6,495.1) scale(2.25)' color='black'/>
	<use xlink:href='#gpPt5' transform='translate(359.6,497.0) scale(2.25)' color='black'/>
	<use xlink:href='#gpPt5' transform='translate(372.6,508.2) scale(2.25)' color='black'/>
	<use xlink:href='#gpPt5' transform='translate(385.6,510.6) scale(2.25)' color='black'/>
	<use xlink:href='#gpPt5' transform='translate(398.5,516.2) scale(2.25)' color='black'/>
	<use xlink:href='#gpPt5' transform='translate(411.5,528.5) scale(2.25)' color='black'/>
	<use xlink:href='#gpPt5' transform='translate(424.5,529.2) scale(2.25)' color='black'/>
	<use xlink:href='#gpPt5' transform='translate(437.5,534.5) scale(2.25)' color='black'/>
	<use xlink:href='#gpPt5' transform='translate(450.4,542.1) scale(2.25)' color='black'/>
	<use xlink:href='#gpPt5' transform='translate(463.4,552.8) scale(2.25)' color='black'/>
	<use xlink:href='#gpPt5' transform='translate(476.4,562.7) scale(2.25)' color='black'/>
	<use xlink:href='#gpPt5' transform='translate(489.4,570.5) scale(2.25)' color='black'/>
	<use xlink:href='#gpPt5' transform='translate(502.4,577.5) scale(2.25)' color='black'/>
	<use xlink:href='#gpPt5' transform='translate(515.3,585.1) scale(2.25)' color='black'/>
	<use xlink:href='#gpPt5' transform='translate(528.3,592.7) scale(2.25)' color='black'/>
	<use xlink:href='#gpPt5' transform='translate(541.3,600.0) scale(2.25)' color='black'/>
	<use xlink:href='#gpPt5' transform='translate(554.3,610.7) scale(2.25)' color='black'/>
	<use xlink:href='#gpPt5' transform='translate(567.2,622.1) scale(2.25)' color='black'/>
	<use xlink:href='#gpPt5' transform='translate(580.2,629.0) scale(2.25)' color='black'/>
	<use xlink:href='#gpPt5' transform='translate(593.2,631.3) scale(2.25)' color='black'/>
	<use xlink:href='#gpPt5' transform='translate(606.2,637.9) scale(2.25)' color='black'/>
	<use xlink:href='#gpPt5' transform='translate(619.1,647.1) scale(2.25)' color='black'/>
	<use xlink:href='#gpPt5' transform='translate(632.1,651.6) scale(2.25)' color='black'/>
	<use xlink:href='#gpPt5' transform='translate(645.1,660.8) scale(2.25)' color='black'/>
	<use xlink:href='#gpPt5' transform='translate(658.1,666.8) scale(2.25)' color='black'/>
	<use xlink:href='#gpPt5' transform='translate(671.1,669.3) scale(2.25)' color='black'/>
	<use xlink:href='#gpPt5' transform='translate(684.0,672.1) scale(2.25)' color='black'/>
	<use xlink:href='#gpPt5' transform='translate(697.0,676.8) scale(2.25)' color='black'/>
	<use xlink:href='#gpPt5' transform='translate(710.0,676.7) scale(2.25)' color='black'/>
	<use xlink:href='#gpPt5' transform='translate(723.0,683.5) scale(2.25)' color='black'/>
	<use xlink:href='#gpPt5' transform='translate(735.9,681.5) scale(2.25)' color='black'/>
	<use xlink:href='#gpPt5' transform='translate(748.9,677.6) scale(2.25)' color='black'/>
	<use xlink:href='#gpPt5' transform='translate(761.9,682.4) scale(2.25)' color='black'/>
	<use xlink:href='#gpPt5' transform='translate(774.9,679.3) scale(2.25)' color='black'/>
	<use xlink:href='#gpPt5' transform='translate(787.8,676.5) scale(2.25)' color='black'/>
	<use xlink:href='#gpPt5' transform='translate(800.8,671.7) scale(2.25)' color='black'/>
	<use xlink:href='#gpPt5' transform='translate(813.8,672.8) scale(2.25)' color='black'/>
	<use xlink:href='#gpPt5' transform='translate(826.8,673.5) scale(2.25)' color='black'/>
	<use xlink:href='#gpPt5' transform='translate(839.7,666.4) scale(2.25)' color='black'/>
	<use xlink:href='#gpPt5' transform='translate(852.7,656.9) scale(2.25)' color='black'/>
	<use xlink:href='#gpPt5' transform='translate(865.7,649.3) scale(2.25)' color='black'/>
	<use xlink:href='#gpPt5' transform='translate(878.7,638.5) scale(2.25)' color='black'/>
	<use xlink:href='#gpPt5' transform='translate(891.7,633.7) scale(2.25)' color='black'/>
	<use xlink:href='#gpPt5' transform='translate(904.6,642.3) scale(2.25)' color='black'/>
	<use xlink:href='#gpPt5' transform='translate(917.6,637.0) scale(2.25)' color='black'/>
	<use xlink:href='#gpPt5' transform='translate(930.6,643.5) scale(2.25)' color='black'/>
	<use xlink:href='#gpPt5' transform='translate(943.6,649.4) scale(2.25)' color='black'/>
	<use xlink:href='#gpPt5' transform='translate(956.5,626.9) scale(2.25)' color='black'/>
	<use xlink:href='#gpPt5' transform='translate(969.5,600.9) scale(2.25)' color='black'/>
	<use xlink:href='#gpPt5' transform='translate(982.5,573.2) scale(2.25)' color='black'/>
	<use xlink:href='#gpPt5' transform='translate(995.5,550.8) scale(2.25)' color='black'/>
	<use xlink:href='#gpPt5' transform='translate(1008.4,547.6) scale(2.25)' color='black'/>
	<use xlink:href='#gpPt5' transform='translate(1021.4,565.0) scale(2.25)' color='black'/>
	<use xlink:href='#gpPt5' transform='translate(1034.4,579.7) scale(2.25)' color='black'/>
	<use xlink:href='#gpPt5' transform='translate(1047.4,583.6) scale(2.25)' color='black'/>
	<use xlink:href='#gpPt5' transform='translate(1060.3,583.1) scale(2.25)' color='black'/>
	<use xlink:href='#gpPt5' transform='translate(1073.3,586.6) scale(2.25)' color='black'/>
	<use xlink:href='#gpPt5' transform='translate(1086.3,589.3) scale(2.25)' color='black'/>
	<use xlink:href='#gpPt5' transform='translate(1099.3,592.1) scale(2.25)' color='black'/>
	<use xlink:href='#gpPt5' transform='translate(1112.3,595.9) scale(2.25)' color='black'/>
	<use xlink:href='#gpPt5' transform='translate(1125.2,597.1) scale(2.25)' color='black'/>
	<use xlink:href='#gpPt5' transform='translate(1138.2,598.0) scale(2.25)' color='black'/>
	<use xlink:href='#gpPt5' transform='translate(1151.2,601.0) scale(2.25)' color='black'/>
	<use xlink:href='#gpPt5' transform='translate(1164.2,601.3) scale(2.25)' color='black'/>
	<use xlink:href='#gpPt5' transform='translate(1177.1,599.0) scale(2.25)' color='black'/>
	<use xlink:href='#gpPt5' transform='translate(1190.1,602.0) scale(2.25)' color='black'/>
	<use xlink:href='#gpPt5' transform='translate(1203.1,596.8) scale(2.25)' color='black'/>
	<use xlink:href='#gpPt5' transform='translate(1216.1,589.1) scale(2.25)' color='black'/>
	<use xlink:href='#gpPt5' transform='translate(1229.0,578.5) scale(2.25)' color='black'/>
	<use xlink:href='#gpPt5' transform='translate(1242.0,553.2) scale(2.25)' color='black'/>
	<use xlink:href='#gpPt5' transform='translate(1255.0,519.8) scale(2.25)' color='black'/>
	<use xlink:href='#gpPt5' transform='translate(1217.3,72.1) scale(2.25)' color='black'/>
</g>
	</g>
	<g id="gnuplot_plot_2" ><title>2 (convex)</title>
<g fill="none" color="black" stroke="currentColor" stroke-width="1.00" stroke-linecap="butt" stroke-linejoin="miter">
	<g transform="translate(1187.9,94.0)" stroke="none" fill="black" font-family="Arial" font-size="12.00"  text-anchor="end">
		<text><tspan font-family="Arial" >2 (convex)</tspan></text>
	</g>
</g>
<g fill="none" color="black" stroke="currentColor" stroke-width="1.00" stroke-linecap="butt" stroke-linejoin="miter">
	<path stroke='rgb(  0, 158, 115)'  d='M1196.2,90.1 L1238.4,90.1 M87.1,57.2 L88.2,66.2 L89.4,87.8 L90.5,113.4 L91.7,138.2 L92.8,160.9
		L93.9,181.1 L95.1,199.1 L96.2,215.2 L97.4,229.7 L98.5,242.8 L99.7,254.6 L100.8,265.4 L101.9,275.3
		L103.1,284.3 L104.2,292.6 L105.4,300.2 L106.5,307.2 L107.6,313.7 L108.8,319.6 L109.9,325.1 L111.1,330.2
		L112.2,334.9 L113.4,339.3 L114.5,343.3 L115.6,347.0 L116.8,350.5 L117.9,353.8 L119.1,356.8 L120.2,359.6
		L121.3,362.2 L122.5,364.6 L123.6,366.9 L124.8,369.1 L125.9,371.1 L127.1,373.0 L128.2,374.8 L129.3,376.5
		L130.5,378.1 L131.6,379.6 L132.8,381.1 L133.9,382.5 L135.0,383.8 L136.2,385.1 L137.3,386.3 L138.5,387.5
		L139.6,388.7 L140.8,389.8 L141.9,390.8 L143.0,391.9 L144.2,392.9 L145.3,393.9 L146.5,394.9 L147.6,395.8
		L148.7,396.7 L149.9,397.6 L151.0,398.5 L152.2,399.4 L153.3,400.3 L154.5,401.1 L155.6,402.0 L156.7,402.8
		L157.9,403.6 L159.0,404.4 L160.2,405.2 L161.3,406.0 L162.4,406.8 L163.6,407.6 L164.7,408.4 L165.9,409.2
		L167.0,409.9 L168.2,410.7 L169.3,411.4 L170.4,412.2 L171.6,412.9 L172.7,413.7 L173.9,414.4 L175.0,415.2
		L176.1,415.9 L177.3,416.7 L178.4,417.4 L179.6,418.1 L180.7,418.9 L181.9,419.6 L183.0,420.3 L184.1,421.0
		L185.3,421.8 L186.4,422.5 L187.6,423.2 L188.7,423.9 L189.8,424.6 L191.0,425.3 L192.1,426.0 L193.3,426.8
		L194.4,427.5 L195.6,428.2 L196.7,428.9 L197.8,429.6 L199.0,430.3 L200.1,431.0 L201.3,431.7 L202.4,432.4
		L203.5,433.1 L204.7,433.8 L205.8,434.5 L207.0,435.2 L208.1,435.9 L209.3,436.6 L210.4,437.2 L211.5,437.9
		L212.7,438.6 L213.8,439.3 L215.0,440.0 L216.1,440.7 L217.2,441.4 L218.4,442.0 L219.5,442.7 L220.7,443.4
		L221.8,444.1 L223.0,444.7 L224.1,445.4 L225.2,446.1 L226.4,446.7 L227.5,447.4 L228.7,448.1 L229.8,448.7
		L230.9,449.4 L232.1,450.1 L233.2,450.7 L234.4,451.4 L235.5,452.0 L236.7,452.7 L237.8,453.3 L238.9,454.0
		L240.1,454.6 L241.2,455.3 L242.4,455.9 L243.5,456.6 L244.6,457.2 L245.8,457.9 L246.9,458.5 L248.1,459.1
		L249.2,459.8 L250.4,460.4 L251.5,461.0 L252.6,461.7 L253.8,462.3 L254.9,462.9 L256.1,463.5 L257.2,464.2
		L258.3,464.8 L259.5,465.4 L260.6,466.0 L261.8,466.6 L262.9,467.2 L264.1,467.9 L265.2,468.5 L266.3,469.1
		L267.5,469.7 L268.6,470.3 L269.8,470.9 L270.9,471.5 L272.0,472.1 L273.2,472.7 L274.3,473.3 L275.5,473.9
		L276.6,474.5 L277.8,475.0 L278.9,475.6 L280.0,476.2 L281.2,476.8 L282.3,477.4 L283.5,478.0 L284.6,478.5
		L285.7,479.1 L286.9,479.7 L288.0,480.3 L289.2,480.8 L290.3,481.4 L291.5,482.0 L292.6,482.5 L293.7,483.1
		L294.9,483.7 L296.0,484.2 L297.2,484.8 L298.3,485.3 L299.4,485.9 L300.6,486.4 L301.7,487.0 L302.9,487.5
		L304.0,488.1 L305.2,488.6 L306.3,489.2 L307.4,489.7 L308.6,490.3 L309.7,490.8 L310.9,491.3 L312.0,491.9
		L313.1,492.4 L314.3,492.9 L315.4,493.5 L316.6,494.0 L317.7,494.5 L318.9,495.1 L320.0,495.6 L321.1,496.1
		L322.3,496.6 L323.4,497.1 L324.6,497.6 L325.7,498.2 L326.8,498.7 L328.0,499.2 L329.1,499.7 L330.3,500.2
		L331.4,500.7 L332.6,501.2 L333.7,501.7 L334.8,502.2 L336.0,502.7 L337.1,503.2 L338.3,503.7 L339.4,504.2
		L340.5,504.7 L341.7,505.2 L342.8,505.7 L344.0,506.2 L345.1,506.6 L346.3,507.1 L347.4,507.6 L348.5,508.1
		L349.7,508.6 L350.8,509.1 L352.0,509.5 L353.1,510.0 L354.2,510.5 L355.4,510.9 L356.5,511.4 L357.7,511.9
		L358.8,512.4 L360.0,512.8 L361.1,513.3 L362.2,513.7 L363.4,514.2 L364.5,514.7 L365.7,515.1 L366.8,515.6
		L367.9,516.0 L369.1,516.5 L370.2,516.9 L371.4,517.4 L372.5,517.8 L373.7,518.3 L374.8,518.7 L375.9,519.2
		L377.1,519.6 L378.2,520.1 L379.4,520.5 L380.5,520.9 L381.6,521.4 L382.8,521.8 L383.9,522.2 L385.1,522.7
		L386.2,523.1 L387.4,523.5 L388.5,524.0 L389.6,524.4 L390.8,524.8 L391.9,525.2 L393.1,525.7 L394.2,526.1
		L395.3,526.5 L396.5,526.9 L397.6,527.4 L398.8,527.8 L399.9,528.2 L401.1,528.6 L402.2,529.0 L403.3,529.4
		L404.5,529.8 L405.6,530.2 L406.8,530.6 L407.9,531.1 L409.0,531.5 L410.2,531.9 L411.3,532.3 L412.5,532.7
		L413.6,533.1 L414.8,533.5 L415.9,533.9 L417.0,534.3 L418.2,534.6 L419.3,535.0 L420.5,535.4 L421.6,535.8
		L422.7,536.2 L423.9,536.6 L425.0,537.0 L426.2,537.4 L427.3,537.8 L428.5,538.1 L429.6,538.5 L430.7,538.9
		L431.9,539.3 L433.0,539.7 L434.2,540.0 L435.3,540.4 L436.4,540.8 L437.6,541.2 L438.7,541.5 L439.9,541.9
		L441.0,542.3 L442.2,542.6 L443.3,543.0 L444.4,543.4 L445.6,543.7 L446.7,544.1 L447.9,544.5 L449.0,544.8
		L450.1,545.2 L451.3,545.6 L452.4,545.9 L453.6,546.3 L454.7,546.6 L455.9,547.0 L457.0,547.3 L458.1,547.7
		L459.3,548.0 L460.4,548.4 L461.6,548.7 L462.7,549.1 L463.8,549.4 L465.0,549.8 L466.1,550.1 L467.3,550.5
		L468.4,550.8 L469.6,551.2 L470.7,551.5 L471.8,551.8 L473.0,552.2 L474.1,552.5 L475.3,552.9 L476.4,553.2
		L477.5,553.5 L478.7,553.9 L479.8,554.2 L481.0,554.5 L482.1,554.9 L483.2,555.2 L484.4,555.5 L485.5,555.9
		L486.7,556.2 L487.8,556.5 L489.0,556.8 L490.1,557.2 L491.2,557.5 L492.4,557.8 L493.5,558.1 L494.7,558.4
		L495.8,558.8 L496.9,559.1 L498.1,559.4 L499.2,559.7 L500.4,560.0 L501.5,560.3 L502.7,560.7 L503.8,561.0
		L504.9,561.3 L506.1,561.6 L507.2,561.9 L508.4,562.2 L509.5,562.5 L510.6,562.8 L511.8,563.1 L512.9,563.4
		L514.1,563.7 L515.2,564.0 L516.4,564.3 L517.5,564.6 L518.6,564.9 L519.8,565.2 L520.9,565.5 L522.1,565.8
		L523.2,566.1 L524.3,566.4 L525.5,566.7 L526.6,567.0 L527.8,567.3 L528.9,567.6 L530.1,567.9 L531.2,568.2
		L532.3,568.5 L533.5,568.8 L534.6,569.1 L535.8,569.4 L536.9,569.6 L538.0,569.9 L539.2,570.2 L540.3,570.5
		L541.5,570.8 L542.6,571.1 L543.8,571.3 L544.9,571.6 L546.0,571.9 L547.2,572.2 L548.3,572.5 L549.5,572.7
		L550.6,573.0 L551.7,573.3 L552.9,573.6 L554.0,573.8 L555.2,574.1 L556.3,574.4 L557.5,574.7 L558.6,574.9
		L559.7,575.2 L560.9,575.5 L562.0,575.7 L563.2,576.0 L564.3,576.3 L565.4,576.5 L566.6,576.8 L567.7,577.1
		L568.9,577.3 L570.0,577.6 L571.2,577.9 L572.3,578.1 L573.4,578.4 L574.6,578.6 L575.7,578.9 L576.9,579.2
		L578.0,579.4 L579.1,579.7 L580.3,579.9 L581.4,580.2 L582.6,580.4 L583.7,580.7 L584.9,580.9 L586.0,581.2
		L587.1,581.5 L588.3,581.7 L589.4,582.0 L590.6,582.2 L591.7,582.5 L592.8,582.7 L594.0,582.9 L595.1,583.2
		L596.3,583.4 L597.4,583.7 L598.6,583.9 L599.7,584.2 L600.8,584.4 L602.0,584.7 L603.1,584.9 L604.3,585.1
		L605.4,585.4 L606.5,585.6 L607.7,585.9 L608.8,586.1 L610.0,586.3 L611.1,586.6 L612.3,586.8 L613.4,587.0
		L614.5,587.3 L615.7,587.5 L616.8,587.8 L618.0,588.0 L619.1,588.2 L620.2,588.4 L621.4,588.7 L622.5,588.9
		L623.7,589.1 L624.8,589.4 L626.0,589.6 L627.1,589.8 L628.2,590.1 L629.4,590.3 L630.5,590.5 L631.7,590.7
		L632.8,591.0 L633.9,591.2 L635.1,591.4 L636.2,591.6 L637.4,591.8 L638.5,592.1 L639.7,592.3 L640.8,592.5
		L641.9,592.7 L643.1,592.9 L644.2,593.2 L645.4,593.4 L646.5,593.6 L647.6,593.8 L648.8,594.0 L649.9,594.2
		L651.1,594.5 L652.2,594.7 L653.4,594.9 L654.5,595.1 L655.6,595.3 L656.8,595.5 L657.9,595.7 L659.1,595.9
		L660.2,596.1 L661.3,596.4 L662.5,596.6 L663.6,596.8 L664.8,597.0 L665.9,597.2 L667.1,597.4 L668.2,597.6
		L669.3,597.8 L670.5,598.0 L671.6,598.2 L672.8,598.4 L673.9,598.6 L675.0,598.8 L676.2,599.0 L677.3,599.2
		L678.5,599.4 L679.6,599.6 L680.8,599.8 L681.9,600.0 L683.0,600.2 L684.2,600.4 L685.3,600.6 L686.5,600.8
		L687.6,601.0 L688.7,601.2 L689.9,601.4 L691.0,601.6 L692.2,601.8 L693.3,601.9 L694.5,602.1 L695.6,602.3
		L696.7,602.5 L697.9,602.7 L699.0,602.9 L700.2,603.1 L701.3,603.3 L702.4,603.5 L703.6,603.7 L704.7,603.8
		L705.9,604.0 L707.0,604.2 L708.2,604.4 L709.3,604.6 L710.4,604.8 L711.6,604.9 L712.7,605.1 L713.9,605.3
		L715.0,605.5 L716.1,605.7 L717.3,605.9 L718.4,606.0 L719.6,606.2 L720.7,606.4 L721.9,606.6 L723.0,606.7
		L724.1,606.9 L725.3,607.1 L726.4,607.3 L727.6,607.5 L728.7,607.6 L729.8,607.8 L731.0,608.0 L732.1,608.2
		L733.3,608.3 L734.4,608.5 L735.6,608.7 L736.7,608.8 L737.8,609.0 L739.0,609.2 L740.1,609.4 L741.3,609.5
		L742.4,609.7 L743.5,609.9 L744.7,610.0 L745.8,610.2 L747.0,610.4 L748.1,610.5 L749.3,610.7 L750.4,610.9
		L751.5,611.0 L752.7,611.2 L753.8,611.4 L755.0,611.5 L756.1,611.7 L757.2,611.8 L758.4,612.0 L759.5,612.2
		L760.7,612.3 L761.8,612.5 L763.0,612.6 L764.1,612.8 L765.2,613.0 L766.4,613.1 L767.5,613.3 L768.7,613.4
		L769.8,613.6 L770.9,613.8 L772.1,613.9 L773.2,614.1 L774.4,614.2 L775.5,614.4 L776.7,614.5 L777.8,614.7
		L778.9,614.8 L780.1,615.0 L781.2,615.1 L782.4,615.3 L783.5,615.4 L784.6,615.6 L785.8,615.7 L786.9,615.9
		L788.1,616.0 L789.2,616.2 L790.4,616.3 L791.5,616.5 L792.6,616.6 L793.8,616.8 L794.9,616.9 L796.1,617.1
		L797.2,617.2 L798.3,617.4 L799.5,617.5 L800.6,617.7 L801.8,617.8 L802.9,617.9 L804.1,618.1 L805.2,618.2
		L806.3,618.4 L807.5,618.5 L808.6,618.7 L809.8,618.8 L810.9,618.9 L812.0,619.1 L813.2,619.2 L814.3,619.4
		L815.5,619.5 L816.6,619.6 L817.8,619.8 L818.9,619.9 L820.0,620.0 L821.2,620.2 L822.3,620.3 L823.5,620.4
		L824.6,620.6 L825.7,620.7 L826.9,620.9 L828.0,621.0 L829.2,621.1 L830.3,621.3 L831.5,621.4 L832.6,621.5
		L833.7,621.6 L834.9,621.8 L836.0,621.9 L837.2,622.0 L838.3,622.2 L839.4,622.3 L840.6,622.4 L841.7,622.6
		L842.9,622.7 L844.0,622.8 L845.2,622.9 L846.3,623.1 L847.4,623.2 L848.6,623.3 L849.7,623.4 L850.9,623.6
		L852.0,623.7 L853.1,623.8 L854.3,623.9 L855.4,624.1 L856.6,624.2 L857.7,624.3 L858.9,624.4 L860.0,624.5
		L861.1,624.7 L862.3,624.8 L863.4,624.9 L864.6,625.0 L865.7,625.1 L866.8,625.3 L868.0,625.4 L869.1,625.5
		L870.3,625.6 L871.4,625.7 L872.5,625.9 L873.7,626.0 L874.8,626.1 L876.0,626.2 L877.1,626.3 L878.3,626.4
		L879.4,626.5 L880.5,626.7 L881.7,626.8 L882.8,626.9 L884.0,627.0 L885.1,627.1 L886.2,627.2 L887.4,627.3
		L888.5,627.4 L889.7,627.6 L890.8,627.7 L892.0,627.8 L893.1,627.9 L894.2,628.0 L895.4,628.1 L896.5,628.2
		L897.7,628.3 L898.8,628.4 L899.9,628.5 L901.1,628.6 L902.2,628.8 L903.4,628.9 L904.5,629.0 L905.7,629.1
		L906.8,629.2 L907.9,629.3 L909.1,629.4 L910.2,629.5 L911.4,629.6 L912.5,629.7 L913.6,629.8 L914.8,629.9
		L915.9,630.0 L917.1,630.1 L918.2,630.2 L919.4,630.3 L920.5,630.4 L921.6,630.5 L922.8,630.6 L923.9,630.7
		L925.1,630.8 L926.2,630.9 L927.3,631.0 L928.5,631.1 L929.6,631.2 L930.8,631.3 L931.9,631.4 L933.1,631.5
		L934.2,631.6 L935.3,631.7 L936.5,631.8 L937.6,631.9 L938.8,632.0 L939.9,632.0 L941.0,632.1 L942.2,632.2
		L943.3,632.3 L944.5,632.4 L945.6,632.5 L946.8,632.6 L947.9,632.7 L949.0,632.8 L950.2,632.9 L951.3,633.0
		L952.5,633.0 L953.6,633.1 L954.7,633.2 L955.9,633.3 L957.0,633.4 L958.2,633.5 L959.3,633.6 L960.5,633.7
		L961.6,633.8 L962.7,633.8 L963.9,633.9 L965.0,634.0 L966.2,634.1 L967.3,634.2 L968.4,634.3 L969.6,634.3
		L970.7,634.4 L971.9,634.5 L973.0,634.6 L974.2,634.7 L975.3,634.8 L976.4,634.8 L977.6,634.9 L978.7,635.0
		L979.9,635.1 L981.0,635.2 L982.1,635.2 L983.3,635.3 L984.4,635.4 L985.6,635.5 L986.7,635.6 L987.9,635.6
		L989.0,635.7 L990.1,635.8 L991.3,635.9 L992.4,635.9 L993.6,636.0 L994.7,636.1 L995.8,636.2 L997.0,636.3
		L998.1,636.3 L999.3,636.4 L1000.4,636.5 L1001.6,636.5 L1002.7,636.6 L1003.8,636.7 L1005.0,636.8 L1006.1,636.8
		L1007.3,636.9 L1008.4,637.0 L1009.5,637.1 L1010.7,637.1 L1011.8,637.2 L1013.0,637.3 L1014.1,637.3 L1015.3,637.4
		L1016.4,637.5 L1017.5,637.5 L1018.7,637.6 L1019.8,637.7 L1021.0,637.7 L1022.1,637.8 L1023.2,637.9 L1024.4,637.9
		L1025.5,638.0 L1026.7,638.1 L1027.8,638.1 L1029.0,638.2 L1030.1,638.3 L1031.2,638.3 L1032.4,638.4 L1033.5,638.5
		L1034.7,638.5 L1035.8,638.6 L1036.9,638.7 L1038.1,638.7 L1039.2,638.8 L1040.4,638.8 L1041.5,638.9 L1042.7,639.0
		L1043.8,639.0 L1044.9,639.1 L1046.1,639.2 L1047.2,639.2 L1048.4,639.3 L1049.5,639.3 L1050.6,639.4 L1051.8,639.4
		L1052.9,639.5 L1054.1,639.6 L1055.2,639.6 L1056.4,639.7 L1057.5,639.7 L1058.6,639.8 L1059.8,639.8 L1060.9,639.9
		L1062.1,640.0 L1063.2,640.0 L1064.3,640.1 L1065.5,640.1 L1066.6,640.2 L1067.8,640.2 L1068.9,640.3 L1070.1,640.3
		L1071.2,640.4 L1072.3,640.4 L1073.5,640.5 L1074.6,640.5 L1075.8,640.6 L1076.9,640.6 L1078.0,640.7 L1079.2,640.7
		L1080.3,640.8 L1081.5,640.8 L1082.6,640.9 L1083.8,640.9 L1084.9,641.0 L1086.0,641.0 L1087.2,641.1 L1088.3,641.1
		L1089.5,641.2 L1090.6,641.2 L1091.7,641.3 L1092.9,641.3 L1094.0,641.4 L1095.2,641.4 L1096.3,641.5 L1097.5,641.5
		L1098.6,641.5 L1099.7,641.6 L1100.9,641.6 L1102.0,641.7 L1103.2,641.7 L1104.3,641.8 L1105.4,641.8 L1106.6,641.9
		L1107.7,641.9 L1108.9,641.9 L1110.0,642.0 L1111.2,642.0 L1112.3,642.1 L1113.4,642.1 L1114.6,642.1 L1115.7,642.2
		L1116.9,642.2 L1118.0,642.3 L1119.1,642.3 L1120.3,642.3 L1121.4,642.4 L1122.6,642.4 L1123.7,642.4 L1124.9,642.5
		L1126.0,642.5 L1127.1,642.6 L1128.3,642.6 L1129.4,642.6 L1130.6,642.7 L1131.7,642.7 L1132.8,642.7 L1134.0,642.8
		L1135.1,642.8 L1136.3,642.8 L1137.4,642.9 L1138.6,642.9 L1139.7,642.9 L1140.8,643.0 L1142.0,643.0 L1143.1,643.0
		L1144.3,643.1 L1145.4,643.1 L1146.5,643.1 L1147.7,643.2 L1148.8,643.2 L1150.0,643.2 L1151.1,643.2 L1152.3,643.3
		L1153.4,643.3 L1154.5,643.3 L1155.7,643.4 L1156.8,643.4 L1158.0,643.4 L1159.1,643.4 L1160.2,643.5 L1161.4,643.5
		L1162.5,643.5 L1163.7,643.5 L1164.8,643.6 L1166.0,643.6 L1167.1,643.6 L1168.2,643.6 L1169.4,643.7 L1170.5,643.7
		L1171.7,643.7 L1172.8,643.7 L1173.9,643.8 L1175.1,643.8 L1176.2,643.8 L1177.4,643.8 L1178.5,643.8 L1179.7,643.9
		L1180.8,643.9 L1181.9,643.9 L1183.1,643.9 L1184.2,644.0 L1185.4,644.0 L1186.5,644.0 L1187.6,644.0 L1188.8,644.0
		L1189.9,644.0 L1191.1,644.1 L1192.2,644.1 L1193.4,644.1 L1194.5,644.1 L1195.6,644.1 L1196.8,644.2 L1197.9,644.2
		L1199.1,644.2 L1200.2,644.2 L1201.3,644.2 L1202.5,644.2 L1203.6,644.2 L1204.8,644.3 L1205.9,644.3 L1207.1,644.3
		L1208.2,644.3 L1209.3,644.3 L1210.5,644.3 L1211.6,644.3 L1212.8,644.3 L1213.9,644.4 L1215.0,644.4 L1216.2,644.4
		L1217.3,644.4 L1218.5,644.4 L1219.6,644.4 L1220.8,644.4 L1221.9,644.4 L1223.0,644.4 L1224.2,644.5 L1225.3,644.5
		L1226.5,644.5 L1227.6,644.5 L1228.7,644.5 L1229.9,644.5 L1231.0,644.5 L1232.2,644.5 L1233.3,644.5 L1234.5,644.5
		L1235.6,644.5 L1236.7,644.5 L1237.9,644.5 L1239.0,644.5 L1240.2,644.5 L1241.3,644.5 L1242.4,644.5 L1243.6,644.6
		L1244.7,644.6 L1245.9,644.6 L1247.0,644.6 L1248.2,644.6 L1249.3,644.6 L1250.4,644.6 L1251.6,644.6 L1252.7,644.6
		L1253.9,644.6 L1255.0,644.6  '/></g>
	</g>
	<g id="gnuplot_plot_3" ><title>4 (both)</title>
<g fill="none" color="black" stroke="currentColor" stroke-width="1.00" stroke-linecap="butt" stroke-linejoin="miter">
	<g transform="translate(1187.9,112.0)" stroke="none" fill="black" font-family="Arial" font-size="12.00"  text-anchor="end">
		<text><tspan font-family="Arial" >4 (both)</tspan></text>
	</g>
</g>
<g fill="none" color="black" stroke="currentColor" stroke-width="1.00" stroke-linecap="butt" stroke-linejoin="miter">
	<path stroke='rgb( 86, 180, 233)'  d='M1196.2,108.1 L1238.4,108.1 M87.1,54.1 L88.2,62.9 L89.4,84.2 L90.5,109.5 L91.7,134.2 L92.8,156.8
		L93.9,177.0 L95.1,195.1 L96.2,211.3 L97.4,225.9 L98.5,239.1 L99.7,251.2 L100.8,262.2 L101.9,272.3
		L103.1,281.6 L104.2,290.3 L105.4,298.2 L106.5,305.6 L107.6,312.5 L108.8,318.9 L109.9,324.8 L111.1,330.4
		L112.2,335.5 L113.4,340.3 L114.5,344.8 L115.6,349.0 L116.8,352.9 L117.9,356.6 L119.1,360.0 L120.2,363.2
		L121.3,366.2 L122.5,369.0 L123.6,371.6 L124.8,374.1 L125.9,376.4 L127.1,378.5 L128.2,380.5 L129.3,382.4
		L130.5,384.2 L131.6,385.9 L132.8,387.5 L133.9,389.0 L135.0,390.4 L136.2,391.8 L137.3,393.1 L138.5,394.3
		L139.6,395.4 L140.8,396.5 L141.9,397.6 L143.0,398.6 L144.2,399.6 L145.3,400.5 L146.5,401.4 L147.6,402.2
		L148.7,403.0 L149.9,403.8 L151.0,404.6 L152.2,405.3 L153.3,406.0 L154.5,406.7 L155.6,407.4 L156.7,408.1
		L157.9,408.7 L159.0,409.3 L160.2,409.9 L161.3,410.5 L162.4,411.1 L163.6,411.7 L164.7,412.3 L165.9,412.8
		L167.0,413.4 L168.2,413.9 L169.3,414.5 L170.4,415.0 L171.6,415.5 L172.7,416.0 L173.9,416.5 L175.0,417.0
		L176.1,417.5 L177.3,418.0 L178.4,418.5 L179.6,419.0 L180.7,419.5 L181.9,420.0 L183.0,420.5 L184.1,421.0
		L185.3,421.4 L186.4,421.9 L187.6,422.4 L188.7,422.9 L189.8,423.4 L191.0,423.8 L192.1,424.3 L193.3,424.8
		L194.4,425.2 L195.6,425.7 L196.7,426.2 L197.8,426.7 L199.0,427.1 L200.1,427.6 L201.3,428.1 L202.4,428.6
		L203.5,429.0 L204.7,429.5 L205.8,430.0 L207.0,430.4 L208.1,430.9 L209.3,431.4 L210.4,431.9 L211.5,432.4
		L212.7,432.8 L213.8,433.3 L215.0,433.8 L216.1,434.3 L217.2,434.7 L218.4,435.2 L219.5,435.7 L220.7,436.2
		L221.8,436.7 L223.0,437.2 L224.1,437.6 L225.2,438.1 L226.4,438.6 L227.5,439.1 L228.7,439.6 L229.8,440.1
		L230.9,440.6 L232.1,441.1 L233.2,441.6 L234.4,442.0 L235.5,442.5 L236.7,443.0 L237.8,443.5 L238.9,444.0
		L240.1,444.5 L241.2,445.0 L242.4,445.5 L243.5,446.0 L244.6,446.5 L245.8,447.0 L246.9,447.5 L248.1,448.0
		L249.2,448.6 L250.4,449.1 L251.5,449.6 L252.6,450.1 L253.8,450.6 L254.9,451.1 L256.1,451.6 L257.2,452.1
		L258.3,452.6 L259.5,453.1 L260.6,453.7 L261.8,454.2 L262.9,454.7 L264.1,455.2 L265.2,455.7 L266.3,456.3
		L267.5,456.8 L268.6,457.3 L269.8,457.8 L270.9,458.3 L272.0,458.9 L273.2,459.4 L274.3,459.9 L275.5,460.4
		L276.6,461.0 L277.8,461.5 L278.9,462.0 L280.0,462.5 L281.2,463.1 L282.3,463.6 L283.5,464.1 L284.6,464.7
		L285.7,465.2 L286.9,465.7 L288.0,466.3 L289.2,466.8 L290.3,467.3 L291.5,467.9 L292.6,468.4 L293.7,468.9
		L294.9,469.5 L296.0,470.0 L297.2,470.6 L298.3,471.1 L299.4,471.6 L300.6,472.2 L301.7,472.7 L302.9,473.3
		L304.0,473.8 L305.2,474.3 L306.3,474.9 L307.4,475.4 L308.6,476.0 L309.7,476.5 L310.9,477.1 L312.0,477.6
		L313.1,478.2 L314.3,478.7 L315.4,479.2 L316.6,479.8 L317.7,480.3 L318.9,480.9 L320.0,481.4 L321.1,482.0
		L322.3,482.5 L323.4,483.1 L324.6,483.6 L325.7,484.2 L326.8,484.8 L328.0,485.3 L329.1,485.9 L330.3,486.4
		L331.4,487.0 L332.6,487.5 L333.7,488.1 L334.8,488.6 L336.0,489.2 L337.1,489.7 L338.3,490.3 L339.4,490.9
		L340.5,491.4 L341.7,492.0 L342.8,492.5 L344.0,493.1 L345.1,493.7 L346.3,494.2 L347.4,494.8 L348.5,495.3
		L349.7,495.9 L350.8,496.5 L352.0,497.0 L353.1,497.6 L354.2,498.2 L355.4,498.7 L356.5,499.3 L357.7,499.8
		L358.8,500.4 L360.0,501.0 L361.1,501.5 L362.2,502.1 L363.4,502.7 L364.5,503.2 L365.7,503.8 L366.8,504.4
		L367.9,504.9 L369.1,505.5 L370.2,506.1 L371.4,506.6 L372.5,507.2 L373.7,507.8 L374.8,508.4 L375.9,508.9
		L377.1,509.5 L378.2,510.1 L379.4,510.6 L380.5,511.2 L381.6,511.8 L382.8,512.4 L383.9,512.9 L385.1,513.5
		L386.2,514.1 L387.4,514.7 L388.5,515.2 L389.6,515.8 L390.8,516.4 L391.9,517.0 L393.1,517.5 L394.2,518.1
		L395.3,518.7 L396.5,519.3 L397.6,519.9 L398.8,520.4 L399.9,521.0 L401.1,521.6 L402.2,522.2 L403.3,522.8
		L404.5,523.3 L405.6,523.9 L406.8,524.5 L407.9,525.1 L409.0,525.7 L410.2,526.2 L411.3,526.8 L412.5,527.4
		L413.6,528.0 L414.8,528.6 L415.9,529.2 L417.0,529.8 L418.2,530.3 L419.3,530.9 L420.5,531.5 L421.6,532.1
		L422.7,532.7 L423.9,533.3 L425.0,533.9 L426.2,534.5 L427.3,535.0 L428.5,535.6 L429.6,536.2 L430.7,536.8
		L431.9,537.4 L433.0,538.0 L434.2,538.6 L435.3,539.2 L436.4,539.8 L437.6,540.4 L438.7,541.0 L439.9,541.6
		L441.0,542.2 L442.2,542.8 L443.3,543.4 L444.4,544.0 L445.6,544.6 L446.7,545.2 L447.9,545.8 L449.0,546.3
		L450.1,547.0 L451.3,547.6 L452.4,548.2 L453.6,548.8 L454.7,549.4 L455.9,550.0 L457.0,550.6 L458.1,551.2
		L459.3,551.8 L460.4,552.4 L461.6,553.0 L462.7,553.6 L463.8,554.2 L465.0,554.8 L466.1,555.4 L467.3,556.0
		L468.4,556.6 L469.6,557.2 L470.7,557.8 L471.8,558.5 L473.0,559.1 L474.1,559.7 L475.3,560.3 L476.4,560.9
		L477.5,561.5 L478.7,562.1 L479.8,562.8 L481.0,563.4 L482.1,564.0 L483.2,564.6 L484.4,565.2 L485.5,565.8
		L486.7,566.5 L487.8,567.1 L489.0,567.7 L490.1,568.3 L491.2,568.9 L492.4,569.6 L493.5,570.2 L494.7,570.8
		L495.8,571.4 L496.9,572.1 L498.1,572.7 L499.2,573.3 L500.4,573.9 L501.5,574.6 L502.7,575.2 L503.8,575.8
		L504.9,576.5 L506.1,577.1 L507.2,577.7 L508.4,578.4 L509.5,579.0 L510.6,579.6 L511.8,580.3 L512.9,580.9
		L514.1,581.5 L515.2,582.2 L516.4,582.8 L517.5,583.4 L518.6,584.1 L519.8,584.7 L520.9,585.4 L522.1,586.0
		L523.2,586.6 L524.3,587.3 L525.5,587.9 L526.6,588.6 L527.8,589.2 L528.9,589.9 L530.1,590.5 L531.2,591.2
		L532.3,591.8 L533.5,592.4 L534.6,593.1 L535.8,593.7 L536.9,594.4 L538.0,595.0 L539.2,595.7 L540.3,596.4
		L541.5,597.0 L542.6,597.7 L543.8,598.3 L544.9,599.0 L546.0,599.6 L547.2,600.3 L548.3,600.9 L549.5,601.6
		L550.6,602.3 L551.7,602.9 L552.9,603.6 L554.0,604.2 L555.2,604.9 L556.3,605.6 L557.5,606.2 L558.6,606.9
		L559.7,607.6 L560.9,608.2 L562.0,608.9 L563.2,609.6 L564.3,610.2 L565.4,610.9 L566.6,611.6 L567.7,612.2
		L568.9,612.9 L570.0,613.6 L571.2,614.2 L572.3,614.9 L573.4,615.6 L574.6,616.2 L575.7,616.9 L576.9,617.6
		L578.0,618.3 L579.1,618.9 L580.3,619.6 L581.4,620.3 L582.6,620.9 L583.7,621.6 L584.9,622.3 L586.0,623.0
		L587.1,623.6 L588.3,624.3 L589.4,625.0 L590.6,625.7 L591.7,626.3 L592.8,627.0 L594.0,627.7 L595.1,628.4
		L596.3,629.0 L597.4,629.7 L598.6,630.4 L599.7,631.1 L600.8,631.7 L602.0,632.4 L603.1,633.1 L604.3,633.7
		L605.4,634.4 L606.5,635.1 L607.7,635.7 L608.8,636.4 L610.0,637.1 L611.1,637.8 L612.3,638.4 L613.4,639.1
		L614.5,639.7 L615.7,640.4 L616.8,641.1 L618.0,641.7 L619.1,642.4 L620.2,643.1 L621.4,643.7 L622.5,644.4
		L623.7,645.0 L624.8,645.7 L626.0,646.3 L627.1,647.0 L628.2,647.6 L629.4,648.3 L630.5,648.9 L631.7,649.5
		L632.8,650.2 L633.9,650.8 L635.1,651.4 L636.2,652.1 L637.4,652.7 L638.5,653.3 L639.7,653.9 L640.8,654.5
		L641.9,655.2 L643.1,655.8 L644.2,656.4 L645.4,657.0 L646.5,657.6 L647.6,658.2 L648.8,658.7 L649.9,659.3
		L651.1,659.9 L652.2,660.5 L653.4,661.1 L654.5,661.6 L655.6,662.2 L656.8,662.7 L657.9,663.3 L659.1,663.8
		L660.2,664.4 L661.3,664.9 L662.5,665.4 L663.6,666.0 L664.8,666.5 L665.9,667.0 L667.1,667.5 L668.2,668.0
		L669.3,668.5 L670.5,668.9 L671.6,669.4 L672.8,669.9 L673.9,670.3 L675.0,670.8 L676.2,671.2 L677.3,671.7
		L678.5,672.1 L679.6,672.5 L680.8,672.9 L681.9,673.3 L683.0,673.7 L684.2,674.1 L685.3,674.5 L686.5,674.8
		L687.6,675.2 L688.7,675.5 L689.9,675.9 L691.0,676.2 L692.2,676.5 L693.3,676.8 L694.5,677.1 L695.6,677.4
		L696.7,677.7 L697.9,678.0 L699.0,678.2 L700.2,678.5 L701.3,678.7 L702.4,678.9 L703.6,679.1 L704.7,679.3
		L705.9,679.5 L707.0,679.7 L708.2,679.9 L709.3,680.0 L710.4,680.2 L711.6,680.3 L712.7,680.4 L713.9,680.5
		L715.0,680.7 L716.1,680.7 L717.3,680.8 L718.4,680.9 L719.6,681.0 L720.7,681.0 L721.9,681.0 L723.0,681.1
		L724.1,681.1 L725.3,681.1 L726.4,681.1 L727.6,681.1 L728.7,681.1 L729.8,681.0 L731.0,681.0 L732.1,680.9
		L733.3,680.9 L734.4,680.8 L735.6,680.7 L736.7,680.6 L737.8,680.5 L739.0,680.4 L740.1,680.3 L741.3,680.1
		L742.4,680.0 L743.5,679.8 L744.7,679.7 L745.8,679.5 L747.0,679.4 L748.1,679.2 L749.3,679.0 L750.4,678.8
		L751.5,678.6 L752.7,678.4 L753.8,678.2 L755.0,677.9 L756.1,677.7 L757.2,677.5 L758.4,677.2 L759.5,677.0
		L760.7,676.7 L761.8,676.4 L763.0,676.2 L764.1,675.9 L765.2,675.6 L766.4,675.3 L767.5,675.0 L768.7,674.7
		L769.8,674.4 L770.9,674.1 L772.1,673.8 L773.2,673.5 L774.4,673.1 L775.5,672.8 L776.7,672.5 L777.8,672.2
		L778.9,671.8 L780.1,671.5 L781.2,671.1 L782.4,670.8 L783.5,670.4 L784.6,670.1 L785.8,669.7 L786.9,669.3
		L788.1,669.0 L789.2,668.6 L790.4,668.2 L791.5,667.9 L792.6,667.5 L793.8,667.1 L794.9,666.7 L796.1,666.4
		L797.2,666.0 L798.3,665.6 L799.5,665.2 L800.6,664.8 L801.8,664.4 L802.9,664.0 L804.1,663.6 L805.2,663.2
		L806.3,662.8 L807.5,662.4 L808.6,662.0 L809.8,661.6 L810.9,661.2 L812.0,660.8 L813.2,660.4 L814.3,660.0
		L815.5,659.6 L816.6,659.2 L817.8,658.8 L818.9,658.4 L820.0,658.0 L821.2,657.6 L822.3,657.2 L823.5,656.8
		L824.6,656.4 L825.7,656.0 L826.9,655.6 L828.0,655.2 L829.2,654.8 L830.3,654.4 L831.5,654.0 L832.6,653.6
		L833.7,653.2 L834.9,652.8 L836.0,652.4 L837.2,651.9 L838.3,651.5 L839.4,651.1 L840.6,650.7 L841.7,650.3
		L842.9,649.9 L844.0,649.5 L845.2,649.1 L846.3,648.7 L847.4,648.3 L848.6,647.9 L849.7,647.5 L850.9,647.1
		L852.0,646.7 L853.1,646.3 L854.3,645.9 L855.4,645.5 L856.6,645.1 L857.7,644.8 L858.9,644.4 L860.0,644.0
		L861.1,643.6 L862.3,643.2 L863.4,642.8 L864.6,642.4 L865.7,642.0 L866.8,641.6 L868.0,641.2 L869.1,640.9
		L870.3,640.5 L871.4,640.1 L872.5,639.7 L873.7,639.3 L874.8,638.9 L876.0,638.6 L877.1,638.2 L878.3,637.8
		L879.4,637.4 L880.5,637.1 L881.7,636.7 L882.8,636.3 L884.0,635.9 L885.1,635.6 L886.2,635.2 L887.4,634.8
		L888.5,634.5 L889.7,634.1 L890.8,633.7 L892.0,633.4 L893.1,633.0 L894.2,632.6 L895.4,632.3 L896.5,631.9
		L897.7,631.6 L898.8,631.2 L899.9,630.8 L901.1,630.5 L902.2,630.1 L903.4,629.8 L904.5,629.4 L905.7,629.1
		L906.8,628.7 L907.9,628.4 L909.1,628.0 L910.2,627.7 L911.4,627.3 L912.5,627.0 L913.6,626.6 L914.8,626.3
		L915.9,625.9 L917.1,625.6 L918.2,625.3 L919.4,624.9 L920.5,624.6 L921.6,624.3 L922.8,623.9 L923.9,623.6
		L925.1,623.2 L926.2,622.9 L927.3,622.6 L928.5,622.3 L929.6,621.9 L930.8,621.6 L931.9,621.3 L933.1,620.9
		L934.2,620.6 L935.3,620.3 L936.5,620.0 L937.6,619.7 L938.8,619.3 L939.9,619.0 L941.0,618.7 L942.2,618.4
		L943.3,618.1 L944.5,617.7 L945.6,617.4 L946.8,617.1 L947.9,616.8 L949.0,616.5 L950.2,616.2 L951.3,615.9
		L952.5,615.6 L953.6,615.3 L954.7,615.0 L955.9,614.7 L957.0,614.4 L958.2,614.1 L959.3,613.8 L960.5,613.5
		L961.6,613.2 L962.7,612.9 L963.9,612.6 L965.0,612.3 L966.2,612.0 L967.3,611.7 L968.4,611.4 L969.6,611.1
		L970.7,610.8 L971.9,610.5 L973.0,610.2 L974.2,609.9 L975.3,609.7 L976.4,609.4 L977.6,609.1 L978.7,608.8
		L979.9,608.5 L981.0,608.3 L982.1,608.0 L983.3,607.7 L984.4,607.4 L985.6,607.1 L986.7,606.9 L987.9,606.6
		L989.0,606.3 L990.1,606.0 L991.3,605.8 L992.4,605.5 L993.6,605.2 L994.7,605.0 L995.8,604.7 L997.0,604.4
		L998.1,604.2 L999.3,603.9 L1000.4,603.6 L1001.6,603.4 L1002.7,603.1 L1003.8,602.9 L1005.0,602.6 L1006.1,602.3
		L1007.3,602.1 L1008.4,601.8 L1009.5,601.6 L1010.7,601.3 L1011.8,601.1 L1013.0,600.8 L1014.1,600.6 L1015.3,600.3
		L1016.4,600.1 L1017.5,599.8 L1018.7,599.6 L1019.8,599.3 L1021.0,599.1 L1022.1,598.9 L1023.2,598.6 L1024.4,598.4
		L1025.5,598.1 L1026.7,597.9 L1027.8,597.7 L1029.0,597.4 L1030.1,597.2 L1031.2,596.9 L1032.4,596.7 L1033.5,596.5
		L1034.7,596.3 L1035.8,596.0 L1036.9,595.8 L1038.1,595.6 L1039.2,595.3 L1040.4,595.1 L1041.5,594.9 L1042.7,594.7
		L1043.8,594.4 L1044.9,594.2 L1046.1,594.0 L1047.2,593.8 L1048.4,593.6 L1049.5,593.3 L1050.6,593.1 L1051.8,592.9
		L1052.9,592.7 L1054.1,592.5 L1055.2,592.3 L1056.4,592.1 L1057.5,591.8 L1058.6,591.6 L1059.8,591.4 L1060.9,591.2
		L1062.1,591.0 L1063.2,590.8 L1064.3,590.6 L1065.5,590.4 L1066.6,590.2 L1067.8,590.0 L1068.9,589.8 L1070.1,589.6
		L1071.2,589.4 L1072.3,589.2 L1073.5,589.0 L1074.6,588.8 L1075.8,588.6 L1076.9,588.4 L1078.0,588.2 L1079.2,588.0
		L1080.3,587.9 L1081.5,587.7 L1082.6,587.5 L1083.8,587.3 L1084.9,587.1 L1086.0,586.9 L1087.2,586.7 L1088.3,586.6
		L1089.5,586.4 L1090.6,586.2 L1091.7,586.0 L1092.9,585.9 L1094.0,585.7 L1095.2,585.5 L1096.3,585.3 L1097.5,585.2
		L1098.6,585.0 L1099.7,584.8 L1100.9,584.6 L1102.0,584.5 L1103.2,584.3 L1104.3,584.1 L1105.4,584.0 L1106.6,583.8
		L1107.7,583.7 L1108.9,583.5 L1110.0,583.3 L1111.2,583.2 L1112.3,583.0 L1113.4,582.9 L1114.6,582.7 L1115.7,582.5
		L1116.9,582.4 L1118.0,582.2 L1119.1,582.1 L1120.3,581.9 L1121.4,581.8 L1122.6,581.6 L1123.7,581.5 L1124.9,581.4
		L1126.0,581.2 L1127.1,581.1 L1128.3,580.9 L1129.4,580.8 L1130.6,580.6 L1131.7,580.5 L1132.8,580.4 L1134.0,580.2
		L1135.1,580.1 L1136.3,580.0 L1137.4,579.8 L1138.6,579.7 L1139.7,579.6 L1140.8,579.4 L1142.0,579.3 L1143.1,579.2
		L1144.3,579.1 L1145.4,578.9 L1146.5,578.8 L1147.7,578.7 L1148.8,578.6 L1150.0,578.5 L1151.1,578.3 L1152.3,578.2
		L1153.4,578.1 L1154.5,578.0 L1155.7,577.9 L1156.8,577.8 L1158.0,577.7 L1159.1,577.5 L1160.2,577.4 L1161.4,577.3
		L1162.5,577.2 L1163.7,577.1 L1164.8,577.0 L1166.0,576.9 L1167.1,576.8 L1168.2,576.7 L1169.4,576.6 L1170.5,576.5
		L1171.7,576.4 L1172.8,576.3 L1173.9,576.2 L1175.1,576.1 L1176.2,576.1 L1177.4,576.0 L1178.5,575.9 L1179.7,575.8
		L1180.8,575.7 L1181.9,575.6 L1183.1,575.5 L1184.2,575.5 L1185.4,575.4 L1186.5,575.3 L1187.6,575.2 L1188.8,575.1
		L1189.9,575.1 L1191.1,575.0 L1192.2,574.9 L1193.4,574.8 L1194.5,574.8 L1195.6,574.7 L1196.8,574.6 L1197.9,574.6
		L1199.1,574.5 L1200.2,574.4 L1201.3,574.4 L1202.5,574.3 L1203.6,574.3 L1204.8,574.2 L1205.9,574.1 L1207.1,574.1
		L1208.2,574.0 L1209.3,574.0 L1210.5,573.9 L1211.6,573.9 L1212.8,573.8 L1213.9,573.8 L1215.0,573.7 L1216.2,573.7
		L1217.3,573.6 L1218.5,573.6 L1219.6,573.6 L1220.8,573.5 L1221.9,573.5 L1223.0,573.4 L1224.2,573.4 L1225.3,573.4
		L1226.5,573.3 L1227.6,573.3 L1228.7,573.3 L1229.9,573.2 L1231.0,573.2 L1232.2,573.2 L1233.3,573.2 L1234.5,573.1
		L1235.6,573.1 L1236.7,573.1 L1237.9,573.1 L1239.0,573.0 L1240.2,573.0 L1241.3,573.0 L1242.4,573.0 L1243.6,573.0
		L1244.7,573.0 L1245.9,573.0 L1247.0,573.0 L1248.2,572.9 L1249.3,572.9 L1250.4,572.9 L1251.6,572.9 L1252.7,572.9
		L1253.9,572.9 L1255.0,572.9  '/></g>
	</g>
	<g id="gnuplot_plot_4" ><title>8 (both)</title>
<g fill="none" color="black" stroke="currentColor" stroke-width="1.00" stroke-linecap="butt" stroke-linejoin="miter">
	<g transform="translate(1187.9,130.0)" stroke="none" fill="black" font-family="Arial" font-size="12.00"  text-anchor="end">
		<text><tspan font-family="Arial" >8 (both)</tspan></text>
	</g>
</g>
<g fill="none" color="black" stroke="currentColor" stroke-width="1.00" stroke-linecap="butt" stroke-linejoin="miter">
	<path stroke='rgb(230, 159,   0)'  d='M1196.2,126.1 L1238.4,126.1 M87.1,66.7 L88.2,72.1 L89.4,86.8 L90.5,107.3 L91.7,130.0 L92.8,152.9
		L93.9,174.7 L95.1,195.0 L96.2,213.5 L97.4,230.4 L98.5,245.6 L99.7,259.4 L100.8,271.8 L101.9,283.0
		L103.1,293.2 L104.2,302.4 L105.4,310.7 L106.5,318.2 L107.6,324.9 L108.8,331.1 L109.9,336.6 L111.1,341.6
		L112.2,346.2 L113.4,350.3 L114.5,354.0 L115.6,357.4 L116.8,360.4 L117.9,363.2 L119.1,365.8 L120.2,368.1
		L121.3,370.2 L122.5,372.2 L123.6,373.9 L124.8,375.6 L125.9,377.1 L127.1,378.5 L128.2,379.8 L129.3,381.0
		L130.5,382.2 L131.6,383.2 L132.8,384.2 L133.9,385.2 L135.0,386.0 L136.2,386.9 L137.3,387.7 L138.5,388.5
		L139.6,389.2 L140.8,389.9 L141.9,390.6 L143.0,391.2 L144.2,391.8 L145.3,392.5 L146.5,393.1 L147.6,393.6
		L148.7,394.2 L149.9,394.7 L151.0,395.3 L152.2,395.8 L153.3,396.3 L154.5,396.9 L155.6,397.4 L156.7,397.9
		L157.9,398.4 L159.0,398.9 L160.2,399.3 L161.3,399.8 L162.4,400.3 L163.6,400.8 L164.7,401.3 L165.9,401.8
		L167.0,402.2 L168.2,402.7 L169.3,403.2 L170.4,403.6 L171.6,404.1 L172.7,404.6 L173.9,405.1 L175.0,405.5
		L176.1,406.0 L177.3,406.5 L178.4,407.0 L179.6,407.4 L180.7,407.9 L181.9,408.4 L183.0,408.9 L184.1,409.3
		L185.3,409.8 L186.4,410.3 L187.6,410.8 L188.7,411.3 L189.8,411.8 L191.0,412.3 L192.1,412.8 L193.3,413.2
		L194.4,413.7 L195.6,414.2 L196.7,414.7 L197.8,415.2 L199.0,415.7 L200.1,416.2 L201.3,416.7 L202.4,417.3
		L203.5,417.8 L204.7,418.3 L205.8,418.8 L207.0,419.3 L208.1,419.8 L209.3,420.3 L210.4,420.9 L211.5,421.4
		L212.7,421.9 L213.8,422.4 L215.0,423.0 L216.1,423.5 L217.2,424.0 L218.4,424.5 L219.5,425.1 L220.7,425.6
		L221.8,426.2 L223.0,426.7 L224.1,427.2 L225.2,427.8 L226.4,428.3 L227.5,428.9 L228.7,429.4 L229.8,430.0
		L230.9,430.5 L232.1,431.1 L233.2,431.6 L234.4,432.2 L235.5,432.7 L236.7,433.3 L237.8,433.8 L238.9,434.4
		L240.1,435.0 L241.2,435.5 L242.4,436.1 L243.5,436.6 L244.6,437.2 L245.8,437.8 L246.9,438.4 L248.1,438.9
		L249.2,439.5 L250.4,440.1 L251.5,440.6 L252.6,441.2 L253.8,441.8 L254.9,442.4 L256.1,442.9 L257.2,443.5
		L258.3,444.1 L259.5,444.7 L260.6,445.3 L261.8,445.8 L262.9,446.4 L264.1,447.0 L265.2,447.6 L266.3,448.2
		L267.5,448.8 L268.6,449.4 L269.8,450.0 L270.9,450.5 L272.0,451.1 L273.2,451.7 L274.3,452.3 L275.5,452.9
		L276.6,453.5 L277.8,454.1 L278.9,454.7 L280.0,455.3 L281.2,455.9 L282.3,456.5 L283.5,457.1 L284.6,457.7
		L285.7,458.3 L286.9,458.9 L288.0,459.5 L289.2,460.1 L290.3,460.7 L291.5,461.3 L292.6,461.9 L293.7,462.5
		L294.9,463.1 L296.0,463.7 L297.2,464.3 L298.3,464.9 L299.4,465.5 L300.6,466.1 L301.7,466.7 L302.9,467.3
		L304.0,467.9 L305.2,468.5 L306.3,469.1 L307.4,469.8 L308.6,470.4 L309.7,471.0 L310.9,471.6 L312.0,472.2
		L313.1,472.8 L314.3,473.4 L315.4,474.0 L316.6,474.6 L317.7,475.2 L318.9,475.9 L320.0,476.5 L321.1,477.1
		L322.3,477.7 L323.4,478.3 L324.6,478.9 L325.7,479.5 L326.8,480.1 L328.0,480.8 L329.1,481.4 L330.3,482.0
		L331.4,482.6 L332.6,483.2 L333.7,483.8 L334.8,484.4 L336.0,485.1 L337.1,485.7 L338.3,486.3 L339.4,486.9
		L340.5,487.5 L341.7,488.1 L342.8,488.8 L344.0,489.4 L345.1,490.0 L346.3,490.6 L347.4,491.2 L348.5,491.8
		L349.7,492.4 L350.8,493.1 L352.0,493.7 L353.1,494.3 L354.2,494.9 L355.4,495.5 L356.5,496.2 L357.7,496.8
		L358.8,497.4 L360.0,498.0 L361.1,498.6 L362.2,499.2 L363.4,499.9 L364.5,500.5 L365.7,501.1 L366.8,501.7
		L367.9,502.3 L369.1,502.9 L370.2,503.6 L371.4,504.2 L372.5,504.8 L373.7,505.4 L374.8,506.0 L375.9,506.7
		L377.1,507.3 L378.2,507.9 L379.4,508.5 L380.5,509.1 L381.6,509.8 L382.8,510.4 L383.9,511.0 L385.1,511.6
		L386.2,512.2 L387.4,512.8 L388.5,513.5 L389.6,514.1 L390.8,514.7 L391.9,515.3 L393.1,515.9 L394.2,516.6
		L395.3,517.2 L396.5,517.8 L397.6,518.4 L398.8,519.0 L399.9,519.7 L401.1,520.3 L402.2,520.9 L403.3,521.5
		L404.5,522.1 L405.6,522.8 L406.8,523.4 L407.9,524.0 L409.0,524.6 L410.2,525.2 L411.3,525.9 L412.5,526.5
		L413.6,527.1 L414.8,527.7 L415.9,528.3 L417.0,529.0 L418.2,529.6 L419.3,530.2 L420.5,530.8 L421.6,531.5
		L422.7,532.1 L423.9,532.7 L425.0,533.3 L426.2,533.9 L427.3,534.6 L428.5,535.2 L429.6,535.8 L430.7,536.4
		L431.9,537.1 L433.0,537.7 L434.2,538.3 L435.3,538.9 L436.4,539.5 L437.6,540.2 L438.7,540.8 L439.9,541.4
		L441.0,542.0 L442.2,542.7 L443.3,543.3 L444.4,543.9 L445.6,544.5 L446.7,545.2 L447.9,545.8 L449.0,546.4
		L450.1,547.0 L451.3,547.7 L452.4,548.3 L453.6,548.9 L454.7,549.5 L455.9,550.2 L457.0,550.8 L458.1,551.4
		L459.3,552.0 L460.4,552.7 L461.6,553.3 L462.7,553.9 L463.8,554.5 L465.0,555.2 L466.1,555.8 L467.3,556.4
		L468.4,557.0 L469.6,557.7 L470.7,558.3 L471.8,558.9 L473.0,559.6 L474.1,560.2 L475.3,560.8 L476.4,561.5
		L477.5,562.1 L478.7,562.7 L479.8,563.3 L481.0,564.0 L482.1,564.6 L483.2,565.2 L484.4,565.9 L485.5,566.5
		L486.7,567.1 L487.8,567.8 L489.0,568.4 L490.1,569.0 L491.2,569.7 L492.4,570.3 L493.5,570.9 L494.7,571.6
		L495.8,572.2 L496.9,572.8 L498.1,573.5 L499.2,574.1 L500.4,574.7 L501.5,575.4 L502.7,576.0 L503.8,576.7
		L504.9,577.3 L506.1,577.9 L507.2,578.6 L508.4,579.2 L509.5,579.8 L510.6,580.5 L511.8,581.1 L512.9,581.8
		L514.1,582.4 L515.2,583.1 L516.4,583.7 L517.5,584.3 L518.6,585.0 L519.8,585.6 L520.9,586.3 L522.1,586.9
		L523.2,587.6 L524.3,588.2 L525.5,588.8 L526.6,589.5 L527.8,590.1 L528.9,590.8 L530.1,591.4 L531.2,592.1
		L532.3,592.7 L533.5,593.4 L534.6,594.0 L535.8,594.7 L536.9,595.3 L538.0,596.0 L539.2,596.6 L540.3,597.3
		L541.5,597.9 L542.6,598.6 L543.8,599.2 L544.9,599.9 L546.0,600.5 L547.2,601.2 L548.3,601.8 L549.5,602.5
		L550.6,603.1 L551.7,603.8 L552.9,604.5 L554.0,605.1 L555.2,605.8 L556.3,606.4 L557.5,607.1 L558.6,607.7
		L559.7,608.4 L560.9,609.0 L562.0,609.7 L563.2,610.4 L564.3,611.0 L565.4,611.7 L566.6,612.3 L567.7,613.0
		L568.9,613.7 L570.0,614.3 L571.2,615.0 L572.3,615.6 L573.4,616.3 L574.6,617.0 L575.7,617.6 L576.9,618.3
		L578.0,619.0 L579.1,619.6 L580.3,620.3 L581.4,620.9 L582.6,621.6 L583.7,622.3 L584.9,622.9 L586.0,623.6
		L587.1,624.3 L588.3,624.9 L589.4,625.6 L590.6,626.3 L591.7,626.9 L592.8,627.6 L594.0,628.2 L595.1,628.9
		L596.3,629.6 L597.4,630.2 L598.6,630.9 L599.7,631.6 L600.8,632.2 L602.0,632.9 L603.1,633.5 L604.3,634.2
		L605.4,634.9 L606.5,635.5 L607.7,636.2 L608.8,636.8 L610.0,637.5 L611.1,638.1 L612.3,638.8 L613.4,639.5
		L614.5,640.1 L615.7,640.8 L616.8,641.4 L618.0,642.1 L619.1,642.7 L620.2,643.4 L621.4,644.0 L622.5,644.7
		L623.7,645.3 L624.8,646.0 L626.0,646.6 L627.1,647.2 L628.2,647.9 L629.4,648.5 L630.5,649.2 L631.7,649.8
		L632.8,650.4 L633.9,651.1 L635.1,651.7 L636.2,652.3 L637.4,652.9 L638.5,653.6 L639.7,654.2 L640.8,654.8
		L641.9,655.4 L643.1,656.0 L644.2,656.6 L645.4,657.2 L646.5,657.8 L647.6,658.4 L648.8,659.0 L649.9,659.6
		L651.1,660.2 L652.2,660.8 L653.4,661.4 L654.5,661.9 L655.6,662.5 L656.8,663.1 L657.9,663.6 L659.1,664.2
		L660.2,664.7 L661.3,665.3 L662.5,665.8 L663.6,666.4 L664.8,666.9 L665.9,667.4 L667.1,667.9 L668.2,668.5
		L669.3,669.0 L670.5,669.5 L671.6,670.0 L672.8,670.5 L673.9,671.0 L675.0,671.4 L676.2,671.9 L677.3,672.4
		L678.5,672.8 L679.6,673.3 L680.8,673.7 L681.9,674.2 L683.0,674.6 L684.2,675.0 L685.3,675.4 L686.5,675.8
		L687.6,676.2 L688.7,676.6 L689.9,677.0 L691.0,677.3 L692.2,677.7 L693.3,678.1 L694.5,678.4 L695.6,678.7
		L696.7,679.1 L697.9,679.4 L699.0,679.7 L700.2,680.0 L701.3,680.3 L702.4,680.5 L703.6,680.8 L704.7,681.0
		L705.9,681.3 L707.0,681.5 L708.2,681.8 L709.3,682.0 L710.4,682.2 L711.6,682.4 L712.7,682.5 L713.9,682.7
		L715.0,682.9 L716.1,683.0 L717.3,683.2 L718.4,683.3 L719.6,683.4 L720.7,683.5 L721.9,683.6 L723.0,683.7
		L724.1,683.8 L725.3,683.8 L726.4,683.9 L727.6,683.9 L728.7,684.0 L729.8,684.0 L731.0,684.0 L732.1,684.0
		L733.3,684.0 L734.4,684.0 L735.6,683.9 L736.7,683.9 L737.8,683.8 L739.0,683.8 L740.1,683.7 L741.3,683.6
		L742.4,683.5 L743.5,683.4 L744.7,683.3 L745.8,683.2 L747.0,683.1 L748.1,683.0 L749.3,682.8 L750.4,682.7
		L751.5,682.5 L752.7,682.3 L753.8,682.1 L755.0,682.0 L756.1,681.8 L757.2,681.6 L758.4,681.4 L759.5,681.1
		L760.7,680.9 L761.8,680.7 L763.0,680.4 L764.1,680.2 L765.2,679.9 L766.4,679.7 L767.5,679.4 L768.7,679.1
		L769.8,678.8 L770.9,678.6 L772.1,678.3 L773.2,678.0 L774.4,677.7 L775.5,677.4 L776.7,677.0 L777.8,676.7
		L778.9,676.4 L780.1,676.1 L781.2,675.7 L782.4,675.4 L783.5,675.1 L784.6,674.7 L785.8,674.4 L786.9,674.0
		L788.1,673.7 L789.2,673.3 L790.4,672.9 L791.5,672.6 L792.6,672.2 L793.8,671.8 L794.9,671.4 L796.1,671.1
		L797.2,670.7 L798.3,670.3 L799.5,669.9 L800.6,669.5 L801.8,669.1 L802.9,668.7 L804.1,668.3 L805.2,667.9
		L806.3,667.5 L807.5,667.1 L808.6,666.7 L809.8,666.3 L810.9,665.9 L812.0,665.5 L813.2,665.1 L814.3,664.7
		L815.5,664.2 L816.6,663.8 L817.8,663.4 L818.9,663.0 L820.0,662.6 L821.2,662.2 L822.3,661.7 L823.5,661.3
		L824.6,660.9 L825.7,660.5 L826.9,660.1 L828.0,659.6 L829.2,659.2 L830.3,658.8 L831.5,658.4 L832.6,657.9
		L833.7,657.5 L834.9,657.1 L836.0,656.7 L837.2,656.2 L838.3,655.8 L839.4,655.4 L840.6,655.0 L841.7,654.5
		L842.9,654.1 L844.0,653.7 L845.2,653.3 L846.3,652.9 L847.4,652.4 L848.6,652.0 L849.7,651.6 L850.9,651.2
		L852.0,650.7 L853.1,650.3 L854.3,649.9 L855.4,649.5 L856.6,649.1 L857.7,648.6 L858.9,648.2 L860.0,647.8
		L861.1,647.4 L862.3,647.0 L863.4,646.6 L864.6,646.2 L865.7,645.7 L866.8,645.3 L868.0,644.9 L869.1,644.5
		L870.3,644.1 L871.4,643.7 L872.5,643.3 L873.7,642.9 L874.8,642.5 L876.0,642.1 L877.1,641.7 L878.3,641.3
		L879.4,640.9 L880.5,640.5 L881.7,640.1 L882.8,639.7 L884.0,639.3 L885.1,638.9 L886.2,638.5 L887.4,638.1
		L888.5,637.7 L889.7,637.3 L890.8,636.9 L892.0,636.5 L893.1,636.1 L894.2,635.7 L895.4,635.3 L896.5,634.9
		L897.7,634.6 L898.8,634.2 L899.9,633.8 L901.1,633.4 L902.2,633.0 L903.4,632.6 L904.5,632.3 L905.7,631.9
		L906.8,631.5 L907.9,631.1 L909.1,630.8 L910.2,630.4 L911.4,630.0 L912.5,629.7 L913.6,629.3 L914.8,628.9
		L915.9,628.6 L917.1,628.2 L918.2,627.8 L919.4,627.5 L920.5,627.1 L921.6,626.7 L922.8,626.4 L923.9,626.0
		L925.1,625.7 L926.2,625.3 L927.3,624.9 L928.5,624.6 L929.6,624.2 L930.8,623.9 L931.9,623.5 L933.1,623.2
		L934.2,622.8 L935.3,622.5 L936.5,622.2 L937.6,621.8 L938.8,621.5 L939.9,621.1 L941.0,620.8 L942.2,620.4
		L943.3,620.1 L944.5,619.8 L945.6,619.4 L946.8,619.1 L947.9,618.8 L949.0,618.4 L950.2,618.1 L951.3,617.8
		L952.5,617.4 L953.6,617.1 L954.7,616.8 L955.9,616.5 L957.0,616.1 L958.2,615.8 L959.3,615.5 L960.5,615.2
		L961.6,614.9 L962.7,614.5 L963.9,614.2 L965.0,613.9 L966.2,613.6 L967.3,613.3 L968.4,613.0 L969.6,612.7
		L970.7,612.4 L971.9,612.0 L973.0,611.7 L974.2,611.4 L975.3,611.1 L976.4,610.8 L977.6,610.5 L978.7,610.2
		L979.9,609.9 L981.0,609.6 L982.1,609.3 L983.3,609.0 L984.4,608.7 L985.6,608.4 L986.7,608.2 L987.9,607.9
		L989.0,607.6 L990.1,607.3 L991.3,607.0 L992.4,606.7 L993.6,606.4 L994.7,606.1 L995.8,605.9 L997.0,605.6
		L998.1,605.3 L999.3,605.0 L1000.4,604.7 L1001.6,604.5 L1002.7,604.2 L1003.8,603.9 L1005.0,603.6 L1006.1,603.4
		L1007.3,603.1 L1008.4,602.8 L1009.5,602.6 L1010.7,602.3 L1011.8,602.0 L1013.0,601.8 L1014.1,601.5 L1015.3,601.2
		L1016.4,601.0 L1017.5,600.7 L1018.7,600.5 L1019.8,600.2 L1021.0,599.9 L1022.1,599.7 L1023.2,599.4 L1024.4,599.2
		L1025.5,598.9 L1026.7,598.7 L1027.8,598.4 L1029.0,598.2 L1030.1,597.9 L1031.2,597.7 L1032.4,597.4 L1033.5,597.2
		L1034.7,597.0 L1035.8,596.7 L1036.9,596.5 L1038.1,596.2 L1039.2,596.0 L1040.4,595.8 L1041.5,595.5 L1042.7,595.3
		L1043.8,595.1 L1044.9,594.8 L1046.1,594.6 L1047.2,594.4 L1048.4,594.1 L1049.5,593.9 L1050.6,593.7 L1051.8,593.5
		L1052.9,593.2 L1054.1,593.0 L1055.2,592.8 L1056.4,592.6 L1057.5,592.4 L1058.6,592.1 L1059.8,591.9 L1060.9,591.7
		L1062.1,591.5 L1063.2,591.3 L1064.3,591.1 L1065.5,590.9 L1066.6,590.7 L1067.8,590.4 L1068.9,590.2 L1070.1,590.0
		L1071.2,589.8 L1072.3,589.6 L1073.5,589.4 L1074.6,589.2 L1075.8,589.0 L1076.9,588.8 L1078.0,588.6 L1079.2,588.4
		L1080.3,588.2 L1081.5,588.0 L1082.6,587.8 L1083.8,587.7 L1084.9,587.5 L1086.0,587.3 L1087.2,587.1 L1088.3,586.9
		L1089.5,586.7 L1090.6,586.5 L1091.7,586.4 L1092.9,586.2 L1094.0,586.0 L1095.2,585.8 L1096.3,585.6 L1097.5,585.5
		L1098.6,585.3 L1099.7,585.1 L1100.9,584.9 L1102.0,584.8 L1103.2,584.6 L1104.3,584.4 L1105.4,584.3 L1106.6,584.1
		L1107.7,583.9 L1108.9,583.8 L1110.0,583.6 L1111.2,583.4 L1112.3,583.3 L1113.4,583.1 L1114.6,583.0 L1115.7,582.8
		L1116.9,582.6 L1118.0,582.5 L1119.1,582.3 L1120.3,582.2 L1121.4,582.0 L1122.6,581.9 L1123.7,581.7 L1124.9,581.6
		L1126.0,581.4 L1127.1,581.3 L1128.3,581.1 L1129.4,581.0 L1130.6,580.9 L1131.7,580.7 L1132.8,580.6 L1134.0,580.5
		L1135.1,580.3 L1136.3,580.2 L1137.4,580.0 L1138.6,579.9 L1139.7,579.8 L1140.8,579.7 L1142.0,579.5 L1143.1,579.4
		L1144.3,579.3 L1145.4,579.1 L1146.5,579.0 L1147.7,578.9 L1148.8,578.8 L1150.0,578.7 L1151.1,578.5 L1152.3,578.4
		L1153.4,578.3 L1154.5,578.2 L1155.7,578.1 L1156.8,578.0 L1158.0,577.9 L1159.1,577.7 L1160.2,577.6 L1161.4,577.5
		L1162.5,577.4 L1163.7,577.3 L1164.8,577.2 L1166.0,577.1 L1167.1,577.0 L1168.2,576.9 L1169.4,576.8 L1170.5,576.7
		L1171.7,576.6 L1172.8,576.5 L1173.9,576.4 L1175.1,576.3 L1176.2,576.3 L1177.4,576.2 L1178.5,576.1 L1179.7,576.0
		L1180.8,575.9 L1181.9,575.8 L1183.1,575.7 L1184.2,575.7 L1185.4,575.6 L1186.5,575.5 L1187.6,575.4 L1188.8,575.3
		L1189.9,575.3 L1191.1,575.2 L1192.2,575.1 L1193.4,575.0 L1194.5,575.0 L1195.6,574.9 L1196.8,574.8 L1197.9,574.8
		L1199.1,574.7 L1200.2,574.6 L1201.3,574.6 L1202.5,574.5 L1203.6,574.5 L1204.8,574.4 L1205.9,574.3 L1207.1,574.3
		L1208.2,574.2 L1209.3,574.2 L1210.5,574.1 L1211.6,574.1 L1212.8,574.0 L1213.9,574.0 L1215.0,573.9 L1216.2,573.9
		L1217.3,573.8 L1218.5,573.8 L1219.6,573.8 L1220.8,573.7 L1221.9,573.7 L1223.0,573.6 L1224.2,573.6 L1225.3,573.6
		L1226.5,573.5 L1227.6,573.5 L1228.7,573.5 L1229.9,573.5 L1231.0,573.4 L1232.2,573.4 L1233.3,573.4 L1234.5,573.3
		L1235.6,573.3 L1236.7,573.3 L1237.9,573.3 L1239.0,573.3 L1240.2,573.2 L1241.3,573.2 L1242.4,573.2 L1243.6,573.2
		L1244.7,573.2 L1245.9,573.2 L1247.0,573.2 L1248.2,573.2 L1249.3,573.1 L1250.4,573.1 L1251.6,573.1 L1252.7,573.1
		L1253.9,573.1 L1255.0,573.1  '/></g>
	</g>
<g fill="none" color="white" stroke="rgb(230, 159,   0)" stroke-width="2.00" stroke-linecap="butt" stroke-linejoin="miter">
</g>
<g fill="none" color="black" stroke="currentColor" stroke-width="2.00" stroke-linecap="butt" stroke-linejoin="miter">
</g>
<g fill="none" color="black" stroke="black" stroke-width="1.00" stroke-linecap="butt" stroke-linejoin="miter">
</g>
<g fill="none" color="black" stroke="currentColor" stroke-width="1.00" stroke-linecap="butt" stroke-linejoin="miter">
	<path stroke='black'  d='M87.1,54.1 L87.1,684.0 L1255.0,684.0 L1255.0,54.1 L87.1,54.1 Z  '/></g>
<g fill="none" color="black" stroke="currentColor" stroke-width="1.00" stroke-linecap="butt" stroke-linejoin="miter">
</g>
</g>
</svg>

