<?xml version="1.0" encoding="utf-8"  standalone="no"?>
<svg 
 width="1280" height="720"
 viewBox="0 0 1280 720"
 xmlns="http://www.w3.org/2000/svg"
 xmlns:xlink="http://www.w3.org/1999/xlink"
>

<title>Gnuplot</title>
<desc>Produced by GNUPLOT 5.0 patchlevel 6 </desc>

<g id="gnuplot_canvas">

<rect x="0" y="0" width="1280" height="720" fill="none"/>
<defs>

	<circle id='gpDot' r='0.5' stroke-width='0.5'/>
	<path id='gpPt0' stroke-width='0.222' stroke='currentColor' d='M-1,0 h2 M0,-1 v2'/>
	<path id='gpPt1' stroke-width='0.222' stroke='currentColor' d='M-1,-1 L1,1 M1,-1 L-1,1'/>
	<path id='gpPt2' stroke-width='0.222' stroke='currentColor' d='M-1,0 L1,0 M0,-1 L0,1 M-1,-1 L1,1 M-1,1 L1,-1'/>
	<rect id='gpPt3' stroke-width='0.222' stroke='currentColor' x='-1' y='-1' width='2' height='2'/>
	<rect id='gpPt4' stroke-width='0.222' stroke='currentColor' fill='currentColor' x='-1' y='-1' width='2' height='2'/>
	<circle id='gpPt5' stroke-width='0.222' stroke='currentColor' cx='0' cy='0' r='1'/>
	<use xlink:href='#gpPt5' id='gpPt6' fill='currentColor' stroke='none'/>
	<path id='gpPt7' stroke-width='0.222' stroke='currentColor' d='M0,-1.33 L-1.33,0.67 L1.33,0.67 z'/>
	<use xlink:href='#gpPt7' id='gpPt8' fill='currentColor' stroke='none'/>
	<use xlink:href='#gpPt7' id='gpPt9' stroke='currentColor' transform='rotate(180)'/>
	<use xlink:href='#gpPt9' id='gpPt10' fill='currentColor' stroke='none'/>
	<use xlink:href='#gpPt3' id='gpPt11' stroke='currentColor' transform='rotate(45)'/>
	<use xlink:href='#gpPt11' id='gpPt12' fill='currentColor' stroke='none'/>
	<path id='gpPt13' stroke-width='0.222' stroke='currentColor' d='M0,1.330 L1.265,0.411 L0.782,-1.067 L-0.782,-1.076 L-1.265,0.411 z'/>
	<use xlink:href='#gpPt13' id='gpPt14' fill='currentColor' stroke='none'/>
	<filter id='textbox' filterUnits='objectBoundingBox' x='0' y='0' height='1' width='1'>
	  <feFlood flood-color='white' flood-opacity='1' result='bgnd'/>
	  <feComposite in='SourceGraphic' in2='bgnd' operator='atop'/>
	</filter>
	<filter id='greybox' filterUnits='objectBoundingBox' x='0' y='0' height='1' width='1'>
	  <feFlood flood-color='lightgrey' flood-opacity='1' result='grey'/>
	  <feComposite in='SourceGraphic' in2='grey' operator='atop'/>
	</filter>
</defs>
<g fill="none" color="white" stroke="currentColor" stroke-width="1.00" stroke-linecap="butt" stroke-linejoin="miter">
</g>
<g fill="none" color="black" stroke="currentColor" stroke-width="1.00" stroke-linecap="butt" stroke-linejoin="miter">
	<path stroke='black'  d='M87.1,678.7 L96.1,678.7 M1255.0,678.7 L1246.0,678.7  '/>	<g transform="translate(78.8,682.6)" stroke="none" fill="black" font-family="Arial" font-size="12.00"  text-anchor="end">
		<text><tspan font-family="Arial" > 0.1091</tspan></text>
	</g>
</g>
<g fill="none" color="black" stroke="currentColor" stroke-width="1.00" stroke-linecap="butt" stroke-linejoin="miter">
	<path stroke='black'  d='M87.1,374.5 L96.1,374.5 M1255.0,374.5 L1246.0,374.5  '/>	<g transform="translate(78.8,378.4)" stroke="none" fill="black" font-family="Arial" font-size="12.00"  text-anchor="end">
		<text><tspan font-family="Arial" > 46.0177</tspan></text>
	</g>
</g>
<g fill="none" color="black" stroke="currentColor" stroke-width="1.00" stroke-linecap="butt" stroke-linejoin="miter">
	<path stroke='black'  d='M87.1,70.2 L96.1,70.2 M1255.0,70.2 L1246.0,70.2  '/>	<g transform="translate(78.8,74.1)" stroke="none" fill="black" font-family="Arial" font-size="12.00"  text-anchor="end">
		<text><tspan font-family="Arial" > 19410</tspan></text>
	</g>
</g>
<g fill="none" color="black" stroke="currentColor" stroke-width="1.00" stroke-linecap="butt" stroke-linejoin="miter">
	<path stroke='black'  d='M87.1,684.0 L87.1,675.0 M87.1,54.1 L87.1,63.1  '/>	<g transform="translate(87.1,705.9)" stroke="none" fill="black" font-family="Arial" font-size="12.00"  text-anchor="middle">
		<text><tspan font-family="Arial" > 0</tspan></text>
	</g>
</g>
<g fill="none" color="black" stroke="currentColor" stroke-width="1.00" stroke-linecap="butt" stroke-linejoin="miter">
	<path stroke='black'  d='M671.1,684.0 L671.1,675.0 M671.1,54.1 L671.1,63.1  '/>	<g transform="translate(671.1,705.9)" stroke="none" fill="black" font-family="Arial" font-size="12.00"  text-anchor="middle">
		<text><tspan font-family="Arial" >pi/2</tspan></text>
	</g>
</g>
<g fill="none" color="black" stroke="currentColor" stroke-width="1.00" stroke-linecap="butt" stroke-linejoin="miter">
	<path stroke='black'  d='M1255.0,684.0 L1255.0,675.0 M1255.0,54.1 L1255.0,63.1  '/>	<g transform="translate(1255.0,705.9)" stroke="none" fill="black" font-family="Arial" font-size="12.00"  text-anchor="middle">
		<text><tspan font-family="Arial" >pi</tspan></text>
	</g>
</g>
<g fill="none" color="black" stroke="currentColor" stroke-width="1.00" stroke-linecap="butt" stroke-linejoin="miter">
</g>
<g fill="none" color="black" stroke="currentColor" stroke-width="1.00" stroke-linecap="butt" stroke-linejoin="miter">
	<path stroke='black'  d='M87.1,54.1 L87.1,684.0 L1255.0,684.0 L1255.0,54.1 L87.1,54.1 Z  '/></g>
<g fill="none" color="black" stroke="currentColor" stroke-width="1.00" stroke-linecap="butt" stroke-linejoin="miter">
	<g transform="translate(671.0,31.0)" stroke="none" fill="black" font-family="Arial" font-size="12.00"  text-anchor="middle">
		<text><tspan font-family="Arial" >Material 49</tspan></text>
	</g>
</g>
	<g id="gnuplot_plot_1" ><title>scattering function</title>
<g fill="none" color="black" stroke="currentColor" stroke-width="1.00" stroke-linecap="butt" stroke-linejoin="miter">
	<g transform="translate(1187.9,76.0)" stroke="none" fill="black" font-family="Arial" font-size="12.00"  text-anchor="end">
		<text><tspan font-family="Arial" >scattering function</tspan></text>
	</g>
</g>
<g fill="none" color="black" stroke="currentColor" stroke-width="1.00" stroke-linecap="butt" stroke-linejoin="miter">
	<use xlink:href='#gpPt5' transform='translate(87.1,70.2) scale(2.25)' color='black'/>
	<use xlink:href='#gpPt5' transform='translate(87.7,70.7) scale(2.25)' color='black'/>
	<use xlink:href='#gpPt5' transform='translate(88.4,72.1) scale(2.25)' color='black'/>
	<use xlink:href='#gpPt5' transform='translate(89.0,74.4) scale(2.25)' color='black'/>
	<use xlink:href='#gpPt5' transform='translate(89.7,77.6) scale(2.25)' color='black'/>
	<use xlink:href='#gpPt5' transform='translate(90.3,81.7) scale(2.25)' color='black'/>
	<use xlink:href='#gpPt5' transform='translate(91.0,86.5) scale(2.25)' color='black'/>
	<use xlink:href='#gpPt5' transform='translate(91.6,92.2) scale(2.25)' color='black'/>
	<use xlink:href='#gpPt5' transform='translate(92.3,98.6) scale(2.25)' color='black'/>
	<use xlink:href='#gpPt5' transform='translate(92.9,105.7) scale(2.25)' color='black'/>
	<use xlink:href='#gpPt5' transform='translate(93.6,113.4) scale(2.25)' color='black'/>
	<use xlink:href='#gpPt5' transform='translate(94.2,121.7) scale(2.25)' color='black'/>
	<use xlink:href='#gpPt5' transform='translate(94.9,130.4) scale(2.25)' color='black'/>
	<use xlink:href='#gpPt5' transform='translate(95.5,139.5) scale(2.25)' color='black'/>
	<use xlink:href='#gpPt5' transform='translate(96.2,148.9) scale(2.25)' color='black'/>
	<use xlink:href='#gpPt5' transform='translate(96.8,158.4) scale(2.25)' color='black'/>
	<use xlink:href='#gpPt5' transform='translate(97.5,168.1) scale(2.25)' color='black'/>
	<use xlink:href='#gpPt5' transform='translate(98.1,177.8) scale(2.25)' color='black'/>
	<use xlink:href='#gpPt5' transform='translate(98.8,187.5) scale(2.25)' color='black'/>
	<use xlink:href='#gpPt5' transform='translate(99.4,196.9) scale(2.25)' color='black'/>
	<use xlink:href='#gpPt5' transform='translate(100.1,206.1) scale(2.25)' color='black'/>
	<use xlink:href='#gpPt5' transform='translate(106.6,276.1) scale(2.25)' color='black'/>
	<use xlink:href='#gpPt5' transform='translate(113.1,313.5) scale(2.25)' color='black'/>
	<use xlink:href='#gpPt5' transform='translate(119.5,336.8) scale(2.25)' color='black'/>
	<use xlink:href='#gpPt5' transform='translate(126.0,353.3) scale(2.25)' color='black'/>
	<use xlink:href='#gpPt5' transform='translate(139.0,373.7) scale(2.25)' color='black'/>
	<use xlink:href='#gpPt5' transform='translate(152.0,384.2) scale(2.25)' color='black'/>
	<use xlink:href='#gpPt5' transform='translate(165.0,391.7) scale(2.25)' color='black'/>
	<use xlink:href='#gpPt5' transform='translate(177.9,398.7) scale(2.25)' color='black'/>
	<use xlink:href='#gpPt5' transform='translate(190.9,404.3) scale(2.25)' color='black'/>
	<use xlink:href='#gpPt5' transform='translate(203.9,410.6) scale(2.25)' color='black'/>
	<use xlink:href='#gpPt5' transform='translate(216.9,416.9) scale(2.25)' color='black'/>
	<use xlink:href='#gpPt5' transform='translate(229.8,422.3) scale(2.25)' color='black'/>
	<use xlink:href='#gpPt5' transform='translate(242.8,427.8) scale(2.25)' color='black'/>
	<use xlink:href='#gpPt5' transform='translate(255.8,435.3) scale(2.25)' color='black'/>
	<use xlink:href='#gpPt5' transform='translate(268.8,442.7) scale(2.25)' color='black'/>
	<use xlink:href='#gpPt5' transform='translate(281.8,448.7) scale(2.25)' color='black'/>
	<use xlink:href='#gpPt5' transform='translate(294.7,454.4) scale(2.25)' color='black'/>
	<use xlink:href='#gpPt5' transform='translate(307.7,459.8) scale(2.25)' color='black'/>
	<use xlink:href='#gpPt5' transform='translate(320.7,467.9) scale(2.25)' color='black'/>
	<use xlink:href='#gpPt5' transform='translate(333.7,474.0) scale(2.25)' color='black'/>
	<use xlink:href='#gpPt5' transform='translate(346.6,482.8) scale(2.25)' color='black'/>
	<use xlink:href='#gpPt5' transform='translate(359.6,488.9) scale(2.25)' color='black'/>
	<use xlink:href='#gpPt5' transform='translate(372.6,496.7) scale(2.25)' color='black'/>
	<use xlink:href='#gpPt5' transform='translate(385.6,501.9) scale(2.25)' color='black'/>
	<use xlink:href='#gpPt5' transform='translate(398.5,508.7) scale(2.25)' color='black'/>
	<use xlink:href='#gpPt5' transform='translate(411.5,518.0) scale(2.25)' color='black'/>
	<use xlink:href='#gpPt5' transform='translate(424.5,521.3) scale(2.25)' color='black'/>
	<use xlink:href='#gpPt5' transform='translate(437.5,527.5) scale(2.25)' color='black'/>
	<use xlink:href='#gpPt5' transform='translate(450.4,535.3) scale(2.25)' color='black'/>
	<use xlink:href='#gpPt5' transform='translate(463.4,545.3) scale(2.25)' color='black'/>
	<use xlink:href='#gpPt5' transform='translate(476.4,554.7) scale(2.25)' color='black'/>
	<use xlink:href='#gpPt5' transform='translate(489.4,563.3) scale(2.25)' color='black'/>
	<use xlink:href='#gpPt5' transform='translate(502.4,571.9) scale(2.25)' color='black'/>
	<use xlink:href='#gpPt5' transform='translate(515.3,579.3) scale(2.25)' color='black'/>
	<use xlink:href='#gpPt5' transform='translate(528.3,588.1) scale(2.25)' color='black'/>
	<use xlink:href='#gpPt5' transform='translate(541.3,595.7) scale(2.25)' color='black'/>
	<use xlink:href='#gpPt5' transform='translate(554.3,602.8) scale(2.25)' color='black'/>
	<use xlink:href='#gpPt5' transform='translate(567.2,615.2) scale(2.25)' color='black'/>
	<use xlink:href='#gpPt5' transform='translate(580.2,620.5) scale(2.25)' color='black'/>
	<use xlink:href='#gpPt5' transform='translate(593.2,623.0) scale(2.25)' color='black'/>
	<use xlink:href='#gpPt5' transform='translate(606.2,629.1) scale(2.25)' color='black'/>
	<use xlink:href='#gpPt5' transform='translate(619.1,637.6) scale(2.25)' color='black'/>
	<use xlink:href='#gpPt5' transform='translate(632.1,643.6) scale(2.25)' color='black'/>
	<use xlink:href='#gpPt5' transform='translate(645.1,651.6) scale(2.25)' color='black'/>
	<use xlink:href='#gpPt5' transform='translate(658.1,660.6) scale(2.25)' color='black'/>
	<use xlink:href='#gpPt5' transform='translate(671.1,662.4) scale(2.25)' color='black'/>
	<use xlink:href='#gpPt5' transform='translate(684.0,666.1) scale(2.25)' color='black'/>
	<use xlink:href='#gpPt5' transform='translate(697.0,667.1) scale(2.25)' color='black'/>
	<use xlink:href='#gpPt5' transform='translate(710.0,669.3) scale(2.25)' color='black'/>
	<use xlink:href='#gpPt5' transform='translate(723.0,678.5) scale(2.25)' color='black'/>
	<use xlink:href='#gpPt5' transform='translate(735.9,678.7) scale(2.25)' color='black'/>
	<use xlink:href='#gpPt5' transform='translate(748.9,676.2) scale(2.25)' color='black'/>
	<use xlink:href='#gpPt5' transform='translate(761.9,677.5) scale(2.25)' color='black'/>
	<use xlink:href='#gpPt5' transform='translate(774.9,678.0) scale(2.25)' color='black'/>
	<use xlink:href='#gpPt5' transform='translate(787.8,676.7) scale(2.25)' color='black'/>
	<use xlink:href='#gpPt5' transform='translate(800.8,672.3) scale(2.25)' color='black'/>
	<use xlink:href='#gpPt5' transform='translate(813.8,672.4) scale(2.25)' color='black'/>
	<use xlink:href='#gpPt5' transform='translate(826.8,669.3) scale(2.25)' color='black'/>
	<use xlink:href='#gpPt5' transform='translate(839.7,661.1) scale(2.25)' color='black'/>
	<use xlink:href='#gpPt5' transform='translate(852.7,653.1) scale(2.25)' color='black'/>
	<use xlink:href='#gpPt5' transform='translate(865.7,644.0) scale(2.25)' color='black'/>
	<use xlink:href='#gpPt5' transform='translate(878.7,639.6) scale(2.25)' color='black'/>
	<use xlink:href='#gpPt5' transform='translate(891.7,639.0) scale(2.25)' color='black'/>
	<use xlink:href='#gpPt5' transform='translate(904.6,649.1) scale(2.25)' color='black'/>
	<use xlink:href='#gpPt5' transform='translate(917.6,644.0) scale(2.25)' color='black'/>
	<use xlink:href='#gpPt5' transform='translate(930.6,643.4) scale(2.25)' color='black'/>
	<use xlink:href='#gpPt5' transform='translate(943.6,633.0) scale(2.25)' color='black'/>
	<use xlink:href='#gpPt5' transform='translate(956.5,617.0) scale(2.25)' color='black'/>
	<use xlink:href='#gpPt5' transform='translate(969.5,593.5) scale(2.25)' color='black'/>
	<use xlink:href='#gpPt5' transform='translate(982.5,570.8) scale(2.25)' color='black'/>
	<use xlink:href='#gpPt5' transform='translate(995.5,554.1) scale(2.25)' color='black'/>
	<use xlink:href='#gpPt5' transform='translate(1008.4,546.8) scale(2.25)' color='black'/>
	<use xlink:href='#gpPt5' transform='translate(1021.4,553.0) scale(2.25)' color='black'/>
	<use xlink:href='#gpPt5' transform='translate(1034.4,568.0) scale(2.25)' color='black'/>
	<use xlink:href='#gpPt5' transform='translate(1047.4,583.0) scale(2.25)' color='black'/>
	<use xlink:href='#gpPt5' transform='translate(1060.3,582.0) scale(2.25)' color='black'/>
	<use xlink:href='#gpPt5' transform='translate(1073.3,583.0) scale(2.25)' color='black'/>
	<use xlink:href='#gpPt5' transform='translate(1086.3,582.4) scale(2.25)' color='black'/>
	<use xlink:href='#gpPt5' transform='translate(1099.3,588.5) scale(2.25)' color='black'/>
	<use xlink:href='#gpPt5' transform='translate(1112.3,590.4) scale(2.25)' color='black'/>
	<use xlink:href='#gpPt5' transform='translate(1125.2,590.2) scale(2.25)' color='black'/>
	<use xlink:href='#gpPt5' transform='translate(1138.2,589.4) scale(2.25)' color='black'/>
	<use xlink:href='#gpPt5' transform='translate(1151.2,592.1) scale(2.25)' color='black'/>
	<use xlink:href='#gpPt5' transform='translate(1164.2,592.5) scale(2.25)' color='black'/>
	<use xlink:href='#gpPt5' transform='translate(1177.1,585.8) scale(2.25)' color='black'/>
	<use xlink:href='#gpPt5' transform='translate(1190.1,587.2) scale(2.25)' color='black'/>
	<use xlink:href='#gpPt5' transform='translate(1203.1,583.0) scale(2.25)' color='black'/>
	<use xlink:href='#gpPt5' transform='translate(1216.1,572.0) scale(2.25)' color='black'/>
	<use xlink:href='#gpPt5' transform='translate(1229.0,558.1) scale(2.25)' color='black'/>
	<use xlink:href='#gpPt5' transform='translate(1242.0,529.5) scale(2.25)' color='black'/>
	<use xlink:href='#gpPt5' transform='translate(1255.0,503.9) scale(2.25)' color='black'/>
	<use xlink:href='#gpPt5' transform='translate(1217.3,72.1) scale(2.25)' color='black'/>
</g>
	</g>
	<g id="gnuplot_plot_2" ><title>2 (convex)</title>
<g fill="none" color="black" stroke="currentColor" stroke-width="1.00" stroke-linecap="butt" stroke-linejoin="miter">
	<g transform="translate(1187.9,94.0)" stroke="none" fill="black" font-family="Arial" font-size="12.00"  text-anchor="end">
		<text><tspan font-family="Arial" >2 (convex)</tspan></text>
	</g>
</g>
<g fill="none" color="black" stroke="currentColor" stroke-width="1.00" stroke-linecap="butt" stroke-linejoin="miter">
	<path stroke='rgb(  0, 158, 115)'  d='M1196.2,90.1 L1238.4,90.1 M87.1,54.1 L88.2,57.8 L89.4,67.8 L90.5,82.1 L91.7,98.3 L92.8,115.1
		L93.9,131.5 L95.1,147.2 L96.2,161.9 L97.4,175.6 L98.5,188.4 L99.7,200.3 L100.8,211.5 L101.9,221.8
		L103.1,231.5 L104.2,240.6 L105.4,249.1 L106.5,257.1 L107.6,264.6 L108.8,271.7 L109.9,278.3 L111.1,284.6
		L112.2,290.5 L113.4,296.1 L114.5,301.4 L115.6,306.3 L116.8,311.1 L117.9,315.5 L119.1,319.7 L120.2,323.7
		L121.3,327.5 L122.5,331.1 L123.6,334.5 L124.8,337.8 L125.9,340.9 L127.1,343.8 L128.2,346.6 L129.3,349.2
		L130.5,351.7 L131.6,354.1 L132.8,356.4 L133.9,358.6 L135.0,360.7 L136.2,362.7 L137.3,364.6 L138.5,366.5
		L139.6,368.2 L140.8,369.9 L141.9,371.6 L143.0,373.2 L144.2,374.7 L145.3,376.1 L146.5,377.6 L147.6,378.9
		L148.7,380.3 L149.9,381.5 L151.0,382.8 L152.2,384.0 L153.3,385.2 L154.5,386.3 L155.6,387.5 L156.7,388.6
		L157.9,389.6 L159.0,390.7 L160.2,391.7 L161.3,392.7 L162.4,393.7 L163.6,394.7 L164.7,395.6 L165.9,396.6
		L167.0,397.5 L168.2,398.4 L169.3,399.3 L170.4,400.2 L171.6,401.0 L172.7,401.9 L173.9,402.7 L175.0,403.6
		L176.1,404.4 L177.3,405.2 L178.4,406.1 L179.6,406.9 L180.7,407.7 L181.9,408.5 L183.0,409.2 L184.1,410.0
		L185.3,410.8 L186.4,411.6 L187.6,412.3 L188.7,413.1 L189.8,413.9 L191.0,414.6 L192.1,415.4 L193.3,416.1
		L194.4,416.8 L195.6,417.6 L196.7,418.3 L197.8,419.0 L199.0,419.7 L200.1,420.5 L201.3,421.2 L202.4,421.9
		L203.5,422.6 L204.7,423.3 L205.8,424.0 L207.0,424.7 L208.1,425.4 L209.3,426.1 L210.4,426.8 L211.5,427.5
		L212.7,428.2 L213.8,428.9 L215.0,429.6 L216.1,430.3 L217.2,431.0 L218.4,431.7 L219.5,432.3 L220.7,433.0
		L221.8,433.7 L223.0,434.4 L224.1,435.0 L225.2,435.7 L226.4,436.4 L227.5,437.0 L228.7,437.7 L229.8,438.4
		L230.9,439.0 L232.1,439.7 L233.2,440.3 L234.4,441.0 L235.5,441.7 L236.7,442.3 L237.8,443.0 L238.9,443.6
		L240.1,444.3 L241.2,444.9 L242.4,445.5 L243.5,446.2 L244.6,446.8 L245.8,447.5 L246.9,448.1 L248.1,448.7
		L249.2,449.4 L250.4,450.0 L251.5,450.6 L252.6,451.3 L253.8,451.9 L254.9,452.5 L256.1,453.2 L257.2,453.8
		L258.3,454.4 L259.5,455.0 L260.6,455.6 L261.8,456.3 L262.9,456.9 L264.1,457.5 L265.2,458.1 L266.3,458.7
		L267.5,459.3 L268.6,459.9 L269.8,460.5 L270.9,461.1 L272.0,461.7 L273.2,462.3 L274.3,462.9 L275.5,463.5
		L276.6,464.1 L277.8,464.7 L278.9,465.3 L280.0,465.9 L281.2,466.5 L282.3,467.1 L283.5,467.7 L284.6,468.2
		L285.7,468.8 L286.9,469.4 L288.0,470.0 L289.2,470.6 L290.3,471.1 L291.5,471.7 L292.6,472.3 L293.7,472.8
		L294.9,473.4 L296.0,474.0 L297.2,474.6 L298.3,475.1 L299.4,475.7 L300.6,476.2 L301.7,476.8 L302.9,477.4
		L304.0,477.9 L305.2,478.5 L306.3,479.0 L307.4,479.6 L308.6,480.1 L309.7,480.7 L310.9,481.2 L312.0,481.8
		L313.1,482.3 L314.3,482.8 L315.4,483.4 L316.6,483.9 L317.7,484.5 L318.9,485.0 L320.0,485.5 L321.1,486.1
		L322.3,486.6 L323.4,487.1 L324.6,487.7 L325.7,488.2 L326.8,488.7 L328.0,489.2 L329.1,489.8 L330.3,490.3
		L331.4,490.8 L332.6,491.3 L333.7,491.8 L334.8,492.3 L336.0,492.8 L337.1,493.4 L338.3,493.9 L339.4,494.4
		L340.5,494.9 L341.7,495.4 L342.8,495.9 L344.0,496.4 L345.1,496.9 L346.3,497.4 L347.4,497.9 L348.5,498.4
		L349.7,498.9 L350.8,499.4 L352.0,499.9 L353.1,500.4 L354.2,500.8 L355.4,501.3 L356.5,501.8 L357.7,502.3
		L358.8,502.8 L360.0,503.3 L361.1,503.7 L362.2,504.2 L363.4,504.7 L364.5,505.2 L365.7,505.6 L366.8,506.1
		L367.9,506.6 L369.1,507.1 L370.2,507.5 L371.4,508.0 L372.5,508.5 L373.7,508.9 L374.8,509.4 L375.9,509.8
		L377.1,510.3 L378.2,510.8 L379.4,511.2 L380.5,511.7 L381.6,512.1 L382.8,512.6 L383.9,513.0 L385.1,513.5
		L386.2,513.9 L387.4,514.4 L388.5,514.8 L389.6,515.3 L390.8,515.7 L391.9,516.2 L393.1,516.6 L394.2,517.0
		L395.3,517.5 L396.5,517.9 L397.6,518.3 L398.8,518.8 L399.9,519.2 L401.1,519.6 L402.2,520.1 L403.3,520.5
		L404.5,520.9 L405.6,521.4 L406.8,521.8 L407.9,522.2 L409.0,522.6 L410.2,523.0 L411.3,523.5 L412.5,523.9
		L413.6,524.3 L414.8,524.7 L415.9,525.1 L417.0,525.5 L418.2,526.0 L419.3,526.4 L420.5,526.8 L421.6,527.2
		L422.7,527.6 L423.9,528.0 L425.0,528.4 L426.2,528.8 L427.3,529.2 L428.5,529.6 L429.6,530.0 L430.7,530.4
		L431.9,530.8 L433.0,531.2 L434.2,531.6 L435.3,532.0 L436.4,532.4 L437.6,532.8 L438.7,533.2 L439.9,533.6
		L441.0,534.0 L442.2,534.3 L443.3,534.7 L444.4,535.1 L445.6,535.5 L446.7,535.9 L447.9,536.3 L449.0,536.6
		L450.1,537.0 L451.3,537.4 L452.4,537.8 L453.6,538.2 L454.7,538.5 L455.9,538.9 L457.0,539.3 L458.1,539.7
		L459.3,540.0 L460.4,540.4 L461.6,540.8 L462.7,541.1 L463.8,541.5 L465.0,541.9 L466.1,542.2 L467.3,542.6
		L468.4,542.9 L469.6,543.3 L470.7,543.7 L471.8,544.0 L473.0,544.4 L474.1,544.7 L475.3,545.1 L476.4,545.5
		L477.5,545.8 L478.7,546.2 L479.8,546.5 L481.0,546.9 L482.1,547.2 L483.2,547.6 L484.4,547.9 L485.5,548.3
		L486.7,548.6 L487.8,548.9 L489.0,549.3 L490.1,549.6 L491.2,550.0 L492.4,550.3 L493.5,550.7 L494.7,551.0
		L495.8,551.3 L496.9,551.7 L498.1,552.0 L499.2,552.3 L500.4,552.7 L501.5,553.0 L502.7,553.3 L503.8,553.7
		L504.9,554.0 L506.1,554.3 L507.2,554.6 L508.4,555.0 L509.5,555.3 L510.6,555.6 L511.8,556.0 L512.9,556.3
		L514.1,556.6 L515.2,556.9 L516.4,557.2 L517.5,557.6 L518.6,557.9 L519.8,558.2 L520.9,558.5 L522.1,558.8
		L523.2,559.1 L524.3,559.5 L525.5,559.8 L526.6,560.1 L527.8,560.4 L528.9,560.7 L530.1,561.0 L531.2,561.3
		L532.3,561.6 L533.5,561.9 L534.6,562.2 L535.8,562.5 L536.9,562.8 L538.0,563.2 L539.2,563.5 L540.3,563.8
		L541.5,564.1 L542.6,564.4 L543.8,564.7 L544.9,565.0 L546.0,565.3 L547.2,565.5 L548.3,565.8 L549.5,566.1
		L550.6,566.4 L551.7,566.7 L552.9,567.0 L554.0,567.3 L555.2,567.6 L556.3,567.9 L557.5,568.2 L558.6,568.5
		L559.7,568.8 L560.9,569.0 L562.0,569.3 L563.2,569.6 L564.3,569.9 L565.4,570.2 L566.6,570.5 L567.7,570.7
		L568.9,571.0 L570.0,571.3 L571.2,571.6 L572.3,571.9 L573.4,572.1 L574.6,572.4 L575.7,572.7 L576.9,573.0
		L578.0,573.2 L579.1,573.5 L580.3,573.8 L581.4,574.1 L582.6,574.3 L583.7,574.6 L584.9,574.9 L586.0,575.1
		L587.1,575.4 L588.3,575.7 L589.4,575.9 L590.6,576.2 L591.7,576.5 L592.8,576.7 L594.0,577.0 L595.1,577.3
		L596.3,577.5 L597.4,577.8 L598.6,578.0 L599.7,578.3 L600.8,578.6 L602.0,578.8 L603.1,579.1 L604.3,579.3
		L605.4,579.6 L606.5,579.9 L607.7,580.1 L608.8,580.4 L610.0,580.6 L611.1,580.9 L612.3,581.1 L613.4,581.4
		L614.5,581.6 L615.7,581.9 L616.8,582.1 L618.0,582.4 L619.1,582.6 L620.2,582.9 L621.4,583.1 L622.5,583.4
		L623.7,583.6 L624.8,583.8 L626.0,584.1 L627.1,584.3 L628.2,584.6 L629.4,584.8 L630.5,585.1 L631.7,585.3
		L632.8,585.5 L633.9,585.8 L635.1,586.0 L636.2,586.2 L637.4,586.5 L638.5,586.7 L639.7,587.0 L640.8,587.2
		L641.9,587.4 L643.1,587.7 L644.2,587.9 L645.4,588.1 L646.5,588.4 L647.6,588.6 L648.8,588.8 L649.9,589.0
		L651.1,589.3 L652.2,589.5 L653.4,589.7 L654.5,590.0 L655.6,590.2 L656.8,590.4 L657.9,590.6 L659.1,590.9
		L660.2,591.1 L661.3,591.3 L662.5,591.5 L663.6,591.7 L664.8,592.0 L665.9,592.2 L667.1,592.4 L668.2,592.6
		L669.3,592.8 L670.5,593.1 L671.6,593.3 L672.8,593.5 L673.9,593.7 L675.0,593.9 L676.2,594.1 L677.3,594.4
		L678.5,594.6 L679.6,594.8 L680.8,595.0 L681.9,595.2 L683.0,595.4 L684.2,595.6 L685.3,595.8 L686.5,596.0
		L687.6,596.3 L688.7,596.5 L689.9,596.7 L691.0,596.9 L692.2,597.1 L693.3,597.3 L694.5,597.5 L695.6,597.7
		L696.7,597.9 L697.9,598.1 L699.0,598.3 L700.2,598.5 L701.3,598.7 L702.4,598.9 L703.6,599.1 L704.7,599.3
		L705.9,599.5 L707.0,599.7 L708.2,599.9 L709.3,600.1 L710.4,600.3 L711.6,600.5 L712.7,600.7 L713.9,600.9
		L715.0,601.1 L716.1,601.3 L717.3,601.5 L718.4,601.7 L719.6,601.9 L720.7,602.0 L721.9,602.2 L723.0,602.4
		L724.1,602.6 L725.3,602.8 L726.4,603.0 L727.6,603.2 L728.7,603.4 L729.8,603.6 L731.0,603.7 L732.1,603.9
		L733.3,604.1 L734.4,604.3 L735.6,604.5 L736.7,604.7 L737.8,604.9 L739.0,605.0 L740.1,605.2 L741.3,605.4
		L742.4,605.6 L743.5,605.8 L744.7,605.9 L745.8,606.1 L747.0,606.3 L748.1,606.5 L749.3,606.7 L750.4,606.8
		L751.5,607.0 L752.7,607.2 L753.8,607.4 L755.0,607.5 L756.1,607.7 L757.2,607.9 L758.4,608.1 L759.5,608.2
		L760.7,608.4 L761.8,608.6 L763.0,608.8 L764.1,608.9 L765.2,609.1 L766.4,609.3 L767.5,609.4 L768.7,609.6
		L769.8,609.8 L770.9,609.9 L772.1,610.1 L773.2,610.3 L774.4,610.4 L775.5,610.6 L776.7,610.8 L777.8,610.9
		L778.9,611.1 L780.1,611.3 L781.2,611.4 L782.4,611.6 L783.5,611.8 L784.6,611.9 L785.8,612.1 L786.9,612.2
		L788.1,612.4 L789.2,612.6 L790.4,612.7 L791.5,612.9 L792.6,613.0 L793.8,613.2 L794.9,613.3 L796.1,613.5
		L797.2,613.7 L798.3,613.8 L799.5,614.0 L800.6,614.1 L801.8,614.3 L802.9,614.4 L804.1,614.6 L805.2,614.7
		L806.3,614.9 L807.5,615.0 L808.6,615.2 L809.8,615.3 L810.9,615.5 L812.0,615.7 L813.2,615.8 L814.3,615.9
		L815.5,616.1 L816.6,616.2 L817.8,616.4 L818.9,616.5 L820.0,616.7 L821.2,616.8 L822.3,617.0 L823.5,617.1
		L824.6,617.3 L825.7,617.4 L826.9,617.6 L828.0,617.7 L829.2,617.8 L830.3,618.0 L831.5,618.1 L832.6,618.3
		L833.7,618.4 L834.9,618.6 L836.0,618.7 L837.2,618.8 L838.3,619.0 L839.4,619.1 L840.6,619.2 L841.7,619.4
		L842.9,619.5 L844.0,619.7 L845.2,619.8 L846.3,619.9 L847.4,620.1 L848.6,620.2 L849.7,620.3 L850.9,620.5
		L852.0,620.6 L853.1,620.7 L854.3,620.9 L855.4,621.0 L856.6,621.1 L857.7,621.3 L858.9,621.4 L860.0,621.5
		L861.1,621.7 L862.3,621.8 L863.4,621.9 L864.6,622.0 L865.7,622.2 L866.8,622.3 L868.0,622.4 L869.1,622.6
		L870.3,622.7 L871.4,622.8 L872.5,622.9 L873.7,623.1 L874.8,623.2 L876.0,623.3 L877.1,623.4 L878.3,623.6
		L879.4,623.7 L880.5,623.8 L881.7,623.9 L882.8,624.0 L884.0,624.2 L885.1,624.3 L886.2,624.4 L887.4,624.5
		L888.5,624.6 L889.7,624.8 L890.8,624.9 L892.0,625.0 L893.1,625.1 L894.2,625.2 L895.4,625.4 L896.5,625.5
		L897.7,625.6 L898.8,625.7 L899.9,625.8 L901.1,625.9 L902.2,626.0 L903.4,626.2 L904.5,626.3 L905.7,626.4
		L906.8,626.5 L907.9,626.6 L909.1,626.7 L910.2,626.8 L911.4,626.9 L912.5,627.1 L913.6,627.2 L914.8,627.3
		L915.9,627.4 L917.1,627.5 L918.2,627.6 L919.4,627.7 L920.5,627.8 L921.6,627.9 L922.8,628.0 L923.9,628.1
		L925.1,628.2 L926.2,628.4 L927.3,628.5 L928.5,628.6 L929.6,628.7 L930.8,628.8 L931.9,628.9 L933.1,629.0
		L934.2,629.1 L935.3,629.2 L936.5,629.3 L937.6,629.4 L938.8,629.5 L939.9,629.6 L941.0,629.7 L942.2,629.8
		L943.3,629.9 L944.5,630.0 L945.6,630.1 L946.8,630.2 L947.9,630.3 L949.0,630.4 L950.2,630.5 L951.3,630.6
		L952.5,630.7 L953.6,630.8 L954.7,630.9 L955.9,631.0 L957.0,631.1 L958.2,631.1 L959.3,631.2 L960.5,631.3
		L961.6,631.4 L962.7,631.5 L963.9,631.6 L965.0,631.7 L966.2,631.8 L967.3,631.9 L968.4,632.0 L969.6,632.1
		L970.7,632.2 L971.9,632.2 L973.0,632.3 L974.2,632.4 L975.3,632.5 L976.4,632.6 L977.6,632.7 L978.7,632.8
		L979.9,632.9 L981.0,632.9 L982.1,633.0 L983.3,633.1 L984.4,633.2 L985.6,633.3 L986.7,633.4 L987.9,633.5
		L989.0,633.5 L990.1,633.6 L991.3,633.7 L992.4,633.8 L993.6,633.9 L994.7,634.0 L995.8,634.0 L997.0,634.1
		L998.1,634.2 L999.3,634.3 L1000.4,634.4 L1001.6,634.4 L1002.7,634.5 L1003.8,634.6 L1005.0,634.7 L1006.1,634.7
		L1007.3,634.8 L1008.4,634.9 L1009.5,635.0 L1010.7,635.1 L1011.8,635.1 L1013.0,635.2 L1014.1,635.3 L1015.3,635.4
		L1016.4,635.4 L1017.5,635.5 L1018.7,635.6 L1019.8,635.7 L1021.0,635.7 L1022.1,635.8 L1023.2,635.9 L1024.4,635.9
		L1025.5,636.0 L1026.7,636.1 L1027.8,636.2 L1029.0,636.2 L1030.1,636.3 L1031.2,636.4 L1032.4,636.4 L1033.5,636.5
		L1034.7,636.6 L1035.8,636.6 L1036.9,636.7 L1038.1,636.8 L1039.2,636.8 L1040.4,636.9 L1041.5,637.0 L1042.7,637.0
		L1043.8,637.1 L1044.9,637.2 L1046.1,637.2 L1047.2,637.3 L1048.4,637.4 L1049.5,637.4 L1050.6,637.5 L1051.8,637.6
		L1052.9,637.6 L1054.1,637.7 L1055.2,637.7 L1056.4,637.8 L1057.5,637.9 L1058.6,637.9 L1059.8,638.0 L1060.9,638.0
		L1062.1,638.1 L1063.2,638.2 L1064.3,638.2 L1065.5,638.3 L1066.6,638.3 L1067.8,638.4 L1068.9,638.5 L1070.1,638.5
		L1071.2,638.6 L1072.3,638.6 L1073.5,638.7 L1074.6,638.7 L1075.8,638.8 L1076.9,638.8 L1078.0,638.9 L1079.2,639.0
		L1080.3,639.0 L1081.5,639.1 L1082.6,639.1 L1083.8,639.2 L1084.9,639.2 L1086.0,639.3 L1087.2,639.3 L1088.3,639.4
		L1089.5,639.4 L1090.6,639.5 L1091.7,639.5 L1092.9,639.6 L1094.0,639.6 L1095.2,639.7 L1096.3,639.7 L1097.5,639.8
		L1098.6,639.8 L1099.7,639.9 L1100.9,639.9 L1102.0,640.0 L1103.2,640.0 L1104.3,640.1 L1105.4,640.1 L1106.6,640.1
		L1107.7,640.2 L1108.9,640.2 L1110.0,640.3 L1111.2,640.3 L1112.3,640.4 L1113.4,640.4 L1114.6,640.5 L1115.7,640.5
		L1116.9,640.5 L1118.0,640.6 L1119.1,640.6 L1120.3,640.7 L1121.4,640.7 L1122.6,640.7 L1123.7,640.8 L1124.9,640.8
		L1126.0,640.9 L1127.1,640.9 L1128.3,640.9 L1129.4,641.0 L1130.6,641.0 L1131.7,641.1 L1132.8,641.1 L1134.0,641.1
		L1135.1,641.2 L1136.3,641.2 L1137.4,641.2 L1138.6,641.3 L1139.7,641.3 L1140.8,641.3 L1142.0,641.4 L1143.1,641.4
		L1144.3,641.4 L1145.4,641.5 L1146.5,641.5 L1147.7,641.5 L1148.8,641.6 L1150.0,641.6 L1151.1,641.6 L1152.3,641.7
		L1153.4,641.7 L1154.5,641.7 L1155.7,641.8 L1156.8,641.8 L1158.0,641.8 L1159.1,641.9 L1160.2,641.9 L1161.4,641.9
		L1162.5,641.9 L1163.7,642.0 L1164.8,642.0 L1166.0,642.0 L1167.1,642.1 L1168.2,642.1 L1169.4,642.1 L1170.5,642.1
		L1171.7,642.2 L1172.8,642.2 L1173.9,642.2 L1175.1,642.2 L1176.2,642.3 L1177.4,642.3 L1178.5,642.3 L1179.7,642.3
		L1180.8,642.3 L1181.9,642.4 L1183.1,642.4 L1184.2,642.4 L1185.4,642.4 L1186.5,642.5 L1187.6,642.5 L1188.8,642.5
		L1189.9,642.5 L1191.1,642.5 L1192.2,642.6 L1193.4,642.6 L1194.5,642.6 L1195.6,642.6 L1196.8,642.6 L1197.9,642.6
		L1199.1,642.7 L1200.2,642.7 L1201.3,642.7 L1202.5,642.7 L1203.6,642.7 L1204.8,642.7 L1205.9,642.8 L1207.1,642.8
		L1208.2,642.8 L1209.3,642.8 L1210.5,642.8 L1211.6,642.8 L1212.8,642.8 L1213.9,642.8 L1215.0,642.9 L1216.2,642.9
		L1217.3,642.9 L1218.5,642.9 L1219.6,642.9 L1220.8,642.9 L1221.9,642.9 L1223.0,642.9 L1224.2,642.9 L1225.3,643.0
		L1226.5,643.0 L1227.6,643.0 L1228.7,643.0 L1229.9,643.0 L1231.0,643.0 L1232.2,643.0 L1233.3,643.0 L1234.5,643.0
		L1235.6,643.0 L1236.7,643.0 L1237.9,643.0 L1239.0,643.0 L1240.2,643.0 L1241.3,643.0 L1242.4,643.1 L1243.6,643.1
		L1244.7,643.1 L1245.9,643.1 L1247.0,643.1 L1248.2,643.1 L1249.3,643.1 L1250.4,643.1 L1251.6,643.1 L1252.7,643.1
		L1253.9,643.1 L1255.0,643.1  '/></g>
	</g>
	<g id="gnuplot_plot_3" ><title>4 (both)</title>
<g fill="none" color="black" stroke="currentColor" stroke-width="1.00" stroke-linecap="butt" stroke-linejoin="miter">
	<g transform="translate(1187.9,112.0)" stroke="none" fill="black" font-family="Arial" font-size="12.00"  text-anchor="end">
		<text><tspan font-family="Arial" >4 (both)</tspan></text>
	</g>
</g>
<g fill="none" color="black" stroke="currentColor" stroke-width="1.00" stroke-linecap="butt" stroke-linejoin="miter">
	<path stroke='rgb( 86, 180, 233)'  d='M1196.2,108.1 L1238.4,108.1 M87.1,56.0 L88.2,59.4 L89.4,68.8 L90.5,82.3 L91.7,97.9 L92.8,114.1
		L93.9,130.0 L95.1,145.3 L96.2,159.7 L97.4,173.3 L98.5,185.9 L99.7,197.8 L100.8,208.8 L101.9,219.1
		L103.1,228.8 L104.2,237.9 L105.4,246.4 L106.5,254.4 L107.6,262.0 L108.8,269.1 L109.9,275.8 L111.1,282.1
		L112.2,288.1 L113.4,293.8 L114.5,299.1 L115.6,304.2 L116.8,309.0 L117.9,313.5 L119.1,317.8 L120.2,321.9
		L121.3,325.8 L122.5,329.4 L123.6,332.9 L124.8,336.2 L125.9,339.3 L127.1,342.3 L128.2,345.1 L129.3,347.8
		L130.5,350.4 L131.6,352.8 L132.8,355.1 L133.9,357.3 L135.0,359.4 L136.2,361.4 L137.3,363.3 L138.5,365.1
		L139.6,366.8 L140.8,368.5 L141.9,370.0 L143.0,371.6 L144.2,373.0 L145.3,374.4 L146.5,375.7 L147.6,377.0
		L148.7,378.2 L149.9,379.4 L151.0,380.5 L152.2,381.6 L153.3,382.7 L154.5,383.7 L155.6,384.7 L156.7,385.7
		L157.9,386.6 L159.0,387.5 L160.2,388.4 L161.3,389.2 L162.4,390.1 L163.6,390.9 L164.7,391.6 L165.9,392.4
		L167.0,393.2 L168.2,393.9 L169.3,394.6 L170.4,395.3 L171.6,396.0 L172.7,396.7 L173.9,397.4 L175.0,398.0
		L176.1,398.7 L177.3,399.3 L178.4,399.9 L179.6,400.5 L180.7,401.1 L181.9,401.7 L183.0,402.3 L184.1,402.9
		L185.3,403.5 L186.4,404.1 L187.6,404.7 L188.7,405.2 L189.8,405.8 L191.0,406.4 L192.1,406.9 L193.3,407.5
		L194.4,408.0 L195.6,408.6 L196.7,409.1 L197.8,409.6 L199.0,410.2 L200.1,410.7 L201.3,411.3 L202.4,411.8
		L203.5,412.3 L204.7,412.8 L205.8,413.4 L207.0,413.9 L208.1,414.4 L209.3,415.0 L210.4,415.5 L211.5,416.0
		L212.7,416.5 L213.8,417.0 L215.0,417.6 L216.1,418.1 L217.2,418.6 L218.4,419.1 L219.5,419.7 L220.7,420.2
		L221.8,420.7 L223.0,421.2 L224.1,421.7 L225.2,422.3 L226.4,422.8 L227.5,423.3 L228.7,423.8 L229.8,424.3
		L230.9,424.9 L232.1,425.4 L233.2,425.9 L234.4,426.4 L235.5,427.0 L236.7,427.5 L237.8,428.0 L238.9,428.5
		L240.1,429.1 L241.2,429.6 L242.4,430.1 L243.5,430.7 L244.6,431.2 L245.8,431.7 L246.9,432.2 L248.1,432.8
		L249.2,433.3 L250.4,433.8 L251.5,434.4 L252.6,434.9 L253.8,435.4 L254.9,436.0 L256.1,436.5 L257.2,437.1
		L258.3,437.6 L259.5,438.1 L260.6,438.7 L261.8,439.2 L262.9,439.8 L264.1,440.3 L265.2,440.8 L266.3,441.4
		L267.5,441.9 L268.6,442.5 L269.8,443.0 L270.9,443.6 L272.0,444.1 L273.2,444.7 L274.3,445.2 L275.5,445.8
		L276.6,446.3 L277.8,446.9 L278.9,447.4 L280.0,448.0 L281.2,448.5 L282.3,449.1 L283.5,449.7 L284.6,450.2
		L285.7,450.8 L286.9,451.3 L288.0,451.9 L289.2,452.4 L290.3,453.0 L291.5,453.6 L292.6,454.1 L293.7,454.7
		L294.9,455.3 L296.0,455.8 L297.2,456.4 L298.3,457.0 L299.4,457.5 L300.6,458.1 L301.7,458.7 L302.9,459.2
		L304.0,459.8 L305.2,460.4 L306.3,460.9 L307.4,461.5 L308.6,462.1 L309.7,462.7 L310.9,463.2 L312.0,463.8
		L313.1,464.4 L314.3,465.0 L315.4,465.5 L316.6,466.1 L317.7,466.7 L318.9,467.3 L320.0,467.8 L321.1,468.4
		L322.3,469.0 L323.4,469.6 L324.6,470.2 L325.7,470.7 L326.8,471.3 L328.0,471.9 L329.1,472.5 L330.3,473.1
		L331.4,473.7 L332.6,474.3 L333.7,474.8 L334.8,475.4 L336.0,476.0 L337.1,476.6 L338.3,477.2 L339.4,477.8
		L340.5,478.4 L341.7,479.0 L342.8,479.6 L344.0,480.1 L345.1,480.7 L346.3,481.3 L347.4,481.9 L348.5,482.5
		L349.7,483.1 L350.8,483.7 L352.0,484.3 L353.1,484.9 L354.2,485.5 L355.4,486.1 L356.5,486.7 L357.7,487.3
		L358.8,487.9 L360.0,488.5 L361.1,489.1 L362.2,489.7 L363.4,490.3 L364.5,490.9 L365.7,491.5 L366.8,492.1
		L367.9,492.7 L369.1,493.3 L370.2,493.9 L371.4,494.5 L372.5,495.1 L373.7,495.7 L374.8,496.3 L375.9,496.9
		L377.1,497.5 L378.2,498.1 L379.4,498.7 L380.5,499.4 L381.6,500.0 L382.8,500.6 L383.9,501.2 L385.1,501.8
		L386.2,502.4 L387.4,503.0 L388.5,503.6 L389.6,504.2 L390.8,504.9 L391.9,505.5 L393.1,506.1 L394.2,506.7
		L395.3,507.3 L396.5,507.9 L397.6,508.5 L398.8,509.2 L399.9,509.8 L401.1,510.4 L402.2,511.0 L403.3,511.6
		L404.5,512.2 L405.6,512.9 L406.8,513.5 L407.9,514.1 L409.0,514.7 L410.2,515.3 L411.3,516.0 L412.5,516.6
		L413.6,517.2 L414.8,517.8 L415.9,518.5 L417.0,519.1 L418.2,519.7 L419.3,520.3 L420.5,521.0 L421.6,521.6
		L422.7,522.2 L423.9,522.8 L425.0,523.5 L426.2,524.1 L427.3,524.7 L428.5,525.4 L429.6,526.0 L430.7,526.6
		L431.9,527.3 L433.0,527.9 L434.2,528.5 L435.3,529.2 L436.4,529.8 L437.6,530.4 L438.7,531.1 L439.9,531.7
		L441.0,532.3 L442.2,533.0 L443.3,533.6 L444.4,534.2 L445.6,534.9 L446.7,535.5 L447.9,536.2 L449.0,536.8
		L450.1,537.4 L451.3,538.1 L452.4,538.7 L453.6,539.4 L454.7,540.0 L455.9,540.6 L457.0,541.3 L458.1,541.9
		L459.3,542.6 L460.4,543.2 L461.6,543.9 L462.7,544.5 L463.8,545.2 L465.0,545.8 L466.1,546.5 L467.3,547.1
		L468.4,547.8 L469.6,548.4 L470.7,549.1 L471.8,549.7 L473.0,550.4 L474.1,551.0 L475.3,551.7 L476.4,552.3
		L477.5,553.0 L478.7,553.7 L479.8,554.3 L481.0,555.0 L482.1,555.6 L483.2,556.3 L484.4,556.9 L485.5,557.6
		L486.7,558.3 L487.8,558.9 L489.0,559.6 L490.1,560.3 L491.2,560.9 L492.4,561.6 L493.5,562.3 L494.7,562.9
		L495.8,563.6 L496.9,564.3 L498.1,564.9 L499.2,565.6 L500.4,566.3 L501.5,566.9 L502.7,567.6 L503.8,568.3
		L504.9,568.9 L506.1,569.6 L507.2,570.3 L508.4,571.0 L509.5,571.6 L510.6,572.3 L511.8,573.0 L512.9,573.7
		L514.1,574.4 L515.2,575.0 L516.4,575.7 L517.5,576.4 L518.6,577.1 L519.8,577.8 L520.9,578.5 L522.1,579.1
		L523.2,579.8 L524.3,580.5 L525.5,581.2 L526.6,581.9 L527.8,582.6 L528.9,583.3 L530.1,583.9 L531.2,584.6
		L532.3,585.3 L533.5,586.0 L534.6,586.7 L535.8,587.4 L536.9,588.1 L538.0,588.8 L539.2,589.5 L540.3,590.2
		L541.5,590.9 L542.6,591.6 L543.8,592.3 L544.9,593.0 L546.0,593.7 L547.2,594.4 L548.3,595.1 L549.5,595.8
		L550.6,596.5 L551.7,597.2 L552.9,597.9 L554.0,598.6 L555.2,599.3 L556.3,600.0 L557.5,600.7 L558.6,601.4
		L559.7,602.2 L560.9,602.9 L562.0,603.6 L563.2,604.3 L564.3,605.0 L565.4,605.7 L566.6,606.4 L567.7,607.1
		L568.9,607.9 L570.0,608.6 L571.2,609.3 L572.3,610.0 L573.4,610.7 L574.6,611.4 L575.7,612.2 L576.9,612.9
		L578.0,613.6 L579.1,614.3 L580.3,615.0 L581.4,615.7 L582.6,616.5 L583.7,617.2 L584.9,617.9 L586.0,618.6
		L587.1,619.3 L588.3,620.1 L589.4,620.8 L590.6,621.5 L591.7,622.2 L592.8,623.0 L594.0,623.7 L595.1,624.4
		L596.3,625.1 L597.4,625.8 L598.6,626.6 L599.7,627.3 L600.8,628.0 L602.0,628.7 L603.1,629.4 L604.3,630.2
		L605.4,630.9 L606.5,631.6 L607.7,632.3 L608.8,633.0 L610.0,633.8 L611.1,634.5 L612.3,635.2 L613.4,635.9
		L614.5,636.6 L615.7,637.3 L616.8,638.1 L618.0,638.8 L619.1,639.5 L620.2,640.2 L621.4,640.9 L622.5,641.6
		L623.7,642.3 L624.8,643.0 L626.0,643.7 L627.1,644.4 L628.2,645.1 L629.4,645.8 L630.5,646.5 L631.7,647.2
		L632.8,647.9 L633.9,648.6 L635.1,649.3 L636.2,649.9 L637.4,650.6 L638.5,651.3 L639.7,652.0 L640.8,652.7
		L641.9,653.3 L643.1,654.0 L644.2,654.7 L645.4,655.3 L646.5,656.0 L647.6,656.6 L648.8,657.3 L649.9,657.9
		L651.1,658.5 L652.2,659.2 L653.4,659.8 L654.5,660.4 L655.6,661.1 L656.8,661.7 L657.9,662.3 L659.1,662.9
		L660.2,663.5 L661.3,664.1 L662.5,664.7 L663.6,665.3 L664.8,665.9 L665.9,666.4 L667.1,667.0 L668.2,667.5
		L669.3,668.1 L670.5,668.6 L671.6,669.2 L672.8,669.7 L673.9,670.2 L675.0,670.8 L676.2,671.3 L677.3,671.8
		L678.5,672.3 L679.6,672.7 L680.8,673.2 L681.9,673.7 L683.0,674.2 L684.2,674.6 L685.3,675.0 L686.5,675.5
		L687.6,675.9 L688.7,676.3 L689.9,676.7 L691.0,677.1 L692.2,677.5 L693.3,677.9 L694.5,678.2 L695.6,678.6
		L696.7,678.9 L697.9,679.3 L699.0,679.6 L700.2,679.9 L701.3,680.2 L702.4,680.5 L703.6,680.8 L704.7,681.0
		L705.9,681.3 L707.0,681.5 L708.2,681.8 L709.3,682.0 L710.4,682.2 L711.6,682.4 L712.7,682.6 L713.9,682.8
		L715.0,682.9 L716.1,683.1 L717.3,683.2 L718.4,683.4 L719.6,683.5 L720.7,683.6 L721.9,683.7 L723.0,683.7
		L724.1,683.8 L725.3,683.9 L726.4,683.9 L727.6,684.0 L728.7,684.0 L729.8,684.0 L731.0,684.0 L732.1,684.0
		L733.3,684.0 L734.4,683.9 L735.6,683.9 L736.7,683.8 L737.8,683.8 L739.0,683.7 L740.1,683.6 L741.3,683.5
		L742.4,683.4 L743.5,683.3 L744.7,683.2 L745.8,683.0 L747.0,682.9 L748.1,682.7 L749.3,682.6 L750.4,682.4
		L751.5,682.2 L752.7,682.0 L753.8,681.8 L755.0,681.6 L756.1,681.4 L757.2,681.2 L758.4,681.0 L759.5,680.7
		L760.7,680.5 L761.8,680.2 L763.0,679.9 L764.1,679.7 L765.2,679.4 L766.4,679.1 L767.5,678.8 L768.7,678.5
		L769.8,678.2 L770.9,677.9 L772.1,677.6 L773.2,677.3 L774.4,676.9 L775.5,676.6 L776.7,676.3 L777.8,675.9
		L778.9,675.6 L780.1,675.2 L781.2,674.9 L782.4,674.5 L783.5,674.1 L784.6,673.8 L785.8,673.4 L786.9,673.0
		L788.1,672.6 L789.2,672.3 L790.4,671.9 L791.5,671.5 L792.6,671.1 L793.8,670.7 L794.9,670.3 L796.1,669.9
		L797.2,669.5 L798.3,669.0 L799.5,668.6 L800.6,668.2 L801.8,667.8 L802.9,667.4 L804.1,667.0 L805.2,666.5
		L806.3,666.1 L807.5,665.7 L808.6,665.2 L809.8,664.8 L810.9,664.4 L812.0,663.9 L813.2,663.5 L814.3,663.1
		L815.5,662.6 L816.6,662.2 L817.8,661.8 L818.9,661.3 L820.0,660.9 L821.2,660.4 L822.3,660.0 L823.5,659.5
		L824.6,659.1 L825.7,658.7 L826.9,658.2 L828.0,657.8 L829.2,657.3 L830.3,656.9 L831.5,656.4 L832.6,656.0
		L833.7,655.5 L834.9,655.1 L836.0,654.6 L837.2,654.2 L838.3,653.7 L839.4,653.3 L840.6,652.8 L841.7,652.4
		L842.9,652.0 L844.0,651.5 L845.2,651.1 L846.3,650.6 L847.4,650.2 L848.6,649.7 L849.7,649.3 L850.9,648.8
		L852.0,648.4 L853.1,648.0 L854.3,647.5 L855.4,647.1 L856.6,646.6 L857.7,646.2 L858.9,645.7 L860.0,645.3
		L861.1,644.9 L862.3,644.4 L863.4,644.0 L864.6,643.6 L865.7,643.1 L866.8,642.7 L868.0,642.3 L869.1,641.8
		L870.3,641.4 L871.4,641.0 L872.5,640.5 L873.7,640.1 L874.8,639.7 L876.0,639.2 L877.1,638.8 L878.3,638.4
		L879.4,638.0 L880.5,637.5 L881.7,637.1 L882.8,636.7 L884.0,636.3 L885.1,635.9 L886.2,635.4 L887.4,635.0
		L888.5,634.6 L889.7,634.2 L890.8,633.8 L892.0,633.4 L893.1,633.0 L894.2,632.5 L895.4,632.1 L896.5,631.7
		L897.7,631.3 L898.8,630.9 L899.9,630.5 L901.1,630.1 L902.2,629.7 L903.4,629.3 L904.5,628.9 L905.7,628.5
		L906.8,628.1 L907.9,627.7 L909.1,627.3 L910.2,626.9 L911.4,626.5 L912.5,626.1 L913.6,625.7 L914.8,625.3
		L915.9,625.0 L917.1,624.6 L918.2,624.2 L919.4,623.8 L920.5,623.4 L921.6,623.0 L922.8,622.6 L923.9,622.3
		L925.1,621.9 L926.2,621.5 L927.3,621.1 L928.5,620.7 L929.6,620.4 L930.8,620.0 L931.9,619.6 L933.1,619.2
		L934.2,618.9 L935.3,618.5 L936.5,618.1 L937.6,617.8 L938.8,617.4 L939.9,617.0 L941.0,616.7 L942.2,616.3
		L943.3,615.9 L944.5,615.6 L945.6,615.2 L946.8,614.9 L947.9,614.5 L949.0,614.2 L950.2,613.8 L951.3,613.4
		L952.5,613.1 L953.6,612.7 L954.7,612.4 L955.9,612.0 L957.0,611.7 L958.2,611.3 L959.3,611.0 L960.5,610.7
		L961.6,610.3 L962.7,610.0 L963.9,609.6 L965.0,609.3 L966.2,608.9 L967.3,608.6 L968.4,608.3 L969.6,607.9
		L970.7,607.6 L971.9,607.3 L973.0,606.9 L974.2,606.6 L975.3,606.3 L976.4,605.9 L977.6,605.6 L978.7,605.3
		L979.9,605.0 L981.0,604.6 L982.1,604.3 L983.3,604.0 L984.4,603.7 L985.6,603.4 L986.7,603.0 L987.9,602.7
		L989.0,602.4 L990.1,602.1 L991.3,601.8 L992.4,601.5 L993.6,601.1 L994.7,600.8 L995.8,600.5 L997.0,600.2
		L998.1,599.9 L999.3,599.6 L1000.4,599.3 L1001.6,599.0 L1002.7,598.7 L1003.8,598.4 L1005.0,598.1 L1006.1,597.8
		L1007.3,597.5 L1008.4,597.2 L1009.5,596.9 L1010.7,596.6 L1011.8,596.3 L1013.0,596.0 L1014.1,595.7 L1015.3,595.4
		L1016.4,595.1 L1017.5,594.8 L1018.7,594.6 L1019.8,594.3 L1021.0,594.0 L1022.1,593.7 L1023.2,593.4 L1024.4,593.1
		L1025.5,592.9 L1026.7,592.6 L1027.8,592.3 L1029.0,592.0 L1030.1,591.8 L1031.2,591.5 L1032.4,591.2 L1033.5,590.9
		L1034.7,590.7 L1035.8,590.4 L1036.9,590.1 L1038.1,589.9 L1039.2,589.6 L1040.4,589.3 L1041.5,589.1 L1042.7,588.8
		L1043.8,588.5 L1044.9,588.3 L1046.1,588.0 L1047.2,587.7 L1048.4,587.5 L1049.5,587.2 L1050.6,587.0 L1051.8,586.7
		L1052.9,586.5 L1054.1,586.2 L1055.2,586.0 L1056.4,585.7 L1057.5,585.5 L1058.6,585.2 L1059.8,585.0 L1060.9,584.7
		L1062.1,584.5 L1063.2,584.2 L1064.3,584.0 L1065.5,583.8 L1066.6,583.5 L1067.8,583.3 L1068.9,583.1 L1070.1,582.8
		L1071.2,582.6 L1072.3,582.4 L1073.5,582.1 L1074.6,581.9 L1075.8,581.7 L1076.9,581.4 L1078.0,581.2 L1079.2,581.0
		L1080.3,580.8 L1081.5,580.5 L1082.6,580.3 L1083.8,580.1 L1084.9,579.9 L1086.0,579.7 L1087.2,579.4 L1088.3,579.2
		L1089.5,579.0 L1090.6,578.8 L1091.7,578.6 L1092.9,578.4 L1094.0,578.2 L1095.2,578.0 L1096.3,577.8 L1097.5,577.5
		L1098.6,577.3 L1099.7,577.1 L1100.9,576.9 L1102.0,576.7 L1103.2,576.5 L1104.3,576.3 L1105.4,576.1 L1106.6,575.9
		L1107.7,575.8 L1108.9,575.6 L1110.0,575.4 L1111.2,575.2 L1112.3,575.0 L1113.4,574.8 L1114.6,574.6 L1115.7,574.4
		L1116.9,574.2 L1118.0,574.1 L1119.1,573.9 L1120.3,573.7 L1121.4,573.5 L1122.6,573.4 L1123.7,573.2 L1124.9,573.0
		L1126.0,572.8 L1127.1,572.7 L1128.3,572.5 L1129.4,572.3 L1130.6,572.2 L1131.7,572.0 L1132.8,571.8 L1134.0,571.7
		L1135.1,571.5 L1136.3,571.3 L1137.4,571.2 L1138.6,571.0 L1139.7,570.9 L1140.8,570.7 L1142.0,570.6 L1143.1,570.4
		L1144.3,570.3 L1145.4,570.1 L1146.5,570.0 L1147.7,569.8 L1148.8,569.7 L1150.0,569.5 L1151.1,569.4 L1152.3,569.2
		L1153.4,569.1 L1154.5,569.0 L1155.7,568.8 L1156.8,568.7 L1158.0,568.6 L1159.1,568.4 L1160.2,568.3 L1161.4,568.2
		L1162.5,568.0 L1163.7,567.9 L1164.8,567.8 L1166.0,567.7 L1167.1,567.5 L1168.2,567.4 L1169.4,567.3 L1170.5,567.2
		L1171.7,567.1 L1172.8,567.0 L1173.9,566.8 L1175.1,566.7 L1176.2,566.6 L1177.4,566.5 L1178.5,566.4 L1179.7,566.3
		L1180.8,566.2 L1181.9,566.1 L1183.1,566.0 L1184.2,565.9 L1185.4,565.8 L1186.5,565.7 L1187.6,565.6 L1188.8,565.5
		L1189.9,565.4 L1191.1,565.3 L1192.2,565.2 L1193.4,565.2 L1194.5,565.1 L1195.6,565.0 L1196.8,564.9 L1197.9,564.8
		L1199.1,564.8 L1200.2,564.7 L1201.3,564.6 L1202.5,564.5 L1203.6,564.4 L1204.8,564.4 L1205.9,564.3 L1207.1,564.2
		L1208.2,564.2 L1209.3,564.1 L1210.5,564.0 L1211.6,564.0 L1212.8,563.9 L1213.9,563.9 L1215.0,563.8 L1216.2,563.8
		L1217.3,563.7 L1218.5,563.6 L1219.6,563.6 L1220.8,563.5 L1221.9,563.5 L1223.0,563.5 L1224.2,563.4 L1225.3,563.4
		L1226.5,563.3 L1227.6,563.3 L1228.7,563.2 L1229.9,563.2 L1231.0,563.2 L1232.2,563.1 L1233.3,563.1 L1234.5,563.1
		L1235.6,563.1 L1236.7,563.0 L1237.9,563.0 L1239.0,563.0 L1240.2,563.0 L1241.3,562.9 L1242.4,562.9 L1243.6,562.9
		L1244.7,562.9 L1245.9,562.9 L1247.0,562.9 L1248.2,562.8 L1249.3,562.8 L1250.4,562.8 L1251.6,562.8 L1252.7,562.8
		L1253.9,562.8 L1255.0,562.8  '/></g>
	</g>
	<g id="gnuplot_plot_4" ><title>8 (both)</title>
<g fill="none" color="black" stroke="currentColor" stroke-width="1.00" stroke-linecap="butt" stroke-linejoin="miter">
	<g transform="translate(1187.9,130.0)" stroke="none" fill="black" font-family="Arial" font-size="12.00"  text-anchor="end">
		<text><tspan font-family="Arial" >8 (both)</tspan></text>
	</g>
</g>
<g fill="none" color="black" stroke="currentColor" stroke-width="1.00" stroke-linecap="butt" stroke-linejoin="miter">
	<path stroke='rgb(230, 159,   0)'  d='M1196.2,126.1 L1238.4,126.1 M87.1,64.7 L88.2,66.9 L89.4,73.5 L90.5,83.6 L91.7,96.2 L92.8,110.4
		L93.9,125.4 L95.1,140.5 L96.2,155.5 L97.4,170.0 L98.5,183.9 L99.7,197.1 L100.8,209.6 L101.9,221.4
		L103.1,232.4 L104.2,242.8 L105.4,252.4 L106.5,261.5 L107.6,270.0 L108.8,277.9 L109.9,285.3 L111.1,292.2
		L112.2,298.6 L113.4,304.7 L114.5,310.3 L115.6,315.6 L116.8,320.5 L117.9,325.1 L119.1,329.4 L120.2,333.4
		L121.3,337.1 L122.5,340.6 L123.6,343.9 L124.8,346.9 L125.9,349.8 L127.1,352.5 L128.2,355.0 L129.3,357.3
		L130.5,359.6 L131.6,361.6 L132.8,363.6 L133.9,365.5 L135.0,367.2 L136.2,368.8 L137.3,370.4 L138.5,371.9
		L139.6,373.3 L140.8,374.6 L141.9,375.9 L143.0,377.1 L144.2,378.2 L145.3,379.3 L146.5,380.3 L147.6,381.4
		L148.7,382.3 L149.9,383.2 L151.0,384.1 L152.2,385.0 L153.3,385.8 L154.5,386.6 L155.6,387.4 L156.7,388.2
		L157.9,388.9 L159.0,389.6 L160.2,390.3 L161.3,391.0 L162.4,391.7 L163.6,392.4 L164.7,393.0 L165.9,393.6
		L167.0,394.3 L168.2,394.9 L169.3,395.5 L170.4,396.1 L171.6,396.6 L172.7,397.2 L173.9,397.8 L175.0,398.4
		L176.1,398.9 L177.3,399.5 L178.4,400.0 L179.6,400.6 L180.7,401.1 L181.9,401.6 L183.0,402.2 L184.1,402.7
		L185.3,403.2 L186.4,403.8 L187.6,404.3 L188.7,404.8 L189.8,405.3 L191.0,405.8 L192.1,406.4 L193.3,406.9
		L194.4,407.4 L195.6,407.9 L196.7,408.4 L197.8,408.9 L199.0,409.5 L200.1,410.0 L201.3,410.5 L202.4,411.0
		L203.5,411.5 L204.7,412.0 L205.8,412.6 L207.0,413.1 L208.1,413.6 L209.3,414.1 L210.4,414.6 L211.5,415.1
		L212.7,415.7 L213.8,416.2 L215.0,416.7 L216.1,417.2 L217.2,417.7 L218.4,418.3 L219.5,418.8 L220.7,419.3
		L221.8,419.8 L223.0,420.4 L224.1,420.9 L225.2,421.4 L226.4,422.0 L227.5,422.5 L228.7,423.0 L229.8,423.6
		L230.9,424.1 L232.1,424.6 L233.2,425.2 L234.4,425.7 L235.5,426.2 L236.7,426.8 L237.8,427.3 L238.9,427.9
		L240.1,428.4 L241.2,428.9 L242.4,429.5 L243.5,430.0 L244.6,430.6 L245.8,431.1 L246.9,431.7 L248.1,432.2
		L249.2,432.8 L250.4,433.3 L251.5,433.9 L252.6,434.4 L253.8,435.0 L254.9,435.6 L256.1,436.1 L257.2,436.7
		L258.3,437.2 L259.5,437.8 L260.6,438.4 L261.8,438.9 L262.9,439.5 L264.1,440.1 L265.2,440.6 L266.3,441.2
		L267.5,441.8 L268.6,442.3 L269.8,442.9 L270.9,443.5 L272.0,444.0 L273.2,444.6 L274.3,445.2 L275.5,445.8
		L276.6,446.3 L277.8,446.9 L278.9,447.5 L280.0,448.1 L281.2,448.6 L282.3,449.2 L283.5,449.8 L284.6,450.4
		L285.7,451.0 L286.9,451.6 L288.0,452.1 L289.2,452.7 L290.3,453.3 L291.5,453.9 L292.6,454.5 L293.7,455.1
		L294.9,455.7 L296.0,456.2 L297.2,456.8 L298.3,457.4 L299.4,458.0 L300.6,458.6 L301.7,459.2 L302.9,459.8
		L304.0,460.4 L305.2,461.0 L306.3,461.6 L307.4,462.2 L308.6,462.8 L309.7,463.4 L310.9,464.0 L312.0,464.6
		L313.1,465.2 L314.3,465.8 L315.4,466.4 L316.6,467.0 L317.7,467.6 L318.9,468.2 L320.0,468.8 L321.1,469.4
		L322.3,470.0 L323.4,470.6 L324.6,471.2 L325.7,471.8 L326.8,472.4 L328.0,473.0 L329.1,473.6 L330.3,474.2
		L331.4,474.8 L332.6,475.4 L333.7,476.1 L334.8,476.7 L336.0,477.3 L337.1,477.9 L338.3,478.5 L339.4,479.1
		L340.5,479.7 L341.7,480.3 L342.8,480.9 L344.0,481.6 L345.1,482.2 L346.3,482.8 L347.4,483.4 L348.5,484.0
		L349.7,484.6 L350.8,485.2 L352.0,485.9 L353.1,486.5 L354.2,487.1 L355.4,487.7 L356.5,488.3 L357.7,488.9
		L358.8,489.6 L360.0,490.2 L361.1,490.8 L362.2,491.4 L363.4,492.0 L364.5,492.7 L365.7,493.3 L366.8,493.9
		L367.9,494.5 L369.1,495.1 L370.2,495.8 L371.4,496.4 L372.5,497.0 L373.7,497.6 L374.8,498.3 L375.9,498.9
		L377.1,499.5 L378.2,500.1 L379.4,500.8 L380.5,501.4 L381.6,502.0 L382.8,502.6 L383.9,503.3 L385.1,503.9
		L386.2,504.5 L387.4,505.1 L388.5,505.8 L389.6,506.4 L390.8,507.0 L391.9,507.7 L393.1,508.3 L394.2,508.9
		L395.3,509.5 L396.5,510.2 L397.6,510.8 L398.8,511.4 L399.9,512.1 L401.1,512.7 L402.2,513.3 L403.3,514.0
		L404.5,514.6 L405.6,515.2 L406.8,515.9 L407.9,516.5 L409.0,517.1 L410.2,517.8 L411.3,518.4 L412.5,519.0
		L413.6,519.7 L414.8,520.3 L415.9,520.9 L417.0,521.6 L418.2,522.2 L419.3,522.8 L420.5,523.5 L421.6,524.1
		L422.7,524.7 L423.9,525.4 L425.0,526.0 L426.2,526.7 L427.3,527.3 L428.5,527.9 L429.6,528.6 L430.7,529.2
		L431.9,529.8 L433.0,530.5 L434.2,531.1 L435.3,531.8 L436.4,532.4 L437.6,533.0 L438.7,533.7 L439.9,534.3
		L441.0,535.0 L442.2,535.6 L443.3,536.3 L444.4,536.9 L445.6,537.5 L446.7,538.2 L447.9,538.8 L449.0,539.5
		L450.1,540.1 L451.3,540.8 L452.4,541.4 L453.6,542.1 L454.7,542.7 L455.9,543.3 L457.0,544.0 L458.1,544.6
		L459.3,545.3 L460.4,545.9 L461.6,546.6 L462.7,547.2 L463.8,547.9 L465.0,548.5 L466.1,549.2 L467.3,549.8
		L468.4,550.5 L469.6,551.1 L470.7,551.8 L471.8,552.4 L473.0,553.1 L474.1,553.7 L475.3,554.4 L476.4,555.0
		L477.5,555.7 L478.7,556.3 L479.8,557.0 L481.0,557.7 L482.1,558.3 L483.2,559.0 L484.4,559.6 L485.5,560.3
		L486.7,560.9 L487.8,561.6 L489.0,562.2 L490.1,562.9 L491.2,563.6 L492.4,564.2 L493.5,564.9 L494.7,565.5
		L495.8,566.2 L496.9,566.9 L498.1,567.5 L499.2,568.2 L500.4,568.8 L501.5,569.5 L502.7,570.2 L503.8,570.8
		L504.9,571.5 L506.1,572.1 L507.2,572.8 L508.4,573.5 L509.5,574.1 L510.6,574.8 L511.8,575.5 L512.9,576.1
		L514.1,576.8 L515.2,577.5 L516.4,578.1 L517.5,578.8 L518.6,579.5 L519.8,580.1 L520.9,580.8 L522.1,581.5
		L523.2,582.1 L524.3,582.8 L525.5,583.5 L526.6,584.1 L527.8,584.8 L528.9,585.5 L530.1,586.2 L531.2,586.8
		L532.3,587.5 L533.5,588.2 L534.6,588.8 L535.8,589.5 L536.9,590.2 L538.0,590.9 L539.2,591.5 L540.3,592.2
		L541.5,592.9 L542.6,593.6 L543.8,594.2 L544.9,594.9 L546.0,595.6 L547.2,596.3 L548.3,596.9 L549.5,597.6
		L550.6,598.3 L551.7,599.0 L552.9,599.6 L554.0,600.3 L555.2,601.0 L556.3,601.7 L557.5,602.3 L558.6,603.0
		L559.7,603.7 L560.9,604.4 L562.0,605.1 L563.2,605.7 L564.3,606.4 L565.4,607.1 L566.6,607.8 L567.7,608.5
		L568.9,609.1 L570.0,609.8 L571.2,610.5 L572.3,611.2 L573.4,611.9 L574.6,612.5 L575.7,613.2 L576.9,613.9
		L578.0,614.6 L579.1,615.2 L580.3,615.9 L581.4,616.6 L582.6,617.3 L583.7,618.0 L584.9,618.6 L586.0,619.3
		L587.1,620.0 L588.3,620.7 L589.4,621.3 L590.6,622.0 L591.7,622.7 L592.8,623.4 L594.0,624.1 L595.1,624.7
		L596.3,625.4 L597.4,626.1 L598.6,626.7 L599.7,627.4 L600.8,628.1 L602.0,628.8 L603.1,629.4 L604.3,630.1
		L605.4,630.8 L606.5,631.4 L607.7,632.1 L608.8,632.8 L610.0,633.4 L611.1,634.1 L612.3,634.8 L613.4,635.4
		L614.5,636.1 L615.7,636.7 L616.8,637.4 L618.0,638.1 L619.1,638.7 L620.2,639.4 L621.4,640.0 L622.5,640.7
		L623.7,641.3 L624.8,642.0 L626.0,642.6 L627.1,643.2 L628.2,643.9 L629.4,644.5 L630.5,645.2 L631.7,645.8
		L632.8,646.4 L633.9,647.1 L635.1,647.7 L636.2,648.3 L637.4,648.9 L638.5,649.5 L639.7,650.2 L640.8,650.8
		L641.9,651.4 L643.1,652.0 L644.2,652.6 L645.4,653.2 L646.5,653.8 L647.6,654.4 L648.8,655.0 L649.9,655.6
		L651.1,656.1 L652.2,656.7 L653.4,657.3 L654.5,657.9 L655.6,658.4 L656.8,659.0 L657.9,659.6 L659.1,660.1
		L660.2,660.7 L661.3,661.2 L662.5,661.7 L663.6,662.3 L664.8,662.8 L665.9,663.3 L667.1,663.8 L668.2,664.4
		L669.3,664.9 L670.5,665.4 L671.6,665.9 L672.8,666.4 L673.9,666.8 L675.0,667.3 L676.2,667.8 L677.3,668.2
		L678.5,668.7 L679.6,669.2 L680.8,669.6 L681.9,670.0 L683.0,670.5 L684.2,670.9 L685.3,671.3 L686.5,671.7
		L687.6,672.1 L688.7,672.5 L689.9,672.9 L691.0,673.3 L692.2,673.6 L693.3,674.0 L694.5,674.4 L695.6,674.7
		L696.7,675.0 L697.9,675.4 L699.0,675.7 L700.2,676.0 L701.3,676.3 L702.4,676.6 L703.6,676.9 L704.7,677.2
		L705.9,677.4 L707.0,677.7 L708.2,678.0 L709.3,678.2 L710.4,678.4 L711.6,678.6 L712.7,678.9 L713.9,679.1
		L715.0,679.3 L716.1,679.4 L717.3,679.6 L718.4,679.8 L719.6,679.9 L720.7,680.1 L721.9,680.2 L723.0,680.4
		L724.1,680.5 L725.3,680.6 L726.4,680.7 L727.6,680.8 L728.7,680.9 L729.8,680.9 L731.0,681.0 L732.1,681.0
		L733.3,681.1 L734.4,681.1 L735.6,681.2 L736.7,681.2 L737.8,681.2 L739.0,681.2 L740.1,681.2 L741.3,681.1
		L742.4,681.1 L743.5,681.1 L744.7,681.0 L745.8,681.0 L747.0,680.9 L748.1,680.8 L749.3,680.8 L750.4,680.7
		L751.5,680.6 L752.7,680.5 L753.8,680.3 L755.0,680.2 L756.1,680.1 L757.2,680.0 L758.4,679.8 L759.5,679.7
		L760.7,679.5 L761.8,679.3 L763.0,679.2 L764.1,679.0 L765.2,678.8 L766.4,678.6 L767.5,678.4 L768.7,678.2
		L769.8,678.0 L770.9,677.8 L772.1,677.5 L773.2,677.3 L774.4,677.1 L775.5,676.8 L776.7,676.6 L777.8,676.3
		L778.9,676.0 L780.1,675.8 L781.2,675.5 L782.4,675.2 L783.5,674.9 L784.6,674.7 L785.8,674.4 L786.9,674.1
		L788.1,673.8 L789.2,673.5 L790.4,673.2 L791.5,672.8 L792.6,672.5 L793.8,672.2 L794.9,671.9 L796.1,671.5
		L797.2,671.2 L798.3,670.9 L799.5,670.5 L800.6,670.2 L801.8,669.8 L802.9,669.5 L804.1,669.1 L805.2,668.8
		L806.3,668.4 L807.5,668.1 L808.6,667.7 L809.8,667.3 L810.9,667.0 L812.0,666.6 L813.2,666.2 L814.3,665.8
		L815.5,665.5 L816.6,665.1 L817.8,664.7 L818.9,664.3 L820.0,663.9 L821.2,663.5 L822.3,663.2 L823.5,662.8
		L824.6,662.4 L825.7,662.0 L826.9,661.6 L828.0,661.2 L829.2,660.8 L830.3,660.4 L831.5,660.0 L832.6,659.6
		L833.7,659.2 L834.9,658.8 L836.0,658.4 L837.2,658.0 L838.3,657.6 L839.4,657.2 L840.6,656.7 L841.7,656.3
		L842.9,655.9 L844.0,655.5 L845.2,655.1 L846.3,654.7 L847.4,654.3 L848.6,653.9 L849.7,653.5 L850.9,653.0
		L852.0,652.6 L853.1,652.2 L854.3,651.8 L855.4,651.4 L856.6,651.0 L857.7,650.6 L858.9,650.2 L860.0,649.7
		L861.1,649.3 L862.3,648.9 L863.4,648.5 L864.6,648.1 L865.7,647.7 L866.8,647.3 L868.0,646.8 L869.1,646.4
		L870.3,646.0 L871.4,645.6 L872.5,645.2 L873.7,644.8 L874.8,644.4 L876.0,643.9 L877.1,643.5 L878.3,643.1
		L879.4,642.7 L880.5,642.3 L881.7,641.9 L882.8,641.5 L884.0,641.1 L885.1,640.7 L886.2,640.2 L887.4,639.8
		L888.5,639.4 L889.7,639.0 L890.8,638.6 L892.0,638.2 L893.1,637.8 L894.2,637.4 L895.4,637.0 L896.5,636.6
		L897.7,636.2 L898.8,635.8 L899.9,635.4 L901.1,635.0 L902.2,634.6 L903.4,634.2 L904.5,633.8 L905.7,633.4
		L906.8,633.0 L907.9,632.6 L909.1,632.2 L910.2,631.8 L911.4,631.4 L912.5,631.0 L913.6,630.6 L914.8,630.2
		L915.9,629.8 L917.1,629.4 L918.2,629.0 L919.4,628.6 L920.5,628.2 L921.6,627.8 L922.8,627.5 L923.9,627.1
		L925.1,626.7 L926.2,626.3 L927.3,625.9 L928.5,625.5 L929.6,625.1 L930.8,624.7 L931.9,624.4 L933.1,624.0
		L934.2,623.6 L935.3,623.2 L936.5,622.8 L937.6,622.5 L938.8,622.1 L939.9,621.7 L941.0,621.3 L942.2,621.0
		L943.3,620.6 L944.5,620.2 L945.6,619.8 L946.8,619.5 L947.9,619.1 L949.0,618.7 L950.2,618.3 L951.3,618.0
		L952.5,617.6 L953.6,617.2 L954.7,616.9 L955.9,616.5 L957.0,616.1 L958.2,615.8 L959.3,615.4 L960.5,615.0
		L961.6,614.7 L962.7,614.3 L963.9,614.0 L965.0,613.6 L966.2,613.2 L967.3,612.9 L968.4,612.5 L969.6,612.2
		L970.7,611.8 L971.9,611.5 L973.0,611.1 L974.2,610.8 L975.3,610.4 L976.4,610.1 L977.6,609.7 L978.7,609.4
		L979.9,609.0 L981.0,608.7 L982.1,608.3 L983.3,608.0 L984.4,607.6 L985.6,607.3 L986.7,606.9 L987.9,606.6
		L989.0,606.3 L990.1,605.9 L991.3,605.6 L992.4,605.3 L993.6,604.9 L994.7,604.6 L995.8,604.2 L997.0,603.9
		L998.1,603.6 L999.3,603.2 L1000.4,602.9 L1001.6,602.6 L1002.7,602.3 L1003.8,601.9 L1005.0,601.6 L1006.1,601.3
		L1007.3,600.9 L1008.4,600.6 L1009.5,600.3 L1010.7,600.0 L1011.8,599.7 L1013.0,599.3 L1014.1,599.0 L1015.3,598.7
		L1016.4,598.4 L1017.5,598.1 L1018.7,597.7 L1019.8,597.4 L1021.0,597.1 L1022.1,596.8 L1023.2,596.5 L1024.4,596.2
		L1025.5,595.9 L1026.7,595.6 L1027.8,595.3 L1029.0,594.9 L1030.1,594.6 L1031.2,594.3 L1032.4,594.0 L1033.5,593.7
		L1034.7,593.4 L1035.8,593.1 L1036.9,592.8 L1038.1,592.5 L1039.2,592.2 L1040.4,591.9 L1041.5,591.6 L1042.7,591.3
		L1043.8,591.1 L1044.9,590.8 L1046.1,590.5 L1047.2,590.2 L1048.4,589.9 L1049.5,589.6 L1050.6,589.3 L1051.8,589.0
		L1052.9,588.7 L1054.1,588.5 L1055.2,588.2 L1056.4,587.9 L1057.5,587.6 L1058.6,587.3 L1059.8,587.1 L1060.9,586.8
		L1062.1,586.5 L1063.2,586.2 L1064.3,586.0 L1065.5,585.7 L1066.6,585.4 L1067.8,585.1 L1068.9,584.9 L1070.1,584.6
		L1071.2,584.3 L1072.3,584.1 L1073.5,583.8 L1074.6,583.5 L1075.8,583.3 L1076.9,583.0 L1078.0,582.8 L1079.2,582.5
		L1080.3,582.2 L1081.5,582.0 L1082.6,581.7 L1083.8,581.5 L1084.9,581.2 L1086.0,581.0 L1087.2,580.7 L1088.3,580.5
		L1089.5,580.2 L1090.6,580.0 L1091.7,579.7 L1092.9,579.5 L1094.0,579.3 L1095.2,579.0 L1096.3,578.8 L1097.5,578.5
		L1098.6,578.3 L1099.7,578.1 L1100.9,577.8 L1102.0,577.6 L1103.2,577.4 L1104.3,577.1 L1105.4,576.9 L1106.6,576.7
		L1107.7,576.5 L1108.9,576.2 L1110.0,576.0 L1111.2,575.8 L1112.3,575.6 L1113.4,575.4 L1114.6,575.1 L1115.7,574.9
		L1116.9,574.7 L1118.0,574.5 L1119.1,574.3 L1120.3,574.1 L1121.4,573.9 L1122.6,573.7 L1123.7,573.4 L1124.9,573.2
		L1126.0,573.0 L1127.1,572.8 L1128.3,572.6 L1129.4,572.4 L1130.6,572.2 L1131.7,572.0 L1132.8,571.8 L1134.0,571.7
		L1135.1,571.5 L1136.3,571.3 L1137.4,571.1 L1138.6,570.9 L1139.7,570.7 L1140.8,570.5 L1142.0,570.3 L1143.1,570.2
		L1144.3,570.0 L1145.4,569.8 L1146.5,569.6 L1147.7,569.5 L1148.8,569.3 L1150.0,569.1 L1151.1,568.9 L1152.3,568.8
		L1153.4,568.6 L1154.5,568.5 L1155.7,568.3 L1156.8,568.1 L1158.0,568.0 L1159.1,567.8 L1160.2,567.7 L1161.4,567.5
		L1162.5,567.3 L1163.7,567.2 L1164.8,567.0 L1166.0,566.9 L1167.1,566.8 L1168.2,566.6 L1169.4,566.5 L1170.5,566.3
		L1171.7,566.2 L1172.8,566.0 L1173.9,565.9 L1175.1,565.8 L1176.2,565.6 L1177.4,565.5 L1178.5,565.4 L1179.7,565.3
		L1180.8,565.1 L1181.9,565.0 L1183.1,564.9 L1184.2,564.8 L1185.4,564.7 L1186.5,564.5 L1187.6,564.4 L1188.8,564.3
		L1189.9,564.2 L1191.1,564.1 L1192.2,564.0 L1193.4,563.9 L1194.5,563.8 L1195.6,563.7 L1196.8,563.6 L1197.9,563.5
		L1199.1,563.4 L1200.2,563.3 L1201.3,563.2 L1202.5,563.1 L1203.6,563.0 L1204.8,562.9 L1205.9,562.8 L1207.1,562.8
		L1208.2,562.7 L1209.3,562.6 L1210.5,562.5 L1211.6,562.4 L1212.8,562.4 L1213.9,562.3 L1215.0,562.2 L1216.2,562.2
		L1217.3,562.1 L1218.5,562.0 L1219.6,562.0 L1220.8,561.9 L1221.9,561.9 L1223.0,561.8 L1224.2,561.7 L1225.3,561.7
		L1226.5,561.6 L1227.6,561.6 L1228.7,561.5 L1229.9,561.5 L1231.0,561.5 L1232.2,561.4 L1233.3,561.4 L1234.5,561.3
		L1235.6,561.3 L1236.7,561.3 L1237.9,561.2 L1239.0,561.2 L1240.2,561.2 L1241.3,561.2 L1242.4,561.1 L1243.6,561.1
		L1244.7,561.1 L1245.9,561.1 L1247.0,561.1 L1248.2,561.1 L1249.3,561.0 L1250.4,561.0 L1251.6,561.0 L1252.7,561.0
		L1253.9,561.0 L1255.0,561.0  '/></g>
	</g>
<g fill="none" color="white" stroke="rgb(230, 159,   0)" stroke-width="2.00" stroke-linecap="butt" stroke-linejoin="miter">
</g>
<g fill="none" color="black" stroke="currentColor" stroke-width="2.00" stroke-linecap="butt" stroke-linejoin="miter">
</g>
<g fill="none" color="black" stroke="black" stroke-width="1.00" stroke-linecap="butt" stroke-linejoin="miter">
</g>
<g fill="none" color="black" stroke="currentColor" stroke-width="1.00" stroke-linecap="butt" stroke-linejoin="miter">
	<path stroke='black'  d='M87.1,54.1 L87.1,684.0 L1255.0,684.0 L1255.0,54.1 L87.1,54.1 Z  '/></g>
<g fill="none" color="black" stroke="currentColor" stroke-width="1.00" stroke-linecap="butt" stroke-linejoin="miter">
</g>
</g>
</svg>

