<?xml version="1.0" encoding="utf-8"  standalone="no"?>
<svg 
 width="1280" height="720"
 viewBox="0 0 1280 720"
 xmlns="http://www.w3.org/2000/svg"
 xmlns:xlink="http://www.w3.org/1999/xlink"
>

<title>Gnuplot</title>
<desc>Produced by GNUPLOT 5.0 patchlevel 6 </desc>

<g id="gnuplot_canvas">

<rect x="0" y="0" width="1280" height="720" fill="none"/>
<defs>

	<circle id='gpDot' r='0.5' stroke-width='0.5'/>
	<path id='gpPt0' stroke-width='0.222' stroke='currentColor' d='M-1,0 h2 M0,-1 v2'/>
	<path id='gpPt1' stroke-width='0.222' stroke='currentColor' d='M-1,-1 L1,1 M1,-1 L-1,1'/>
	<path id='gpPt2' stroke-width='0.222' stroke='currentColor' d='M-1,0 L1,0 M0,-1 L0,1 M-1,-1 L1,1 M-1,1 L1,-1'/>
	<rect id='gpPt3' stroke-width='0.222' stroke='currentColor' x='-1' y='-1' width='2' height='2'/>
	<rect id='gpPt4' stroke-width='0.222' stroke='currentColor' fill='currentColor' x='-1' y='-1' width='2' height='2'/>
	<circle id='gpPt5' stroke-width='0.222' stroke='currentColor' cx='0' cy='0' r='1'/>
	<use xlink:href='#gpPt5' id='gpPt6' fill='currentColor' stroke='none'/>
	<path id='gpPt7' stroke-width='0.222' stroke='currentColor' d='M0,-1.33 L-1.33,0.67 L1.33,0.67 z'/>
	<use xlink:href='#gpPt7' id='gpPt8' fill='currentColor' stroke='none'/>
	<use xlink:href='#gpPt7' id='gpPt9' stroke='currentColor' transform='rotate(180)'/>
	<use xlink:href='#gpPt9' id='gpPt10' fill='currentColor' stroke='none'/>
	<use xlink:href='#gpPt3' id='gpPt11' stroke='currentColor' transform='rotate(45)'/>
	<use xlink:href='#gpPt11' id='gpPt12' fill='currentColor' stroke='none'/>
	<path id='gpPt13' stroke-width='0.222' stroke='currentColor' d='M0,1.330 L1.265,0.411 L0.782,-1.067 L-0.782,-1.076 L-1.265,0.411 z'/>
	<use xlink:href='#gpPt13' id='gpPt14' fill='currentColor' stroke='none'/>
	<filter id='textbox' filterUnits='objectBoundingBox' x='0' y='0' height='1' width='1'>
	  <feFlood flood-color='white' flood-opacity='1' result='bgnd'/>
	  <feComposite in='SourceGraphic' in2='bgnd' operator='atop'/>
	</filter>
	<filter id='greybox' filterUnits='objectBoundingBox' x='0' y='0' height='1' width='1'>
	  <feFlood flood-color='lightgrey' flood-opacity='1' result='grey'/>
	  <feComposite in='SourceGraphic' in2='grey' operator='atop'/>
	</filter>
</defs>
<g fill="none" color="white" stroke="currentColor" stroke-width="1.00" stroke-linecap="butt" stroke-linejoin="miter">
</g>
<g fill="none" color="black" stroke="currentColor" stroke-width="1.00" stroke-linecap="butt" stroke-linejoin="miter">
	<path stroke='black'  d='M112.0,672.3 L121.0,672.3 M1255.0,672.3 L1246.0,672.3  '/>	<g transform="translate(103.7,676.2)" stroke="none" fill="black" font-family="Arial" font-size="12.00"  text-anchor="end">
		<text><tspan font-family="Arial" > 0.0001952</tspan></text>
	</g>
</g>
<g fill="none" color="black" stroke="currentColor" stroke-width="1.00" stroke-linecap="butt" stroke-linejoin="miter">
	<path stroke='black'  d='M112.0,363.9 L121.0,363.9 M1255.0,363.9 L1246.0,363.9  '/>	<g transform="translate(103.7,367.8)" stroke="none" fill="black" font-family="Arial" font-size="12.00"  text-anchor="end">
		<text><tspan font-family="Arial" > 0.00576733</tspan></text>
	</g>
</g>
<g fill="none" color="black" stroke="currentColor" stroke-width="1.00" stroke-linecap="butt" stroke-linejoin="miter">
	<path stroke='black'  d='M112.0,55.6 L121.0,55.6 M1255.0,55.6 L1246.0,55.6  '/>	<g transform="translate(103.7,59.5)" stroke="none" fill="black" font-family="Arial" font-size="12.00"  text-anchor="end">
		<text><tspan font-family="Arial" > 0.1704</tspan></text>
	</g>
</g>
<g fill="none" color="black" stroke="currentColor" stroke-width="1.00" stroke-linecap="butt" stroke-linejoin="miter">
	<path stroke='black'  d='M112.0,684.0 L112.0,675.0 M112.0,54.1 L112.0,63.1  '/>	<g transform="translate(112.0,705.9)" stroke="none" fill="black" font-family="Arial" font-size="12.00"  text-anchor="middle">
		<text><tspan font-family="Arial" > 0</tspan></text>
	</g>
</g>
<g fill="none" color="black" stroke="currentColor" stroke-width="1.00" stroke-linecap="butt" stroke-linejoin="miter">
	<path stroke='black'  d='M683.5,684.0 L683.5,675.0 M683.5,54.1 L683.5,63.1  '/>	<g transform="translate(683.5,705.9)" stroke="none" fill="black" font-family="Arial" font-size="12.00"  text-anchor="middle">
		<text><tspan font-family="Arial" >pi/2</tspan></text>
	</g>
</g>
<g fill="none" color="black" stroke="currentColor" stroke-width="1.00" stroke-linecap="butt" stroke-linejoin="miter">
	<path stroke='black'  d='M1255.0,684.0 L1255.0,675.0 M1255.0,54.1 L1255.0,63.1  '/>	<g transform="translate(1255.0,705.9)" stroke="none" fill="black" font-family="Arial" font-size="12.00"  text-anchor="middle">
		<text><tspan font-family="Arial" >pi</tspan></text>
	</g>
</g>
<g fill="none" color="black" stroke="currentColor" stroke-width="1.00" stroke-linecap="butt" stroke-linejoin="miter">
</g>
<g fill="none" color="black" stroke="currentColor" stroke-width="1.00" stroke-linecap="butt" stroke-linejoin="miter">
	<path stroke='black'  d='M112.0,54.1 L112.0,684.0 L1255.0,684.0 L1255.0,54.1 L112.0,54.1 Z  '/></g>
<g fill="none" color="black" stroke="currentColor" stroke-width="1.00" stroke-linecap="butt" stroke-linejoin="miter">
	<g transform="translate(683.5,31.0)" stroke="none" fill="black" font-family="Arial" font-size="12.00"  text-anchor="middle">
		<text><tspan font-family="Arial" >Material 20</tspan></text>
	</g>
</g>
	<g id="gnuplot_plot_1" ><title>scattering function</title>
<g fill="none" color="black" stroke="currentColor" stroke-width="1.00" stroke-linecap="butt" stroke-linejoin="miter">
	<g transform="translate(1187.9,76.0)" stroke="none" fill="black" font-family="Arial" font-size="12.00"  text-anchor="end">
		<text><tspan font-family="Arial" >scattering function</tspan></text>
	</g>
</g>
<g fill="none" color="black" stroke="currentColor" stroke-width="1.00" stroke-linecap="butt" stroke-linejoin="miter">
	<use xlink:href='#gpPt5' transform='translate(112.0,55.6) scale(2.25)' color='black'/>
	<use xlink:href='#gpPt5' transform='translate(112.6,56.6) scale(2.25)' color='black'/>
	<use xlink:href='#gpPt5' transform='translate(113.3,59.4) scale(2.25)' color='black'/>
	<use xlink:href='#gpPt5' transform='translate(113.9,64.1) scale(2.25)' color='black'/>
	<use xlink:href='#gpPt5' transform='translate(114.5,70.3) scale(2.25)' color='black'/>
	<use xlink:href='#gpPt5' transform='translate(115.2,77.7) scale(2.25)' color='black'/>
	<use xlink:href='#gpPt5' transform='translate(115.8,86.1) scale(2.25)' color='black'/>
	<use xlink:href='#gpPt5' transform='translate(116.4,95.0) scale(2.25)' color='black'/>
	<use xlink:href='#gpPt5' transform='translate(117.1,104.0) scale(2.25)' color='black'/>
	<use xlink:href='#gpPt5' transform='translate(117.7,112.9) scale(2.25)' color='black'/>
	<use xlink:href='#gpPt5' transform='translate(118.4,121.3) scale(2.25)' color='black'/>
	<use xlink:href='#gpPt5' transform='translate(119.0,129.1) scale(2.25)' color='black'/>
	<use xlink:href='#gpPt5' transform='translate(119.6,136.5) scale(2.25)' color='black'/>
	<use xlink:href='#gpPt5' transform='translate(120.3,143.3) scale(2.25)' color='black'/>
	<use xlink:href='#gpPt5' transform='translate(120.9,149.8) scale(2.25)' color='black'/>
	<use xlink:href='#gpPt5' transform='translate(121.5,155.9) scale(2.25)' color='black'/>
	<use xlink:href='#gpPt5' transform='translate(122.2,161.7) scale(2.25)' color='black'/>
	<use xlink:href='#gpPt5' transform='translate(122.8,167.2) scale(2.25)' color='black'/>
	<use xlink:href='#gpPt5' transform='translate(123.4,172.4) scale(2.25)' color='black'/>
	<use xlink:href='#gpPt5' transform='translate(124.1,177.3) scale(2.25)' color='black'/>
	<use xlink:href='#gpPt5' transform='translate(124.7,181.9) scale(2.25)' color='black'/>
	<use xlink:href='#gpPt5' transform='translate(131.1,216.3) scale(2.25)' color='black'/>
	<use xlink:href='#gpPt5' transform='translate(137.4,236.8) scale(2.25)' color='black'/>
	<use xlink:href='#gpPt5' transform='translate(143.8,249.9) scale(2.25)' color='black'/>
	<use xlink:href='#gpPt5' transform='translate(150.1,259.0) scale(2.25)' color='black'/>
	<use xlink:href='#gpPt5' transform='translate(162.8,271.8) scale(2.25)' color='black'/>
	<use xlink:href='#gpPt5' transform='translate(175.5,281.8) scale(2.25)' color='black'/>
	<use xlink:href='#gpPt5' transform='translate(188.2,290.9) scale(2.25)' color='black'/>
	<use xlink:href='#gpPt5' transform='translate(200.9,299.8) scale(2.25)' color='black'/>
	<use xlink:href='#gpPt5' transform='translate(213.6,308.7) scale(2.25)' color='black'/>
	<use xlink:href='#gpPt5' transform='translate(226.3,317.8) scale(2.25)' color='black'/>
	<use xlink:href='#gpPt5' transform='translate(239.0,326.9) scale(2.25)' color='black'/>
	<use xlink:href='#gpPt5' transform='translate(251.7,336.3) scale(2.25)' color='black'/>
	<use xlink:href='#gpPt5' transform='translate(264.4,345.7) scale(2.25)' color='black'/>
	<use xlink:href='#gpPt5' transform='translate(277.1,355.3) scale(2.25)' color='black'/>
	<use xlink:href='#gpPt5' transform='translate(289.8,364.9) scale(2.25)' color='black'/>
	<use xlink:href='#gpPt5' transform='translate(302.5,374.5) scale(2.25)' color='black'/>
	<use xlink:href='#gpPt5' transform='translate(315.2,384.2) scale(2.25)' color='black'/>
	<use xlink:href='#gpPt5' transform='translate(327.9,393.9) scale(2.25)' color='black'/>
	<use xlink:href='#gpPt5' transform='translate(340.6,403.6) scale(2.25)' color='black'/>
	<use xlink:href='#gpPt5' transform='translate(353.3,413.2) scale(2.25)' color='black'/>
	<use xlink:href='#gpPt5' transform='translate(366.0,422.8) scale(2.25)' color='black'/>
	<use xlink:href='#gpPt5' transform='translate(378.7,432.4) scale(2.25)' color='black'/>
	<use xlink:href='#gpPt5' transform='translate(391.4,441.9) scale(2.25)' color='black'/>
	<use xlink:href='#gpPt5' transform='translate(404.1,451.2) scale(2.25)' color='black'/>
	<use xlink:href='#gpPt5' transform='translate(416.8,460.6) scale(2.25)' color='black'/>
	<use xlink:href='#gpPt5' transform='translate(429.5,469.8) scale(2.25)' color='black'/>
	<use xlink:href='#gpPt5' transform='translate(442.2,478.9) scale(2.25)' color='black'/>
	<use xlink:href='#gpPt5' transform='translate(454.9,487.9) scale(2.25)' color='black'/>
	<use xlink:href='#gpPt5' transform='translate(467.6,496.8) scale(2.25)' color='black'/>
	<use xlink:href='#gpPt5' transform='translate(480.3,505.5) scale(2.25)' color='black'/>
	<use xlink:href='#gpPt5' transform='translate(493.0,514.2) scale(2.25)' color='black'/>
	<use xlink:href='#gpPt5' transform='translate(505.7,522.7) scale(2.25)' color='black'/>
	<use xlink:href='#gpPt5' transform='translate(518.4,531.0) scale(2.25)' color='black'/>
	<use xlink:href='#gpPt5' transform='translate(531.1,539.2) scale(2.25)' color='black'/>
	<use xlink:href='#gpPt5' transform='translate(543.8,547.2) scale(2.25)' color='black'/>
	<use xlink:href='#gpPt5' transform='translate(556.5,555.0) scale(2.25)' color='black'/>
	<use xlink:href='#gpPt5' transform='translate(569.2,562.7) scale(2.25)' color='black'/>
	<use xlink:href='#gpPt5' transform='translate(581.9,570.2) scale(2.25)' color='black'/>
	<use xlink:href='#gpPt5' transform='translate(594.6,577.5) scale(2.25)' color='black'/>
	<use xlink:href='#gpPt5' transform='translate(607.3,584.6) scale(2.25)' color='black'/>
	<use xlink:href='#gpPt5' transform='translate(620.0,591.5) scale(2.25)' color='black'/>
	<use xlink:href='#gpPt5' transform='translate(632.7,598.1) scale(2.25)' color='black'/>
	<use xlink:href='#gpPt5' transform='translate(645.4,604.5) scale(2.25)' color='black'/>
	<use xlink:href='#gpPt5' transform='translate(658.1,610.7) scale(2.25)' color='black'/>
	<use xlink:href='#gpPt5' transform='translate(670.8,616.7) scale(2.25)' color='black'/>
	<use xlink:href='#gpPt5' transform='translate(683.5,622.3) scale(2.25)' color='black'/>
	<use xlink:href='#gpPt5' transform='translate(696.2,627.8) scale(2.25)' color='black'/>
	<use xlink:href='#gpPt5' transform='translate(708.9,632.8) scale(2.25)' color='black'/>
	<use xlink:href='#gpPt5' transform='translate(721.6,637.6) scale(2.25)' color='black'/>
	<use xlink:href='#gpPt5' transform='translate(734.3,642.2) scale(2.25)' color='black'/>
	<use xlink:href='#gpPt5' transform='translate(747.0,646.4) scale(2.25)' color='black'/>
	<use xlink:href='#gpPt5' transform='translate(759.7,650.3) scale(2.25)' color='black'/>
	<use xlink:href='#gpPt5' transform='translate(772.4,653.9) scale(2.25)' color='black'/>
	<use xlink:href='#gpPt5' transform='translate(785.1,657.2) scale(2.25)' color='black'/>
	<use xlink:href='#gpPt5' transform='translate(797.8,660.1) scale(2.25)' color='black'/>
	<use xlink:href='#gpPt5' transform='translate(810.5,662.7) scale(2.25)' color='black'/>
	<use xlink:href='#gpPt5' transform='translate(823.2,665.1) scale(2.25)' color='black'/>
	<use xlink:href='#gpPt5' transform='translate(835.9,667.1) scale(2.25)' color='black'/>
	<use xlink:href='#gpPt5' transform='translate(848.6,668.7) scale(2.25)' color='black'/>
	<use xlink:href='#gpPt5' transform='translate(861.3,670.0) scale(2.25)' color='black'/>
	<use xlink:href='#gpPt5' transform='translate(874.0,671.0) scale(2.25)' color='black'/>
	<use xlink:href='#gpPt5' transform='translate(886.7,671.8) scale(2.25)' color='black'/>
	<use xlink:href='#gpPt5' transform='translate(899.4,672.2) scale(2.25)' color='black'/>
	<use xlink:href='#gpPt5' transform='translate(912.1,672.3) scale(2.25)' color='black'/>
	<use xlink:href='#gpPt5' transform='translate(924.8,672.0) scale(2.25)' color='black'/>
	<use xlink:href='#gpPt5' transform='translate(937.5,671.6) scale(2.25)' color='black'/>
	<use xlink:href='#gpPt5' transform='translate(950.2,670.8) scale(2.25)' color='black'/>
	<use xlink:href='#gpPt5' transform='translate(962.9,669.7) scale(2.25)' color='black'/>
	<use xlink:href='#gpPt5' transform='translate(975.6,668.5) scale(2.25)' color='black'/>
	<use xlink:href='#gpPt5' transform='translate(988.3,667.0) scale(2.25)' color='black'/>
	<use xlink:href='#gpPt5' transform='translate(1001.0,665.2) scale(2.25)' color='black'/>
	<use xlink:href='#gpPt5' transform='translate(1013.7,663.3) scale(2.25)' color='black'/>
	<use xlink:href='#gpPt5' transform='translate(1026.4,661.1) scale(2.25)' color='black'/>
	<use xlink:href='#gpPt5' transform='translate(1039.1,658.8) scale(2.25)' color='black'/>
	<use xlink:href='#gpPt5' transform='translate(1051.8,656.3) scale(2.25)' color='black'/>
	<use xlink:href='#gpPt5' transform='translate(1064.5,653.8) scale(2.25)' color='black'/>
	<use xlink:href='#gpPt5' transform='translate(1077.2,651.2) scale(2.25)' color='black'/>
	<use xlink:href='#gpPt5' transform='translate(1089.9,648.5) scale(2.25)' color='black'/>
	<use xlink:href='#gpPt5' transform='translate(1102.6,646.0) scale(2.25)' color='black'/>
	<use xlink:href='#gpPt5' transform='translate(1115.3,643.6) scale(2.25)' color='black'/>
	<use xlink:href='#gpPt5' transform='translate(1128.0,641.4) scale(2.25)' color='black'/>
	<use xlink:href='#gpPt5' transform='translate(1140.7,639.6) scale(2.25)' color='black'/>
	<use xlink:href='#gpPt5' transform='translate(1153.4,638.4) scale(2.25)' color='black'/>
	<use xlink:href='#gpPt5' transform='translate(1166.1,637.8) scale(2.25)' color='black'/>
	<use xlink:href='#gpPt5' transform='translate(1178.8,637.0) scale(2.25)' color='black'/>
	<use xlink:href='#gpPt5' transform='translate(1191.5,635.6) scale(2.25)' color='black'/>
	<use xlink:href='#gpPt5' transform='translate(1204.2,633.5) scale(2.25)' color='black'/>
	<use xlink:href='#gpPt5' transform='translate(1216.9,631.0) scale(2.25)' color='black'/>
	<use xlink:href='#gpPt5' transform='translate(1229.6,628.4) scale(2.25)' color='black'/>
	<use xlink:href='#gpPt5' transform='translate(1242.3,626.7) scale(2.25)' color='black'/>
	<use xlink:href='#gpPt5' transform='translate(1255.0,625.3) scale(2.25)' color='black'/>
	<use xlink:href='#gpPt5' transform='translate(1217.3,72.1) scale(2.25)' color='black'/>
</g>
	</g>
	<g id="gnuplot_plot_2" ><title>2 (convex)</title>
<g fill="none" color="black" stroke="currentColor" stroke-width="1.00" stroke-linecap="butt" stroke-linejoin="miter">
	<g transform="translate(1187.9,94.0)" stroke="none" fill="black" font-family="Arial" font-size="12.00"  text-anchor="end">
		<text><tspan font-family="Arial" >2 (convex)</tspan></text>
	</g>
</g>
<g fill="none" color="black" stroke="currentColor" stroke-width="1.00" stroke-linecap="butt" stroke-linejoin="miter">
	<path stroke='rgb(  0, 158, 115)'  d='M1196.2,90.1 L1238.4,90.1 M112.0,55.7 L113.1,58.3 L114.2,65.6 L115.4,76.7 L116.5,90.4 L117.6,105.5
		L118.7,120.9 L119.8,136.0 L120.9,150.3 L122.1,163.4 L123.2,175.2 L124.3,185.8 L125.4,195.1 L126.5,203.3
		L127.6,210.4 L128.8,216.7 L129.9,222.1 L131.0,226.8 L132.1,230.9 L133.2,234.5 L134.3,237.6 L135.5,240.4
		L136.6,242.9 L137.7,245.1 L138.8,247.0 L139.9,248.8 L141.0,250.4 L142.2,251.9 L143.3,253.3 L144.4,254.5
		L145.5,255.7 L146.6,256.8 L147.8,257.8 L148.9,258.8 L150.0,259.7 L151.1,260.6 L152.2,261.5 L153.3,262.3
		L154.5,263.2 L155.6,264.0 L156.7,264.7 L157.8,265.5 L158.9,266.3 L160.0,267.0 L161.2,267.8 L162.3,268.5
		L163.4,269.2 L164.5,270.0 L165.6,270.7 L166.7,271.4 L167.9,272.2 L169.0,272.9 L170.1,273.6 L171.2,274.4
		L172.3,275.1 L173.5,275.8 L174.6,276.6 L175.7,277.3 L176.8,278.1 L177.9,278.8 L179.0,279.6 L180.2,280.4
		L181.3,281.1 L182.4,281.9 L183.5,282.7 L184.6,283.4 L185.7,284.2 L186.9,285.0 L188.0,285.8 L189.1,286.6
		L190.2,287.4 L191.3,288.2 L192.4,289.1 L193.6,289.9 L194.7,290.7 L195.8,291.5 L196.9,292.4 L198.0,293.2
		L199.1,294.0 L200.3,294.9 L201.4,295.7 L202.5,296.6 L203.6,297.4 L204.7,298.3 L205.9,299.2 L207.0,300.0
		L208.1,300.9 L209.2,301.8 L210.3,302.7 L211.4,303.6 L212.6,304.5 L213.7,305.3 L214.8,306.2 L215.9,307.1
		L217.0,308.0 L218.1,308.9 L219.3,309.9 L220.4,310.8 L221.5,311.7 L222.6,312.6 L223.7,313.5 L224.8,314.4
		L226.0,315.4 L227.1,316.3 L228.2,317.2 L229.3,318.1 L230.4,319.1 L231.6,320.0 L232.7,320.9 L233.8,321.9
		L234.9,322.8 L236.0,323.8 L237.1,324.7 L238.3,325.6 L239.4,326.6 L240.5,327.5 L241.6,328.5 L242.7,329.4
		L243.8,330.4 L245.0,331.3 L246.1,332.3 L247.2,333.2 L248.3,334.2 L249.4,335.1 L250.5,336.1 L251.7,337.0
		L252.8,338.0 L253.9,338.9 L255.0,339.9 L256.1,340.9 L257.2,341.8 L258.4,342.8 L259.5,343.7 L260.6,344.7
		L261.7,345.6 L262.8,346.6 L264.0,347.6 L265.1,348.5 L266.2,349.5 L267.3,350.4 L268.4,351.4 L269.5,352.3
		L270.7,353.3 L271.8,354.2 L272.9,355.2 L274.0,356.2 L275.1,357.1 L276.2,358.1 L277.4,359.0 L278.5,360.0
		L279.6,360.9 L280.7,361.9 L281.8,362.8 L282.9,363.8 L284.1,364.7 L285.2,365.7 L286.3,366.6 L287.4,367.5
		L288.5,368.5 L289.7,369.4 L290.8,370.4 L291.9,371.3 L293.0,372.2 L294.1,373.2 L295.2,374.1 L296.4,375.1
		L297.5,376.0 L298.6,376.9 L299.7,377.9 L300.8,378.8 L301.9,379.7 L303.1,380.6 L304.2,381.6 L305.3,382.5
		L306.4,383.4 L307.5,384.3 L308.6,385.3 L309.8,386.2 L310.9,387.1 L312.0,388.0 L313.1,388.9 L314.2,389.8
		L315.3,390.7 L316.5,391.7 L317.6,392.6 L318.7,393.5 L319.8,394.4 L320.9,395.3 L322.1,396.2 L323.2,397.1
		L324.3,398.0 L325.4,398.9 L326.5,399.8 L327.6,400.7 L328.8,401.6 L329.9,402.4 L331.0,403.3 L332.1,404.2
		L333.2,405.1 L334.3,406.0 L335.5,406.9 L336.6,407.7 L337.7,408.6 L338.8,409.5 L339.9,410.4 L341.0,411.2
		L342.2,412.1 L343.3,413.0 L344.4,413.8 L345.5,414.7 L346.6,415.6 L347.8,416.4 L348.9,417.3 L350.0,418.1
		L351.1,419.0 L352.2,419.8 L353.3,420.7 L354.5,421.5 L355.6,422.4 L356.7,423.2 L357.8,424.1 L358.9,424.9
		L360.0,425.7 L361.2,426.6 L362.3,427.4 L363.4,428.2 L364.5,429.1 L365.6,429.9 L366.7,430.7 L367.9,431.6
		L369.0,432.4 L370.1,433.2 L371.2,434.0 L372.3,434.8 L373.4,435.6 L374.6,436.5 L375.7,437.3 L376.8,438.1
		L377.9,438.9 L379.0,439.7 L380.2,440.5 L381.3,441.3 L382.4,442.1 L383.5,442.9 L384.6,443.7 L385.7,444.5
		L386.9,445.3 L388.0,446.0 L389.1,446.8 L390.2,447.6 L391.3,448.4 L392.4,449.2 L393.6,450.0 L394.7,450.7
		L395.8,451.5 L396.9,452.3 L398.0,453.1 L399.1,453.8 L400.3,454.6 L401.4,455.4 L402.5,456.1 L403.6,456.9
		L404.7,457.6 L405.9,458.4 L407.0,459.1 L408.1,459.9 L409.2,460.7 L410.3,461.4 L411.4,462.1 L412.6,462.9
		L413.7,463.6 L414.8,464.4 L415.9,465.1 L417.0,465.9 L418.1,466.6 L419.3,467.3 L420.4,468.1 L421.5,468.8
		L422.6,469.5 L423.7,470.2 L424.8,471.0 L426.0,471.7 L427.1,472.4 L428.2,473.1 L429.3,473.8 L430.4,474.6
		L431.5,475.3 L432.7,476.0 L433.8,476.7 L434.9,477.4 L436.0,478.1 L437.1,478.8 L438.3,479.5 L439.4,480.2
		L440.5,480.9 L441.6,481.6 L442.7,482.3 L443.8,483.0 L445.0,483.7 L446.1,484.4 L447.2,485.0 L448.3,485.7
		L449.4,486.4 L450.5,487.1 L451.7,487.8 L452.8,488.4 L453.9,489.1 L455.0,489.8 L456.1,490.5 L457.2,491.1
		L458.4,491.8 L459.5,492.5 L460.6,493.1 L461.7,493.8 L462.8,494.5 L464.0,495.1 L465.1,495.8 L466.2,496.4
		L467.3,497.1 L468.4,497.7 L469.5,498.4 L470.7,499.0 L471.8,499.7 L472.9,500.3 L474.0,501.0 L475.1,501.6
		L476.2,502.2 L477.4,502.9 L478.5,503.5 L479.6,504.2 L480.7,504.8 L481.8,505.4 L482.9,506.0 L484.1,506.7
		L485.2,507.3 L486.3,507.9 L487.4,508.5 L488.5,509.2 L489.6,509.8 L490.8,510.4 L491.9,511.0 L493.0,511.6
		L494.1,512.2 L495.2,512.9 L496.4,513.5 L497.5,514.1 L498.6,514.7 L499.7,515.3 L500.8,515.9 L501.9,516.5
		L503.1,517.1 L504.2,517.7 L505.3,518.3 L506.4,518.9 L507.5,519.5 L508.6,520.1 L509.8,520.6 L510.9,521.2
		L512.0,521.8 L513.1,522.4 L514.2,523.0 L515.3,523.6 L516.5,524.1 L517.6,524.7 L518.7,525.3 L519.8,525.9
		L520.9,526.5 L522.0,527.0 L523.2,527.6 L524.3,528.2 L525.4,528.7 L526.5,529.3 L527.6,529.9 L528.8,530.4
		L529.9,531.0 L531.0,531.5 L532.1,532.1 L533.2,532.7 L534.3,533.2 L535.5,533.8 L536.6,534.3 L537.7,534.9
		L538.8,535.4 L539.9,536.0 L541.0,536.5 L542.2,537.1 L543.3,537.6 L544.4,538.1 L545.5,538.7 L546.6,539.2
		L547.7,539.8 L548.9,540.3 L550.0,540.8 L551.1,541.4 L552.2,541.9 L553.3,542.4 L554.5,543.0 L555.6,543.5
		L556.7,544.0 L557.8,544.5 L558.9,545.1 L560.0,545.6 L561.2,546.1 L562.3,546.6 L563.4,547.1 L564.5,547.7
		L565.6,548.2 L566.7,548.7 L567.9,549.2 L569.0,549.7 L570.1,550.2 L571.2,550.7 L572.3,551.2 L573.4,551.7
		L574.6,552.2 L575.7,552.7 L576.8,553.2 L577.9,553.7 L579.0,554.2 L580.1,554.7 L581.3,555.2 L582.4,555.7
		L583.5,556.2 L584.6,556.7 L585.7,557.2 L586.9,557.7 L588.0,558.2 L589.1,558.7 L590.2,559.1 L591.3,559.6
		L592.4,560.1 L593.6,560.6 L594.7,561.1 L595.8,561.5 L596.9,562.0 L598.0,562.5 L599.1,563.0 L600.3,563.4
		L601.4,563.9 L602.5,564.4 L603.6,564.8 L604.7,565.3 L605.8,565.8 L607.0,566.2 L608.1,566.7 L609.2,567.2
		L610.3,567.6 L611.4,568.1 L612.6,568.6 L613.7,569.0 L614.8,569.5 L615.9,569.9 L617.0,570.4 L618.1,570.8
		L619.3,571.3 L620.4,571.7 L621.5,572.2 L622.6,572.6 L623.7,573.1 L624.8,573.5 L626.0,574.0 L627.1,574.4
		L628.2,574.8 L629.3,575.3 L630.4,575.7 L631.5,576.2 L632.7,576.6 L633.8,577.0 L634.9,577.5 L636.0,577.9
		L637.1,578.3 L638.2,578.8 L639.4,579.2 L640.5,579.6 L641.6,580.0 L642.7,580.5 L643.8,580.9 L645.0,581.3
		L646.1,581.7 L647.2,582.2 L648.3,582.6 L649.4,583.0 L650.5,583.4 L651.7,583.8 L652.8,584.2 L653.9,584.7
		L655.0,585.1 L656.1,585.5 L657.2,585.9 L658.4,586.3 L659.5,586.7 L660.6,587.1 L661.7,587.5 L662.8,587.9
		L663.9,588.3 L665.1,588.7 L666.2,589.1 L667.3,589.5 L668.4,589.9 L669.5,590.3 L670.7,590.7 L671.8,591.1
		L672.9,591.5 L674.0,591.9 L675.1,592.3 L676.2,592.7 L677.4,593.1 L678.5,593.5 L679.6,593.9 L680.7,594.3
		L681.8,594.6 L682.9,595.0 L684.1,595.4 L685.2,595.8 L686.3,596.2 L687.4,596.6 L688.5,596.9 L689.6,597.3
		L690.8,597.7 L691.9,598.1 L693.0,598.4 L694.1,598.8 L695.2,599.2 L696.3,599.6 L697.5,599.9 L698.6,600.3
		L699.7,600.7 L700.8,601.0 L701.9,601.4 L703.1,601.8 L704.2,602.1 L705.3,602.5 L706.4,602.9 L707.5,603.2
		L708.6,603.6 L709.8,604.0 L710.9,604.3 L712.0,604.7 L713.1,605.0 L714.2,605.4 L715.3,605.7 L716.5,606.1
		L717.6,606.4 L718.7,606.8 L719.8,607.1 L720.9,607.5 L722.0,607.8 L723.2,608.2 L724.3,608.5 L725.4,608.9
		L726.5,609.2 L727.6,609.6 L728.8,609.9 L729.9,610.3 L731.0,610.6 L732.1,610.9 L733.2,611.3 L734.3,611.6
		L735.5,612.0 L736.6,612.3 L737.7,612.6 L738.8,613.0 L739.9,613.3 L741.0,613.6 L742.2,614.0 L743.3,614.3
		L744.4,614.6 L745.5,614.9 L746.6,615.3 L747.7,615.6 L748.9,615.9 L750.0,616.2 L751.1,616.6 L752.2,616.9
		L753.3,617.2 L754.4,617.5 L755.6,617.8 L756.7,618.2 L757.8,618.5 L758.9,618.8 L760.0,619.1 L761.2,619.4
		L762.3,619.7 L763.4,620.1 L764.5,620.4 L765.6,620.7 L766.7,621.0 L767.9,621.3 L769.0,621.6 L770.1,621.9
		L771.2,622.2 L772.3,622.5 L773.4,622.8 L774.6,623.1 L775.7,623.4 L776.8,623.7 L777.9,624.0 L779.0,624.3
		L780.1,624.6 L781.3,624.9 L782.4,625.2 L783.5,625.5 L784.6,625.8 L785.7,626.1 L786.9,626.4 L788.0,626.7
		L789.1,627.0 L790.2,627.3 L791.3,627.6 L792.4,627.9 L793.6,628.2 L794.7,628.4 L795.8,628.7 L796.9,629.0
		L798.0,629.3 L799.1,629.6 L800.3,629.9 L801.4,630.2 L802.5,630.4 L803.6,630.7 L804.7,631.0 L805.8,631.3
		L807.0,631.6 L808.1,631.8 L809.2,632.1 L810.3,632.4 L811.4,632.7 L812.5,632.9 L813.7,633.2 L814.8,633.5
		L815.9,633.7 L817.0,634.0 L818.1,634.3 L819.3,634.6 L820.4,634.8 L821.5,635.1 L822.6,635.4 L823.7,635.6
		L824.8,635.9 L826.0,636.1 L827.1,636.4 L828.2,636.7 L829.3,636.9 L830.4,637.2 L831.5,637.5 L832.7,637.7
		L833.8,638.0 L834.9,638.2 L836.0,638.5 L837.1,638.7 L838.2,639.0 L839.4,639.2 L840.5,639.5 L841.6,639.8
		L842.7,640.0 L843.8,640.3 L845.0,640.5 L846.1,640.7 L847.2,641.0 L848.3,641.2 L849.4,641.5 L850.5,641.7
		L851.7,642.0 L852.8,642.2 L853.9,642.5 L855.0,642.7 L856.1,642.9 L857.2,643.2 L858.4,643.4 L859.5,643.7
		L860.6,643.9 L861.7,644.1 L862.8,644.4 L863.9,644.6 L865.1,644.9 L866.2,645.1 L867.3,645.3 L868.4,645.6
		L869.5,645.8 L870.6,646.0 L871.8,646.2 L872.9,646.5 L874.0,646.7 L875.1,646.9 L876.2,647.2 L877.4,647.4
		L878.5,647.6 L879.6,647.8 L880.7,648.1 L881.8,648.3 L882.9,648.5 L884.1,648.7 L885.2,648.9 L886.3,649.2
		L887.4,649.4 L888.5,649.6 L889.6,649.8 L890.8,650.0 L891.9,650.3 L893.0,650.5 L894.1,650.7 L895.2,650.9
		L896.3,651.1 L897.5,651.3 L898.6,651.5 L899.7,651.7 L900.8,652.0 L901.9,652.2 L903.0,652.4 L904.2,652.6
		L905.3,652.8 L906.4,653.0 L907.5,653.2 L908.6,653.4 L909.8,653.6 L910.9,653.8 L912.0,654.0 L913.1,654.2
		L914.2,654.4 L915.3,654.6 L916.5,654.8 L917.6,655.0 L918.7,655.2 L919.8,655.4 L920.9,655.6 L922.0,655.8
		L923.2,656.0 L924.3,656.2 L925.4,656.4 L926.5,656.6 L927.6,656.8 L928.7,657.0 L929.9,657.1 L931.0,657.3
		L932.1,657.5 L933.2,657.7 L934.3,657.9 L935.5,658.1 L936.6,658.3 L937.7,658.5 L938.8,658.6 L939.9,658.8
		L941.0,659.0 L942.2,659.2 L943.3,659.4 L944.4,659.6 L945.5,659.7 L946.6,659.9 L947.7,660.1 L948.9,660.3
		L950.0,660.5 L951.1,660.6 L952.2,660.8 L953.3,661.0 L954.4,661.2 L955.6,661.3 L956.7,661.5 L957.8,661.7
		L958.9,661.8 L960.0,662.0 L961.1,662.2 L962.3,662.4 L963.4,662.5 L964.5,662.7 L965.6,662.9 L966.7,663.0
		L967.9,663.2 L969.0,663.4 L970.1,663.5 L971.2,663.7 L972.3,663.9 L973.4,664.0 L974.6,664.2 L975.7,664.3
		L976.8,664.5 L977.9,664.7 L979.0,664.8 L980.1,665.0 L981.3,665.1 L982.4,665.3 L983.5,665.4 L984.6,665.6
		L985.7,665.8 L986.8,665.9 L988.0,666.1 L989.1,666.2 L990.2,666.4 L991.3,666.5 L992.4,666.7 L993.6,666.8
		L994.7,667.0 L995.8,667.1 L996.9,667.3 L998.0,667.4 L999.1,667.6 L1000.3,667.7 L1001.4,667.9 L1002.5,668.0
		L1003.6,668.1 L1004.7,668.3 L1005.8,668.4 L1007.0,668.6 L1008.1,668.7 L1009.2,668.8 L1010.3,669.0 L1011.4,669.1
		L1012.5,669.3 L1013.7,669.4 L1014.8,669.5 L1015.9,669.7 L1017.0,669.8 L1018.1,669.9 L1019.2,670.1 L1020.4,670.2
		L1021.5,670.3 L1022.6,670.5 L1023.7,670.6 L1024.8,670.7 L1026.0,670.9 L1027.1,671.0 L1028.2,671.1 L1029.3,671.3
		L1030.4,671.4 L1031.5,671.5 L1032.7,671.6 L1033.8,671.8 L1034.9,671.9 L1036.0,672.0 L1037.1,672.1 L1038.2,672.3
		L1039.4,672.4 L1040.5,672.5 L1041.6,672.6 L1042.7,672.7 L1043.8,672.9 L1044.9,673.0 L1046.1,673.1 L1047.2,673.2
		L1048.3,673.3 L1049.4,673.5 L1050.5,673.6 L1051.7,673.7 L1052.8,673.8 L1053.9,673.9 L1055.0,674.0 L1056.1,674.1
		L1057.2,674.3 L1058.4,674.4 L1059.5,674.5 L1060.6,674.6 L1061.7,674.7 L1062.8,674.8 L1063.9,674.9 L1065.1,675.0
		L1066.2,675.1 L1067.3,675.2 L1068.4,675.3 L1069.5,675.4 L1070.6,675.5 L1071.8,675.6 L1072.9,675.7 L1074.0,675.8
		L1075.1,675.9 L1076.2,676.1 L1077.3,676.2 L1078.5,676.2 L1079.6,676.3 L1080.7,676.4 L1081.8,676.5 L1082.9,676.6
		L1084.1,676.7 L1085.2,676.8 L1086.3,676.9 L1087.4,677.0 L1088.5,677.1 L1089.6,677.2 L1090.8,677.3 L1091.9,677.4
		L1093.0,677.5 L1094.1,677.6 L1095.2,677.7 L1096.3,677.8 L1097.5,677.8 L1098.6,677.9 L1099.7,678.0 L1100.8,678.1
		L1101.9,678.2 L1103.0,678.3 L1104.2,678.4 L1105.3,678.4 L1106.4,678.5 L1107.5,678.6 L1108.6,678.7 L1109.8,678.8
		L1110.9,678.8 L1112.0,678.9 L1113.1,679.0 L1114.2,679.1 L1115.3,679.2 L1116.5,679.2 L1117.6,679.3 L1118.7,679.4
		L1119.8,679.5 L1120.9,679.5 L1122.0,679.6 L1123.2,679.7 L1124.3,679.8 L1125.4,679.8 L1126.5,679.9 L1127.6,680.0
		L1128.7,680.1 L1129.9,680.1 L1131.0,680.2 L1132.1,680.3 L1133.2,680.3 L1134.3,680.4 L1135.4,680.5 L1136.6,680.5
		L1137.7,680.6 L1138.8,680.7 L1139.9,680.7 L1141.0,680.8 L1142.2,680.8 L1143.3,680.9 L1144.4,681.0 L1145.5,681.0
		L1146.6,681.1 L1147.7,681.2 L1148.9,681.2 L1150.0,681.3 L1151.1,681.3 L1152.2,681.4 L1153.3,681.4 L1154.4,681.5
		L1155.6,681.6 L1156.7,681.6 L1157.8,681.7 L1158.9,681.7 L1160.0,681.8 L1161.1,681.8 L1162.3,681.9 L1163.4,681.9
		L1164.5,682.0 L1165.6,682.0 L1166.7,682.1 L1167.9,682.1 L1169.0,682.2 L1170.1,682.2 L1171.2,682.3 L1172.3,682.3
		L1173.4,682.4 L1174.6,682.4 L1175.7,682.4 L1176.8,682.5 L1177.9,682.5 L1179.0,682.6 L1180.1,682.6 L1181.3,682.7
		L1182.4,682.7 L1183.5,682.7 L1184.6,682.8 L1185.7,682.8 L1186.8,682.9 L1188.0,682.9 L1189.1,682.9 L1190.2,683.0
		L1191.3,683.0 L1192.4,683.0 L1193.5,683.1 L1194.7,683.1 L1195.8,683.1 L1196.9,683.2 L1198.0,683.2 L1199.1,683.2
		L1200.3,683.3 L1201.4,683.3 L1202.5,683.3 L1203.6,683.3 L1204.7,683.4 L1205.8,683.4 L1207.0,683.4 L1208.1,683.5
		L1209.2,683.5 L1210.3,683.5 L1211.4,683.5 L1212.5,683.6 L1213.7,683.6 L1214.8,683.6 L1215.9,683.6 L1217.0,683.6
		L1218.1,683.7 L1219.2,683.7 L1220.4,683.7 L1221.5,683.7 L1222.6,683.7 L1223.7,683.8 L1224.8,683.8 L1226.0,683.8
		L1227.1,683.8 L1228.2,683.8 L1229.3,683.8 L1230.4,683.9 L1231.5,683.9 L1232.7,683.9 L1233.8,683.9 L1234.9,683.9
		L1236.0,683.9 L1237.1,683.9 L1238.2,683.9 L1239.4,683.9 L1240.5,683.9 L1241.6,684.0 L1242.7,684.0 L1243.8,684.0
		L1244.9,684.0 L1246.1,684.0 L1247.2,684.0 L1248.3,684.0 L1249.4,684.0 L1250.5,684.0 L1251.6,684.0 L1252.8,684.0
		L1253.9,684.0 L1255.0,684.0  '/></g>
	</g>
	<g id="gnuplot_plot_3" ><title>4 (both)</title>
<g fill="none" color="black" stroke="currentColor" stroke-width="1.00" stroke-linecap="butt" stroke-linejoin="miter">
	<g transform="translate(1187.9,112.0)" stroke="none" fill="black" font-family="Arial" font-size="12.00"  text-anchor="end">
		<text><tspan font-family="Arial" >4 (both)</tspan></text>
	</g>
</g>
<g fill="none" color="black" stroke="currentColor" stroke-width="1.00" stroke-linecap="butt" stroke-linejoin="miter">
	<path stroke='rgb( 86, 180, 233)'  d='M1196.2,108.1 L1238.4,108.1 M112.0,60.0 L113.1,62.3 L114.2,69.1 L115.4,79.4 L116.5,92.3 L117.6,106.5
		L118.7,121.3 L119.8,135.9 L120.9,149.8 L122.1,162.6 L123.2,174.4 L124.3,185.0 L125.4,194.3 L126.5,202.6
		L127.6,209.9 L128.8,216.3 L129.9,221.9 L131.0,226.7 L132.1,231.0 L133.2,234.7 L134.3,238.0 L135.5,240.9
		L136.6,243.4 L137.7,245.7 L138.8,247.8 L139.9,249.6 L141.0,251.3 L142.2,252.8 L143.3,254.2 L144.4,255.4
		L145.5,256.6 L146.6,257.7 L147.8,258.8 L148.9,259.7 L150.0,260.7 L151.1,261.5 L152.2,262.4 L153.3,263.2
		L154.5,264.0 L155.6,264.7 L156.7,265.5 L157.8,266.2 L158.9,266.9 L160.0,267.6 L161.2,268.3 L162.3,269.0
		L163.4,269.7 L164.5,270.3 L165.6,271.0 L166.7,271.7 L167.9,272.3 L169.0,273.0 L170.1,273.7 L171.2,274.3
		L172.3,275.0 L173.5,275.7 L174.6,276.3 L175.7,277.0 L176.8,277.7 L177.9,278.3 L179.0,279.0 L180.2,279.7
		L181.3,280.4 L182.4,281.1 L183.5,281.8 L184.6,282.5 L185.7,283.2 L186.9,283.9 L188.0,284.6 L189.1,285.3
		L190.2,286.1 L191.3,286.8 L192.4,287.5 L193.6,288.3 L194.7,289.0 L195.8,289.8 L196.9,290.5 L198.0,291.3
		L199.1,292.0 L200.3,292.8 L201.4,293.6 L202.5,294.3 L203.6,295.1 L204.7,295.9 L205.9,296.7 L207.0,297.5
		L208.1,298.3 L209.2,299.1 L210.3,299.9 L211.4,300.7 L212.6,301.5 L213.7,302.3 L214.8,303.1 L215.9,303.9
		L217.0,304.8 L218.1,305.6 L219.3,306.4 L220.4,307.3 L221.5,308.1 L222.6,309.0 L223.7,309.8 L224.8,310.6
		L226.0,311.5 L227.1,312.4 L228.2,313.2 L229.3,314.1 L230.4,314.9 L231.6,315.8 L232.7,316.7 L233.8,317.5
		L234.9,318.4 L236.0,319.3 L237.1,320.2 L238.3,321.0 L239.4,321.9 L240.5,322.8 L241.6,323.7 L242.7,324.6
		L243.8,325.5 L245.0,326.4 L246.1,327.3 L247.2,328.1 L248.3,329.0 L249.4,329.9 L250.5,330.8 L251.7,331.7
		L252.8,332.6 L253.9,333.6 L255.0,334.5 L256.1,335.4 L257.2,336.3 L258.4,337.2 L259.5,338.1 L260.6,339.0
		L261.7,339.9 L262.8,340.8 L264.0,341.7 L265.1,342.7 L266.2,343.6 L267.3,344.5 L268.4,345.4 L269.5,346.3
		L270.7,347.2 L271.8,348.2 L272.9,349.1 L274.0,350.0 L275.1,350.9 L276.2,351.8 L277.4,352.8 L278.5,353.7
		L279.6,354.6 L280.7,355.5 L281.8,356.5 L282.9,357.4 L284.1,358.3 L285.2,359.2 L286.3,360.1 L287.4,361.1
		L288.5,362.0 L289.7,362.9 L290.8,363.8 L291.9,364.8 L293.0,365.7 L294.1,366.6 L295.2,367.5 L296.4,368.4
		L297.5,369.4 L298.6,370.3 L299.7,371.2 L300.8,372.1 L301.9,373.0 L303.1,374.0 L304.2,374.9 L305.3,375.8
		L306.4,376.7 L307.5,377.6 L308.6,378.6 L309.8,379.5 L310.9,380.4 L312.0,381.3 L313.1,382.2 L314.2,383.1
		L315.3,384.0 L316.5,385.0 L317.6,385.9 L318.7,386.8 L319.8,387.7 L320.9,388.6 L322.1,389.5 L323.2,390.4
		L324.3,391.3 L325.4,392.2 L326.5,393.1 L327.6,394.1 L328.8,395.0 L329.9,395.9 L331.0,396.8 L332.1,397.7
		L333.2,398.6 L334.3,399.5 L335.5,400.4 L336.6,401.3 L337.7,402.2 L338.8,403.1 L339.9,404.0 L341.0,404.9
		L342.2,405.7 L343.3,406.6 L344.4,407.5 L345.5,408.4 L346.6,409.3 L347.8,410.2 L348.9,411.1 L350.0,412.0
		L351.1,412.9 L352.2,413.7 L353.3,414.6 L354.5,415.5 L355.6,416.4 L356.7,417.3 L357.8,418.2 L358.9,419.0
		L360.0,419.9 L361.2,420.8 L362.3,421.7 L363.4,422.5 L364.5,423.4 L365.6,424.3 L366.7,425.1 L367.9,426.0
		L369.0,426.9 L370.1,427.7 L371.2,428.6 L372.3,429.5 L373.4,430.3 L374.6,431.2 L375.7,432.1 L376.8,432.9
		L377.9,433.8 L379.0,434.6 L380.2,435.5 L381.3,436.4 L382.4,437.2 L383.5,438.1 L384.6,438.9 L385.7,439.8
		L386.9,440.6 L388.0,441.5 L389.1,442.3 L390.2,443.1 L391.3,444.0 L392.4,444.8 L393.6,445.7 L394.7,446.5
		L395.8,447.4 L396.9,448.2 L398.0,449.0 L399.1,449.9 L400.3,450.7 L401.4,451.5 L402.5,452.4 L403.6,453.2
		L404.7,454.0 L405.9,454.8 L407.0,455.7 L408.1,456.5 L409.2,457.3 L410.3,458.1 L411.4,459.0 L412.6,459.8
		L413.7,460.6 L414.8,461.4 L415.9,462.2 L417.0,463.1 L418.1,463.9 L419.3,464.7 L420.4,465.5 L421.5,466.3
		L422.6,467.1 L423.7,467.9 L424.8,468.7 L426.0,469.5 L427.1,470.3 L428.2,471.1 L429.3,471.9 L430.4,472.7
		L431.5,473.5 L432.7,474.3 L433.8,475.1 L434.9,475.9 L436.0,476.7 L437.1,477.5 L438.3,478.3 L439.4,479.1
		L440.5,479.9 L441.6,480.7 L442.7,481.5 L443.8,482.2 L445.0,483.0 L446.1,483.8 L447.2,484.6 L448.3,485.4
		L449.4,486.1 L450.5,486.9 L451.7,487.7 L452.8,488.5 L453.9,489.2 L455.0,490.0 L456.1,490.8 L457.2,491.6
		L458.4,492.3 L459.5,493.1 L460.6,493.9 L461.7,494.6 L462.8,495.4 L464.0,496.2 L465.1,496.9 L466.2,497.7
		L467.3,498.4 L468.4,499.2 L469.5,500.0 L470.7,500.7 L471.8,501.5 L472.9,502.2 L474.0,503.0 L475.1,503.7
		L476.2,504.5 L477.4,505.2 L478.5,506.0 L479.6,506.7 L480.7,507.5 L481.8,508.2 L482.9,508.9 L484.1,509.7
		L485.2,510.4 L486.3,511.2 L487.4,511.9 L488.5,512.6 L489.6,513.4 L490.8,514.1 L491.9,514.8 L493.0,515.6
		L494.1,516.3 L495.2,517.0 L496.4,517.7 L497.5,518.5 L498.6,519.2 L499.7,519.9 L500.8,520.6 L501.9,521.4
		L503.1,522.1 L504.2,522.8 L505.3,523.5 L506.4,524.2 L507.5,525.0 L508.6,525.7 L509.8,526.4 L510.9,527.1
		L512.0,527.8 L513.1,528.5 L514.2,529.2 L515.3,529.9 L516.5,530.6 L517.6,531.3 L518.7,532.0 L519.8,532.7
		L520.9,533.4 L522.0,534.1 L523.2,534.8 L524.3,535.5 L525.4,536.2 L526.5,536.9 L527.6,537.6 L528.8,538.3
		L529.9,539.0 L531.0,539.7 L532.1,540.4 L533.2,541.1 L534.3,541.8 L535.5,542.4 L536.6,543.1 L537.7,543.8
		L538.8,544.5 L539.9,545.2 L541.0,545.8 L542.2,546.5 L543.3,547.2 L544.4,547.9 L545.5,548.5 L546.6,549.2
		L547.7,549.9 L548.9,550.6 L550.0,551.2 L551.1,551.9 L552.2,552.6 L553.3,553.2 L554.5,553.9 L555.6,554.5
		L556.7,555.2 L557.8,555.9 L558.9,556.5 L560.0,557.2 L561.2,557.8 L562.3,558.5 L563.4,559.1 L564.5,559.8
		L565.6,560.5 L566.7,561.1 L567.9,561.8 L569.0,562.4 L570.1,563.0 L571.2,563.7 L572.3,564.3 L573.4,565.0
		L574.6,565.6 L575.7,566.3 L576.8,566.9 L577.9,567.5 L579.0,568.2 L580.1,568.8 L581.3,569.4 L582.4,570.1
		L583.5,570.7 L584.6,571.3 L585.7,572.0 L586.9,572.6 L588.0,573.2 L589.1,573.8 L590.2,574.4 L591.3,575.1
		L592.4,575.7 L593.6,576.3 L594.7,576.9 L595.8,577.5 L596.9,578.2 L598.0,578.8 L599.1,579.4 L600.3,580.0
		L601.4,580.6 L602.5,581.2 L603.6,581.8 L604.7,582.4 L605.8,583.0 L607.0,583.6 L608.1,584.2 L609.2,584.8
		L610.3,585.4 L611.4,586.0 L612.6,586.6 L613.7,587.2 L614.8,587.8 L615.9,588.4 L617.0,589.0 L618.1,589.6
		L619.3,590.2 L620.4,590.7 L621.5,591.3 L622.6,591.9 L623.7,592.5 L624.8,593.1 L626.0,593.6 L627.1,594.2
		L628.2,594.8 L629.3,595.4 L630.4,595.9 L631.5,596.5 L632.7,597.1 L633.8,597.6 L634.9,598.2 L636.0,598.8
		L637.1,599.3 L638.2,599.9 L639.4,600.5 L640.5,601.0 L641.6,601.6 L642.7,602.1 L643.8,602.7 L645.0,603.2
		L646.1,603.8 L647.2,604.3 L648.3,604.9 L649.4,605.4 L650.5,606.0 L651.7,606.5 L652.8,607.1 L653.9,607.6
		L655.0,608.1 L656.1,608.7 L657.2,609.2 L658.4,609.7 L659.5,610.3 L660.6,610.8 L661.7,611.3 L662.8,611.8
		L663.9,612.4 L665.1,612.9 L666.2,613.4 L667.3,613.9 L668.4,614.4 L669.5,615.0 L670.7,615.5 L671.8,616.0
		L672.9,616.5 L674.0,617.0 L675.1,617.5 L676.2,618.0 L677.4,618.5 L678.5,619.0 L679.6,619.5 L680.7,620.0
		L681.8,620.5 L682.9,621.0 L684.1,621.5 L685.2,622.0 L686.3,622.5 L687.4,623.0 L688.5,623.5 L689.6,623.9
		L690.8,624.4 L691.9,624.9 L693.0,625.4 L694.1,625.9 L695.2,626.3 L696.3,626.8 L697.5,627.3 L698.6,627.7
		L699.7,628.2 L700.8,628.7 L701.9,629.1 L703.1,629.6 L704.2,630.0 L705.3,630.5 L706.4,631.0 L707.5,631.4
		L708.6,631.9 L709.8,632.3 L710.9,632.8 L712.0,633.2 L713.1,633.6 L714.2,634.1 L715.3,634.5 L716.5,635.0
		L717.6,635.4 L718.7,635.8 L719.8,636.2 L720.9,636.7 L722.0,637.1 L723.2,637.5 L724.3,637.9 L725.4,638.4
		L726.5,638.8 L727.6,639.2 L728.8,639.6 L729.9,640.0 L731.0,640.4 L732.1,640.8 L733.2,641.2 L734.3,641.6
		L735.5,642.0 L736.6,642.4 L737.7,642.8 L738.8,643.2 L739.9,643.6 L741.0,644.0 L742.2,644.4 L743.3,644.8
		L744.4,645.1 L745.5,645.5 L746.6,645.9 L747.7,646.3 L748.9,646.6 L750.0,647.0 L751.1,647.4 L752.2,647.7
		L753.3,648.1 L754.4,648.5 L755.6,648.8 L756.7,649.2 L757.8,649.5 L758.9,649.9 L760.0,650.2 L761.2,650.6
		L762.3,650.9 L763.4,651.2 L764.5,651.6 L765.6,651.9 L766.7,652.3 L767.9,652.6 L769.0,652.9 L770.1,653.2
		L771.2,653.6 L772.3,653.9 L773.4,654.2 L774.6,654.5 L775.7,654.8 L776.8,655.1 L777.9,655.4 L779.0,655.7
		L780.1,656.0 L781.3,656.3 L782.4,656.6 L783.5,656.9 L784.6,657.2 L785.7,657.5 L786.9,657.8 L788.0,658.1
		L789.1,658.4 L790.2,658.6 L791.3,658.9 L792.4,659.2 L793.6,659.5 L794.7,659.7 L795.8,660.0 L796.9,660.3
		L798.0,660.5 L799.1,660.8 L800.3,661.0 L801.4,661.3 L802.5,661.5 L803.6,661.8 L804.7,662.0 L805.8,662.3
		L807.0,662.5 L808.1,662.7 L809.2,663.0 L810.3,663.2 L811.4,663.4 L812.5,663.6 L813.7,663.9 L814.8,664.1
		L815.9,664.3 L817.0,664.5 L818.1,664.7 L819.3,664.9 L820.4,665.1 L821.5,665.3 L822.6,665.5 L823.7,665.7
		L824.8,665.9 L826.0,666.1 L827.1,666.3 L828.2,666.5 L829.3,666.7 L830.4,666.8 L831.5,667.0 L832.7,667.2
		L833.8,667.4 L834.9,667.5 L836.0,667.7 L837.1,667.9 L838.2,668.0 L839.4,668.2 L840.5,668.3 L841.6,668.5
		L842.7,668.6 L843.8,668.8 L845.0,668.9 L846.1,669.0 L847.2,669.2 L848.3,669.3 L849.4,669.4 L850.5,669.6
		L851.7,669.7 L852.8,669.8 L853.9,669.9 L855.0,670.1 L856.1,670.2 L857.2,670.3 L858.4,670.4 L859.5,670.5
		L860.6,670.6 L861.7,670.7 L862.8,670.8 L863.9,670.9 L865.1,671.0 L866.2,671.1 L867.3,671.2 L868.4,671.2
		L869.5,671.3 L870.6,671.4 L871.8,671.5 L872.9,671.5 L874.0,671.6 L875.1,671.7 L876.2,671.7 L877.4,671.8
		L878.5,671.9 L879.6,671.9 L880.7,672.0 L881.8,672.0 L882.9,672.1 L884.1,672.1 L885.2,672.2 L886.3,672.2
		L887.4,672.2 L888.5,672.3 L889.6,672.3 L890.8,672.3 L891.9,672.4 L893.0,672.4 L894.1,672.4 L895.2,672.4
		L896.3,672.4 L897.5,672.4 L898.6,672.5 L899.7,672.5 L900.8,672.5 L901.9,672.5 L903.0,672.5 L904.2,672.5
		L905.3,672.5 L906.4,672.5 L907.5,672.4 L908.6,672.4 L909.8,672.4 L910.9,672.4 L912.0,672.4 L913.1,672.4
		L914.2,672.3 L915.3,672.3 L916.5,672.3 L917.6,672.2 L918.7,672.2 L919.8,672.2 L920.9,672.1 L922.0,672.1
		L923.2,672.0 L924.3,672.0 L925.4,671.9 L926.5,671.9 L927.6,671.8 L928.7,671.8 L929.9,671.7 L931.0,671.7
		L932.1,671.6 L933.2,671.5 L934.3,671.5 L935.5,671.4 L936.6,671.3 L937.7,671.3 L938.8,671.2 L939.9,671.1
		L941.0,671.0 L942.2,670.9 L943.3,670.9 L944.4,670.8 L945.5,670.7 L946.6,670.6 L947.7,670.5 L948.9,670.4
		L950.0,670.3 L951.1,670.2 L952.2,670.1 L953.3,670.0 L954.4,669.9 L955.6,669.8 L956.7,669.7 L957.8,669.6
		L958.9,669.5 L960.0,669.4 L961.1,669.2 L962.3,669.1 L963.4,669.0 L964.5,668.9 L965.6,668.8 L966.7,668.6
		L967.9,668.5 L969.0,668.4 L970.1,668.3 L971.2,668.1 L972.3,668.0 L973.4,667.9 L974.6,667.7 L975.7,667.6
		L976.8,667.4 L977.9,667.3 L979.0,667.2 L980.1,667.0 L981.3,666.9 L982.4,666.7 L983.5,666.6 L984.6,666.4
		L985.7,666.3 L986.8,666.1 L988.0,666.0 L989.1,665.8 L990.2,665.6 L991.3,665.5 L992.4,665.3 L993.6,665.2
		L994.7,665.0 L995.8,664.8 L996.9,664.7 L998.0,664.5 L999.1,664.3 L1000.3,664.2 L1001.4,664.0 L1002.5,663.8
		L1003.6,663.7 L1004.7,663.5 L1005.8,663.3 L1007.0,663.1 L1008.1,663.0 L1009.2,662.8 L1010.3,662.6 L1011.4,662.4
		L1012.5,662.2 L1013.7,662.1 L1014.8,661.9 L1015.9,661.7 L1017.0,661.5 L1018.1,661.3 L1019.2,661.1 L1020.4,660.9
		L1021.5,660.8 L1022.6,660.6 L1023.7,660.4 L1024.8,660.2 L1026.0,660.0 L1027.1,659.8 L1028.2,659.6 L1029.3,659.4
		L1030.4,659.2 L1031.5,659.0 L1032.7,658.8 L1033.8,658.6 L1034.9,658.4 L1036.0,658.2 L1037.1,658.0 L1038.2,657.8
		L1039.4,657.6 L1040.5,657.5 L1041.6,657.3 L1042.7,657.1 L1043.8,656.8 L1044.9,656.6 L1046.1,656.4 L1047.2,656.2
		L1048.3,656.0 L1049.4,655.8 L1050.5,655.6 L1051.7,655.4 L1052.8,655.2 L1053.9,655.0 L1055.0,654.8 L1056.1,654.6
		L1057.2,654.4 L1058.4,654.2 L1059.5,654.0 L1060.6,653.8 L1061.7,653.6 L1062.8,653.4 L1063.9,653.2 L1065.1,653.0
		L1066.2,652.8 L1067.3,652.6 L1068.4,652.4 L1069.5,652.2 L1070.6,652.0 L1071.8,651.7 L1072.9,651.5 L1074.0,651.3
		L1075.1,651.1 L1076.2,650.9 L1077.3,650.7 L1078.5,650.5 L1079.6,650.3 L1080.7,650.1 L1081.8,649.9 L1082.9,649.7
		L1084.1,649.5 L1085.2,649.3 L1086.3,649.1 L1087.4,648.9 L1088.5,648.7 L1089.6,648.5 L1090.8,648.3 L1091.9,648.1
		L1093.0,647.9 L1094.1,647.7 L1095.2,647.5 L1096.3,647.3 L1097.5,647.1 L1098.6,646.9 L1099.7,646.7 L1100.8,646.5
		L1101.9,646.3 L1103.0,646.1 L1104.2,645.9 L1105.3,645.7 L1106.4,645.5 L1107.5,645.3 L1108.6,645.1 L1109.8,644.9
		L1110.9,644.7 L1112.0,644.5 L1113.1,644.3 L1114.2,644.2 L1115.3,644.0 L1116.5,643.8 L1117.6,643.6 L1118.7,643.4
		L1119.8,643.2 L1120.9,643.0 L1122.0,642.8 L1123.2,642.7 L1124.3,642.5 L1125.4,642.3 L1126.5,642.1 L1127.6,641.9
		L1128.7,641.8 L1129.9,641.6 L1131.0,641.4 L1132.1,641.2 L1133.2,641.1 L1134.3,640.9 L1135.4,640.7 L1136.6,640.5
		L1137.7,640.4 L1138.8,640.2 L1139.9,640.0 L1141.0,639.9 L1142.2,639.7 L1143.3,639.5 L1144.4,639.4 L1145.5,639.2
		L1146.6,639.0 L1147.7,638.9 L1148.9,638.7 L1150.0,638.5 L1151.1,638.4 L1152.2,638.2 L1153.3,638.1 L1154.4,637.9
		L1155.6,637.8 L1156.7,637.6 L1157.8,637.5 L1158.9,637.3 L1160.0,637.2 L1161.1,637.0 L1162.3,636.9 L1163.4,636.7
		L1164.5,636.6 L1165.6,636.5 L1166.7,636.3 L1167.9,636.2 L1169.0,636.0 L1170.1,635.9 L1171.2,635.8 L1172.3,635.6
		L1173.4,635.5 L1174.6,635.4 L1175.7,635.3 L1176.8,635.1 L1177.9,635.0 L1179.0,634.9 L1180.1,634.8 L1181.3,634.6
		L1182.4,634.5 L1183.5,634.4 L1184.6,634.3 L1185.7,634.2 L1186.8,634.1 L1188.0,634.0 L1189.1,633.9 L1190.2,633.7
		L1191.3,633.6 L1192.4,633.5 L1193.5,633.4 L1194.7,633.3 L1195.8,633.2 L1196.9,633.1 L1198.0,633.0 L1199.1,633.0
		L1200.3,632.9 L1201.4,632.8 L1202.5,632.7 L1203.6,632.6 L1204.7,632.5 L1205.8,632.4 L1207.0,632.3 L1208.1,632.3
		L1209.2,632.2 L1210.3,632.1 L1211.4,632.0 L1212.5,632.0 L1213.7,631.9 L1214.8,631.8 L1215.9,631.8 L1217.0,631.7
		L1218.1,631.6 L1219.2,631.6 L1220.4,631.5 L1221.5,631.5 L1222.6,631.4 L1223.7,631.3 L1224.8,631.3 L1226.0,631.2
		L1227.1,631.2 L1228.2,631.1 L1229.3,631.1 L1230.4,631.1 L1231.5,631.0 L1232.7,631.0 L1233.8,630.9 L1234.9,630.9
		L1236.0,630.9 L1237.1,630.8 L1238.2,630.8 L1239.4,630.8 L1240.5,630.8 L1241.6,630.7 L1242.7,630.7 L1243.8,630.7
		L1244.9,630.7 L1246.1,630.7 L1247.2,630.6 L1248.3,630.6 L1249.4,630.6 L1250.5,630.6 L1251.6,630.6 L1252.8,630.6
		L1253.9,630.6 L1255.0,630.6  '/></g>
	</g>
	<g id="gnuplot_plot_4" ><title>8 (both)</title>
<g fill="none" color="black" stroke="currentColor" stroke-width="1.00" stroke-linecap="butt" stroke-linejoin="miter">
	<g transform="translate(1187.9,130.0)" stroke="none" fill="black" font-family="Arial" font-size="12.00"  text-anchor="end">
		<text><tspan font-family="Arial" >8 (both)</tspan></text>
	</g>
</g>
<g fill="none" color="black" stroke="currentColor" stroke-width="1.00" stroke-linecap="butt" stroke-linejoin="miter">
	<path stroke='rgb(230, 159,   0)'  d='M1196.2,126.1 L1238.4,126.1 M112.0,54.1 L113.1,57.9 L114.2,68.1 L115.4,82.0 L116.5,97.3 L117.6,112.1
		L118.7,125.9 L119.8,138.5 L120.9,149.9 L122.1,160.2 L123.2,169.6 L124.3,178.2 L125.4,186.0 L126.5,193.2
		L127.6,199.8 L128.8,205.7 L129.9,211.2 L131.0,216.2 L132.1,220.7 L133.2,224.9 L134.3,228.7 L135.5,232.1
		L136.6,235.3 L137.7,238.2 L138.8,240.8 L139.9,243.3 L141.0,245.5 L142.2,247.6 L143.3,249.6 L144.4,251.4
		L145.5,253.1 L146.6,254.7 L147.8,256.2 L148.9,257.6 L150.0,258.9 L151.1,260.2 L152.2,261.4 L153.3,262.6
		L154.5,263.7 L155.6,264.8 L156.7,265.9 L157.8,266.9 L158.9,267.9 L160.0,268.9 L161.2,269.8 L162.3,270.8
		L163.4,271.7 L164.5,272.6 L165.6,273.5 L166.7,274.3 L167.9,275.2 L169.0,276.1 L170.1,276.9 L171.2,277.8
		L172.3,278.6 L173.5,279.4 L174.6,280.2 L175.7,281.1 L176.8,281.9 L177.9,282.7 L179.0,283.5 L180.2,284.3
		L181.3,285.1 L182.4,285.9 L183.5,286.7 L184.6,287.5 L185.7,288.3 L186.9,289.1 L188.0,289.9 L189.1,290.7
		L190.2,291.5 L191.3,292.3 L192.4,293.1 L193.6,293.9 L194.7,294.7 L195.8,295.5 L196.9,296.3 L198.0,297.1
		L199.1,297.9 L200.3,298.7 L201.4,299.5 L202.5,300.3 L203.6,301.1 L204.7,301.9 L205.9,302.7 L207.0,303.5
		L208.1,304.3 L209.2,305.1 L210.3,305.9 L211.4,306.7 L212.6,307.5 L213.7,308.3 L214.8,309.1 L215.9,310.0
		L217.0,310.8 L218.1,311.6 L219.3,312.4 L220.4,313.2 L221.5,314.0 L222.6,314.8 L223.7,315.6 L224.8,316.4
		L226.0,317.3 L227.1,318.1 L228.2,318.9 L229.3,319.7 L230.4,320.5 L231.6,321.3 L232.7,322.2 L233.8,323.0
		L234.9,323.8 L236.0,324.6 L237.1,325.5 L238.3,326.3 L239.4,327.1 L240.5,327.9 L241.6,328.8 L242.7,329.6
		L243.8,330.4 L245.0,331.2 L246.1,332.1 L247.2,332.9 L248.3,333.7 L249.4,334.5 L250.5,335.4 L251.7,336.2
		L252.8,337.0 L253.9,337.9 L255.0,338.7 L256.1,339.5 L257.2,340.4 L258.4,341.2 L259.5,342.0 L260.6,342.9
		L261.7,343.7 L262.8,344.6 L264.0,345.4 L265.1,346.2 L266.2,347.1 L267.3,347.9 L268.4,348.7 L269.5,349.6
		L270.7,350.4 L271.8,351.3 L272.9,352.1 L274.0,353.0 L275.1,353.8 L276.2,354.6 L277.4,355.5 L278.5,356.3
		L279.6,357.2 L280.7,358.0 L281.8,358.9 L282.9,359.7 L284.1,360.6 L285.2,361.4 L286.3,362.2 L287.4,363.1
		L288.5,363.9 L289.7,364.8 L290.8,365.6 L291.9,366.5 L293.0,367.3 L294.1,368.2 L295.2,369.0 L296.4,369.9
		L297.5,370.7 L298.6,371.6 L299.7,372.4 L300.8,373.3 L301.9,374.1 L303.1,375.0 L304.2,375.8 L305.3,376.7
		L306.4,377.5 L307.5,378.4 L308.6,379.2 L309.8,380.1 L310.9,380.9 L312.0,381.8 L313.1,382.7 L314.2,383.5
		L315.3,384.4 L316.5,385.2 L317.6,386.1 L318.7,386.9 L319.8,387.8 L320.9,388.6 L322.1,389.5 L323.2,390.3
		L324.3,391.2 L325.4,392.0 L326.5,392.9 L327.6,393.7 L328.8,394.6 L329.9,395.4 L331.0,396.3 L332.1,397.1
		L333.2,398.0 L334.3,398.8 L335.5,399.7 L336.6,400.6 L337.7,401.4 L338.8,402.3 L339.9,403.1 L341.0,404.0
		L342.2,404.8 L343.3,405.7 L344.4,406.5 L345.5,407.4 L346.6,408.2 L347.8,409.1 L348.9,409.9 L350.0,410.8
		L351.1,411.6 L352.2,412.5 L353.3,413.3 L354.5,414.2 L355.6,415.0 L356.7,415.8 L357.8,416.7 L358.9,417.5
		L360.0,418.4 L361.2,419.2 L362.3,420.1 L363.4,420.9 L364.5,421.8 L365.6,422.6 L366.7,423.5 L367.9,424.3
		L369.0,425.1 L370.1,426.0 L371.2,426.8 L372.3,427.7 L373.4,428.5 L374.6,429.4 L375.7,430.2 L376.8,431.0
		L377.9,431.9 L379.0,432.7 L380.2,433.6 L381.3,434.4 L382.4,435.2 L383.5,436.1 L384.6,436.9 L385.7,437.7
		L386.9,438.6 L388.0,439.4 L389.1,440.3 L390.2,441.1 L391.3,441.9 L392.4,442.8 L393.6,443.6 L394.7,444.4
		L395.8,445.2 L396.9,446.1 L398.0,446.9 L399.1,447.7 L400.3,448.6 L401.4,449.4 L402.5,450.2 L403.6,451.0
		L404.7,451.9 L405.9,452.7 L407.0,453.5 L408.1,454.3 L409.2,455.2 L410.3,456.0 L411.4,456.8 L412.6,457.6
		L413.7,458.5 L414.8,459.3 L415.9,460.1 L417.0,460.9 L418.1,461.7 L419.3,462.5 L420.4,463.4 L421.5,464.2
		L422.6,465.0 L423.7,465.8 L424.8,466.6 L426.0,467.4 L427.1,468.2 L428.2,469.0 L429.3,469.9 L430.4,470.7
		L431.5,471.5 L432.7,472.3 L433.8,473.1 L434.9,473.9 L436.0,474.7 L437.1,475.5 L438.3,476.3 L439.4,477.1
		L440.5,477.9 L441.6,478.7 L442.7,479.5 L443.8,480.3 L445.0,481.1 L446.1,481.9 L447.2,482.7 L448.3,483.5
		L449.4,484.3 L450.5,485.1 L451.7,485.9 L452.8,486.7 L453.9,487.4 L455.0,488.2 L456.1,489.0 L457.2,489.8
		L458.4,490.6 L459.5,491.4 L460.6,492.2 L461.7,492.9 L462.8,493.7 L464.0,494.5 L465.1,495.3 L466.2,496.1
		L467.3,496.8 L468.4,497.6 L469.5,498.4 L470.7,499.2 L471.8,499.9 L472.9,500.7 L474.0,501.5 L475.1,502.3
		L476.2,503.0 L477.4,503.8 L478.5,504.6 L479.6,505.3 L480.7,506.1 L481.8,506.9 L482.9,507.6 L484.1,508.4
		L485.2,509.1 L486.3,509.9 L487.4,510.7 L488.5,511.4 L489.6,512.2 L490.8,512.9 L491.9,513.7 L493.0,514.4
		L494.1,515.2 L495.2,515.9 L496.4,516.7 L497.5,517.4 L498.6,518.2 L499.7,518.9 L500.8,519.7 L501.9,520.4
		L503.1,521.2 L504.2,521.9 L505.3,522.6 L506.4,523.4 L507.5,524.1 L508.6,524.9 L509.8,525.6 L510.9,526.3
		L512.0,527.1 L513.1,527.8 L514.2,528.5 L515.3,529.2 L516.5,530.0 L517.6,530.7 L518.7,531.4 L519.8,532.2
		L520.9,532.9 L522.0,533.6 L523.2,534.3 L524.3,535.0 L525.4,535.8 L526.5,536.5 L527.6,537.2 L528.8,537.9
		L529.9,538.6 L531.0,539.3 L532.1,540.0 L533.2,540.7 L534.3,541.4 L535.5,542.2 L536.6,542.9 L537.7,543.6
		L538.8,544.3 L539.9,545.0 L541.0,545.7 L542.2,546.4 L543.3,547.1 L544.4,547.8 L545.5,548.4 L546.6,549.1
		L547.7,549.8 L548.9,550.5 L550.0,551.2 L551.1,551.9 L552.2,552.6 L553.3,553.3 L554.5,554.0 L555.6,554.6
		L556.7,555.3 L557.8,556.0 L558.9,556.7 L560.0,557.3 L561.2,558.0 L562.3,558.7 L563.4,559.4 L564.5,560.0
		L565.6,560.7 L566.7,561.4 L567.9,562.0 L569.0,562.7 L570.1,563.4 L571.2,564.0 L572.3,564.7 L573.4,565.3
		L574.6,566.0 L575.7,566.7 L576.8,567.3 L577.9,568.0 L579.0,568.6 L580.1,569.3 L581.3,569.9 L582.4,570.6
		L583.5,571.2 L584.6,571.8 L585.7,572.5 L586.9,573.1 L588.0,573.8 L589.1,574.4 L590.2,575.0 L591.3,575.7
		L592.4,576.3 L593.6,576.9 L594.7,577.6 L595.8,578.2 L596.9,578.8 L598.0,579.4 L599.1,580.1 L600.3,580.7
		L601.4,581.3 L602.5,581.9 L603.6,582.5 L604.7,583.2 L605.8,583.8 L607.0,584.4 L608.1,585.0 L609.2,585.6
		L610.3,586.2 L611.4,586.8 L612.6,587.4 L613.7,588.0 L614.8,588.6 L615.9,589.2 L617.0,589.8 L618.1,590.4
		L619.3,591.0 L620.4,591.6 L621.5,592.2 L622.6,592.8 L623.7,593.4 L624.8,594.0 L626.0,594.5 L627.1,595.1
		L628.2,595.7 L629.3,596.3 L630.4,596.8 L631.5,597.4 L632.7,598.0 L633.8,598.6 L634.9,599.1 L636.0,599.7
		L637.1,600.3 L638.2,600.8 L639.4,601.4 L640.5,602.0 L641.6,602.5 L642.7,603.1 L643.8,603.6 L645.0,604.2
		L646.1,604.7 L647.2,605.3 L648.3,605.8 L649.4,606.4 L650.5,606.9 L651.7,607.5 L652.8,608.0 L653.9,608.5
		L655.0,609.1 L656.1,609.6 L657.2,610.1 L658.4,610.7 L659.5,611.2 L660.6,611.7 L661.7,612.3 L662.8,612.8
		L663.9,613.3 L665.1,613.8 L666.2,614.3 L667.3,614.9 L668.4,615.4 L669.5,615.9 L670.7,616.4 L671.8,616.9
		L672.9,617.4 L674.0,617.9 L675.1,618.4 L676.2,618.9 L677.4,619.4 L678.5,619.9 L679.6,620.4 L680.7,620.9
		L681.8,621.4 L682.9,621.9 L684.1,622.4 L685.2,622.8 L686.3,623.3 L687.4,623.8 L688.5,624.3 L689.6,624.8
		L690.8,625.2 L691.9,625.7 L693.0,626.2 L694.1,626.6 L695.2,627.1 L696.3,627.6 L697.5,628.0 L698.6,628.5
		L699.7,629.0 L700.8,629.4 L701.9,629.9 L703.1,630.3 L704.2,630.8 L705.3,631.2 L706.4,631.7 L707.5,632.1
		L708.6,632.5 L709.8,633.0 L710.9,633.4 L712.0,633.8 L713.1,634.3 L714.2,634.7 L715.3,635.1 L716.5,635.6
		L717.6,636.0 L718.7,636.4 L719.8,636.8 L720.9,637.2 L722.0,637.7 L723.2,638.1 L724.3,638.5 L725.4,638.9
		L726.5,639.3 L727.6,639.7 L728.8,640.1 L729.9,640.5 L731.0,640.9 L732.1,641.3 L733.2,641.7 L734.3,642.1
		L735.5,642.5 L736.6,642.8 L737.7,643.2 L738.8,643.6 L739.9,644.0 L741.0,644.4 L742.2,644.7 L743.3,645.1
		L744.4,645.5 L745.5,645.8 L746.6,646.2 L747.7,646.6 L748.9,646.9 L750.0,647.3 L751.1,647.6 L752.2,648.0
		L753.3,648.3 L754.4,648.7 L755.6,649.0 L756.7,649.4 L757.8,649.7 L758.9,650.1 L760.0,650.4 L761.2,650.7
		L762.3,651.1 L763.4,651.4 L764.5,651.7 L765.6,652.0 L766.7,652.4 L767.9,652.7 L769.0,653.0 L770.1,653.3
		L771.2,653.6 L772.3,653.9 L773.4,654.2 L774.6,654.5 L775.7,654.8 L776.8,655.1 L777.9,655.4 L779.0,655.7
		L780.1,656.0 L781.3,656.3 L782.4,656.6 L783.5,656.9 L784.6,657.2 L785.7,657.4 L786.9,657.7 L788.0,658.0
		L789.1,658.3 L790.2,658.5 L791.3,658.8 L792.4,659.1 L793.6,659.3 L794.7,659.6 L795.8,659.8 L796.9,660.1
		L798.0,660.4 L799.1,660.6 L800.3,660.8 L801.4,661.1 L802.5,661.3 L803.6,661.6 L804.7,661.8 L805.8,662.0
		L807.0,662.3 L808.1,662.5 L809.2,662.7 L810.3,663.0 L811.4,663.2 L812.5,663.4 L813.7,663.6 L814.8,663.8
		L815.9,664.0 L817.0,664.2 L818.1,664.4 L819.3,664.7 L820.4,664.9 L821.5,665.0 L822.6,665.2 L823.7,665.4
		L824.8,665.6 L826.0,665.8 L827.1,666.0 L828.2,666.2 L829.3,666.4 L830.4,666.5 L831.5,666.7 L832.7,666.9
		L833.8,667.1 L834.9,667.2 L836.0,667.4 L837.1,667.5 L838.2,667.7 L839.4,667.9 L840.5,668.0 L841.6,668.2
		L842.7,668.3 L843.8,668.5 L845.0,668.6 L846.1,668.7 L847.2,668.9 L848.3,669.0 L849.4,669.2 L850.5,669.3
		L851.7,669.4 L852.8,669.5 L853.9,669.7 L855.0,669.8 L856.1,669.9 L857.2,670.0 L858.4,670.1 L859.5,670.2
		L860.6,670.3 L861.7,670.4 L862.8,670.5 L863.9,670.6 L865.1,670.7 L866.2,670.8 L867.3,670.9 L868.4,671.0
		L869.5,671.1 L870.6,671.2 L871.8,671.3 L872.9,671.3 L874.0,671.4 L875.1,671.5 L876.2,671.6 L877.4,671.6
		L878.5,671.7 L879.6,671.8 L880.7,671.8 L881.8,671.9 L882.9,671.9 L884.1,672.0 L885.2,672.0 L886.3,672.1
		L887.4,672.1 L888.5,672.2 L889.6,672.2 L890.8,672.3 L891.9,672.3 L893.0,672.3 L894.1,672.4 L895.2,672.4
		L896.3,672.4 L897.5,672.4 L898.6,672.4 L899.7,672.5 L900.8,672.5 L901.9,672.5 L903.0,672.5 L904.2,672.5
		L905.3,672.5 L906.4,672.5 L907.5,672.5 L908.6,672.5 L909.8,672.5 L910.9,672.5 L912.0,672.5 L913.1,672.5
		L914.2,672.5 L915.3,672.5 L916.5,672.5 L917.6,672.4 L918.7,672.4 L919.8,672.4 L920.9,672.4 L922.0,672.3
		L923.2,672.3 L924.3,672.3 L925.4,672.2 L926.5,672.2 L927.6,672.1 L928.7,672.1 L929.9,672.1 L931.0,672.0
		L932.1,672.0 L933.2,671.9 L934.3,671.9 L935.5,671.8 L936.6,671.7 L937.7,671.7 L938.8,671.6 L939.9,671.5
		L941.0,671.5 L942.2,671.4 L943.3,671.3 L944.4,671.3 L945.5,671.2 L946.6,671.1 L947.7,671.0 L948.9,671.0
		L950.0,670.9 L951.1,670.8 L952.2,670.7 L953.3,670.6 L954.4,670.5 L955.6,670.4 L956.7,670.3 L957.8,670.2
		L958.9,670.1 L960.0,670.0 L961.1,669.9 L962.3,669.8 L963.4,669.7 L964.5,669.6 L965.6,669.5 L966.7,669.4
		L967.9,669.2 L969.0,669.1 L970.1,669.0 L971.2,668.9 L972.3,668.8 L973.4,668.6 L974.6,668.5 L975.7,668.4
		L976.8,668.3 L977.9,668.1 L979.0,668.0 L980.1,667.9 L981.3,667.7 L982.4,667.6 L983.5,667.4 L984.6,667.3
		L985.7,667.2 L986.8,667.0 L988.0,666.9 L989.1,666.7 L990.2,666.6 L991.3,666.4 L992.4,666.3 L993.6,666.1
		L994.7,666.0 L995.8,665.8 L996.9,665.6 L998.0,665.5 L999.1,665.3 L1000.3,665.2 L1001.4,665.0 L1002.5,664.8
		L1003.6,664.7 L1004.7,664.5 L1005.8,664.3 L1007.0,664.1 L1008.1,664.0 L1009.2,663.8 L1010.3,663.6 L1011.4,663.4
		L1012.5,663.3 L1013.7,663.1 L1014.8,662.9 L1015.9,662.7 L1017.0,662.5 L1018.1,662.4 L1019.2,662.2 L1020.4,662.0
		L1021.5,661.8 L1022.6,661.6 L1023.7,661.4 L1024.8,661.2 L1026.0,661.0 L1027.1,660.9 L1028.2,660.7 L1029.3,660.5
		L1030.4,660.3 L1031.5,660.1 L1032.7,659.9 L1033.8,659.7 L1034.9,659.5 L1036.0,659.3 L1037.1,659.1 L1038.2,658.9
		L1039.4,658.7 L1040.5,658.5 L1041.6,658.3 L1042.7,658.1 L1043.8,657.9 L1044.9,657.7 L1046.1,657.5 L1047.2,657.2
		L1048.3,657.0 L1049.4,656.8 L1050.5,656.6 L1051.7,656.4 L1052.8,656.2 L1053.9,656.0 L1055.0,655.8 L1056.1,655.6
		L1057.2,655.4 L1058.4,655.1 L1059.5,654.9 L1060.6,654.7 L1061.7,654.5 L1062.8,654.3 L1063.9,654.1 L1065.1,653.9
		L1066.2,653.6 L1067.3,653.4 L1068.4,653.2 L1069.5,653.0 L1070.6,652.8 L1071.8,652.6 L1072.9,652.3 L1074.0,652.1
		L1075.1,651.9 L1076.2,651.7 L1077.3,651.5 L1078.5,651.3 L1079.6,651.0 L1080.7,650.8 L1081.8,650.6 L1082.9,650.4
		L1084.1,650.2 L1085.2,650.0 L1086.3,649.7 L1087.4,649.5 L1088.5,649.3 L1089.6,649.1 L1090.8,648.9 L1091.9,648.6
		L1093.0,648.4 L1094.1,648.2 L1095.2,648.0 L1096.3,647.8 L1097.5,647.6 L1098.6,647.4 L1099.7,647.1 L1100.8,646.9
		L1101.9,646.7 L1103.0,646.5 L1104.2,646.3 L1105.3,646.1 L1106.4,645.9 L1107.5,645.6 L1108.6,645.4 L1109.8,645.2
		L1110.9,645.0 L1112.0,644.8 L1113.1,644.6 L1114.2,644.4 L1115.3,644.2 L1116.5,644.0 L1117.6,643.8 L1118.7,643.6
		L1119.8,643.3 L1120.9,643.1 L1122.0,642.9 L1123.2,642.7 L1124.3,642.5 L1125.4,642.3 L1126.5,642.1 L1127.6,641.9
		L1128.7,641.7 L1129.9,641.5 L1131.0,641.3 L1132.1,641.1 L1133.2,640.9 L1134.3,640.7 L1135.4,640.6 L1136.6,640.4
		L1137.7,640.2 L1138.8,640.0 L1139.9,639.8 L1141.0,639.6 L1142.2,639.4 L1143.3,639.2 L1144.4,639.0 L1145.5,638.9
		L1146.6,638.7 L1147.7,638.5 L1148.9,638.3 L1150.0,638.1 L1151.1,638.0 L1152.2,637.8 L1153.3,637.6 L1154.4,637.4
		L1155.6,637.3 L1156.7,637.1 L1157.8,636.9 L1158.9,636.7 L1160.0,636.6 L1161.1,636.4 L1162.3,636.2 L1163.4,636.1
		L1164.5,635.9 L1165.6,635.8 L1166.7,635.6 L1167.9,635.4 L1169.0,635.3 L1170.1,635.1 L1171.2,635.0 L1172.3,634.8
		L1173.4,634.7 L1174.6,634.5 L1175.7,634.4 L1176.8,634.2 L1177.9,634.1 L1179.0,634.0 L1180.1,633.8 L1181.3,633.7
		L1182.4,633.5 L1183.5,633.4 L1184.6,633.3 L1185.7,633.2 L1186.8,633.0 L1188.0,632.9 L1189.1,632.8 L1190.2,632.6
		L1191.3,632.5 L1192.4,632.4 L1193.5,632.3 L1194.7,632.2 L1195.8,632.1 L1196.9,631.9 L1198.0,631.8 L1199.1,631.7
		L1200.3,631.6 L1201.4,631.5 L1202.5,631.4 L1203.6,631.3 L1204.7,631.2 L1205.8,631.1 L1207.0,631.0 L1208.1,630.9
		L1209.2,630.8 L1210.3,630.8 L1211.4,630.7 L1212.5,630.6 L1213.7,630.5 L1214.8,630.4 L1215.9,630.3 L1217.0,630.3
		L1218.1,630.2 L1219.2,630.1 L1220.4,630.1 L1221.5,630.0 L1222.6,629.9 L1223.7,629.9 L1224.8,629.8 L1226.0,629.7
		L1227.1,629.7 L1228.2,629.6 L1229.3,629.6 L1230.4,629.5 L1231.5,629.5 L1232.7,629.4 L1233.8,629.4 L1234.9,629.3
		L1236.0,629.3 L1237.1,629.3 L1238.2,629.2 L1239.4,629.2 L1240.5,629.2 L1241.6,629.1 L1242.7,629.1 L1243.8,629.1
		L1244.9,629.1 L1246.1,629.1 L1247.2,629.0 L1248.3,629.0 L1249.4,629.0 L1250.5,629.0 L1251.6,629.0 L1252.8,629.0
		L1253.9,629.0 L1255.0,629.0  '/></g>
	</g>
<g fill="none" color="white" stroke="rgb(230, 159,   0)" stroke-width="2.00" stroke-linecap="butt" stroke-linejoin="miter">
</g>
<g fill="none" color="black" stroke="currentColor" stroke-width="2.00" stroke-linecap="butt" stroke-linejoin="miter">
</g>
<g fill="none" color="black" stroke="black" stroke-width="1.00" stroke-linecap="butt" stroke-linejoin="miter">
</g>
<g fill="none" color="black" stroke="currentColor" stroke-width="1.00" stroke-linecap="butt" stroke-linejoin="miter">
	<path stroke='black'  d='M112.0,54.1 L112.0,684.0 L1255.0,684.0 L1255.0,54.1 L112.0,54.1 Z  '/></g>
<g fill="none" color="black" stroke="currentColor" stroke-width="1.00" stroke-linecap="butt" stroke-linejoin="miter">
</g>
</g>
</svg>

