<?xml version="1.0" encoding="utf-8"  standalone="no"?>
<svg 
 width="1280" height="720"
 viewBox="0 0 1280 720"
 xmlns="http://www.w3.org/2000/svg"
 xmlns:xlink="http://www.w3.org/1999/xlink"
>

<title>Gnuplot</title>
<desc>Produced by GNUPLOT 5.0 patchlevel 6 </desc>

<g id="gnuplot_canvas">

<rect x="0" y="0" width="1280" height="720" fill="none"/>
<defs>

	<circle id='gpDot' r='0.5' stroke-width='0.5'/>
	<path id='gpPt0' stroke-width='0.222' stroke='currentColor' d='M-1,0 h2 M0,-1 v2'/>
	<path id='gpPt1' stroke-width='0.222' stroke='currentColor' d='M-1,-1 L1,1 M1,-1 L-1,1'/>
	<path id='gpPt2' stroke-width='0.222' stroke='currentColor' d='M-1,0 L1,0 M0,-1 L0,1 M-1,-1 L1,1 M-1,1 L1,-1'/>
	<rect id='gpPt3' stroke-width='0.222' stroke='currentColor' x='-1' y='-1' width='2' height='2'/>
	<rect id='gpPt4' stroke-width='0.222' stroke='currentColor' fill='currentColor' x='-1' y='-1' width='2' height='2'/>
	<circle id='gpPt5' stroke-width='0.222' stroke='currentColor' cx='0' cy='0' r='1'/>
	<use xlink:href='#gpPt5' id='gpPt6' fill='currentColor' stroke='none'/>
	<path id='gpPt7' stroke-width='0.222' stroke='currentColor' d='M0,-1.33 L-1.33,0.67 L1.33,0.67 z'/>
	<use xlink:href='#gpPt7' id='gpPt8' fill='currentColor' stroke='none'/>
	<use xlink:href='#gpPt7' id='gpPt9' stroke='currentColor' transform='rotate(180)'/>
	<use xlink:href='#gpPt9' id='gpPt10' fill='currentColor' stroke='none'/>
	<use xlink:href='#gpPt3' id='gpPt11' stroke='currentColor' transform='rotate(45)'/>
	<use xlink:href='#gpPt11' id='gpPt12' fill='currentColor' stroke='none'/>
	<path id='gpPt13' stroke-width='0.222' stroke='currentColor' d='M0,1.330 L1.265,0.411 L0.782,-1.067 L-0.782,-1.076 L-1.265,0.411 z'/>
	<use xlink:href='#gpPt13' id='gpPt14' fill='currentColor' stroke='none'/>
	<filter id='textbox' filterUnits='objectBoundingBox' x='0' y='0' height='1' width='1'>
	  <feFlood flood-color='white' flood-opacity='1' result='bgnd'/>
	  <feComposite in='SourceGraphic' in2='bgnd' operator='atop'/>
	</filter>
	<filter id='greybox' filterUnits='objectBoundingBox' x='0' y='0' height='1' width='1'>
	  <feFlood flood-color='lightgrey' flood-opacity='1' result='grey'/>
	  <feComposite in='SourceGraphic' in2='grey' operator='atop'/>
	</filter>
</defs>
<g fill="none" color="white" stroke="currentColor" stroke-width="1.00" stroke-linecap="butt" stroke-linejoin="miter">
</g>
<g fill="none" color="black" stroke="currentColor" stroke-width="1.00" stroke-linecap="butt" stroke-linejoin="miter">
	<path stroke='black'  d='M95.4,684.0 L104.4,684.0 M1255.0,684.0 L1246.0,684.0  '/>	<g transform="translate(87.1,687.9)" stroke="none" fill="black" font-family="Arial" font-size="12.00"  text-anchor="end">
		<text><tspan font-family="Arial" > 0.107509</tspan></text>
	</g>
</g>
<g fill="none" color="black" stroke="currentColor" stroke-width="1.00" stroke-linecap="butt" stroke-linejoin="miter">
	<path stroke='black'  d='M95.4,391.5 L104.4,391.5 M1255.0,391.5 L1246.0,391.5  '/>	<g transform="translate(87.1,395.4)" stroke="none" fill="black" font-family="Arial" font-size="12.00"  text-anchor="end">
		<text><tspan font-family="Arial" > 0.161248</tspan></text>
	</g>
</g>
<g fill="none" color="black" stroke="currentColor" stroke-width="1.00" stroke-linecap="butt" stroke-linejoin="miter">
	<path stroke='black'  d='M95.4,99.1 L104.4,99.1 M1255.0,99.1 L1246.0,99.1  '/>	<g transform="translate(87.1,103.0)" stroke="none" fill="black" font-family="Arial" font-size="12.00"  text-anchor="end">
		<text><tspan font-family="Arial" > 0.214986</tspan></text>
	</g>
</g>
<g fill="none" color="black" stroke="currentColor" stroke-width="1.00" stroke-linecap="butt" stroke-linejoin="miter">
	<path stroke='black'  d='M95.4,684.0 L95.4,675.0 M95.4,54.1 L95.4,63.1  '/>	<g transform="translate(95.4,705.9)" stroke="none" fill="black" font-family="Arial" font-size="12.00"  text-anchor="middle">
		<text><tspan font-family="Arial" > 0</tspan></text>
	</g>
</g>
<g fill="none" color="black" stroke="currentColor" stroke-width="1.00" stroke-linecap="butt" stroke-linejoin="miter">
	<path stroke='black'  d='M675.2,684.0 L675.2,675.0 M675.2,54.1 L675.2,63.1  '/>	<g transform="translate(675.2,705.9)" stroke="none" fill="black" font-family="Arial" font-size="12.00"  text-anchor="middle">
		<text><tspan font-family="Arial" >pi/2</tspan></text>
	</g>
</g>
<g fill="none" color="black" stroke="currentColor" stroke-width="1.00" stroke-linecap="butt" stroke-linejoin="miter">
	<path stroke='black'  d='M1255.0,684.0 L1255.0,675.0 M1255.0,54.1 L1255.0,63.1  '/>	<g transform="translate(1255.0,705.9)" stroke="none" fill="black" font-family="Arial" font-size="12.00"  text-anchor="middle">
		<text><tspan font-family="Arial" >pi</tspan></text>
	</g>
</g>
<g fill="none" color="black" stroke="currentColor" stroke-width="1.00" stroke-linecap="butt" stroke-linejoin="miter">
</g>
<g fill="none" color="black" stroke="currentColor" stroke-width="1.00" stroke-linecap="butt" stroke-linejoin="miter">
	<path stroke='black'  d='M95.4,54.1 L95.4,684.0 L1255.0,684.0 L1255.0,54.1 L95.4,54.1 Z  '/></g>
<g fill="none" color="black" stroke="currentColor" stroke-width="1.00" stroke-linecap="butt" stroke-linejoin="miter">
	<g transform="translate(675.2,31.0)" stroke="none" fill="black" font-family="Arial" font-size="12.00"  text-anchor="middle">
		<text><tspan font-family="Arial" >Material 101</tspan></text>
	</g>
</g>
	<g id="gnuplot_plot_1" ><title>scattering function</title>
<g fill="none" color="black" stroke="currentColor" stroke-width="1.00" stroke-linecap="butt" stroke-linejoin="miter">
	<g transform="translate(1187.9,76.0)" stroke="none" fill="black" font-family="Arial" font-size="12.00"  text-anchor="end">
		<text><tspan font-family="Arial" >scattering function</tspan></text>
	</g>
</g>
<g fill="none" color="black" stroke="currentColor" stroke-width="1.00" stroke-linecap="butt" stroke-linejoin="miter">
	<use xlink:href='#gpPt5' transform='translate(95.4,99.1) scale(2.25)' color='black'/>
	<use xlink:href='#gpPt5' transform='translate(104.5,99.4) scale(2.25)' color='black'/>
	<use xlink:href='#gpPt5' transform='translate(113.7,100.5) scale(2.25)' color='black'/>
	<use xlink:href='#gpPt5' transform='translate(122.8,102.3) scale(2.25)' color='black'/>
	<use xlink:href='#gpPt5' transform='translate(131.9,104.8) scale(2.25)' color='black'/>
	<use xlink:href='#gpPt5' transform='translate(141.1,108.0) scale(2.25)' color='black'/>
	<use xlink:href='#gpPt5' transform='translate(150.2,111.9) scale(2.25)' color='black'/>
	<use xlink:href='#gpPt5' transform='translate(159.3,116.5) scale(2.25)' color='black'/>
	<use xlink:href='#gpPt5' transform='translate(168.4,121.7) scale(2.25)' color='black'/>
	<use xlink:href='#gpPt5' transform='translate(177.6,127.6) scale(2.25)' color='black'/>
	<use xlink:href='#gpPt5' transform='translate(186.7,134.2) scale(2.25)' color='black'/>
	<use xlink:href='#gpPt5' transform='translate(195.8,141.3) scale(2.25)' color='black'/>
	<use xlink:href='#gpPt5' transform='translate(205.0,149.1) scale(2.25)' color='black'/>
	<use xlink:href='#gpPt5' transform='translate(214.1,157.5) scale(2.25)' color='black'/>
	<use xlink:href='#gpPt5' transform='translate(223.2,166.5) scale(2.25)' color='black'/>
	<use xlink:href='#gpPt5' transform='translate(232.4,176.0) scale(2.25)' color='black'/>
	<use xlink:href='#gpPt5' transform='translate(241.5,186.0) scale(2.25)' color='black'/>
	<use xlink:href='#gpPt5' transform='translate(250.6,196.6) scale(2.25)' color='black'/>
	<use xlink:href='#gpPt5' transform='translate(259.8,207.6) scale(2.25)' color='black'/>
	<use xlink:href='#gpPt5' transform='translate(268.9,219.1) scale(2.25)' color='black'/>
	<use xlink:href='#gpPt5' transform='translate(278.0,231.0) scale(2.25)' color='black'/>
	<use xlink:href='#gpPt5' transform='translate(287.1,243.3) scale(2.25)' color='black'/>
	<use xlink:href='#gpPt5' transform='translate(296.3,255.9) scale(2.25)' color='black'/>
	<use xlink:href='#gpPt5' transform='translate(305.4,268.9) scale(2.25)' color='black'/>
	<use xlink:href='#gpPt5' transform='translate(314.5,282.2) scale(2.25)' color='black'/>
	<use xlink:href='#gpPt5' transform='translate(323.7,295.7) scale(2.25)' color='black'/>
	<use xlink:href='#gpPt5' transform='translate(332.8,309.5) scale(2.25)' color='black'/>
	<use xlink:href='#gpPt5' transform='translate(341.9,323.5) scale(2.25)' color='black'/>
	<use xlink:href='#gpPt5' transform='translate(351.1,337.6) scale(2.25)' color='black'/>
	<use xlink:href='#gpPt5' transform='translate(360.2,351.9) scale(2.25)' color='black'/>
	<use xlink:href='#gpPt5' transform='translate(369.3,366.3) scale(2.25)' color='black'/>
	<use xlink:href='#gpPt5' transform='translate(378.5,380.7) scale(2.25)' color='black'/>
	<use xlink:href='#gpPt5' transform='translate(387.6,395.2) scale(2.25)' color='black'/>
	<use xlink:href='#gpPt5' transform='translate(396.7,409.7) scale(2.25)' color='black'/>
	<use xlink:href='#gpPt5' transform='translate(405.8,424.1) scale(2.25)' color='black'/>
	<use xlink:href='#gpPt5' transform='translate(415.0,438.4) scale(2.25)' color='black'/>
	<use xlink:href='#gpPt5' transform='translate(424.1,452.6) scale(2.25)' color='black'/>
	<use xlink:href='#gpPt5' transform='translate(433.2,466.7) scale(2.25)' color='black'/>
	<use xlink:href='#gpPt5' transform='translate(442.4,480.6) scale(2.25)' color='black'/>
	<use xlink:href='#gpPt5' transform='translate(451.5,494.3) scale(2.25)' color='black'/>
	<use xlink:href='#gpPt5' transform='translate(460.6,507.7) scale(2.25)' color='black'/>
	<use xlink:href='#gpPt5' transform='translate(469.8,520.8) scale(2.25)' color='black'/>
	<use xlink:href='#gpPt5' transform='translate(478.9,533.6) scale(2.25)' color='black'/>
	<use xlink:href='#gpPt5' transform='translate(488.0,546.1) scale(2.25)' color='black'/>
	<use xlink:href='#gpPt5' transform='translate(497.2,558.2) scale(2.25)' color='black'/>
	<use xlink:href='#gpPt5' transform='translate(506.3,569.9) scale(2.25)' color='black'/>
	<use xlink:href='#gpPt5' transform='translate(515.4,581.1) scale(2.25)' color='black'/>
	<use xlink:href='#gpPt5' transform='translate(524.5,591.9) scale(2.25)' color='black'/>
	<use xlink:href='#gpPt5' transform='translate(533.7,602.2) scale(2.25)' color='black'/>
	<use xlink:href='#gpPt5' transform='translate(542.8,612.0) scale(2.25)' color='black'/>
	<use xlink:href='#gpPt5' transform='translate(551.9,621.2) scale(2.25)' color='black'/>
	<use xlink:href='#gpPt5' transform='translate(561.1,629.9) scale(2.25)' color='black'/>
	<use xlink:href='#gpPt5' transform='translate(570.2,638.0) scale(2.25)' color='black'/>
	<use xlink:href='#gpPt5' transform='translate(579.3,645.5) scale(2.25)' color='black'/>
	<use xlink:href='#gpPt5' transform='translate(588.5,652.4) scale(2.25)' color='black'/>
	<use xlink:href='#gpPt5' transform='translate(597.6,658.6) scale(2.25)' color='black'/>
	<use xlink:href='#gpPt5' transform='translate(606.7,664.2) scale(2.25)' color='black'/>
	<use xlink:href='#gpPt5' transform='translate(615.9,669.1) scale(2.25)' color='black'/>
	<use xlink:href='#gpPt5' transform='translate(625.0,673.3) scale(2.25)' color='black'/>
	<use xlink:href='#gpPt5' transform='translate(634.1,676.9) scale(2.25)' color='black'/>
	<use xlink:href='#gpPt5' transform='translate(643.2,679.7) scale(2.25)' color='black'/>
	<use xlink:href='#gpPt5' transform='translate(652.4,681.9) scale(2.25)' color='black'/>
	<use xlink:href='#gpPt5' transform='translate(661.5,683.3) scale(2.25)' color='black'/>
	<use xlink:href='#gpPt5' transform='translate(670.6,684.0) scale(2.25)' color='black'/>
	<use xlink:href='#gpPt5' transform='translate(679.8,684.0) scale(2.25)' color='black'/>
	<use xlink:href='#gpPt5' transform='translate(688.9,683.3) scale(2.25)' color='black'/>
	<use xlink:href='#gpPt5' transform='translate(698.0,681.9) scale(2.25)' color='black'/>
	<use xlink:href='#gpPt5' transform='translate(707.2,679.7) scale(2.25)' color='black'/>
	<use xlink:href='#gpPt5' transform='translate(716.3,676.9) scale(2.25)' color='black'/>
	<use xlink:href='#gpPt5' transform='translate(725.4,673.3) scale(2.25)' color='black'/>
	<use xlink:href='#gpPt5' transform='translate(734.5,669.1) scale(2.25)' color='black'/>
	<use xlink:href='#gpPt5' transform='translate(743.7,664.2) scale(2.25)' color='black'/>
	<use xlink:href='#gpPt5' transform='translate(752.8,658.6) scale(2.25)' color='black'/>
	<use xlink:href='#gpPt5' transform='translate(761.9,652.4) scale(2.25)' color='black'/>
	<use xlink:href='#gpPt5' transform='translate(771.1,645.5) scale(2.25)' color='black'/>
	<use xlink:href='#gpPt5' transform='translate(780.2,638.0) scale(2.25)' color='black'/>
	<use xlink:href='#gpPt5' transform='translate(789.3,629.9) scale(2.25)' color='black'/>
	<use xlink:href='#gpPt5' transform='translate(798.5,621.2) scale(2.25)' color='black'/>
	<use xlink:href='#gpPt5' transform='translate(807.6,612.0) scale(2.25)' color='black'/>
	<use xlink:href='#gpPt5' transform='translate(816.7,602.2) scale(2.25)' color='black'/>
	<use xlink:href='#gpPt5' transform='translate(825.9,591.9) scale(2.25)' color='black'/>
	<use xlink:href='#gpPt5' transform='translate(835.0,581.1) scale(2.25)' color='black'/>
	<use xlink:href='#gpPt5' transform='translate(844.1,569.9) scale(2.25)' color='black'/>
	<use xlink:href='#gpPt5' transform='translate(853.2,558.2) scale(2.25)' color='black'/>
	<use xlink:href='#gpPt5' transform='translate(862.4,546.1) scale(2.25)' color='black'/>
	<use xlink:href='#gpPt5' transform='translate(871.5,533.6) scale(2.25)' color='black'/>
	<use xlink:href='#gpPt5' transform='translate(880.6,520.8) scale(2.25)' color='black'/>
	<use xlink:href='#gpPt5' transform='translate(889.8,507.7) scale(2.25)' color='black'/>
	<use xlink:href='#gpPt5' transform='translate(898.9,494.3) scale(2.25)' color='black'/>
	<use xlink:href='#gpPt5' transform='translate(908.0,480.6) scale(2.25)' color='black'/>
	<use xlink:href='#gpPt5' transform='translate(917.2,466.7) scale(2.25)' color='black'/>
	<use xlink:href='#gpPt5' transform='translate(926.3,452.6) scale(2.25)' color='black'/>
	<use xlink:href='#gpPt5' transform='translate(935.4,438.4) scale(2.25)' color='black'/>
	<use xlink:href='#gpPt5' transform='translate(944.6,424.1) scale(2.25)' color='black'/>
	<use xlink:href='#gpPt5' transform='translate(953.7,409.7) scale(2.25)' color='black'/>
	<use xlink:href='#gpPt5' transform='translate(962.8,395.2) scale(2.25)' color='black'/>
	<use xlink:href='#gpPt5' transform='translate(971.9,380.7) scale(2.25)' color='black'/>
	<use xlink:href='#gpPt5' transform='translate(981.1,366.3) scale(2.25)' color='black'/>
	<use xlink:href='#gpPt5' transform='translate(990.2,351.9) scale(2.25)' color='black'/>
	<use xlink:href='#gpPt5' transform='translate(999.3,337.6) scale(2.25)' color='black'/>
	<use xlink:href='#gpPt5' transform='translate(1008.5,323.5) scale(2.25)' color='black'/>
	<use xlink:href='#gpPt5' transform='translate(1017.6,309.5) scale(2.25)' color='black'/>
	<use xlink:href='#gpPt5' transform='translate(1026.7,295.7) scale(2.25)' color='black'/>
	<use xlink:href='#gpPt5' transform='translate(1035.9,282.2) scale(2.25)' color='black'/>
	<use xlink:href='#gpPt5' transform='translate(1045.0,268.9) scale(2.25)' color='black'/>
	<use xlink:href='#gpPt5' transform='translate(1054.1,255.9) scale(2.25)' color='black'/>
	<use xlink:href='#gpPt5' transform='translate(1063.3,243.3) scale(2.25)' color='black'/>
	<use xlink:href='#gpPt5' transform='translate(1072.4,231.0) scale(2.25)' color='black'/>
	<use xlink:href='#gpPt5' transform='translate(1081.5,219.1) scale(2.25)' color='black'/>
	<use xlink:href='#gpPt5' transform='translate(1090.6,207.6) scale(2.25)' color='black'/>
	<use xlink:href='#gpPt5' transform='translate(1099.8,196.6) scale(2.25)' color='black'/>
	<use xlink:href='#gpPt5' transform='translate(1108.9,186.0) scale(2.25)' color='black'/>
	<use xlink:href='#gpPt5' transform='translate(1118.0,176.0) scale(2.25)' color='black'/>
	<use xlink:href='#gpPt5' transform='translate(1127.2,166.5) scale(2.25)' color='black'/>
	<use xlink:href='#gpPt5' transform='translate(1136.3,157.5) scale(2.25)' color='black'/>
	<use xlink:href='#gpPt5' transform='translate(1145.4,149.1) scale(2.25)' color='black'/>
	<use xlink:href='#gpPt5' transform='translate(1154.6,141.3) scale(2.25)' color='black'/>
	<use xlink:href='#gpPt5' transform='translate(1163.7,134.2) scale(2.25)' color='black'/>
	<use xlink:href='#gpPt5' transform='translate(1172.8,127.6) scale(2.25)' color='black'/>
	<use xlink:href='#gpPt5' transform='translate(1182.0,121.7) scale(2.25)' color='black'/>
	<use xlink:href='#gpPt5' transform='translate(1191.1,116.5) scale(2.25)' color='black'/>
	<use xlink:href='#gpPt5' transform='translate(1200.2,111.9) scale(2.25)' color='black'/>
	<use xlink:href='#gpPt5' transform='translate(1209.3,108.0) scale(2.25)' color='black'/>
	<use xlink:href='#gpPt5' transform='translate(1218.5,104.8) scale(2.25)' color='black'/>
	<use xlink:href='#gpPt5' transform='translate(1227.6,102.3) scale(2.25)' color='black'/>
	<use xlink:href='#gpPt5' transform='translate(1236.7,100.5) scale(2.25)' color='black'/>
	<use xlink:href='#gpPt5' transform='translate(1245.9,99.4) scale(2.25)' color='black'/>
	<use xlink:href='#gpPt5' transform='translate(1255.0,99.1) scale(2.25)' color='black'/>
	<use xlink:href='#gpPt5' transform='translate(1217.3,72.1) scale(2.25)' color='black'/>
</g>
	</g>
	<g id="gnuplot_plot_2" ><title>2 (convex)</title>
<g fill="none" color="black" stroke="currentColor" stroke-width="1.00" stroke-linecap="butt" stroke-linejoin="miter">
	<g transform="translate(1187.9,94.0)" stroke="none" fill="black" font-family="Arial" font-size="12.00"  text-anchor="end">
		<text><tspan font-family="Arial" >2 (convex)</tspan></text>
	</g>
</g>
<g fill="none" color="black" stroke="currentColor" stroke-width="1.00" stroke-linecap="butt" stroke-linejoin="miter">
	<path stroke='rgb(  0, 158, 115)'  d='M1196.2,90.1 L1238.4,90.1 M95.4,60.1 L96.5,60.2 L97.7,60.2 L98.8,60.2 L99.9,60.3 L101.1,60.4
		L102.2,60.5 L103.3,60.6 L104.5,60.7 L105.6,60.9 L106.7,61.1 L107.9,61.2 L109.0,61.4 L110.1,61.7
		L111.3,61.9 L112.4,62.2 L113.5,62.5 L114.7,62.8 L115.8,63.1 L116.9,63.4 L118.1,63.8 L119.2,64.1
		L120.3,64.5 L121.5,64.9 L122.6,65.3 L123.7,65.8 L124.9,66.2 L126.0,66.7 L127.1,67.2 L128.3,67.7
		L129.4,68.2 L130.5,68.8 L131.7,69.3 L132.8,69.9 L133.9,70.5 L135.1,71.1 L136.2,71.7 L137.3,72.4
		L138.5,73.1 L139.6,73.7 L140.7,74.4 L141.9,75.1 L143.0,75.9 L144.1,76.6 L145.3,77.4 L146.4,78.2
		L147.5,79.0 L148.7,79.8 L149.8,80.6 L150.9,81.4 L152.1,82.3 L153.2,83.2 L154.3,84.1 L155.5,85.0
		L156.6,85.9 L157.7,86.8 L158.9,87.8 L160.0,88.7 L161.1,89.7 L162.3,90.7 L163.4,91.7 L164.5,92.8
		L165.7,93.8 L166.8,94.9 L167.9,95.9 L169.1,97.0 L170.2,98.1 L171.3,99.3 L172.5,100.4 L173.6,101.5
		L174.7,102.7 L175.9,103.9 L177.0,105.0 L178.1,106.2 L179.3,107.5 L180.4,108.7 L181.5,109.9 L182.7,111.2
		L183.8,112.4 L184.9,113.7 L186.1,115.0 L187.2,116.3 L188.3,117.6 L189.5,119.0 L190.6,120.3 L191.7,121.7
		L192.9,123.0 L194.0,124.4 L195.2,125.8 L196.3,127.2 L197.4,128.6 L198.6,130.0 L199.7,131.5 L200.8,132.9
		L202.0,134.4 L203.1,135.9 L204.2,137.3 L205.4,138.8 L206.5,140.3 L207.6,141.8 L208.8,143.4 L209.9,144.9
		L211.0,146.4 L212.2,148.0 L213.3,149.6 L214.4,151.1 L215.6,152.7 L216.7,154.3 L217.8,155.9 L219.0,157.5
		L220.1,159.1 L221.2,160.8 L222.4,162.4 L223.5,164.1 L224.6,165.7 L225.8,167.4 L226.9,169.0 L228.0,170.7
		L229.2,172.4 L230.3,174.1 L231.4,175.8 L232.6,177.5 L233.7,179.2 L234.8,181.0 L236.0,182.7 L237.1,184.4
		L238.2,186.2 L239.4,187.9 L240.5,189.7 L241.6,191.5 L242.8,193.2 L243.9,195.0 L245.0,196.8 L246.2,198.6
		L247.3,200.4 L248.4,202.2 L249.6,204.0 L250.7,205.8 L251.8,207.6 L253.0,209.5 L254.1,211.3 L255.2,213.1
		L256.4,215.0 L257.5,216.8 L258.6,218.7 L259.8,220.5 L260.9,222.4 L262.0,224.2 L263.2,226.1 L264.3,228.0
		L265.4,229.9 L266.6,231.7 L267.7,233.6 L268.8,235.5 L270.0,237.4 L271.1,239.3 L272.2,241.2 L273.4,243.1
		L274.5,245.0 L275.6,246.9 L276.8,248.8 L277.9,250.7 L279.0,252.6 L280.2,254.5 L281.3,256.5 L282.4,258.4
		L283.6,260.3 L284.7,262.2 L285.8,264.1 L287.0,266.1 L288.1,268.0 L289.2,269.9 L290.4,271.9 L291.5,273.8
		L292.6,275.7 L293.8,277.7 L294.9,279.6 L296.0,281.5 L297.2,283.5 L298.3,285.4 L299.4,287.3 L300.6,289.3
		L301.7,291.2 L302.8,293.2 L304.0,295.1 L305.1,297.0 L306.2,299.0 L307.4,300.9 L308.5,302.9 L309.6,304.8
		L310.8,306.7 L311.9,308.7 L313.0,310.6 L314.2,312.5 L315.3,314.5 L316.4,316.4 L317.6,318.3 L318.7,320.3
		L319.8,322.2 L321.0,324.1 L322.1,326.0 L323.2,328.0 L324.4,329.9 L325.5,331.8 L326.6,333.7 L327.8,335.7
		L328.9,337.6 L330.0,339.5 L331.2,341.4 L332.3,343.3 L333.4,345.2 L334.6,347.1 L335.7,349.0 L336.8,350.9
		L338.0,352.8 L339.1,354.7 L340.2,356.6 L341.4,358.5 L342.5,360.4 L343.6,362.3 L344.8,364.1 L345.9,366.0
		L347.0,367.9 L348.2,369.8 L349.3,371.6 L350.4,373.5 L351.6,375.4 L352.7,377.2 L353.8,379.1 L355.0,380.9
		L356.1,382.8 L357.2,384.6 L358.4,386.5 L359.5,388.3 L360.6,390.1 L361.8,391.9 L362.9,393.8 L364.0,395.6
		L365.2,397.4 L366.3,399.2 L367.4,401.0 L368.6,402.8 L369.7,404.6 L370.8,406.4 L372.0,408.2 L373.1,410.0
		L374.2,411.8 L375.4,413.5 L376.5,415.3 L377.6,417.1 L378.8,418.8 L379.9,420.6 L381.0,422.3 L382.2,424.1
		L383.3,425.8 L384.4,427.6 L385.6,429.3 L386.7,431.0 L387.9,432.7 L389.0,434.4 L390.1,436.2 L391.3,437.9
		L392.4,439.6 L393.5,441.3 L394.7,442.9 L395.8,444.6 L396.9,446.3 L398.1,448.0 L399.2,449.6 L400.3,451.3
		L401.5,452.9 L402.6,454.6 L403.7,456.2 L404.9,457.9 L406.0,459.5 L407.1,461.1 L408.3,462.8 L409.4,464.4
		L410.5,466.0 L411.7,467.6 L412.8,469.2 L413.9,470.8 L415.1,472.3 L416.2,473.9 L417.3,475.5 L418.5,477.1
		L419.6,478.6 L420.7,480.2 L421.9,481.7 L423.0,483.3 L424.1,484.8 L425.3,486.3 L426.4,487.8 L427.5,489.3
		L428.7,490.9 L429.8,492.4 L430.9,493.9 L432.1,495.3 L433.2,496.8 L434.3,498.3 L435.5,499.8 L436.6,501.2
		L437.7,502.7 L438.9,504.1 L440.0,505.6 L441.1,507.0 L442.3,508.5 L443.4,509.9 L444.5,511.3 L445.7,512.7
		L446.8,514.1 L447.9,515.5 L449.1,516.9 L450.2,518.3 L451.3,519.7 L452.5,521.0 L453.6,522.4 L454.7,523.7
		L455.9,525.1 L457.0,526.4 L458.1,527.8 L459.3,529.1 L460.4,530.4 L461.5,531.7 L462.7,533.0 L463.8,534.3
		L464.9,535.6 L466.1,536.9 L467.2,538.2 L468.3,539.5 L469.5,540.8 L470.6,542.0 L471.7,543.3 L472.9,544.5
		L474.0,545.7 L475.1,547.0 L476.3,548.2 L477.4,549.4 L478.5,550.6 L479.7,551.8 L480.8,553.0 L481.9,554.2
		L483.1,555.4 L484.2,556.6 L485.3,557.8 L486.5,558.9 L487.6,560.1 L488.7,561.2 L489.9,562.4 L491.0,563.5
		L492.1,564.6 L493.3,565.7 L494.4,566.8 L495.5,568.0 L496.7,569.1 L497.8,570.1 L498.9,571.2 L500.1,572.3
		L501.2,573.4 L502.3,574.4 L503.5,575.5 L504.6,576.5 L505.7,577.6 L506.9,578.6 L508.0,579.6 L509.1,580.7
		L510.3,581.7 L511.4,582.7 L512.5,583.7 L513.7,584.7 L514.8,585.7 L515.9,586.6 L517.1,587.6 L518.2,588.6
		L519.3,589.5 L520.5,590.5 L521.6,591.4 L522.7,592.4 L523.9,593.3 L525.0,594.2 L526.1,595.1 L527.3,596.0
		L528.4,596.9 L529.5,597.8 L530.7,598.7 L531.8,599.6 L532.9,600.4 L534.1,601.3 L535.2,602.2 L536.3,603.0
		L537.5,603.9 L538.6,604.7 L539.7,605.5 L540.9,606.3 L542.0,607.2 L543.1,608.0 L544.3,608.8 L545.4,609.6
		L546.5,610.3 L547.7,611.1 L548.8,611.9 L549.9,612.7 L551.1,613.4 L552.2,614.2 L553.3,614.9 L554.5,615.6
		L555.6,616.4 L556.7,617.1 L557.9,617.8 L559.0,618.5 L560.1,619.2 L561.3,619.9 L562.4,620.6 L563.5,621.3
		L564.7,621.9 L565.8,622.6 L566.9,623.3 L568.1,623.9 L569.2,624.6 L570.3,625.2 L571.5,625.8 L572.6,626.5
		L573.7,627.1 L574.9,627.7 L576.0,628.3 L577.1,628.9 L578.3,629.5 L579.4,630.1 L580.6,630.6 L581.7,631.2
		L582.8,631.8 L584.0,632.3 L585.1,632.9 L586.2,633.4 L587.4,633.9 L588.5,634.5 L589.6,635.0 L590.8,635.5
		L591.9,636.0 L593.0,636.5 L594.2,637.0 L595.3,637.5 L596.4,637.9 L597.6,638.4 L598.7,638.9 L599.8,639.3
		L601.0,639.8 L602.1,640.2 L603.2,640.7 L604.4,641.1 L605.5,641.5 L606.6,641.9 L607.8,642.3 L608.9,642.7
		L610.0,643.1 L611.2,643.5 L612.3,643.9 L613.4,644.3 L614.6,644.6 L615.7,645.0 L616.8,645.3 L618.0,645.7
		L619.1,646.0 L620.2,646.4 L621.4,646.7 L622.5,647.0 L623.6,647.3 L624.8,647.6 L625.9,647.9 L627.0,648.2
		L628.2,648.5 L629.3,648.8 L630.4,649.0 L631.6,649.3 L632.7,649.5 L633.8,649.8 L635.0,650.0 L636.1,650.3
		L637.2,650.5 L638.4,650.7 L639.5,650.9 L640.6,651.1 L641.8,651.3 L642.9,651.5 L644.0,651.7 L645.2,651.9
		L646.3,652.1 L647.4,652.2 L648.6,652.4 L649.7,652.6 L650.8,652.7 L652.0,652.8 L653.1,653.0 L654.2,653.1
		L655.4,653.2 L656.5,653.3 L657.6,653.4 L658.8,653.5 L659.9,653.6 L661.0,653.7 L662.2,653.8 L663.3,653.9
		L664.4,653.9 L665.6,654.0 L666.7,654.0 L667.8,654.1 L669.0,654.1 L670.1,654.2 L671.2,654.2 L672.4,654.2
		L673.5,654.2 L674.6,654.2 L675.8,654.2 L676.9,654.2 L678.0,654.2 L679.2,654.1 L680.3,654.1 L681.4,654.1
		L682.6,654.0 L683.7,654.0 L684.8,653.9 L686.0,653.9 L687.1,653.8 L688.2,653.7 L689.4,653.6 L690.5,653.5
		L691.6,653.4 L692.8,653.3 L693.9,653.2 L695.0,653.1 L696.2,653.0 L697.3,652.8 L698.4,652.7 L699.6,652.5
		L700.7,652.4 L701.8,652.2 L703.0,652.1 L704.1,651.9 L705.2,651.7 L706.4,651.5 L707.5,651.3 L708.6,651.1
		L709.8,650.9 L710.9,650.7 L712.0,650.5 L713.2,650.2 L714.3,650.0 L715.4,649.8 L716.6,649.5 L717.7,649.3
		L718.8,649.0 L720.0,648.7 L721.1,648.4 L722.2,648.2 L723.4,647.9 L724.5,647.6 L725.6,647.3 L726.8,647.0
		L727.9,646.6 L729.0,646.3 L730.2,646.0 L731.3,645.6 L732.4,645.3 L733.6,644.9 L734.7,644.6 L735.8,644.2
		L737.0,643.8 L738.1,643.5 L739.2,643.1 L740.4,642.7 L741.5,642.3 L742.6,641.9 L743.8,641.4 L744.9,641.0
		L746.0,640.6 L747.2,640.2 L748.3,639.7 L749.4,639.3 L750.6,638.8 L751.7,638.3 L752.8,637.9 L754.0,637.4
		L755.1,636.9 L756.2,636.4 L757.4,635.9 L758.5,635.4 L759.6,634.9 L760.8,634.4 L761.9,633.8 L763.0,633.3
		L764.2,632.8 L765.3,632.2 L766.4,631.7 L767.6,631.1 L768.7,630.5 L769.8,630.0 L771.0,629.4 L772.1,628.8
		L773.3,628.2 L774.4,627.6 L775.5,627.0 L776.7,626.4 L777.8,625.7 L778.9,625.1 L780.1,624.5 L781.2,623.8
		L782.3,623.2 L783.5,622.5 L784.6,621.8 L785.7,621.2 L786.9,620.5 L788.0,619.8 L789.1,619.1 L790.3,618.4
		L791.4,617.7 L792.5,617.0 L793.7,616.2 L794.8,615.5 L795.9,614.8 L797.1,614.0 L798.2,613.3 L799.3,612.5
		L800.5,611.7 L801.6,611.0 L802.7,610.2 L803.9,609.4 L805.0,608.6 L806.1,607.8 L807.3,607.0 L808.4,606.2
		L809.5,605.4 L810.7,604.5 L811.8,603.7 L812.9,602.8 L814.1,602.0 L815.2,601.1 L816.3,600.3 L817.5,599.4
		L818.6,598.5 L819.7,597.6 L820.9,596.7 L822.0,595.8 L823.1,594.9 L824.3,594.0 L825.4,593.1 L826.5,592.2
		L827.7,591.2 L828.8,590.3 L829.9,589.3 L831.1,588.4 L832.2,587.4 L833.3,586.4 L834.5,585.4 L835.6,584.5
		L836.7,583.5 L837.9,582.5 L839.0,581.4 L840.1,580.4 L841.3,579.4 L842.4,578.4 L843.5,577.3 L844.7,576.3
		L845.8,575.2 L846.9,574.2 L848.1,573.1 L849.2,572.0 L850.3,571.0 L851.5,569.9 L852.6,568.8 L853.7,567.7
		L854.9,566.6 L856.0,565.5 L857.1,564.3 L858.3,563.2 L859.4,562.1 L860.5,560.9 L861.7,559.8 L862.8,558.6
		L863.9,557.4 L865.1,556.3 L866.2,555.1 L867.3,553.9 L868.5,552.7 L869.6,551.5 L870.7,550.3 L871.9,549.1
		L873.0,547.9 L874.1,546.6 L875.3,545.4 L876.4,544.2 L877.5,542.9 L878.7,541.6 L879.8,540.4 L880.9,539.1
		L882.1,537.8 L883.2,536.5 L884.3,535.3 L885.5,534.0 L886.6,532.6 L887.7,531.3 L888.9,530.0 L890.0,528.7
		L891.1,527.4 L892.3,526.0 L893.4,524.7 L894.5,523.3 L895.7,521.9 L896.8,520.6 L897.9,519.2 L899.1,517.8
		L900.2,516.4 L901.3,515.0 L902.5,513.6 L903.6,512.2 L904.7,510.8 L905.9,509.4 L907.0,508.0 L908.1,506.5
		L909.3,505.1 L910.4,503.6 L911.5,502.2 L912.7,500.7 L913.8,499.2 L914.9,497.8 L916.1,496.3 L917.2,494.8
		L918.3,493.3 L919.5,491.8 L920.6,490.3 L921.7,488.8 L922.9,487.2 L924.0,485.7 L925.1,484.2 L926.3,482.6
		L927.4,481.1 L928.5,479.5 L929.7,478.0 L930.8,476.4 L931.9,474.8 L933.1,473.3 L934.2,471.7 L935.3,470.1
		L936.5,468.5 L937.6,466.9 L938.7,465.3 L939.9,463.7 L941.0,462.0 L942.1,460.4 L943.3,458.8 L944.4,457.1
		L945.5,455.5 L946.7,453.8 L947.8,452.2 L948.9,450.5 L950.1,448.9 L951.2,447.2 L952.3,445.5 L953.5,443.8
		L954.6,442.1 L955.7,440.4 L956.9,438.7 L958.0,437.0 L959.1,435.3 L960.3,433.6 L961.4,431.9 L962.5,430.1
		L963.7,428.4 L964.8,426.7 L966.0,424.9 L967.1,423.2 L968.2,421.4 L969.4,419.6 L970.5,417.9 L971.6,416.1
		L972.8,414.3 L973.9,412.6 L975.0,410.8 L976.2,409.0 L977.3,407.2 L978.4,405.4 L979.6,403.6 L980.7,401.8
		L981.8,400.0 L983.0,398.1 L984.1,396.3 L985.2,394.5 L986.4,392.7 L987.5,390.8 L988.6,389.0 L989.8,387.1
		L990.9,385.3 L992.0,383.4 L993.2,381.6 L994.3,379.7 L995.4,377.9 L996.6,376.0 L997.7,374.1 L998.8,372.3
		L1000.0,370.4 L1001.1,368.5 L1002.2,366.6 L1003.4,364.7 L1004.5,362.8 L1005.6,360.9 L1006.8,359.0 L1007.9,357.1
		L1009.0,355.2 L1010.2,353.3 L1011.3,351.4 L1012.4,349.5 L1013.6,347.6 L1014.7,345.7 L1015.8,343.8 L1017.0,341.8
		L1018.1,339.9 L1019.2,338.0 L1020.4,336.1 L1021.5,334.1 L1022.6,332.2 L1023.8,330.3 L1024.9,328.3 L1026.0,326.4
		L1027.2,324.4 L1028.3,322.5 L1029.4,320.6 L1030.6,318.6 L1031.7,316.7 L1032.8,314.7 L1034.0,312.8 L1035.1,310.8
		L1036.2,308.9 L1037.4,306.9 L1038.5,305.0 L1039.6,303.0 L1040.8,301.1 L1041.9,299.1 L1043.0,297.1 L1044.2,295.2
		L1045.3,293.2 L1046.4,291.3 L1047.6,289.3 L1048.7,287.4 L1049.8,285.4 L1051.0,283.5 L1052.1,281.5 L1053.2,279.5
		L1054.4,277.6 L1055.5,275.6 L1056.6,273.7 L1057.8,271.7 L1058.9,269.8 L1060.0,267.8 L1061.2,265.9 L1062.3,263.9
		L1063.4,262.0 L1064.6,260.0 L1065.7,258.1 L1066.8,256.2 L1068.0,254.2 L1069.1,252.3 L1070.2,250.4 L1071.4,248.4
		L1072.5,246.5 L1073.6,244.6 L1074.8,242.6 L1075.9,240.7 L1077.0,238.8 L1078.2,236.9 L1079.3,235.0 L1080.4,233.1
		L1081.6,231.1 L1082.7,229.2 L1083.8,227.3 L1085.0,225.4 L1086.1,223.6 L1087.2,221.7 L1088.4,219.8 L1089.5,217.9
		L1090.6,216.0 L1091.8,214.1 L1092.9,212.3 L1094.0,210.4 L1095.2,208.6 L1096.3,206.7 L1097.4,204.9 L1098.6,203.0
		L1099.7,201.2 L1100.8,199.3 L1102.0,197.5 L1103.1,195.7 L1104.2,193.9 L1105.4,192.1 L1106.5,190.3 L1107.6,188.5
		L1108.8,186.7 L1109.9,184.9 L1111.0,183.1 L1112.2,181.4 L1113.3,179.6 L1114.4,177.8 L1115.6,176.1 L1116.7,174.3
		L1117.8,172.6 L1119.0,170.9 L1120.1,169.2 L1121.2,167.5 L1122.4,165.7 L1123.5,164.1 L1124.6,162.4 L1125.8,160.7
		L1126.9,159.0 L1128.0,157.4 L1129.2,155.7 L1130.3,154.1 L1131.4,152.4 L1132.6,150.8 L1133.7,149.2 L1134.8,147.6
		L1136.0,146.0 L1137.1,144.4 L1138.2,142.8 L1139.4,141.2 L1140.5,139.7 L1141.6,138.1 L1142.8,136.6 L1143.9,135.1
		L1145.0,133.5 L1146.2,132.0 L1147.3,130.5 L1148.4,129.1 L1149.6,127.6 L1150.7,126.1 L1151.8,124.7 L1153.0,123.2
		L1154.1,121.8 L1155.2,120.4 L1156.4,119.0 L1157.5,117.6 L1158.7,116.2 L1159.8,114.8 L1160.9,113.5 L1162.1,112.2
		L1163.2,110.8 L1164.3,109.5 L1165.5,108.2 L1166.6,106.9 L1167.7,105.6 L1168.9,104.4 L1170.0,103.1 L1171.1,101.9
		L1172.3,100.6 L1173.4,99.4 L1174.5,98.2 L1175.7,97.1 L1176.8,95.9 L1177.9,94.7 L1179.1,93.6 L1180.2,92.5
		L1181.3,91.4 L1182.5,90.3 L1183.6,89.2 L1184.7,88.1 L1185.9,87.0 L1187.0,86.0 L1188.1,85.0 L1189.3,84.0
		L1190.4,83.0 L1191.5,82.0 L1192.7,81.0 L1193.8,80.1 L1194.9,79.2 L1196.1,78.3 L1197.2,77.4 L1198.3,76.5
		L1199.5,75.6 L1200.6,74.8 L1201.7,73.9 L1202.9,73.1 L1204.0,72.3 L1205.1,71.5 L1206.3,70.7 L1207.4,70.0
		L1208.5,69.2 L1209.7,68.5 L1210.8,67.8 L1211.9,67.1 L1213.1,66.5 L1214.2,65.8 L1215.3,65.2 L1216.5,64.6
		L1217.6,64.0 L1218.7,63.4 L1219.9,62.8 L1221.0,62.3 L1222.1,61.7 L1223.3,61.2 L1224.4,60.7 L1225.5,60.2
		L1226.7,59.8 L1227.8,59.3 L1228.9,58.9 L1230.1,58.5 L1231.2,58.1 L1232.3,57.7 L1233.5,57.4 L1234.6,57.1
		L1235.7,56.7 L1236.9,56.4 L1238.0,56.2 L1239.1,55.9 L1240.3,55.6 L1241.4,55.4 L1242.5,55.2 L1243.7,55.0
		L1244.8,54.8 L1245.9,54.7 L1247.1,54.5 L1248.2,54.4 L1249.3,54.3 L1250.5,54.2 L1251.6,54.2 L1252.7,54.1
		L1253.9,54.1 L1255.0,54.1  '/></g>
	</g>
	<g id="gnuplot_plot_3" ><title>4 (both)</title>
<g fill="none" color="black" stroke="currentColor" stroke-width="1.00" stroke-linecap="butt" stroke-linejoin="miter">
	<g transform="translate(1187.9,112.0)" stroke="none" fill="black" font-family="Arial" font-size="12.00"  text-anchor="end">
		<text><tspan font-family="Arial" >4 (both)</tspan></text>
	</g>
</g>
<g fill="none" color="black" stroke="currentColor" stroke-width="1.00" stroke-linecap="butt" stroke-linejoin="miter">
	<path stroke='rgb( 86, 180, 233)'  d='M1196.2,108.1 L1238.4,108.1 M95.4,97.5 L96.5,97.5 L97.7,97.6 L98.8,97.6 L99.9,97.6 L101.1,97.7
		L102.2,97.7 L103.3,97.8 L104.5,97.9 L105.6,98.0 L106.7,98.1 L107.9,98.2 L109.0,98.3 L110.1,98.5
		L111.3,98.6 L112.4,98.8 L113.5,99.0 L114.7,99.2 L115.8,99.4 L116.9,99.6 L118.1,99.8 L119.2,100.0
		L120.3,100.2 L121.5,100.5 L122.6,100.8 L123.7,101.0 L124.9,101.3 L126.0,101.6 L127.1,101.9 L128.3,102.2
		L129.4,102.6 L130.5,102.9 L131.7,103.3 L132.8,103.6 L133.9,104.0 L135.1,104.4 L136.2,104.8 L137.3,105.2
		L138.5,105.6 L139.6,106.0 L140.7,106.5 L141.9,106.9 L143.0,107.4 L144.1,107.9 L145.3,108.3 L146.4,108.8
		L147.5,109.3 L148.7,109.9 L149.8,110.4 L150.9,110.9 L152.1,111.5 L153.2,112.0 L154.3,112.6 L155.5,113.2
		L156.6,113.8 L157.7,114.4 L158.9,115.0 L160.0,115.6 L161.1,116.2 L162.3,116.9 L163.4,117.5 L164.5,118.2
		L165.7,118.9 L166.8,119.5 L167.9,120.2 L169.1,120.9 L170.2,121.7 L171.3,122.4 L172.5,123.1 L173.6,123.9
		L174.7,124.6 L175.9,125.4 L177.0,126.2 L178.1,127.0 L179.3,127.7 L180.4,128.6 L181.5,129.4 L182.7,130.2
		L183.8,131.0 L184.9,131.9 L186.1,132.7 L187.2,133.6 L188.3,134.5 L189.5,135.4 L190.6,136.3 L191.7,137.2
		L192.9,138.1 L194.0,139.0 L195.2,139.9 L196.3,140.9 L197.4,141.8 L198.6,142.8 L199.7,143.8 L200.8,144.8
		L202.0,145.7 L203.1,146.7 L204.2,147.8 L205.4,148.8 L206.5,149.8 L207.6,150.8 L208.8,151.9 L209.9,152.9
		L211.0,154.0 L212.2,155.1 L213.3,156.2 L214.4,157.2 L215.6,158.3 L216.7,159.5 L217.8,160.6 L219.0,161.7
		L220.1,162.8 L221.2,164.0 L222.4,165.1 L223.5,166.3 L224.6,167.5 L225.8,168.6 L226.9,169.8 L228.0,171.0
		L229.2,172.2 L230.3,173.4 L231.4,174.6 L232.6,175.9 L233.7,177.1 L234.8,178.3 L236.0,179.6 L237.1,180.9
		L238.2,182.1 L239.4,183.4 L240.5,184.7 L241.6,186.0 L242.8,187.3 L243.9,188.6 L245.0,189.9 L246.2,191.2
		L247.3,192.5 L248.4,193.9 L249.6,195.2 L250.7,196.6 L251.8,197.9 L253.0,199.3 L254.1,200.7 L255.2,202.0
		L256.4,203.4 L257.5,204.8 L258.6,206.2 L259.8,207.6 L260.9,209.0 L262.0,210.5 L263.2,211.9 L264.3,213.3
		L265.4,214.8 L266.6,216.2 L267.7,217.7 L268.8,219.1 L270.0,220.6 L271.1,222.1 L272.2,223.6 L273.4,225.0
		L274.5,226.5 L275.6,228.0 L276.8,229.5 L277.9,231.0 L279.0,232.6 L280.2,234.1 L281.3,235.6 L282.4,237.2
		L283.6,238.7 L284.7,240.2 L285.8,241.8 L287.0,243.3 L288.1,244.9 L289.2,246.5 L290.4,248.0 L291.5,249.6
		L292.6,251.2 L293.8,252.8 L294.9,254.4 L296.0,256.0 L297.2,257.6 L298.3,259.2 L299.4,260.8 L300.6,262.4
		L301.7,264.1 L302.8,265.7 L304.0,267.3 L305.1,269.0 L306.2,270.6 L307.4,272.2 L308.5,273.9 L309.6,275.5
		L310.8,277.2 L311.9,278.9 L313.0,280.5 L314.2,282.2 L315.3,283.9 L316.4,285.6 L317.6,287.2 L318.7,288.9
		L319.8,290.6 L321.0,292.3 L322.1,294.0 L323.2,295.7 L324.4,297.4 L325.5,299.1 L326.6,300.8 L327.8,302.5
		L328.9,304.3 L330.0,306.0 L331.2,307.7 L332.3,309.4 L333.4,311.2 L334.6,312.9 L335.7,314.6 L336.8,316.4
		L338.0,318.1 L339.1,319.9 L340.2,321.6 L341.4,323.4 L342.5,325.1 L343.6,326.9 L344.8,328.6 L345.9,330.4
		L347.0,332.1 L348.2,333.9 L349.3,335.7 L350.4,337.4 L351.6,339.2 L352.7,341.0 L353.8,342.7 L355.0,344.5
		L356.1,346.3 L357.2,348.1 L358.4,349.8 L359.5,351.6 L360.6,353.4 L361.8,355.2 L362.9,357.0 L364.0,358.7
		L365.2,360.5 L366.3,362.3 L367.4,364.1 L368.6,365.9 L369.7,367.7 L370.8,369.5 L372.0,371.3 L373.1,373.0
		L374.2,374.8 L375.4,376.6 L376.5,378.4 L377.6,380.2 L378.8,382.0 L379.9,383.8 L381.0,385.6 L382.2,387.4
		L383.3,389.2 L384.4,391.0 L385.6,392.8 L386.7,394.6 L387.9,396.4 L389.0,398.1 L390.1,399.9 L391.3,401.7
		L392.4,403.5 L393.5,405.3 L394.7,407.1 L395.8,408.9 L396.9,410.7 L398.1,412.5 L399.2,414.3 L400.3,416.0
		L401.5,417.8 L402.6,419.6 L403.7,421.4 L404.9,423.2 L406.0,424.9 L407.1,426.7 L408.3,428.5 L409.4,430.3
		L410.5,432.0 L411.7,433.8 L412.8,435.6 L413.9,437.4 L415.1,439.1 L416.2,440.9 L417.3,442.7 L418.5,444.4
		L419.6,446.2 L420.7,447.9 L421.9,449.7 L423.0,451.4 L424.1,453.2 L425.3,454.9 L426.4,456.7 L427.5,458.4
		L428.7,460.2 L429.8,461.9 L430.9,463.6 L432.1,465.4 L433.2,467.1 L434.3,468.8 L435.5,470.5 L436.6,472.2
		L437.7,474.0 L438.9,475.7 L440.0,477.4 L441.1,479.1 L442.3,480.8 L443.4,482.5 L444.5,484.2 L445.7,485.9
		L446.8,487.6 L447.9,489.3 L449.1,490.9 L450.2,492.6 L451.3,494.3 L452.5,496.0 L453.6,497.6 L454.7,499.3
		L455.9,500.9 L457.0,502.6 L458.1,504.2 L459.3,505.9 L460.4,507.5 L461.5,509.2 L462.7,510.8 L463.8,512.4
		L464.9,514.0 L466.1,515.7 L467.2,517.3 L468.3,518.9 L469.5,520.5 L470.6,522.1 L471.7,523.7 L472.9,525.3
		L474.0,526.8 L475.1,528.4 L476.3,530.0 L477.4,531.6 L478.5,533.1 L479.7,534.7 L480.8,536.2 L481.9,537.8
		L483.1,539.3 L484.2,540.9 L485.3,542.4 L486.5,543.9 L487.6,545.4 L488.7,546.9 L489.9,548.5 L491.0,550.0
		L492.1,551.4 L493.3,552.9 L494.4,554.4 L495.5,555.9 L496.7,557.4 L497.8,558.8 L498.9,560.3 L500.1,561.7
		L501.2,563.2 L502.3,564.6 L503.5,566.1 L504.6,567.5 L505.7,568.9 L506.9,570.3 L508.0,571.7 L509.1,573.1
		L510.3,574.5 L511.4,575.9 L512.5,577.3 L513.7,578.6 L514.8,580.0 L515.9,581.4 L517.1,582.7 L518.2,584.1
		L519.3,585.4 L520.5,586.7 L521.6,588.0 L522.7,589.4 L523.9,590.7 L525.0,592.0 L526.1,593.3 L527.3,594.5
		L528.4,595.8 L529.5,597.1 L530.7,598.3 L531.8,599.6 L532.9,600.8 L534.1,602.1 L535.2,603.3 L536.3,604.5
		L537.5,605.8 L538.6,607.0 L539.7,608.2 L540.9,609.3 L542.0,610.5 L543.1,611.7 L544.3,612.9 L545.4,614.0
		L546.5,615.2 L547.7,616.3 L548.8,617.5 L549.9,618.6 L551.1,619.7 L552.2,620.8 L553.3,621.9 L554.5,623.0
		L555.6,624.1 L556.7,625.1 L557.9,626.2 L559.0,627.3 L560.1,628.3 L561.3,629.3 L562.4,630.4 L563.5,631.4
		L564.7,632.4 L565.8,633.4 L566.9,634.4 L568.1,635.4 L569.2,636.4 L570.3,637.3 L571.5,638.3 L572.6,639.2
		L573.7,640.2 L574.9,641.1 L576.0,642.0 L577.1,642.9 L578.3,643.8 L579.4,644.7 L580.6,645.6 L581.7,646.5
		L582.8,647.4 L584.0,648.2 L585.1,649.1 L586.2,649.9 L587.4,650.7 L588.5,651.5 L589.6,652.3 L590.8,653.1
		L591.9,653.9 L593.0,654.7 L594.2,655.5 L595.3,656.2 L596.4,657.0 L597.6,657.7 L598.7,658.4 L599.8,659.2
		L601.0,659.9 L602.1,660.6 L603.2,661.3 L604.4,661.9 L605.5,662.6 L606.6,663.3 L607.8,663.9 L608.9,664.5
		L610.0,665.2 L611.2,665.8 L612.3,666.4 L613.4,667.0 L614.6,667.6 L615.7,668.2 L616.8,668.7 L618.0,669.3
		L619.1,669.8 L620.2,670.4 L621.4,670.9 L622.5,671.4 L623.6,671.9 L624.8,672.4 L625.9,672.9 L627.0,673.4
		L628.2,673.8 L629.3,674.3 L630.4,674.7 L631.6,675.2 L632.7,675.6 L633.8,676.0 L635.0,676.4 L636.1,676.8
		L637.2,677.2 L638.4,677.5 L639.5,677.9 L640.6,678.2 L641.8,678.6 L642.9,678.9 L644.0,679.2 L645.2,679.5
		L646.3,679.8 L647.4,680.1 L648.6,680.3 L649.7,680.6 L650.8,680.9 L652.0,681.1 L653.1,681.3 L654.2,681.5
		L655.4,681.7 L656.5,681.9 L657.6,682.1 L658.8,682.3 L659.9,682.5 L661.0,682.6 L662.2,682.8 L663.3,682.9
		L664.4,683.0 L665.6,683.1 L666.7,683.2 L667.8,683.3 L669.0,683.4 L670.1,683.4 L671.2,683.5 L672.4,683.5
		L673.5,683.6 L674.6,683.6 L675.8,683.6 L676.9,683.6 L678.0,683.6 L679.2,683.6 L680.3,683.5 L681.4,683.5
		L682.6,683.4 L683.7,683.4 L684.8,683.3 L686.0,683.2 L687.1,683.1 L688.2,683.0 L689.4,682.9 L690.5,682.8
		L691.6,682.6 L692.8,682.5 L693.9,682.3 L695.0,682.1 L696.2,681.9 L697.3,681.7 L698.4,681.5 L699.6,681.3
		L700.7,681.1 L701.8,680.8 L703.0,680.6 L704.1,680.3 L705.2,680.1 L706.4,679.8 L707.5,679.5 L708.6,679.2
		L709.8,678.9 L710.9,678.5 L712.0,678.2 L713.2,677.8 L714.3,677.5 L715.4,677.1 L716.6,676.7 L717.7,676.3
		L718.8,675.9 L720.0,675.5 L721.1,675.1 L722.2,674.7 L723.4,674.2 L724.5,673.8 L725.6,673.3 L726.8,672.8
		L727.9,672.3 L729.0,671.8 L730.2,671.3 L731.3,670.8 L732.4,670.3 L733.6,669.7 L734.7,669.2 L735.8,668.6
		L737.0,668.0 L738.1,667.5 L739.2,666.9 L740.4,666.3 L741.5,665.6 L742.6,665.0 L743.8,664.4 L744.9,663.7
		L746.0,663.1 L747.2,662.4 L748.3,661.7 L749.4,661.0 L750.6,660.3 L751.7,659.6 L752.8,658.9 L754.0,658.2
		L755.1,657.5 L756.2,656.7 L757.4,655.9 L758.5,655.2 L759.6,654.4 L760.8,653.6 L761.9,652.8 L763.0,652.0
		L764.2,651.2 L765.3,650.4 L766.4,649.5 L767.6,648.7 L768.7,647.8 L769.8,646.9 L771.0,646.1 L772.1,645.2
		L773.3,644.3 L774.4,643.4 L775.5,642.5 L776.7,641.5 L777.8,640.6 L778.9,639.7 L780.1,638.7 L781.2,637.7
		L782.3,636.8 L783.5,635.8 L784.6,634.8 L785.7,633.8 L786.9,632.8 L788.0,631.8 L789.1,630.7 L790.3,629.7
		L791.4,628.6 L792.5,627.6 L793.7,626.5 L794.8,625.4 L795.9,624.4 L797.1,623.3 L798.2,622.2 L799.3,621.1
		L800.5,619.9 L801.6,618.8 L802.7,617.7 L803.9,616.5 L805.0,615.4 L806.1,614.2 L807.3,613.0 L808.4,611.9
		L809.5,610.7 L810.7,609.5 L811.8,608.3 L812.9,607.0 L814.1,605.8 L815.2,604.6 L816.3,603.4 L817.5,602.1
		L818.6,600.9 L819.7,599.6 L820.9,598.3 L822.0,597.0 L823.1,595.8 L824.3,594.5 L825.4,593.2 L826.5,591.8
		L827.7,590.5 L828.8,589.2 L829.9,587.9 L831.1,586.5 L832.2,585.2 L833.3,583.8 L834.5,582.5 L835.6,581.1
		L836.7,579.7 L837.9,578.3 L839.0,576.9 L840.1,575.5 L841.3,574.1 L842.4,572.7 L843.5,571.3 L844.7,569.8
		L845.8,568.4 L846.9,567.0 L848.1,565.5 L849.2,564.1 L850.3,562.6 L851.5,561.1 L852.6,559.7 L853.7,558.2
		L854.9,556.7 L856.0,555.2 L857.1,553.7 L858.3,552.2 L859.4,550.7 L860.5,549.1 L861.7,547.6 L862.8,546.1
		L863.9,544.5 L865.1,543.0 L866.2,541.4 L867.3,539.9 L868.5,538.3 L869.6,536.8 L870.7,535.2 L871.9,533.6
		L873.0,532.0 L874.1,530.4 L875.3,528.8 L876.4,527.2 L877.5,525.6 L878.7,524.0 L879.8,522.4 L880.9,520.8
		L882.1,519.1 L883.2,517.5 L884.3,515.9 L885.5,514.2 L886.6,512.6 L887.7,510.9 L888.9,509.3 L890.0,507.6
		L891.1,506.0 L892.3,504.3 L893.4,502.6 L894.5,500.9 L895.7,499.3 L896.8,497.6 L897.9,495.9 L899.1,494.2
		L900.2,492.5 L901.3,490.8 L902.5,489.1 L903.6,487.4 L904.7,485.6 L905.9,483.9 L907.0,482.2 L908.1,480.5
		L909.3,478.8 L910.4,477.0 L911.5,475.3 L912.7,473.5 L913.8,471.8 L914.9,470.1 L916.1,468.3 L917.2,466.6
		L918.3,464.8 L919.5,463.1 L920.6,461.3 L921.7,459.5 L922.9,457.8 L924.0,456.0 L925.1,454.2 L926.3,452.5
		L927.4,450.7 L928.5,448.9 L929.7,447.1 L930.8,445.3 L931.9,443.6 L933.1,441.8 L934.2,440.0 L935.3,438.2
		L936.5,436.4 L937.6,434.6 L938.7,432.8 L939.9,431.0 L941.0,429.2 L942.1,427.4 L943.3,425.6 L944.4,423.8
		L945.5,422.0 L946.7,420.2 L947.8,418.4 L948.9,416.6 L950.1,414.8 L951.2,413.0 L952.3,411.2 L953.5,409.4
		L954.6,407.6 L955.7,405.8 L956.9,404.0 L958.0,402.2 L959.1,400.3 L960.3,398.5 L961.4,396.7 L962.5,394.9
		L963.7,393.1 L964.8,391.3 L966.0,389.5 L967.1,387.7 L968.2,385.9 L969.4,384.1 L970.5,382.2 L971.6,380.4
		L972.8,378.6 L973.9,376.8 L975.0,375.0 L976.2,373.2 L977.3,371.4 L978.4,369.6 L979.6,367.8 L980.7,366.0
		L981.8,364.2 L983.0,362.4 L984.1,360.6 L985.2,358.8 L986.4,357.0 L987.5,355.2 L988.6,353.4 L989.8,351.6
		L990.9,349.8 L992.0,348.0 L993.2,346.2 L994.3,344.5 L995.4,342.7 L996.6,340.9 L997.7,339.1 L998.8,337.3
		L1000.0,335.6 L1001.1,333.8 L1002.2,332.0 L1003.4,330.3 L1004.5,328.5 L1005.6,326.7 L1006.8,325.0 L1007.9,323.2
		L1009.0,321.5 L1010.2,319.7 L1011.3,318.0 L1012.4,316.2 L1013.6,314.5 L1014.7,312.7 L1015.8,311.0 L1017.0,309.3
		L1018.1,307.5 L1019.2,305.8 L1020.4,304.1 L1021.5,302.4 L1022.6,300.7 L1023.8,299.0 L1024.9,297.3 L1026.0,295.6
		L1027.2,293.9 L1028.3,292.2 L1029.4,290.5 L1030.6,288.8 L1031.7,287.1 L1032.8,285.4 L1034.0,283.7 L1035.1,282.1
		L1036.2,280.4 L1037.4,278.7 L1038.5,277.1 L1039.6,275.4 L1040.8,273.8 L1041.9,272.2 L1043.0,270.5 L1044.2,268.9
		L1045.3,267.3 L1046.4,265.6 L1047.6,264.0 L1048.7,262.4 L1049.8,260.8 L1051.0,259.2 L1052.1,257.6 L1053.2,256.0
		L1054.4,254.4 L1055.5,252.8 L1056.6,251.3 L1057.8,249.7 L1058.9,248.1 L1060.0,246.6 L1061.2,245.0 L1062.3,243.5
		L1063.4,241.9 L1064.6,240.4 L1065.7,238.9 L1066.8,237.3 L1068.0,235.8 L1069.1,234.3 L1070.2,232.8 L1071.4,231.3
		L1072.5,229.8 L1073.6,228.3 L1074.8,226.9 L1075.9,225.4 L1077.0,223.9 L1078.2,222.5 L1079.3,221.0 L1080.4,219.6
		L1081.6,218.1 L1082.7,216.7 L1083.8,215.3 L1085.0,213.8 L1086.1,212.4 L1087.2,211.0 L1088.4,209.6 L1089.5,208.2
		L1090.6,206.9 L1091.8,205.5 L1092.9,204.1 L1094.0,202.8 L1095.2,201.4 L1096.3,200.1 L1097.4,198.7 L1098.6,197.4
		L1099.7,196.1 L1100.8,194.7 L1102.0,193.4 L1103.1,192.1 L1104.2,190.8 L1105.4,189.6 L1106.5,188.3 L1107.6,187.0
		L1108.8,185.7 L1109.9,184.5 L1111.0,183.2 L1112.2,182.0 L1113.3,180.8 L1114.4,179.6 L1115.6,178.3 L1116.7,177.1
		L1117.8,175.9 L1119.0,174.8 L1120.1,173.6 L1121.2,172.4 L1122.4,171.2 L1123.5,170.1 L1124.6,168.9 L1125.8,167.8
		L1126.9,166.7 L1128.0,165.5 L1129.2,164.4 L1130.3,163.3 L1131.4,162.2 L1132.6,161.1 L1133.7,160.1 L1134.8,159.0
		L1136.0,157.9 L1137.1,156.9 L1138.2,155.8 L1139.4,154.8 L1140.5,153.8 L1141.6,152.8 L1142.8,151.8 L1143.9,150.8
		L1145.0,149.8 L1146.2,148.8 L1147.3,147.8 L1148.4,146.9 L1149.6,145.9 L1150.7,145.0 L1151.8,144.1 L1153.0,143.1
		L1154.1,142.2 L1155.2,141.3 L1156.4,140.4 L1157.5,139.5 L1158.7,138.7 L1159.8,137.8 L1160.9,136.9 L1162.1,136.1
		L1163.2,135.2 L1164.3,134.4 L1165.5,133.6 L1166.6,132.8 L1167.7,132.0 L1168.9,131.2 L1170.0,130.4 L1171.1,129.7
		L1172.3,128.9 L1173.4,128.1 L1174.5,127.4 L1175.7,126.7 L1176.8,125.9 L1177.9,125.2 L1179.1,124.5 L1180.2,123.8
		L1181.3,123.2 L1182.5,122.5 L1183.6,121.8 L1184.7,121.2 L1185.9,120.5 L1187.0,119.9 L1188.1,119.3 L1189.3,118.7
		L1190.4,118.1 L1191.5,117.5 L1192.7,116.9 L1193.8,116.3 L1194.9,115.8 L1196.1,115.2 L1197.2,114.7 L1198.3,114.2
		L1199.5,113.6 L1200.6,113.1 L1201.7,112.6 L1202.9,112.1 L1204.0,111.7 L1205.1,111.2 L1206.3,110.7 L1207.4,110.3
		L1208.5,109.8 L1209.7,109.4 L1210.8,109.0 L1211.9,108.6 L1213.1,108.2 L1214.2,107.8 L1215.3,107.4 L1216.5,107.1
		L1217.6,106.7 L1218.7,106.4 L1219.9,106.0 L1221.0,105.7 L1222.1,105.4 L1223.3,105.1 L1224.4,104.8 L1225.5,104.5
		L1226.7,104.3 L1227.8,104.0 L1228.9,103.8 L1230.1,103.5 L1231.2,103.3 L1232.3,103.1 L1233.5,102.9 L1234.6,102.7
		L1235.7,102.5 L1236.9,102.3 L1238.0,102.2 L1239.1,102.0 L1240.3,101.9 L1241.4,101.7 L1242.5,101.6 L1243.7,101.5
		L1244.8,101.4 L1245.9,101.3 L1247.1,101.2 L1248.2,101.1 L1249.3,101.1 L1250.5,101.0 L1251.6,101.0 L1252.7,101.0
		L1253.9,101.0 L1255.0,101.0  '/></g>
	</g>
	<g id="gnuplot_plot_4" ><title>8 (both)</title>
<g fill="none" color="black" stroke="currentColor" stroke-width="1.00" stroke-linecap="butt" stroke-linejoin="miter">
	<g transform="translate(1187.9,130.0)" stroke="none" fill="black" font-family="Arial" font-size="12.00"  text-anchor="end">
		<text><tspan font-family="Arial" >8 (both)</tspan></text>
	</g>
</g>
<g fill="none" color="black" stroke="currentColor" stroke-width="1.00" stroke-linecap="butt" stroke-linejoin="miter">
	<path stroke='rgb(230, 159,   0)'  d='M1196.2,126.1 L1238.4,126.1 M95.4,98.3 L96.5,98.3 L97.7,98.3 L98.8,98.3 L99.9,98.4 L101.1,98.4
		L102.2,98.5 L103.3,98.6 L104.5,98.7 L105.6,98.7 L106.7,98.9 L107.9,99.0 L109.0,99.1 L110.1,99.2
		L111.3,99.4 L112.4,99.6 L113.5,99.7 L114.7,99.9 L115.8,100.1 L116.9,100.3 L118.1,100.5 L119.2,100.8
		L120.3,101.0 L121.5,101.3 L122.6,101.5 L123.7,101.8 L124.9,102.1 L126.0,102.4 L127.1,102.7 L128.3,103.0
		L129.4,103.3 L130.5,103.7 L131.7,104.0 L132.8,104.4 L133.9,104.7 L135.1,105.1 L136.2,105.5 L137.3,105.9
		L138.5,106.3 L139.6,106.8 L140.7,107.2 L141.9,107.7 L143.0,108.1 L144.1,108.6 L145.3,109.1 L146.4,109.6
		L147.5,110.1 L148.7,110.6 L149.8,111.1 L150.9,111.6 L152.1,112.2 L153.2,112.7 L154.3,113.3 L155.5,113.9
		L156.6,114.5 L157.7,115.1 L158.9,115.7 L160.0,116.3 L161.1,116.9 L162.3,117.6 L163.4,118.2 L164.5,118.9
		L165.7,119.6 L166.8,120.3 L167.9,120.9 L169.1,121.6 L170.2,122.4 L171.3,123.1 L172.5,123.8 L173.6,124.6
		L174.7,125.3 L175.9,126.1 L177.0,126.9 L178.1,127.6 L179.3,128.4 L180.4,129.2 L181.5,130.1 L182.7,130.9
		L183.8,131.7 L184.9,132.6 L186.1,133.4 L187.2,134.3 L188.3,135.2 L189.5,136.0 L190.6,136.9 L191.7,137.8
		L192.9,138.7 L194.0,139.7 L195.2,140.6 L196.3,141.5 L197.4,142.5 L198.6,143.5 L199.7,144.4 L200.8,145.4
		L202.0,146.4 L203.1,147.4 L204.2,148.4 L205.4,149.4 L206.5,150.4 L207.6,151.5 L208.8,152.5 L209.9,153.6
		L211.0,154.6 L212.2,155.7 L213.3,156.8 L214.4,157.9 L215.6,159.0 L216.7,160.1 L217.8,161.2 L219.0,162.3
		L220.1,163.4 L221.2,164.6 L222.4,165.7 L223.5,166.9 L224.6,168.1 L225.8,169.2 L226.9,170.4 L228.0,171.6
		L229.2,172.8 L230.3,174.0 L231.4,175.2 L232.6,176.5 L233.7,177.7 L234.8,178.9 L236.0,180.2 L237.1,181.4
		L238.2,182.7 L239.4,184.0 L240.5,185.2 L241.6,186.5 L242.8,187.8 L243.9,189.1 L245.0,190.4 L246.2,191.8
		L247.3,193.1 L248.4,194.4 L249.6,195.8 L250.7,197.1 L251.8,198.5 L253.0,199.8 L254.1,201.2 L255.2,202.6
		L256.4,204.0 L257.5,205.4 L258.6,206.8 L259.8,208.2 L260.9,209.6 L262.0,211.0 L263.2,212.4 L264.3,213.8
		L265.4,215.3 L266.6,216.7 L267.7,218.2 L268.8,219.6 L270.0,221.1 L271.1,222.6 L272.2,224.1 L273.4,225.5
		L274.5,227.0 L275.6,228.5 L276.8,230.0 L277.9,231.5 L279.0,233.0 L280.2,234.6 L281.3,236.1 L282.4,237.6
		L283.6,239.2 L284.7,240.7 L285.8,242.3 L287.0,243.8 L288.1,245.4 L289.2,246.9 L290.4,248.5 L291.5,250.1
		L292.6,251.7 L293.8,253.3 L294.9,254.8 L296.0,256.4 L297.2,258.0 L298.3,259.6 L299.4,261.3 L300.6,262.9
		L301.7,264.5 L302.8,266.1 L304.0,267.7 L305.1,269.4 L306.2,271.0 L307.4,272.7 L308.5,274.3 L309.6,276.0
		L310.8,277.6 L311.9,279.3 L313.0,280.9 L314.2,282.6 L315.3,284.3 L316.4,286.0 L317.6,287.6 L318.7,289.3
		L319.8,291.0 L321.0,292.7 L322.1,294.4 L323.2,296.1 L324.4,297.8 L325.5,299.5 L326.6,301.2 L327.8,302.9
		L328.9,304.7 L330.0,306.4 L331.2,308.1 L332.3,309.8 L333.4,311.5 L334.6,313.3 L335.7,315.0 L336.8,316.7
		L338.0,318.5 L339.1,320.2 L340.2,322.0 L341.4,323.7 L342.5,325.5 L343.6,327.2 L344.8,329.0 L345.9,330.7
		L347.0,332.5 L348.2,334.3 L349.3,336.0 L350.4,337.8 L351.6,339.5 L352.7,341.3 L353.8,343.1 L355.0,344.9
		L356.1,346.6 L357.2,348.4 L358.4,350.2 L359.5,352.0 L360.6,353.7 L361.8,355.5 L362.9,357.3 L364.0,359.1
		L365.2,360.9 L366.3,362.6 L367.4,364.4 L368.6,366.2 L369.7,368.0 L370.8,369.8 L372.0,371.6 L373.1,373.4
		L374.2,375.2 L375.4,377.0 L376.5,378.7 L377.6,380.5 L378.8,382.3 L379.9,384.1 L381.0,385.9 L382.2,387.7
		L383.3,389.5 L384.4,391.3 L385.6,393.1 L386.7,394.9 L387.9,396.7 L389.0,398.5 L390.1,400.2 L391.3,402.0
		L392.4,403.8 L393.5,405.6 L394.7,407.4 L395.8,409.2 L396.9,411.0 L398.1,412.8 L399.2,414.6 L400.3,416.3
		L401.5,418.1 L402.6,419.9 L403.7,421.7 L404.9,423.5 L406.0,425.2 L407.1,427.0 L408.3,428.8 L409.4,430.6
		L410.5,432.3 L411.7,434.1 L412.8,435.9 L413.9,437.7 L415.1,439.4 L416.2,441.2 L417.3,442.9 L418.5,444.7
		L419.6,446.5 L420.7,448.2 L421.9,450.0 L423.0,451.7 L424.1,453.5 L425.3,455.2 L426.4,457.0 L427.5,458.7
		L428.7,460.4 L429.8,462.2 L430.9,463.9 L432.1,465.6 L433.2,467.4 L434.3,469.1 L435.5,470.8 L436.6,472.5
		L437.7,474.3 L438.9,476.0 L440.0,477.7 L441.1,479.4 L442.3,481.1 L443.4,482.8 L444.5,484.5 L445.7,486.2
		L446.8,487.9 L447.9,489.5 L449.1,491.2 L450.2,492.9 L451.3,494.6 L452.5,496.2 L453.6,497.9 L454.7,499.6
		L455.9,501.2 L457.0,502.9 L458.1,504.5 L459.3,506.2 L460.4,507.8 L461.5,509.5 L462.7,511.1 L463.8,512.7
		L464.9,514.3 L466.1,515.9 L467.2,517.6 L468.3,519.2 L469.5,520.8 L470.6,522.4 L471.7,524.0 L472.9,525.6
		L474.0,527.1 L475.1,528.7 L476.3,530.3 L477.4,531.9 L478.5,533.4 L479.7,535.0 L480.8,536.5 L481.9,538.1
		L483.1,539.6 L484.2,541.2 L485.3,542.7 L486.5,544.2 L487.6,545.7 L488.7,547.2 L489.9,548.7 L491.0,550.2
		L492.1,551.7 L493.3,553.2 L494.4,554.7 L495.5,556.2 L496.7,557.7 L497.8,559.1 L498.9,560.6 L500.1,562.0
		L501.2,563.5 L502.3,564.9 L503.5,566.4 L504.6,567.8 L505.7,569.2 L506.9,570.6 L508.0,572.0 L509.1,573.4
		L510.3,574.8 L511.4,576.2 L512.5,577.6 L513.7,578.9 L514.8,580.3 L515.9,581.7 L517.1,583.0 L518.2,584.4
		L519.3,585.7 L520.5,587.0 L521.6,588.3 L522.7,589.7 L523.9,591.0 L525.0,592.3 L526.1,593.6 L527.3,594.8
		L528.4,596.1 L529.5,597.4 L530.7,598.7 L531.8,599.9 L532.9,601.2 L534.1,602.4 L535.2,603.6 L536.3,604.8
		L537.5,606.1 L538.6,607.3 L539.7,608.5 L540.9,609.7 L542.0,610.8 L543.1,612.0 L544.3,613.2 L545.4,614.3
		L546.5,615.5 L547.7,616.6 L548.8,617.8 L549.9,618.9 L551.1,620.0 L552.2,621.1 L553.3,622.2 L554.5,623.3
		L555.6,624.4 L556.7,625.5 L557.9,626.5 L559.0,627.6 L560.1,628.6 L561.3,629.7 L562.4,630.7 L563.5,631.7
		L564.7,632.7 L565.8,633.7 L566.9,634.7 L568.1,635.7 L569.2,636.7 L570.3,637.6 L571.5,638.6 L572.6,639.6
		L573.7,640.5 L574.9,641.4 L576.0,642.3 L577.1,643.3 L578.3,644.2 L579.4,645.0 L580.6,645.9 L581.7,646.8
		L582.8,647.7 L584.0,648.5 L585.1,649.4 L586.2,650.2 L587.4,651.0 L588.5,651.8 L589.6,652.7 L590.8,653.5
		L591.9,654.2 L593.0,655.0 L594.2,655.8 L595.3,656.5 L596.4,657.3 L597.6,658.0 L598.7,658.8 L599.8,659.5
		L601.0,660.2 L602.1,660.9 L603.2,661.6 L604.4,662.3 L605.5,662.9 L606.6,663.6 L607.8,664.2 L608.9,664.9
		L610.0,665.5 L611.2,666.1 L612.3,666.7 L613.4,667.3 L614.6,667.9 L615.7,668.5 L616.8,669.0 L618.0,669.6
		L619.1,670.1 L620.2,670.7 L621.4,671.2 L622.5,671.7 L623.6,672.2 L624.8,672.7 L625.9,673.2 L627.0,673.7
		L628.2,674.1 L629.3,674.6 L630.4,675.0 L631.6,675.5 L632.7,675.9 L633.8,676.3 L635.0,676.7 L636.1,677.1
		L637.2,677.5 L638.4,677.8 L639.5,678.2 L640.6,678.5 L641.8,678.9 L642.9,679.2 L644.0,679.5 L645.2,679.8
		L646.3,680.1 L647.4,680.4 L648.6,680.7 L649.7,680.9 L650.8,681.2 L652.0,681.4 L653.1,681.6 L654.2,681.9
		L655.4,682.1 L656.5,682.3 L657.6,682.4 L658.8,682.6 L659.9,682.8 L661.0,682.9 L662.2,683.1 L663.3,683.2
		L664.4,683.3 L665.6,683.4 L666.7,683.5 L667.8,683.6 L669.0,683.7 L670.1,683.8 L671.2,683.8 L672.4,683.9
		L673.5,683.9 L674.6,683.9 L675.8,683.9 L676.9,683.9 L678.0,683.9 L679.2,683.9 L680.3,683.8 L681.4,683.8
		L682.6,683.7 L683.7,683.7 L684.8,683.6 L686.0,683.5 L687.1,683.4 L688.2,683.3 L689.4,683.2 L690.5,683.1
		L691.6,682.9 L692.8,682.8 L693.9,682.6 L695.0,682.4 L696.2,682.2 L697.3,682.0 L698.4,681.8 L699.6,681.6
		L700.7,681.4 L701.8,681.1 L703.0,680.9 L704.1,680.6 L705.2,680.3 L706.4,680.1 L707.5,679.8 L708.6,679.5
		L709.8,679.1 L710.9,678.8 L712.0,678.5 L713.2,678.1 L714.3,677.8 L715.4,677.4 L716.6,677.0 L717.7,676.6
		L718.8,676.2 L720.0,675.8 L721.1,675.4 L722.2,674.9 L723.4,674.5 L724.5,674.0 L725.6,673.6 L726.8,673.1
		L727.9,672.6 L729.0,672.1 L730.2,671.6 L731.3,671.1 L732.4,670.6 L733.6,670.0 L734.7,669.5 L735.8,668.9
		L737.0,668.3 L738.1,667.7 L739.2,667.1 L740.4,666.5 L741.5,665.9 L742.6,665.3 L743.8,664.7 L744.9,664.0
		L746.0,663.4 L747.2,662.7 L748.3,662.0 L749.4,661.3 L750.6,660.6 L751.7,659.9 L752.8,659.2 L754.0,658.5
		L755.1,657.7 L756.2,657.0 L757.4,656.2 L758.5,655.5 L759.6,654.7 L760.8,653.9 L761.9,653.1 L763.0,652.3
		L764.2,651.5 L765.3,650.6 L766.4,649.8 L767.6,649.0 L768.7,648.1 L769.8,647.2 L771.0,646.4 L772.1,645.5
		L773.3,644.6 L774.4,643.7 L775.5,642.8 L776.7,641.8 L777.8,640.9 L778.9,640.0 L780.1,639.0 L781.2,638.0
		L782.3,637.1 L783.5,636.1 L784.6,635.1 L785.7,634.1 L786.9,633.1 L788.0,632.1 L789.1,631.0 L790.3,630.0
		L791.4,628.9 L792.5,627.9 L793.7,626.8 L794.8,625.7 L795.9,624.7 L797.1,623.6 L798.2,622.5 L799.3,621.4
		L800.5,620.2 L801.6,619.1 L802.7,618.0 L803.9,616.8 L805.0,615.7 L806.1,614.5 L807.3,613.3 L808.4,612.2
		L809.5,611.0 L810.7,609.8 L811.8,608.6 L812.9,607.4 L814.1,606.1 L815.2,604.9 L816.3,603.7 L817.5,602.4
		L818.6,601.2 L819.7,599.9 L820.9,598.6 L822.0,597.4 L823.1,596.1 L824.3,594.8 L825.4,593.5 L826.5,592.2
		L827.7,590.9 L828.8,589.5 L829.9,588.2 L831.1,586.9 L832.2,585.5 L833.3,584.2 L834.5,582.8 L835.6,581.4
		L836.7,580.0 L837.9,578.7 L839.0,577.3 L840.1,575.9 L841.3,574.5 L842.4,573.1 L843.5,571.6 L844.7,570.2
		L845.8,568.8 L846.9,567.3 L848.1,565.9 L849.2,564.4 L850.3,563.0 L851.5,561.5 L852.6,560.0 L853.7,558.5
		L854.9,557.1 L856.0,555.6 L857.1,554.1 L858.3,552.6 L859.4,551.0 L860.5,549.5 L861.7,548.0 L862.8,546.5
		L863.9,544.9 L865.1,543.4 L866.2,541.8 L867.3,540.3 L868.5,538.7 L869.6,537.2 L870.7,535.6 L871.9,534.0
		L873.0,532.4 L874.1,530.8 L875.3,529.2 L876.4,527.6 L877.5,526.0 L878.7,524.4 L879.8,522.8 L880.9,521.2
		L882.1,519.6 L883.2,517.9 L884.3,516.3 L885.5,514.7 L886.6,513.0 L887.7,511.4 L888.9,509.7 L890.0,508.0
		L891.1,506.4 L892.3,504.7 L893.4,503.0 L894.5,501.4 L895.7,499.7 L896.8,498.0 L897.9,496.3 L899.1,494.6
		L900.2,492.9 L901.3,491.2 L902.5,489.5 L903.6,487.8 L904.7,486.1 L905.9,484.4 L907.0,482.7 L908.1,480.9
		L909.3,479.2 L910.4,477.5 L911.5,475.7 L912.7,474.0 L913.8,472.3 L914.9,470.5 L916.1,468.8 L917.2,467.0
		L918.3,465.3 L919.5,463.5 L920.6,461.8 L921.7,460.0 L922.9,458.2 L924.0,456.5 L925.1,454.7 L926.3,452.9
		L927.4,451.2 L928.5,449.4 L929.7,447.6 L930.8,445.8 L931.9,444.1 L933.1,442.3 L934.2,440.5 L935.3,438.7
		L936.5,436.9 L937.6,435.1 L938.7,433.3 L939.9,431.5 L941.0,429.7 L942.1,427.9 L943.3,426.1 L944.4,424.3
		L945.5,422.5 L946.7,420.7 L947.8,418.9 L948.9,417.1 L950.1,415.3 L951.2,413.5 L952.3,411.7 L953.5,409.9
		L954.6,408.1 L955.7,406.3 L956.9,404.5 L958.0,402.7 L959.1,400.9 L960.3,399.0 L961.4,397.2 L962.5,395.4
		L963.7,393.6 L964.8,391.8 L966.0,390.0 L967.1,388.2 L968.2,386.4 L969.4,384.6 L970.5,382.8 L971.6,380.9
		L972.8,379.1 L973.9,377.3 L975.0,375.5 L976.2,373.7 L977.3,371.9 L978.4,370.1 L979.6,368.3 L980.7,366.5
		L981.8,364.7 L983.0,362.9 L984.1,361.1 L985.2,359.3 L986.4,357.5 L987.5,355.7 L988.6,353.9 L989.8,352.1
		L990.9,350.3 L992.0,348.5 L993.2,346.7 L994.3,345.0 L995.4,343.2 L996.6,341.4 L997.7,339.6 L998.8,337.8
		L1000.0,336.1 L1001.1,334.3 L1002.2,332.5 L1003.4,330.7 L1004.5,329.0 L1005.6,327.2 L1006.8,325.4 L1007.9,323.7
		L1009.0,321.9 L1010.2,320.2 L1011.3,318.4 L1012.4,316.7 L1013.6,314.9 L1014.7,313.2 L1015.8,311.5 L1017.0,309.7
		L1018.1,308.0 L1019.2,306.3 L1020.4,304.5 L1021.5,302.8 L1022.6,301.1 L1023.8,299.4 L1024.9,297.7 L1026.0,296.0
		L1027.2,294.3 L1028.3,292.6 L1029.4,290.9 L1030.6,289.2 L1031.7,287.5 L1032.8,285.8 L1034.0,284.1 L1035.1,282.5
		L1036.2,280.8 L1037.4,279.1 L1038.5,277.5 L1039.6,275.8 L1040.8,274.2 L1041.9,272.5 L1043.0,270.9 L1044.2,269.2
		L1045.3,267.6 L1046.4,266.0 L1047.6,264.3 L1048.7,262.7 L1049.8,261.1 L1051.0,259.5 L1052.1,257.9 L1053.2,256.3
		L1054.4,254.7 L1055.5,253.1 L1056.6,251.5 L1057.8,250.0 L1058.9,248.4 L1060.0,246.8 L1061.2,245.3 L1062.3,243.7
		L1063.4,242.2 L1064.6,240.6 L1065.7,239.1 L1066.8,237.6 L1068.0,236.1 L1069.1,234.5 L1070.2,233.0 L1071.4,231.5
		L1072.5,230.0 L1073.6,228.5 L1074.8,227.0 L1075.9,225.6 L1077.0,224.1 L1078.2,222.6 L1079.3,221.2 L1080.4,219.7
		L1081.6,218.3 L1082.7,216.8 L1083.8,215.4 L1085.0,214.0 L1086.1,212.6 L1087.2,211.1 L1088.4,209.7 L1089.5,208.3
		L1090.6,206.9 L1091.8,205.6 L1092.9,204.2 L1094.0,202.8 L1095.2,201.5 L1096.3,200.1 L1097.4,198.8 L1098.6,197.4
		L1099.7,196.1 L1100.8,194.8 L1102.0,193.4 L1103.1,192.1 L1104.2,190.8 L1105.4,189.5 L1106.5,188.2 L1107.6,187.0
		L1108.8,185.7 L1109.9,184.4 L1111.0,183.2 L1112.2,181.9 L1113.3,180.7 L1114.4,179.5 L1115.6,178.2 L1116.7,177.0
		L1117.8,175.8 L1119.0,174.6 L1120.1,173.4 L1121.2,172.3 L1122.4,171.1 L1123.5,169.9 L1124.6,168.8 L1125.8,167.6
		L1126.9,166.5 L1128.0,165.4 L1129.2,164.2 L1130.3,163.1 L1131.4,162.0 L1132.6,160.9 L1133.7,159.8 L1134.8,158.8
		L1136.0,157.7 L1137.1,156.6 L1138.2,155.6 L1139.4,154.5 L1140.5,153.5 L1141.6,152.5 L1142.8,151.5 L1143.9,150.5
		L1145.0,149.5 L1146.2,148.5 L1147.3,147.5 L1148.4,146.5 L1149.6,145.6 L1150.7,144.6 L1151.8,143.7 L1153.0,142.7
		L1154.1,141.8 L1155.2,140.9 L1156.4,140.0 L1157.5,139.1 L1158.7,138.2 L1159.8,137.4 L1160.9,136.5 L1162.1,135.6
		L1163.2,134.8 L1164.3,133.9 L1165.5,133.1 L1166.6,132.3 L1167.7,131.5 L1168.9,130.7 L1170.0,129.9 L1171.1,129.1
		L1172.3,128.4 L1173.4,127.6 L1174.5,126.9 L1175.7,126.1 L1176.8,125.4 L1177.9,124.7 L1179.1,124.0 L1180.2,123.3
		L1181.3,122.6 L1182.5,121.9 L1183.6,121.2 L1184.7,120.6 L1185.9,119.9 L1187.0,119.3 L1188.1,118.7 L1189.3,118.0
		L1190.4,117.4 L1191.5,116.8 L1192.7,116.2 L1193.8,115.7 L1194.9,115.1 L1196.1,114.5 L1197.2,114.0 L1198.3,113.5
		L1199.5,112.9 L1200.6,112.4 L1201.7,111.9 L1202.9,111.4 L1204.0,110.9 L1205.1,110.5 L1206.3,110.0 L1207.4,109.6
		L1208.5,109.1 L1209.7,108.7 L1210.8,108.3 L1211.9,107.9 L1213.1,107.5 L1214.2,107.1 L1215.3,106.7 L1216.5,106.3
		L1217.6,106.0 L1218.7,105.6 L1219.9,105.3 L1221.0,104.9 L1222.1,104.6 L1223.3,104.3 L1224.4,104.0 L1225.5,103.7
		L1226.7,103.5 L1227.8,103.2 L1228.9,103.0 L1230.1,102.7 L1231.2,102.5 L1232.3,102.3 L1233.5,102.1 L1234.6,101.9
		L1235.7,101.7 L1236.9,101.5 L1238.0,101.3 L1239.1,101.2 L1240.3,101.0 L1241.4,100.9 L1242.5,100.8 L1243.7,100.7
		L1244.8,100.6 L1245.9,100.5 L1247.1,100.4 L1248.2,100.3 L1249.3,100.3 L1250.5,100.2 L1251.6,100.2 L1252.7,100.1
		L1253.9,100.1 L1255.0,100.1  '/></g>
	</g>
<g fill="none" color="white" stroke="rgb(230, 159,   0)" stroke-width="2.00" stroke-linecap="butt" stroke-linejoin="miter">
</g>
<g fill="none" color="black" stroke="currentColor" stroke-width="2.00" stroke-linecap="butt" stroke-linejoin="miter">
</g>
<g fill="none" color="black" stroke="black" stroke-width="1.00" stroke-linecap="butt" stroke-linejoin="miter">
</g>
<g fill="none" color="black" stroke="currentColor" stroke-width="1.00" stroke-linecap="butt" stroke-linejoin="miter">
	<path stroke='black'  d='M95.4,54.1 L95.4,684.0 L1255.0,684.0 L1255.0,54.1 L95.4,54.1 Z  '/></g>
<g fill="none" color="black" stroke="currentColor" stroke-width="1.00" stroke-linecap="butt" stroke-linejoin="miter">
</g>
</g>
</svg>

