<?xml version="1.0" encoding="utf-8"  standalone="no"?>
<svg 
 width="1280" height="720"
 viewBox="0 0 1280 720"
 xmlns="http://www.w3.org/2000/svg"
 xmlns:xlink="http://www.w3.org/1999/xlink"
>

<title>Gnuplot</title>
<desc>Produced by GNUPLOT 5.0 patchlevel 6 </desc>

<g id="gnuplot_canvas">

<rect x="0" y="0" width="1280" height="720" fill="none"/>
<defs>

	<circle id='gpDot' r='0.5' stroke-width='0.5'/>
	<path id='gpPt0' stroke-width='0.222' stroke='currentColor' d='M-1,0 h2 M0,-1 v2'/>
	<path id='gpPt1' stroke-width='0.222' stroke='currentColor' d='M-1,-1 L1,1 M1,-1 L-1,1'/>
	<path id='gpPt2' stroke-width='0.222' stroke='currentColor' d='M-1,0 L1,0 M0,-1 L0,1 M-1,-1 L1,1 M-1,1 L1,-1'/>
	<rect id='gpPt3' stroke-width='0.222' stroke='currentColor' x='-1' y='-1' width='2' height='2'/>
	<rect id='gpPt4' stroke-width='0.222' stroke='currentColor' fill='currentColor' x='-1' y='-1' width='2' height='2'/>
	<circle id='gpPt5' stroke-width='0.222' stroke='currentColor' cx='0' cy='0' r='1'/>
	<use xlink:href='#gpPt5' id='gpPt6' fill='currentColor' stroke='none'/>
	<path id='gpPt7' stroke-width='0.222' stroke='currentColor' d='M0,-1.33 L-1.33,0.67 L1.33,0.67 z'/>
	<use xlink:href='#gpPt7' id='gpPt8' fill='currentColor' stroke='none'/>
	<use xlink:href='#gpPt7' id='gpPt9' stroke='currentColor' transform='rotate(180)'/>
	<use xlink:href='#gpPt9' id='gpPt10' fill='currentColor' stroke='none'/>
	<use xlink:href='#gpPt3' id='gpPt11' stroke='currentColor' transform='rotate(45)'/>
	<use xlink:href='#gpPt11' id='gpPt12' fill='currentColor' stroke='none'/>
	<path id='gpPt13' stroke-width='0.222' stroke='currentColor' d='M0,1.330 L1.265,0.411 L0.782,-1.067 L-0.782,-1.076 L-1.265,0.411 z'/>
	<use xlink:href='#gpPt13' id='gpPt14' fill='currentColor' stroke='none'/>
	<filter id='textbox' filterUnits='objectBoundingBox' x='0' y='0' height='1' width='1'>
	  <feFlood flood-color='white' flood-opacity='1' result='bgnd'/>
	  <feComposite in='SourceGraphic' in2='bgnd' operator='atop'/>
	</filter>
	<filter id='greybox' filterUnits='objectBoundingBox' x='0' y='0' height='1' width='1'>
	  <feFlood flood-color='lightgrey' flood-opacity='1' result='grey'/>
	  <feComposite in='SourceGraphic' in2='grey' operator='atop'/>
	</filter>
</defs>
<g fill="none" color="white" stroke="currentColor" stroke-width="1.00" stroke-linecap="butt" stroke-linejoin="miter">
</g>
<g fill="none" color="black" stroke="currentColor" stroke-width="1.00" stroke-linecap="butt" stroke-linejoin="miter">
	<path stroke='black'  d='M95.4,684.0 L104.4,684.0 M1255.0,684.0 L1246.0,684.0  '/>	<g transform="translate(87.1,687.9)" stroke="none" fill="black" font-family="Arial" font-size="12.00"  text-anchor="end">
		<text><tspan font-family="Arial" > 0.004397</tspan></text>
	</g>
</g>
<g fill="none" color="black" stroke="currentColor" stroke-width="1.00" stroke-linecap="butt" stroke-linejoin="miter">
	<path stroke='black'  d='M95.4,369.9 L104.4,369.9 M1255.0,369.9 L1246.0,369.9  '/>	<g transform="translate(87.1,373.8)" stroke="none" fill="black" font-family="Arial" font-size="12.00"  text-anchor="end">
		<text><tspan font-family="Arial" > 15.4774</tspan></text>
	</g>
</g>
<g fill="none" color="black" stroke="currentColor" stroke-width="1.00" stroke-linecap="butt" stroke-linejoin="miter">
	<path stroke='black'  d='M95.4,55.9 L104.4,55.9 M1255.0,55.9 L1246.0,55.9  '/>	<g transform="translate(87.1,59.8)" stroke="none" fill="black" font-family="Arial" font-size="12.00"  text-anchor="end">
		<text><tspan font-family="Arial" > 54480</tspan></text>
	</g>
</g>
<g fill="none" color="black" stroke="currentColor" stroke-width="1.00" stroke-linecap="butt" stroke-linejoin="miter">
	<path stroke='black'  d='M95.4,684.0 L95.4,675.0 M95.4,54.1 L95.4,63.1  '/>	<g transform="translate(95.4,705.9)" stroke="none" fill="black" font-family="Arial" font-size="12.00"  text-anchor="middle">
		<text><tspan font-family="Arial" > 0</tspan></text>
	</g>
</g>
<g fill="none" color="black" stroke="currentColor" stroke-width="1.00" stroke-linecap="butt" stroke-linejoin="miter">
	<path stroke='black'  d='M675.2,684.0 L675.2,675.0 M675.2,54.1 L675.2,63.1  '/>	<g transform="translate(675.2,705.9)" stroke="none" fill="black" font-family="Arial" font-size="12.00"  text-anchor="middle">
		<text><tspan font-family="Arial" >pi/2</tspan></text>
	</g>
</g>
<g fill="none" color="black" stroke="currentColor" stroke-width="1.00" stroke-linecap="butt" stroke-linejoin="miter">
	<path stroke='black'  d='M1255.0,684.0 L1255.0,675.0 M1255.0,54.1 L1255.0,63.1  '/>	<g transform="translate(1255.0,705.9)" stroke="none" fill="black" font-family="Arial" font-size="12.00"  text-anchor="middle">
		<text><tspan font-family="Arial" >pi</tspan></text>
	</g>
</g>
<g fill="none" color="black" stroke="currentColor" stroke-width="1.00" stroke-linecap="butt" stroke-linejoin="miter">
</g>
<g fill="none" color="black" stroke="currentColor" stroke-width="1.00" stroke-linecap="butt" stroke-linejoin="miter">
	<path stroke='black'  d='M95.4,54.1 L95.4,684.0 L1255.0,684.0 L1255.0,54.1 L95.4,54.1 Z  '/></g>
<g fill="none" color="black" stroke="currentColor" stroke-width="1.00" stroke-linecap="butt" stroke-linejoin="miter">
	<g transform="translate(675.2,31.0)" stroke="none" fill="black" font-family="Arial" font-size="12.00"  text-anchor="middle">
		<text><tspan font-family="Arial" >Material 36</tspan></text>
	</g>
</g>
	<g id="gnuplot_plot_1" ><title>scattering function</title>
<g fill="none" color="black" stroke="currentColor" stroke-width="1.00" stroke-linecap="butt" stroke-linejoin="miter">
	<g transform="translate(1187.9,76.0)" stroke="none" fill="black" font-family="Arial" font-size="12.00"  text-anchor="end">
		<text><tspan font-family="Arial" >scattering function</tspan></text>
	</g>
</g>
<g fill="none" color="black" stroke="currentColor" stroke-width="1.00" stroke-linecap="butt" stroke-linejoin="miter">
	<use xlink:href='#gpPt5' transform='translate(95.4,55.9) scale(2.25)' color='black'/>
	<use xlink:href='#gpPt5' transform='translate(95.4,55.9) scale(2.25)' color='black'/>
	<use xlink:href='#gpPt5' transform='translate(95.4,56.1) scale(2.25)' color='black'/>
	<use xlink:href='#gpPt5' transform='translate(95.4,56.3) scale(2.25)' color='black'/>
	<use xlink:href='#gpPt5' transform='translate(95.4,56.7) scale(2.25)' color='black'/>
	<use xlink:href='#gpPt5' transform='translate(95.4,57.0) scale(2.25)' color='black'/>
	<use xlink:href='#gpPt5' transform='translate(95.5,60.0) scale(2.25)' color='black'/>
	<use xlink:href='#gpPt5' transform='translate(95.5,64.6) scale(2.25)' color='black'/>
	<use xlink:href='#gpPt5' transform='translate(95.5,69.5) scale(2.25)' color='black'/>
	<use xlink:href='#gpPt5' transform='translate(95.6,74.5) scale(2.25)' color='black'/>
	<use xlink:href='#gpPt5' transform='translate(95.6,79.1) scale(2.25)' color='black'/>
	<use xlink:href='#gpPt5' transform='translate(95.7,97.0) scale(2.25)' color='black'/>
	<use xlink:href='#gpPt5' transform='translate(95.8,112.4) scale(2.25)' color='black'/>
	<use xlink:href='#gpPt5' transform='translate(95.9,126.7) scale(2.25)' color='black'/>
	<use xlink:href='#gpPt5' transform='translate(96.0,141.5) scale(2.25)' color='black'/>
	<use xlink:href='#gpPt5' transform='translate(96.2,154.5) scale(2.25)' color='black'/>
	<use xlink:href='#gpPt5' transform='translate(96.3,166.7) scale(2.25)' color='black'/>
	<use xlink:href='#gpPt5' transform='translate(96.4,178.7) scale(2.25)' color='black'/>
	<use xlink:href='#gpPt5' transform='translate(96.6,189.9) scale(2.25)' color='black'/>
	<use xlink:href='#gpPt5' transform='translate(96.7,201.1) scale(2.25)' color='black'/>
	<use xlink:href='#gpPt5' transform='translate(96.8,210.4) scale(2.25)' color='black'/>
	<use xlink:href='#gpPt5' transform='translate(96.9,217.9) scale(2.25)' color='black'/>
	<use xlink:href='#gpPt5' transform='translate(97.1,224.8) scale(2.25)' color='black'/>
	<use xlink:href='#gpPt5' transform='translate(97.2,230.6) scale(2.25)' color='black'/>
	<use xlink:href='#gpPt5' transform='translate(97.3,236.6) scale(2.25)' color='black'/>
	<use xlink:href='#gpPt5' transform='translate(97.7,240.6) scale(2.25)' color='black'/>
	<use xlink:href='#gpPt5' transform='translate(98.0,253.9) scale(2.25)' color='black'/>
	<use xlink:href='#gpPt5' transform='translate(98.3,270.2) scale(2.25)' color='black'/>
	<use xlink:href='#gpPt5' transform='translate(98.6,281.9) scale(2.25)' color='black'/>
	<use xlink:href='#gpPt5' transform='translate(98.9,291.9) scale(2.25)' color='black'/>
	<use xlink:href='#gpPt5' transform='translate(99.3,300.6) scale(2.25)' color='black'/>
	<use xlink:href='#gpPt5' transform='translate(99.6,309.5) scale(2.25)' color='black'/>
	<use xlink:href='#gpPt5' transform='translate(99.9,316.4) scale(2.25)' color='black'/>
	<use xlink:href='#gpPt5' transform='translate(100.2,326.3) scale(2.25)' color='black'/>
	<use xlink:href='#gpPt5' transform='translate(100.6,336.1) scale(2.25)' color='black'/>
	<use xlink:href='#gpPt5' transform='translate(100.9,346.5) scale(2.25)' color='black'/>
	<use xlink:href='#gpPt5' transform='translate(101.2,351.9) scale(2.25)' color='black'/>
	<use xlink:href='#gpPt5' transform='translate(101.5,355.5) scale(2.25)' color='black'/>
	<use xlink:href='#gpPt5' transform='translate(101.8,358.4) scale(2.25)' color='black'/>
	<use xlink:href='#gpPt5' transform='translate(102.2,364.3) scale(2.25)' color='black'/>
	<use xlink:href='#gpPt5' transform='translate(102.5,369.7) scale(2.25)' color='black'/>
	<use xlink:href='#gpPt5' transform='translate(102.8,376.4) scale(2.25)' color='black'/>
	<use xlink:href='#gpPt5' transform='translate(103.1,380.9) scale(2.25)' color='black'/>
	<use xlink:href='#gpPt5' transform='translate(103.5,385.7) scale(2.25)' color='black'/>
	<use xlink:href='#gpPt5' transform='translate(103.8,391.7) scale(2.25)' color='black'/>
	<use xlink:href='#gpPt5' transform='translate(104.1,400.5) scale(2.25)' color='black'/>
	<use xlink:href='#gpPt5' transform='translate(104.4,407.5) scale(2.25)' color='black'/>
	<use xlink:href='#gpPt5' transform='translate(104.7,413.8) scale(2.25)' color='black'/>
	<use xlink:href='#gpPt5' transform='translate(105.1,418.8) scale(2.25)' color='black'/>
	<use xlink:href='#gpPt5' transform='translate(105.4,426.5) scale(2.25)' color='black'/>
	<use xlink:href='#gpPt5' transform='translate(105.7,432.7) scale(2.25)' color='black'/>
	<use xlink:href='#gpPt5' transform='translate(106.0,433.4) scale(2.25)' color='black'/>
	<use xlink:href='#gpPt5' transform='translate(106.4,431.4) scale(2.25)' color='black'/>
	<use xlink:href='#gpPt5' transform='translate(106.7,433.5) scale(2.25)' color='black'/>
	<use xlink:href='#gpPt5' transform='translate(107.0,436.7) scale(2.25)' color='black'/>
	<use xlink:href='#gpPt5' transform='translate(107.3,440.1) scale(2.25)' color='black'/>
	<use xlink:href='#gpPt5' transform='translate(107.6,443.6) scale(2.25)' color='black'/>
	<use xlink:href='#gpPt5' transform='translate(108.0,448.2) scale(2.25)' color='black'/>
	<use xlink:href='#gpPt5' transform='translate(108.3,451.9) scale(2.25)' color='black'/>
	<use xlink:href='#gpPt5' transform='translate(111.5,453.4) scale(2.25)' color='black'/>
	<use xlink:href='#gpPt5' transform='translate(114.7,461.9) scale(2.25)' color='black'/>
	<use xlink:href='#gpPt5' transform='translate(117.9,497.8) scale(2.25)' color='black'/>
	<use xlink:href='#gpPt5' transform='translate(121.2,510.6) scale(2.25)' color='black'/>
	<use xlink:href='#gpPt5' transform='translate(124.4,519.6) scale(2.25)' color='black'/>
	<use xlink:href='#gpPt5' transform='translate(127.6,531.3) scale(2.25)' color='black'/>
	<use xlink:href='#gpPt5' transform='translate(134.1,550.1) scale(2.25)' color='black'/>
	<use xlink:href='#gpPt5' transform='translate(140.5,554.7) scale(2.25)' color='black'/>
	<use xlink:href='#gpPt5' transform='translate(146.9,568.6) scale(2.25)' color='black'/>
	<use xlink:href='#gpPt5' transform='translate(153.4,579.2) scale(2.25)' color='black'/>
	<use xlink:href='#gpPt5' transform='translate(159.8,586.2) scale(2.25)' color='black'/>
	<use xlink:href='#gpPt5' transform='translate(166.3,591.7) scale(2.25)' color='black'/>
	<use xlink:href='#gpPt5' transform='translate(172.7,597.4) scale(2.25)' color='black'/>
	<use xlink:href='#gpPt5' transform='translate(179.1,601.1) scale(2.25)' color='black'/>
	<use xlink:href='#gpPt5' transform='translate(185.6,605.5) scale(2.25)' color='black'/>
	<use xlink:href='#gpPt5' transform='translate(192.0,609.2) scale(2.25)' color='black'/>
	<use xlink:href='#gpPt5' transform='translate(198.5,611.3) scale(2.25)' color='black'/>
	<use xlink:href='#gpPt5' transform='translate(204.9,614.7) scale(2.25)' color='black'/>
	<use xlink:href='#gpPt5' transform='translate(211.4,615.9) scale(2.25)' color='black'/>
	<use xlink:href='#gpPt5' transform='translate(217.8,617.2) scale(2.25)' color='black'/>
	<use xlink:href='#gpPt5' transform='translate(224.2,618.7) scale(2.25)' color='black'/>
	<use xlink:href='#gpPt5' transform='translate(230.7,545.3) scale(2.25)' color='black'/>
	<use xlink:href='#gpPt5' transform='translate(237.1,521.6) scale(2.25)' color='black'/>
	<use xlink:href='#gpPt5' transform='translate(243.6,519.2) scale(2.25)' color='black'/>
	<use xlink:href='#gpPt5' transform='translate(250.0,517.1) scale(2.25)' color='black'/>
	<use xlink:href='#gpPt5' transform='translate(256.5,525.0) scale(2.25)' color='black'/>
	<use xlink:href='#gpPt5' transform='translate(262.9,535.1) scale(2.25)' color='black'/>
	<use xlink:href='#gpPt5' transform='translate(269.3,542.0) scale(2.25)' color='black'/>
	<use xlink:href='#gpPt5' transform='translate(275.8,550.6) scale(2.25)' color='black'/>
	<use xlink:href='#gpPt5' transform='translate(282.2,557.2) scale(2.25)' color='black'/>
	<use xlink:href='#gpPt5' transform='translate(288.7,564.9) scale(2.25)' color='black'/>
	<use xlink:href='#gpPt5' transform='translate(301.6,577.9) scale(2.25)' color='black'/>
	<use xlink:href='#gpPt5' transform='translate(314.4,590.4) scale(2.25)' color='black'/>
	<use xlink:href='#gpPt5' transform='translate(327.3,601.7) scale(2.25)' color='black'/>
	<use xlink:href='#gpPt5' transform='translate(340.2,611.4) scale(2.25)' color='black'/>
	<use xlink:href='#gpPt5' transform='translate(353.1,619.0) scale(2.25)' color='black'/>
	<use xlink:href='#gpPt5' transform='translate(366.0,625.2) scale(2.25)' color='black'/>
	<use xlink:href='#gpPt5' transform='translate(378.9,629.2) scale(2.25)' color='black'/>
	<use xlink:href='#gpPt5' transform='translate(391.7,605.1) scale(2.25)' color='black'/>
	<use xlink:href='#gpPt5' transform='translate(404.6,598.0) scale(2.25)' color='black'/>
	<use xlink:href='#gpPt5' transform='translate(417.5,606.9) scale(2.25)' color='black'/>
	<use xlink:href='#gpPt5' transform='translate(430.4,614.8) scale(2.25)' color='black'/>
	<use xlink:href='#gpPt5' transform='translate(443.3,622.1) scale(2.25)' color='black'/>
	<use xlink:href='#gpPt5' transform='translate(456.2,628.5) scale(2.25)' color='black'/>
	<use xlink:href='#gpPt5' transform='translate(469.0,632.5) scale(2.25)' color='black'/>
	<use xlink:href='#gpPt5' transform='translate(481.9,633.7) scale(2.25)' color='black'/>
	<use xlink:href='#gpPt5' transform='translate(494.8,634.1) scale(2.25)' color='black'/>
	<use xlink:href='#gpPt5' transform='translate(507.7,634.1) scale(2.25)' color='black'/>
	<use xlink:href='#gpPt5' transform='translate(520.6,633.6) scale(2.25)' color='black'/>
	<use xlink:href='#gpPt5' transform='translate(533.5,634.5) scale(2.25)' color='black'/>
	<use xlink:href='#gpPt5' transform='translate(546.4,633.8) scale(2.25)' color='black'/>
	<use xlink:href='#gpPt5' transform='translate(559.2,634.3) scale(2.25)' color='black'/>
	<use xlink:href='#gpPt5' transform='translate(572.1,634.3) scale(2.25)' color='black'/>
	<use xlink:href='#gpPt5' transform='translate(585.0,635.7) scale(2.25)' color='black'/>
	<use xlink:href='#gpPt5' transform='translate(597.9,636.8) scale(2.25)' color='black'/>
	<use xlink:href='#gpPt5' transform='translate(610.8,637.7) scale(2.25)' color='black'/>
	<use xlink:href='#gpPt5' transform='translate(623.7,638.5) scale(2.25)' color='black'/>
	<use xlink:href='#gpPt5' transform='translate(636.5,640.8) scale(2.25)' color='black'/>
	<use xlink:href='#gpPt5' transform='translate(649.4,641.3) scale(2.25)' color='black'/>
	<use xlink:href='#gpPt5' transform='translate(662.3,642.4) scale(2.25)' color='black'/>
	<use xlink:href='#gpPt5' transform='translate(675.2,643.2) scale(2.25)' color='black'/>
	<use xlink:href='#gpPt5' transform='translate(688.1,645.4) scale(2.25)' color='black'/>
	<use xlink:href='#gpPt5' transform='translate(701.0,646.5) scale(2.25)' color='black'/>
	<use xlink:href='#gpPt5' transform='translate(713.9,647.1) scale(2.25)' color='black'/>
	<use xlink:href='#gpPt5' transform='translate(726.7,649.6) scale(2.25)' color='black'/>
	<use xlink:href='#gpPt5' transform='translate(739.6,650.9) scale(2.25)' color='black'/>
	<use xlink:href='#gpPt5' transform='translate(752.5,653.6) scale(2.25)' color='black'/>
	<use xlink:href='#gpPt5' transform='translate(765.4,655.9) scale(2.25)' color='black'/>
	<use xlink:href='#gpPt5' transform='translate(778.3,656.9) scale(2.25)' color='black'/>
	<use xlink:href='#gpPt5' transform='translate(791.2,659.6) scale(2.25)' color='black'/>
	<use xlink:href='#gpPt5' transform='translate(804.0,661.4) scale(2.25)' color='black'/>
	<use xlink:href='#gpPt5' transform='translate(816.9,662.2) scale(2.25)' color='black'/>
	<use xlink:href='#gpPt5' transform='translate(829.8,664.8) scale(2.25)' color='black'/>
	<use xlink:href='#gpPt5' transform='translate(842.7,669.9) scale(2.25)' color='black'/>
	<use xlink:href='#gpPt5' transform='translate(855.6,676.6) scale(2.25)' color='black'/>
	<use xlink:href='#gpPt5' transform='translate(868.5,680.0) scale(2.25)' color='black'/>
	<use xlink:href='#gpPt5' transform='translate(881.4,683.0) scale(2.25)' color='black'/>
	<use xlink:href='#gpPt5' transform='translate(894.2,684.0) scale(2.25)' color='black'/>
	<use xlink:href='#gpPt5' transform='translate(907.1,683.1) scale(2.25)' color='black'/>
	<use xlink:href='#gpPt5' transform='translate(920.0,683.0) scale(2.25)' color='black'/>
	<use xlink:href='#gpPt5' transform='translate(932.9,682.4) scale(2.25)' color='black'/>
	<use xlink:href='#gpPt5' transform='translate(945.8,680.6) scale(2.25)' color='black'/>
	<use xlink:href='#gpPt5' transform='translate(958.7,679.8) scale(2.25)' color='black'/>
	<use xlink:href='#gpPt5' transform='translate(971.5,676.6) scale(2.25)' color='black'/>
	<use xlink:href='#gpPt5' transform='translate(984.4,672.1) scale(2.25)' color='black'/>
	<use xlink:href='#gpPt5' transform='translate(997.3,667.3) scale(2.25)' color='black'/>
	<use xlink:href='#gpPt5' transform='translate(1010.2,660.8) scale(2.25)' color='black'/>
	<use xlink:href='#gpPt5' transform='translate(1023.1,657.0) scale(2.25)' color='black'/>
	<use xlink:href='#gpPt5' transform='translate(1036.0,652.6) scale(2.25)' color='black'/>
	<use xlink:href='#gpPt5' transform='translate(1048.8,647.3) scale(2.25)' color='black'/>
	<use xlink:href='#gpPt5' transform='translate(1061.7,644.6) scale(2.25)' color='black'/>
	<use xlink:href='#gpPt5' transform='translate(1074.6,640.2) scale(2.25)' color='black'/>
	<use xlink:href='#gpPt5' transform='translate(1087.5,639.2) scale(2.25)' color='black'/>
	<use xlink:href='#gpPt5' transform='translate(1100.4,639.7) scale(2.25)' color='black'/>
	<use xlink:href='#gpPt5' transform='translate(1113.3,644.2) scale(2.25)' color='black'/>
	<use xlink:href='#gpPt5' transform='translate(1126.2,647.8) scale(2.25)' color='black'/>
	<use xlink:href='#gpPt5' transform='translate(1139.0,655.6) scale(2.25)' color='black'/>
	<use xlink:href='#gpPt5' transform='translate(1151.9,660.9) scale(2.25)' color='black'/>
	<use xlink:href='#gpPt5' transform='translate(1164.8,664.2) scale(2.25)' color='black'/>
	<use xlink:href='#gpPt5' transform='translate(1177.7,661.9) scale(2.25)' color='black'/>
	<use xlink:href='#gpPt5' transform='translate(1190.6,643.6) scale(2.25)' color='black'/>
	<use xlink:href='#gpPt5' transform='translate(1203.5,638.0) scale(2.25)' color='black'/>
	<use xlink:href='#gpPt5' transform='translate(1216.3,636.3) scale(2.25)' color='black'/>
	<use xlink:href='#gpPt5' transform='translate(1229.2,623.6) scale(2.25)' color='black'/>
	<use xlink:href='#gpPt5' transform='translate(1242.1,599.2) scale(2.25)' color='black'/>
	<use xlink:href='#gpPt5' transform='translate(1248.6,577.6) scale(2.25)' color='black'/>
	<use xlink:href='#gpPt5' transform='translate(1251.8,550.6) scale(2.25)' color='black'/>
	<use xlink:href='#gpPt5' transform='translate(1255.0,501.8) scale(2.25)' color='black'/>
	<use xlink:href='#gpPt5' transform='translate(1217.3,72.1) scale(2.25)' color='black'/>
</g>
	</g>
	<g id="gnuplot_plot_2" ><title>2 (convex)</title>
<g fill="none" color="black" stroke="currentColor" stroke-width="1.00" stroke-linecap="butt" stroke-linejoin="miter">
	<g transform="translate(1187.9,94.0)" stroke="none" fill="black" font-family="Arial" font-size="12.00"  text-anchor="end">
		<text><tspan font-family="Arial" >2 (convex)</tspan></text>
	</g>
</g>
<g fill="none" color="black" stroke="currentColor" stroke-width="1.00" stroke-linecap="butt" stroke-linejoin="miter">
	<path stroke='rgb(  0, 158, 115)'  d='M1196.2,90.1 L1238.4,90.1 M95.4,63.2 L96.5,177.2 L97.7,250.8 L98.8,296.3 L99.9,329.1 L101.1,354.5
		L102.2,375.4 L103.3,393.0 L104.5,408.2 L105.6,421.6 L106.7,433.5 L107.9,444.2 L109.0,454.0 L110.1,462.8
		L111.3,470.9 L112.4,478.4 L113.5,485.3 L114.7,491.7 L115.8,497.6 L116.9,503.1 L118.1,508.3 L119.2,513.0
		L120.3,517.5 L121.5,521.6 L122.6,525.5 L123.7,529.1 L124.9,532.4 L126.0,535.6 L127.1,538.5 L128.3,541.2
		L129.4,543.8 L130.5,546.2 L131.7,548.4 L132.8,550.5 L133.9,552.4 L135.1,554.2 L136.2,555.9 L137.3,557.5
		L138.5,559.0 L139.6,560.4 L140.7,561.7 L141.9,562.9 L143.0,564.0 L144.1,565.1 L145.3,566.1 L146.4,567.1
		L147.5,567.9 L148.7,568.8 L149.8,569.6 L150.9,570.3 L152.1,571.0 L153.2,571.7 L154.3,572.3 L155.5,572.9
		L156.6,573.4 L157.7,573.9 L158.9,574.4 L160.0,574.9 L161.1,575.3 L162.3,575.8 L163.4,576.2 L164.5,576.6
		L165.7,576.9 L166.8,577.3 L167.9,577.6 L169.1,577.9 L170.2,578.2 L171.3,578.5 L172.5,578.8 L173.6,579.1
		L174.7,579.3 L175.9,579.6 L177.0,579.8 L178.1,580.1 L179.3,580.3 L180.4,580.5 L181.5,580.7 L182.7,580.9
		L183.8,581.1 L184.9,581.3 L186.1,581.5 L187.2,581.7 L188.3,581.9 L189.5,582.0 L190.6,582.2 L191.7,582.4
		L192.9,582.5 L194.0,582.7 L195.2,582.8 L196.3,583.0 L197.4,583.1 L198.6,583.3 L199.7,583.4 L200.8,583.6
		L202.0,583.7 L203.1,583.9 L204.2,584.0 L205.4,584.1 L206.5,584.2 L207.6,584.4 L208.8,584.5 L209.9,584.6
		L211.0,584.8 L212.2,584.9 L213.3,585.0 L214.4,585.1 L215.6,585.2 L216.7,585.4 L217.8,585.5 L219.0,585.6
		L220.1,585.7 L221.2,585.8 L222.4,585.9 L223.5,586.1 L224.6,586.2 L225.8,586.3 L226.9,586.4 L228.0,586.5
		L229.2,586.6 L230.3,586.7 L231.4,586.9 L232.6,587.0 L233.7,587.1 L234.8,587.2 L236.0,587.3 L237.1,587.4
		L238.2,587.5 L239.4,587.6 L240.5,587.7 L241.6,587.8 L242.8,588.0 L243.9,588.1 L245.0,588.2 L246.2,588.3
		L247.3,588.4 L248.4,588.5 L249.6,588.6 L250.7,588.7 L251.8,588.8 L253.0,588.9 L254.1,589.0 L255.2,589.2
		L256.4,589.3 L257.5,589.4 L258.6,589.5 L259.8,589.6 L260.9,589.7 L262.0,589.8 L263.2,589.9 L264.3,590.0
		L265.4,590.2 L266.6,590.3 L267.7,590.4 L268.8,590.5 L270.0,590.6 L271.1,590.7 L272.2,590.8 L273.4,590.9
		L274.5,591.0 L275.6,591.2 L276.8,591.3 L277.9,591.4 L279.0,591.5 L280.2,591.6 L281.3,591.7 L282.4,591.8
		L283.6,591.9 L284.7,592.1 L285.8,592.2 L287.0,592.3 L288.1,592.4 L289.2,592.5 L290.4,592.6 L291.5,592.7
		L292.6,592.9 L293.8,593.0 L294.9,593.1 L296.0,593.2 L297.2,593.3 L298.3,593.4 L299.4,593.6 L300.6,593.7
		L301.7,593.8 L302.8,593.9 L304.0,594.0 L305.1,594.1 L306.2,594.3 L307.4,594.4 L308.5,594.5 L309.6,594.6
		L310.8,594.7 L311.9,594.9 L313.0,595.0 L314.2,595.1 L315.3,595.2 L316.4,595.3 L317.6,595.5 L318.7,595.6
		L319.8,595.7 L321.0,595.8 L322.1,595.9 L323.2,596.1 L324.4,596.2 L325.5,596.3 L326.6,596.4 L327.8,596.5
		L328.9,596.7 L330.0,596.8 L331.2,596.9 L332.3,597.0 L333.4,597.2 L334.6,597.3 L335.7,597.4 L336.8,597.5
		L338.0,597.7 L339.1,597.8 L340.2,597.9 L341.4,598.0 L342.5,598.2 L343.6,598.3 L344.8,598.4 L345.9,598.5
		L347.0,598.6 L348.2,598.8 L349.3,598.9 L350.4,599.0 L351.6,599.2 L352.7,599.3 L353.8,599.4 L355.0,599.5
		L356.1,599.7 L357.2,599.8 L358.4,599.9 L359.5,600.0 L360.6,600.2 L361.8,600.3 L362.9,600.4 L364.0,600.5
		L365.2,600.7 L366.3,600.8 L367.4,600.9 L368.6,601.1 L369.7,601.2 L370.8,601.3 L372.0,601.4 L373.1,601.6
		L374.2,601.7 L375.4,601.8 L376.5,601.9 L377.6,602.1 L378.8,602.2 L379.9,602.3 L381.0,602.5 L382.2,602.6
		L383.3,602.7 L384.4,602.8 L385.6,603.0 L386.7,603.1 L387.9,603.2 L389.0,603.4 L390.1,603.5 L391.3,603.6
		L392.4,603.8 L393.5,603.9 L394.7,604.0 L395.8,604.1 L396.9,604.3 L398.1,604.4 L399.2,604.5 L400.3,604.7
		L401.5,604.8 L402.6,604.9 L403.7,605.1 L404.9,605.2 L406.0,605.3 L407.1,605.4 L408.3,605.6 L409.4,605.7
		L410.5,605.8 L411.7,606.0 L412.8,606.1 L413.9,606.2 L415.1,606.4 L416.2,606.5 L417.3,606.6 L418.5,606.8
		L419.6,606.9 L420.7,607.0 L421.9,607.1 L423.0,607.3 L424.1,607.4 L425.3,607.5 L426.4,607.7 L427.5,607.8
		L428.7,607.9 L429.8,608.1 L430.9,608.2 L432.1,608.3 L433.2,608.5 L434.3,608.6 L435.5,608.7 L436.6,608.9
		L437.7,609.0 L438.9,609.1 L440.0,609.2 L441.1,609.4 L442.3,609.5 L443.4,609.6 L444.5,609.8 L445.7,609.9
		L446.8,610.0 L447.9,610.2 L449.1,610.3 L450.2,610.4 L451.3,610.6 L452.5,610.7 L453.6,610.8 L454.7,610.9
		L455.9,611.1 L457.0,611.2 L458.1,611.3 L459.3,611.5 L460.4,611.6 L461.5,611.7 L462.7,611.9 L463.8,612.0
		L464.9,612.1 L466.1,612.3 L467.2,612.4 L468.3,612.5 L469.5,612.6 L470.6,612.8 L471.7,612.9 L472.9,613.0
		L474.0,613.2 L475.1,613.3 L476.3,613.4 L477.4,613.6 L478.5,613.7 L479.7,613.8 L480.8,613.9 L481.9,614.1
		L483.1,614.2 L484.2,614.3 L485.3,614.5 L486.5,614.6 L487.6,614.7 L488.7,614.8 L489.9,615.0 L491.0,615.1
		L492.1,615.2 L493.3,615.4 L494.4,615.5 L495.5,615.6 L496.7,615.8 L497.8,615.9 L498.9,616.0 L500.1,616.1
		L501.2,616.3 L502.3,616.4 L503.5,616.5 L504.6,616.7 L505.7,616.8 L506.9,616.9 L508.0,617.0 L509.1,617.2
		L510.3,617.3 L511.4,617.4 L512.5,617.5 L513.7,617.7 L514.8,617.8 L515.9,617.9 L517.1,618.1 L518.2,618.2
		L519.3,618.3 L520.5,618.4 L521.6,618.6 L522.7,618.7 L523.9,618.8 L525.0,618.9 L526.1,619.1 L527.3,619.2
		L528.4,619.3 L529.5,619.4 L530.7,619.6 L531.8,619.7 L532.9,619.8 L534.1,619.9 L535.2,620.1 L536.3,620.2
		L537.5,620.3 L538.6,620.4 L539.7,620.6 L540.9,620.7 L542.0,620.8 L543.1,620.9 L544.3,621.1 L545.4,621.2
		L546.5,621.3 L547.7,621.4 L548.8,621.6 L549.9,621.7 L551.1,621.8 L552.2,621.9 L553.3,622.1 L554.5,622.2
		L555.6,622.3 L556.7,622.4 L557.9,622.6 L559.0,622.7 L560.1,622.8 L561.3,622.9 L562.4,623.0 L563.5,623.2
		L564.7,623.3 L565.8,623.4 L566.9,623.5 L568.1,623.6 L569.2,623.8 L570.3,623.9 L571.5,624.0 L572.6,624.1
		L573.7,624.3 L574.9,624.4 L576.0,624.5 L577.1,624.6 L578.3,624.7 L579.4,624.9 L580.6,625.0 L581.7,625.1
		L582.8,625.2 L584.0,625.3 L585.1,625.5 L586.2,625.6 L587.4,625.7 L588.5,625.8 L589.6,625.9 L590.8,626.0
		L591.9,626.2 L593.0,626.3 L594.2,626.4 L595.3,626.5 L596.4,626.6 L597.6,626.8 L598.7,626.9 L599.8,627.0
		L601.0,627.1 L602.1,627.2 L603.2,627.3 L604.4,627.5 L605.5,627.6 L606.6,627.7 L607.8,627.8 L608.9,627.9
		L610.0,628.0 L611.2,628.1 L612.3,628.3 L613.4,628.4 L614.6,628.5 L615.7,628.6 L616.8,628.7 L618.0,628.8
		L619.1,628.9 L620.2,629.1 L621.4,629.2 L622.5,629.3 L623.6,629.4 L624.8,629.5 L625.9,629.6 L627.0,629.7
		L628.2,629.9 L629.3,630.0 L630.4,630.1 L631.6,630.2 L632.7,630.3 L633.8,630.4 L635.0,630.5 L636.1,630.6
		L637.2,630.8 L638.4,630.9 L639.5,631.0 L640.6,631.1 L641.8,631.2 L642.9,631.3 L644.0,631.4 L645.2,631.5
		L646.3,631.6 L647.4,631.7 L648.6,631.9 L649.7,632.0 L650.8,632.1 L652.0,632.2 L653.1,632.3 L654.2,632.4
		L655.4,632.5 L656.5,632.6 L657.6,632.7 L658.8,632.8 L659.9,632.9 L661.0,633.1 L662.2,633.2 L663.3,633.3
		L664.4,633.4 L665.6,633.5 L666.7,633.6 L667.8,633.7 L669.0,633.8 L670.1,633.9 L671.2,634.0 L672.4,634.1
		L673.5,634.2 L674.6,634.3 L675.8,634.4 L676.9,634.5 L678.0,634.6 L679.2,634.7 L680.3,634.8 L681.4,635.0
		L682.6,635.1 L683.7,635.2 L684.8,635.3 L686.0,635.4 L687.1,635.5 L688.2,635.6 L689.4,635.7 L690.5,635.8
		L691.6,635.9 L692.8,636.0 L693.9,636.1 L695.0,636.2 L696.2,636.3 L697.3,636.4 L698.4,636.5 L699.6,636.6
		L700.7,636.7 L701.8,636.8 L703.0,636.9 L704.1,637.0 L705.2,637.1 L706.4,637.2 L707.5,637.3 L708.6,637.4
		L709.8,637.5 L710.9,637.6 L712.0,637.7 L713.2,637.8 L714.3,637.9 L715.4,638.0 L716.6,638.1 L717.7,638.2
		L718.8,638.3 L720.0,638.4 L721.1,638.5 L722.2,638.6 L723.4,638.7 L724.5,638.8 L725.6,638.9 L726.8,639.0
		L727.9,639.1 L729.0,639.1 L730.2,639.2 L731.3,639.3 L732.4,639.4 L733.6,639.5 L734.7,639.6 L735.8,639.7
		L737.0,639.8 L738.1,639.9 L739.2,640.0 L740.4,640.1 L741.5,640.2 L742.6,640.3 L743.8,640.4 L744.9,640.5
		L746.0,640.6 L747.2,640.7 L748.3,640.7 L749.4,640.8 L750.6,640.9 L751.7,641.0 L752.8,641.1 L754.0,641.2
		L755.1,641.3 L756.2,641.4 L757.4,641.5 L758.5,641.6 L759.6,641.7 L760.8,641.7 L761.9,641.8 L763.0,641.9
		L764.2,642.0 L765.3,642.1 L766.4,642.2 L767.6,642.3 L768.7,642.4 L769.8,642.5 L771.0,642.5 L772.1,642.6
		L773.3,642.7 L774.4,642.8 L775.5,642.9 L776.7,643.0 L777.8,643.1 L778.9,643.2 L780.1,643.2 L781.2,643.3
		L782.3,643.4 L783.5,643.5 L784.6,643.6 L785.7,643.7 L786.9,643.8 L788.0,643.8 L789.1,643.9 L790.3,644.0
		L791.4,644.1 L792.5,644.2 L793.7,644.3 L794.8,644.4 L795.9,644.4 L797.1,644.5 L798.2,644.6 L799.3,644.7
		L800.5,644.8 L801.6,644.9 L802.7,644.9 L803.9,645.0 L805.0,645.1 L806.1,645.2 L807.3,645.3 L808.4,645.3
		L809.5,645.4 L810.7,645.5 L811.8,645.6 L812.9,645.7 L814.1,645.7 L815.2,645.8 L816.3,645.9 L817.5,646.0
		L818.6,646.1 L819.7,646.1 L820.9,646.2 L822.0,646.3 L823.1,646.4 L824.3,646.5 L825.4,646.5 L826.5,646.6
		L827.7,646.7 L828.8,646.8 L829.9,646.8 L831.1,646.9 L832.2,647.0 L833.3,647.1 L834.5,647.2 L835.6,647.2
		L836.7,647.3 L837.9,647.4 L839.0,647.5 L840.1,647.5 L841.3,647.6 L842.4,647.7 L843.5,647.8 L844.7,647.8
		L845.8,647.9 L846.9,648.0 L848.1,648.1 L849.2,648.1 L850.3,648.2 L851.5,648.3 L852.6,648.4 L853.7,648.4
		L854.9,648.5 L856.0,648.6 L857.1,648.6 L858.3,648.7 L859.4,648.8 L860.5,648.9 L861.7,648.9 L862.8,649.0
		L863.9,649.1 L865.1,649.1 L866.2,649.2 L867.3,649.3 L868.5,649.4 L869.6,649.4 L870.7,649.5 L871.9,649.6
		L873.0,649.6 L874.1,649.7 L875.3,649.8 L876.4,649.8 L877.5,649.9 L878.7,650.0 L879.8,650.0 L880.9,650.1
		L882.1,650.2 L883.2,650.2 L884.3,650.3 L885.5,650.4 L886.6,650.5 L887.7,650.5 L888.9,650.6 L890.0,650.7
		L891.1,650.7 L892.3,650.8 L893.4,650.8 L894.5,650.9 L895.7,651.0 L896.8,651.0 L897.9,651.1 L899.1,651.2
		L900.2,651.2 L901.3,651.3 L902.5,651.4 L903.6,651.4 L904.7,651.5 L905.9,651.6 L907.0,651.6 L908.1,651.7
		L909.3,651.7 L910.4,651.8 L911.5,651.9 L912.7,651.9 L913.8,652.0 L914.9,652.1 L916.1,652.1 L917.2,652.2
		L918.3,652.2 L919.5,652.3 L920.6,652.4 L921.7,652.4 L922.9,652.5 L924.0,652.5 L925.1,652.6 L926.3,652.7
		L927.4,652.7 L928.5,652.8 L929.7,652.8 L930.8,652.9 L931.9,653.0 L933.1,653.0 L934.2,653.1 L935.3,653.1
		L936.5,653.2 L937.6,653.2 L938.7,653.3 L939.9,653.4 L941.0,653.4 L942.1,653.5 L943.3,653.5 L944.4,653.6
		L945.5,653.6 L946.7,653.7 L947.8,653.8 L948.9,653.8 L950.1,653.9 L951.2,653.9 L952.3,654.0 L953.5,654.0
		L954.6,654.1 L955.7,654.1 L956.9,654.2 L958.0,654.2 L959.1,654.3 L960.3,654.4 L961.4,654.4 L962.5,654.5
		L963.7,654.5 L964.8,654.6 L966.0,654.6 L967.1,654.7 L968.2,654.7 L969.4,654.8 L970.5,654.8 L971.6,654.9
		L972.8,654.9 L973.9,655.0 L975.0,655.0 L976.2,655.1 L977.3,655.1 L978.4,655.2 L979.6,655.2 L980.7,655.3
		L981.8,655.3 L983.0,655.4 L984.1,655.4 L985.2,655.5 L986.4,655.5 L987.5,655.6 L988.6,655.6 L989.8,655.7
		L990.9,655.7 L992.0,655.8 L993.2,655.8 L994.3,655.9 L995.4,655.9 L996.6,655.9 L997.7,656.0 L998.8,656.0
		L1000.0,656.1 L1001.1,656.1 L1002.2,656.2 L1003.4,656.2 L1004.5,656.3 L1005.6,656.3 L1006.8,656.4 L1007.9,656.4
		L1009.0,656.4 L1010.2,656.5 L1011.3,656.5 L1012.4,656.6 L1013.6,656.6 L1014.7,656.7 L1015.8,656.7 L1017.0,656.8
		L1018.1,656.8 L1019.2,656.8 L1020.4,656.9 L1021.5,656.9 L1022.6,657.0 L1023.8,657.0 L1024.9,657.0 L1026.0,657.1
		L1027.2,657.1 L1028.3,657.2 L1029.4,657.2 L1030.6,657.3 L1031.7,657.3 L1032.8,657.3 L1034.0,657.4 L1035.1,657.4
		L1036.2,657.4 L1037.4,657.5 L1038.5,657.5 L1039.6,657.6 L1040.8,657.6 L1041.9,657.6 L1043.0,657.7 L1044.2,657.7
		L1045.3,657.8 L1046.4,657.8 L1047.6,657.8 L1048.7,657.9 L1049.8,657.9 L1051.0,657.9 L1052.1,658.0 L1053.2,658.0
		L1054.4,658.1 L1055.5,658.1 L1056.6,658.1 L1057.8,658.2 L1058.9,658.2 L1060.0,658.2 L1061.2,658.3 L1062.3,658.3
		L1063.4,658.3 L1064.6,658.4 L1065.7,658.4 L1066.8,658.4 L1068.0,658.5 L1069.1,658.5 L1070.2,658.5 L1071.4,658.6
		L1072.5,658.6 L1073.6,658.6 L1074.8,658.7 L1075.9,658.7 L1077.0,658.7 L1078.2,658.8 L1079.3,658.8 L1080.4,658.8
		L1081.6,658.9 L1082.7,658.9 L1083.8,658.9 L1085.0,659.0 L1086.1,659.0 L1087.2,659.0 L1088.4,659.0 L1089.5,659.1
		L1090.6,659.1 L1091.8,659.1 L1092.9,659.2 L1094.0,659.2 L1095.2,659.2 L1096.3,659.2 L1097.4,659.3 L1098.6,659.3
		L1099.7,659.3 L1100.8,659.4 L1102.0,659.4 L1103.1,659.4 L1104.2,659.4 L1105.4,659.5 L1106.5,659.5 L1107.6,659.5
		L1108.8,659.5 L1109.9,659.6 L1111.0,659.6 L1112.2,659.6 L1113.3,659.6 L1114.4,659.7 L1115.6,659.7 L1116.7,659.7
		L1117.8,659.7 L1119.0,659.8 L1120.1,659.8 L1121.2,659.8 L1122.4,659.8 L1123.5,659.9 L1124.6,659.9 L1125.8,659.9
		L1126.9,659.9 L1128.0,660.0 L1129.2,660.0 L1130.3,660.0 L1131.4,660.0 L1132.6,660.1 L1133.7,660.1 L1134.8,660.1
		L1136.0,660.1 L1137.1,660.1 L1138.2,660.2 L1139.4,660.2 L1140.5,660.2 L1141.6,660.2 L1142.8,660.2 L1143.9,660.3
		L1145.0,660.3 L1146.2,660.3 L1147.3,660.3 L1148.4,660.3 L1149.6,660.4 L1150.7,660.4 L1151.8,660.4 L1153.0,660.4
		L1154.1,660.4 L1155.2,660.4 L1156.4,660.5 L1157.5,660.5 L1158.7,660.5 L1159.8,660.5 L1160.9,660.5 L1162.1,660.6
		L1163.2,660.6 L1164.3,660.6 L1165.5,660.6 L1166.6,660.6 L1167.7,660.6 L1168.9,660.6 L1170.0,660.7 L1171.1,660.7
		L1172.3,660.7 L1173.4,660.7 L1174.5,660.7 L1175.7,660.7 L1176.8,660.8 L1177.9,660.8 L1179.1,660.8 L1180.2,660.8
		L1181.3,660.8 L1182.5,660.8 L1183.6,660.8 L1184.7,660.8 L1185.9,660.9 L1187.0,660.9 L1188.1,660.9 L1189.3,660.9
		L1190.4,660.9 L1191.5,660.9 L1192.7,660.9 L1193.8,660.9 L1194.9,660.9 L1196.1,661.0 L1197.2,661.0 L1198.3,661.0
		L1199.5,661.0 L1200.6,661.0 L1201.7,661.0 L1202.9,661.0 L1204.0,661.0 L1205.1,661.0 L1206.3,661.0 L1207.4,661.1
		L1208.5,661.1 L1209.7,661.1 L1210.8,661.1 L1211.9,661.1 L1213.1,661.1 L1214.2,661.1 L1215.3,661.1 L1216.5,661.1
		L1217.6,661.1 L1218.7,661.1 L1219.9,661.1 L1221.0,661.1 L1222.1,661.1 L1223.3,661.2 L1224.4,661.2 L1225.5,661.2
		L1226.7,661.2 L1227.8,661.2 L1228.9,661.2 L1230.1,661.2 L1231.2,661.2 L1232.3,661.2 L1233.5,661.2 L1234.6,661.2
		L1235.7,661.2 L1236.9,661.2 L1238.0,661.2 L1239.1,661.2 L1240.3,661.2 L1241.4,661.2 L1242.5,661.2 L1243.7,661.2
		L1244.8,661.2 L1245.9,661.2 L1247.1,661.2 L1248.2,661.2 L1249.3,661.2 L1250.5,661.2 L1251.6,661.2 L1252.7,661.2
		L1253.9,661.2 L1255.0,661.2  '/></g>
	</g>
	<g id="gnuplot_plot_3" ><title>4 (convex)</title>
<g fill="none" color="black" stroke="currentColor" stroke-width="1.00" stroke-linecap="butt" stroke-linejoin="miter">
	<g transform="translate(1187.9,112.0)" stroke="none" fill="black" font-family="Arial" font-size="12.00"  text-anchor="end">
		<text><tspan font-family="Arial" >4 (convex)</tspan></text>
	</g>
</g>
<g fill="none" color="black" stroke="currentColor" stroke-width="1.00" stroke-linecap="butt" stroke-linejoin="miter">
	<path stroke='rgb( 86, 180, 233)'  d='M1196.2,108.1 L1238.4,108.1 M95.4,54.1 L96.5,184.6 L97.7,251.6 L98.8,295.5 L99.9,327.6 L101.1,352.8
		L102.2,373.4 L103.3,390.9 L104.5,406.1 L105.6,419.4 L106.7,431.2 L107.9,441.9 L109.0,451.5 L110.1,460.3
		L111.3,468.3 L112.4,475.7 L113.5,482.5 L114.7,488.8 L115.8,494.6 L116.9,500.0 L118.1,504.9 L119.2,509.6
		L120.3,513.9 L121.5,517.9 L122.6,521.6 L123.7,525.0 L124.9,528.2 L126.0,531.2 L127.1,534.0 L128.3,536.6
		L129.4,539.0 L130.5,541.2 L131.7,543.3 L132.8,545.2 L133.9,547.0 L135.1,548.7 L136.2,550.3 L137.3,551.7
		L138.5,553.1 L139.6,554.4 L140.7,555.6 L141.9,556.7 L143.0,557.7 L144.1,558.7 L145.3,559.6 L146.4,560.5
		L147.5,561.3 L148.7,562.0 L149.8,562.7 L150.9,563.4 L152.1,564.0 L153.2,564.6 L154.3,565.2 L155.5,565.7
		L156.6,566.3 L157.7,566.7 L158.9,567.2 L160.0,567.6 L161.1,568.1 L162.3,568.5 L163.4,568.8 L164.5,569.2
		L165.7,569.5 L166.8,569.9 L167.9,570.2 L169.1,570.5 L170.2,570.8 L171.3,571.1 L172.5,571.4 L173.6,571.6
		L174.7,571.9 L175.9,572.1 L177.0,572.4 L178.1,572.6 L179.3,572.9 L180.4,573.1 L181.5,573.3 L182.7,573.5
		L183.8,573.7 L184.9,573.9 L186.1,574.1 L187.2,574.3 L188.3,574.5 L189.5,574.7 L190.6,574.9 L191.7,575.1
		L192.9,575.2 L194.0,575.4 L195.2,575.6 L196.3,575.8 L197.4,575.9 L198.6,576.1 L199.7,576.3 L200.8,576.4
		L202.0,576.6 L203.1,576.7 L204.2,576.9 L205.4,577.1 L206.5,577.2 L207.6,577.4 L208.8,577.5 L209.9,577.7
		L211.0,577.8 L212.2,578.0 L213.3,578.1 L214.4,578.3 L215.6,578.4 L216.7,578.6 L217.8,578.7 L219.0,578.9
		L220.1,579.0 L221.2,579.2 L222.4,579.3 L223.5,579.5 L224.6,579.6 L225.8,579.8 L226.9,579.9 L228.0,580.1
		L229.2,580.2 L230.3,580.4 L231.4,580.5 L232.6,580.7 L233.7,580.8 L234.8,581.0 L236.0,581.1 L237.1,581.3
		L238.2,581.4 L239.4,581.6 L240.5,581.7 L241.6,581.9 L242.8,582.0 L243.9,582.1 L245.0,582.3 L246.2,582.4
		L247.3,582.6 L248.4,582.7 L249.6,582.9 L250.7,583.0 L251.8,583.2 L253.0,583.3 L254.1,583.5 L255.2,583.6
		L256.4,583.8 L257.5,583.9 L258.6,584.1 L259.8,584.2 L260.9,584.4 L262.0,584.5 L263.2,584.7 L264.3,584.9
		L265.4,585.0 L266.6,585.2 L267.7,585.3 L268.8,585.5 L270.0,585.6 L271.1,585.8 L272.2,585.9 L273.4,586.1
		L274.5,586.2 L275.6,586.4 L276.8,586.5 L277.9,586.7 L279.0,586.9 L280.2,587.0 L281.3,587.2 L282.4,587.3
		L283.6,587.5 L284.7,587.6 L285.8,587.8 L287.0,588.0 L288.1,588.1 L289.2,588.3 L290.4,588.4 L291.5,588.6
		L292.6,588.8 L293.8,588.9 L294.9,589.1 L296.0,589.2 L297.2,589.4 L298.3,589.6 L299.4,589.7 L300.6,589.9
		L301.7,590.0 L302.8,590.2 L304.0,590.4 L305.1,590.5 L306.2,590.7 L307.4,590.9 L308.5,591.0 L309.6,591.2
		L310.8,591.3 L311.9,591.5 L313.0,591.7 L314.2,591.8 L315.3,592.0 L316.4,592.2 L317.6,592.3 L318.7,592.5
		L319.8,592.7 L321.0,592.8 L322.1,593.0 L323.2,593.2 L324.4,593.3 L325.5,593.5 L326.6,593.7 L327.8,593.8
		L328.9,594.0 L330.0,594.2 L331.2,594.3 L332.3,594.5 L333.4,594.7 L334.6,594.8 L335.7,595.0 L336.8,595.2
		L338.0,595.3 L339.1,595.5 L340.2,595.7 L341.4,595.8 L342.5,596.0 L343.6,596.2 L344.8,596.3 L345.9,596.5
		L347.0,596.7 L348.2,596.8 L349.3,597.0 L350.4,597.2 L351.6,597.3 L352.7,597.5 L353.8,597.7 L355.0,597.9
		L356.1,598.0 L357.2,598.2 L358.4,598.4 L359.5,598.5 L360.6,598.7 L361.8,598.9 L362.9,599.0 L364.0,599.2
		L365.2,599.4 L366.3,599.6 L367.4,599.7 L368.6,599.9 L369.7,600.1 L370.8,600.2 L372.0,600.4 L373.1,600.6
		L374.2,600.7 L375.4,600.9 L376.5,601.1 L377.6,601.3 L378.8,601.4 L379.9,601.6 L381.0,601.8 L382.2,601.9
		L383.3,602.1 L384.4,602.3 L385.6,602.5 L386.7,602.6 L387.9,602.8 L389.0,603.0 L390.1,603.1 L391.3,603.3
		L392.4,603.5 L393.5,603.6 L394.7,603.8 L395.8,604.0 L396.9,604.2 L398.1,604.3 L399.2,604.5 L400.3,604.7
		L401.5,604.8 L402.6,605.0 L403.7,605.2 L404.9,605.4 L406.0,605.5 L407.1,605.7 L408.3,605.9 L409.4,606.0
		L410.5,606.2 L411.7,606.4 L412.8,606.5 L413.9,606.7 L415.1,606.9 L416.2,607.1 L417.3,607.2 L418.5,607.4
		L419.6,607.6 L420.7,607.7 L421.9,607.9 L423.0,608.1 L424.1,608.2 L425.3,608.4 L426.4,608.6 L427.5,608.8
		L428.7,608.9 L429.8,609.1 L430.9,609.3 L432.1,609.4 L433.2,609.6 L434.3,609.8 L435.5,609.9 L436.6,610.1
		L437.7,610.3 L438.9,610.4 L440.0,610.6 L441.1,610.8 L442.3,610.9 L443.4,611.1 L444.5,611.3 L445.7,611.4
		L446.8,611.6 L447.9,611.8 L449.1,611.9 L450.2,612.1 L451.3,612.3 L452.5,612.4 L453.6,612.6 L454.7,612.8
		L455.9,612.9 L457.0,613.1 L458.1,613.3 L459.3,613.4 L460.4,613.6 L461.5,613.8 L462.7,613.9 L463.8,614.1
		L464.9,614.3 L466.1,614.4 L467.2,614.6 L468.3,614.8 L469.5,614.9 L470.6,615.1 L471.7,615.3 L472.9,615.4
		L474.0,615.6 L475.1,615.7 L476.3,615.9 L477.4,616.1 L478.5,616.2 L479.7,616.4 L480.8,616.6 L481.9,616.7
		L483.1,616.9 L484.2,617.0 L485.3,617.2 L486.5,617.4 L487.6,617.5 L488.7,617.7 L489.9,617.9 L491.0,618.0
		L492.1,618.2 L493.3,618.3 L494.4,618.5 L495.5,618.7 L496.7,618.8 L497.8,619.0 L498.9,619.1 L500.1,619.3
		L501.2,619.5 L502.3,619.6 L503.5,619.8 L504.6,619.9 L505.7,620.1 L506.9,620.3 L508.0,620.4 L509.1,620.6
		L510.3,620.7 L511.4,620.9 L512.5,621.0 L513.7,621.2 L514.8,621.4 L515.9,621.5 L517.1,621.7 L518.2,621.8
		L519.3,622.0 L520.5,622.1 L521.6,622.3 L522.7,622.5 L523.9,622.6 L525.0,622.8 L526.1,622.9 L527.3,623.1
		L528.4,623.2 L529.5,623.4 L530.7,623.5 L531.8,623.7 L532.9,623.8 L534.1,624.0 L535.2,624.2 L536.3,624.3
		L537.5,624.5 L538.6,624.6 L539.7,624.8 L540.9,624.9 L542.0,625.1 L543.1,625.2 L544.3,625.4 L545.4,625.5
		L546.5,625.7 L547.7,625.8 L548.8,626.0 L549.9,626.1 L551.1,626.3 L552.2,626.4 L553.3,626.6 L554.5,626.7
		L555.6,626.9 L556.7,627.0 L557.9,627.2 L559.0,627.3 L560.1,627.5 L561.3,627.6 L562.4,627.8 L563.5,627.9
		L564.7,628.1 L565.8,628.2 L566.9,628.4 L568.1,628.5 L569.2,628.6 L570.3,628.8 L571.5,628.9 L572.6,629.1
		L573.7,629.2 L574.9,629.4 L576.0,629.5 L577.1,629.7 L578.3,629.8 L579.4,629.9 L580.6,630.1 L581.7,630.2
		L582.8,630.4 L584.0,630.5 L585.1,630.7 L586.2,630.8 L587.4,631.0 L588.5,631.1 L589.6,631.2 L590.8,631.4
		L591.9,631.5 L593.0,631.7 L594.2,631.8 L595.3,631.9 L596.4,632.1 L597.6,632.2 L598.7,632.4 L599.8,632.5
		L601.0,632.6 L602.1,632.8 L603.2,632.9 L604.4,633.1 L605.5,633.2 L606.6,633.3 L607.8,633.5 L608.9,633.6
		L610.0,633.7 L611.2,633.9 L612.3,634.0 L613.4,634.2 L614.6,634.3 L615.7,634.4 L616.8,634.6 L618.0,634.7
		L619.1,634.8 L620.2,635.0 L621.4,635.1 L622.5,635.2 L623.6,635.4 L624.8,635.5 L625.9,635.6 L627.0,635.8
		L628.2,635.9 L629.3,636.0 L630.4,636.2 L631.6,636.3 L632.7,636.4 L633.8,636.6 L635.0,636.7 L636.1,636.8
		L637.2,637.0 L638.4,637.1 L639.5,637.2 L640.6,637.4 L641.8,637.5 L642.9,637.6 L644.0,637.8 L645.2,637.9
		L646.3,638.0 L647.4,638.1 L648.6,638.3 L649.7,638.4 L650.8,638.5 L652.0,638.7 L653.1,638.8 L654.2,638.9
		L655.4,639.0 L656.5,639.2 L657.6,639.3 L658.8,639.4 L659.9,639.5 L661.0,639.7 L662.2,639.8 L663.3,639.9
		L664.4,640.0 L665.6,640.2 L666.7,640.3 L667.8,640.4 L669.0,640.5 L670.1,640.7 L671.2,640.8 L672.4,640.9
		L673.5,641.0 L674.6,641.2 L675.8,641.3 L676.9,641.4 L678.0,641.5 L679.2,641.6 L680.3,641.8 L681.4,641.9
		L682.6,642.0 L683.7,642.1 L684.8,642.3 L686.0,642.4 L687.1,642.5 L688.2,642.6 L689.4,642.7 L690.5,642.9
		L691.6,643.0 L692.8,643.1 L693.9,643.2 L695.0,643.3 L696.2,643.4 L697.3,643.6 L698.4,643.7 L699.6,643.8
		L700.7,643.9 L701.8,644.0 L703.0,644.1 L704.1,644.3 L705.2,644.4 L706.4,644.5 L707.5,644.6 L708.6,644.7
		L709.8,644.8 L710.9,645.0 L712.0,645.1 L713.2,645.2 L714.3,645.3 L715.4,645.4 L716.6,645.5 L717.7,645.6
		L718.8,645.7 L720.0,645.9 L721.1,646.0 L722.2,646.1 L723.4,646.2 L724.5,646.3 L725.6,646.4 L726.8,646.5
		L727.9,646.6 L729.0,646.7 L730.2,646.9 L731.3,647.0 L732.4,647.1 L733.6,647.2 L734.7,647.3 L735.8,647.4
		L737.0,647.5 L738.1,647.6 L739.2,647.7 L740.4,647.8 L741.5,647.9 L742.6,648.0 L743.8,648.2 L744.9,648.3
		L746.0,648.4 L747.2,648.5 L748.3,648.6 L749.4,648.7 L750.6,648.8 L751.7,648.9 L752.8,649.0 L754.0,649.1
		L755.1,649.2 L756.2,649.3 L757.4,649.4 L758.5,649.5 L759.6,649.6 L760.8,649.7 L761.9,649.8 L763.0,649.9
		L764.2,650.0 L765.3,650.1 L766.4,650.2 L767.6,650.3 L768.7,650.4 L769.8,650.5 L771.0,650.6 L772.1,650.7
		L773.3,650.8 L774.4,650.9 L775.5,651.0 L776.7,651.1 L777.8,651.2 L778.9,651.3 L780.1,651.4 L781.2,651.5
		L782.3,651.6 L783.5,651.7 L784.6,651.8 L785.7,651.9 L786.9,652.0 L788.0,652.1 L789.1,652.2 L790.3,652.3
		L791.4,652.4 L792.5,652.5 L793.7,652.6 L794.8,652.7 L795.9,652.8 L797.1,652.9 L798.2,653.0 L799.3,653.1
		L800.5,653.2 L801.6,653.3 L802.7,653.4 L803.9,653.4 L805.0,653.5 L806.1,653.6 L807.3,653.7 L808.4,653.8
		L809.5,653.9 L810.7,654.0 L811.8,654.1 L812.9,654.2 L814.1,654.3 L815.2,654.4 L816.3,654.5 L817.5,654.5
		L818.6,654.6 L819.7,654.7 L820.9,654.8 L822.0,654.9 L823.1,655.0 L824.3,655.1 L825.4,655.2 L826.5,655.3
		L827.7,655.3 L828.8,655.4 L829.9,655.5 L831.1,655.6 L832.2,655.7 L833.3,655.8 L834.5,655.9 L835.6,655.9
		L836.7,656.0 L837.9,656.1 L839.0,656.2 L840.1,656.3 L841.3,656.4 L842.4,656.5 L843.5,656.5 L844.7,656.6
		L845.8,656.7 L846.9,656.8 L848.1,656.9 L849.2,657.0 L850.3,657.0 L851.5,657.1 L852.6,657.2 L853.7,657.3
		L854.9,657.4 L856.0,657.5 L857.1,657.5 L858.3,657.6 L859.4,657.7 L860.5,657.8 L861.7,657.9 L862.8,657.9
		L863.9,658.0 L865.1,658.1 L866.2,658.2 L867.3,658.3 L868.5,658.3 L869.6,658.4 L870.7,658.5 L871.9,658.6
		L873.0,658.6 L874.1,658.7 L875.3,658.8 L876.4,658.9 L877.5,658.9 L878.7,659.0 L879.8,659.1 L880.9,659.2
		L882.1,659.3 L883.2,659.3 L884.3,659.4 L885.5,659.5 L886.6,659.6 L887.7,659.6 L888.9,659.7 L890.0,659.8
		L891.1,659.8 L892.3,659.9 L893.4,660.0 L894.5,660.1 L895.7,660.1 L896.8,660.2 L897.9,660.3 L899.1,660.4
		L900.2,660.4 L901.3,660.5 L902.5,660.6 L903.6,660.6 L904.7,660.7 L905.9,660.8 L907.0,660.9 L908.1,660.9
		L909.3,661.0 L910.4,661.1 L911.5,661.1 L912.7,661.2 L913.8,661.3 L914.9,661.3 L916.1,661.4 L917.2,661.5
		L918.3,661.5 L919.5,661.6 L920.6,661.7 L921.7,661.7 L922.9,661.8 L924.0,661.9 L925.1,661.9 L926.3,662.0
		L927.4,662.1 L928.5,662.1 L929.7,662.2 L930.8,662.3 L931.9,662.3 L933.1,662.4 L934.2,662.5 L935.3,662.5
		L936.5,662.6 L937.6,662.6 L938.7,662.7 L939.9,662.8 L941.0,662.8 L942.1,662.9 L943.3,663.0 L944.4,663.0
		L945.5,663.1 L946.7,663.1 L947.8,663.2 L948.9,663.3 L950.1,663.3 L951.2,663.4 L952.3,663.4 L953.5,663.5
		L954.6,663.6 L955.7,663.6 L956.9,663.7 L958.0,663.7 L959.1,663.8 L960.3,663.9 L961.4,663.9 L962.5,664.0
		L963.7,664.0 L964.8,664.1 L966.0,664.1 L967.1,664.2 L968.2,664.3 L969.4,664.3 L970.5,664.4 L971.6,664.4
		L972.8,664.5 L973.9,664.5 L975.0,664.6 L976.2,664.6 L977.3,664.7 L978.4,664.8 L979.6,664.8 L980.7,664.9
		L981.8,664.9 L983.0,665.0 L984.1,665.0 L985.2,665.1 L986.4,665.1 L987.5,665.2 L988.6,665.2 L989.8,665.3
		L990.9,665.3 L992.0,665.4 L993.2,665.4 L994.3,665.5 L995.4,665.5 L996.6,665.6 L997.7,665.6 L998.8,665.7
		L1000.0,665.7 L1001.1,665.8 L1002.2,665.8 L1003.4,665.9 L1004.5,665.9 L1005.6,666.0 L1006.8,666.0 L1007.9,666.1
		L1009.0,666.1 L1010.2,666.2 L1011.3,666.2 L1012.4,666.3 L1013.6,666.3 L1014.7,666.3 L1015.8,666.4 L1017.0,666.4
		L1018.1,666.5 L1019.2,666.5 L1020.4,666.6 L1021.5,666.6 L1022.6,666.7 L1023.8,666.7 L1024.9,666.7 L1026.0,666.8
		L1027.2,666.8 L1028.3,666.9 L1029.4,666.9 L1030.6,666.9 L1031.7,667.0 L1032.8,667.0 L1034.0,667.1 L1035.1,667.1
		L1036.2,667.1 L1037.4,667.2 L1038.5,667.2 L1039.6,667.3 L1040.8,667.3 L1041.9,667.3 L1043.0,667.4 L1044.2,667.4
		L1045.3,667.5 L1046.4,667.5 L1047.6,667.5 L1048.7,667.6 L1049.8,667.6 L1051.0,667.6 L1052.1,667.7 L1053.2,667.7
		L1054.4,667.7 L1055.5,667.8 L1056.6,667.8 L1057.8,667.8 L1058.9,667.9 L1060.0,667.9 L1061.2,667.9 L1062.3,668.0
		L1063.4,668.0 L1064.6,668.0 L1065.7,668.1 L1066.8,668.1 L1068.0,668.1 L1069.1,668.2 L1070.2,668.2 L1071.4,668.2
		L1072.5,668.2 L1073.6,668.3 L1074.8,668.3 L1075.9,668.3 L1077.0,668.3 L1078.2,668.4 L1079.3,668.4 L1080.4,668.4
		L1081.6,668.4 L1082.7,668.5 L1083.8,668.5 L1085.0,668.5 L1086.1,668.5 L1087.2,668.6 L1088.4,668.6 L1089.5,668.6
		L1090.6,668.6 L1091.8,668.6 L1092.9,668.7 L1094.0,668.7 L1095.2,668.7 L1096.3,668.7 L1097.4,668.7 L1098.6,668.8
		L1099.7,668.8 L1100.8,668.8 L1102.0,668.8 L1103.1,668.8 L1104.2,668.8 L1105.4,668.8 L1106.5,668.9 L1107.6,668.9
		L1108.8,668.9 L1109.9,668.9 L1111.0,668.9 L1112.2,668.9 L1113.3,668.9 L1114.4,668.9 L1115.6,668.9 L1116.7,668.9
		L1117.8,668.9 L1119.0,668.9 L1120.1,668.9 L1121.2,668.9 L1122.4,668.9 L1123.5,668.9 L1124.6,668.9 L1125.8,668.9
		L1126.9,668.9 L1128.0,668.9 L1129.2,668.9 L1130.3,668.9 L1131.4,668.9 L1132.6,668.8 L1133.7,668.8 L1134.8,668.8
		L1136.0,668.8 L1137.1,668.8 L1138.2,668.8 L1139.4,668.7 L1140.5,668.7 L1141.6,668.7 L1142.8,668.6 L1143.9,668.6
		L1145.0,668.6 L1146.2,668.5 L1147.3,668.5 L1148.4,668.5 L1149.6,668.4 L1150.7,668.4 L1151.8,668.3 L1153.0,668.3
		L1154.1,668.2 L1155.2,668.1 L1156.4,668.1 L1157.5,668.0 L1158.7,667.9 L1159.8,667.8 L1160.9,667.8 L1162.1,667.7
		L1163.2,667.6 L1164.3,667.5 L1165.5,667.4 L1166.6,667.3 L1167.7,667.2 L1168.9,667.0 L1170.0,666.9 L1171.1,666.8
		L1172.3,666.6 L1173.4,666.5 L1174.5,666.3 L1175.7,666.1 L1176.8,665.9 L1177.9,665.8 L1179.1,665.5 L1180.2,665.3
		L1181.3,665.1 L1182.5,664.9 L1183.6,664.6 L1184.7,664.3 L1185.9,664.1 L1187.0,663.7 L1188.1,663.4 L1189.3,663.1
		L1190.4,662.7 L1191.5,662.3 L1192.7,661.9 L1193.8,661.5 L1194.9,661.0 L1196.1,660.6 L1197.2,660.0 L1198.3,659.5
		L1199.5,658.9 L1200.6,658.3 L1201.7,657.6 L1202.9,656.9 L1204.0,656.2 L1205.1,655.4 L1206.3,654.5 L1207.4,653.6
		L1208.5,652.7 L1209.7,651.6 L1210.8,650.5 L1211.9,649.4 L1213.1,648.1 L1214.2,646.8 L1215.3,645.4 L1216.5,643.9
		L1217.6,642.3 L1218.7,640.6 L1219.9,638.9 L1221.0,636.9 L1222.1,634.9 L1223.3,632.8 L1224.4,630.5 L1225.5,628.1
		L1226.7,625.5 L1227.8,622.9 L1228.9,620.0 L1230.1,617.0 L1231.2,613.9 L1232.3,610.6 L1233.5,607.1 L1234.6,603.5
		L1235.7,599.7 L1236.9,595.8 L1238.0,591.7 L1239.1,587.6 L1240.3,583.3 L1241.4,578.9 L1242.5,574.5 L1243.7,570.0
		L1244.8,565.6 L1245.9,561.3 L1247.1,557.2 L1248.2,553.3 L1249.3,549.8 L1250.5,546.8 L1251.6,544.2 L1252.7,542.4
		L1253.9,541.2 L1255.0,540.8  '/></g>
	</g>
	<g id="gnuplot_plot_4" ><title>8 (both)</title>
<g fill="none" color="black" stroke="currentColor" stroke-width="1.00" stroke-linecap="butt" stroke-linejoin="miter">
	<g transform="translate(1187.9,130.0)" stroke="none" fill="black" font-family="Arial" font-size="12.00"  text-anchor="end">
		<text><tspan font-family="Arial" >8 (both)</tspan></text>
	</g>
</g>
<g fill="none" color="black" stroke="currentColor" stroke-width="1.00" stroke-linecap="butt" stroke-linejoin="miter">
	<path stroke='rgb(230, 159,   0)'  d='M1196.2,126.1 L1238.4,126.1 M95.4,58.0 L96.5,186.3 L97.7,249.2 L98.8,292.0 L99.9,323.8 L101.1,348.8
		L102.2,369.5 L103.3,387.0 L104.5,402.3 L105.6,415.8 L106.7,427.8 L107.9,438.8 L109.0,448.7 L110.1,457.9
		L111.3,466.4 L112.4,474.3 L113.5,481.6 L114.7,488.5 L115.8,495.0 L116.9,501.1 L118.1,506.8 L119.2,512.3
		L120.3,517.4 L121.5,522.3 L122.6,526.9 L123.7,531.2 L124.9,535.4 L126.0,539.3 L127.1,543.0 L128.3,546.4
		L129.4,549.7 L130.5,552.8 L131.7,555.7 L132.8,558.4 L133.9,561.0 L135.1,563.3 L136.2,565.5 L137.3,567.6
		L138.5,569.4 L139.6,571.2 L140.7,572.7 L141.9,574.2 L143.0,575.5 L144.1,576.6 L145.3,577.7 L146.4,578.6
		L147.5,579.5 L148.7,580.2 L149.8,580.8 L150.9,581.4 L152.1,581.8 L153.2,582.2 L154.3,582.5 L155.5,582.8
		L156.6,583.0 L157.7,583.1 L158.9,583.2 L160.0,583.2 L161.1,583.2 L162.3,583.2 L163.4,583.1 L164.5,583.1
		L165.7,582.9 L166.8,582.8 L167.9,582.7 L169.1,582.5 L170.2,582.3 L171.3,582.1 L172.5,581.9 L173.6,581.7
		L174.7,581.5 L175.9,581.2 L177.0,581.0 L178.1,580.8 L179.3,580.5 L180.4,580.3 L181.5,580.1 L182.7,579.8
		L183.8,579.6 L184.9,579.3 L186.1,579.1 L187.2,578.9 L188.3,578.7 L189.5,578.5 L190.6,578.2 L191.7,578.0
		L192.9,577.8 L194.0,577.6 L195.2,577.4 L196.3,577.3 L197.4,577.1 L198.6,576.9 L199.7,576.7 L200.8,576.6
		L202.0,576.4 L203.1,576.3 L204.2,576.1 L205.4,576.0 L206.5,575.9 L207.6,575.7 L208.8,575.6 L209.9,575.5
		L211.0,575.4 L212.2,575.3 L213.3,575.2 L214.4,575.1 L215.6,575.1 L216.7,575.0 L217.8,574.9 L219.0,574.9
		L220.1,574.8 L221.2,574.8 L222.4,574.7 L223.5,574.7 L224.6,574.7 L225.8,574.6 L226.9,574.6 L228.0,574.6
		L229.2,574.6 L230.3,574.6 L231.4,574.6 L232.6,574.6 L233.7,574.6 L234.8,574.6 L236.0,574.7 L237.1,574.7
		L238.2,574.7 L239.4,574.8 L240.5,574.8 L241.6,574.8 L242.8,574.9 L243.9,575.0 L245.0,575.0 L246.2,575.1
		L247.3,575.1 L248.4,575.2 L249.6,575.3 L250.7,575.4 L251.8,575.5 L253.0,575.5 L254.1,575.6 L255.2,575.7
		L256.4,575.8 L257.5,575.9 L258.6,576.0 L259.8,576.2 L260.9,576.3 L262.0,576.4 L263.2,576.5 L264.3,576.6
		L265.4,576.7 L266.6,576.9 L267.7,577.0 L268.8,577.1 L270.0,577.3 L271.1,577.4 L272.2,577.6 L273.4,577.7
		L274.5,577.9 L275.6,578.0 L276.8,578.2 L277.9,578.3 L279.0,578.5 L280.2,578.6 L281.3,578.8 L282.4,579.0
		L283.6,579.1 L284.7,579.3 L285.8,579.5 L287.0,579.6 L288.1,579.8 L289.2,580.0 L290.4,580.2 L291.5,580.3
		L292.6,580.5 L293.8,580.7 L294.9,580.9 L296.0,581.1 L297.2,581.3 L298.3,581.5 L299.4,581.6 L300.6,581.8
		L301.7,582.0 L302.8,582.2 L304.0,582.4 L305.1,582.6 L306.2,582.8 L307.4,583.0 L308.5,583.2 L309.6,583.4
		L310.8,583.6 L311.9,583.8 L313.0,584.1 L314.2,584.3 L315.3,584.5 L316.4,584.7 L317.6,584.9 L318.7,585.1
		L319.8,585.3 L321.0,585.5 L322.1,585.8 L323.2,586.0 L324.4,586.2 L325.5,586.4 L326.6,586.6 L327.8,586.8
		L328.9,587.1 L330.0,587.3 L331.2,587.5 L332.3,587.7 L333.4,588.0 L334.6,588.2 L335.7,588.4 L336.8,588.6
		L338.0,588.9 L339.1,589.1 L340.2,589.3 L341.4,589.5 L342.5,589.8 L343.6,590.0 L344.8,590.2 L345.9,590.5
		L347.0,590.7 L348.2,590.9 L349.3,591.1 L350.4,591.4 L351.6,591.6 L352.7,591.8 L353.8,592.1 L355.0,592.3
		L356.1,592.5 L357.2,592.8 L358.4,593.0 L359.5,593.2 L360.6,593.5 L361.8,593.7 L362.9,593.9 L364.0,594.2
		L365.2,594.4 L366.3,594.6 L367.4,594.9 L368.6,595.1 L369.7,595.3 L370.8,595.6 L372.0,595.8 L373.1,596.1
		L374.2,596.3 L375.4,596.5 L376.5,596.8 L377.6,597.0 L378.8,597.2 L379.9,597.5 L381.0,597.7 L382.2,597.9
		L383.3,598.2 L384.4,598.4 L385.6,598.7 L386.7,598.9 L387.9,599.1 L389.0,599.4 L390.1,599.6 L391.3,599.8
		L392.4,600.1 L393.5,600.3 L394.7,600.5 L395.8,600.8 L396.9,601.0 L398.1,601.2 L399.2,601.5 L400.3,601.7
		L401.5,602.0 L402.6,602.2 L403.7,602.4 L404.9,602.7 L406.0,602.9 L407.1,603.1 L408.3,603.4 L409.4,603.6
		L410.5,603.8 L411.7,604.1 L412.8,604.3 L413.9,604.5 L415.1,604.8 L416.2,605.0 L417.3,605.2 L418.5,605.5
		L419.6,605.7 L420.7,605.9 L421.9,606.2 L423.0,606.4 L424.1,606.6 L425.3,606.9 L426.4,607.1 L427.5,607.3
		L428.7,607.5 L429.8,607.8 L430.9,608.0 L432.1,608.2 L433.2,608.5 L434.3,608.7 L435.5,608.9 L436.6,609.2
		L437.7,609.4 L438.9,609.6 L440.0,609.8 L441.1,610.1 L442.3,610.3 L443.4,610.5 L444.5,610.7 L445.7,611.0
		L446.8,611.2 L447.9,611.4 L449.1,611.7 L450.2,611.9 L451.3,612.1 L452.5,612.3 L453.6,612.5 L454.7,612.8
		L455.9,613.0 L457.0,613.2 L458.1,613.4 L459.3,613.7 L460.4,613.9 L461.5,614.1 L462.7,614.3 L463.8,614.5
		L464.9,614.8 L466.1,615.0 L467.2,615.2 L468.3,615.4 L469.5,615.6 L470.6,615.9 L471.7,616.1 L472.9,616.3
		L474.0,616.5 L475.1,616.7 L476.3,617.0 L477.4,617.2 L478.5,617.4 L479.7,617.6 L480.8,617.8 L481.9,618.0
		L483.1,618.2 L484.2,618.5 L485.3,618.7 L486.5,618.9 L487.6,619.1 L488.7,619.3 L489.9,619.5 L491.0,619.7
		L492.1,620.0 L493.3,620.2 L494.4,620.4 L495.5,620.6 L496.7,620.8 L497.8,621.0 L498.9,621.2 L500.1,621.4
		L501.2,621.6 L502.3,621.8 L503.5,622.0 L504.6,622.2 L505.7,622.5 L506.9,622.7 L508.0,622.9 L509.1,623.1
		L510.3,623.3 L511.4,623.5 L512.5,623.7 L513.7,623.9 L514.8,624.1 L515.9,624.3 L517.1,624.5 L518.2,624.7
		L519.3,624.9 L520.5,625.1 L521.6,625.3 L522.7,625.5 L523.9,625.7 L525.0,625.9 L526.1,626.1 L527.3,626.3
		L528.4,626.5 L529.5,626.7 L530.7,626.9 L531.8,627.1 L532.9,627.3 L534.1,627.5 L535.2,627.7 L536.3,627.9
		L537.5,628.1 L538.6,628.3 L539.7,628.5 L540.9,628.6 L542.0,628.8 L543.1,629.0 L544.3,629.2 L545.4,629.4
		L546.5,629.6 L547.7,629.8 L548.8,630.0 L549.9,630.2 L551.1,630.4 L552.2,630.6 L553.3,630.7 L554.5,630.9
		L555.6,631.1 L556.7,631.3 L557.9,631.5 L559.0,631.7 L560.1,631.9 L561.3,632.1 L562.4,632.2 L563.5,632.4
		L564.7,632.6 L565.8,632.8 L566.9,633.0 L568.1,633.2 L569.2,633.3 L570.3,633.5 L571.5,633.7 L572.6,633.9
		L573.7,634.1 L574.9,634.2 L576.0,634.4 L577.1,634.6 L578.3,634.8 L579.4,635.0 L580.6,635.1 L581.7,635.3
		L582.8,635.5 L584.0,635.7 L585.1,635.9 L586.2,636.0 L587.4,636.2 L588.5,636.4 L589.6,636.6 L590.8,636.7
		L591.9,636.9 L593.0,637.1 L594.2,637.2 L595.3,637.4 L596.4,637.6 L597.6,637.8 L598.7,637.9 L599.8,638.1
		L601.0,638.3 L602.1,638.4 L603.2,638.6 L604.4,638.8 L605.5,639.0 L606.6,639.1 L607.8,639.3 L608.9,639.5
		L610.0,639.6 L611.2,639.8 L612.3,640.0 L613.4,640.1 L614.6,640.3 L615.7,640.4 L616.8,640.6 L618.0,640.8
		L619.1,640.9 L620.2,641.1 L621.4,641.3 L622.5,641.4 L623.6,641.6 L624.8,641.7 L625.9,641.9 L627.0,642.1
		L628.2,642.2 L629.3,642.4 L630.4,642.5 L631.6,642.7 L632.7,642.9 L633.8,643.0 L635.0,643.2 L636.1,643.3
		L637.2,643.5 L638.4,643.6 L639.5,643.8 L640.6,644.0 L641.8,644.1 L642.9,644.3 L644.0,644.4 L645.2,644.6
		L646.3,644.7 L647.4,644.9 L648.6,645.0 L649.7,645.2 L650.8,645.3 L652.0,645.5 L653.1,645.6 L654.2,645.8
		L655.4,645.9 L656.5,646.1 L657.6,646.2 L658.8,646.4 L659.9,646.5 L661.0,646.7 L662.2,646.8 L663.3,647.0
		L664.4,647.1 L665.6,647.3 L666.7,647.4 L667.8,647.6 L669.0,647.7 L670.1,647.8 L671.2,648.0 L672.4,648.1
		L673.5,648.3 L674.6,648.4 L675.8,648.6 L676.9,648.7 L678.0,648.8 L679.2,649.0 L680.3,649.1 L681.4,649.3
		L682.6,649.4 L683.7,649.5 L684.8,649.7 L686.0,649.8 L687.1,649.9 L688.2,650.1 L689.4,650.2 L690.5,650.4
		L691.6,650.5 L692.8,650.6 L693.9,650.8 L695.0,650.9 L696.2,651.0 L697.3,651.2 L698.4,651.3 L699.6,651.4
		L700.7,651.6 L701.8,651.7 L703.0,651.8 L704.1,652.0 L705.2,652.1 L706.4,652.2 L707.5,652.3 L708.6,652.5
		L709.8,652.6 L710.9,652.7 L712.0,652.9 L713.2,653.0 L714.3,653.1 L715.4,653.2 L716.6,653.4 L717.7,653.5
		L718.8,653.6 L720.0,653.7 L721.1,653.9 L722.2,654.0 L723.4,654.1 L724.5,654.2 L725.6,654.4 L726.8,654.5
		L727.9,654.6 L729.0,654.7 L730.2,654.8 L731.3,655.0 L732.4,655.1 L733.6,655.2 L734.7,655.3 L735.8,655.4
		L737.0,655.6 L738.1,655.7 L739.2,655.8 L740.4,655.9 L741.5,656.0 L742.6,656.1 L743.8,656.3 L744.9,656.4
		L746.0,656.5 L747.2,656.6 L748.3,656.7 L749.4,656.8 L750.6,656.9 L751.7,657.1 L752.8,657.2 L754.0,657.3
		L755.1,657.4 L756.2,657.5 L757.4,657.6 L758.5,657.7 L759.6,657.8 L760.8,657.9 L761.9,658.0 L763.0,658.2
		L764.2,658.3 L765.3,658.4 L766.4,658.5 L767.6,658.6 L768.7,658.7 L769.8,658.8 L771.0,658.9 L772.1,659.0
		L773.3,659.1 L774.4,659.2 L775.5,659.3 L776.7,659.4 L777.8,659.5 L778.9,659.6 L780.1,659.7 L781.2,659.8
		L782.3,659.9 L783.5,660.0 L784.6,660.1 L785.7,660.2 L786.9,660.3 L788.0,660.4 L789.1,660.5 L790.3,660.6
		L791.4,660.7 L792.5,660.8 L793.7,660.9 L794.8,661.0 L795.9,661.1 L797.1,661.2 L798.2,661.3 L799.3,661.4
		L800.5,661.5 L801.6,661.5 L802.7,661.6 L803.9,661.7 L805.0,661.8 L806.1,661.9 L807.3,662.0 L808.4,662.1
		L809.5,662.2 L810.7,662.3 L811.8,662.4 L812.9,662.4 L814.1,662.5 L815.2,662.6 L816.3,662.7 L817.5,662.8
		L818.6,662.9 L819.7,663.0 L820.9,663.0 L822.0,663.1 L823.1,663.2 L824.3,663.3 L825.4,663.4 L826.5,663.4
		L827.7,663.5 L828.8,663.6 L829.9,663.7 L831.1,663.8 L832.2,663.8 L833.3,663.9 L834.5,664.0 L835.6,664.1
		L836.7,664.2 L837.9,664.2 L839.0,664.3 L840.1,664.4 L841.3,664.5 L842.4,664.5 L843.5,664.6 L844.7,664.7
		L845.8,664.7 L846.9,664.8 L848.1,664.9 L849.2,665.0 L850.3,665.0 L851.5,665.1 L852.6,665.2 L853.7,665.2
		L854.9,665.3 L856.0,665.4 L857.1,665.4 L858.3,665.5 L859.4,665.6 L860.5,665.6 L861.7,665.7 L862.8,665.8
		L863.9,665.8 L865.1,665.9 L866.2,666.0 L867.3,666.0 L868.5,666.1 L869.6,666.1 L870.7,666.2 L871.9,666.3
		L873.0,666.3 L874.1,666.4 L875.3,666.4 L876.4,666.5 L877.5,666.5 L878.7,666.6 L879.8,666.7 L880.9,666.7
		L882.1,666.8 L883.2,666.8 L884.3,666.9 L885.5,666.9 L886.6,667.0 L887.7,667.0 L888.9,667.1 L890.0,667.1
		L891.1,667.2 L892.3,667.2 L893.4,667.3 L894.5,667.3 L895.7,667.4 L896.8,667.4 L897.9,667.4 L899.1,667.5
		L900.2,667.5 L901.3,667.6 L902.5,667.6 L903.6,667.7 L904.7,667.7 L905.9,667.7 L907.0,667.8 L908.1,667.8
		L909.3,667.9 L910.4,667.9 L911.5,667.9 L912.7,668.0 L913.8,668.0 L914.9,668.0 L916.1,668.1 L917.2,668.1
		L918.3,668.1 L919.5,668.2 L920.6,668.2 L921.7,668.2 L922.9,668.3 L924.0,668.3 L925.1,668.3 L926.3,668.3
		L927.4,668.4 L928.5,668.4 L929.7,668.4 L930.8,668.4 L931.9,668.5 L933.1,668.5 L934.2,668.5 L935.3,668.5
		L936.5,668.6 L937.6,668.6 L938.7,668.6 L939.9,668.6 L941.0,668.6 L942.1,668.6 L943.3,668.7 L944.4,668.7
		L945.5,668.7 L946.7,668.7 L947.8,668.7 L948.9,668.7 L950.1,668.7 L951.2,668.7 L952.3,668.8 L953.5,668.8
		L954.6,668.8 L955.7,668.8 L956.9,668.8 L958.0,668.8 L959.1,668.8 L960.3,668.8 L961.4,668.8 L962.5,668.8
		L963.7,668.8 L964.8,668.8 L966.0,668.8 L967.1,668.8 L968.2,668.8 L969.4,668.8 L970.5,668.8 L971.6,668.8
		L972.8,668.8 L973.9,668.7 L975.0,668.7 L976.2,668.7 L977.3,668.7 L978.4,668.7 L979.6,668.7 L980.7,668.7
		L981.8,668.7 L983.0,668.6 L984.1,668.6 L985.2,668.6 L986.4,668.6 L987.5,668.6 L988.6,668.5 L989.8,668.5
		L990.9,668.5 L992.0,668.5 L993.2,668.4 L994.3,668.4 L995.4,668.4 L996.6,668.4 L997.7,668.3 L998.8,668.3
		L1000.0,668.3 L1001.1,668.2 L1002.2,668.2 L1003.4,668.2 L1004.5,668.1 L1005.6,668.1 L1006.8,668.0 L1007.9,668.0
		L1009.0,668.0 L1010.2,667.9 L1011.3,667.9 L1012.4,667.8 L1013.6,667.8 L1014.7,667.7 L1015.8,667.7 L1017.0,667.6
		L1018.1,667.6 L1019.2,667.5 L1020.4,667.5 L1021.5,667.4 L1022.6,667.4 L1023.8,667.3 L1024.9,667.2 L1026.0,667.2
		L1027.2,667.1 L1028.3,667.1 L1029.4,667.0 L1030.6,666.9 L1031.7,666.9 L1032.8,666.8 L1034.0,666.7 L1035.1,666.7
		L1036.2,666.6 L1037.4,666.5 L1038.5,666.4 L1039.6,666.4 L1040.8,666.3 L1041.9,666.2 L1043.0,666.1 L1044.2,666.0
		L1045.3,666.0 L1046.4,665.9 L1047.6,665.8 L1048.7,665.7 L1049.8,665.6 L1051.0,665.5 L1052.1,665.4 L1053.2,665.3
		L1054.4,665.3 L1055.5,665.2 L1056.6,665.1 L1057.8,665.0 L1058.9,664.9 L1060.0,664.8 L1061.2,664.7 L1062.3,664.6
		L1063.4,664.5 L1064.6,664.4 L1065.7,664.2 L1066.8,664.1 L1068.0,664.0 L1069.1,663.9 L1070.2,663.8 L1071.4,663.7
		L1072.5,663.6 L1073.6,663.5 L1074.8,663.3 L1075.9,663.2 L1077.0,663.1 L1078.2,663.0 L1079.3,662.8 L1080.4,662.7
		L1081.6,662.6 L1082.7,662.5 L1083.8,662.3 L1085.0,662.2 L1086.1,662.1 L1087.2,661.9 L1088.4,661.8 L1089.5,661.7
		L1090.6,661.5 L1091.8,661.4 L1092.9,661.2 L1094.0,661.1 L1095.2,661.0 L1096.3,660.8 L1097.4,660.7 L1098.6,660.5
		L1099.7,660.4 L1100.8,660.2 L1102.0,660.1 L1103.1,659.9 L1104.2,659.8 L1105.4,659.6 L1106.5,659.5 L1107.6,659.3
		L1108.8,659.1 L1109.9,659.0 L1111.0,658.8 L1112.2,658.7 L1113.3,658.5 L1114.4,658.3 L1115.6,658.2 L1116.7,658.0
		L1117.8,657.8 L1119.0,657.7 L1120.1,657.5 L1121.2,657.3 L1122.4,657.1 L1123.5,657.0 L1124.6,656.8 L1125.8,656.6
		L1126.9,656.5 L1128.0,656.3 L1129.2,656.1 L1130.3,655.9 L1131.4,655.7 L1132.6,655.6 L1133.7,655.4 L1134.8,655.2
		L1136.0,655.0 L1137.1,654.8 L1138.2,654.6 L1139.4,654.5 L1140.5,654.3 L1141.6,654.1 L1142.8,653.9 L1143.9,653.7
		L1145.0,653.5 L1146.2,653.3 L1147.3,653.2 L1148.4,653.0 L1149.6,652.8 L1150.7,652.6 L1151.8,652.4 L1153.0,652.2
		L1154.1,652.0 L1155.2,651.8 L1156.4,651.6 L1157.5,651.4 L1158.7,651.3 L1159.8,651.1 L1160.9,650.9 L1162.1,650.7
		L1163.2,650.5 L1164.3,650.3 L1165.5,650.1 L1166.6,649.9 L1167.7,649.7 L1168.9,649.5 L1170.0,649.3 L1171.1,649.2
		L1172.3,649.0 L1173.4,648.8 L1174.5,648.6 L1175.7,648.4 L1176.8,648.2 L1177.9,648.0 L1179.1,647.8 L1180.2,647.6
		L1181.3,647.5 L1182.5,647.3 L1183.6,647.1 L1184.7,646.9 L1185.9,646.7 L1187.0,646.5 L1188.1,646.3 L1189.3,646.2
		L1190.4,646.0 L1191.5,645.8 L1192.7,645.6 L1193.8,645.4 L1194.9,645.2 L1196.1,645.0 L1197.2,644.9 L1198.3,644.7
		L1199.5,644.5 L1200.6,644.3 L1201.7,644.1 L1202.9,643.9 L1204.0,643.7 L1205.1,643.5 L1206.3,643.3 L1207.4,643.1
		L1208.5,642.9 L1209.7,642.7 L1210.8,642.5 L1211.9,642.3 L1213.1,642.0 L1214.2,641.8 L1215.3,641.6 L1216.5,641.3
		L1217.6,641.0 L1218.7,640.7 L1219.9,640.4 L1221.0,640.1 L1222.1,639.7 L1223.3,639.3 L1224.4,638.9 L1225.5,638.4
		L1226.7,637.9 L1227.8,637.3 L1228.9,636.6 L1230.1,635.8 L1231.2,635.0 L1232.3,634.0 L1233.5,632.8 L1234.6,631.4
		L1235.7,629.8 L1236.9,627.9 L1238.0,625.7 L1239.1,623.0 L1240.3,619.8 L1241.4,616.0 L1242.5,611.4 L1243.7,606.0
		L1244.8,599.6 L1245.9,592.1 L1247.1,583.3 L1248.2,573.3 L1249.3,562.1 L1250.5,550.0 L1251.6,537.8 L1252.7,526.7
		L1253.9,518.6 L1255.0,515.6  '/></g>
	</g>
<g fill="none" color="white" stroke="rgb(230, 159,   0)" stroke-width="2.00" stroke-linecap="butt" stroke-linejoin="miter">
</g>
<g fill="none" color="black" stroke="currentColor" stroke-width="2.00" stroke-linecap="butt" stroke-linejoin="miter">
</g>
<g fill="none" color="black" stroke="black" stroke-width="1.00" stroke-linecap="butt" stroke-linejoin="miter">
</g>
<g fill="none" color="black" stroke="currentColor" stroke-width="1.00" stroke-linecap="butt" stroke-linejoin="miter">
	<path stroke='black'  d='M95.4,54.1 L95.4,684.0 L1255.0,684.0 L1255.0,54.1 L95.4,54.1 Z  '/></g>
<g fill="none" color="black" stroke="currentColor" stroke-width="1.00" stroke-linecap="butt" stroke-linejoin="miter">
</g>
</g>
</svg>

