<?xml version="1.0" encoding="utf-8"  standalone="no"?>
<svg 
 width="1280" height="720"
 viewBox="0 0 1280 720"
 xmlns="http://www.w3.org/2000/svg"
 xmlns:xlink="http://www.w3.org/1999/xlink"
>

<title>Gnuplot</title>
<desc>Produced by GNUPLOT 5.0 patchlevel 6 </desc>

<g id="gnuplot_canvas">

<rect x="0" y="0" width="1280" height="720" fill="none"/>
<defs>

	<circle id='gpDot' r='0.5' stroke-width='0.5'/>
	<path id='gpPt0' stroke-width='0.222' stroke='currentColor' d='M-1,0 h2 M0,-1 v2'/>
	<path id='gpPt1' stroke-width='0.222' stroke='currentColor' d='M-1,-1 L1,1 M1,-1 L-1,1'/>
	<path id='gpPt2' stroke-width='0.222' stroke='currentColor' d='M-1,0 L1,0 M0,-1 L0,1 M-1,-1 L1,1 M-1,1 L1,-1'/>
	<rect id='gpPt3' stroke-width='0.222' stroke='currentColor' x='-1' y='-1' width='2' height='2'/>
	<rect id='gpPt4' stroke-width='0.222' stroke='currentColor' fill='currentColor' x='-1' y='-1' width='2' height='2'/>
	<circle id='gpPt5' stroke-width='0.222' stroke='currentColor' cx='0' cy='0' r='1'/>
	<use xlink:href='#gpPt5' id='gpPt6' fill='currentColor' stroke='none'/>
	<path id='gpPt7' stroke-width='0.222' stroke='currentColor' d='M0,-1.33 L-1.33,0.67 L1.33,0.67 z'/>
	<use xlink:href='#gpPt7' id='gpPt8' fill='currentColor' stroke='none'/>
	<use xlink:href='#gpPt7' id='gpPt9' stroke='currentColor' transform='rotate(180)'/>
	<use xlink:href='#gpPt9' id='gpPt10' fill='currentColor' stroke='none'/>
	<use xlink:href='#gpPt3' id='gpPt11' stroke='currentColor' transform='rotate(45)'/>
	<use xlink:href='#gpPt11' id='gpPt12' fill='currentColor' stroke='none'/>
	<path id='gpPt13' stroke-width='0.222' stroke='currentColor' d='M0,1.330 L1.265,0.411 L0.782,-1.067 L-0.782,-1.076 L-1.265,0.411 z'/>
	<use xlink:href='#gpPt13' id='gpPt14' fill='currentColor' stroke='none'/>
	<filter id='textbox' filterUnits='objectBoundingBox' x='0' y='0' height='1' width='1'>
	  <feFlood flood-color='white' flood-opacity='1' result='bgnd'/>
	  <feComposite in='SourceGraphic' in2='bgnd' operator='atop'/>
	</filter>
	<filter id='greybox' filterUnits='objectBoundingBox' x='0' y='0' height='1' width='1'>
	  <feFlood flood-color='lightgrey' flood-opacity='1' result='grey'/>
	  <feComposite in='SourceGraphic' in2='grey' operator='atop'/>
	</filter>
</defs>
<g fill="none" color="white" stroke="currentColor" stroke-width="1.00" stroke-linecap="butt" stroke-linejoin="miter">
</g>
<g fill="none" color="black" stroke="currentColor" stroke-width="1.00" stroke-linecap="butt" stroke-linejoin="miter">
	<path stroke='black'  d='M78.8,682.9 L87.8,682.9 M1255.0,682.9 L1246.0,682.9  '/>	<g transform="translate(70.5,686.8)" stroke="none" fill="black" font-family="Arial" font-size="12.00"  text-anchor="end">
		<text><tspan font-family="Arial" >0.00008</tspan></text>
	</g>
</g>
<g fill="none" color="black" stroke="currentColor" stroke-width="1.00" stroke-linecap="butt" stroke-linejoin="miter">
	<path stroke='black'  d='M78.8,369.4 L87.8,369.4 M1255.0,369.4 L1246.0,369.4  '/>	<g transform="translate(70.5,373.3)" stroke="none" fill="black" font-family="Arial" font-size="12.00"  text-anchor="end">
		<text><tspan font-family="Arial" >0.00167</tspan></text>
	</g>
</g>
<g fill="none" color="black" stroke="currentColor" stroke-width="1.00" stroke-linecap="butt" stroke-linejoin="miter">
	<path stroke='black'  d='M78.8,56.0 L87.8,56.0 M1255.0,56.0 L1246.0,56.0  '/>	<g transform="translate(70.5,59.9)" stroke="none" fill="black" font-family="Arial" font-size="12.00"  text-anchor="end">
		<text><tspan font-family="Arial" >0.03617</tspan></text>
	</g>
</g>
<g fill="none" color="black" stroke="currentColor" stroke-width="1.00" stroke-linecap="butt" stroke-linejoin="miter">
	<path stroke='black'  d='M78.8,684.0 L78.8,675.0 M78.8,54.1 L78.8,63.1  '/>	<g transform="translate(78.8,705.9)" stroke="none" fill="black" font-family="Arial" font-size="12.00"  text-anchor="middle">
		<text><tspan font-family="Arial" > 0</tspan></text>
	</g>
</g>
<g fill="none" color="black" stroke="currentColor" stroke-width="1.00" stroke-linecap="butt" stroke-linejoin="miter">
	<path stroke='black'  d='M666.9,684.0 L666.9,675.0 M666.9,54.1 L666.9,63.1  '/>	<g transform="translate(666.9,705.9)" stroke="none" fill="black" font-family="Arial" font-size="12.00"  text-anchor="middle">
		<text><tspan font-family="Arial" >pi/2</tspan></text>
	</g>
</g>
<g fill="none" color="black" stroke="currentColor" stroke-width="1.00" stroke-linecap="butt" stroke-linejoin="miter">
	<path stroke='black'  d='M1255.0,684.0 L1255.0,675.0 M1255.0,54.1 L1255.0,63.1  '/>	<g transform="translate(1255.0,705.9)" stroke="none" fill="black" font-family="Arial" font-size="12.00"  text-anchor="middle">
		<text><tspan font-family="Arial" >pi</tspan></text>
	</g>
</g>
<g fill="none" color="black" stroke="currentColor" stroke-width="1.00" stroke-linecap="butt" stroke-linejoin="miter">
</g>
<g fill="none" color="black" stroke="currentColor" stroke-width="1.00" stroke-linecap="butt" stroke-linejoin="miter">
	<path stroke='black'  d='M78.8,54.1 L78.8,684.0 L1255.0,684.0 L1255.0,54.1 L78.8,54.1 Z  '/></g>
<g fill="none" color="black" stroke="currentColor" stroke-width="1.00" stroke-linecap="butt" stroke-linejoin="miter">
	<g transform="translate(666.9,31.0)" stroke="none" fill="black" font-family="Arial" font-size="12.00"  text-anchor="middle">
		<text><tspan font-family="Arial" >Material 48</tspan></text>
	</g>
</g>
	<g id="gnuplot_plot_1" ><title>scattering function</title>
<g fill="none" color="black" stroke="currentColor" stroke-width="1.00" stroke-linecap="butt" stroke-linejoin="miter">
	<g transform="translate(1187.9,76.0)" stroke="none" fill="black" font-family="Arial" font-size="12.00"  text-anchor="end">
		<text><tspan font-family="Arial" >scattering function</tspan></text>
	</g>
</g>
<g fill="none" color="black" stroke="currentColor" stroke-width="1.00" stroke-linecap="butt" stroke-linejoin="miter">
	<use xlink:href='#gpPt5' transform='translate(78.8,56.0) scale(2.25)' color='black'/>
	<use xlink:href='#gpPt5' transform='translate(79.5,56.0) scale(2.25)' color='black'/>
	<use xlink:href='#gpPt5' transform='translate(80.1,56.1) scale(2.25)' color='black'/>
	<use xlink:href='#gpPt5' transform='translate(80.8,56.3) scale(2.25)' color='black'/>
	<use xlink:href='#gpPt5' transform='translate(81.4,56.6) scale(2.25)' color='black'/>
	<use xlink:href='#gpPt5' transform='translate(82.1,57.0) scale(2.25)' color='black'/>
	<use xlink:href='#gpPt5' transform='translate(82.7,57.4) scale(2.25)' color='black'/>
	<use xlink:href='#gpPt5' transform='translate(83.4,57.8) scale(2.25)' color='black'/>
	<use xlink:href='#gpPt5' transform='translate(84.0,58.3) scale(2.25)' color='black'/>
	<use xlink:href='#gpPt5' transform='translate(84.7,58.9) scale(2.25)' color='black'/>
	<use xlink:href='#gpPt5' transform='translate(85.3,59.5) scale(2.25)' color='black'/>
	<use xlink:href='#gpPt5' transform='translate(86.0,60.1) scale(2.25)' color='black'/>
	<use xlink:href='#gpPt5' transform='translate(86.6,60.7) scale(2.25)' color='black'/>
	<use xlink:href='#gpPt5' transform='translate(87.3,61.4) scale(2.25)' color='black'/>
	<use xlink:href='#gpPt5' transform='translate(87.9,62.0) scale(2.25)' color='black'/>
	<use xlink:href='#gpPt5' transform='translate(88.6,62.7) scale(2.25)' color='black'/>
	<use xlink:href='#gpPt5' transform='translate(89.3,63.5) scale(2.25)' color='black'/>
	<use xlink:href='#gpPt5' transform='translate(89.9,64.2) scale(2.25)' color='black'/>
	<use xlink:href='#gpPt5' transform='translate(90.6,64.9) scale(2.25)' color='black'/>
	<use xlink:href='#gpPt5' transform='translate(91.2,65.7) scale(2.25)' color='black'/>
	<use xlink:href='#gpPt5' transform='translate(91.9,66.4) scale(2.25)' color='black'/>
	<use xlink:href='#gpPt5' transform='translate(98.4,74.5) scale(2.25)' color='black'/>
	<use xlink:href='#gpPt5' transform='translate(104.9,83.0) scale(2.25)' color='black'/>
	<use xlink:href='#gpPt5' transform='translate(111.5,91.6) scale(2.25)' color='black'/>
	<use xlink:href='#gpPt5' transform='translate(118.0,100.3) scale(2.25)' color='black'/>
	<use xlink:href='#gpPt5' transform='translate(131.1,117.9) scale(2.25)' color='black'/>
	<use xlink:href='#gpPt5' transform='translate(144.1,135.4) scale(2.25)' color='black'/>
	<use xlink:href='#gpPt5' transform='translate(157.2,152.8) scale(2.25)' color='black'/>
	<use xlink:href='#gpPt5' transform='translate(170.3,170.0) scale(2.25)' color='black'/>
	<use xlink:href='#gpPt5' transform='translate(183.4,187.0) scale(2.25)' color='black'/>
	<use xlink:href='#gpPt5' transform='translate(196.4,203.8) scale(2.25)' color='black'/>
	<use xlink:href='#gpPt5' transform='translate(209.5,220.4) scale(2.25)' color='black'/>
	<use xlink:href='#gpPt5' transform='translate(222.6,236.9) scale(2.25)' color='black'/>
	<use xlink:href='#gpPt5' transform='translate(235.6,253.4) scale(2.25)' color='black'/>
	<use xlink:href='#gpPt5' transform='translate(248.7,269.5) scale(2.25)' color='black'/>
	<use xlink:href='#gpPt5' transform='translate(261.8,285.5) scale(2.25)' color='black'/>
	<use xlink:href='#gpPt5' transform='translate(274.8,301.2) scale(2.25)' color='black'/>
	<use xlink:href='#gpPt5' transform='translate(287.9,316.7) scale(2.25)' color='black'/>
	<use xlink:href='#gpPt5' transform='translate(301.0,332.0) scale(2.25)' color='black'/>
	<use xlink:href='#gpPt5' transform='translate(314.0,347.1) scale(2.25)' color='black'/>
	<use xlink:href='#gpPt5' transform='translate(327.1,361.9) scale(2.25)' color='black'/>
	<use xlink:href='#gpPt5' transform='translate(340.2,376.4) scale(2.25)' color='black'/>
	<use xlink:href='#gpPt5' transform='translate(353.2,390.6) scale(2.25)' color='black'/>
	<use xlink:href='#gpPt5' transform='translate(366.3,404.5) scale(2.25)' color='black'/>
	<use xlink:href='#gpPt5' transform='translate(379.4,418.2) scale(2.25)' color='black'/>
	<use xlink:href='#gpPt5' transform='translate(392.5,431.6) scale(2.25)' color='black'/>
	<use xlink:href='#gpPt5' transform='translate(405.5,444.6) scale(2.25)' color='black'/>
	<use xlink:href='#gpPt5' transform='translate(418.6,457.4) scale(2.25)' color='black'/>
	<use xlink:href='#gpPt5' transform='translate(431.7,469.9) scale(2.25)' color='black'/>
	<use xlink:href='#gpPt5' transform='translate(444.7,482.1) scale(2.25)' color='black'/>
	<use xlink:href='#gpPt5' transform='translate(457.8,493.8) scale(2.25)' color='black'/>
	<use xlink:href='#gpPt5' transform='translate(470.9,505.3) scale(2.25)' color='black'/>
	<use xlink:href='#gpPt5' transform='translate(483.9,516.6) scale(2.25)' color='black'/>
	<use xlink:href='#gpPt5' transform='translate(497.0,527.5) scale(2.25)' color='black'/>
	<use xlink:href='#gpPt5' transform='translate(510.1,538.1) scale(2.25)' color='black'/>
	<use xlink:href='#gpPt5' transform='translate(523.1,548.3) scale(2.25)' color='black'/>
	<use xlink:href='#gpPt5' transform='translate(536.2,558.2) scale(2.25)' color='black'/>
	<use xlink:href='#gpPt5' transform='translate(549.3,567.9) scale(2.25)' color='black'/>
	<use xlink:href='#gpPt5' transform='translate(562.3,577.1) scale(2.25)' color='black'/>
	<use xlink:href='#gpPt5' transform='translate(575.4,585.9) scale(2.25)' color='black'/>
	<use xlink:href='#gpPt5' transform='translate(588.5,594.6) scale(2.25)' color='black'/>
	<use xlink:href='#gpPt5' transform='translate(601.6,602.7) scale(2.25)' color='black'/>
	<use xlink:href='#gpPt5' transform='translate(614.6,610.5) scale(2.25)' color='black'/>
	<use xlink:href='#gpPt5' transform='translate(627.7,617.9) scale(2.25)' color='black'/>
	<use xlink:href='#gpPt5' transform='translate(640.8,625.0) scale(2.25)' color='black'/>
	<use xlink:href='#gpPt5' transform='translate(653.8,631.8) scale(2.25)' color='black'/>
	<use xlink:href='#gpPt5' transform='translate(666.9,638.1) scale(2.25)' color='black'/>
	<use xlink:href='#gpPt5' transform='translate(680.0,644.0) scale(2.25)' color='black'/>
	<use xlink:href='#gpPt5' transform='translate(693.0,649.4) scale(2.25)' color='black'/>
	<use xlink:href='#gpPt5' transform='translate(706.1,654.4) scale(2.25)' color='black'/>
	<use xlink:href='#gpPt5' transform='translate(719.2,659.1) scale(2.25)' color='black'/>
	<use xlink:href='#gpPt5' transform='translate(732.2,663.6) scale(2.25)' color='black'/>
	<use xlink:href='#gpPt5' transform='translate(745.3,667.6) scale(2.25)' color='black'/>
	<use xlink:href='#gpPt5' transform='translate(758.4,670.9) scale(2.25)' color='black'/>
	<use xlink:href='#gpPt5' transform='translate(771.5,673.8) scale(2.25)' color='black'/>
	<use xlink:href='#gpPt5' transform='translate(784.5,676.5) scale(2.25)' color='black'/>
	<use xlink:href='#gpPt5' transform='translate(797.6,678.8) scale(2.25)' color='black'/>
	<use xlink:href='#gpPt5' transform='translate(810.7,680.4) scale(2.25)' color='black'/>
	<use xlink:href='#gpPt5' transform='translate(823.7,681.6) scale(2.25)' color='black'/>
	<use xlink:href='#gpPt5' transform='translate(836.8,682.6) scale(2.25)' color='black'/>
	<use xlink:href='#gpPt5' transform='translate(849.9,682.9) scale(2.25)' color='black'/>
	<use xlink:href='#gpPt5' transform='translate(862.9,682.6) scale(2.25)' color='black'/>
	<use xlink:href='#gpPt5' transform='translate(876.0,681.9) scale(2.25)' color='black'/>
	<use xlink:href='#gpPt5' transform='translate(889.1,680.7) scale(2.25)' color='black'/>
	<use xlink:href='#gpPt5' transform='translate(902.1,678.9) scale(2.25)' color='black'/>
	<use xlink:href='#gpPt5' transform='translate(915.2,676.6) scale(2.25)' color='black'/>
	<use xlink:href='#gpPt5' transform='translate(928.3,674.0) scale(2.25)' color='black'/>
	<use xlink:href='#gpPt5' transform='translate(941.3,670.8) scale(2.25)' color='black'/>
	<use xlink:href='#gpPt5' transform='translate(954.4,667.2) scale(2.25)' color='black'/>
	<use xlink:href='#gpPt5' transform='translate(967.5,663.0) scale(2.25)' color='black'/>
	<use xlink:href='#gpPt5' transform='translate(980.6,658.6) scale(2.25)' color='black'/>
	<use xlink:href='#gpPt5' transform='translate(993.6,654.0) scale(2.25)' color='black'/>
	<use xlink:href='#gpPt5' transform='translate(1006.7,649.1) scale(2.25)' color='black'/>
	<use xlink:href='#gpPt5' transform='translate(1019.8,644.1) scale(2.25)' color='black'/>
	<use xlink:href='#gpPt5' transform='translate(1032.8,639.3) scale(2.25)' color='black'/>
	<use xlink:href='#gpPt5' transform='translate(1045.9,634.7) scale(2.25)' color='black'/>
	<use xlink:href='#gpPt5' transform='translate(1059.0,630.3) scale(2.25)' color='black'/>
	<use xlink:href='#gpPt5' transform='translate(1072.0,625.8) scale(2.25)' color='black'/>
	<use xlink:href='#gpPt5' transform='translate(1085.1,622.0) scale(2.25)' color='black'/>
	<use xlink:href='#gpPt5' transform='translate(1098.2,618.8) scale(2.25)' color='black'/>
	<use xlink:href='#gpPt5' transform='translate(1111.2,615.8) scale(2.25)' color='black'/>
	<use xlink:href='#gpPt5' transform='translate(1124.3,612.9) scale(2.25)' color='black'/>
	<use xlink:href='#gpPt5' transform='translate(1137.4,610.4) scale(2.25)' color='black'/>
	<use xlink:href='#gpPt5' transform='translate(1150.4,609.0) scale(2.25)' color='black'/>
	<use xlink:href='#gpPt5' transform='translate(1163.5,610.0) scale(2.25)' color='black'/>
	<use xlink:href='#gpPt5' transform='translate(1176.6,613.9) scale(2.25)' color='black'/>
	<use xlink:href='#gpPt5' transform='translate(1189.7,620.6) scale(2.25)' color='black'/>
	<use xlink:href='#gpPt5' transform='translate(1202.7,628.0) scale(2.25)' color='black'/>
	<use xlink:href='#gpPt5' transform='translate(1215.8,630.1) scale(2.25)' color='black'/>
	<use xlink:href='#gpPt5' transform='translate(1228.9,623.0) scale(2.25)' color='black'/>
	<use xlink:href='#gpPt5' transform='translate(1241.9,610.6) scale(2.25)' color='black'/>
	<use xlink:href='#gpPt5' transform='translate(1255.0,603.6) scale(2.25)' color='black'/>
	<use xlink:href='#gpPt5' transform='translate(1217.3,72.1) scale(2.25)' color='black'/>
</g>
	</g>
	<g id="gnuplot_plot_2" ><title>2 (convex)</title>
<g fill="none" color="black" stroke="currentColor" stroke-width="1.00" stroke-linecap="butt" stroke-linejoin="miter">
	<g transform="translate(1187.9,94.0)" stroke="none" fill="black" font-family="Arial" font-size="12.00"  text-anchor="end">
		<text><tspan font-family="Arial" >2 (convex)</tspan></text>
	</g>
</g>
<g fill="none" color="black" stroke="currentColor" stroke-width="1.00" stroke-linecap="butt" stroke-linejoin="miter">
	<path stroke='rgb(  0, 158, 115)'  d='M1196.2,90.1 L1238.4,90.1 M78.8,54.1 L79.9,54.1 L81.1,54.2 L82.2,54.4 L83.4,54.6 L84.5,54.8
		L85.7,55.1 L86.8,55.5 L88.0,55.9 L89.1,56.4 L90.3,56.9 L91.4,57.5 L92.6,58.1 L93.7,58.8
		L94.9,59.5 L96.0,60.3 L97.2,61.2 L98.3,62.1 L99.5,63.0 L100.6,64.0 L101.8,65.0 L102.9,66.1
		L104.1,67.2 L105.2,68.4 L106.4,69.6 L107.5,70.8 L108.7,72.1 L109.8,73.4 L111.0,74.8 L112.1,76.2
		L113.3,77.6 L114.4,79.1 L115.6,80.6 L116.7,82.1 L117.9,83.7 L119.0,85.3 L120.2,86.9 L121.3,88.6
		L122.5,90.3 L123.6,92.0 L124.8,93.7 L125.9,95.4 L127.1,97.2 L128.2,99.0 L129.4,100.8 L130.5,102.7
		L131.7,104.5 L132.8,106.4 L134.0,108.3 L135.1,110.2 L136.3,112.1 L137.4,114.1 L138.6,116.0 L139.7,118.0
		L140.9,119.9 L142.0,121.9 L143.2,123.9 L144.3,125.9 L145.5,127.9 L146.6,129.9 L147.8,132.0 L148.9,134.0
		L150.1,136.0 L151.2,138.1 L152.4,140.1 L153.5,142.2 L154.7,144.2 L155.8,146.3 L157.0,148.3 L158.1,150.4
		L159.3,152.5 L160.4,154.5 L161.6,156.6 L162.7,158.7 L163.9,160.7 L165.0,162.8 L166.2,164.8 L167.3,166.9
		L168.5,169.0 L169.6,171.0 L170.8,173.1 L171.9,175.1 L173.1,177.2 L174.2,179.2 L175.4,181.3 L176.5,183.3
		L177.7,185.4 L178.8,187.4 L180.0,189.4 L181.1,191.5 L182.3,193.5 L183.4,195.5 L184.6,197.5 L185.7,199.5
		L186.9,201.5 L188.0,203.5 L189.2,205.5 L190.3,207.5 L191.5,209.5 L192.6,211.4 L193.8,213.4 L194.9,215.4
		L196.1,217.3 L197.2,219.3 L198.4,221.2 L199.5,223.1 L200.7,225.1 L201.8,227.0 L203.0,228.9 L204.1,230.8
		L205.3,232.7 L206.4,234.6 L207.6,236.5 L208.7,238.4 L209.9,240.2 L211.0,242.1 L212.2,243.9 L213.3,245.8
		L214.5,247.6 L215.6,249.5 L216.8,251.3 L217.9,253.1 L219.1,254.9 L220.2,256.7 L221.4,258.5 L222.5,260.3
		L223.7,262.1 L224.8,263.9 L226.0,265.7 L227.1,267.4 L228.3,269.2 L229.4,270.9 L230.6,272.7 L231.7,274.4
		L232.9,276.1 L234.0,277.8 L235.2,279.6 L236.3,281.3 L237.5,283.0 L238.6,284.6 L239.8,286.3 L240.9,288.0
		L242.1,289.7 L243.2,291.3 L244.4,293.0 L245.5,294.6 L246.7,296.3 L247.8,297.9 L249.0,299.5 L250.1,301.1
		L251.3,302.8 L252.4,304.4 L253.6,306.0 L254.7,307.5 L255.9,309.1 L257.0,310.7 L258.2,312.3 L259.3,313.8
		L260.5,315.4 L261.6,316.9 L262.8,318.5 L263.9,320.0 L265.1,321.5 L266.2,323.1 L267.4,324.6 L268.5,326.1
		L269.7,327.6 L270.8,329.1 L272.0,330.6 L273.1,332.1 L274.3,333.5 L275.4,335.0 L276.6,336.5 L277.7,337.9
		L278.9,339.4 L280.0,340.8 L281.2,342.3 L282.3,343.7 L283.5,345.1 L284.6,346.5 L285.8,347.9 L286.9,349.4
		L288.1,350.8 L289.2,352.2 L290.4,353.5 L291.5,354.9 L292.7,356.3 L293.8,357.7 L295.0,359.0 L296.1,360.4
		L297.3,361.8 L298.4,363.1 L299.6,364.5 L300.7,365.8 L301.9,367.1 L303.0,368.5 L304.2,369.8 L305.3,371.1
		L306.5,372.4 L307.6,373.7 L308.8,375.0 L309.9,376.3 L311.1,377.6 L312.2,378.9 L313.4,380.1 L314.5,381.4
		L315.6,382.7 L316.8,383.9 L317.9,385.2 L319.1,386.5 L320.2,387.7 L321.4,388.9 L322.5,390.2 L323.7,391.4
		L324.8,392.6 L326.0,393.9 L327.1,395.1 L328.3,396.3 L329.4,397.5 L330.6,398.7 L331.7,399.9 L332.9,401.1
		L334.0,402.3 L335.2,403.4 L336.3,404.6 L337.5,405.8 L338.6,407.0 L339.8,408.1 L340.9,409.3 L342.1,410.4
		L343.2,411.6 L344.4,412.7 L345.5,413.9 L346.7,415.0 L347.8,416.1 L349.0,417.3 L350.1,418.4 L351.3,419.5
		L352.4,420.6 L353.6,421.7 L354.7,422.8 L355.9,423.9 L357.0,425.0 L358.2,426.1 L359.3,427.2 L360.5,428.3
		L361.6,429.4 L362.8,430.5 L363.9,431.5 L365.1,432.6 L366.2,433.7 L367.4,434.7 L368.5,435.8 L369.7,436.8
		L370.8,437.9 L372.0,438.9 L373.1,439.9 L374.3,441.0 L375.4,442.0 L376.6,443.0 L377.7,444.1 L378.9,445.1
		L380.0,446.1 L381.2,447.1 L382.3,448.1 L383.5,449.1 L384.6,450.1 L385.8,451.1 L386.9,452.1 L388.1,453.1
		L389.2,454.1 L390.4,455.1 L391.5,456.0 L392.7,457.0 L393.8,458.0 L395.0,459.0 L396.1,459.9 L397.3,460.9
		L398.4,461.8 L399.6,462.8 L400.7,463.7 L401.9,464.7 L403.0,465.6 L404.2,466.6 L405.3,467.5 L406.5,468.4
		L407.6,469.4 L408.8,470.3 L409.9,471.2 L411.1,472.1 L412.2,473.1 L413.4,474.0 L414.5,474.9 L415.7,475.8
		L416.8,476.7 L418.0,477.6 L419.1,478.5 L420.3,479.4 L421.4,480.3 L422.6,481.2 L423.7,482.0 L424.9,482.9
		L426.0,483.8 L427.2,484.7 L428.3,485.5 L429.5,486.4 L430.6,487.3 L431.8,488.1 L432.9,489.0 L434.1,489.8
		L435.2,490.7 L436.4,491.5 L437.5,492.4 L438.7,493.2 L439.8,494.1 L441.0,494.9 L442.1,495.8 L443.3,496.6
		L444.4,497.4 L445.6,498.2 L446.7,499.1 L447.9,499.9 L449.0,500.7 L450.2,501.5 L451.3,502.3 L452.5,503.1
		L453.6,503.9 L454.8,504.7 L455.9,505.5 L457.1,506.3 L458.2,507.1 L459.4,507.9 L460.5,508.7 L461.7,509.5
		L462.8,510.3 L464.0,511.1 L465.1,511.9 L466.3,512.6 L467.4,513.4 L468.6,514.2 L469.7,514.9 L470.9,515.7
		L472.0,516.5 L473.2,517.2 L474.3,518.0 L475.5,518.7 L476.6,519.5 L477.8,520.2 L478.9,521.0 L480.1,521.7
		L481.2,522.5 L482.4,523.2 L483.5,524.0 L484.7,524.7 L485.8,525.4 L487.0,526.2 L488.1,526.9 L489.3,527.6
		L490.4,528.3 L491.6,529.0 L492.7,529.8 L493.9,530.5 L495.0,531.2 L496.2,531.9 L497.3,532.6 L498.5,533.3
		L499.6,534.0 L500.8,534.7 L501.9,535.4 L503.1,536.1 L504.2,536.8 L505.4,537.5 L506.5,538.2 L507.7,538.9
		L508.8,539.6 L510.0,540.2 L511.1,540.9 L512.3,541.6 L513.4,542.3 L514.6,542.9 L515.7,543.6 L516.9,544.3
		L518.0,544.9 L519.2,545.6 L520.3,546.3 L521.5,546.9 L522.6,547.6 L523.8,548.2 L524.9,548.9 L526.1,549.5
		L527.2,550.2 L528.4,550.8 L529.5,551.5 L530.7,552.1 L531.8,552.8 L533.0,553.4 L534.1,554.0 L535.3,554.7
		L536.4,555.3 L537.6,555.9 L538.7,556.6 L539.9,557.2 L541.0,557.8 L542.2,558.4 L543.3,559.1 L544.5,559.7
		L545.6,560.3 L546.8,560.9 L547.9,561.5 L549.1,562.1 L550.2,562.7 L551.3,563.3 L552.5,563.9 L553.6,564.5
		L554.8,565.1 L555.9,565.7 L557.1,566.3 L558.2,566.9 L559.4,567.5 L560.5,568.1 L561.7,568.7 L562.8,569.3
		L564.0,569.8 L565.1,570.4 L566.3,571.0 L567.4,571.6 L568.6,572.1 L569.7,572.7 L570.9,573.3 L572.0,573.9
		L573.2,574.4 L574.3,575.0 L575.5,575.6 L576.6,576.1 L577.8,576.7 L578.9,577.2 L580.1,577.8 L581.2,578.3
		L582.4,578.9 L583.5,579.4 L584.7,580.0 L585.8,580.5 L587.0,581.1 L588.1,581.6 L589.3,582.2 L590.4,582.7
		L591.6,583.2 L592.7,583.8 L593.9,584.3 L595.0,584.8 L596.2,585.4 L597.3,585.9 L598.5,586.4 L599.6,586.9
		L600.8,587.5 L601.9,588.0 L603.1,588.5 L604.2,589.0 L605.4,589.5 L606.5,590.0 L607.7,590.6 L608.8,591.1
		L610.0,591.6 L611.1,592.1 L612.3,592.6 L613.4,593.1 L614.6,593.6 L615.7,594.1 L616.9,594.6 L618.0,595.1
		L619.2,595.6 L620.3,596.1 L621.5,596.5 L622.6,597.0 L623.8,597.5 L624.9,598.0 L626.1,598.5 L627.2,599.0
		L628.4,599.4 L629.5,599.9 L630.7,600.4 L631.8,600.9 L633.0,601.3 L634.1,601.8 L635.3,602.3 L636.4,602.8
		L637.6,603.2 L638.7,603.7 L639.9,604.1 L641.0,604.6 L642.2,605.1 L643.3,605.5 L644.5,606.0 L645.6,606.4
		L646.8,606.9 L647.9,607.3 L649.1,607.8 L650.2,608.2 L651.4,608.7 L652.5,609.1 L653.7,609.6 L654.8,610.0
		L656.0,610.4 L657.1,610.9 L658.3,611.3 L659.4,611.7 L660.6,612.2 L661.7,612.6 L662.9,613.0 L664.0,613.5
		L665.2,613.9 L666.3,614.3 L667.5,614.7 L668.6,615.2 L669.8,615.6 L670.9,616.0 L672.1,616.4 L673.2,616.8
		L674.4,617.2 L675.5,617.6 L676.7,618.0 L677.8,618.5 L679.0,618.9 L680.1,619.3 L681.3,619.7 L682.4,620.1
		L683.6,620.5 L684.7,620.9 L685.9,621.3 L687.0,621.7 L688.2,622.0 L689.3,622.4 L690.5,622.8 L691.6,623.2
		L692.8,623.6 L693.9,624.0 L695.1,624.4 L696.2,624.7 L697.4,625.1 L698.5,625.5 L699.7,625.9 L700.8,626.3
		L702.0,626.6 L703.1,627.0 L704.3,627.4 L705.4,627.7 L706.6,628.1 L707.7,628.5 L708.9,628.8 L710.0,629.2
		L711.2,629.6 L712.3,629.9 L713.5,630.3 L714.6,630.6 L715.8,631.0 L716.9,631.3 L718.1,631.7 L719.2,632.0
		L720.4,632.4 L721.5,632.7 L722.7,633.1 L723.8,633.4 L725.0,633.8 L726.1,634.1 L727.3,634.4 L728.4,634.8
		L729.6,635.1 L730.7,635.4 L731.9,635.8 L733.0,636.1 L734.2,636.4 L735.3,636.7 L736.5,637.1 L737.6,637.4
		L738.8,637.7 L739.9,638.0 L741.1,638.4 L742.2,638.7 L743.4,639.0 L744.5,639.3 L745.7,639.6 L746.8,639.9
		L748.0,640.2 L749.1,640.5 L750.3,640.8 L751.4,641.1 L752.6,641.4 L753.7,641.7 L754.9,642.0 L756.0,642.3
		L757.2,642.6 L758.3,642.9 L759.5,643.2 L760.6,643.5 L761.8,643.8 L762.9,644.1 L764.1,644.4 L765.2,644.7
		L766.4,644.9 L767.5,645.2 L768.7,645.5 L769.8,645.8 L771.0,646.1 L772.1,646.3 L773.3,646.6 L774.4,646.9
		L775.6,647.1 L776.7,647.4 L777.9,647.7 L779.0,647.9 L780.2,648.2 L781.3,648.5 L782.5,648.7 L783.6,649.0
		L784.7,649.2 L785.9,649.5 L787.0,649.7 L788.2,650.0 L789.3,650.2 L790.5,650.5 L791.6,650.7 L792.8,651.0
		L793.9,651.2 L795.1,651.4 L796.2,651.7 L797.4,651.9 L798.5,652.2 L799.7,652.4 L800.8,652.6 L802.0,652.9
		L803.1,653.1 L804.3,653.3 L805.4,653.5 L806.6,653.8 L807.7,654.0 L808.9,654.2 L810.0,654.4 L811.2,654.6
		L812.3,654.8 L813.5,655.0 L814.6,655.3 L815.8,655.5 L816.9,655.7 L818.1,655.9 L819.2,656.1 L820.4,656.3
		L821.5,656.5 L822.7,656.7 L823.8,656.9 L825.0,657.1 L826.1,657.3 L827.3,657.5 L828.4,657.6 L829.6,657.8
		L830.7,658.0 L831.9,658.2 L833.0,658.4 L834.2,658.6 L835.3,658.7 L836.5,658.9 L837.6,659.1 L838.8,659.3
		L839.9,659.4 L841.1,659.6 L842.2,659.8 L843.4,659.9 L844.5,660.1 L845.7,660.2 L846.8,660.4 L848.0,660.6
		L849.1,660.7 L850.3,660.9 L851.4,661.0 L852.6,661.2 L853.7,661.3 L854.9,661.5 L856.0,661.6 L857.2,661.7
		L858.3,661.9 L859.5,662.0 L860.6,662.1 L861.8,662.3 L862.9,662.4 L864.1,662.5 L865.2,662.7 L866.4,662.8
		L867.5,662.9 L868.7,663.0 L869.8,663.2 L871.0,663.3 L872.1,663.4 L873.3,663.5 L874.4,663.6 L875.6,663.7
		L876.7,663.8 L877.9,663.9 L879.0,664.0 L880.2,664.1 L881.3,664.2 L882.5,664.3 L883.6,664.4 L884.8,664.5
		L885.9,664.6 L887.1,664.7 L888.2,664.8 L889.4,664.8 L890.5,664.9 L891.7,665.0 L892.8,665.1 L894.0,665.2
		L895.1,665.2 L896.3,665.3 L897.4,665.4 L898.6,665.4 L899.7,665.5 L900.9,665.5 L902.0,665.6 L903.2,665.7
		L904.3,665.7 L905.5,665.8 L906.6,665.8 L907.8,665.9 L908.9,665.9 L910.1,666.0 L911.2,666.0 L912.4,666.0
		L913.5,666.1 L914.7,666.1 L915.8,666.1 L917.0,666.2 L918.1,666.2 L919.3,666.2 L920.4,666.2 L921.6,666.2
		L922.7,666.3 L923.9,666.3 L925.0,666.3 L926.2,666.3 L927.3,666.3 L928.5,666.3 L929.6,666.3 L930.8,666.3
		L931.9,666.3 L933.1,666.3 L934.2,666.3 L935.4,666.3 L936.5,666.3 L937.7,666.3 L938.8,666.2 L940.0,666.2
		L941.1,666.2 L942.3,666.2 L943.4,666.1 L944.6,666.1 L945.7,666.1 L946.9,666.0 L948.0,666.0 L949.2,666.0
		L950.3,665.9 L951.5,665.9 L952.6,665.8 L953.8,665.8 L954.9,665.7 L956.1,665.7 L957.2,665.6 L958.4,665.5
		L959.5,665.5 L960.7,665.4 L961.8,665.3 L963.0,665.3 L964.1,665.2 L965.3,665.1 L966.4,665.0 L967.6,664.9
		L968.7,664.9 L969.9,664.8 L971.0,664.7 L972.2,664.6 L973.3,664.5 L974.5,664.4 L975.6,664.3 L976.8,664.2
		L977.9,664.1 L979.1,664.0 L980.2,663.8 L981.4,663.7 L982.5,663.6 L983.7,663.5 L984.8,663.4 L986.0,663.2
		L987.1,663.1 L988.3,663.0 L989.4,662.8 L990.6,662.7 L991.7,662.6 L992.9,662.4 L994.0,662.3 L995.2,662.1
		L996.3,662.0 L997.5,661.8 L998.6,661.6 L999.8,661.5 L1000.9,661.3 L1002.1,661.2 L1003.2,661.0 L1004.4,660.8
		L1005.5,660.6 L1006.7,660.5 L1007.8,660.3 L1009.0,660.1 L1010.1,659.9 L1011.3,659.7 L1012.4,659.5 L1013.6,659.3
		L1014.7,659.1 L1015.9,658.9 L1017.0,658.7 L1018.2,658.5 L1019.3,658.3 L1020.4,658.1 L1021.6,657.9 L1022.7,657.7
		L1023.9,657.4 L1025.0,657.2 L1026.2,657.0 L1027.3,656.8 L1028.5,656.5 L1029.6,656.3 L1030.8,656.1 L1031.9,655.8
		L1033.1,655.6 L1034.2,655.3 L1035.4,655.1 L1036.5,654.8 L1037.7,654.6 L1038.8,654.3 L1040.0,654.1 L1041.1,653.8
		L1042.3,653.5 L1043.4,653.3 L1044.6,653.0 L1045.7,652.7 L1046.9,652.4 L1048.0,652.2 L1049.2,651.9 L1050.3,651.6
		L1051.5,651.3 L1052.6,651.0 L1053.8,650.7 L1054.9,650.4 L1056.1,650.1 L1057.2,649.8 L1058.4,649.5 L1059.5,649.2
		L1060.7,648.9 L1061.8,648.6 L1063.0,648.3 L1064.1,648.0 L1065.3,647.7 L1066.4,647.3 L1067.6,647.0 L1068.7,646.7
		L1069.9,646.4 L1071.0,646.0 L1072.2,645.7 L1073.3,645.4 L1074.5,645.0 L1075.6,644.7 L1076.8,644.4 L1077.9,644.0
		L1079.1,643.7 L1080.2,643.3 L1081.4,643.0 L1082.5,642.6 L1083.7,642.3 L1084.8,641.9 L1086.0,641.6 L1087.1,641.2
		L1088.3,640.8 L1089.4,640.5 L1090.6,640.1 L1091.7,639.8 L1092.9,639.4 L1094.0,639.0 L1095.2,638.6 L1096.3,638.3
		L1097.5,637.9 L1098.6,637.5 L1099.8,637.2 L1100.9,636.8 L1102.1,636.4 L1103.2,636.0 L1104.4,635.6 L1105.5,635.2
		L1106.7,634.9 L1107.8,634.5 L1109.0,634.1 L1110.1,633.7 L1111.3,633.3 L1112.4,632.9 L1113.6,632.5 L1114.7,632.1
		L1115.9,631.7 L1117.0,631.4 L1118.2,631.0 L1119.3,630.6 L1120.5,630.2 L1121.6,629.8 L1122.8,629.4 L1123.9,629.0
		L1125.1,628.6 L1126.2,628.2 L1127.4,627.8 L1128.5,627.4 L1129.7,627.0 L1130.8,626.6 L1132.0,626.2 L1133.1,625.8
		L1134.3,625.4 L1135.4,625.0 L1136.6,624.6 L1137.7,624.2 L1138.9,623.8 L1140.0,623.4 L1141.2,623.0 L1142.3,622.6
		L1143.5,622.2 L1144.6,621.8 L1145.8,621.4 L1146.9,621.0 L1148.1,620.7 L1149.2,620.3 L1150.4,619.9 L1151.5,619.5
		L1152.7,619.1 L1153.8,618.7 L1155.0,618.3 L1156.1,618.0 L1157.3,617.6 L1158.4,617.2 L1159.6,616.8 L1160.7,616.4
		L1161.9,616.1 L1163.0,615.7 L1164.2,615.3 L1165.3,614.9 L1166.5,614.6 L1167.6,614.2 L1168.8,613.9 L1169.9,613.5
		L1171.1,613.1 L1172.2,612.8 L1173.4,612.4 L1174.5,612.1 L1175.7,611.7 L1176.8,611.4 L1178.0,611.1 L1179.1,610.7
		L1180.3,610.4 L1181.4,610.1 L1182.6,609.7 L1183.7,609.4 L1184.9,609.1 L1186.0,608.8 L1187.2,608.4 L1188.3,608.1
		L1189.5,607.8 L1190.6,607.5 L1191.8,607.2 L1192.9,606.9 L1194.1,606.6 L1195.2,606.3 L1196.4,606.1 L1197.5,605.8
		L1198.7,605.5 L1199.8,605.2 L1201.0,605.0 L1202.1,604.7 L1203.3,604.4 L1204.4,604.2 L1205.6,603.9 L1206.7,603.7
		L1207.9,603.5 L1209.0,603.2 L1210.2,603.0 L1211.3,602.8 L1212.5,602.6 L1213.6,602.3 L1214.8,602.1 L1215.9,601.9
		L1217.1,601.7 L1218.2,601.5 L1219.4,601.3 L1220.5,601.2 L1221.7,601.0 L1222.8,600.8 L1224.0,600.7 L1225.1,600.5
		L1226.3,600.3 L1227.4,600.2 L1228.6,600.0 L1229.7,599.9 L1230.9,599.8 L1232.0,599.6 L1233.2,599.5 L1234.3,599.4
		L1235.5,599.3 L1236.6,599.2 L1237.8,599.1 L1238.9,599.0 L1240.1,598.9 L1241.2,598.9 L1242.4,598.8 L1243.5,598.7
		L1244.7,598.7 L1245.8,598.6 L1247.0,598.6 L1248.1,598.5 L1249.3,598.5 L1250.4,598.5 L1251.6,598.4 L1252.7,598.4
		L1253.9,598.4 L1255.0,598.4  '/></g>
	</g>
	<g id="gnuplot_plot_3" ><title>4 (both)</title>
<g fill="none" color="black" stroke="currentColor" stroke-width="1.00" stroke-linecap="butt" stroke-linejoin="miter">
	<g transform="translate(1187.9,112.0)" stroke="none" fill="black" font-family="Arial" font-size="12.00"  text-anchor="end">
		<text><tspan font-family="Arial" >4 (both)</tspan></text>
	</g>
</g>
<g fill="none" color="black" stroke="currentColor" stroke-width="1.00" stroke-linecap="butt" stroke-linejoin="miter">
	<path stroke='rgb( 86, 180, 233)'  d='M1196.2,108.1 L1238.4,108.1 M78.8,64.3 L79.9,64.4 L81.1,64.4 L82.2,64.5 L83.4,64.7 L84.5,64.9
		L85.7,65.2 L86.8,65.5 L88.0,65.8 L89.1,66.2 L90.3,66.6 L91.4,67.1 L92.6,67.6 L93.7,68.2
		L94.9,68.8 L96.0,69.4 L97.2,70.1 L98.3,70.8 L99.5,71.6 L100.6,72.4 L101.8,73.2 L102.9,74.1
		L104.1,75.0 L105.2,76.0 L106.4,77.0 L107.5,78.0 L108.7,79.0 L109.8,80.1 L111.0,81.2 L112.1,82.4
		L113.3,83.5 L114.4,84.7 L115.6,86.0 L116.7,87.2 L117.9,88.5 L119.0,89.8 L120.2,91.1 L121.3,92.5
		L122.5,93.9 L123.6,95.3 L124.8,96.7 L125.9,98.1 L127.1,99.6 L128.2,101.0 L129.4,102.5 L130.5,104.0
		L131.7,105.6 L132.8,107.1 L134.0,108.7 L135.1,110.2 L136.3,111.8 L137.4,113.4 L138.6,115.0 L139.7,116.6
		L140.9,118.2 L142.0,119.9 L143.2,121.5 L144.3,123.2 L145.5,124.9 L146.6,126.5 L147.8,128.2 L148.9,129.9
		L150.1,131.6 L151.2,133.3 L152.4,135.0 L153.5,136.7 L154.7,138.4 L155.8,140.2 L157.0,141.9 L158.1,143.6
		L159.3,145.4 L160.4,147.1 L161.6,148.8 L162.7,150.6 L163.9,152.3 L165.0,154.1 L166.2,155.8 L167.3,157.6
		L168.5,159.3 L169.6,161.1 L170.8,162.8 L171.9,164.6 L173.1,166.3 L174.2,168.1 L175.4,169.8 L176.5,171.6
		L177.7,173.3 L178.8,175.1 L180.0,176.8 L181.1,178.6 L182.3,180.3 L183.4,182.1 L184.6,183.8 L185.7,185.5
		L186.9,187.3 L188.0,189.0 L189.2,190.8 L190.3,192.5 L191.5,194.2 L192.6,195.9 L193.8,197.7 L194.9,199.4
		L196.1,201.1 L197.2,202.8 L198.4,204.5 L199.5,206.2 L200.7,207.9 L201.8,209.6 L203.0,211.3 L204.1,213.0
		L205.3,214.7 L206.4,216.4 L207.6,218.1 L208.7,219.7 L209.9,221.4 L211.0,223.1 L212.2,224.7 L213.3,226.4
		L214.5,228.0 L215.6,229.7 L216.8,231.3 L217.9,233.0 L219.1,234.6 L220.2,236.3 L221.4,237.9 L222.5,239.5
		L223.7,241.1 L224.8,242.7 L226.0,244.4 L227.1,246.0 L228.3,247.6 L229.4,249.2 L230.6,250.8 L231.7,252.3
		L232.9,253.9 L234.0,255.5 L235.2,257.1 L236.3,258.7 L237.5,260.2 L238.6,261.8 L239.8,263.3 L240.9,264.9
		L242.1,266.4 L243.2,268.0 L244.4,269.5 L245.5,271.0 L246.7,272.6 L247.8,274.1 L249.0,275.6 L250.1,277.1
		L251.3,278.6 L252.4,280.1 L253.6,281.6 L254.7,283.1 L255.9,284.6 L257.0,286.1 L258.2,287.6 L259.3,289.1
		L260.5,290.5 L261.6,292.0 L262.8,293.5 L263.9,294.9 L265.1,296.4 L266.2,297.8 L267.4,299.3 L268.5,300.7
		L269.7,302.1 L270.8,303.6 L272.0,305.0 L273.1,306.4 L274.3,307.8 L275.4,309.3 L276.6,310.7 L277.7,312.1
		L278.9,313.5 L280.0,314.9 L281.2,316.2 L282.3,317.6 L283.5,319.0 L284.6,320.4 L285.8,321.8 L286.9,323.1
		L288.1,324.5 L289.2,325.9 L290.4,327.2 L291.5,328.6 L292.7,329.9 L293.8,331.3 L295.0,332.6 L296.1,333.9
		L297.3,335.3 L298.4,336.6 L299.6,337.9 L300.7,339.2 L301.9,340.6 L303.0,341.9 L304.2,343.2 L305.3,344.5
		L306.5,345.8 L307.6,347.1 L308.8,348.4 L309.9,349.7 L311.1,350.9 L312.2,352.2 L313.4,353.5 L314.5,354.8
		L315.6,356.0 L316.8,357.3 L317.9,358.6 L319.1,359.8 L320.2,361.1 L321.4,362.3 L322.5,363.6 L323.7,364.8
		L324.8,366.1 L326.0,367.3 L327.1,368.5 L328.3,369.8 L329.4,371.0 L330.6,372.2 L331.7,373.4 L332.9,374.7
		L334.0,375.9 L335.2,377.1 L336.3,378.3 L337.5,379.5 L338.6,380.7 L339.8,381.9 L340.9,383.1 L342.1,384.3
		L343.2,385.4 L344.4,386.6 L345.5,387.8 L346.7,389.0 L347.8,390.2 L349.0,391.3 L350.1,392.5 L351.3,393.7
		L352.4,394.8 L353.6,396.0 L354.7,397.1 L355.9,398.3 L357.0,399.4 L358.2,400.6 L359.3,401.7 L360.5,402.9
		L361.6,404.0 L362.8,405.1 L363.9,406.3 L365.1,407.4 L366.2,408.5 L367.4,409.6 L368.5,410.8 L369.7,411.9
		L370.8,413.0 L372.0,414.1 L373.1,415.2 L374.3,416.3 L375.4,417.4 L376.6,418.5 L377.7,419.6 L378.9,420.7
		L380.0,421.8 L381.2,422.9 L382.3,424.0 L383.5,425.1 L384.6,426.1 L385.8,427.2 L386.9,428.3 L388.1,429.4
		L389.2,430.4 L390.4,431.5 L391.5,432.6 L392.7,433.6 L393.8,434.7 L395.0,435.8 L396.1,436.8 L397.3,437.9
		L398.4,438.9 L399.6,440.0 L400.7,441.0 L401.9,442.1 L403.0,443.1 L404.2,444.1 L405.3,445.2 L406.5,446.2
		L407.6,447.3 L408.8,448.3 L409.9,449.3 L411.1,450.3 L412.2,451.4 L413.4,452.4 L414.5,453.4 L415.7,454.4
		L416.8,455.4 L418.0,456.5 L419.1,457.5 L420.3,458.5 L421.4,459.5 L422.6,460.5 L423.7,461.5 L424.9,462.5
		L426.0,463.5 L427.2,464.5 L428.3,465.5 L429.5,466.5 L430.6,467.5 L431.8,468.5 L432.9,469.4 L434.1,470.4
		L435.2,471.4 L436.4,472.4 L437.5,473.4 L438.7,474.3 L439.8,475.3 L441.0,476.3 L442.1,477.3 L443.3,478.2
		L444.4,479.2 L445.6,480.2 L446.7,481.1 L447.9,482.1 L449.0,483.1 L450.2,484.0 L451.3,485.0 L452.5,485.9
		L453.6,486.9 L454.8,487.8 L455.9,488.8 L457.1,489.7 L458.2,490.7 L459.4,491.6 L460.5,492.6 L461.7,493.5
		L462.8,494.4 L464.0,495.4 L465.1,496.3 L466.3,497.2 L467.4,498.2 L468.6,499.1 L469.7,500.0 L470.9,501.0
		L472.0,501.9 L473.2,502.8 L474.3,503.7 L475.5,504.7 L476.6,505.6 L477.8,506.5 L478.9,507.4 L480.1,508.3
		L481.2,509.2 L482.4,510.1 L483.5,511.1 L484.7,512.0 L485.8,512.9 L487.0,513.8 L488.1,514.7 L489.3,515.6
		L490.4,516.5 L491.6,517.4 L492.7,518.3 L493.9,519.2 L495.0,520.1 L496.2,521.0 L497.3,521.9 L498.5,522.7
		L499.6,523.6 L500.8,524.5 L501.9,525.4 L503.1,526.3 L504.2,527.2 L505.4,528.1 L506.5,528.9 L507.7,529.8
		L508.8,530.7 L510.0,531.6 L511.1,532.4 L512.3,533.3 L513.4,534.2 L514.6,535.0 L515.7,535.9 L516.9,536.8
		L518.0,537.6 L519.2,538.5 L520.3,539.4 L521.5,540.2 L522.6,541.1 L523.8,542.0 L524.9,542.8 L526.1,543.7
		L527.2,544.5 L528.4,545.4 L529.5,546.2 L530.7,547.1 L531.8,547.9 L533.0,548.8 L534.1,549.6 L535.3,550.5
		L536.4,551.3 L537.6,552.1 L538.7,553.0 L539.9,553.8 L541.0,554.6 L542.2,555.5 L543.3,556.3 L544.5,557.2
		L545.6,558.0 L546.8,558.8 L547.9,559.6 L549.1,560.5 L550.2,561.3 L551.3,562.1 L552.5,562.9 L553.6,563.8
		L554.8,564.6 L555.9,565.4 L557.1,566.2 L558.2,567.0 L559.4,567.8 L560.5,568.7 L561.7,569.5 L562.8,570.3
		L564.0,571.1 L565.1,571.9 L566.3,572.7 L567.4,573.5 L568.6,574.3 L569.7,575.1 L570.9,575.9 L572.0,576.7
		L573.2,577.5 L574.3,578.3 L575.5,579.1 L576.6,579.9 L577.8,580.7 L578.9,581.4 L580.1,582.2 L581.2,583.0
		L582.4,583.8 L583.5,584.6 L584.7,585.4 L585.8,586.1 L587.0,586.9 L588.1,587.7 L589.3,588.5 L590.4,589.2
		L591.6,590.0 L592.7,590.8 L593.9,591.5 L595.0,592.3 L596.2,593.1 L597.3,593.8 L598.5,594.6 L599.6,595.3
		L600.8,596.1 L601.9,596.9 L603.1,597.6 L604.2,598.4 L605.4,599.1 L606.5,599.9 L607.7,600.6 L608.8,601.3
		L610.0,602.1 L611.1,602.8 L612.3,603.6 L613.4,604.3 L614.6,605.0 L615.7,605.8 L616.9,606.5 L618.0,607.2
		L619.2,607.9 L620.3,608.7 L621.5,609.4 L622.6,610.1 L623.8,610.8 L624.9,611.5 L626.1,612.3 L627.2,613.0
		L628.4,613.7 L629.5,614.4 L630.7,615.1 L631.8,615.8 L633.0,616.5 L634.1,617.2 L635.3,617.9 L636.4,618.6
		L637.6,619.3 L638.7,620.0 L639.9,620.7 L641.0,621.3 L642.2,622.0 L643.3,622.7 L644.5,623.4 L645.6,624.1
		L646.8,624.7 L647.9,625.4 L649.1,626.1 L650.2,626.7 L651.4,627.4 L652.5,628.1 L653.7,628.7 L654.8,629.4
		L656.0,630.0 L657.1,630.7 L658.3,631.3 L659.4,632.0 L660.6,632.6 L661.7,633.2 L662.9,633.9 L664.0,634.5
		L665.2,635.1 L666.3,635.8 L667.5,636.4 L668.6,637.0 L669.8,637.6 L670.9,638.3 L672.1,638.9 L673.2,639.5
		L674.4,640.1 L675.5,640.7 L676.7,641.3 L677.8,641.9 L679.0,642.5 L680.1,643.1 L681.3,643.7 L682.4,644.3
		L683.6,644.8 L684.7,645.4 L685.9,646.0 L687.0,646.6 L688.2,647.1 L689.3,647.7 L690.5,648.3 L691.6,648.8
		L692.8,649.4 L693.9,649.9 L695.1,650.5 L696.2,651.0 L697.4,651.6 L698.5,652.1 L699.7,652.6 L700.8,653.2
		L702.0,653.7 L703.1,654.2 L704.3,654.7 L705.4,655.2 L706.6,655.7 L707.7,656.3 L708.9,656.8 L710.0,657.3
		L711.2,657.7 L712.3,658.2 L713.5,658.7 L714.6,659.2 L715.8,659.7 L716.9,660.2 L718.1,660.6 L719.2,661.1
		L720.4,661.6 L721.5,662.0 L722.7,662.5 L723.8,662.9 L725.0,663.4 L726.1,663.8 L727.3,664.3 L728.4,664.7
		L729.6,665.1 L730.7,665.5 L731.9,666.0 L733.0,666.4 L734.2,666.8 L735.3,667.2 L736.5,667.6 L737.6,668.0
		L738.8,668.4 L739.9,668.8 L741.1,669.2 L742.2,669.5 L743.4,669.9 L744.5,670.3 L745.7,670.6 L746.8,671.0
		L748.0,671.4 L749.1,671.7 L750.3,672.1 L751.4,672.4 L752.6,672.7 L753.7,673.1 L754.9,673.4 L756.0,673.7
		L757.2,674.0 L758.3,674.4 L759.5,674.7 L760.6,675.0 L761.8,675.3 L762.9,675.6 L764.1,675.8 L765.2,676.1
		L766.4,676.4 L767.5,676.7 L768.7,676.9 L769.8,677.2 L771.0,677.5 L772.1,677.7 L773.3,678.0 L774.4,678.2
		L775.6,678.5 L776.7,678.7 L777.9,678.9 L779.0,679.1 L780.2,679.4 L781.3,679.6 L782.5,679.8 L783.6,680.0
		L784.7,680.2 L785.9,680.4 L787.0,680.6 L788.2,680.7 L789.3,680.9 L790.5,681.1 L791.6,681.3 L792.8,681.4
		L793.9,681.6 L795.1,681.7 L796.2,681.9 L797.4,682.0 L798.5,682.2 L799.7,682.3 L800.8,682.4 L802.0,682.5
		L803.1,682.7 L804.3,682.8 L805.4,682.9 L806.6,683.0 L807.7,683.1 L808.9,683.2 L810.0,683.3 L811.2,683.3
		L812.3,683.4 L813.5,683.5 L814.6,683.6 L815.8,683.6 L816.9,683.7 L818.1,683.7 L819.2,683.8 L820.4,683.8
		L821.5,683.9 L822.7,683.9 L823.8,683.9 L825.0,683.9 L826.1,684.0 L827.3,684.0 L828.4,684.0 L829.6,684.0
		L830.7,684.0 L831.9,684.0 L833.0,684.0 L834.2,684.0 L835.3,684.0 L836.5,683.9 L837.6,683.9 L838.8,683.9
		L839.9,683.8 L841.1,683.8 L842.2,683.8 L843.4,683.7 L844.5,683.7 L845.7,683.6 L846.8,683.5 L848.0,683.5
		L849.1,683.4 L850.3,683.3 L851.4,683.3 L852.6,683.2 L853.7,683.1 L854.9,683.0 L856.0,682.9 L857.2,682.8
		L858.3,682.7 L859.5,682.6 L860.6,682.5 L861.8,682.4 L862.9,682.3 L864.1,682.2 L865.2,682.0 L866.4,681.9
		L867.5,681.8 L868.7,681.6 L869.8,681.5 L871.0,681.4 L872.1,681.2 L873.3,681.1 L874.4,680.9 L875.6,680.7
		L876.7,680.6 L877.9,680.4 L879.0,680.3 L880.2,680.1 L881.3,679.9 L882.5,679.7 L883.6,679.6 L884.8,679.4
		L885.9,679.2 L887.1,679.0 L888.2,678.8 L889.4,678.6 L890.5,678.4 L891.7,678.2 L892.8,678.0 L894.0,677.8
		L895.1,677.6 L896.3,677.4 L897.4,677.2 L898.6,677.0 L899.7,676.8 L900.9,676.5 L902.0,676.3 L903.2,676.1
		L904.3,675.9 L905.5,675.6 L906.6,675.4 L907.8,675.2 L908.9,674.9 L910.1,674.7 L911.2,674.4 L912.4,674.2
		L913.5,674.0 L914.7,673.7 L915.8,673.5 L917.0,673.2 L918.1,673.0 L919.3,672.7 L920.4,672.4 L921.6,672.2
		L922.7,671.9 L923.9,671.7 L925.0,671.4 L926.2,671.1 L927.3,670.8 L928.5,670.6 L929.6,670.3 L930.8,670.0
		L931.9,669.8 L933.1,669.5 L934.2,669.2 L935.4,668.9 L936.5,668.6 L937.7,668.4 L938.8,668.1 L940.0,667.8
		L941.1,667.5 L942.3,667.2 L943.4,666.9 L944.6,666.6 L945.7,666.3 L946.9,666.1 L948.0,665.8 L949.2,665.5
		L950.3,665.2 L951.5,664.9 L952.6,664.6 L953.8,664.3 L954.9,664.0 L956.1,663.7 L957.2,663.4 L958.4,663.1
		L959.5,662.8 L960.7,662.5 L961.8,662.2 L963.0,661.9 L964.1,661.5 L965.3,661.2 L966.4,660.9 L967.6,660.6
		L968.7,660.3 L969.9,660.0 L971.0,659.7 L972.2,659.4 L973.3,659.1 L974.5,658.8 L975.6,658.5 L976.8,658.2
		L977.9,657.8 L979.1,657.5 L980.2,657.2 L981.4,656.9 L982.5,656.6 L983.7,656.3 L984.8,656.0 L986.0,655.7
		L987.1,655.3 L988.3,655.0 L989.4,654.7 L990.6,654.4 L991.7,654.1 L992.9,653.8 L994.0,653.5 L995.2,653.1
		L996.3,652.8 L997.5,652.5 L998.6,652.2 L999.8,651.9 L1000.9,651.6 L1002.1,651.3 L1003.2,651.0 L1004.4,650.6
		L1005.5,650.3 L1006.7,650.0 L1007.8,649.7 L1009.0,649.4 L1010.1,649.1 L1011.3,648.8 L1012.4,648.5 L1013.6,648.2
		L1014.7,647.8 L1015.9,647.5 L1017.0,647.2 L1018.2,646.9 L1019.3,646.6 L1020.4,646.3 L1021.6,646.0 L1022.7,645.7
		L1023.9,645.4 L1025.0,645.1 L1026.2,644.8 L1027.3,644.5 L1028.5,644.2 L1029.6,643.9 L1030.8,643.6 L1031.9,643.3
		L1033.1,643.0 L1034.2,642.7 L1035.4,642.4 L1036.5,642.1 L1037.7,641.8 L1038.8,641.5 L1040.0,641.2 L1041.1,640.9
		L1042.3,640.6 L1043.4,640.3 L1044.6,640.0 L1045.7,639.7 L1046.9,639.4 L1048.0,639.1 L1049.2,638.8 L1050.3,638.6
		L1051.5,638.3 L1052.6,638.0 L1053.8,637.7 L1054.9,637.4 L1056.1,637.1 L1057.2,636.8 L1058.4,636.6 L1059.5,636.3
		L1060.7,636.0 L1061.8,635.7 L1063.0,635.4 L1064.1,635.2 L1065.3,634.9 L1066.4,634.6 L1067.6,634.3 L1068.7,634.1
		L1069.9,633.8 L1071.0,633.5 L1072.2,633.3 L1073.3,633.0 L1074.5,632.7 L1075.6,632.5 L1076.8,632.2 L1077.9,631.9
		L1079.1,631.7 L1080.2,631.4 L1081.4,631.2 L1082.5,630.9 L1083.7,630.7 L1084.8,630.4 L1086.0,630.1 L1087.1,629.9
		L1088.3,629.6 L1089.4,629.4 L1090.6,629.1 L1091.7,628.9 L1092.9,628.6 L1094.0,628.4 L1095.2,628.2 L1096.3,627.9
		L1097.5,627.7 L1098.6,627.4 L1099.8,627.2 L1100.9,627.0 L1102.1,626.7 L1103.2,626.5 L1104.4,626.3 L1105.5,626.0
		L1106.7,625.8 L1107.8,625.6 L1109.0,625.4 L1110.1,625.1 L1111.3,624.9 L1112.4,624.7 L1113.6,624.5 L1114.7,624.2
		L1115.9,624.0 L1117.0,623.8 L1118.2,623.6 L1119.3,623.4 L1120.5,623.2 L1121.6,623.0 L1122.8,622.8 L1123.9,622.5
		L1125.1,622.3 L1126.2,622.1 L1127.4,621.9 L1128.5,621.7 L1129.7,621.5 L1130.8,621.3 L1132.0,621.1 L1133.1,621.0
		L1134.3,620.8 L1135.4,620.6 L1136.6,620.4 L1137.7,620.2 L1138.9,620.0 L1140.0,619.8 L1141.2,619.6 L1142.3,619.5
		L1143.5,619.3 L1144.6,619.1 L1145.8,618.9 L1146.9,618.8 L1148.1,618.6 L1149.2,618.4 L1150.4,618.2 L1151.5,618.1
		L1152.7,617.9 L1153.8,617.7 L1155.0,617.6 L1156.1,617.4 L1157.3,617.3 L1158.4,617.1 L1159.6,617.0 L1160.7,616.8
		L1161.9,616.6 L1163.0,616.5 L1164.2,616.4 L1165.3,616.2 L1166.5,616.1 L1167.6,615.9 L1168.8,615.8 L1169.9,615.6
		L1171.1,615.5 L1172.2,615.4 L1173.4,615.2 L1174.5,615.1 L1175.7,615.0 L1176.8,614.8 L1178.0,614.7 L1179.1,614.6
		L1180.3,614.5 L1181.4,614.3 L1182.6,614.2 L1183.7,614.1 L1184.9,614.0 L1186.0,613.9 L1187.2,613.8 L1188.3,613.7
		L1189.5,613.5 L1190.6,613.4 L1191.8,613.3 L1192.9,613.2 L1194.1,613.1 L1195.2,613.0 L1196.4,612.9 L1197.5,612.8
		L1198.7,612.7 L1199.8,612.6 L1201.0,612.6 L1202.1,612.5 L1203.3,612.4 L1204.4,612.3 L1205.6,612.2 L1206.7,612.1
		L1207.9,612.1 L1209.0,612.0 L1210.2,611.9 L1211.3,611.8 L1212.5,611.8 L1213.6,611.7 L1214.8,611.6 L1215.9,611.6
		L1217.1,611.5 L1218.2,611.4 L1219.4,611.4 L1220.5,611.3 L1221.7,611.3 L1222.8,611.2 L1224.0,611.1 L1225.1,611.1
		L1226.3,611.0 L1227.4,611.0 L1228.6,611.0 L1229.7,610.9 L1230.9,610.9 L1232.0,610.8 L1233.2,610.8 L1234.3,610.8
		L1235.5,610.7 L1236.6,610.7 L1237.8,610.7 L1238.9,610.6 L1240.1,610.6 L1241.2,610.6 L1242.4,610.6 L1243.5,610.5
		L1244.7,610.5 L1245.8,610.5 L1247.0,610.5 L1248.1,610.5 L1249.3,610.5 L1250.4,610.5 L1251.6,610.5 L1252.7,610.5
		L1253.9,610.4 L1255.0,610.4  '/></g>
	</g>
	<g id="gnuplot_plot_4" ><title>8 (both)</title>
<g fill="none" color="black" stroke="currentColor" stroke-width="1.00" stroke-linecap="butt" stroke-linejoin="miter">
	<g transform="translate(1187.9,130.0)" stroke="none" fill="black" font-family="Arial" font-size="12.00"  text-anchor="end">
		<text><tspan font-family="Arial" >8 (both)</tspan></text>
	</g>
</g>
<g fill="none" color="black" stroke="currentColor" stroke-width="1.00" stroke-linecap="butt" stroke-linejoin="miter">
	<path stroke='rgb(230, 159,   0)'  d='M1196.2,126.1 L1238.4,126.1 M78.8,56.7 L79.9,56.8 L81.1,57.0 L82.2,57.4 L83.4,58.0 L84.5,58.7
		L85.7,59.5 L86.8,60.5 L88.0,61.6 L89.1,62.8 L90.3,64.1 L91.4,65.4 L92.6,66.8 L93.7,68.3
		L94.9,69.8 L96.0,71.3 L97.2,72.9 L98.3,74.4 L99.5,76.0 L100.6,77.6 L101.8,79.2 L102.9,80.7
		L104.1,82.3 L105.2,83.8 L106.4,85.4 L107.5,86.9 L108.7,88.4 L109.8,89.9 L111.0,91.4 L112.1,92.8
		L113.3,94.3 L114.4,95.7 L115.6,97.2 L116.7,98.6 L117.9,100.1 L119.0,101.5 L120.2,102.9 L121.3,104.3
		L122.5,105.7 L123.6,107.1 L124.8,108.5 L125.9,109.9 L127.1,111.3 L128.2,112.8 L129.4,114.2 L130.5,115.6
		L131.7,117.0 L132.8,118.4 L134.0,119.8 L135.1,121.3 L136.3,122.7 L137.4,124.1 L138.6,125.6 L139.7,127.0
		L140.9,128.5 L142.0,129.9 L143.2,131.4 L144.3,132.9 L145.5,134.3 L146.6,135.8 L147.8,137.3 L148.9,138.8
		L150.1,140.3 L151.2,141.8 L152.4,143.3 L153.5,144.8 L154.7,146.3 L155.8,147.8 L157.0,149.4 L158.1,150.9
		L159.3,152.4 L160.4,154.0 L161.6,155.5 L162.7,157.0 L163.9,158.6 L165.0,160.2 L166.2,161.7 L167.3,163.3
		L168.5,164.8 L169.6,166.4 L170.8,168.0 L171.9,169.5 L173.1,171.1 L174.2,172.7 L175.4,174.3 L176.5,175.8
		L177.7,177.4 L178.8,179.0 L180.0,180.6 L181.1,182.2 L182.3,183.8 L183.4,185.3 L184.6,186.9 L185.7,188.5
		L186.9,190.1 L188.0,191.7 L189.2,193.3 L190.3,194.9 L191.5,196.5 L192.6,198.1 L193.8,199.6 L194.9,201.2
		L196.1,202.8 L197.2,204.4 L198.4,206.0 L199.5,207.6 L200.7,209.2 L201.8,210.7 L203.0,212.3 L204.1,213.9
		L205.3,215.5 L206.4,217.1 L207.6,218.6 L208.7,220.2 L209.9,221.8 L211.0,223.3 L212.2,224.9 L213.3,226.5
		L214.5,228.0 L215.6,229.6 L216.8,231.2 L217.9,232.7 L219.1,234.3 L220.2,235.8 L221.4,237.4 L222.5,238.9
		L223.7,240.5 L224.8,242.0 L226.0,243.5 L227.1,245.1 L228.3,246.6 L229.4,248.1 L230.6,249.7 L231.7,251.2
		L232.9,252.7 L234.0,254.2 L235.2,255.7 L236.3,257.2 L237.5,258.8 L238.6,260.3 L239.8,261.8 L240.9,263.3
		L242.1,264.8 L243.2,266.2 L244.4,267.7 L245.5,269.2 L246.7,270.7 L247.8,272.2 L249.0,273.6 L250.1,275.1
		L251.3,276.6 L252.4,278.0 L253.6,279.5 L254.7,281.0 L255.9,282.4 L257.0,283.9 L258.2,285.3 L259.3,286.8
		L260.5,288.2 L261.6,289.6 L262.8,291.1 L263.9,292.5 L265.1,293.9 L266.2,295.3 L267.4,296.8 L268.5,298.2
		L269.7,299.6 L270.8,301.0 L272.0,302.4 L273.1,303.8 L274.3,305.2 L275.4,306.6 L276.6,308.0 L277.7,309.4
		L278.9,310.7 L280.0,312.1 L281.2,313.5 L282.3,314.9 L283.5,316.2 L284.6,317.6 L285.8,319.0 L286.9,320.3
		L288.1,321.7 L289.2,323.0 L290.4,324.4 L291.5,325.7 L292.7,327.1 L293.8,328.4 L295.0,329.7 L296.1,331.1
		L297.3,332.4 L298.4,333.7 L299.6,335.0 L300.7,336.3 L301.9,337.6 L303.0,339.0 L304.2,340.3 L305.3,341.6
		L306.5,342.9 L307.6,344.2 L308.8,345.5 L309.9,346.7 L311.1,348.0 L312.2,349.3 L313.4,350.6 L314.5,351.9
		L315.6,353.1 L316.8,354.4 L317.9,355.7 L319.1,357.0 L320.2,358.2 L321.4,359.5 L322.5,360.7 L323.7,362.0
		L324.8,363.2 L326.0,364.5 L327.1,365.7 L328.3,367.0 L329.4,368.2 L330.6,369.4 L331.7,370.7 L332.9,371.9
		L334.0,373.1 L335.2,374.3 L336.3,375.5 L337.5,376.8 L338.6,378.0 L339.8,379.2 L340.9,380.4 L342.1,381.6
		L343.2,382.8 L344.4,384.0 L345.5,385.2 L346.7,386.4 L347.8,387.6 L349.0,388.8 L350.1,389.9 L351.3,391.1
		L352.4,392.3 L353.6,393.5 L354.7,394.7 L355.9,395.8 L357.0,397.0 L358.2,398.2 L359.3,399.3 L360.5,400.5
		L361.6,401.6 L362.8,402.8 L363.9,403.9 L365.1,405.1 L366.2,406.2 L367.4,407.4 L368.5,408.5 L369.7,409.7
		L370.8,410.8 L372.0,411.9 L373.1,413.1 L374.3,414.2 L375.4,415.3 L376.6,416.5 L377.7,417.6 L378.9,418.7
		L380.0,419.8 L381.2,420.9 L382.3,422.0 L383.5,423.2 L384.6,424.3 L385.8,425.4 L386.9,426.5 L388.1,427.6
		L389.2,428.7 L390.4,429.8 L391.5,430.9 L392.7,432.0 L393.8,433.1 L395.0,434.1 L396.1,435.2 L397.3,436.3
		L398.4,437.4 L399.6,438.5 L400.7,439.5 L401.9,440.6 L403.0,441.7 L404.2,442.8 L405.3,443.8 L406.5,444.9
		L407.6,446.0 L408.8,447.0 L409.9,448.1 L411.1,449.1 L412.2,450.2 L413.4,451.3 L414.5,452.3 L415.7,453.4
		L416.8,454.4 L418.0,455.5 L419.1,456.5 L420.3,457.5 L421.4,458.6 L422.6,459.6 L423.7,460.7 L424.9,461.7
		L426.0,462.7 L427.2,463.8 L428.3,464.8 L429.5,465.8 L430.6,466.8 L431.8,467.9 L432.9,468.9 L434.1,469.9
		L435.2,470.9 L436.4,471.9 L437.5,472.9 L438.7,474.0 L439.8,475.0 L441.0,476.0 L442.1,477.0 L443.3,478.0
		L444.4,479.0 L445.6,480.0 L446.7,481.0 L447.9,482.0 L449.0,483.0 L450.2,484.0 L451.3,485.0 L452.5,486.0
		L453.6,486.9 L454.8,487.9 L455.9,488.9 L457.1,489.9 L458.2,490.9 L459.4,491.9 L460.5,492.8 L461.7,493.8
		L462.8,494.8 L464.0,495.8 L465.1,496.7 L466.3,497.7 L467.4,498.7 L468.6,499.6 L469.7,500.6 L470.9,501.6
		L472.0,502.5 L473.2,503.5 L474.3,504.4 L475.5,505.4 L476.6,506.4 L477.8,507.3 L478.9,508.3 L480.1,509.2
		L481.2,510.2 L482.4,511.1 L483.5,512.0 L484.7,513.0 L485.8,513.9 L487.0,514.9 L488.1,515.8 L489.3,516.7
		L490.4,517.7 L491.6,518.6 L492.7,519.5 L493.9,520.5 L495.0,521.4 L496.2,522.3 L497.3,523.3 L498.5,524.2
		L499.6,525.1 L500.8,526.0 L501.9,526.9 L503.1,527.9 L504.2,528.8 L505.4,529.7 L506.5,530.6 L507.7,531.5
		L508.8,532.4 L510.0,533.3 L511.1,534.2 L512.3,535.1 L513.4,536.0 L514.6,536.9 L515.7,537.8 L516.9,538.7
		L518.0,539.6 L519.2,540.5 L520.3,541.4 L521.5,542.3 L522.6,543.2 L523.8,544.1 L524.9,545.0 L526.1,545.9
		L527.2,546.8 L528.4,547.6 L529.5,548.5 L530.7,549.4 L531.8,550.3 L533.0,551.2 L534.1,552.0 L535.3,552.9
		L536.4,553.8 L537.6,554.6 L538.7,555.5 L539.9,556.4 L541.0,557.2 L542.2,558.1 L543.3,559.0 L544.5,559.8
		L545.6,560.7 L546.8,561.5 L547.9,562.4 L549.1,563.2 L550.2,564.1 L551.3,564.9 L552.5,565.8 L553.6,566.6
		L554.8,567.5 L555.9,568.3 L557.1,569.1 L558.2,570.0 L559.4,570.8 L560.5,571.7 L561.7,572.5 L562.8,573.3
		L564.0,574.1 L565.1,575.0 L566.3,575.8 L567.4,576.6 L568.6,577.4 L569.7,578.3 L570.9,579.1 L572.0,579.9
		L573.2,580.7 L574.3,581.5 L575.5,582.3 L576.6,583.1 L577.8,583.9 L578.9,584.7 L580.1,585.6 L581.2,586.4
		L582.4,587.1 L583.5,587.9 L584.7,588.7 L585.8,589.5 L587.0,590.3 L588.1,591.1 L589.3,591.9 L590.4,592.7
		L591.6,593.5 L592.7,594.2 L593.9,595.0 L595.0,595.8 L596.2,596.6 L597.3,597.3 L598.5,598.1 L599.6,598.9
		L600.8,599.6 L601.9,600.4 L603.1,601.2 L604.2,601.9 L605.4,602.7 L606.5,603.4 L607.7,604.2 L608.8,604.9
		L610.0,605.7 L611.1,606.4 L612.3,607.2 L613.4,607.9 L614.6,608.6 L615.7,609.4 L616.9,610.1 L618.0,610.8
		L619.2,611.5 L620.3,612.3 L621.5,613.0 L622.6,613.7 L623.8,614.4 L624.9,615.1 L626.1,615.9 L627.2,616.6
		L628.4,617.3 L629.5,618.0 L630.7,618.7 L631.8,619.4 L633.0,620.1 L634.1,620.8 L635.3,621.4 L636.4,622.1
		L637.6,622.8 L638.7,623.5 L639.9,624.2 L641.0,624.9 L642.2,625.5 L643.3,626.2 L644.5,626.9 L645.6,627.5
		L646.8,628.2 L647.9,628.8 L649.1,629.5 L650.2,630.2 L651.4,630.8 L652.5,631.4 L653.7,632.1 L654.8,632.7
		L656.0,633.4 L657.1,634.0 L658.3,634.6 L659.4,635.3 L660.6,635.9 L661.7,636.5 L662.9,637.1 L664.0,637.7
		L665.2,638.3 L666.3,638.9 L667.5,639.6 L668.6,640.2 L669.8,640.7 L670.9,641.3 L672.1,641.9 L673.2,642.5
		L674.4,643.1 L675.5,643.7 L676.7,644.3 L677.8,644.8 L679.0,645.4 L680.1,646.0 L681.3,646.5 L682.4,647.1
		L683.6,647.6 L684.7,648.2 L685.9,648.7 L687.0,649.3 L688.2,649.8 L689.3,650.3 L690.5,650.9 L691.6,651.4
		L692.8,651.9 L693.9,652.4 L695.1,653.0 L696.2,653.5 L697.4,654.0 L698.5,654.5 L699.7,655.0 L700.8,655.5
		L702.0,656.0 L703.1,656.5 L704.3,656.9 L705.4,657.4 L706.6,657.9 L707.7,658.4 L708.9,658.8 L710.0,659.3
		L711.2,659.8 L712.3,660.2 L713.5,660.7 L714.6,661.1 L715.8,661.5 L716.9,662.0 L718.1,662.4 L719.2,662.8
		L720.4,663.3 L721.5,663.7 L722.7,664.1 L723.8,664.5 L725.0,664.9 L726.1,665.3 L727.3,665.7 L728.4,666.1
		L729.6,666.5 L730.7,666.9 L731.9,667.3 L733.0,667.6 L734.2,668.0 L735.3,668.4 L736.5,668.7 L737.6,669.1
		L738.8,669.4 L739.9,669.8 L741.1,670.1 L742.2,670.5 L743.4,670.8 L744.5,671.1 L745.7,671.5 L746.8,671.8
		L748.0,672.1 L749.1,672.4 L750.3,672.7 L751.4,673.0 L752.6,673.3 L753.7,673.6 L754.9,673.9 L756.0,674.2
		L757.2,674.4 L758.3,674.7 L759.5,675.0 L760.6,675.2 L761.8,675.5 L762.9,675.7 L764.1,676.0 L765.2,676.2
		L766.4,676.5 L767.5,676.7 L768.7,676.9 L769.8,677.2 L771.0,677.4 L772.1,677.6 L773.3,677.8 L774.4,678.0
		L775.6,678.2 L776.7,678.4 L777.9,678.6 L779.0,678.8 L780.2,679.0 L781.3,679.2 L782.5,679.3 L783.6,679.5
		L784.7,679.7 L785.9,679.8 L787.0,680.0 L788.2,680.1 L789.3,680.3 L790.5,680.4 L791.6,680.5 L792.8,680.7
		L793.9,680.8 L795.1,680.9 L796.2,681.0 L797.4,681.2 L798.5,681.3 L799.7,681.4 L800.8,681.5 L802.0,681.6
		L803.1,681.6 L804.3,681.7 L805.4,681.8 L806.6,681.9 L807.7,682.0 L808.9,682.0 L810.0,682.1 L811.2,682.1
		L812.3,682.2 L813.5,682.3 L814.6,682.3 L815.8,682.3 L816.9,682.4 L818.1,682.4 L819.2,682.4 L820.4,682.5
		L821.5,682.5 L822.7,682.5 L823.8,682.5 L825.0,682.5 L826.1,682.5 L827.3,682.5 L828.4,682.5 L829.6,682.5
		L830.7,682.5 L831.9,682.5 L833.0,682.4 L834.2,682.4 L835.3,682.4 L836.5,682.4 L837.6,682.3 L838.8,682.3
		L839.9,682.2 L841.1,682.2 L842.2,682.1 L843.4,682.1 L844.5,682.0 L845.7,681.9 L846.8,681.9 L848.0,681.8
		L849.1,681.7 L850.3,681.7 L851.4,681.6 L852.6,681.5 L853.7,681.4 L854.9,681.3 L856.0,681.2 L857.2,681.1
		L858.3,681.0 L859.5,680.9 L860.6,680.8 L861.8,680.7 L862.9,680.6 L864.1,680.4 L865.2,680.3 L866.4,680.2
		L867.5,680.1 L868.7,679.9 L869.8,679.8 L871.0,679.6 L872.1,679.5 L873.3,679.4 L874.4,679.2 L875.6,679.1
		L876.7,678.9 L877.9,678.7 L879.0,678.6 L880.2,678.4 L881.3,678.3 L882.5,678.1 L883.6,677.9 L884.8,677.7
		L885.9,677.6 L887.1,677.4 L888.2,677.2 L889.4,677.0 L890.5,676.8 L891.7,676.7 L892.8,676.5 L894.0,676.3
		L895.1,676.1 L896.3,675.9 L897.4,675.7 L898.6,675.5 L899.7,675.3 L900.9,675.0 L902.0,674.8 L903.2,674.6
		L904.3,674.4 L905.5,674.2 L906.6,674.0 L907.8,673.8 L908.9,673.5 L910.1,673.3 L911.2,673.1 L912.4,672.8
		L913.5,672.6 L914.7,672.4 L915.8,672.1 L917.0,671.9 L918.1,671.7 L919.3,671.4 L920.4,671.2 L921.6,670.9
		L922.7,670.7 L923.9,670.4 L925.0,670.2 L926.2,669.9 L927.3,669.7 L928.5,669.4 L929.6,669.2 L930.8,668.9
		L931.9,668.7 L933.1,668.4 L934.2,668.2 L935.4,667.9 L936.5,667.6 L937.7,667.4 L938.8,667.1 L940.0,666.8
		L941.1,666.6 L942.3,666.3 L943.4,666.0 L944.6,665.7 L945.7,665.5 L946.9,665.2 L948.0,664.9 L949.2,664.6
		L950.3,664.4 L951.5,664.1 L952.6,663.8 L953.8,663.5 L954.9,663.2 L956.1,662.9 L957.2,662.7 L958.4,662.4
		L959.5,662.1 L960.7,661.8 L961.8,661.5 L963.0,661.2 L964.1,660.9 L965.3,660.7 L966.4,660.4 L967.6,660.1
		L968.7,659.8 L969.9,659.5 L971.0,659.2 L972.2,658.9 L973.3,658.6 L974.5,658.3 L975.6,658.0 L976.8,657.7
		L977.9,657.4 L979.1,657.1 L980.2,656.8 L981.4,656.5 L982.5,656.2 L983.7,655.9 L984.8,655.6 L986.0,655.3
		L987.1,655.0 L988.3,654.7 L989.4,654.4 L990.6,654.1 L991.7,653.8 L992.9,653.5 L994.0,653.2 L995.2,652.9
		L996.3,652.6 L997.5,652.3 L998.6,652.0 L999.8,651.7 L1000.9,651.4 L1002.1,651.1 L1003.2,650.8 L1004.4,650.5
		L1005.5,650.2 L1006.7,649.9 L1007.8,649.6 L1009.0,649.3 L1010.1,649.0 L1011.3,648.7 L1012.4,648.4 L1013.6,648.1
		L1014.7,647.8 L1015.9,647.5 L1017.0,647.2 L1018.2,646.9 L1019.3,646.6 L1020.4,646.3 L1021.6,646.0 L1022.7,645.7
		L1023.9,645.4 L1025.0,645.1 L1026.2,644.8 L1027.3,644.5 L1028.5,644.2 L1029.6,644.0 L1030.8,643.7 L1031.9,643.4
		L1033.1,643.1 L1034.2,642.8 L1035.4,642.5 L1036.5,642.2 L1037.7,641.9 L1038.8,641.6 L1040.0,641.3 L1041.1,641.0
		L1042.3,640.7 L1043.4,640.4 L1044.6,640.2 L1045.7,639.9 L1046.9,639.6 L1048.0,639.3 L1049.2,639.0 L1050.3,638.7
		L1051.5,638.4 L1052.6,638.1 L1053.8,637.9 L1054.9,637.6 L1056.1,637.3 L1057.2,637.0 L1058.4,636.7 L1059.5,636.5
		L1060.7,636.2 L1061.8,635.9 L1063.0,635.6 L1064.1,635.3 L1065.3,635.1 L1066.4,634.8 L1067.6,634.5 L1068.7,634.3
		L1069.9,634.0 L1071.0,633.7 L1072.2,633.4 L1073.3,633.2 L1074.5,632.9 L1075.6,632.6 L1076.8,632.4 L1077.9,632.1
		L1079.1,631.8 L1080.2,631.6 L1081.4,631.3 L1082.5,631.1 L1083.7,630.8 L1084.8,630.5 L1086.0,630.3 L1087.1,630.0
		L1088.3,629.8 L1089.4,629.5 L1090.6,629.3 L1091.7,629.0 L1092.9,628.8 L1094.0,628.5 L1095.2,628.3 L1096.3,628.0
		L1097.5,627.8 L1098.6,627.5 L1099.8,627.3 L1100.9,627.1 L1102.1,626.8 L1103.2,626.6 L1104.4,626.3 L1105.5,626.1
		L1106.7,625.9 L1107.8,625.6 L1109.0,625.4 L1110.1,625.2 L1111.3,624.9 L1112.4,624.7 L1113.6,624.5 L1114.7,624.3
		L1115.9,624.0 L1117.0,623.8 L1118.2,623.6 L1119.3,623.4 L1120.5,623.2 L1121.6,622.9 L1122.8,622.7 L1123.9,622.5
		L1125.1,622.3 L1126.2,622.1 L1127.4,621.9 L1128.5,621.7 L1129.7,621.5 L1130.8,621.3 L1132.0,621.1 L1133.1,620.9
		L1134.3,620.7 L1135.4,620.5 L1136.6,620.3 L1137.7,620.1 L1138.9,619.9 L1140.0,619.7 L1141.2,619.5 L1142.3,619.3
		L1143.5,619.1 L1144.6,618.9 L1145.8,618.7 L1146.9,618.6 L1148.1,618.4 L1149.2,618.2 L1150.4,618.0 L1151.5,617.9
		L1152.7,617.7 L1153.8,617.5 L1155.0,617.3 L1156.1,617.2 L1157.3,617.0 L1158.4,616.8 L1159.6,616.7 L1160.7,616.5
		L1161.9,616.4 L1163.0,616.2 L1164.2,616.0 L1165.3,615.9 L1166.5,615.7 L1167.6,615.6 L1168.8,615.4 L1169.9,615.3
		L1171.1,615.1 L1172.2,615.0 L1173.4,614.9 L1174.5,614.7 L1175.7,614.6 L1176.8,614.4 L1178.0,614.3 L1179.1,614.2
		L1180.3,614.0 L1181.4,613.9 L1182.6,613.8 L1183.7,613.7 L1184.9,613.5 L1186.0,613.4 L1187.2,613.3 L1188.3,613.2
		L1189.5,613.1 L1190.6,612.9 L1191.8,612.8 L1192.9,612.7 L1194.1,612.6 L1195.2,612.5 L1196.4,612.4 L1197.5,612.3
		L1198.7,612.2 L1199.8,612.1 L1201.0,612.0 L1202.1,611.9 L1203.3,611.8 L1204.4,611.7 L1205.6,611.6 L1206.7,611.6
		L1207.9,611.5 L1209.0,611.4 L1210.2,611.3 L1211.3,611.2 L1212.5,611.2 L1213.6,611.1 L1214.8,611.0 L1215.9,610.9
		L1217.1,610.9 L1218.2,610.8 L1219.4,610.7 L1220.5,610.7 L1221.7,610.6 L1222.8,610.6 L1224.0,610.5 L1225.1,610.4
		L1226.3,610.4 L1227.4,610.3 L1228.6,610.3 L1229.7,610.3 L1230.9,610.2 L1232.0,610.2 L1233.2,610.1 L1234.3,610.1
		L1235.5,610.1 L1236.6,610.0 L1237.8,610.0 L1238.9,610.0 L1240.1,609.9 L1241.2,609.9 L1242.4,609.9 L1243.5,609.9
		L1244.7,609.8 L1245.8,609.8 L1247.0,609.8 L1248.1,609.8 L1249.3,609.8 L1250.4,609.8 L1251.6,609.8 L1252.7,609.8
		L1253.9,609.8 L1255.0,609.8  '/></g>
	</g>
<g fill="none" color="white" stroke="rgb(230, 159,   0)" stroke-width="2.00" stroke-linecap="butt" stroke-linejoin="miter">
</g>
<g fill="none" color="black" stroke="currentColor" stroke-width="2.00" stroke-linecap="butt" stroke-linejoin="miter">
</g>
<g fill="none" color="black" stroke="black" stroke-width="1.00" stroke-linecap="butt" stroke-linejoin="miter">
</g>
<g fill="none" color="black" stroke="currentColor" stroke-width="1.00" stroke-linecap="butt" stroke-linejoin="miter">
	<path stroke='black'  d='M78.8,54.1 L78.8,684.0 L1255.0,684.0 L1255.0,54.1 L78.8,54.1 Z  '/></g>
<g fill="none" color="black" stroke="currentColor" stroke-width="1.00" stroke-linecap="butt" stroke-linejoin="miter">
</g>
</g>
</svg>

