<?xml version="1.0" encoding="utf-8"  standalone="no"?>
<svg 
 width="1280" height="720"
 viewBox="0 0 1280 720"
 xmlns="http://www.w3.org/2000/svg"
 xmlns:xlink="http://www.w3.org/1999/xlink"
>

<title>Gnuplot</title>
<desc>Produced by GNUPLOT 5.0 patchlevel 6 </desc>

<g id="gnuplot_canvas">

<rect x="0" y="0" width="1280" height="720" fill="none"/>
<defs>

	<circle id='gpDot' r='0.5' stroke-width='0.5'/>
	<path id='gpPt0' stroke-width='0.222' stroke='currentColor' d='M-1,0 h2 M0,-1 v2'/>
	<path id='gpPt1' stroke-width='0.222' stroke='currentColor' d='M-1,-1 L1,1 M1,-1 L-1,1'/>
	<path id='gpPt2' stroke-width='0.222' stroke='currentColor' d='M-1,0 L1,0 M0,-1 L0,1 M-1,-1 L1,1 M-1,1 L1,-1'/>
	<rect id='gpPt3' stroke-width='0.222' stroke='currentColor' x='-1' y='-1' width='2' height='2'/>
	<rect id='gpPt4' stroke-width='0.222' stroke='currentColor' fill='currentColor' x='-1' y='-1' width='2' height='2'/>
	<circle id='gpPt5' stroke-width='0.222' stroke='currentColor' cx='0' cy='0' r='1'/>
	<use xlink:href='#gpPt5' id='gpPt6' fill='currentColor' stroke='none'/>
	<path id='gpPt7' stroke-width='0.222' stroke='currentColor' d='M0,-1.33 L-1.33,0.67 L1.33,0.67 z'/>
	<use xlink:href='#gpPt7' id='gpPt8' fill='currentColor' stroke='none'/>
	<use xlink:href='#gpPt7' id='gpPt9' stroke='currentColor' transform='rotate(180)'/>
	<use xlink:href='#gpPt9' id='gpPt10' fill='currentColor' stroke='none'/>
	<use xlink:href='#gpPt3' id='gpPt11' stroke='currentColor' transform='rotate(45)'/>
	<use xlink:href='#gpPt11' id='gpPt12' fill='currentColor' stroke='none'/>
	<path id='gpPt13' stroke-width='0.222' stroke='currentColor' d='M0,1.330 L1.265,0.411 L0.782,-1.067 L-0.782,-1.076 L-1.265,0.411 z'/>
	<use xlink:href='#gpPt13' id='gpPt14' fill='currentColor' stroke='none'/>
	<filter id='textbox' filterUnits='objectBoundingBox' x='0' y='0' height='1' width='1'>
	  <feFlood flood-color='white' flood-opacity='1' result='bgnd'/>
	  <feComposite in='SourceGraphic' in2='bgnd' operator='atop'/>
	</filter>
	<filter id='greybox' filterUnits='objectBoundingBox' x='0' y='0' height='1' width='1'>
	  <feFlood flood-color='lightgrey' flood-opacity='1' result='grey'/>
	  <feComposite in='SourceGraphic' in2='grey' operator='atop'/>
	</filter>
</defs>
<g fill="none" color="white" stroke="currentColor" stroke-width="1.00" stroke-linecap="butt" stroke-linejoin="miter">
</g>
<g fill="none" color="black" stroke="currentColor" stroke-width="1.00" stroke-linecap="butt" stroke-linejoin="miter">
	<path stroke='black'  d='M103.7,684.0 L112.7,684.0 M1255.0,684.0 L1246.0,684.0  '/>	<g transform="translate(95.4,687.9)" stroke="none" fill="black" font-family="Arial" font-size="12.00"  text-anchor="end">
		<text><tspan font-family="Arial" > 0.0005065</tspan></text>
	</g>
</g>
<g fill="none" color="black" stroke="currentColor" stroke-width="1.00" stroke-linecap="butt" stroke-linejoin="miter">
	<path stroke='black'  d='M103.7,369.0 L112.7,369.0 M1255.0,369.0 L1246.0,369.0  '/>	<g transform="translate(95.4,372.9)" stroke="none" fill="black" font-family="Arial" font-size="12.00"  text-anchor="end">
		<text><tspan font-family="Arial" > 1.15131</tspan></text>
	</g>
</g>
<g fill="none" color="black" stroke="currentColor" stroke-width="1.00" stroke-linecap="butt" stroke-linejoin="miter">
	<path stroke='black'  d='M103.7,54.1 L112.7,54.1 M1255.0,54.1 L1246.0,54.1  '/>	<g transform="translate(95.4,58.0)" stroke="none" fill="black" font-family="Arial" font-size="12.00"  text-anchor="end">
		<text><tspan font-family="Arial" > 2617</tspan></text>
	</g>
</g>
<g fill="none" color="black" stroke="currentColor" stroke-width="1.00" stroke-linecap="butt" stroke-linejoin="miter">
	<path stroke='black'  d='M103.7,684.0 L103.7,675.0 M103.7,54.1 L103.7,63.1  '/>	<g transform="translate(103.7,705.9)" stroke="none" fill="black" font-family="Arial" font-size="12.00"  text-anchor="middle">
		<text><tspan font-family="Arial" > 0</tspan></text>
	</g>
</g>
<g fill="none" color="black" stroke="currentColor" stroke-width="1.00" stroke-linecap="butt" stroke-linejoin="miter">
	<path stroke='black'  d='M679.4,684.0 L679.4,675.0 M679.4,54.1 L679.4,63.1  '/>	<g transform="translate(679.4,705.9)" stroke="none" fill="black" font-family="Arial" font-size="12.00"  text-anchor="middle">
		<text><tspan font-family="Arial" >pi/2</tspan></text>
	</g>
</g>
<g fill="none" color="black" stroke="currentColor" stroke-width="1.00" stroke-linecap="butt" stroke-linejoin="miter">
	<path stroke='black'  d='M1255.0,684.0 L1255.0,675.0 M1255.0,54.1 L1255.0,63.1  '/>	<g transform="translate(1255.0,705.9)" stroke="none" fill="black" font-family="Arial" font-size="12.00"  text-anchor="middle">
		<text><tspan font-family="Arial" >pi</tspan></text>
	</g>
</g>
<g fill="none" color="black" stroke="currentColor" stroke-width="1.00" stroke-linecap="butt" stroke-linejoin="miter">
</g>
<g fill="none" color="black" stroke="currentColor" stroke-width="1.00" stroke-linecap="butt" stroke-linejoin="miter">
	<path stroke='black'  d='M103.7,54.1 L103.7,684.0 L1255.0,684.0 L1255.0,54.1 L103.7,54.1 Z  '/></g>
<g fill="none" color="black" stroke="currentColor" stroke-width="1.00" stroke-linecap="butt" stroke-linejoin="miter">
	<g transform="translate(679.3,31.0)" stroke="none" fill="black" font-family="Arial" font-size="12.00"  text-anchor="middle">
		<text><tspan font-family="Arial" >Material 37</tspan></text>
	</g>
</g>
	<g id="gnuplot_plot_1" ><title>scattering function</title>
<g fill="none" color="black" stroke="currentColor" stroke-width="1.00" stroke-linecap="butt" stroke-linejoin="miter">
	<g transform="translate(1187.9,76.0)" stroke="none" fill="black" font-family="Arial" font-size="12.00"  text-anchor="end">
		<text><tspan font-family="Arial" >scattering function</tspan></text>
	</g>
</g>
<g fill="none" color="black" stroke="currentColor" stroke-width="1.00" stroke-linecap="butt" stroke-linejoin="miter">
	<use xlink:href='#gpPt5' transform='translate(103.7,54.1) scale(2.25)' color='black'/>
	<use xlink:href='#gpPt5' transform='translate(103.7,54.1) scale(2.25)' color='black'/>
	<use xlink:href='#gpPt5' transform='translate(103.7,54.3) scale(2.25)' color='black'/>
	<use xlink:href='#gpPt5' transform='translate(103.7,54.5) scale(2.25)' color='black'/>
	<use xlink:href='#gpPt5' transform='translate(103.7,54.8) scale(2.25)' color='black'/>
	<use xlink:href='#gpPt5' transform='translate(103.7,55.1) scale(2.25)' color='black'/>
	<use xlink:href='#gpPt5' transform='translate(103.8,57.5) scale(2.25)' color='black'/>
	<use xlink:href='#gpPt5' transform='translate(103.8,61.0) scale(2.25)' color='black'/>
	<use xlink:href='#gpPt5' transform='translate(103.8,64.8) scale(2.25)' color='black'/>
	<use xlink:href='#gpPt5' transform='translate(103.9,68.5) scale(2.25)' color='black'/>
	<use xlink:href='#gpPt5' transform='translate(103.9,71.8) scale(2.25)' color='black'/>
	<use xlink:href='#gpPt5' transform='translate(104.0,84.4) scale(2.25)' color='black'/>
	<use xlink:href='#gpPt5' transform='translate(104.1,95.7) scale(2.25)' color='black'/>
	<use xlink:href='#gpPt5' transform='translate(104.2,106.5) scale(2.25)' color='black'/>
	<use xlink:href='#gpPt5' transform='translate(104.3,117.2) scale(2.25)' color='black'/>
	<use xlink:href='#gpPt5' transform='translate(104.5,127.1) scale(2.25)' color='black'/>
	<use xlink:href='#gpPt5' transform='translate(104.6,136.7) scale(2.25)' color='black'/>
	<use xlink:href='#gpPt5' transform='translate(104.7,146.8) scale(2.25)' color='black'/>
	<use xlink:href='#gpPt5' transform='translate(104.9,156.8) scale(2.25)' color='black'/>
	<use xlink:href='#gpPt5' transform='translate(105.0,167.0) scale(2.25)' color='black'/>
	<use xlink:href='#gpPt5' transform='translate(105.1,176.3) scale(2.25)' color='black'/>
	<use xlink:href='#gpPt5' transform='translate(105.2,184.6) scale(2.25)' color='black'/>
	<use xlink:href='#gpPt5' transform='translate(105.4,192.0) scale(2.25)' color='black'/>
	<use xlink:href='#gpPt5' transform='translate(105.5,198.5) scale(2.25)' color='black'/>
	<use xlink:href='#gpPt5' transform='translate(105.6,204.6) scale(2.25)' color='black'/>
	<use xlink:href='#gpPt5' transform='translate(105.9,208.7) scale(2.25)' color='black'/>
	<use xlink:href='#gpPt5' transform='translate(106.3,221.6) scale(2.25)' color='black'/>
	<use xlink:href='#gpPt5' transform='translate(106.6,236.0) scale(2.25)' color='black'/>
	<use xlink:href='#gpPt5' transform='translate(106.9,247.1) scale(2.25)' color='black'/>
	<use xlink:href='#gpPt5' transform='translate(107.2,254.5) scale(2.25)' color='black'/>
	<use xlink:href='#gpPt5' transform='translate(107.5,260.5) scale(2.25)' color='black'/>
	<use xlink:href='#gpPt5' transform='translate(107.9,268.5) scale(2.25)' color='black'/>
	<use xlink:href='#gpPt5' transform='translate(108.2,277.4) scale(2.25)' color='black'/>
	<use xlink:href='#gpPt5' transform='translate(108.5,287.0) scale(2.25)' color='black'/>
	<use xlink:href='#gpPt5' transform='translate(108.8,295.5) scale(2.25)' color='black'/>
	<use xlink:href='#gpPt5' transform='translate(109.1,304.3) scale(2.25)' color='black'/>
	<use xlink:href='#gpPt5' transform='translate(109.5,311.9) scale(2.25)' color='black'/>
	<use xlink:href='#gpPt5' transform='translate(109.8,317.6) scale(2.25)' color='black'/>
	<use xlink:href='#gpPt5' transform='translate(110.1,321.7) scale(2.25)' color='black'/>
	<use xlink:href='#gpPt5' transform='translate(110.4,327.7) scale(2.25)' color='black'/>
	<use xlink:href='#gpPt5' transform='translate(110.7,335.1) scale(2.25)' color='black'/>
	<use xlink:href='#gpPt5' transform='translate(111.1,343.4) scale(2.25)' color='black'/>
	<use xlink:href='#gpPt5' transform='translate(111.4,349.6) scale(2.25)' color='black'/>
	<use xlink:href='#gpPt5' transform='translate(111.7,355.4) scale(2.25)' color='black'/>
	<use xlink:href='#gpPt5' transform='translate(112.0,362.3) scale(2.25)' color='black'/>
	<use xlink:href='#gpPt5' transform='translate(112.3,370.4) scale(2.25)' color='black'/>
	<use xlink:href='#gpPt5' transform='translate(112.7,376.9) scale(2.25)' color='black'/>
	<use xlink:href='#gpPt5' transform='translate(113.0,383.0) scale(2.25)' color='black'/>
	<use xlink:href='#gpPt5' transform='translate(113.3,389.8) scale(2.25)' color='black'/>
	<use xlink:href='#gpPt5' transform='translate(113.6,398.3) scale(2.25)' color='black'/>
	<use xlink:href='#gpPt5' transform='translate(113.9,404.3) scale(2.25)' color='black'/>
	<use xlink:href='#gpPt5' transform='translate(114.3,406.6) scale(2.25)' color='black'/>
	<use xlink:href='#gpPt5' transform='translate(114.6,407.6) scale(2.25)' color='black'/>
	<use xlink:href='#gpPt5' transform='translate(114.9,410.6) scale(2.25)' color='black'/>
	<use xlink:href='#gpPt5' transform='translate(115.2,414.0) scale(2.25)' color='black'/>
	<use xlink:href='#gpPt5' transform='translate(115.5,417.9) scale(2.25)' color='black'/>
	<use xlink:href='#gpPt5' transform='translate(115.9,422.6) scale(2.25)' color='black'/>
	<use xlink:href='#gpPt5' transform='translate(116.2,428.2) scale(2.25)' color='black'/>
	<use xlink:href='#gpPt5' transform='translate(116.5,431.6) scale(2.25)' color='black'/>
	<use xlink:href='#gpPt5' transform='translate(119.7,432.3) scale(2.25)' color='black'/>
	<use xlink:href='#gpPt5' transform='translate(122.9,432.8) scale(2.25)' color='black'/>
	<use xlink:href='#gpPt5' transform='translate(126.1,476.6) scale(2.25)' color='black'/>
	<use xlink:href='#gpPt5' transform='translate(129.3,491.7) scale(2.25)' color='black'/>
	<use xlink:href='#gpPt5' transform='translate(132.5,497.7) scale(2.25)' color='black'/>
	<use xlink:href='#gpPt5' transform='translate(135.7,510.1) scale(2.25)' color='black'/>
	<use xlink:href='#gpPt5' transform='translate(142.1,537.0) scale(2.25)' color='black'/>
	<use xlink:href='#gpPt5' transform='translate(148.5,538.7) scale(2.25)' color='black'/>
	<use xlink:href='#gpPt5' transform='translate(154.9,556.4) scale(2.25)' color='black'/>
	<use xlink:href='#gpPt5' transform='translate(161.3,569.3) scale(2.25)' color='black'/>
	<use xlink:href='#gpPt5' transform='translate(167.7,576.7) scale(2.25)' color='black'/>
	<use xlink:href='#gpPt5' transform='translate(174.1,585.2) scale(2.25)' color='black'/>
	<use xlink:href='#gpPt5' transform='translate(180.5,592.3) scale(2.25)' color='black'/>
	<use xlink:href='#gpPt5' transform='translate(186.8,596.0) scale(2.25)' color='black'/>
	<use xlink:href='#gpPt5' transform='translate(193.2,601.9) scale(2.25)' color='black'/>
	<use xlink:href='#gpPt5' transform='translate(199.6,605.3) scale(2.25)' color='black'/>
	<use xlink:href='#gpPt5' transform='translate(206.0,607.9) scale(2.25)' color='black'/>
	<use xlink:href='#gpPt5' transform='translate(212.4,612.3) scale(2.25)' color='black'/>
	<use xlink:href='#gpPt5' transform='translate(218.8,612.9) scale(2.25)' color='black'/>
	<use xlink:href='#gpPt5' transform='translate(225.2,615.5) scale(2.25)' color='black'/>
	<use xlink:href='#gpPt5' transform='translate(231.6,616.9) scale(2.25)' color='black'/>
	<use xlink:href='#gpPt5' transform='translate(238.0,540.0) scale(2.25)' color='black'/>
	<use xlink:href='#gpPt5' transform='translate(244.4,514.9) scale(2.25)' color='black'/>
	<use xlink:href='#gpPt5' transform='translate(250.8,512.8) scale(2.25)' color='black'/>
	<use xlink:href='#gpPt5' transform='translate(257.2,510.8) scale(2.25)' color='black'/>
	<use xlink:href='#gpPt5' transform='translate(263.6,519.4) scale(2.25)' color='black'/>
	<use xlink:href='#gpPt5' transform='translate(270.0,530.5) scale(2.25)' color='black'/>
	<use xlink:href='#gpPt5' transform='translate(276.4,538.0) scale(2.25)' color='black'/>
	<use xlink:href='#gpPt5' transform='translate(282.8,547.1) scale(2.25)' color='black'/>
	<use xlink:href='#gpPt5' transform='translate(289.2,554.2) scale(2.25)' color='black'/>
	<use xlink:href='#gpPt5' transform='translate(295.6,562.4) scale(2.25)' color='black'/>
	<use xlink:href='#gpPt5' transform='translate(308.4,576.1) scale(2.25)' color='black'/>
	<use xlink:href='#gpPt5' transform='translate(321.2,589.4) scale(2.25)' color='black'/>
	<use xlink:href='#gpPt5' transform='translate(334.0,601.1) scale(2.25)' color='black'/>
	<use xlink:href='#gpPt5' transform='translate(346.8,610.7) scale(2.25)' color='black'/>
	<use xlink:href='#gpPt5' transform='translate(359.5,617.9) scale(2.25)' color='black'/>
	<use xlink:href='#gpPt5' transform='translate(372.3,623.7) scale(2.25)' color='black'/>
	<use xlink:href='#gpPt5' transform='translate(385.1,627.4) scale(2.25)' color='black'/>
	<use xlink:href='#gpPt5' transform='translate(397.9,599.6) scale(2.25)' color='black'/>
	<use xlink:href='#gpPt5' transform='translate(410.7,591.7) scale(2.25)' color='black'/>
	<use xlink:href='#gpPt5' transform='translate(423.5,601.8) scale(2.25)' color='black'/>
	<use xlink:href='#gpPt5' transform='translate(436.3,610.8) scale(2.25)' color='black'/>
	<use xlink:href='#gpPt5' transform='translate(449.1,618.3) scale(2.25)' color='black'/>
	<use xlink:href='#gpPt5' transform='translate(461.9,625.5) scale(2.25)' color='black'/>
	<use xlink:href='#gpPt5' transform='translate(474.7,629.6) scale(2.25)' color='black'/>
	<use xlink:href='#gpPt5' transform='translate(487.5,631.0) scale(2.25)' color='black'/>
	<use xlink:href='#gpPt5' transform='translate(500.3,631.3) scale(2.25)' color='black'/>
	<use xlink:href='#gpPt5' transform='translate(513.1,631.2) scale(2.25)' color='black'/>
	<use xlink:href='#gpPt5' transform='translate(525.8,631.1) scale(2.25)' color='black'/>
	<use xlink:href='#gpPt5' transform='translate(538.6,631.6) scale(2.25)' color='black'/>
	<use xlink:href='#gpPt5' transform='translate(551.4,630.6) scale(2.25)' color='black'/>
	<use xlink:href='#gpPt5' transform='translate(564.2,630.7) scale(2.25)' color='black'/>
	<use xlink:href='#gpPt5' transform='translate(577.0,630.7) scale(2.25)' color='black'/>
	<use xlink:href='#gpPt5' transform='translate(589.8,632.0) scale(2.25)' color='black'/>
	<use xlink:href='#gpPt5' transform='translate(602.6,632.4) scale(2.25)' color='black'/>
	<use xlink:href='#gpPt5' transform='translate(615.4,633.1) scale(2.25)' color='black'/>
	<use xlink:href='#gpPt5' transform='translate(628.2,633.9) scale(2.25)' color='black'/>
	<use xlink:href='#gpPt5' transform='translate(641.0,635.7) scale(2.25)' color='black'/>
	<use xlink:href='#gpPt5' transform='translate(653.8,636.3) scale(2.25)' color='black'/>
	<use xlink:href='#gpPt5' transform='translate(666.6,637.6) scale(2.25)' color='black'/>
	<use xlink:href='#gpPt5' transform='translate(679.4,638.7) scale(2.25)' color='black'/>
	<use xlink:href='#gpPt5' transform='translate(692.1,640.6) scale(2.25)' color='black'/>
	<use xlink:href='#gpPt5' transform='translate(704.9,642.1) scale(2.25)' color='black'/>
	<use xlink:href='#gpPt5' transform='translate(717.7,642.6) scale(2.25)' color='black'/>
	<use xlink:href='#gpPt5' transform='translate(730.5,644.7) scale(2.25)' color='black'/>
	<use xlink:href='#gpPt5' transform='translate(743.3,646.1) scale(2.25)' color='black'/>
	<use xlink:href='#gpPt5' transform='translate(756.1,648.6) scale(2.25)' color='black'/>
	<use xlink:href='#gpPt5' transform='translate(768.9,651.3) scale(2.25)' color='black'/>
	<use xlink:href='#gpPt5' transform='translate(781.7,653.2) scale(2.25)' color='black'/>
	<use xlink:href='#gpPt5' transform='translate(794.5,655.9) scale(2.25)' color='black'/>
	<use xlink:href='#gpPt5' transform='translate(807.3,657.7) scale(2.25)' color='black'/>
	<use xlink:href='#gpPt5' transform='translate(820.1,659.7) scale(2.25)' color='black'/>
	<use xlink:href='#gpPt5' transform='translate(832.9,662.4) scale(2.25)' color='black'/>
	<use xlink:href='#gpPt5' transform='translate(845.6,668.2) scale(2.25)' color='black'/>
	<use xlink:href='#gpPt5' transform='translate(858.4,675.4) scale(2.25)' color='black'/>
	<use xlink:href='#gpPt5' transform='translate(871.2,679.7) scale(2.25)' color='black'/>
	<use xlink:href='#gpPt5' transform='translate(884.0,682.6) scale(2.25)' color='black'/>
	<use xlink:href='#gpPt5' transform='translate(896.8,684.0) scale(2.25)' color='black'/>
	<use xlink:href='#gpPt5' transform='translate(909.6,682.9) scale(2.25)' color='black'/>
	<use xlink:href='#gpPt5' transform='translate(922.4,682.7) scale(2.25)' color='black'/>
	<use xlink:href='#gpPt5' transform='translate(935.2,682.3) scale(2.25)' color='black'/>
	<use xlink:href='#gpPt5' transform='translate(948.0,681.6) scale(2.25)' color='black'/>
	<use xlink:href='#gpPt5' transform='translate(960.8,680.7) scale(2.25)' color='black'/>
	<use xlink:href='#gpPt5' transform='translate(973.6,677.3) scale(2.25)' color='black'/>
	<use xlink:href='#gpPt5' transform='translate(986.4,672.9) scale(2.25)' color='black'/>
	<use xlink:href='#gpPt5' transform='translate(999.2,667.0) scale(2.25)' color='black'/>
	<use xlink:href='#gpPt5' transform='translate(1011.9,659.8) scale(2.25)' color='black'/>
	<use xlink:href='#gpPt5' transform='translate(1024.7,655.6) scale(2.25)' color='black'/>
	<use xlink:href='#gpPt5' transform='translate(1037.5,650.4) scale(2.25)' color='black'/>
	<use xlink:href='#gpPt5' transform='translate(1050.3,644.5) scale(2.25)' color='black'/>
	<use xlink:href='#gpPt5' transform='translate(1063.1,641.4) scale(2.25)' color='black'/>
	<use xlink:href='#gpPt5' transform='translate(1075.9,636.3) scale(2.25)' color='black'/>
	<use xlink:href='#gpPt5' transform='translate(1088.7,635.1) scale(2.25)' color='black'/>
	<use xlink:href='#gpPt5' transform='translate(1101.5,635.4) scale(2.25)' color='black'/>
	<use xlink:href='#gpPt5' transform='translate(1114.3,640.4) scale(2.25)' color='black'/>
	<use xlink:href='#gpPt5' transform='translate(1127.1,644.2) scale(2.25)' color='black'/>
	<use xlink:href='#gpPt5' transform='translate(1139.9,652.3) scale(2.25)' color='black'/>
	<use xlink:href='#gpPt5' transform='translate(1152.7,658.2) scale(2.25)' color='black'/>
	<use xlink:href='#gpPt5' transform='translate(1165.5,661.1) scale(2.25)' color='black'/>
	<use xlink:href='#gpPt5' transform='translate(1178.2,657.8) scale(2.25)' color='black'/>
	<use xlink:href='#gpPt5' transform='translate(1191.0,639.9) scale(2.25)' color='black'/>
	<use xlink:href='#gpPt5' transform='translate(1203.8,636.2) scale(2.25)' color='black'/>
	<use xlink:href='#gpPt5' transform='translate(1216.6,631.9) scale(2.25)' color='black'/>
	<use xlink:href='#gpPt5' transform='translate(1229.4,617.8) scale(2.25)' color='black'/>
	<use xlink:href='#gpPt5' transform='translate(1242.2,591.9) scale(2.25)' color='black'/>
	<use xlink:href='#gpPt5' transform='translate(1248.6,568.0) scale(2.25)' color='black'/>
	<use xlink:href='#gpPt5' transform='translate(1251.8,540.1) scale(2.25)' color='black'/>
	<use xlink:href='#gpPt5' transform='translate(1255.0,488.8) scale(2.25)' color='black'/>
	<use xlink:href='#gpPt5' transform='translate(1217.3,72.1) scale(2.25)' color='black'/>
</g>
	</g>
	<g id="gnuplot_plot_2" ><title>2 (convex)</title>
<g fill="none" color="black" stroke="currentColor" stroke-width="1.00" stroke-linecap="butt" stroke-linejoin="miter">
	<g transform="translate(1187.9,94.0)" stroke="none" fill="black" font-family="Arial" font-size="12.00"  text-anchor="end">
		<text><tspan font-family="Arial" >2 (convex)</tspan></text>
	</g>
</g>
<g fill="none" color="black" stroke="currentColor" stroke-width="1.00" stroke-linecap="butt" stroke-linejoin="miter">
	<path stroke='rgb(  0, 158, 115)'  d='M1196.2,90.1 L1238.4,90.1 M103.7,62.0 L104.8,142.9 L106.0,214.0 L107.1,260.6 L108.2,294.8 L109.3,321.5
		L110.5,343.5 L111.6,362.1 L112.7,378.2 L113.8,392.4 L115.0,405.1 L116.1,416.5 L117.2,426.9 L118.3,436.5
		L119.5,445.2 L120.6,453.3 L121.7,460.8 L122.8,467.8 L124.0,474.3 L125.1,480.4 L126.2,486.1 L127.3,491.4
		L128.5,496.4 L129.6,501.2 L130.7,505.6 L131.8,509.8 L133.0,513.7 L134.1,517.4 L135.2,520.9 L136.3,524.2
		L137.5,527.3 L138.6,530.2 L139.7,532.9 L140.8,535.5 L142.0,538.0 L143.1,540.3 L144.2,542.4 L145.3,544.5
		L146.5,546.4 L147.6,548.3 L148.7,550.0 L149.8,551.6 L151.0,553.1 L152.1,554.6 L153.2,555.9 L154.3,557.2
		L155.5,558.4 L156.6,559.6 L157.7,560.7 L158.8,561.7 L160.0,562.7 L161.1,563.6 L162.2,564.5 L163.3,565.3
		L164.5,566.1 L165.6,566.9 L166.7,567.6 L167.8,568.3 L169.0,568.9 L170.1,569.5 L171.2,570.1 L172.4,570.6
		L173.5,571.2 L174.6,571.7 L175.7,572.2 L176.9,572.6 L178.0,573.1 L179.1,573.5 L180.2,573.9 L181.4,574.3
		L182.5,574.6 L183.6,575.0 L184.7,575.3 L185.9,575.7 L187.0,576.0 L188.1,576.3 L189.2,576.6 L190.4,576.9
		L191.5,577.2 L192.6,577.4 L193.7,577.7 L194.9,577.9 L196.0,578.2 L197.1,578.4 L198.2,578.6 L199.4,578.8
		L200.5,579.1 L201.6,579.3 L202.7,579.5 L203.9,579.7 L205.0,579.9 L206.1,580.1 L207.2,580.2 L208.4,580.4
		L209.5,580.6 L210.6,580.8 L211.7,580.9 L212.9,581.1 L214.0,581.3 L215.1,581.4 L216.2,581.6 L217.4,581.7
		L218.5,581.9 L219.6,582.0 L220.7,582.2 L221.9,582.3 L223.0,582.5 L224.1,582.6 L225.2,582.7 L226.4,582.9
		L227.5,583.0 L228.6,583.1 L229.7,583.3 L230.9,583.4 L232.0,583.5 L233.1,583.7 L234.2,583.8 L235.4,583.9
		L236.5,584.0 L237.6,584.2 L238.7,584.3 L239.9,584.4 L241.0,584.5 L242.1,584.6 L243.3,584.8 L244.4,584.9
		L245.5,585.0 L246.6,585.1 L247.8,585.2 L248.9,585.3 L250.0,585.5 L251.1,585.6 L252.3,585.7 L253.4,585.8
		L254.5,585.9 L255.6,586.0 L256.8,586.2 L257.9,586.3 L259.0,586.4 L260.1,586.5 L261.3,586.6 L262.4,586.7
		L263.5,586.8 L264.6,586.9 L265.8,587.1 L266.9,587.2 L268.0,587.3 L269.1,587.4 L270.3,587.5 L271.4,587.6
		L272.5,587.7 L273.6,587.8 L274.8,587.9 L275.9,588.1 L277.0,588.2 L278.1,588.3 L279.3,588.4 L280.4,588.5
		L281.5,588.6 L282.6,588.7 L283.8,588.8 L284.9,588.9 L286.0,589.1 L287.1,589.2 L288.3,589.3 L289.4,589.4
		L290.5,589.5 L291.6,589.6 L292.8,589.7 L293.9,589.8 L295.0,590.0 L296.1,590.1 L297.3,590.2 L298.4,590.3
		L299.5,590.4 L300.6,590.5 L301.8,590.6 L302.9,590.7 L304.0,590.9 L305.1,591.0 L306.3,591.1 L307.4,591.2
		L308.5,591.3 L309.7,591.4 L310.8,591.5 L311.9,591.7 L313.0,591.8 L314.2,591.9 L315.3,592.0 L316.4,592.1
		L317.5,592.2 L318.7,592.3 L319.8,592.5 L320.9,592.6 L322.0,592.7 L323.2,592.8 L324.3,592.9 L325.4,593.0
		L326.5,593.2 L327.7,593.3 L328.8,593.4 L329.9,593.5 L331.0,593.6 L332.2,593.7 L333.3,593.9 L334.4,594.0
		L335.5,594.1 L336.7,594.2 L337.8,594.3 L338.9,594.4 L340.0,594.6 L341.2,594.7 L342.3,594.8 L343.4,594.9
		L344.5,595.0 L345.7,595.2 L346.8,595.3 L347.9,595.4 L349.0,595.5 L350.2,595.6 L351.3,595.8 L352.4,595.9
		L353.5,596.0 L354.7,596.1 L355.8,596.2 L356.9,596.4 L358.0,596.5 L359.2,596.6 L360.3,596.7 L361.4,596.8
		L362.5,597.0 L363.7,597.1 L364.8,597.2 L365.9,597.3 L367.0,597.4 L368.2,597.6 L369.3,597.7 L370.4,597.8
		L371.5,597.9 L372.7,598.1 L373.8,598.2 L374.9,598.3 L376.1,598.4 L377.2,598.5 L378.3,598.7 L379.4,598.8
		L380.6,598.9 L381.7,599.0 L382.8,599.2 L383.9,599.3 L385.1,599.4 L386.2,599.5 L387.3,599.7 L388.4,599.8
		L389.6,599.9 L390.7,600.0 L391.8,600.2 L392.9,600.3 L394.1,600.4 L395.2,600.5 L396.3,600.7 L397.4,600.8
		L398.6,600.9 L399.7,601.0 L400.8,601.2 L401.9,601.3 L403.1,601.4 L404.2,601.5 L405.3,601.7 L406.4,601.8
		L407.6,601.9 L408.7,602.0 L409.8,602.2 L410.9,602.3 L412.1,602.4 L413.2,602.5 L414.3,602.7 L415.4,602.8
		L416.6,602.9 L417.7,603.0 L418.8,603.2 L419.9,603.3 L421.1,603.4 L422.2,603.5 L423.3,603.7 L424.4,603.8
		L425.6,603.9 L426.7,604.0 L427.8,604.2 L428.9,604.3 L430.1,604.4 L431.2,604.6 L432.3,604.7 L433.4,604.8
		L434.6,604.9 L435.7,605.1 L436.8,605.2 L437.9,605.3 L439.1,605.4 L440.2,605.6 L441.3,605.7 L442.5,605.8
		L443.6,605.9 L444.7,606.1 L445.8,606.2 L447.0,606.3 L448.1,606.5 L449.2,606.6 L450.3,606.7 L451.5,606.8
		L452.6,607.0 L453.7,607.1 L454.8,607.2 L456.0,607.3 L457.1,607.5 L458.2,607.6 L459.3,607.7 L460.5,607.8
		L461.6,608.0 L462.7,608.1 L463.8,608.2 L465.0,608.4 L466.1,608.5 L467.2,608.6 L468.3,608.7 L469.5,608.9
		L470.6,609.0 L471.7,609.1 L472.8,609.2 L474.0,609.4 L475.1,609.5 L476.2,609.6 L477.3,609.7 L478.5,609.9
		L479.6,610.0 L480.7,610.1 L481.8,610.3 L483.0,610.4 L484.1,610.5 L485.2,610.6 L486.3,610.8 L487.5,610.9
		L488.6,611.0 L489.7,611.1 L490.8,611.3 L492.0,611.4 L493.1,611.5 L494.2,611.6 L495.3,611.8 L496.5,611.9
		L497.6,612.0 L498.7,612.1 L499.8,612.3 L501.0,612.4 L502.1,612.5 L503.2,612.6 L504.3,612.8 L505.5,612.9
		L506.6,613.0 L507.7,613.1 L508.8,613.3 L510.0,613.4 L511.1,613.5 L512.2,613.6 L513.4,613.8 L514.5,613.9
		L515.6,614.0 L516.7,614.1 L517.9,614.3 L519.0,614.4 L520.1,614.5 L521.2,614.6 L522.4,614.8 L523.5,614.9
		L524.6,615.0 L525.7,615.1 L526.9,615.3 L528.0,615.4 L529.1,615.5 L530.2,615.6 L531.4,615.8 L532.5,615.9
		L533.6,616.0 L534.7,616.1 L535.9,616.3 L537.0,616.4 L538.1,616.5 L539.2,616.6 L540.4,616.7 L541.5,616.9
		L542.6,617.0 L543.7,617.1 L544.9,617.2 L546.0,617.4 L547.1,617.5 L548.2,617.6 L549.4,617.7 L550.5,617.8
		L551.6,618.0 L552.7,618.1 L553.9,618.2 L555.0,618.3 L556.1,618.5 L557.2,618.6 L558.4,618.7 L559.5,618.8
		L560.6,618.9 L561.7,619.1 L562.9,619.2 L564.0,619.3 L565.1,619.4 L566.2,619.5 L567.4,619.7 L568.5,619.8
		L569.6,619.9 L570.7,620.0 L571.9,620.1 L573.0,620.3 L574.1,620.4 L575.2,620.5 L576.4,620.6 L577.5,620.7
		L578.6,620.9 L579.8,621.0 L580.9,621.1 L582.0,621.2 L583.1,621.3 L584.3,621.4 L585.4,621.6 L586.5,621.7
		L587.6,621.8 L588.8,621.9 L589.9,622.0 L591.0,622.2 L592.1,622.3 L593.3,622.4 L594.4,622.5 L595.5,622.6
		L596.6,622.7 L597.8,622.9 L598.9,623.0 L600.0,623.1 L601.1,623.2 L602.3,623.3 L603.4,623.4 L604.5,623.6
		L605.6,623.7 L606.8,623.8 L607.9,623.9 L609.0,624.0 L610.1,624.1 L611.3,624.2 L612.4,624.4 L613.5,624.5
		L614.6,624.6 L615.8,624.7 L616.9,624.8 L618.0,624.9 L619.1,625.0 L620.3,625.2 L621.4,625.3 L622.5,625.4
		L623.6,625.5 L624.8,625.6 L625.9,625.7 L627.0,625.8 L628.1,625.9 L629.3,626.1 L630.4,626.2 L631.5,626.3
		L632.6,626.4 L633.8,626.5 L634.9,626.6 L636.0,626.7 L637.1,626.8 L638.3,627.0 L639.4,627.1 L640.5,627.2
		L641.6,627.3 L642.8,627.4 L643.9,627.5 L645.0,627.6 L646.2,627.7 L647.3,627.8 L648.4,627.9 L649.5,628.1
		L650.7,628.2 L651.8,628.3 L652.9,628.4 L654.0,628.5 L655.2,628.6 L656.3,628.7 L657.4,628.8 L658.5,628.9
		L659.7,629.0 L660.8,629.1 L661.9,629.2 L663.0,629.4 L664.2,629.5 L665.3,629.6 L666.4,629.7 L667.5,629.8
		L668.7,629.9 L669.8,630.0 L670.9,630.1 L672.0,630.2 L673.2,630.3 L674.3,630.4 L675.4,630.5 L676.5,630.6
		L677.7,630.7 L678.8,630.8 L679.9,630.9 L681.0,631.0 L682.2,631.1 L683.3,631.3 L684.4,631.4 L685.5,631.5
		L686.7,631.6 L687.8,631.7 L688.9,631.8 L690.0,631.9 L691.2,632.0 L692.3,632.1 L693.4,632.2 L694.5,632.3
		L695.7,632.4 L696.8,632.5 L697.9,632.6 L699.0,632.7 L700.2,632.8 L701.3,632.9 L702.4,633.0 L703.5,633.1
		L704.7,633.2 L705.8,633.3 L706.9,633.4 L708.0,633.5 L709.2,633.6 L710.3,633.7 L711.4,633.8 L712.5,633.9
		L713.7,634.0 L714.8,634.1 L715.9,634.2 L717.1,634.3 L718.2,634.4 L719.3,634.5 L720.4,634.6 L721.6,634.7
		L722.7,634.8 L723.8,634.9 L724.9,635.0 L726.1,635.1 L727.2,635.2 L728.3,635.3 L729.4,635.4 L730.6,635.5
		L731.7,635.6 L732.8,635.6 L733.9,635.7 L735.1,635.8 L736.2,635.9 L737.3,636.0 L738.4,636.1 L739.6,636.2
		L740.7,636.3 L741.8,636.4 L742.9,636.5 L744.1,636.6 L745.2,636.7 L746.3,636.8 L747.4,636.9 L748.6,637.0
		L749.7,637.1 L750.8,637.2 L751.9,637.2 L753.1,637.3 L754.2,637.4 L755.3,637.5 L756.4,637.6 L757.6,637.7
		L758.7,637.8 L759.8,637.9 L760.9,638.0 L762.1,638.1 L763.2,638.2 L764.3,638.3 L765.4,638.3 L766.6,638.4
		L767.7,638.5 L768.8,638.6 L769.9,638.7 L771.1,638.8 L772.2,638.9 L773.3,639.0 L774.4,639.1 L775.6,639.1
		L776.7,639.2 L777.8,639.3 L778.9,639.4 L780.1,639.5 L781.2,639.6 L782.3,639.7 L783.5,639.8 L784.6,639.8
		L785.7,639.9 L786.8,640.0 L788.0,640.1 L789.1,640.2 L790.2,640.3 L791.3,640.4 L792.5,640.4 L793.6,640.5
		L794.7,640.6 L795.8,640.7 L797.0,640.8 L798.1,640.9 L799.2,641.0 L800.3,641.0 L801.5,641.1 L802.6,641.2
		L803.7,641.3 L804.8,641.4 L806.0,641.5 L807.1,641.5 L808.2,641.6 L809.3,641.7 L810.5,641.8 L811.6,641.9
		L812.7,641.9 L813.8,642.0 L815.0,642.1 L816.1,642.2 L817.2,642.3 L818.3,642.4 L819.5,642.4 L820.6,642.5
		L821.7,642.6 L822.8,642.7 L824.0,642.8 L825.1,642.8 L826.2,642.9 L827.3,643.0 L828.5,643.1 L829.6,643.1
		L830.7,643.2 L831.8,643.3 L833.0,643.4 L834.1,643.5 L835.2,643.5 L836.3,643.6 L837.5,643.7 L838.6,643.8
		L839.7,643.8 L840.8,643.9 L842.0,644.0 L843.1,644.1 L844.2,644.2 L845.3,644.2 L846.5,644.3 L847.6,644.4
		L848.7,644.5 L849.9,644.5 L851.0,644.6 L852.1,644.7 L853.2,644.8 L854.4,644.8 L855.5,644.9 L856.6,645.0
		L857.7,645.0 L858.9,645.1 L860.0,645.2 L861.1,645.3 L862.2,645.3 L863.4,645.4 L864.5,645.5 L865.6,645.6
		L866.7,645.6 L867.9,645.7 L869.0,645.8 L870.1,645.8 L871.2,645.9 L872.4,646.0 L873.5,646.1 L874.6,646.1
		L875.7,646.2 L876.9,646.3 L878.0,646.3 L879.1,646.4 L880.2,646.5 L881.4,646.5 L882.5,646.6 L883.6,646.7
		L884.7,646.7 L885.9,646.8 L887.0,646.9 L888.1,647.0 L889.2,647.0 L890.4,647.1 L891.5,647.2 L892.6,647.2
		L893.7,647.3 L894.9,647.4 L896.0,647.4 L897.1,647.5 L898.2,647.6 L899.4,647.6 L900.5,647.7 L901.6,647.7
		L902.7,647.8 L903.9,647.9 L905.0,647.9 L906.1,648.0 L907.2,648.1 L908.4,648.1 L909.5,648.2 L910.6,648.3
		L911.7,648.3 L912.9,648.4 L914.0,648.5 L915.1,648.5 L916.2,648.6 L917.4,648.6 L918.5,648.7 L919.6,648.8
		L920.8,648.8 L921.9,648.9 L923.0,648.9 L924.1,649.0 L925.3,649.1 L926.4,649.1 L927.5,649.2 L928.6,649.3
		L929.8,649.3 L930.9,649.4 L932.0,649.4 L933.1,649.5 L934.3,649.6 L935.4,649.6 L936.5,649.7 L937.6,649.7
		L938.8,649.8 L939.9,649.8 L941.0,649.9 L942.1,650.0 L943.3,650.0 L944.4,650.1 L945.5,650.1 L946.6,650.2
		L947.8,650.2 L948.9,650.3 L950.0,650.4 L951.1,650.4 L952.3,650.5 L953.4,650.5 L954.5,650.6 L955.6,650.6
		L956.8,650.7 L957.9,650.7 L959.0,650.8 L960.1,650.9 L961.3,650.9 L962.4,651.0 L963.5,651.0 L964.6,651.1
		L965.8,651.1 L966.9,651.2 L968.0,651.2 L969.1,651.3 L970.3,651.3 L971.4,651.4 L972.5,651.4 L973.6,651.5
		L974.8,651.5 L975.9,651.6 L977.0,651.6 L978.1,651.7 L979.3,651.8 L980.4,651.8 L981.5,651.9 L982.6,651.9
		L983.8,652.0 L984.9,652.0 L986.0,652.1 L987.2,652.1 L988.3,652.1 L989.4,652.2 L990.5,652.2 L991.7,652.3
		L992.8,652.3 L993.9,652.4 L995.0,652.4 L996.2,652.5 L997.3,652.5 L998.4,652.6 L999.5,652.6 L1000.7,652.7
		L1001.8,652.7 L1002.9,652.8 L1004.0,652.8 L1005.2,652.9 L1006.3,652.9 L1007.4,653.0 L1008.5,653.0 L1009.7,653.0
		L1010.8,653.1 L1011.9,653.1 L1013.0,653.2 L1014.2,653.2 L1015.3,653.3 L1016.4,653.3 L1017.5,653.4 L1018.7,653.4
		L1019.8,653.4 L1020.9,653.5 L1022.0,653.5 L1023.2,653.6 L1024.3,653.6 L1025.4,653.7 L1026.5,653.7 L1027.7,653.7
		L1028.8,653.8 L1029.9,653.8 L1031.0,653.9 L1032.2,653.9 L1033.3,653.9 L1034.4,654.0 L1035.5,654.0 L1036.7,654.1
		L1037.8,654.1 L1038.9,654.1 L1040.0,654.2 L1041.2,654.2 L1042.3,654.3 L1043.4,654.3 L1044.5,654.3 L1045.7,654.4
		L1046.8,654.4 L1047.9,654.5 L1049.0,654.5 L1050.2,654.5 L1051.3,654.6 L1052.4,654.6 L1053.6,654.6 L1054.7,654.7
		L1055.8,654.7 L1056.9,654.8 L1058.1,654.8 L1059.2,654.8 L1060.3,654.9 L1061.4,654.9 L1062.6,654.9 L1063.7,655.0
		L1064.8,655.0 L1065.9,655.0 L1067.1,655.1 L1068.2,655.1 L1069.3,655.1 L1070.4,655.2 L1071.6,655.2 L1072.7,655.2
		L1073.8,655.3 L1074.9,655.3 L1076.1,655.3 L1077.2,655.4 L1078.3,655.4 L1079.4,655.4 L1080.6,655.5 L1081.7,655.5
		L1082.8,655.5 L1083.9,655.6 L1085.1,655.6 L1086.2,655.6 L1087.3,655.7 L1088.4,655.7 L1089.6,655.7 L1090.7,655.8
		L1091.8,655.8 L1092.9,655.8 L1094.1,655.8 L1095.2,655.9 L1096.3,655.9 L1097.4,655.9 L1098.6,656.0 L1099.7,656.0
		L1100.8,656.0 L1101.9,656.0 L1103.1,656.1 L1104.2,656.1 L1105.3,656.1 L1106.4,656.2 L1107.6,656.2 L1108.7,656.2
		L1109.8,656.2 L1110.9,656.3 L1112.1,656.3 L1113.2,656.3 L1114.3,656.3 L1115.4,656.4 L1116.6,656.4 L1117.7,656.4
		L1118.8,656.4 L1120.0,656.5 L1121.1,656.5 L1122.2,656.5 L1123.3,656.5 L1124.5,656.6 L1125.6,656.6 L1126.7,656.6
		L1127.8,656.6 L1129.0,656.7 L1130.1,656.7 L1131.2,656.7 L1132.3,656.7 L1133.5,656.8 L1134.6,656.8 L1135.7,656.8
		L1136.8,656.8 L1138.0,656.8 L1139.1,656.9 L1140.2,656.9 L1141.3,656.9 L1142.5,656.9 L1143.6,656.9 L1144.7,657.0
		L1145.8,657.0 L1147.0,657.0 L1148.1,657.0 L1149.2,657.0 L1150.3,657.1 L1151.5,657.1 L1152.6,657.1 L1153.7,657.1
		L1154.8,657.1 L1156.0,657.2 L1157.1,657.2 L1158.2,657.2 L1159.3,657.2 L1160.5,657.2 L1161.6,657.2 L1162.7,657.3
		L1163.8,657.3 L1165.0,657.3 L1166.1,657.3 L1167.2,657.3 L1168.3,657.3 L1169.5,657.4 L1170.6,657.4 L1171.7,657.4
		L1172.8,657.4 L1174.0,657.4 L1175.1,657.4 L1176.2,657.5 L1177.3,657.5 L1178.5,657.5 L1179.6,657.5 L1180.7,657.5
		L1181.8,657.5 L1183.0,657.5 L1184.1,657.5 L1185.2,657.6 L1186.3,657.6 L1187.5,657.6 L1188.6,657.6 L1189.7,657.6
		L1190.9,657.6 L1192.0,657.6 L1193.1,657.6 L1194.2,657.7 L1195.4,657.7 L1196.5,657.7 L1197.6,657.7 L1198.7,657.7
		L1199.9,657.7 L1201.0,657.7 L1202.1,657.7 L1203.2,657.7 L1204.4,657.7 L1205.5,657.8 L1206.6,657.8 L1207.7,657.8
		L1208.9,657.8 L1210.0,657.8 L1211.1,657.8 L1212.2,657.8 L1213.4,657.8 L1214.5,657.8 L1215.6,657.8 L1216.7,657.8
		L1217.9,657.8 L1219.0,657.9 L1220.1,657.9 L1221.2,657.9 L1222.4,657.9 L1223.5,657.9 L1224.6,657.9 L1225.7,657.9
		L1226.9,657.9 L1228.0,657.9 L1229.1,657.9 L1230.2,657.9 L1231.4,657.9 L1232.5,657.9 L1233.6,657.9 L1234.7,657.9
		L1235.9,657.9 L1237.0,657.9 L1238.1,657.9 L1239.2,657.9 L1240.4,657.9 L1241.5,657.9 L1242.6,657.9 L1243.7,657.9
		L1244.9,657.9 L1246.0,658.0 L1247.1,658.0 L1248.2,658.0 L1249.4,658.0 L1250.5,658.0 L1251.6,658.0 L1252.7,658.0
		L1253.9,658.0 L1255.0,658.0  '/></g>
	</g>
	<g id="gnuplot_plot_3" ><title>4 (convex)</title>
<g fill="none" color="black" stroke="currentColor" stroke-width="1.00" stroke-linecap="butt" stroke-linejoin="miter">
	<g transform="translate(1187.9,112.0)" stroke="none" fill="black" font-family="Arial" font-size="12.00"  text-anchor="end">
		<text><tspan font-family="Arial" >4 (convex)</tspan></text>
	</g>
</g>
<g fill="none" color="black" stroke="currentColor" stroke-width="1.00" stroke-linecap="butt" stroke-linejoin="miter">
	<path stroke='rgb( 86, 180, 233)'  d='M1196.2,108.1 L1238.4,108.1 M103.7,54.9 L104.8,154.0 L106.0,215.6 L107.1,259.1 L108.2,291.9 L109.3,318.1
		L110.5,339.7 L111.6,358.1 L112.7,374.1 L113.8,388.2 L115.0,400.8 L116.1,412.1 L117.2,422.5 L118.3,431.9
		L119.5,440.7 L120.6,448.7 L121.7,456.2 L122.8,463.1 L124.0,469.6 L125.1,475.6 L126.2,481.3 L127.3,486.6
		L128.5,491.5 L129.6,496.2 L130.7,500.6 L131.8,504.7 L133.0,508.6 L134.1,512.2 L135.2,515.6 L136.3,518.9
		L137.5,521.9 L138.6,524.8 L139.7,527.5 L140.8,530.0 L142.0,532.4 L143.1,534.6 L144.2,536.8 L145.3,538.7
		L146.5,540.6 L147.6,542.4 L148.7,544.1 L149.8,545.7 L151.0,547.1 L152.1,548.6 L153.2,549.9 L154.3,551.1
		L155.5,552.3 L156.6,553.4 L157.7,554.5 L158.8,555.5 L160.0,556.5 L161.1,557.4 L162.2,558.2 L163.3,559.0
		L164.5,559.8 L165.6,560.5 L166.7,561.2 L167.8,561.9 L169.0,562.5 L170.1,563.1 L171.2,563.7 L172.4,564.3
		L173.5,564.8 L174.6,565.3 L175.7,565.8 L176.9,566.2 L178.0,566.7 L179.1,567.1 L180.2,567.5 L181.4,567.9
		L182.5,568.3 L183.6,568.6 L184.7,569.0 L185.9,569.3 L187.0,569.7 L188.1,570.0 L189.2,570.3 L190.4,570.6
		L191.5,570.9 L192.6,571.2 L193.7,571.4 L194.9,571.7 L196.0,572.0 L197.1,572.2 L198.2,572.5 L199.4,572.7
		L200.5,572.9 L201.6,573.2 L202.7,573.4 L203.9,573.6 L205.0,573.8 L206.1,574.0 L207.2,574.3 L208.4,574.5
		L209.5,574.7 L210.6,574.9 L211.7,575.1 L212.9,575.3 L214.0,575.4 L215.1,575.6 L216.2,575.8 L217.4,576.0
		L218.5,576.2 L219.6,576.4 L220.7,576.5 L221.9,576.7 L223.0,576.9 L224.1,577.1 L225.2,577.2 L226.4,577.4
		L227.5,577.6 L228.6,577.7 L229.7,577.9 L230.9,578.1 L232.0,578.2 L233.1,578.4 L234.2,578.6 L235.4,578.7
		L236.5,578.9 L237.6,579.0 L238.7,579.2 L239.9,579.4 L241.0,579.5 L242.1,579.7 L243.3,579.8 L244.4,580.0
		L245.5,580.1 L246.6,580.3 L247.8,580.5 L248.9,580.6 L250.0,580.8 L251.1,580.9 L252.3,581.1 L253.4,581.2
		L254.5,581.4 L255.6,581.5 L256.8,581.7 L257.9,581.8 L259.0,582.0 L260.1,582.2 L261.3,582.3 L262.4,582.5
		L263.5,582.6 L264.6,582.8 L265.8,582.9 L266.9,583.1 L268.0,583.2 L269.1,583.4 L270.3,583.5 L271.4,583.7
		L272.5,583.8 L273.6,584.0 L274.8,584.2 L275.9,584.3 L277.0,584.5 L278.1,584.6 L279.3,584.8 L280.4,584.9
		L281.5,585.1 L282.6,585.2 L283.8,585.4 L284.9,585.5 L286.0,585.7 L287.1,585.9 L288.3,586.0 L289.4,586.2
		L290.5,586.3 L291.6,586.5 L292.8,586.6 L293.9,586.8 L295.0,587.0 L296.1,587.1 L297.3,587.3 L298.4,587.4
		L299.5,587.6 L300.6,587.7 L301.8,587.9 L302.9,588.1 L304.0,588.2 L305.1,588.4 L306.3,588.5 L307.4,588.7
		L308.5,588.8 L309.7,589.0 L310.8,589.2 L311.9,589.3 L313.0,589.5 L314.2,589.6 L315.3,589.8 L316.4,590.0
		L317.5,590.1 L318.7,590.3 L319.8,590.5 L320.9,590.6 L322.0,590.8 L323.2,590.9 L324.3,591.1 L325.4,591.3
		L326.5,591.4 L327.7,591.6 L328.8,591.7 L329.9,591.9 L331.0,592.1 L332.2,592.2 L333.3,592.4 L334.4,592.6
		L335.5,592.7 L336.7,592.9 L337.8,593.1 L338.9,593.2 L340.0,593.4 L341.2,593.5 L342.3,593.7 L343.4,593.9
		L344.5,594.0 L345.7,594.2 L346.8,594.4 L347.9,594.5 L349.0,594.7 L350.2,594.9 L351.3,595.0 L352.4,595.2
		L353.5,595.4 L354.7,595.5 L355.8,595.7 L356.9,595.9 L358.0,596.0 L359.2,596.2 L360.3,596.4 L361.4,596.5
		L362.5,596.7 L363.7,596.9 L364.8,597.0 L365.9,597.2 L367.0,597.4 L368.2,597.5 L369.3,597.7 L370.4,597.9
		L371.5,598.0 L372.7,598.2 L373.8,598.4 L374.9,598.5 L376.1,598.7 L377.2,598.9 L378.3,599.0 L379.4,599.2
		L380.6,599.4 L381.7,599.5 L382.8,599.7 L383.9,599.9 L385.1,600.0 L386.2,600.2 L387.3,600.4 L388.4,600.5
		L389.6,600.7 L390.7,600.9 L391.8,601.0 L392.9,601.2 L394.1,601.4 L395.2,601.5 L396.3,601.7 L397.4,601.9
		L398.6,602.0 L399.7,602.2 L400.8,602.4 L401.9,602.5 L403.1,602.7 L404.2,602.9 L405.3,603.1 L406.4,603.2
		L407.6,603.4 L408.7,603.6 L409.8,603.7 L410.9,603.9 L412.1,604.1 L413.2,604.2 L414.3,604.4 L415.4,604.6
		L416.6,604.7 L417.7,604.9 L418.8,605.1 L419.9,605.2 L421.1,605.4 L422.2,605.6 L423.3,605.7 L424.4,605.9
		L425.6,606.1 L426.7,606.2 L427.8,606.4 L428.9,606.6 L430.1,606.7 L431.2,606.9 L432.3,607.1 L433.4,607.2
		L434.6,607.4 L435.7,607.6 L436.8,607.7 L437.9,607.9 L439.1,608.1 L440.2,608.3 L441.3,608.4 L442.5,608.6
		L443.6,608.8 L444.7,608.9 L445.8,609.1 L447.0,609.2 L448.1,609.4 L449.2,609.6 L450.3,609.7 L451.5,609.9
		L452.6,610.1 L453.7,610.2 L454.8,610.4 L456.0,610.6 L457.1,610.7 L458.2,610.9 L459.3,611.1 L460.5,611.2
		L461.6,611.4 L462.7,611.6 L463.8,611.7 L465.0,611.9 L466.1,612.1 L467.2,612.2 L468.3,612.4 L469.5,612.6
		L470.6,612.7 L471.7,612.9 L472.8,613.0 L474.0,613.2 L475.1,613.4 L476.2,613.5 L477.3,613.7 L478.5,613.9
		L479.6,614.0 L480.7,614.2 L481.8,614.4 L483.0,614.5 L484.1,614.7 L485.2,614.8 L486.3,615.0 L487.5,615.2
		L488.6,615.3 L489.7,615.5 L490.8,615.7 L492.0,615.8 L493.1,616.0 L494.2,616.1 L495.3,616.3 L496.5,616.5
		L497.6,616.6 L498.7,616.8 L499.8,616.9 L501.0,617.1 L502.1,617.3 L503.2,617.4 L504.3,617.6 L505.5,617.7
		L506.6,617.9 L507.7,618.1 L508.8,618.2 L510.0,618.4 L511.1,618.5 L512.2,618.7 L513.4,618.8 L514.5,619.0
		L515.6,619.2 L516.7,619.3 L517.9,619.5 L519.0,619.6 L520.1,619.8 L521.2,620.0 L522.4,620.1 L523.5,620.3
		L524.6,620.4 L525.7,620.6 L526.9,620.7 L528.0,620.9 L529.1,621.0 L530.2,621.2 L531.4,621.4 L532.5,621.5
		L533.6,621.7 L534.7,621.8 L535.9,622.0 L537.0,622.1 L538.1,622.3 L539.2,622.4 L540.4,622.6 L541.5,622.7
		L542.6,622.9 L543.7,623.1 L544.9,623.2 L546.0,623.4 L547.1,623.5 L548.2,623.7 L549.4,623.8 L550.5,624.0
		L551.6,624.1 L552.7,624.3 L553.9,624.4 L555.0,624.6 L556.1,624.7 L557.2,624.9 L558.4,625.0 L559.5,625.2
		L560.6,625.3 L561.7,625.5 L562.9,625.6 L564.0,625.8 L565.1,625.9 L566.2,626.1 L567.4,626.2 L568.5,626.4
		L569.6,626.5 L570.7,626.7 L571.9,626.8 L573.0,627.0 L574.1,627.1 L575.2,627.3 L576.4,627.4 L577.5,627.5
		L578.6,627.7 L579.8,627.8 L580.9,628.0 L582.0,628.1 L583.1,628.3 L584.3,628.4 L585.4,628.6 L586.5,628.7
		L587.6,628.9 L588.8,629.0 L589.9,629.1 L591.0,629.3 L592.1,629.4 L593.3,629.6 L594.4,629.7 L595.5,629.9
		L596.6,630.0 L597.8,630.1 L598.9,630.3 L600.0,630.4 L601.1,630.6 L602.3,630.7 L603.4,630.9 L604.5,631.0
		L605.6,631.1 L606.8,631.3 L607.9,631.4 L609.0,631.6 L610.1,631.7 L611.3,631.8 L612.4,632.0 L613.5,632.1
		L614.6,632.3 L615.8,632.4 L616.9,632.5 L618.0,632.7 L619.1,632.8 L620.3,633.0 L621.4,633.1 L622.5,633.2
		L623.6,633.4 L624.8,633.5 L625.9,633.6 L627.0,633.8 L628.1,633.9 L629.3,634.0 L630.4,634.2 L631.5,634.3
		L632.6,634.5 L633.8,634.6 L634.9,634.7 L636.0,634.9 L637.1,635.0 L638.3,635.1 L639.4,635.3 L640.5,635.4
		L641.6,635.5 L642.8,635.7 L643.9,635.8 L645.0,635.9 L646.2,636.1 L647.3,636.2 L648.4,636.3 L649.5,636.4
		L650.7,636.6 L651.8,636.7 L652.9,636.8 L654.0,637.0 L655.2,637.1 L656.3,637.2 L657.4,637.4 L658.5,637.5
		L659.7,637.6 L660.8,637.7 L661.9,637.9 L663.0,638.0 L664.2,638.1 L665.3,638.3 L666.4,638.4 L667.5,638.5
		L668.7,638.6 L669.8,638.8 L670.9,638.9 L672.0,639.0 L673.2,639.1 L674.3,639.3 L675.4,639.4 L676.5,639.5
		L677.7,639.6 L678.8,639.8 L679.9,639.9 L681.0,640.0 L682.2,640.1 L683.3,640.3 L684.4,640.4 L685.5,640.5
		L686.7,640.6 L687.8,640.8 L688.9,640.9 L690.0,641.0 L691.2,641.1 L692.3,641.3 L693.4,641.4 L694.5,641.5
		L695.7,641.6 L696.8,641.7 L697.9,641.9 L699.0,642.0 L700.2,642.1 L701.3,642.2 L702.4,642.3 L703.5,642.5
		L704.7,642.6 L705.8,642.7 L706.9,642.8 L708.0,642.9 L709.2,643.0 L710.3,643.2 L711.4,643.3 L712.5,643.4
		L713.7,643.5 L714.8,643.6 L715.9,643.7 L717.1,643.9 L718.2,644.0 L719.3,644.1 L720.4,644.2 L721.6,644.3
		L722.7,644.4 L723.8,644.6 L724.9,644.7 L726.1,644.8 L727.2,644.9 L728.3,645.0 L729.4,645.1 L730.6,645.2
		L731.7,645.3 L732.8,645.5 L733.9,645.6 L735.1,645.7 L736.2,645.8 L737.3,645.9 L738.4,646.0 L739.6,646.1
		L740.7,646.2 L741.8,646.4 L742.9,646.5 L744.1,646.6 L745.2,646.7 L746.3,646.8 L747.4,646.9 L748.6,647.0
		L749.7,647.1 L750.8,647.2 L751.9,647.3 L753.1,647.4 L754.2,647.5 L755.3,647.7 L756.4,647.8 L757.6,647.9
		L758.7,648.0 L759.8,648.1 L760.9,648.2 L762.1,648.3 L763.2,648.4 L764.3,648.5 L765.4,648.6 L766.6,648.7
		L767.7,648.8 L768.8,648.9 L769.9,649.0 L771.1,649.1 L772.2,649.2 L773.3,649.3 L774.4,649.4 L775.6,649.5
		L776.7,649.6 L777.8,649.7 L778.9,649.8 L780.1,650.0 L781.2,650.1 L782.3,650.2 L783.5,650.3 L784.6,650.4
		L785.7,650.5 L786.8,650.6 L788.0,650.7 L789.1,650.8 L790.2,650.9 L791.3,651.0 L792.5,651.1 L793.6,651.1
		L794.7,651.2 L795.8,651.3 L797.0,651.4 L798.1,651.5 L799.2,651.6 L800.3,651.7 L801.5,651.8 L802.6,651.9
		L803.7,652.0 L804.8,652.1 L806.0,652.2 L807.1,652.3 L808.2,652.4 L809.3,652.5 L810.5,652.6 L811.6,652.7
		L812.7,652.8 L813.8,652.9 L815.0,653.0 L816.1,653.1 L817.2,653.2 L818.3,653.2 L819.5,653.3 L820.6,653.4
		L821.7,653.5 L822.8,653.6 L824.0,653.7 L825.1,653.8 L826.2,653.9 L827.3,654.0 L828.5,654.1 L829.6,654.2
		L830.7,654.3 L831.8,654.3 L833.0,654.4 L834.1,654.5 L835.2,654.6 L836.3,654.7 L837.5,654.8 L838.6,654.9
		L839.7,655.0 L840.8,655.1 L842.0,655.1 L843.1,655.2 L844.2,655.3 L845.3,655.4 L846.5,655.5 L847.6,655.6
		L848.7,655.7 L849.9,655.7 L851.0,655.8 L852.1,655.9 L853.2,656.0 L854.4,656.1 L855.5,656.2 L856.6,656.3
		L857.7,656.3 L858.9,656.4 L860.0,656.5 L861.1,656.6 L862.2,656.7 L863.4,656.8 L864.5,656.8 L865.6,656.9
		L866.7,657.0 L867.9,657.1 L869.0,657.2 L870.1,657.2 L871.2,657.3 L872.4,657.4 L873.5,657.5 L874.6,657.6
		L875.7,657.6 L876.9,657.7 L878.0,657.8 L879.1,657.9 L880.2,658.0 L881.4,658.0 L882.5,658.1 L883.6,658.2
		L884.7,658.3 L885.9,658.3 L887.0,658.4 L888.1,658.5 L889.2,658.6 L890.4,658.7 L891.5,658.7 L892.6,658.8
		L893.7,658.9 L894.9,659.0 L896.0,659.0 L897.1,659.1 L898.2,659.2 L899.4,659.3 L900.5,659.3 L901.6,659.4
		L902.7,659.5 L903.9,659.6 L905.0,659.6 L906.1,659.7 L907.2,659.8 L908.4,659.8 L909.5,659.9 L910.6,660.0
		L911.7,660.1 L912.9,660.1 L914.0,660.2 L915.1,660.3 L916.2,660.3 L917.4,660.4 L918.5,660.5 L919.6,660.6
		L920.8,660.6 L921.9,660.7 L923.0,660.8 L924.1,660.8 L925.3,660.9 L926.4,661.0 L927.5,661.0 L928.6,661.1
		L929.8,661.2 L930.9,661.2 L932.0,661.3 L933.1,661.4 L934.3,661.4 L935.4,661.5 L936.5,661.6 L937.6,661.6
		L938.8,661.7 L939.9,661.8 L941.0,661.8 L942.1,661.9 L943.3,662.0 L944.4,662.0 L945.5,662.1 L946.6,662.1
		L947.8,662.2 L948.9,662.3 L950.0,662.3 L951.1,662.4 L952.3,662.5 L953.4,662.5 L954.5,662.6 L955.6,662.6
		L956.8,662.7 L957.9,662.8 L959.0,662.8 L960.1,662.9 L961.3,663.0 L962.4,663.0 L963.5,663.1 L964.6,663.1
		L965.8,663.2 L966.9,663.2 L968.0,663.3 L969.1,663.4 L970.3,663.4 L971.4,663.5 L972.5,663.5 L973.6,663.6
		L974.8,663.7 L975.9,663.7 L977.0,663.8 L978.1,663.8 L979.3,663.9 L980.4,663.9 L981.5,664.0 L982.6,664.0
		L983.8,664.1 L984.9,664.2 L986.0,664.2 L987.2,664.3 L988.3,664.3 L989.4,664.4 L990.5,664.4 L991.7,664.5
		L992.8,664.5 L993.9,664.6 L995.0,664.6 L996.2,664.7 L997.3,664.7 L998.4,664.8 L999.5,664.8 L1000.7,664.9
		L1001.8,664.9 L1002.9,665.0 L1004.0,665.0 L1005.2,665.1 L1006.3,665.1 L1007.4,665.2 L1008.5,665.2 L1009.7,665.3
		L1010.8,665.3 L1011.9,665.4 L1013.0,665.4 L1014.2,665.5 L1015.3,665.5 L1016.4,665.6 L1017.5,665.6 L1018.7,665.7
		L1019.8,665.7 L1020.9,665.8 L1022.0,665.8 L1023.2,665.8 L1024.3,665.9 L1025.4,665.9 L1026.5,666.0 L1027.7,666.0
		L1028.8,666.1 L1029.9,666.1 L1031.0,666.2 L1032.2,666.2 L1033.3,666.2 L1034.4,666.3 L1035.5,666.3 L1036.7,666.4
		L1037.8,666.4 L1038.9,666.4 L1040.0,666.5 L1041.2,666.5 L1042.3,666.6 L1043.4,666.6 L1044.5,666.6 L1045.7,666.7
		L1046.8,666.7 L1047.9,666.8 L1049.0,666.8 L1050.2,666.8 L1051.3,666.9 L1052.4,666.9 L1053.6,666.9 L1054.7,667.0
		L1055.8,667.0 L1056.9,667.1 L1058.1,667.1 L1059.2,667.1 L1060.3,667.2 L1061.4,667.2 L1062.6,667.2 L1063.7,667.3
		L1064.8,667.3 L1065.9,667.3 L1067.1,667.4 L1068.2,667.4 L1069.3,667.4 L1070.4,667.4 L1071.6,667.5 L1072.7,667.5
		L1073.8,667.5 L1074.9,667.6 L1076.1,667.6 L1077.2,667.6 L1078.3,667.7 L1079.4,667.7 L1080.6,667.7 L1081.7,667.7
		L1082.8,667.8 L1083.9,667.8 L1085.1,667.8 L1086.2,667.8 L1087.3,667.9 L1088.4,667.9 L1089.6,667.9 L1090.7,667.9
		L1091.8,667.9 L1092.9,668.0 L1094.1,668.0 L1095.2,668.0 L1096.3,668.0 L1097.4,668.0 L1098.6,668.1 L1099.7,668.1
		L1100.8,668.1 L1101.9,668.1 L1103.1,668.1 L1104.2,668.1 L1105.3,668.2 L1106.4,668.2 L1107.6,668.2 L1108.7,668.2
		L1109.8,668.2 L1110.9,668.2 L1112.1,668.2 L1113.2,668.2 L1114.3,668.2 L1115.4,668.2 L1116.6,668.3 L1117.7,668.3
		L1118.8,668.3 L1120.0,668.3 L1121.1,668.3 L1122.2,668.3 L1123.3,668.3 L1124.5,668.3 L1125.6,668.3 L1126.7,668.3
		L1127.8,668.2 L1129.0,668.2 L1130.1,668.2 L1131.2,668.2 L1132.3,668.2 L1133.5,668.2 L1134.6,668.2 L1135.7,668.2
		L1136.8,668.2 L1138.0,668.1 L1139.1,668.1 L1140.2,668.1 L1141.3,668.1 L1142.5,668.0 L1143.6,668.0 L1144.7,668.0
		L1145.8,667.9 L1147.0,667.9 L1148.1,667.9 L1149.2,667.8 L1150.3,667.8 L1151.5,667.7 L1152.6,667.7 L1153.7,667.6
		L1154.8,667.6 L1156.0,667.5 L1157.1,667.4 L1158.2,667.4 L1159.3,667.3 L1160.5,667.2 L1161.6,667.1 L1162.7,667.0
		L1163.8,666.9 L1165.0,666.8 L1166.1,666.7 L1167.2,666.6 L1168.3,666.5 L1169.5,666.4 L1170.6,666.3 L1171.7,666.1
		L1172.8,666.0 L1174.0,665.8 L1175.1,665.7 L1176.2,665.5 L1177.3,665.3 L1178.5,665.1 L1179.6,664.9 L1180.7,664.7
		L1181.8,664.5 L1183.0,664.2 L1184.1,664.0 L1185.2,663.7 L1186.3,663.4 L1187.5,663.1 L1188.6,662.8 L1189.7,662.4
		L1190.9,662.1 L1192.0,661.7 L1193.1,661.2 L1194.2,660.8 L1195.4,660.3 L1196.5,659.8 L1197.6,659.3 L1198.7,658.8
		L1199.9,658.2 L1201.0,657.5 L1202.1,656.9 L1203.2,656.1 L1204.4,655.4 L1205.5,654.6 L1206.6,653.7 L1207.7,652.8
		L1208.9,651.8 L1210.0,650.7 L1211.1,649.6 L1212.2,648.4 L1213.4,647.1 L1214.5,645.7 L1215.6,644.3 L1216.7,642.7
		L1217.9,641.1 L1219.0,639.3 L1220.1,637.5 L1221.2,635.5 L1222.4,633.4 L1223.5,631.1 L1224.6,628.7 L1225.7,626.2
		L1226.9,623.5 L1228.0,620.7 L1229.1,617.7 L1230.2,614.5 L1231.4,611.2 L1232.5,607.6 L1233.6,603.9 L1234.7,600.1
		L1235.9,596.0 L1237.0,591.8 L1238.1,587.5 L1239.2,583.0 L1240.4,578.3 L1241.5,573.6 L1242.6,568.8 L1243.7,564.0
		L1244.9,559.2 L1246.0,554.4 L1247.1,549.9 L1248.2,545.6 L1249.4,541.8 L1250.5,538.4 L1251.6,535.6 L1252.7,533.5
		L1253.9,532.2 L1255.0,531.7  '/></g>
	</g>
	<g id="gnuplot_plot_4" ><title>8 (both)</title>
<g fill="none" color="black" stroke="currentColor" stroke-width="1.00" stroke-linecap="butt" stroke-linejoin="miter">
	<g transform="translate(1187.9,130.0)" stroke="none" fill="black" font-family="Arial" font-size="12.00"  text-anchor="end">
		<text><tspan font-family="Arial" >8 (both)</tspan></text>
	</g>
</g>
<g fill="none" color="black" stroke="currentColor" stroke-width="1.00" stroke-linecap="butt" stroke-linejoin="miter">
	<path stroke='rgb(230, 159,   0)'  d='M1196.2,126.1 L1238.4,126.1 M103.7,58.5 L104.8,150.6 L106.0,210.1 L107.1,253.8 L108.2,287.0 L109.3,313.4
		L110.5,335.2 L111.6,353.8 L112.7,369.9 L113.8,384.2 L115.0,397.0 L116.1,408.6 L117.2,419.2 L118.3,429.0
		L119.5,438.0 L120.6,446.5 L121.7,454.3 L122.8,461.7 L124.0,468.7 L125.1,475.3 L126.2,481.5 L127.3,487.4
		L128.5,493.0 L129.6,498.4 L130.7,503.5 L131.8,508.4 L133.0,513.0 L134.1,517.4 L135.2,521.7 L136.3,525.7
		L137.5,529.6 L138.6,533.2 L139.7,536.7 L140.8,540.1 L142.0,543.2 L143.1,546.2 L144.2,549.1 L145.3,551.8
		L146.5,554.3 L147.6,556.7 L148.7,558.9 L149.8,561.0 L151.0,562.9 L152.1,564.7 L153.2,566.4 L154.3,567.9
		L155.5,569.4 L156.6,570.7 L157.7,571.8 L158.8,572.9 L160.0,573.9 L161.1,574.8 L162.2,575.5 L163.3,576.2
		L164.5,576.8 L165.6,577.3 L166.7,577.8 L167.8,578.2 L169.0,578.5 L170.1,578.8 L171.2,579.0 L172.4,579.2
		L173.5,579.3 L174.6,579.4 L175.7,579.4 L176.9,579.4 L178.0,579.4 L179.1,579.3 L180.2,579.3 L181.4,579.2
		L182.5,579.1 L183.6,579.0 L184.7,578.8 L185.9,578.7 L187.0,578.5 L188.1,578.3 L189.2,578.2 L190.4,578.0
		L191.5,577.8 L192.6,577.6 L193.7,577.4 L194.9,577.2 L196.0,577.0 L197.1,576.8 L198.2,576.7 L199.4,576.5
		L200.5,576.3 L201.6,576.1 L202.7,575.9 L203.9,575.7 L205.0,575.6 L206.1,575.4 L207.2,575.2 L208.4,575.1
		L209.5,574.9 L210.6,574.8 L211.7,574.6 L212.9,574.5 L214.0,574.4 L215.1,574.2 L216.2,574.1 L217.4,574.0
		L218.5,573.9 L219.6,573.8 L220.7,573.7 L221.9,573.6 L223.0,573.5 L224.1,573.5 L225.2,573.4 L226.4,573.3
		L227.5,573.3 L228.6,573.2 L229.7,573.2 L230.9,573.1 L232.0,573.1 L233.1,573.1 L234.2,573.0 L235.4,573.0
		L236.5,573.0 L237.6,573.0 L238.7,573.0 L239.9,573.0 L241.0,573.0 L242.1,573.0 L243.3,573.0 L244.4,573.1
		L245.5,573.1 L246.6,573.1 L247.8,573.2 L248.9,573.2 L250.0,573.3 L251.1,573.3 L252.3,573.4 L253.4,573.4
		L254.5,573.5 L255.6,573.6 L256.8,573.7 L257.9,573.7 L259.0,573.8 L260.1,573.9 L261.3,574.0 L262.4,574.1
		L263.5,574.2 L264.6,574.3 L265.8,574.4 L266.9,574.5 L268.0,574.6 L269.1,574.8 L270.3,574.9 L271.4,575.0
		L272.5,575.1 L273.6,575.3 L274.8,575.4 L275.9,575.5 L277.0,575.7 L278.1,575.8 L279.3,576.0 L280.4,576.1
		L281.5,576.3 L282.6,576.4 L283.8,576.6 L284.9,576.8 L286.0,576.9 L287.1,577.1 L288.3,577.3 L289.4,577.4
		L290.5,577.6 L291.6,577.8 L292.8,577.9 L293.9,578.1 L295.0,578.3 L296.1,578.5 L297.3,578.7 L298.4,578.9
		L299.5,579.1 L300.6,579.2 L301.8,579.4 L302.9,579.6 L304.0,579.8 L305.1,580.0 L306.3,580.2 L307.4,580.4
		L308.5,580.6 L309.7,580.8 L310.8,581.1 L311.9,581.3 L313.0,581.5 L314.2,581.7 L315.3,581.9 L316.4,582.1
		L317.5,582.3 L318.7,582.5 L319.8,582.8 L320.9,583.0 L322.0,583.2 L323.2,583.4 L324.3,583.6 L325.4,583.9
		L326.5,584.1 L327.7,584.3 L328.8,584.5 L329.9,584.8 L331.0,585.0 L332.2,585.2 L333.3,585.5 L334.4,585.7
		L335.5,585.9 L336.7,586.2 L337.8,586.4 L338.9,586.6 L340.0,586.9 L341.2,587.1 L342.3,587.3 L343.4,587.6
		L344.5,587.8 L345.7,588.0 L346.8,588.3 L347.9,588.5 L349.0,588.8 L350.2,589.0 L351.3,589.2 L352.4,589.5
		L353.5,589.7 L354.7,590.0 L355.8,590.2 L356.9,590.5 L358.0,590.7 L359.2,590.9 L360.3,591.2 L361.4,591.4
		L362.5,591.7 L363.7,591.9 L364.8,592.2 L365.9,592.4 L367.0,592.7 L368.2,592.9 L369.3,593.2 L370.4,593.4
		L371.5,593.6 L372.7,593.9 L373.8,594.1 L374.9,594.4 L376.1,594.6 L377.2,594.9 L378.3,595.1 L379.4,595.4
		L380.6,595.6 L381.7,595.9 L382.8,596.1 L383.9,596.4 L385.1,596.6 L386.2,596.9 L387.3,597.1 L388.4,597.4
		L389.6,597.6 L390.7,597.9 L391.8,598.1 L392.9,598.4 L394.1,598.6 L395.2,598.9 L396.3,599.1 L397.4,599.4
		L398.6,599.6 L399.7,599.9 L400.8,600.1 L401.9,600.4 L403.1,600.6 L404.2,600.9 L405.3,601.1 L406.4,601.4
		L407.6,601.6 L408.7,601.9 L409.8,602.1 L410.9,602.3 L412.1,602.6 L413.2,602.8 L414.3,603.1 L415.4,603.3
		L416.6,603.6 L417.7,603.8 L418.8,604.1 L419.9,604.3 L421.1,604.6 L422.2,604.8 L423.3,605.1 L424.4,605.3
		L425.6,605.6 L426.7,605.8 L427.8,606.0 L428.9,606.3 L430.1,606.5 L431.2,606.8 L432.3,607.0 L433.4,607.3
		L434.6,607.5 L435.7,607.7 L436.8,608.0 L437.9,608.2 L439.1,608.5 L440.2,608.7 L441.3,609.0 L442.5,609.2
		L443.6,609.4 L444.7,609.7 L445.8,609.9 L447.0,610.2 L448.1,610.4 L449.2,610.6 L450.3,610.9 L451.5,611.1
		L452.6,611.4 L453.7,611.6 L454.8,611.8 L456.0,612.1 L457.1,612.3 L458.2,612.5 L459.3,612.8 L460.5,613.0
		L461.6,613.2 L462.7,613.5 L463.8,613.7 L465.0,613.9 L466.1,614.2 L467.2,614.4 L468.3,614.6 L469.5,614.9
		L470.6,615.1 L471.7,615.3 L472.8,615.6 L474.0,615.8 L475.1,616.0 L476.2,616.3 L477.3,616.5 L478.5,616.7
		L479.6,617.0 L480.7,617.2 L481.8,617.4 L483.0,617.6 L484.1,617.9 L485.2,618.1 L486.3,618.3 L487.5,618.5
		L488.6,618.8 L489.7,619.0 L490.8,619.2 L492.0,619.4 L493.1,619.7 L494.2,619.9 L495.3,620.1 L496.5,620.3
		L497.6,620.6 L498.7,620.8 L499.8,621.0 L501.0,621.2 L502.1,621.5 L503.2,621.7 L504.3,621.9 L505.5,622.1
		L506.6,622.3 L507.7,622.5 L508.8,622.8 L510.0,623.0 L511.1,623.2 L512.2,623.4 L513.4,623.6 L514.5,623.8
		L515.6,624.1 L516.7,624.3 L517.9,624.5 L519.0,624.7 L520.1,624.9 L521.2,625.1 L522.4,625.3 L523.5,625.6
		L524.6,625.8 L525.7,626.0 L526.9,626.2 L528.0,626.4 L529.1,626.6 L530.2,626.8 L531.4,627.0 L532.5,627.2
		L533.6,627.4 L534.7,627.7 L535.9,627.9 L537.0,628.1 L538.1,628.3 L539.2,628.5 L540.4,628.7 L541.5,628.9
		L542.6,629.1 L543.7,629.3 L544.9,629.5 L546.0,629.7 L547.1,629.9 L548.2,630.1 L549.4,630.3 L550.5,630.5
		L551.6,630.7 L552.7,630.9 L553.9,631.1 L555.0,631.3 L556.1,631.5 L557.2,631.7 L558.4,631.9 L559.5,632.1
		L560.6,632.3 L561.7,632.5 L562.9,632.7 L564.0,632.9 L565.1,633.1 L566.2,633.3 L567.4,633.5 L568.5,633.7
		L569.6,633.9 L570.7,634.0 L571.9,634.2 L573.0,634.4 L574.1,634.6 L575.2,634.8 L576.4,635.0 L577.5,635.2
		L578.6,635.4 L579.8,635.6 L580.9,635.8 L582.0,635.9 L583.1,636.1 L584.3,636.3 L585.4,636.5 L586.5,636.7
		L587.6,636.9 L588.8,637.1 L589.9,637.2 L591.0,637.4 L592.1,637.6 L593.3,637.8 L594.4,638.0 L595.5,638.2
		L596.6,638.3 L597.8,638.5 L598.9,638.7 L600.0,638.9 L601.1,639.1 L602.3,639.2 L603.4,639.4 L604.5,639.6
		L605.6,639.8 L606.8,639.9 L607.9,640.1 L609.0,640.3 L610.1,640.5 L611.3,640.6 L612.4,640.8 L613.5,641.0
		L614.6,641.2 L615.8,641.3 L616.9,641.5 L618.0,641.7 L619.1,641.9 L620.3,642.0 L621.4,642.2 L622.5,642.4
		L623.6,642.5 L624.8,642.7 L625.9,642.9 L627.0,643.0 L628.1,643.2 L629.3,643.4 L630.4,643.5 L631.5,643.7
		L632.6,643.9 L633.8,644.0 L634.9,644.2 L636.0,644.4 L637.1,644.5 L638.3,644.7 L639.4,644.9 L640.5,645.0
		L641.6,645.2 L642.8,645.3 L643.9,645.5 L645.0,645.7 L646.2,645.8 L647.3,646.0 L648.4,646.1 L649.5,646.3
		L650.7,646.5 L651.8,646.6 L652.9,646.8 L654.0,646.9 L655.2,647.1 L656.3,647.2 L657.4,647.4 L658.5,647.6
		L659.7,647.7 L660.8,647.9 L661.9,648.0 L663.0,648.2 L664.2,648.3 L665.3,648.5 L666.4,648.6 L667.5,648.8
		L668.7,648.9 L669.8,649.1 L670.9,649.2 L672.0,649.4 L673.2,649.5 L674.3,649.7 L675.4,649.8 L676.5,650.0
		L677.7,650.1 L678.8,650.2 L679.9,650.4 L681.0,650.5 L682.2,650.7 L683.3,650.8 L684.4,651.0 L685.5,651.1
		L686.7,651.3 L687.8,651.4 L688.9,651.5 L690.0,651.7 L691.2,651.8 L692.3,652.0 L693.4,652.1 L694.5,652.2
		L695.7,652.4 L696.8,652.5 L697.9,652.6 L699.0,652.8 L700.2,652.9 L701.3,653.1 L702.4,653.2 L703.5,653.3
		L704.7,653.5 L705.8,653.6 L706.9,653.7 L708.0,653.9 L709.2,654.0 L710.3,654.1 L711.4,654.2 L712.5,654.4
		L713.7,654.5 L714.8,654.6 L715.9,654.8 L717.1,654.9 L718.2,655.0 L719.3,655.2 L720.4,655.3 L721.6,655.4
		L722.7,655.5 L723.8,655.7 L724.9,655.8 L726.1,655.9 L727.2,656.0 L728.3,656.2 L729.4,656.3 L730.6,656.4
		L731.7,656.5 L732.8,656.6 L733.9,656.8 L735.1,656.9 L736.2,657.0 L737.3,657.1 L738.4,657.2 L739.6,657.4
		L740.7,657.5 L741.8,657.6 L742.9,657.7 L744.1,657.8 L745.2,657.9 L746.3,658.1 L747.4,658.2 L748.6,658.3
		L749.7,658.4 L750.8,658.5 L751.9,658.6 L753.1,658.7 L754.2,658.8 L755.3,658.9 L756.4,659.1 L757.6,659.2
		L758.7,659.3 L759.8,659.4 L760.9,659.5 L762.1,659.6 L763.2,659.7 L764.3,659.8 L765.4,659.9 L766.6,660.0
		L767.7,660.1 L768.8,660.2 L769.9,660.3 L771.1,660.4 L772.2,660.5 L773.3,660.6 L774.4,660.7 L775.6,660.8
		L776.7,660.9 L777.8,661.0 L778.9,661.1 L780.1,661.2 L781.2,661.3 L782.3,661.4 L783.5,661.5 L784.6,661.6
		L785.7,661.7 L786.8,661.8 L788.0,661.9 L789.1,662.0 L790.2,662.1 L791.3,662.2 L792.5,662.3 L793.6,662.4
		L794.7,662.5 L795.8,662.5 L797.0,662.6 L798.1,662.7 L799.2,662.8 L800.3,662.9 L801.5,663.0 L802.6,663.1
		L803.7,663.2 L804.8,663.2 L806.0,663.3 L807.1,663.4 L808.2,663.5 L809.3,663.6 L810.5,663.7 L811.6,663.7
		L812.7,663.8 L813.8,663.9 L815.0,664.0 L816.1,664.1 L817.2,664.1 L818.3,664.2 L819.5,664.3 L820.6,664.4
		L821.7,664.4 L822.8,664.5 L824.0,664.6 L825.1,664.7 L826.2,664.7 L827.3,664.8 L828.5,664.9 L829.6,665.0
		L830.7,665.0 L831.8,665.1 L833.0,665.2 L834.1,665.2 L835.2,665.3 L836.3,665.4 L837.5,665.4 L838.6,665.5
		L839.7,665.6 L840.8,665.6 L842.0,665.7 L843.1,665.8 L844.2,665.8 L845.3,665.9 L846.5,665.9 L847.6,666.0
		L848.7,666.1 L849.9,666.1 L851.0,666.2 L852.1,666.2 L853.2,666.3 L854.4,666.3 L855.5,666.4 L856.6,666.5
		L857.7,666.5 L858.9,666.6 L860.0,666.6 L861.1,666.7 L862.2,666.7 L863.4,666.8 L864.5,666.8 L865.6,666.9
		L866.7,666.9 L867.9,667.0 L869.0,667.0 L870.1,667.0 L871.2,667.1 L872.4,667.1 L873.5,667.2 L874.6,667.2
		L875.7,667.3 L876.9,667.3 L878.0,667.3 L879.1,667.4 L880.2,667.4 L881.4,667.5 L882.5,667.5 L883.6,667.5
		L884.7,667.6 L885.9,667.6 L887.0,667.6 L888.1,667.7 L889.2,667.7 L890.4,667.7 L891.5,667.8 L892.6,667.8
		L893.7,667.8 L894.9,667.8 L896.0,667.9 L897.1,667.9 L898.2,667.9 L899.4,667.9 L900.5,668.0 L901.6,668.0
		L902.7,668.0 L903.9,668.0 L905.0,668.0 L906.1,668.1 L907.2,668.1 L908.4,668.1 L909.5,668.1 L910.6,668.1
		L911.7,668.1 L912.9,668.1 L914.0,668.1 L915.1,668.2 L916.2,668.2 L917.4,668.2 L918.5,668.2 L919.6,668.2
		L920.8,668.2 L921.9,668.2 L923.0,668.2 L924.1,668.2 L925.3,668.2 L926.4,668.2 L927.5,668.2 L928.6,668.2
		L929.8,668.2 L930.9,668.2 L932.0,668.2 L933.1,668.2 L934.3,668.2 L935.4,668.2 L936.5,668.2 L937.6,668.1
		L938.8,668.1 L939.9,668.1 L941.0,668.1 L942.1,668.1 L943.3,668.1 L944.4,668.1 L945.5,668.0 L946.6,668.0
		L947.8,668.0 L948.9,668.0 L950.0,668.0 L951.1,667.9 L952.3,667.9 L953.4,667.9 L954.5,667.8 L955.6,667.8
		L956.8,667.8 L957.9,667.8 L959.0,667.7 L960.1,667.7 L961.3,667.7 L962.4,667.6 L963.5,667.6 L964.6,667.5
		L965.8,667.5 L966.9,667.5 L968.0,667.4 L969.1,667.4 L970.3,667.3 L971.4,667.3 L972.5,667.2 L973.6,667.2
		L974.8,667.1 L975.9,667.1 L977.0,667.0 L978.1,667.0 L979.3,666.9 L980.4,666.9 L981.5,666.8 L982.6,666.7
		L983.8,666.7 L984.9,666.6 L986.0,666.5 L987.2,666.5 L988.3,666.4 L989.4,666.3 L990.5,666.3 L991.7,666.2
		L992.8,666.1 L993.9,666.1 L995.0,666.0 L996.2,665.9 L997.3,665.8 L998.4,665.7 L999.5,665.7 L1000.7,665.6
		L1001.8,665.5 L1002.9,665.4 L1004.0,665.3 L1005.2,665.2 L1006.3,665.1 L1007.4,665.0 L1008.5,665.0 L1009.7,664.9
		L1010.8,664.8 L1011.9,664.7 L1013.0,664.6 L1014.2,664.5 L1015.3,664.4 L1016.4,664.2 L1017.5,664.1 L1018.7,664.0
		L1019.8,663.9 L1020.9,663.8 L1022.0,663.7 L1023.2,663.6 L1024.3,663.5 L1025.4,663.3 L1026.5,663.2 L1027.7,663.1
		L1028.8,663.0 L1029.9,662.9 L1031.0,662.7 L1032.2,662.6 L1033.3,662.5 L1034.4,662.3 L1035.5,662.2 L1036.7,662.1
		L1037.8,661.9 L1038.9,661.8 L1040.0,661.7 L1041.2,661.5 L1042.3,661.4 L1043.4,661.2 L1044.5,661.1 L1045.7,660.9
		L1046.8,660.8 L1047.9,660.6 L1049.0,660.5 L1050.2,660.3 L1051.3,660.2 L1052.4,660.0 L1053.6,659.8 L1054.7,659.7
		L1055.8,659.5 L1056.9,659.3 L1058.1,659.2 L1059.2,659.0 L1060.3,658.8 L1061.4,658.7 L1062.6,658.5 L1063.7,658.3
		L1064.8,658.1 L1065.9,658.0 L1067.1,657.8 L1068.2,657.6 L1069.3,657.4 L1070.4,657.2 L1071.6,657.0 L1072.7,656.8
		L1073.8,656.6 L1074.9,656.4 L1076.1,656.3 L1077.2,656.1 L1078.3,655.9 L1079.4,655.7 L1080.6,655.5 L1081.7,655.3
		L1082.8,655.0 L1083.9,654.8 L1085.1,654.6 L1086.2,654.4 L1087.3,654.2 L1088.4,654.0 L1089.6,653.8 L1090.7,653.6
		L1091.8,653.3 L1092.9,653.1 L1094.1,652.9 L1095.2,652.7 L1096.3,652.5 L1097.4,652.2 L1098.6,652.0 L1099.7,651.8
		L1100.8,651.5 L1101.9,651.3 L1103.1,651.1 L1104.2,650.8 L1105.3,650.6 L1106.4,650.4 L1107.6,650.1 L1108.7,649.9
		L1109.8,649.6 L1110.9,649.4 L1112.1,649.2 L1113.2,648.9 L1114.3,648.7 L1115.4,648.4 L1116.6,648.2 L1117.7,647.9
		L1118.8,647.7 L1120.0,647.4 L1121.1,647.2 L1122.2,646.9 L1123.3,646.7 L1124.5,646.4 L1125.6,646.1 L1126.7,645.9
		L1127.8,645.6 L1129.0,645.4 L1130.1,645.1 L1131.2,644.8 L1132.3,644.6 L1133.5,644.3 L1134.6,644.1 L1135.7,643.8
		L1136.8,643.5 L1138.0,643.3 L1139.1,643.0 L1140.2,642.7 L1141.3,642.5 L1142.5,642.2 L1143.6,641.9 L1144.7,641.7
		L1145.8,641.4 L1147.0,641.1 L1148.1,640.9 L1149.2,640.6 L1150.3,640.3 L1151.5,640.1 L1152.6,639.8 L1153.7,639.5
		L1154.8,639.3 L1156.0,639.0 L1157.1,638.7 L1158.2,638.5 L1159.3,638.2 L1160.5,637.9 L1161.6,637.7 L1162.7,637.4
		L1163.8,637.1 L1165.0,636.9 L1166.1,636.6 L1167.2,636.3 L1168.3,636.1 L1169.5,635.8 L1170.6,635.6 L1171.7,635.3
		L1172.8,635.0 L1174.0,634.8 L1175.1,634.5 L1176.2,634.3 L1177.3,634.0 L1178.5,633.8 L1179.6,633.5 L1180.7,633.3
		L1181.8,633.0 L1183.0,632.8 L1184.1,632.5 L1185.2,632.3 L1186.3,632.0 L1187.5,631.8 L1188.6,631.6 L1189.7,631.3
		L1190.9,631.1 L1192.0,630.8 L1193.1,630.6 L1194.2,630.4 L1195.4,630.2 L1196.5,629.9 L1197.6,629.7 L1198.7,629.5
		L1199.9,629.2 L1201.0,629.0 L1202.1,628.8 L1203.2,628.6 L1204.4,628.4 L1205.5,628.1 L1206.6,627.9 L1207.7,627.7
		L1208.9,627.5 L1210.0,627.3 L1211.1,627.1 L1212.2,626.8 L1213.4,626.6 L1214.5,626.4 L1215.6,626.2 L1216.7,625.9
		L1217.9,625.7 L1219.0,625.5 L1220.1,625.2 L1221.2,624.9 L1222.4,624.7 L1223.5,624.4 L1224.6,624.1 L1225.7,623.8
		L1226.9,623.4 L1228.0,623.0 L1229.1,622.6 L1230.2,622.1 L1231.4,621.6 L1232.5,620.9 L1233.6,620.2 L1234.7,619.4
		L1235.9,618.4 L1237.0,617.2 L1238.1,615.7 L1239.2,614.0 L1240.4,611.8 L1241.5,609.1 L1242.6,605.7 L1243.7,601.5
		L1244.9,596.2 L1246.0,589.5 L1247.1,581.2 L1248.2,570.9 L1249.4,558.6 L1250.5,544.2 L1251.6,528.4 L1252.7,512.6
		L1253.9,500.2 L1255.0,495.4  '/></g>
	</g>
<g fill="none" color="white" stroke="rgb(230, 159,   0)" stroke-width="2.00" stroke-linecap="butt" stroke-linejoin="miter">
</g>
<g fill="none" color="black" stroke="currentColor" stroke-width="2.00" stroke-linecap="butt" stroke-linejoin="miter">
</g>
<g fill="none" color="black" stroke="black" stroke-width="1.00" stroke-linecap="butt" stroke-linejoin="miter">
</g>
<g fill="none" color="black" stroke="currentColor" stroke-width="1.00" stroke-linecap="butt" stroke-linejoin="miter">
	<path stroke='black'  d='M103.7,54.1 L103.7,684.0 L1255.0,684.0 L1255.0,54.1 L103.7,54.1 Z  '/></g>
<g fill="none" color="black" stroke="currentColor" stroke-width="1.00" stroke-linecap="butt" stroke-linejoin="miter">
</g>
</g>
</svg>

