<?xml version="1.0" encoding="utf-8"  standalone="no"?>
<svg 
 width="1280" height="720"
 viewBox="0 0 1280 720"
 xmlns="http://www.w3.org/2000/svg"
 xmlns:xlink="http://www.w3.org/1999/xlink"
>

<title>Gnuplot</title>
<desc>Produced by GNUPLOT 5.0 patchlevel 6 </desc>

<g id="gnuplot_canvas">

<rect x="0" y="0" width="1280" height="720" fill="none"/>
<defs>

	<circle id='gpDot' r='0.5' stroke-width='0.5'/>
	<path id='gpPt0' stroke-width='0.222' stroke='currentColor' d='M-1,0 h2 M0,-1 v2'/>
	<path id='gpPt1' stroke-width='0.222' stroke='currentColor' d='M-1,-1 L1,1 M1,-1 L-1,1'/>
	<path id='gpPt2' stroke-width='0.222' stroke='currentColor' d='M-1,0 L1,0 M0,-1 L0,1 M-1,-1 L1,1 M-1,1 L1,-1'/>
	<rect id='gpPt3' stroke-width='0.222' stroke='currentColor' x='-1' y='-1' width='2' height='2'/>
	<rect id='gpPt4' stroke-width='0.222' stroke='currentColor' fill='currentColor' x='-1' y='-1' width='2' height='2'/>
	<circle id='gpPt5' stroke-width='0.222' stroke='currentColor' cx='0' cy='0' r='1'/>
	<use xlink:href='#gpPt5' id='gpPt6' fill='currentColor' stroke='none'/>
	<path id='gpPt7' stroke-width='0.222' stroke='currentColor' d='M0,-1.33 L-1.33,0.67 L1.33,0.67 z'/>
	<use xlink:href='#gpPt7' id='gpPt8' fill='currentColor' stroke='none'/>
	<use xlink:href='#gpPt7' id='gpPt9' stroke='currentColor' transform='rotate(180)'/>
	<use xlink:href='#gpPt9' id='gpPt10' fill='currentColor' stroke='none'/>
	<use xlink:href='#gpPt3' id='gpPt11' stroke='currentColor' transform='rotate(45)'/>
	<use xlink:href='#gpPt11' id='gpPt12' fill='currentColor' stroke='none'/>
	<path id='gpPt13' stroke-width='0.222' stroke='currentColor' d='M0,1.330 L1.265,0.411 L0.782,-1.067 L-0.782,-1.076 L-1.265,0.411 z'/>
	<use xlink:href='#gpPt13' id='gpPt14' fill='currentColor' stroke='none'/>
	<filter id='textbox' filterUnits='objectBoundingBox' x='0' y='0' height='1' width='1'>
	  <feFlood flood-color='white' flood-opacity='1' result='bgnd'/>
	  <feComposite in='SourceGraphic' in2='bgnd' operator='atop'/>
	</filter>
	<filter id='greybox' filterUnits='objectBoundingBox' x='0' y='0' height='1' width='1'>
	  <feFlood flood-color='lightgrey' flood-opacity='1' result='grey'/>
	  <feComposite in='SourceGraphic' in2='grey' operator='atop'/>
	</filter>
</defs>
<g fill="none" color="white" stroke="currentColor" stroke-width="1.00" stroke-linecap="butt" stroke-linejoin="miter">
</g>
<g fill="none" color="black" stroke="currentColor" stroke-width="1.00" stroke-linecap="butt" stroke-linejoin="miter">
	<path stroke='black'  d='M112.0,684.0 L121.0,684.0 M1255.0,684.0 L1246.0,684.0  '/>	<g transform="translate(103.7,687.9)" stroke="none" fill="black" font-family="Arial" font-size="12.00"  text-anchor="end">
		<text><tspan font-family="Arial" > 0.00181091</tspan></text>
	</g>
</g>
<g fill="none" color="black" stroke="currentColor" stroke-width="1.00" stroke-linecap="butt" stroke-linejoin="miter">
	<path stroke='black'  d='M112.0,391.7 L121.0,391.7 M1255.0,391.7 L1246.0,391.7  '/>	<g transform="translate(103.7,395.6)" stroke="none" fill="black" font-family="Arial" font-size="12.00"  text-anchor="end">
		<text><tspan font-family="Arial" > 0.0029963</tspan></text>
	</g>
</g>
<g fill="none" color="black" stroke="currentColor" stroke-width="1.00" stroke-linecap="butt" stroke-linejoin="miter">
	<path stroke='black'  d='M112.0,99.4 L121.0,99.4 M1255.0,99.4 L1246.0,99.4  '/>	<g transform="translate(103.7,103.3)" stroke="none" fill="black" font-family="Arial" font-size="12.00"  text-anchor="end">
		<text><tspan font-family="Arial" > 0.00418168</tspan></text>
	</g>
</g>
<g fill="none" color="black" stroke="currentColor" stroke-width="1.00" stroke-linecap="butt" stroke-linejoin="miter">
	<path stroke='black'  d='M112.0,684.0 L112.0,675.0 M112.0,54.1 L112.0,63.1  '/>	<g transform="translate(112.0,705.9)" stroke="none" fill="black" font-family="Arial" font-size="12.00"  text-anchor="middle">
		<text><tspan font-family="Arial" > 0</tspan></text>
	</g>
</g>
<g fill="none" color="black" stroke="currentColor" stroke-width="1.00" stroke-linecap="butt" stroke-linejoin="miter">
	<path stroke='black'  d='M683.5,684.0 L683.5,675.0 M683.5,54.1 L683.5,63.1  '/>	<g transform="translate(683.5,705.9)" stroke="none" fill="black" font-family="Arial" font-size="12.00"  text-anchor="middle">
		<text><tspan font-family="Arial" >pi/2</tspan></text>
	</g>
</g>
<g fill="none" color="black" stroke="currentColor" stroke-width="1.00" stroke-linecap="butt" stroke-linejoin="miter">
	<path stroke='black'  d='M1255.0,684.0 L1255.0,675.0 M1255.0,54.1 L1255.0,63.1  '/>	<g transform="translate(1255.0,705.9)" stroke="none" fill="black" font-family="Arial" font-size="12.00"  text-anchor="middle">
		<text><tspan font-family="Arial" >pi</tspan></text>
	</g>
</g>
<g fill="none" color="black" stroke="currentColor" stroke-width="1.00" stroke-linecap="butt" stroke-linejoin="miter">
</g>
<g fill="none" color="black" stroke="currentColor" stroke-width="1.00" stroke-linecap="butt" stroke-linejoin="miter">
	<path stroke='black'  d='M112.0,54.1 L112.0,684.0 L1255.0,684.0 L1255.0,54.1 L112.0,54.1 Z  '/></g>
<g fill="none" color="black" stroke="currentColor" stroke-width="1.00" stroke-linecap="butt" stroke-linejoin="miter">
	<g transform="translate(683.5,31.0)" stroke="none" fill="black" font-family="Arial" font-size="12.00"  text-anchor="middle">
		<text><tspan font-family="Arial" >Material 62</tspan></text>
	</g>
</g>
	<g id="gnuplot_plot_1" ><title>scattering function</title>
<g fill="none" color="black" stroke="currentColor" stroke-width="1.00" stroke-linecap="butt" stroke-linejoin="miter">
	<g transform="translate(1187.9,76.0)" stroke="none" fill="black" font-family="Arial" font-size="12.00"  text-anchor="end">
		<text><tspan font-family="Arial" >scattering function</tspan></text>
	</g>
</g>
<g fill="none" color="black" stroke="currentColor" stroke-width="1.00" stroke-linecap="butt" stroke-linejoin="miter">
	<use xlink:href='#gpPt5' transform='translate(112.0,99.4) scale(2.25)' color='black'/>
	<use xlink:href='#gpPt5' transform='translate(115.2,99.4) scale(2.25)' color='black'/>
	<use xlink:href='#gpPt5' transform='translate(118.4,99.6) scale(2.25)' color='black'/>
	<use xlink:href='#gpPt5' transform='translate(121.6,99.8) scale(2.25)' color='black'/>
	<use xlink:href='#gpPt5' transform='translate(124.7,100.1) scale(2.25)' color='black'/>
	<use xlink:href='#gpPt5' transform='translate(127.9,100.5) scale(2.25)' color='black'/>
	<use xlink:href='#gpPt5' transform='translate(131.1,101.0) scale(2.25)' color='black'/>
	<use xlink:href='#gpPt5' transform='translate(134.3,101.6) scale(2.25)' color='black'/>
	<use xlink:href='#gpPt5' transform='translate(137.5,102.3) scale(2.25)' color='black'/>
	<use xlink:href='#gpPt5' transform='translate(140.7,103.1) scale(2.25)' color='black'/>
	<use xlink:href='#gpPt5' transform='translate(143.8,103.9) scale(2.25)' color='black'/>
	<use xlink:href='#gpPt5' transform='translate(147.0,104.9) scale(2.25)' color='black'/>
	<use xlink:href='#gpPt5' transform='translate(150.2,106.0) scale(2.25)' color='black'/>
	<use xlink:href='#gpPt5' transform='translate(153.4,107.1) scale(2.25)' color='black'/>
	<use xlink:href='#gpPt5' transform='translate(156.6,108.3) scale(2.25)' color='black'/>
	<use xlink:href='#gpPt5' transform='translate(159.8,109.6) scale(2.25)' color='black'/>
	<use xlink:href='#gpPt5' transform='translate(162.9,111.0) scale(2.25)' color='black'/>
	<use xlink:href='#gpPt5' transform='translate(166.1,112.5) scale(2.25)' color='black'/>
	<use xlink:href='#gpPt5' transform='translate(169.3,114.1) scale(2.25)' color='black'/>
	<use xlink:href='#gpPt5' transform='translate(172.5,115.8) scale(2.25)' color='black'/>
	<use xlink:href='#gpPt5' transform='translate(175.7,117.5) scale(2.25)' color='black'/>
	<use xlink:href='#gpPt5' transform='translate(178.9,119.3) scale(2.25)' color='black'/>
	<use xlink:href='#gpPt5' transform='translate(182.0,121.3) scale(2.25)' color='black'/>
	<use xlink:href='#gpPt5' transform='translate(185.2,123.3) scale(2.25)' color='black'/>
	<use xlink:href='#gpPt5' transform='translate(188.4,125.3) scale(2.25)' color='black'/>
	<use xlink:href='#gpPt5' transform='translate(191.6,127.5) scale(2.25)' color='black'/>
	<use xlink:href='#gpPt5' transform='translate(194.8,129.8) scale(2.25)' color='black'/>
	<use xlink:href='#gpPt5' transform='translate(198.0,132.1) scale(2.25)' color='black'/>
	<use xlink:href='#gpPt5' transform='translate(201.1,134.5) scale(2.25)' color='black'/>
	<use xlink:href='#gpPt5' transform='translate(204.3,137.0) scale(2.25)' color='black'/>
	<use xlink:href='#gpPt5' transform='translate(207.5,139.6) scale(2.25)' color='black'/>
	<use xlink:href='#gpPt5' transform='translate(210.7,142.2) scale(2.25)' color='black'/>
	<use xlink:href='#gpPt5' transform='translate(213.9,144.9) scale(2.25)' color='black'/>
	<use xlink:href='#gpPt5' transform='translate(217.1,147.7) scale(2.25)' color='black'/>
	<use xlink:href='#gpPt5' transform='translate(220.3,150.6) scale(2.25)' color='black'/>
	<use xlink:href='#gpPt5' transform='translate(223.4,153.5) scale(2.25)' color='black'/>
	<use xlink:href='#gpPt5' transform='translate(226.6,156.6) scale(2.25)' color='black'/>
	<use xlink:href='#gpPt5' transform='translate(229.8,159.6) scale(2.25)' color='black'/>
	<use xlink:href='#gpPt5' transform='translate(233.0,162.8) scale(2.25)' color='black'/>
	<use xlink:href='#gpPt5' transform='translate(236.2,166.0) scale(2.25)' color='black'/>
	<use xlink:href='#gpPt5' transform='translate(239.4,169.3) scale(2.25)' color='black'/>
	<use xlink:href='#gpPt5' transform='translate(242.5,172.7) scale(2.25)' color='black'/>
	<use xlink:href='#gpPt5' transform='translate(245.7,176.1) scale(2.25)' color='black'/>
	<use xlink:href='#gpPt5' transform='translate(248.9,179.6) scale(2.25)' color='black'/>
	<use xlink:href='#gpPt5' transform='translate(252.1,183.2) scale(2.25)' color='black'/>
	<use xlink:href='#gpPt5' transform='translate(255.3,186.8) scale(2.25)' color='black'/>
	<use xlink:href='#gpPt5' transform='translate(258.5,190.5) scale(2.25)' color='black'/>
	<use xlink:href='#gpPt5' transform='translate(261.6,194.2) scale(2.25)' color='black'/>
	<use xlink:href='#gpPt5' transform='translate(264.8,198.0) scale(2.25)' color='black'/>
	<use xlink:href='#gpPt5' transform='translate(268.0,201.9) scale(2.25)' color='black'/>
	<use xlink:href='#gpPt5' transform='translate(271.2,205.8) scale(2.25)' color='black'/>
	<use xlink:href='#gpPt5' transform='translate(274.4,209.8) scale(2.25)' color='black'/>
	<use xlink:href='#gpPt5' transform='translate(277.6,213.8) scale(2.25)' color='black'/>
	<use xlink:href='#gpPt5' transform='translate(280.7,217.8) scale(2.25)' color='black'/>
	<use xlink:href='#gpPt5' transform='translate(283.9,222.0) scale(2.25)' color='black'/>
	<use xlink:href='#gpPt5' transform='translate(287.1,226.1) scale(2.25)' color='black'/>
	<use xlink:href='#gpPt5' transform='translate(290.3,230.4) scale(2.25)' color='black'/>
	<use xlink:href='#gpPt5' transform='translate(293.5,234.6) scale(2.25)' color='black'/>
	<use xlink:href='#gpPt5' transform='translate(296.7,238.9) scale(2.25)' color='black'/>
	<use xlink:href='#gpPt5' transform='translate(299.8,243.3) scale(2.25)' color='black'/>
	<use xlink:href='#gpPt5' transform='translate(303.0,247.7) scale(2.25)' color='black'/>
	<use xlink:href='#gpPt5' transform='translate(306.2,252.1) scale(2.25)' color='black'/>
	<use xlink:href='#gpPt5' transform='translate(309.4,256.6) scale(2.25)' color='black'/>
	<use xlink:href='#gpPt5' transform='translate(312.6,261.1) scale(2.25)' color='black'/>
	<use xlink:href='#gpPt5' transform='translate(315.8,265.7) scale(2.25)' color='black'/>
	<use xlink:href='#gpPt5' transform='translate(318.9,270.2) scale(2.25)' color='black'/>
	<use xlink:href='#gpPt5' transform='translate(322.1,274.9) scale(2.25)' color='black'/>
	<use xlink:href='#gpPt5' transform='translate(325.3,279.5) scale(2.25)' color='black'/>
	<use xlink:href='#gpPt5' transform='translate(328.5,284.2) scale(2.25)' color='black'/>
	<use xlink:href='#gpPt5' transform='translate(331.7,288.9) scale(2.25)' color='black'/>
	<use xlink:href='#gpPt5' transform='translate(334.9,293.6) scale(2.25)' color='black'/>
	<use xlink:href='#gpPt5' transform='translate(338.1,298.4) scale(2.25)' color='black'/>
	<use xlink:href='#gpPt5' transform='translate(341.2,303.2) scale(2.25)' color='black'/>
	<use xlink:href='#gpPt5' transform='translate(344.4,308.0) scale(2.25)' color='black'/>
	<use xlink:href='#gpPt5' transform='translate(347.6,312.8) scale(2.25)' color='black'/>
	<use xlink:href='#gpPt5' transform='translate(350.8,317.7) scale(2.25)' color='black'/>
	<use xlink:href='#gpPt5' transform='translate(354.0,322.5) scale(2.25)' color='black'/>
	<use xlink:href='#gpPt5' transform='translate(357.2,327.4) scale(2.25)' color='black'/>
	<use xlink:href='#gpPt5' transform='translate(360.3,332.3) scale(2.25)' color='black'/>
	<use xlink:href='#gpPt5' transform='translate(363.5,337.3) scale(2.25)' color='black'/>
	<use xlink:href='#gpPt5' transform='translate(366.7,342.2) scale(2.25)' color='black'/>
	<use xlink:href='#gpPt5' transform='translate(369.9,347.1) scale(2.25)' color='black'/>
	<use xlink:href='#gpPt5' transform='translate(373.1,352.1) scale(2.25)' color='black'/>
	<use xlink:href='#gpPt5' transform='translate(376.3,357.0) scale(2.25)' color='black'/>
	<use xlink:href='#gpPt5' transform='translate(379.4,362.0) scale(2.25)' color='black'/>
	<use xlink:href='#gpPt5' transform='translate(382.6,367.0) scale(2.25)' color='black'/>
	<use xlink:href='#gpPt5' transform='translate(385.8,371.9) scale(2.25)' color='black'/>
	<use xlink:href='#gpPt5' transform='translate(389.0,376.9) scale(2.25)' color='black'/>
	<use xlink:href='#gpPt5' transform='translate(392.2,381.9) scale(2.25)' color='black'/>
	<use xlink:href='#gpPt5' transform='translate(395.4,386.8) scale(2.25)' color='black'/>
	<use xlink:href='#gpPt5' transform='translate(398.5,391.8) scale(2.25)' color='black'/>
	<use xlink:href='#gpPt5' transform='translate(401.7,396.8) scale(2.25)' color='black'/>
	<use xlink:href='#gpPt5' transform='translate(404.9,401.7) scale(2.25)' color='black'/>
	<use xlink:href='#gpPt5' transform='translate(408.1,406.7) scale(2.25)' color='black'/>
	<use xlink:href='#gpPt5' transform='translate(411.3,411.6) scale(2.25)' color='black'/>
	<use xlink:href='#gpPt5' transform='translate(414.5,416.6) scale(2.25)' color='black'/>
	<use xlink:href='#gpPt5' transform='translate(417.6,421.5) scale(2.25)' color='black'/>
	<use xlink:href='#gpPt5' transform='translate(420.8,426.4) scale(2.25)' color='black'/>
	<use xlink:href='#gpPt5' transform='translate(424.0,431.3) scale(2.25)' color='black'/>
	<use xlink:href='#gpPt5' transform='translate(427.2,436.2) scale(2.25)' color='black'/>
	<use xlink:href='#gpPt5' transform='translate(430.4,441.0) scale(2.25)' color='black'/>
	<use xlink:href='#gpPt5' transform='translate(433.6,445.9) scale(2.25)' color='black'/>
	<use xlink:href='#gpPt5' transform='translate(436.8,450.7) scale(2.25)' color='black'/>
	<use xlink:href='#gpPt5' transform='translate(439.9,455.5) scale(2.25)' color='black'/>
	<use xlink:href='#gpPt5' transform='translate(443.1,460.3) scale(2.25)' color='black'/>
	<use xlink:href='#gpPt5' transform='translate(446.3,465.1) scale(2.25)' color='black'/>
	<use xlink:href='#gpPt5' transform='translate(449.5,469.8) scale(2.25)' color='black'/>
	<use xlink:href='#gpPt5' transform='translate(452.7,474.5) scale(2.25)' color='black'/>
	<use xlink:href='#gpPt5' transform='translate(455.9,479.2) scale(2.25)' color='black'/>
	<use xlink:href='#gpPt5' transform='translate(459.0,483.9) scale(2.25)' color='black'/>
	<use xlink:href='#gpPt5' transform='translate(462.2,488.5) scale(2.25)' color='black'/>
	<use xlink:href='#gpPt5' transform='translate(465.4,493.1) scale(2.25)' color='black'/>
	<use xlink:href='#gpPt5' transform='translate(468.6,497.6) scale(2.25)' color='black'/>
	<use xlink:href='#gpPt5' transform='translate(471.8,502.2) scale(2.25)' color='black'/>
	<use xlink:href='#gpPt5' transform='translate(475.0,506.7) scale(2.25)' color='black'/>
	<use xlink:href='#gpPt5' transform='translate(478.1,511.1) scale(2.25)' color='black'/>
	<use xlink:href='#gpPt5' transform='translate(481.3,515.5) scale(2.25)' color='black'/>
	<use xlink:href='#gpPt5' transform='translate(484.5,519.9) scale(2.25)' color='black'/>
	<use xlink:href='#gpPt5' transform='translate(487.7,524.3) scale(2.25)' color='black'/>
	<use xlink:href='#gpPt5' transform='translate(490.9,528.6) scale(2.25)' color='black'/>
	<use xlink:href='#gpPt5' transform='translate(494.1,532.8) scale(2.25)' color='black'/>
	<use xlink:href='#gpPt5' transform='translate(497.2,537.0) scale(2.25)' color='black'/>
	<use xlink:href='#gpPt5' transform='translate(500.4,541.2) scale(2.25)' color='black'/>
	<use xlink:href='#gpPt5' transform='translate(503.6,545.4) scale(2.25)' color='black'/>
	<use xlink:href='#gpPt5' transform='translate(506.8,549.4) scale(2.25)' color='black'/>
	<use xlink:href='#gpPt5' transform='translate(510.0,553.5) scale(2.25)' color='black'/>
	<use xlink:href='#gpPt5' transform='translate(513.2,557.5) scale(2.25)' color='black'/>
	<use xlink:href='#gpPt5' transform='translate(516.3,561.4) scale(2.25)' color='black'/>
	<use xlink:href='#gpPt5' transform='translate(519.5,565.3) scale(2.25)' color='black'/>
	<use xlink:href='#gpPt5' transform='translate(522.7,569.1) scale(2.25)' color='black'/>
	<use xlink:href='#gpPt5' transform='translate(525.9,572.9) scale(2.25)' color='black'/>
	<use xlink:href='#gpPt5' transform='translate(529.1,576.7) scale(2.25)' color='black'/>
	<use xlink:href='#gpPt5' transform='translate(532.3,580.4) scale(2.25)' color='black'/>
	<use xlink:href='#gpPt5' transform='translate(535.5,584.0) scale(2.25)' color='black'/>
	<use xlink:href='#gpPt5' transform='translate(538.6,587.6) scale(2.25)' color='black'/>
	<use xlink:href='#gpPt5' transform='translate(541.8,591.1) scale(2.25)' color='black'/>
	<use xlink:href='#gpPt5' transform='translate(545.0,594.5) scale(2.25)' color='black'/>
	<use xlink:href='#gpPt5' transform='translate(548.2,597.9) scale(2.25)' color='black'/>
	<use xlink:href='#gpPt5' transform='translate(551.4,601.3) scale(2.25)' color='black'/>
	<use xlink:href='#gpPt5' transform='translate(554.6,604.6) scale(2.25)' color='black'/>
	<use xlink:href='#gpPt5' transform='translate(557.7,607.8) scale(2.25)' color='black'/>
	<use xlink:href='#gpPt5' transform='translate(560.9,611.0) scale(2.25)' color='black'/>
	<use xlink:href='#gpPt5' transform='translate(564.1,614.1) scale(2.25)' color='black'/>
	<use xlink:href='#gpPt5' transform='translate(567.3,617.1) scale(2.25)' color='black'/>
	<use xlink:href='#gpPt5' transform='translate(570.5,620.1) scale(2.25)' color='black'/>
	<use xlink:href='#gpPt5' transform='translate(573.7,623.0) scale(2.25)' color='black'/>
	<use xlink:href='#gpPt5' transform='translate(576.8,625.9) scale(2.25)' color='black'/>
	<use xlink:href='#gpPt5' transform='translate(580.0,628.7) scale(2.25)' color='black'/>
	<use xlink:href='#gpPt5' transform='translate(583.2,631.4) scale(2.25)' color='black'/>
	<use xlink:href='#gpPt5' transform='translate(586.4,634.1) scale(2.25)' color='black'/>
	<use xlink:href='#gpPt5' transform='translate(589.6,636.7) scale(2.25)' color='black'/>
	<use xlink:href='#gpPt5' transform='translate(592.8,639.2) scale(2.25)' color='black'/>
	<use xlink:href='#gpPt5' transform='translate(595.9,641.7) scale(2.25)' color='black'/>
	<use xlink:href='#gpPt5' transform='translate(599.1,644.1) scale(2.25)' color='black'/>
	<use xlink:href='#gpPt5' transform='translate(602.3,646.4) scale(2.25)' color='black'/>
	<use xlink:href='#gpPt5' transform='translate(605.5,648.7) scale(2.25)' color='black'/>
	<use xlink:href='#gpPt5' transform='translate(608.7,650.9) scale(2.25)' color='black'/>
	<use xlink:href='#gpPt5' transform='translate(611.9,653.0) scale(2.25)' color='black'/>
	<use xlink:href='#gpPt5' transform='translate(615.0,655.1) scale(2.25)' color='black'/>
	<use xlink:href='#gpPt5' transform='translate(618.2,657.0) scale(2.25)' color='black'/>
	<use xlink:href='#gpPt5' transform='translate(621.4,659.0) scale(2.25)' color='black'/>
	<use xlink:href='#gpPt5' transform='translate(624.6,660.8) scale(2.25)' color='black'/>
	<use xlink:href='#gpPt5' transform='translate(627.8,662.6) scale(2.25)' color='black'/>
	<use xlink:href='#gpPt5' transform='translate(631.0,664.3) scale(2.25)' color='black'/>
	<use xlink:href='#gpPt5' transform='translate(634.2,665.9) scale(2.25)' color='black'/>
	<use xlink:href='#gpPt5' transform='translate(637.3,667.5) scale(2.25)' color='black'/>
	<use xlink:href='#gpPt5' transform='translate(640.5,669.0) scale(2.25)' color='black'/>
	<use xlink:href='#gpPt5' transform='translate(643.7,670.4) scale(2.25)' color='black'/>
	<use xlink:href='#gpPt5' transform='translate(646.9,671.8) scale(2.25)' color='black'/>
	<use xlink:href='#gpPt5' transform='translate(650.1,673.1) scale(2.25)' color='black'/>
	<use xlink:href='#gpPt5' transform='translate(653.3,674.3) scale(2.25)' color='black'/>
	<use xlink:href='#gpPt5' transform='translate(656.4,675.4) scale(2.25)' color='black'/>
	<use xlink:href='#gpPt5' transform='translate(659.6,676.5) scale(2.25)' color='black'/>
	<use xlink:href='#gpPt5' transform='translate(662.8,677.5) scale(2.25)' color='black'/>
	<use xlink:href='#gpPt5' transform='translate(666.0,678.4) scale(2.25)' color='black'/>
	<use xlink:href='#gpPt5' transform='translate(669.2,679.3) scale(2.25)' color='black'/>
	<use xlink:href='#gpPt5' transform='translate(672.4,680.1) scale(2.25)' color='black'/>
	<use xlink:href='#gpPt5' transform='translate(675.5,680.8) scale(2.25)' color='black'/>
	<use xlink:href='#gpPt5' transform='translate(678.7,681.4) scale(2.25)' color='black'/>
	<use xlink:href='#gpPt5' transform='translate(681.9,682.0) scale(2.25)' color='black'/>
	<use xlink:href='#gpPt5' transform='translate(685.1,682.5) scale(2.25)' color='black'/>
	<use xlink:href='#gpPt5' transform='translate(688.3,682.9) scale(2.25)' color='black'/>
	<use xlink:href='#gpPt5' transform='translate(691.5,683.3) scale(2.25)' color='black'/>
	<use xlink:href='#gpPt5' transform='translate(694.6,683.5) scale(2.25)' color='black'/>
	<use xlink:href='#gpPt5' transform='translate(697.8,683.8) scale(2.25)' color='black'/>
	<use xlink:href='#gpPt5' transform='translate(701.0,683.9) scale(2.25)' color='black'/>
	<use xlink:href='#gpPt5' transform='translate(704.2,684.0) scale(2.25)' color='black'/>
	<use xlink:href='#gpPt5' transform='translate(707.4,684.0) scale(2.25)' color='black'/>
	<use xlink:href='#gpPt5' transform='translate(710.6,683.9) scale(2.25)' color='black'/>
	<use xlink:href='#gpPt5' transform='translate(713.7,683.8) scale(2.25)' color='black'/>
	<use xlink:href='#gpPt5' transform='translate(716.9,683.6) scale(2.25)' color='black'/>
	<use xlink:href='#gpPt5' transform='translate(720.1,683.3) scale(2.25)' color='black'/>
	<use xlink:href='#gpPt5' transform='translate(723.3,683.0) scale(2.25)' color='black'/>
	<use xlink:href='#gpPt5' transform='translate(726.5,682.6) scale(2.25)' color='black'/>
	<use xlink:href='#gpPt5' transform='translate(729.7,682.1) scale(2.25)' color='black'/>
	<use xlink:href='#gpPt5' transform='translate(732.8,681.6) scale(2.25)' color='black'/>
	<use xlink:href='#gpPt5' transform='translate(736.0,681.0) scale(2.25)' color='black'/>
	<use xlink:href='#gpPt5' transform='translate(739.2,680.3) scale(2.25)' color='black'/>
	<use xlink:href='#gpPt5' transform='translate(742.4,679.6) scale(2.25)' color='black'/>
	<use xlink:href='#gpPt5' transform='translate(745.6,678.8) scale(2.25)' color='black'/>
	<use xlink:href='#gpPt5' transform='translate(748.8,677.9) scale(2.25)' color='black'/>
	<use xlink:href='#gpPt5' transform='translate(752.0,677.0) scale(2.25)' color='black'/>
	<use xlink:href='#gpPt5' transform='translate(755.1,676.0) scale(2.25)' color='black'/>
	<use xlink:href='#gpPt5' transform='translate(758.3,675.0) scale(2.25)' color='black'/>
	<use xlink:href='#gpPt5' transform='translate(761.5,673.8) scale(2.25)' color='black'/>
	<use xlink:href='#gpPt5' transform='translate(764.7,672.7) scale(2.25)' color='black'/>
	<use xlink:href='#gpPt5' transform='translate(767.9,671.4) scale(2.25)' color='black'/>
	<use xlink:href='#gpPt5' transform='translate(771.1,670.1) scale(2.25)' color='black'/>
	<use xlink:href='#gpPt5' transform='translate(774.2,668.8) scale(2.25)' color='black'/>
	<use xlink:href='#gpPt5' transform='translate(777.4,667.4) scale(2.25)' color='black'/>
	<use xlink:href='#gpPt5' transform='translate(780.6,665.9) scale(2.25)' color='black'/>
	<use xlink:href='#gpPt5' transform='translate(783.8,664.4) scale(2.25)' color='black'/>
	<use xlink:href='#gpPt5' transform='translate(787.0,662.8) scale(2.25)' color='black'/>
	<use xlink:href='#gpPt5' transform='translate(790.2,661.1) scale(2.25)' color='black'/>
	<use xlink:href='#gpPt5' transform='translate(793.3,659.4) scale(2.25)' color='black'/>
	<use xlink:href='#gpPt5' transform='translate(796.5,657.7) scale(2.25)' color='black'/>
	<use xlink:href='#gpPt5' transform='translate(799.7,655.9) scale(2.25)' color='black'/>
	<use xlink:href='#gpPt5' transform='translate(802.9,654.0) scale(2.25)' color='black'/>
	<use xlink:href='#gpPt5' transform='translate(806.1,652.1) scale(2.25)' color='black'/>
	<use xlink:href='#gpPt5' transform='translate(809.3,650.1) scale(2.25)' color='black'/>
	<use xlink:href='#gpPt5' transform='translate(812.4,648.1) scale(2.25)' color='black'/>
	<use xlink:href='#gpPt5' transform='translate(815.6,646.0) scale(2.25)' color='black'/>
	<use xlink:href='#gpPt5' transform='translate(818.8,643.9) scale(2.25)' color='black'/>
	<use xlink:href='#gpPt5' transform='translate(822.0,641.7) scale(2.25)' color='black'/>
	<use xlink:href='#gpPt5' transform='translate(825.2,639.5) scale(2.25)' color='black'/>
	<use xlink:href='#gpPt5' transform='translate(828.4,637.3) scale(2.25)' color='black'/>
	<use xlink:href='#gpPt5' transform='translate(831.5,634.9) scale(2.25)' color='black'/>
	<use xlink:href='#gpPt5' transform='translate(834.7,632.6) scale(2.25)' color='black'/>
	<use xlink:href='#gpPt5' transform='translate(837.9,630.2) scale(2.25)' color='black'/>
	<use xlink:href='#gpPt5' transform='translate(841.1,627.8) scale(2.25)' color='black'/>
	<use xlink:href='#gpPt5' transform='translate(844.3,625.3) scale(2.25)' color='black'/>
	<use xlink:href='#gpPt5' transform='translate(847.5,622.8) scale(2.25)' color='black'/>
	<use xlink:href='#gpPt5' transform='translate(850.7,620.2) scale(2.25)' color='black'/>
	<use xlink:href='#gpPt5' transform='translate(853.8,617.6) scale(2.25)' color='black'/>
	<use xlink:href='#gpPt5' transform='translate(857.0,614.9) scale(2.25)' color='black'/>
	<use xlink:href='#gpPt5' transform='translate(860.2,612.3) scale(2.25)' color='black'/>
	<use xlink:href='#gpPt5' transform='translate(863.4,609.5) scale(2.25)' color='black'/>
	<use xlink:href='#gpPt5' transform='translate(866.6,606.8) scale(2.25)' color='black'/>
	<use xlink:href='#gpPt5' transform='translate(869.8,604.0) scale(2.25)' color='black'/>
	<use xlink:href='#gpPt5' transform='translate(872.9,601.2) scale(2.25)' color='black'/>
	<use xlink:href='#gpPt5' transform='translate(876.1,598.3) scale(2.25)' color='black'/>
	<use xlink:href='#gpPt5' transform='translate(879.3,595.5) scale(2.25)' color='black'/>
	<use xlink:href='#gpPt5' transform='translate(882.5,592.5) scale(2.25)' color='black'/>
	<use xlink:href='#gpPt5' transform='translate(885.7,589.6) scale(2.25)' color='black'/>
	<use xlink:href='#gpPt5' transform='translate(888.9,586.6) scale(2.25)' color='black'/>
	<use xlink:href='#gpPt5' transform='translate(892.0,583.6) scale(2.25)' color='black'/>
	<use xlink:href='#gpPt5' transform='translate(895.2,580.6) scale(2.25)' color='black'/>
	<use xlink:href='#gpPt5' transform='translate(898.4,577.5) scale(2.25)' color='black'/>
	<use xlink:href='#gpPt5' transform='translate(901.6,574.5) scale(2.25)' color='black'/>
	<use xlink:href='#gpPt5' transform='translate(904.8,571.4) scale(2.25)' color='black'/>
	<use xlink:href='#gpPt5' transform='translate(908.0,568.2) scale(2.25)' color='black'/>
	<use xlink:href='#gpPt5' transform='translate(911.1,565.1) scale(2.25)' color='black'/>
	<use xlink:href='#gpPt5' transform='translate(914.3,561.9) scale(2.25)' color='black'/>
	<use xlink:href='#gpPt5' transform='translate(917.5,558.8) scale(2.25)' color='black'/>
	<use xlink:href='#gpPt5' transform='translate(920.7,555.6) scale(2.25)' color='black'/>
	<use xlink:href='#gpPt5' transform='translate(923.9,552.3) scale(2.25)' color='black'/>
	<use xlink:href='#gpPt5' transform='translate(927.1,549.1) scale(2.25)' color='black'/>
	<use xlink:href='#gpPt5' transform='translate(930.2,545.8) scale(2.25)' color='black'/>
	<use xlink:href='#gpPt5' transform='translate(933.4,542.6) scale(2.25)' color='black'/>
	<use xlink:href='#gpPt5' transform='translate(936.6,539.3) scale(2.25)' color='black'/>
	<use xlink:href='#gpPt5' transform='translate(939.8,536.0) scale(2.25)' color='black'/>
	<use xlink:href='#gpPt5' transform='translate(943.0,532.7) scale(2.25)' color='black'/>
	<use xlink:href='#gpPt5' transform='translate(946.2,529.4) scale(2.25)' color='black'/>
	<use xlink:href='#gpPt5' transform='translate(949.4,526.1) scale(2.25)' color='black'/>
	<use xlink:href='#gpPt5' transform='translate(952.5,522.8) scale(2.25)' color='black'/>
	<use xlink:href='#gpPt5' transform='translate(955.7,519.5) scale(2.25)' color='black'/>
	<use xlink:href='#gpPt5' transform='translate(958.9,516.1) scale(2.25)' color='black'/>
	<use xlink:href='#gpPt5' transform='translate(962.1,512.8) scale(2.25)' color='black'/>
	<use xlink:href='#gpPt5' transform='translate(965.3,509.4) scale(2.25)' color='black'/>
	<use xlink:href='#gpPt5' transform='translate(968.5,506.1) scale(2.25)' color='black'/>
	<use xlink:href='#gpPt5' transform='translate(971.6,502.8) scale(2.25)' color='black'/>
	<use xlink:href='#gpPt5' transform='translate(974.8,499.4) scale(2.25)' color='black'/>
	<use xlink:href='#gpPt5' transform='translate(978.0,496.1) scale(2.25)' color='black'/>
	<use xlink:href='#gpPt5' transform='translate(981.2,492.7) scale(2.25)' color='black'/>
	<use xlink:href='#gpPt5' transform='translate(984.4,489.4) scale(2.25)' color='black'/>
	<use xlink:href='#gpPt5' transform='translate(987.6,486.1) scale(2.25)' color='black'/>
	<use xlink:href='#gpPt5' transform='translate(990.7,482.7) scale(2.25)' color='black'/>
	<use xlink:href='#gpPt5' transform='translate(993.9,479.4) scale(2.25)' color='black'/>
	<use xlink:href='#gpPt5' transform='translate(997.1,476.1) scale(2.25)' color='black'/>
	<use xlink:href='#gpPt5' transform='translate(1000.3,472.8) scale(2.25)' color='black'/>
	<use xlink:href='#gpPt5' transform='translate(1003.5,469.5) scale(2.25)' color='black'/>
	<use xlink:href='#gpPt5' transform='translate(1006.7,466.2) scale(2.25)' color='black'/>
	<use xlink:href='#gpPt5' transform='translate(1009.8,463.0) scale(2.25)' color='black'/>
	<use xlink:href='#gpPt5' transform='translate(1013.0,459.7) scale(2.25)' color='black'/>
	<use xlink:href='#gpPt5' transform='translate(1016.2,456.5) scale(2.25)' color='black'/>
	<use xlink:href='#gpPt5' transform='translate(1019.4,453.3) scale(2.25)' color='black'/>
	<use xlink:href='#gpPt5' transform='translate(1022.6,450.0) scale(2.25)' color='black'/>
	<use xlink:href='#gpPt5' transform='translate(1025.8,446.8) scale(2.25)' color='black'/>
	<use xlink:href='#gpPt5' transform='translate(1028.9,443.7) scale(2.25)' color='black'/>
	<use xlink:href='#gpPt5' transform='translate(1032.1,440.5) scale(2.25)' color='black'/>
	<use xlink:href='#gpPt5' transform='translate(1035.3,437.4) scale(2.25)' color='black'/>
	<use xlink:href='#gpPt5' transform='translate(1038.5,434.3) scale(2.25)' color='black'/>
	<use xlink:href='#gpPt5' transform='translate(1041.7,431.2) scale(2.25)' color='black'/>
	<use xlink:href='#gpPt5' transform='translate(1044.9,428.1) scale(2.25)' color='black'/>
	<use xlink:href='#gpPt5' transform='translate(1048.1,425.0) scale(2.25)' color='black'/>
	<use xlink:href='#gpPt5' transform='translate(1051.2,422.0) scale(2.25)' color='black'/>
	<use xlink:href='#gpPt5' transform='translate(1054.4,419.0) scale(2.25)' color='black'/>
	<use xlink:href='#gpPt5' transform='translate(1057.6,416.1) scale(2.25)' color='black'/>
	<use xlink:href='#gpPt5' transform='translate(1060.8,413.1) scale(2.25)' color='black'/>
	<use xlink:href='#gpPt5' transform='translate(1064.0,410.2) scale(2.25)' color='black'/>
	<use xlink:href='#gpPt5' transform='translate(1067.2,407.3) scale(2.25)' color='black'/>
	<use xlink:href='#gpPt5' transform='translate(1070.3,404.5) scale(2.25)' color='black'/>
	<use xlink:href='#gpPt5' transform='translate(1073.5,401.6) scale(2.25)' color='black'/>
	<use xlink:href='#gpPt5' transform='translate(1076.7,398.8) scale(2.25)' color='black'/>
	<use xlink:href='#gpPt5' transform='translate(1079.9,396.1) scale(2.25)' color='black'/>
	<use xlink:href='#gpPt5' transform='translate(1083.1,393.4) scale(2.25)' color='black'/>
	<use xlink:href='#gpPt5' transform='translate(1086.3,390.7) scale(2.25)' color='black'/>
	<use xlink:href='#gpPt5' transform='translate(1089.4,388.0) scale(2.25)' color='black'/>
	<use xlink:href='#gpPt5' transform='translate(1092.6,385.4) scale(2.25)' color='black'/>
	<use xlink:href='#gpPt5' transform='translate(1095.8,382.8) scale(2.25)' color='black'/>
	<use xlink:href='#gpPt5' transform='translate(1099.0,380.3) scale(2.25)' color='black'/>
	<use xlink:href='#gpPt5' transform='translate(1102.2,377.8) scale(2.25)' color='black'/>
	<use xlink:href='#gpPt5' transform='translate(1105.4,375.3) scale(2.25)' color='black'/>
	<use xlink:href='#gpPt5' transform='translate(1108.5,372.9) scale(2.25)' color='black'/>
	<use xlink:href='#gpPt5' transform='translate(1111.7,370.5) scale(2.25)' color='black'/>
	<use xlink:href='#gpPt5' transform='translate(1114.9,368.1) scale(2.25)' color='black'/>
	<use xlink:href='#gpPt5' transform='translate(1118.1,365.8) scale(2.25)' color='black'/>
	<use xlink:href='#gpPt5' transform='translate(1121.3,363.6) scale(2.25)' color='black'/>
	<use xlink:href='#gpPt5' transform='translate(1124.5,361.4) scale(2.25)' color='black'/>
	<use xlink:href='#gpPt5' transform='translate(1127.6,359.2) scale(2.25)' color='black'/>
	<use xlink:href='#gpPt5' transform='translate(1130.8,357.1) scale(2.25)' color='black'/>
	<use xlink:href='#gpPt5' transform='translate(1134.0,355.0) scale(2.25)' color='black'/>
	<use xlink:href='#gpPt5' transform='translate(1137.2,352.9) scale(2.25)' color='black'/>
	<use xlink:href='#gpPt5' transform='translate(1140.4,350.9) scale(2.25)' color='black'/>
	<use xlink:href='#gpPt5' transform='translate(1143.6,349.0) scale(2.25)' color='black'/>
	<use xlink:href='#gpPt5' transform='translate(1146.7,347.1) scale(2.25)' color='black'/>
	<use xlink:href='#gpPt5' transform='translate(1149.9,345.3) scale(2.25)' color='black'/>
	<use xlink:href='#gpPt5' transform='translate(1153.1,343.5) scale(2.25)' color='black'/>
	<use xlink:href='#gpPt5' transform='translate(1156.3,341.7) scale(2.25)' color='black'/>
	<use xlink:href='#gpPt5' transform='translate(1159.5,340.0) scale(2.25)' color='black'/>
	<use xlink:href='#gpPt5' transform='translate(1162.7,338.4) scale(2.25)' color='black'/>
	<use xlink:href='#gpPt5' transform='translate(1165.9,336.8) scale(2.25)' color='black'/>
	<use xlink:href='#gpPt5' transform='translate(1169.0,335.2) scale(2.25)' color='black'/>
	<use xlink:href='#gpPt5' transform='translate(1172.2,333.8) scale(2.25)' color='black'/>
	<use xlink:href='#gpPt5' transform='translate(1175.4,332.3) scale(2.25)' color='black'/>
	<use xlink:href='#gpPt5' transform='translate(1178.6,330.9) scale(2.25)' color='black'/>
	<use xlink:href='#gpPt5' transform='translate(1181.8,329.6) scale(2.25)' color='black'/>
	<use xlink:href='#gpPt5' transform='translate(1185.0,328.3) scale(2.25)' color='black'/>
	<use xlink:href='#gpPt5' transform='translate(1188.1,327.1) scale(2.25)' color='black'/>
	<use xlink:href='#gpPt5' transform='translate(1191.3,325.9) scale(2.25)' color='black'/>
	<use xlink:href='#gpPt5' transform='translate(1194.5,324.8) scale(2.25)' color='black'/>
	<use xlink:href='#gpPt5' transform='translate(1197.7,323.7) scale(2.25)' color='black'/>
	<use xlink:href='#gpPt5' transform='translate(1200.9,322.7) scale(2.25)' color='black'/>
	<use xlink:href='#gpPt5' transform='translate(1204.1,321.8) scale(2.25)' color='black'/>
	<use xlink:href='#gpPt5' transform='translate(1207.2,320.9) scale(2.25)' color='black'/>
	<use xlink:href='#gpPt5' transform='translate(1210.4,320.1) scale(2.25)' color='black'/>
	<use xlink:href='#gpPt5' transform='translate(1213.6,319.3) scale(2.25)' color='black'/>
	<use xlink:href='#gpPt5' transform='translate(1216.8,318.6) scale(2.25)' color='black'/>
	<use xlink:href='#gpPt5' transform='translate(1220.0,317.9) scale(2.25)' color='black'/>
	<use xlink:href='#gpPt5' transform='translate(1223.2,317.3) scale(2.25)' color='black'/>
	<use xlink:href='#gpPt5' transform='translate(1226.3,316.7) scale(2.25)' color='black'/>
	<use xlink:href='#gpPt5' transform='translate(1229.5,316.2) scale(2.25)' color='black'/>
	<use xlink:href='#gpPt5' transform='translate(1232.7,315.8) scale(2.25)' color='black'/>
	<use xlink:href='#gpPt5' transform='translate(1235.9,315.4) scale(2.25)' color='black'/>
	<use xlink:href='#gpPt5' transform='translate(1239.1,315.1) scale(2.25)' color='black'/>
	<use xlink:href='#gpPt5' transform='translate(1242.3,314.8) scale(2.25)' color='black'/>
	<use xlink:href='#gpPt5' transform='translate(1245.4,314.6) scale(2.25)' color='black'/>
	<use xlink:href='#gpPt5' transform='translate(1248.6,314.5) scale(2.25)' color='black'/>
	<use xlink:href='#gpPt5' transform='translate(1251.8,314.4) scale(2.25)' color='black'/>
	<use xlink:href='#gpPt5' transform='translate(1255.0,314.4) scale(2.25)' color='black'/>
	<use xlink:href='#gpPt5' transform='translate(1217.3,72.1) scale(2.25)' color='black'/>
</g>
	</g>
	<g id="gnuplot_plot_2" ><title>2 (convex)</title>
<g fill="none" color="black" stroke="currentColor" stroke-width="1.00" stroke-linecap="butt" stroke-linejoin="miter">
	<g transform="translate(1187.9,94.0)" stroke="none" fill="black" font-family="Arial" font-size="12.00"  text-anchor="end">
		<text><tspan font-family="Arial" >2 (convex)</tspan></text>
	</g>
</g>
<g fill="none" color="black" stroke="currentColor" stroke-width="1.00" stroke-linecap="butt" stroke-linejoin="miter">
	<path stroke='rgb(  0, 158, 115)'  d='M1196.2,90.1 L1238.4,90.1 M112.0,54.1 L113.1,54.1 L114.2,54.1 L115.4,54.2 L116.5,54.2 L117.6,54.3
		L118.7,54.4 L119.8,54.6 L120.9,54.7 L122.1,54.8 L123.2,55.0 L124.3,55.2 L125.4,55.4 L126.5,55.7
		L127.6,55.9 L128.8,56.2 L129.9,56.5 L131.0,56.8 L132.1,57.1 L133.2,57.4 L134.3,57.8 L135.5,58.1
		L136.6,58.5 L137.7,59.0 L138.8,59.4 L139.9,59.8 L141.0,60.3 L142.2,60.8 L143.3,61.3 L144.4,61.8
		L145.5,62.3 L146.6,62.9 L147.8,63.4 L148.9,64.0 L150.0,64.6 L151.1,65.3 L152.2,65.9 L153.3,66.6
		L154.5,67.2 L155.6,67.9 L156.7,68.6 L157.8,69.4 L158.9,70.1 L160.0,70.9 L161.2,71.6 L162.3,72.4
		L163.4,73.2 L164.5,74.0 L165.6,74.9 L166.7,75.7 L167.9,76.6 L169.0,77.5 L170.1,78.4 L171.2,79.3
		L172.3,80.3 L173.5,81.2 L174.6,82.2 L175.7,83.2 L176.8,84.2 L177.9,85.2 L179.0,86.2 L180.2,87.2
		L181.3,88.3 L182.4,89.4 L183.5,90.5 L184.6,91.6 L185.7,92.7 L186.9,93.8 L188.0,95.0 L189.1,96.1
		L190.2,97.3 L191.3,98.5 L192.4,99.7 L193.6,100.9 L194.7,102.1 L195.8,103.4 L196.9,104.6 L198.0,105.9
		L199.1,107.2 L200.3,108.5 L201.4,109.8 L202.5,111.1 L203.6,112.4 L204.7,113.8 L205.9,115.1 L207.0,116.5
		L208.1,117.9 L209.2,119.3 L210.3,120.7 L211.4,122.1 L212.6,123.5 L213.7,125.0 L214.8,126.4 L215.9,127.9
		L217.0,129.3 L218.1,130.8 L219.3,132.3 L220.4,133.8 L221.5,135.3 L222.6,136.9 L223.7,138.4 L224.8,139.9
		L226.0,141.5 L227.1,143.1 L228.2,144.6 L229.3,146.2 L230.4,147.8 L231.6,149.4 L232.7,151.0 L233.8,152.7
		L234.9,154.3 L236.0,155.9 L237.1,157.6 L238.3,159.2 L239.4,160.9 L240.5,162.6 L241.6,164.3 L242.7,165.9
		L243.8,167.6 L245.0,169.3 L246.1,171.1 L247.2,172.8 L248.3,174.5 L249.4,176.2 L250.5,178.0 L251.7,179.7
		L252.8,181.5 L253.9,183.2 L255.0,185.0 L256.1,186.8 L257.2,188.6 L258.4,190.3 L259.5,192.1 L260.6,193.9
		L261.7,195.7 L262.8,197.5 L264.0,199.4 L265.1,201.2 L266.2,203.0 L267.3,204.8 L268.4,206.7 L269.5,208.5
		L270.7,210.3 L271.8,212.2 L272.9,214.0 L274.0,215.9 L275.1,217.7 L276.2,219.6 L277.4,221.5 L278.5,223.3
		L279.6,225.2 L280.7,227.1 L281.8,229.0 L282.9,230.9 L284.1,232.7 L285.2,234.6 L286.3,236.5 L287.4,238.4
		L288.5,240.3 L289.7,242.2 L290.8,244.1 L291.9,246.0 L293.0,247.9 L294.1,249.8 L295.2,251.8 L296.4,253.7
		L297.5,255.6 L298.6,257.5 L299.7,259.4 L300.8,261.3 L301.9,263.3 L303.1,265.2 L304.2,267.1 L305.3,269.0
		L306.4,270.9 L307.5,272.9 L308.6,274.8 L309.8,276.7 L310.9,278.6 L312.0,280.6 L313.1,282.5 L314.2,284.4
		L315.3,286.3 L316.5,288.3 L317.6,290.2 L318.7,292.1 L319.8,294.0 L320.9,296.0 L322.1,297.9 L323.2,299.8
		L324.3,301.7 L325.4,303.7 L326.5,305.6 L327.6,307.5 L328.8,309.4 L329.9,311.3 L331.0,313.2 L332.1,315.2
		L333.2,317.1 L334.3,319.0 L335.5,320.9 L336.6,322.8 L337.7,324.7 L338.8,326.6 L339.9,328.5 L341.0,330.4
		L342.2,332.3 L343.3,334.2 L344.4,336.1 L345.5,338.0 L346.6,339.9 L347.8,341.7 L348.9,343.6 L350.0,345.5
		L351.1,347.4 L352.2,349.3 L353.3,351.1 L354.5,353.0 L355.6,354.9 L356.7,356.7 L357.8,358.6 L358.9,360.4
		L360.0,362.3 L361.2,364.1 L362.3,366.0 L363.4,367.8 L364.5,369.7 L365.6,371.5 L366.7,373.3 L367.9,375.1
		L369.0,377.0 L370.1,378.8 L371.2,380.6 L372.3,382.4 L373.4,384.2 L374.6,386.0 L375.7,387.8 L376.8,389.6
		L377.9,391.4 L379.0,393.2 L380.2,395.0 L381.3,396.8 L382.4,398.5 L383.5,400.3 L384.6,402.1 L385.7,403.8
		L386.9,405.6 L388.0,407.3 L389.1,409.1 L390.2,410.8 L391.3,412.5 L392.4,414.3 L393.6,416.0 L394.7,417.7
		L395.8,419.4 L396.9,421.1 L398.0,422.8 L399.1,424.5 L400.3,426.2 L401.4,427.9 L402.5,429.6 L403.6,431.3
		L404.7,433.0 L405.9,434.6 L407.0,436.3 L408.1,438.0 L409.2,439.6 L410.3,441.3 L411.4,442.9 L412.6,444.5
		L413.7,446.2 L414.8,447.8 L415.9,449.4 L417.0,451.0 L418.1,452.6 L419.3,454.2 L420.4,455.8 L421.5,457.4
		L422.6,459.0 L423.7,460.6 L424.8,462.2 L426.0,463.7 L427.1,465.3 L428.2,466.8 L429.3,468.4 L430.4,469.9
		L431.5,471.5 L432.7,473.0 L433.8,474.5 L434.9,476.1 L436.0,477.6 L437.1,479.1 L438.3,480.6 L439.4,482.1
		L440.5,483.6 L441.6,485.0 L442.7,486.5 L443.8,488.0 L445.0,489.5 L446.1,490.9 L447.2,492.4 L448.3,493.8
		L449.4,495.3 L450.5,496.7 L451.7,498.1 L452.8,499.5 L453.9,501.0 L455.0,502.4 L456.1,503.8 L457.2,505.2
		L458.4,506.6 L459.5,508.0 L460.6,509.3 L461.7,510.7 L462.8,512.1 L464.0,513.4 L465.1,514.8 L466.2,516.1
		L467.3,517.5 L468.4,518.8 L469.5,520.1 L470.7,521.4 L471.8,522.8 L472.9,524.1 L474.0,525.4 L475.1,526.7
		L476.2,528.0 L477.4,529.2 L478.5,530.5 L479.6,531.8 L480.7,533.0 L481.8,534.3 L482.9,535.6 L484.1,536.8
		L485.2,538.0 L486.3,539.3 L487.4,540.5 L488.5,541.7 L489.6,542.9 L490.8,544.1 L491.9,545.3 L493.0,546.5
		L494.1,547.7 L495.2,548.9 L496.4,550.1 L497.5,551.2 L498.6,552.4 L499.7,553.5 L500.8,554.7 L501.9,555.8
		L503.1,557.0 L504.2,558.1 L505.3,559.2 L506.4,560.3 L507.5,561.4 L508.6,562.5 L509.8,563.6 L510.9,564.7
		L512.0,565.8 L513.1,566.9 L514.2,568.0 L515.3,569.0 L516.5,570.1 L517.6,571.1 L518.7,572.2 L519.8,573.2
		L520.9,574.3 L522.0,575.3 L523.2,576.3 L524.3,577.3 L525.4,578.3 L526.5,579.3 L527.6,580.3 L528.8,581.3
		L529.9,582.3 L531.0,583.3 L532.1,584.2 L533.2,585.2 L534.3,586.1 L535.5,587.1 L536.6,588.0 L537.7,589.0
		L538.8,589.9 L539.9,590.8 L541.0,591.7 L542.2,592.7 L543.3,593.6 L544.4,594.5 L545.5,595.4 L546.6,596.2
		L547.7,597.1 L548.9,598.0 L550.0,598.9 L551.1,599.7 L552.2,600.6 L553.3,601.4 L554.5,602.3 L555.6,603.1
		L556.7,603.9 L557.8,604.8 L558.9,605.6 L560.0,606.4 L561.2,607.2 L562.3,608.0 L563.4,608.8 L564.5,609.6
		L565.6,610.4 L566.7,611.1 L567.9,611.9 L569.0,612.7 L570.1,613.4 L571.2,614.2 L572.3,614.9 L573.4,615.7
		L574.6,616.4 L575.7,617.1 L576.8,617.8 L577.9,618.6 L579.0,619.3 L580.1,620.0 L581.3,620.7 L582.4,621.3
		L583.5,622.0 L584.6,622.7 L585.7,623.4 L586.9,624.0 L588.0,624.7 L589.1,625.4 L590.2,626.0 L591.3,626.7
		L592.4,627.3 L593.6,627.9 L594.7,628.5 L595.8,629.2 L596.9,629.8 L598.0,630.4 L599.1,631.0 L600.3,631.6
		L601.4,632.2 L602.5,632.7 L603.6,633.3 L604.7,633.9 L605.8,634.5 L607.0,635.0 L608.1,635.6 L609.2,636.1
		L610.3,636.7 L611.4,637.2 L612.6,637.7 L613.7,638.2 L614.8,638.8 L615.9,639.3 L617.0,639.8 L618.1,640.3
		L619.3,640.8 L620.4,641.3 L621.5,641.8 L622.6,642.2 L623.7,642.7 L624.8,643.2 L626.0,643.6 L627.1,644.1
		L628.2,644.5 L629.3,645.0 L630.4,645.4 L631.5,645.8 L632.7,646.3 L633.8,646.7 L634.9,647.1 L636.0,647.5
		L637.1,647.9 L638.2,648.3 L639.4,648.7 L640.5,649.1 L641.6,649.5 L642.7,649.9 L643.8,650.2 L645.0,650.6
		L646.1,650.9 L647.2,651.3 L648.3,651.6 L649.4,652.0 L650.5,652.3 L651.7,652.7 L652.8,653.0 L653.9,653.3
		L655.0,653.6 L656.1,653.9 L657.2,654.2 L658.4,654.5 L659.5,654.8 L660.6,655.1 L661.7,655.4 L662.8,655.6
		L663.9,655.9 L665.1,656.2 L666.2,656.4 L667.3,656.7 L668.4,656.9 L669.5,657.2 L670.7,657.4 L671.8,657.6
		L672.9,657.9 L674.0,658.1 L675.1,658.3 L676.2,658.5 L677.4,658.7 L678.5,658.9 L679.6,659.1 L680.7,659.3
		L681.8,659.5 L682.9,659.6 L684.1,659.8 L685.2,660.0 L686.3,660.1 L687.4,660.3 L688.5,660.4 L689.6,660.6
		L690.8,660.7 L691.9,660.9 L693.0,661.0 L694.1,661.1 L695.2,661.2 L696.3,661.3 L697.5,661.4 L698.6,661.5
		L699.7,661.6 L700.8,661.7 L701.9,661.8 L703.1,661.9 L704.2,661.9 L705.3,662.0 L706.4,662.1 L707.5,662.1
		L708.6,662.2 L709.8,662.2 L710.9,662.3 L712.0,662.3 L713.1,662.3 L714.2,662.4 L715.3,662.4 L716.5,662.4
		L717.6,662.4 L718.7,662.4 L719.8,662.4 L720.9,662.4 L722.0,662.4 L723.2,662.4 L724.3,662.3 L725.4,662.3
		L726.5,662.3 L727.6,662.2 L728.8,662.2 L729.9,662.1 L731.0,662.1 L732.1,662.0 L733.2,661.9 L734.3,661.9
		L735.5,661.8 L736.6,661.7 L737.7,661.6 L738.8,661.5 L739.9,661.4 L741.0,661.3 L742.2,661.2 L743.3,661.1
		L744.4,661.0 L745.5,660.9 L746.6,660.7 L747.7,660.6 L748.9,660.4 L750.0,660.3 L751.1,660.1 L752.2,660.0
		L753.3,659.8 L754.4,659.7 L755.6,659.5 L756.7,659.3 L757.8,659.1 L758.9,658.9 L760.0,658.7 L761.2,658.5
		L762.3,658.3 L763.4,658.1 L764.5,657.9 L765.6,657.7 L766.7,657.5 L767.9,657.2 L769.0,657.0 L770.1,656.7
		L771.2,656.5 L772.3,656.2 L773.4,656.0 L774.6,655.7 L775.7,655.5 L776.8,655.2 L777.9,654.9 L779.0,654.6
		L780.1,654.3 L781.3,654.0 L782.4,653.7 L783.5,653.4 L784.6,653.1 L785.7,652.8 L786.9,652.5 L788.0,652.1
		L789.1,651.8 L790.2,651.5 L791.3,651.1 L792.4,650.8 L793.6,650.4 L794.7,650.1 L795.8,649.7 L796.9,649.3
		L798.0,649.0 L799.1,648.6 L800.3,648.2 L801.4,647.8 L802.5,647.4 L803.6,647.0 L804.7,646.6 L805.8,646.2
		L807.0,645.8 L808.1,645.3 L809.2,644.9 L810.3,644.5 L811.4,644.0 L812.5,643.6 L813.7,643.1 L814.8,642.7
		L815.9,642.2 L817.0,641.8 L818.1,641.3 L819.3,640.8 L820.4,640.3 L821.5,639.8 L822.6,639.4 L823.7,638.9
		L824.8,638.4 L826.0,637.9 L827.1,637.3 L828.2,636.8 L829.3,636.3 L830.4,635.8 L831.5,635.2 L832.7,634.7
		L833.8,634.1 L834.9,633.6 L836.0,633.0 L837.1,632.5 L838.2,631.9 L839.4,631.3 L840.5,630.8 L841.6,630.2
		L842.7,629.6 L843.8,629.0 L845.0,628.4 L846.1,627.8 L847.2,627.2 L848.3,626.6 L849.4,626.0 L850.5,625.3
		L851.7,624.7 L852.8,624.1 L853.9,623.4 L855.0,622.8 L856.1,622.1 L857.2,621.5 L858.4,620.8 L859.5,620.2
		L860.6,619.5 L861.7,618.8 L862.8,618.1 L863.9,617.4 L865.1,616.8 L866.2,616.1 L867.3,615.4 L868.4,614.6
		L869.5,613.9 L870.6,613.2 L871.8,612.5 L872.9,611.8 L874.0,611.0 L875.1,610.3 L876.2,609.5 L877.4,608.8
		L878.5,608.0 L879.6,607.3 L880.7,606.5 L881.8,605.8 L882.9,605.0 L884.1,604.2 L885.2,603.4 L886.3,602.6
		L887.4,601.8 L888.5,601.0 L889.6,600.2 L890.8,599.4 L891.9,598.6 L893.0,597.8 L894.1,596.9 L895.2,596.1
		L896.3,595.3 L897.5,594.4 L898.6,593.6 L899.7,592.7 L900.8,591.9 L901.9,591.0 L903.0,590.2 L904.2,589.3
		L905.3,588.4 L906.4,587.5 L907.5,586.6 L908.6,585.8 L909.8,584.9 L910.9,584.0 L912.0,583.1 L913.1,582.1
		L914.2,581.2 L915.3,580.3 L916.5,579.4 L917.6,578.5 L918.7,577.5 L919.8,576.6 L920.9,575.6 L922.0,574.7
		L923.2,573.7 L924.3,572.8 L925.4,571.8 L926.5,570.8 L927.6,569.9 L928.7,568.9 L929.9,567.9 L931.0,566.9
		L932.1,565.9 L933.2,564.9 L934.3,563.9 L935.5,562.9 L936.6,561.9 L937.7,560.9 L938.8,559.9 L939.9,558.9
		L941.0,557.8 L942.2,556.8 L943.3,555.8 L944.4,554.7 L945.5,553.7 L946.6,552.6 L947.7,551.6 L948.9,550.5
		L950.0,549.5 L951.1,548.4 L952.2,547.3 L953.3,546.2 L954.4,545.2 L955.6,544.1 L956.7,543.0 L957.8,541.9
		L958.9,540.8 L960.0,539.7 L961.1,538.6 L962.3,537.5 L963.4,536.4 L964.5,535.3 L965.6,534.1 L966.7,533.0
		L967.9,531.9 L969.0,530.8 L970.1,529.6 L971.2,528.5 L972.3,527.3 L973.4,526.2 L974.6,525.0 L975.7,523.9
		L976.8,522.7 L977.9,521.6 L979.0,520.4 L980.1,519.2 L981.3,518.1 L982.4,516.9 L983.5,515.7 L984.6,514.5
		L985.7,513.3 L986.8,512.2 L988.0,511.0 L989.1,509.8 L990.2,508.6 L991.3,507.4 L992.4,506.2 L993.6,504.9
		L994.7,503.7 L995.8,502.5 L996.9,501.3 L998.0,500.1 L999.1,498.9 L1000.3,497.6 L1001.4,496.4 L1002.5,495.2
		L1003.6,493.9 L1004.7,492.7 L1005.8,491.5 L1007.0,490.2 L1008.1,489.0 L1009.2,487.7 L1010.3,486.5 L1011.4,485.2
		L1012.5,484.0 L1013.7,482.7 L1014.8,481.5 L1015.9,480.2 L1017.0,478.9 L1018.1,477.7 L1019.2,476.4 L1020.4,475.1
		L1021.5,473.9 L1022.6,472.6 L1023.7,471.3 L1024.8,470.1 L1026.0,468.8 L1027.1,467.5 L1028.2,466.2 L1029.3,464.9
		L1030.4,463.7 L1031.5,462.4 L1032.7,461.1 L1033.8,459.8 L1034.9,458.5 L1036.0,457.2 L1037.1,455.9 L1038.2,454.6
		L1039.4,453.3 L1040.5,452.1 L1041.6,450.8 L1042.7,449.5 L1043.8,448.2 L1044.9,446.9 L1046.1,445.6 L1047.2,444.3
		L1048.3,443.0 L1049.4,441.7 L1050.5,440.4 L1051.7,439.1 L1052.8,437.8 L1053.9,436.5 L1055.0,435.2 L1056.1,433.9
		L1057.2,432.6 L1058.4,431.3 L1059.5,430.0 L1060.6,428.7 L1061.7,427.4 L1062.8,426.1 L1063.9,424.8 L1065.1,423.5
		L1066.2,422.2 L1067.3,420.9 L1068.4,419.6 L1069.5,418.3 L1070.6,417.1 L1071.8,415.8 L1072.9,414.5 L1074.0,413.2
		L1075.1,411.9 L1076.2,410.6 L1077.3,409.3 L1078.5,408.1 L1079.6,406.8 L1080.7,405.5 L1081.8,404.2 L1082.9,403.0
		L1084.1,401.7 L1085.2,400.4 L1086.3,399.1 L1087.4,397.9 L1088.5,396.6 L1089.6,395.4 L1090.8,394.1 L1091.9,392.8
		L1093.0,391.6 L1094.1,390.3 L1095.2,389.1 L1096.3,387.9 L1097.5,386.6 L1098.6,385.4 L1099.7,384.1 L1100.8,382.9
		L1101.9,381.7 L1103.0,380.5 L1104.2,379.2 L1105.3,378.0 L1106.4,376.8 L1107.5,375.6 L1108.6,374.4 L1109.8,373.2
		L1110.9,372.0 L1112.0,370.8 L1113.1,369.6 L1114.2,368.4 L1115.3,367.2 L1116.5,366.1 L1117.6,364.9 L1118.7,363.7
		L1119.8,362.6 L1120.9,361.4 L1122.0,360.3 L1123.2,359.1 L1124.3,358.0 L1125.4,356.8 L1126.5,355.7 L1127.6,354.6
		L1128.7,353.5 L1129.9,352.4 L1131.0,351.2 L1132.1,350.1 L1133.2,349.1 L1134.3,348.0 L1135.4,346.9 L1136.6,345.8
		L1137.7,344.7 L1138.8,343.7 L1139.9,342.6 L1141.0,341.6 L1142.2,340.5 L1143.3,339.5 L1144.4,338.4 L1145.5,337.4
		L1146.6,336.4 L1147.7,335.4 L1148.9,334.4 L1150.0,333.4 L1151.1,332.4 L1152.2,331.4 L1153.3,330.4 L1154.4,329.5
		L1155.6,328.5 L1156.7,327.6 L1157.8,326.6 L1158.9,325.7 L1160.0,324.8 L1161.1,323.8 L1162.3,322.9 L1163.4,322.0
		L1164.5,321.1 L1165.6,320.3 L1166.7,319.4 L1167.9,318.5 L1169.0,317.7 L1170.1,316.8 L1171.2,316.0 L1172.3,315.1
		L1173.4,314.3 L1174.6,313.5 L1175.7,312.7 L1176.8,311.9 L1177.9,311.1 L1179.0,310.3 L1180.1,309.6 L1181.3,308.8
		L1182.4,308.1 L1183.5,307.3 L1184.6,306.6 L1185.7,305.9 L1186.8,305.2 L1188.0,304.5 L1189.1,303.8 L1190.2,303.1
		L1191.3,302.4 L1192.4,301.8 L1193.5,301.1 L1194.7,300.5 L1195.8,299.9 L1196.9,299.3 L1198.0,298.7 L1199.1,298.1
		L1200.3,297.5 L1201.4,296.9 L1202.5,296.3 L1203.6,295.8 L1204.7,295.2 L1205.8,294.7 L1207.0,294.2 L1208.1,293.7
		L1209.2,293.2 L1210.3,292.7 L1211.4,292.2 L1212.5,291.8 L1213.7,291.3 L1214.8,290.9 L1215.9,290.5 L1217.0,290.0
		L1218.1,289.6 L1219.2,289.3 L1220.4,288.9 L1221.5,288.5 L1222.6,288.1 L1223.7,287.8 L1224.8,287.5 L1226.0,287.1
		L1227.1,286.8 L1228.2,286.5 L1229.3,286.2 L1230.4,286.0 L1231.5,285.7 L1232.7,285.5 L1233.8,285.2 L1234.9,285.0
		L1236.0,284.8 L1237.1,284.6 L1238.2,284.4 L1239.4,284.2 L1240.5,284.0 L1241.6,283.9 L1242.7,283.7 L1243.8,283.6
		L1244.9,283.5 L1246.1,283.4 L1247.2,283.3 L1248.3,283.2 L1249.4,283.2 L1250.5,283.1 L1251.6,283.1 L1252.8,283.0
		L1253.9,283.0 L1255.0,283.0  '/></g>
	</g>
	<g id="gnuplot_plot_3" ><title>4 (both)</title>
<g fill="none" color="black" stroke="currentColor" stroke-width="1.00" stroke-linecap="butt" stroke-linejoin="miter">
	<g transform="translate(1187.9,112.0)" stroke="none" fill="black" font-family="Arial" font-size="12.00"  text-anchor="end">
		<text><tspan font-family="Arial" >4 (both)</tspan></text>
	</g>
</g>
<g fill="none" color="black" stroke="currentColor" stroke-width="1.00" stroke-linecap="butt" stroke-linejoin="miter">
	<path stroke='rgb( 86, 180, 233)'  d='M1196.2,108.1 L1238.4,108.1 M112.0,99.1 L113.1,99.1 L114.2,99.1 L115.4,99.1 L116.5,99.2 L117.6,99.2
		L118.7,99.3 L119.8,99.3 L120.9,99.4 L122.1,99.5 L123.2,99.6 L124.3,99.7 L125.4,99.9 L126.5,100.0
		L127.6,100.2 L128.8,100.3 L129.9,100.5 L131.0,100.7 L132.1,100.9 L133.2,101.1 L134.3,101.3 L135.5,101.5
		L136.6,101.8 L137.7,102.0 L138.8,102.3 L139.9,102.6 L141.0,102.9 L142.2,103.2 L143.3,103.5 L144.4,103.8
		L145.5,104.1 L146.6,104.5 L147.8,104.8 L148.9,105.2 L150.0,105.6 L151.1,106.0 L152.2,106.3 L153.3,106.8
		L154.5,107.2 L155.6,107.6 L156.7,108.0 L157.8,108.5 L158.9,109.0 L160.0,109.4 L161.2,109.9 L162.3,110.4
		L163.4,110.9 L164.5,111.4 L165.6,112.0 L166.7,112.5 L167.9,113.1 L169.0,113.6 L170.1,114.2 L171.2,114.8
		L172.3,115.4 L173.5,116.0 L174.6,116.6 L175.7,117.2 L176.8,117.8 L177.9,118.5 L179.0,119.1 L180.2,119.8
		L181.3,120.5 L182.4,121.2 L183.5,121.9 L184.6,122.6 L185.7,123.3 L186.9,124.0 L188.0,124.7 L189.1,125.5
		L190.2,126.2 L191.3,127.0 L192.4,127.8 L193.6,128.6 L194.7,129.4 L195.8,130.2 L196.9,131.0 L198.0,131.8
		L199.1,132.7 L200.3,133.5 L201.4,134.4 L202.5,135.2 L203.6,136.1 L204.7,137.0 L205.9,137.9 L207.0,138.8
		L208.1,139.7 L209.2,140.6 L210.3,141.6 L211.4,142.5 L212.6,143.5 L213.7,144.4 L214.8,145.4 L215.9,146.4
		L217.0,147.4 L218.1,148.4 L219.3,149.4 L220.4,150.4 L221.5,151.4 L222.6,152.5 L223.7,153.5 L224.8,154.6
		L226.0,155.6 L227.1,156.7 L228.2,157.8 L229.3,158.9 L230.4,160.0 L231.6,161.1 L232.7,162.2 L233.8,163.3
		L234.9,164.5 L236.0,165.6 L237.1,166.7 L238.3,167.9 L239.4,169.1 L240.5,170.2 L241.6,171.4 L242.7,172.6
		L243.8,173.8 L245.0,175.0 L246.1,176.2 L247.2,177.5 L248.3,178.7 L249.4,179.9 L250.5,181.2 L251.7,182.4
		L252.8,183.7 L253.9,185.0 L255.0,186.2 L256.1,187.5 L257.2,188.8 L258.4,190.1 L259.5,191.4 L260.6,192.7
		L261.7,194.1 L262.8,195.4 L264.0,196.7 L265.1,198.1 L266.2,199.4 L267.3,200.8 L268.4,202.1 L269.5,203.5
		L270.7,204.9 L271.8,206.3 L272.9,207.7 L274.0,209.1 L275.1,210.5 L276.2,211.9 L277.4,213.3 L278.5,214.7
		L279.6,216.2 L280.7,217.6 L281.8,219.0 L282.9,220.5 L284.1,221.9 L285.2,223.4 L286.3,224.9 L287.4,226.3
		L288.5,227.8 L289.7,229.3 L290.8,230.8 L291.9,232.3 L293.0,233.8 L294.1,235.3 L295.2,236.8 L296.4,238.3
		L297.5,239.9 L298.6,241.4 L299.7,242.9 L300.8,244.5 L301.9,246.0 L303.1,247.6 L304.2,249.1 L305.3,250.7
		L306.4,252.3 L307.5,253.8 L308.6,255.4 L309.8,257.0 L310.9,258.6 L312.0,260.2 L313.1,261.8 L314.2,263.4
		L315.3,265.0 L316.5,266.6 L317.6,268.2 L318.7,269.8 L319.8,271.4 L320.9,273.0 L322.1,274.7 L323.2,276.3
		L324.3,277.9 L325.4,279.6 L326.5,281.2 L327.6,282.9 L328.8,284.5 L329.9,286.2 L331.0,287.8 L332.1,289.5
		L333.2,291.1 L334.3,292.8 L335.5,294.5 L336.6,296.2 L337.7,297.8 L338.8,299.5 L339.9,301.2 L341.0,302.9
		L342.2,304.6 L343.3,306.3 L344.4,308.0 L345.5,309.7 L346.6,311.4 L347.8,313.1 L348.9,314.8 L350.0,316.5
		L351.1,318.2 L352.2,319.9 L353.3,321.6 L354.5,323.3 L355.6,325.0 L356.7,326.8 L357.8,328.5 L358.9,330.2
		L360.0,331.9 L361.2,333.7 L362.3,335.4 L363.4,337.1 L364.5,338.9 L365.6,340.6 L366.7,342.3 L367.9,344.1
		L369.0,345.8 L370.1,347.5 L371.2,349.3 L372.3,351.0 L373.4,352.8 L374.6,354.5 L375.7,356.3 L376.8,358.0
		L377.9,359.7 L379.0,361.5 L380.2,363.2 L381.3,365.0 L382.4,366.7 L383.5,368.5 L384.6,370.2 L385.7,372.0
		L386.9,373.7 L388.0,375.5 L389.1,377.2 L390.2,379.0 L391.3,380.7 L392.4,382.5 L393.6,384.2 L394.7,386.0
		L395.8,387.7 L396.9,389.5 L398.0,391.2 L399.1,393.0 L400.3,394.7 L401.4,396.5 L402.5,398.2 L403.6,399.9
		L404.7,401.7 L405.9,403.4 L407.0,405.2 L408.1,406.9 L409.2,408.6 L410.3,410.4 L411.4,412.1 L412.6,413.9
		L413.7,415.6 L414.8,417.3 L415.9,419.1 L417.0,420.8 L418.1,422.5 L419.3,424.3 L420.4,426.0 L421.5,427.7
		L422.6,429.4 L423.7,431.1 L424.8,432.9 L426.0,434.6 L427.1,436.3 L428.2,438.0 L429.3,439.7 L430.4,441.4
		L431.5,443.1 L432.7,444.8 L433.8,446.5 L434.9,448.2 L436.0,449.9 L437.1,451.6 L438.3,453.3 L439.4,455.0
		L440.5,456.7 L441.6,458.4 L442.7,460.0 L443.8,461.7 L445.0,463.4 L446.1,465.1 L447.2,466.7 L448.3,468.4
		L449.4,470.1 L450.5,471.7 L451.7,473.4 L452.8,475.0 L453.9,476.7 L455.0,478.3 L456.1,480.0 L457.2,481.6
		L458.4,483.2 L459.5,484.9 L460.6,486.5 L461.7,488.1 L462.8,489.7 L464.0,491.3 L465.1,493.0 L466.2,494.6
		L467.3,496.2 L468.4,497.8 L469.5,499.4 L470.7,500.9 L471.8,502.5 L472.9,504.1 L474.0,505.7 L475.1,507.3
		L476.2,508.8 L477.4,510.4 L478.5,511.9 L479.6,513.5 L480.7,515.1 L481.8,516.6 L482.9,518.1 L484.1,519.7
		L485.2,521.2 L486.3,522.7 L487.4,524.2 L488.5,525.8 L489.6,527.3 L490.8,528.8 L491.9,530.3 L493.0,531.8
		L494.1,533.3 L495.2,534.7 L496.4,536.2 L497.5,537.7 L498.6,539.2 L499.7,540.6 L500.8,542.1 L501.9,543.5
		L503.1,545.0 L504.2,546.4 L505.3,547.9 L506.4,549.3 L507.5,550.7 L508.6,552.1 L509.8,553.5 L510.9,554.9
		L512.0,556.3 L513.1,557.7 L514.2,559.1 L515.3,560.5 L516.5,561.9 L517.6,563.2 L518.7,564.6 L519.8,566.0
		L520.9,567.3 L522.0,568.6 L523.2,570.0 L524.3,571.3 L525.4,572.6 L526.5,574.0 L527.6,575.3 L528.8,576.6
		L529.9,577.9 L531.0,579.2 L532.1,580.4 L533.2,581.7 L534.3,583.0 L535.5,584.3 L536.6,585.5 L537.7,586.8
		L538.8,588.0 L539.9,589.2 L541.0,590.5 L542.2,591.7 L543.3,592.9 L544.4,594.1 L545.5,595.3 L546.6,596.5
		L547.7,597.7 L548.9,598.9 L550.0,600.1 L551.1,601.2 L552.2,602.4 L553.3,603.5 L554.5,604.7 L555.6,605.8
		L556.7,606.9 L557.8,608.1 L558.9,609.2 L560.0,610.3 L561.2,611.4 L562.3,612.5 L563.4,613.6 L564.5,614.6
		L565.6,615.7 L566.7,616.8 L567.9,617.8 L569.0,618.9 L570.1,619.9 L571.2,620.9 L572.3,621.9 L573.4,623.0
		L574.6,624.0 L575.7,625.0 L576.8,626.0 L577.9,626.9 L579.0,627.9 L580.1,628.9 L581.3,629.8 L582.4,630.8
		L583.5,631.7 L584.6,632.7 L585.7,633.6 L586.9,634.5 L588.0,635.4 L589.1,636.3 L590.2,637.2 L591.3,638.1
		L592.4,639.0 L593.6,639.9 L594.7,640.7 L595.8,641.6 L596.9,642.4 L598.0,643.3 L599.1,644.1 L600.3,644.9
		L601.4,645.7 L602.5,646.5 L603.6,647.3 L604.7,648.1 L605.8,648.9 L607.0,649.6 L608.1,650.4 L609.2,651.2
		L610.3,651.9 L611.4,652.6 L612.6,653.4 L613.7,654.1 L614.8,654.8 L615.9,655.5 L617.0,656.2 L618.1,656.9
		L619.3,657.6 L620.4,658.2 L621.5,658.9 L622.6,659.5 L623.7,660.2 L624.8,660.8 L626.0,661.4 L627.1,662.1
		L628.2,662.7 L629.3,663.3 L630.4,663.9 L631.5,664.4 L632.7,665.0 L633.8,665.6 L634.9,666.1 L636.0,666.7
		L637.1,667.2 L638.2,667.7 L639.4,668.3 L640.5,668.8 L641.6,669.3 L642.7,669.8 L643.8,670.3 L645.0,670.7
		L646.1,671.2 L647.2,671.7 L648.3,672.1 L649.4,672.6 L650.5,673.0 L651.7,673.4 L652.8,673.8 L653.9,674.3
		L655.0,674.6 L656.1,675.0 L657.2,675.4 L658.4,675.8 L659.5,676.2 L660.6,676.5 L661.7,676.9 L662.8,677.2
		L663.9,677.5 L665.1,677.8 L666.2,678.2 L667.3,678.5 L668.4,678.8 L669.5,679.0 L670.7,679.3 L671.8,679.6
		L672.9,679.8 L674.0,680.1 L675.1,680.3 L676.2,680.6 L677.4,680.8 L678.5,681.0 L679.6,681.2 L680.7,681.4
		L681.8,681.6 L682.9,681.8 L684.1,682.0 L685.2,682.1 L686.3,682.3 L687.4,682.4 L688.5,682.6 L689.6,682.7
		L690.8,682.8 L691.9,682.9 L693.0,683.0 L694.1,683.1 L695.2,683.2 L696.3,683.3 L697.5,683.4 L698.6,683.4
		L699.7,683.5 L700.8,683.5 L701.9,683.6 L703.1,683.6 L704.2,683.6 L705.3,683.6 L706.4,683.6 L707.5,683.6
		L708.6,683.6 L709.8,683.6 L710.9,683.5 L712.0,683.5 L713.1,683.4 L714.2,683.4 L715.3,683.3 L716.5,683.2
		L717.6,683.2 L718.7,683.1 L719.8,683.0 L720.9,682.9 L722.0,682.7 L723.2,682.6 L724.3,682.5 L725.4,682.3
		L726.5,682.2 L727.6,682.0 L728.8,681.9 L729.9,681.7 L731.0,681.5 L732.1,681.3 L733.2,681.1 L734.3,680.9
		L735.5,680.7 L736.6,680.5 L737.7,680.3 L738.8,680.0 L739.9,679.8 L741.0,679.5 L742.2,679.3 L743.3,679.0
		L744.4,678.7 L745.5,678.4 L746.6,678.1 L747.7,677.8 L748.9,677.5 L750.0,677.2 L751.1,676.9 L752.2,676.6
		L753.3,676.2 L754.4,675.9 L755.6,675.5 L756.7,675.1 L757.8,674.8 L758.9,674.4 L760.0,674.0 L761.2,673.6
		L762.3,673.2 L763.4,672.8 L764.5,672.4 L765.6,672.0 L766.7,671.5 L767.9,671.1 L769.0,670.7 L770.1,670.2
		L771.2,669.7 L772.3,669.3 L773.4,668.8 L774.6,668.3 L775.7,667.8 L776.8,667.3 L777.9,666.8 L779.0,666.3
		L780.1,665.8 L781.3,665.3 L782.4,664.7 L783.5,664.2 L784.6,663.7 L785.7,663.1 L786.9,662.6 L788.0,662.0
		L789.1,661.4 L790.2,660.8 L791.3,660.2 L792.4,659.7 L793.6,659.1 L794.7,658.4 L795.8,657.8 L796.9,657.2
		L798.0,656.6 L799.1,656.0 L800.3,655.3 L801.4,654.7 L802.5,654.0 L803.6,653.4 L804.7,652.7 L805.8,652.0
		L807.0,651.3 L808.1,650.7 L809.2,650.0 L810.3,649.3 L811.4,648.6 L812.5,647.9 L813.7,647.1 L814.8,646.4
		L815.9,645.7 L817.0,645.0 L818.1,644.2 L819.3,643.5 L820.4,642.7 L821.5,642.0 L822.6,641.2 L823.7,640.4
		L824.8,639.7 L826.0,638.9 L827.1,638.1 L828.2,637.3 L829.3,636.5 L830.4,635.7 L831.5,634.9 L832.7,634.1
		L833.8,633.3 L834.9,632.4 L836.0,631.6 L837.1,630.8 L838.2,629.9 L839.4,629.1 L840.5,628.2 L841.6,627.4
		L842.7,626.5 L843.8,625.6 L845.0,624.8 L846.1,623.9 L847.2,623.0 L848.3,622.1 L849.4,621.2 L850.5,620.3
		L851.7,619.4 L852.8,618.5 L853.9,617.6 L855.0,616.7 L856.1,615.8 L857.2,614.8 L858.4,613.9 L859.5,613.0
		L860.6,612.0 L861.7,611.1 L862.8,610.1 L863.9,609.2 L865.1,608.2 L866.2,607.3 L867.3,606.3 L868.4,605.3
		L869.5,604.4 L870.6,603.4 L871.8,602.4 L872.9,601.4 L874.0,600.4 L875.1,599.4 L876.2,598.4 L877.4,597.4
		L878.5,596.4 L879.6,595.4 L880.7,594.4 L881.8,593.4 L882.9,592.4 L884.1,591.3 L885.2,590.3 L886.3,589.3
		L887.4,588.2 L888.5,587.2 L889.6,586.2 L890.8,585.1 L891.9,584.1 L893.0,583.0 L894.1,582.0 L895.2,580.9
		L896.3,579.8 L897.5,578.8 L898.6,577.7 L899.7,576.6 L900.8,575.5 L901.9,574.5 L903.0,573.4 L904.2,572.3
		L905.3,571.2 L906.4,570.1 L907.5,569.0 L908.6,567.9 L909.8,566.8 L910.9,565.7 L912.0,564.6 L913.1,563.5
		L914.2,562.4 L915.3,561.3 L916.5,560.2 L917.6,559.1 L918.7,558.0 L919.8,556.9 L920.9,555.7 L922.0,554.6
		L923.2,553.5 L924.3,552.4 L925.4,551.2 L926.5,550.1 L927.6,549.0 L928.7,547.8 L929.9,546.7 L931.0,545.6
		L932.1,544.4 L933.2,543.3 L934.3,542.1 L935.5,541.0 L936.6,539.8 L937.7,538.7 L938.8,537.5 L939.9,536.4
		L941.0,535.2 L942.2,534.1 L943.3,532.9 L944.4,531.8 L945.5,530.6 L946.6,529.5 L947.7,528.3 L948.9,527.1
		L950.0,526.0 L951.1,524.8 L952.2,523.6 L953.3,522.5 L954.4,521.3 L955.6,520.2 L956.7,519.0 L957.8,517.8
		L958.9,516.6 L960.0,515.5 L961.1,514.3 L962.3,513.1 L963.4,512.0 L964.5,510.8 L965.6,509.6 L966.7,508.5
		L967.9,507.3 L969.0,506.1 L970.1,504.9 L971.2,503.8 L972.3,502.6 L973.4,501.4 L974.6,500.3 L975.7,499.1
		L976.8,497.9 L977.9,496.7 L979.0,495.6 L980.1,494.4 L981.3,493.2 L982.4,492.1 L983.5,490.9 L984.6,489.7
		L985.7,488.5 L986.8,487.4 L988.0,486.2 L989.1,485.0 L990.2,483.9 L991.3,482.7 L992.4,481.5 L993.6,480.4
		L994.7,479.2 L995.8,478.1 L996.9,476.9 L998.0,475.7 L999.1,474.6 L1000.3,473.4 L1001.4,472.3 L1002.5,471.1
		L1003.6,469.9 L1004.7,468.8 L1005.8,467.6 L1007.0,466.5 L1008.1,465.3 L1009.2,464.2 L1010.3,463.0 L1011.4,461.9
		L1012.5,460.8 L1013.7,459.6 L1014.8,458.5 L1015.9,457.3 L1017.0,456.2 L1018.1,455.1 L1019.2,453.9 L1020.4,452.8
		L1021.5,451.7 L1022.6,450.5 L1023.7,449.4 L1024.8,448.3 L1026.0,447.2 L1027.1,446.0 L1028.2,444.9 L1029.3,443.8
		L1030.4,442.7 L1031.5,441.6 L1032.7,440.5 L1033.8,439.4 L1034.9,438.3 L1036.0,437.2 L1037.1,436.1 L1038.2,435.0
		L1039.4,433.9 L1040.5,432.8 L1041.6,431.7 L1042.7,430.6 L1043.8,429.5 L1044.9,428.5 L1046.1,427.4 L1047.2,426.3
		L1048.3,425.2 L1049.4,424.2 L1050.5,423.1 L1051.7,422.1 L1052.8,421.0 L1053.9,419.9 L1055.0,418.9 L1056.1,417.8
		L1057.2,416.8 L1058.4,415.8 L1059.5,414.7 L1060.6,413.7 L1061.7,412.6 L1062.8,411.6 L1063.9,410.6 L1065.1,409.6
		L1066.2,408.6 L1067.3,407.5 L1068.4,406.5 L1069.5,405.5 L1070.6,404.5 L1071.8,403.5 L1072.9,402.5 L1074.0,401.5
		L1075.1,400.5 L1076.2,399.6 L1077.3,398.6 L1078.5,397.6 L1079.6,396.6 L1080.7,395.7 L1081.8,394.7 L1082.9,393.7
		L1084.1,392.8 L1085.2,391.8 L1086.3,390.9 L1087.4,389.9 L1088.5,389.0 L1089.6,388.1 L1090.8,387.1 L1091.9,386.2
		L1093.0,385.3 L1094.1,384.4 L1095.2,383.5 L1096.3,382.6 L1097.5,381.7 L1098.6,380.8 L1099.7,379.9 L1100.8,379.0
		L1101.9,378.1 L1103.0,377.2 L1104.2,376.4 L1105.3,375.5 L1106.4,374.6 L1107.5,373.8 L1108.6,372.9 L1109.8,372.1
		L1110.9,371.2 L1112.0,370.4 L1113.1,369.6 L1114.2,368.7 L1115.3,367.9 L1116.5,367.1 L1117.6,366.3 L1118.7,365.5
		L1119.8,364.7 L1120.9,363.9 L1122.0,363.1 L1123.2,362.3 L1124.3,361.5 L1125.4,360.7 L1126.5,360.0 L1127.6,359.2
		L1128.7,358.4 L1129.9,357.7 L1131.0,356.9 L1132.1,356.2 L1133.2,355.5 L1134.3,354.7 L1135.4,354.0 L1136.6,353.3
		L1137.7,352.6 L1138.8,351.9 L1139.9,351.2 L1141.0,350.5 L1142.2,349.8 L1143.3,349.1 L1144.4,348.4 L1145.5,347.7
		L1146.6,347.1 L1147.7,346.4 L1148.9,345.8 L1150.0,345.1 L1151.1,344.5 L1152.2,343.8 L1153.3,343.2 L1154.4,342.6
		L1155.6,342.0 L1156.7,341.3 L1157.8,340.7 L1158.9,340.1 L1160.0,339.6 L1161.1,339.0 L1162.3,338.4 L1163.4,337.8
		L1164.5,337.2 L1165.6,336.7 L1166.7,336.1 L1167.9,335.6 L1169.0,335.0 L1170.1,334.5 L1171.2,334.0 L1172.3,333.5
		L1173.4,332.9 L1174.6,332.4 L1175.7,331.9 L1176.8,331.4 L1177.9,330.9 L1179.0,330.5 L1180.1,330.0 L1181.3,329.5
		L1182.4,329.0 L1183.5,328.6 L1184.6,328.1 L1185.7,327.7 L1186.8,327.3 L1188.0,326.8 L1189.1,326.4 L1190.2,326.0
		L1191.3,325.6 L1192.4,325.2 L1193.5,324.8 L1194.7,324.4 L1195.8,324.0 L1196.9,323.6 L1198.0,323.3 L1199.1,322.9
		L1200.3,322.6 L1201.4,322.2 L1202.5,321.9 L1203.6,321.5 L1204.7,321.2 L1205.8,320.9 L1207.0,320.6 L1208.1,320.3
		L1209.2,320.0 L1210.3,319.7 L1211.4,319.4 L1212.5,319.1 L1213.7,318.8 L1214.8,318.6 L1215.9,318.3 L1217.0,318.1
		L1218.1,317.8 L1219.2,317.6 L1220.4,317.4 L1221.5,317.2 L1222.6,316.9 L1223.7,316.7 L1224.8,316.5 L1226.0,316.3
		L1227.1,316.2 L1228.2,316.0 L1229.3,315.8 L1230.4,315.7 L1231.5,315.5 L1232.7,315.3 L1233.8,315.2 L1234.9,315.1
		L1236.0,314.9 L1237.1,314.8 L1238.2,314.7 L1239.4,314.6 L1240.5,314.5 L1241.6,314.4 L1242.7,314.3 L1243.8,314.3
		L1244.9,314.2 L1246.1,314.1 L1247.2,314.1 L1248.3,314.0 L1249.4,314.0 L1250.5,314.0 L1251.6,313.9 L1252.8,313.9
		L1253.9,313.9 L1255.0,313.9  '/></g>
	</g>
	<g id="gnuplot_plot_4" ><title>8 (both)</title>
<g fill="none" color="black" stroke="currentColor" stroke-width="1.00" stroke-linecap="butt" stroke-linejoin="miter">
	<g transform="translate(1187.9,130.0)" stroke="none" fill="black" font-family="Arial" font-size="12.00"  text-anchor="end">
		<text><tspan font-family="Arial" >8 (both)</tspan></text>
	</g>
</g>
<g fill="none" color="black" stroke="currentColor" stroke-width="1.00" stroke-linecap="butt" stroke-linejoin="miter">
	<path stroke='rgb(230, 159,   0)'  d='M1196.2,126.1 L1238.4,126.1 M112.0,100.0 L113.1,100.0 L114.2,100.0 L115.4,100.0 L116.5,100.1 L117.6,100.1
		L118.7,100.2 L119.8,100.3 L120.9,100.3 L122.1,100.4 L123.2,100.5 L124.3,100.7 L125.4,100.8 L126.5,100.9
		L127.6,101.1 L128.8,101.2 L129.9,101.4 L131.0,101.6 L132.1,101.8 L133.2,102.0 L134.3,102.2 L135.5,102.4
		L136.6,102.7 L137.7,102.9 L138.8,103.2 L139.9,103.4 L141.0,103.7 L142.2,104.0 L143.3,104.3 L144.4,104.6
		L145.5,104.9 L146.6,105.3 L147.8,105.6 L148.9,106.0 L150.0,106.4 L151.1,106.7 L152.2,107.1 L153.3,107.5
		L154.5,107.9 L155.6,108.4 L156.7,108.8 L157.8,109.2 L158.9,109.7 L160.0,110.1 L161.2,110.6 L162.3,111.1
		L163.4,111.6 L164.5,112.1 L165.6,112.6 L166.7,113.2 L167.9,113.7 L169.0,114.3 L170.1,114.8 L171.2,115.4
		L172.3,116.0 L173.5,116.6 L174.6,117.2 L175.7,117.8 L176.8,118.4 L177.9,119.0 L179.0,119.7 L180.2,120.3
		L181.3,121.0 L182.4,121.7 L183.5,122.4 L184.6,123.0 L185.7,123.8 L186.9,124.5 L188.0,125.2 L189.1,125.9
		L190.2,126.7 L191.3,127.4 L192.4,128.2 L193.6,129.0 L194.7,129.8 L195.8,130.6 L196.9,131.4 L198.0,132.2
		L199.1,133.0 L200.3,133.8 L201.4,134.7 L202.5,135.6 L203.6,136.4 L204.7,137.3 L205.9,138.2 L207.0,139.1
		L208.1,140.0 L209.2,140.9 L210.3,141.8 L211.4,142.7 L212.6,143.7 L213.7,144.6 L214.8,145.6 L215.9,146.6
		L217.0,147.6 L218.1,148.5 L219.3,149.5 L220.4,150.5 L221.5,151.6 L222.6,152.6 L223.7,153.6 L224.8,154.7
		L226.0,155.7 L227.1,156.8 L228.2,157.9 L229.3,158.9 L230.4,160.0 L231.6,161.1 L232.7,162.2 L233.8,163.3
		L234.9,164.5 L236.0,165.6 L237.1,166.7 L238.3,167.9 L239.4,169.0 L240.5,170.2 L241.6,171.4 L242.7,172.6
		L243.8,173.8 L245.0,174.9 L246.1,176.2 L247.2,177.4 L248.3,178.6 L249.4,179.8 L250.5,181.1 L251.7,182.3
		L252.8,183.6 L253.9,184.8 L255.0,186.1 L256.1,187.4 L257.2,188.7 L258.4,190.0 L259.5,191.3 L260.6,192.6
		L261.7,193.9 L262.8,195.2 L264.0,196.5 L265.1,197.9 L266.2,199.2 L267.3,200.6 L268.4,201.9 L269.5,203.3
		L270.7,204.7 L271.8,206.0 L272.9,207.4 L274.0,208.8 L275.1,210.2 L276.2,211.6 L277.4,213.1 L278.5,214.5
		L279.6,215.9 L280.7,217.3 L281.8,218.8 L282.9,220.2 L284.1,221.7 L285.2,223.1 L286.3,224.6 L287.4,226.1
		L288.5,227.5 L289.7,229.0 L290.8,230.5 L291.9,232.0 L293.0,233.5 L294.1,235.0 L295.2,236.5 L296.4,238.0
		L297.5,239.6 L298.6,241.1 L299.7,242.6 L300.8,244.2 L301.9,245.7 L303.1,247.3 L304.2,248.8 L305.3,250.4
		L306.4,251.9 L307.5,253.5 L308.6,255.1 L309.8,256.7 L310.9,258.3 L312.0,259.8 L313.1,261.4 L314.2,263.0
		L315.3,264.6 L316.5,266.2 L317.6,267.9 L318.7,269.5 L319.8,271.1 L320.9,272.7 L322.1,274.3 L323.2,276.0
		L324.3,277.6 L325.4,279.3 L326.5,280.9 L327.6,282.6 L328.8,284.2 L329.9,285.9 L331.0,287.5 L332.1,289.2
		L333.2,290.8 L334.3,292.5 L335.5,294.2 L336.6,295.9 L337.7,297.5 L338.8,299.2 L339.9,300.9 L341.0,302.6
		L342.2,304.3 L343.3,306.0 L344.4,307.7 L345.5,309.4 L346.6,311.1 L347.8,312.8 L348.9,314.5 L350.0,316.2
		L351.1,317.9 L352.2,319.6 L353.3,321.3 L354.5,323.1 L355.6,324.8 L356.7,326.5 L357.8,328.2 L358.9,330.0
		L360.0,331.7 L361.2,333.4 L362.3,335.2 L363.4,336.9 L364.5,338.6 L365.6,340.4 L366.7,342.1 L367.9,343.8
		L369.0,345.6 L370.1,347.3 L371.2,349.1 L372.3,350.8 L373.4,352.5 L374.6,354.3 L375.7,356.0 L376.8,357.8
		L377.9,359.5 L379.0,361.3 L380.2,363.0 L381.3,364.8 L382.4,366.5 L383.5,368.3 L384.6,370.0 L385.7,371.8
		L386.9,373.5 L388.0,375.3 L389.1,377.0 L390.2,378.8 L391.3,380.5 L392.4,382.3 L393.6,384.1 L394.7,385.8
		L395.8,387.6 L396.9,389.3 L398.0,391.1 L399.1,392.8 L400.3,394.6 L401.4,396.3 L402.5,398.1 L403.6,399.8
		L404.7,401.5 L405.9,403.3 L407.0,405.0 L408.1,406.8 L409.2,408.5 L410.3,410.3 L411.4,412.0 L412.6,413.7
		L413.7,415.5 L414.8,417.2 L415.9,418.9 L417.0,420.7 L418.1,422.4 L419.3,424.1 L420.4,425.9 L421.5,427.6
		L422.6,429.3 L423.7,431.0 L424.8,432.8 L426.0,434.5 L427.1,436.2 L428.2,437.9 L429.3,439.6 L430.4,441.3
		L431.5,443.0 L432.7,444.7 L433.8,446.5 L434.9,448.2 L436.0,449.8 L437.1,451.5 L438.3,453.2 L439.4,454.9
		L440.5,456.6 L441.6,458.3 L442.7,460.0 L443.8,461.7 L445.0,463.3 L446.1,465.0 L447.2,466.7 L448.3,468.3
		L449.4,470.0 L450.5,471.7 L451.7,473.3 L452.8,475.0 L453.9,476.6 L455.0,478.3 L456.1,479.9 L457.2,481.5
		L458.4,483.2 L459.5,484.8 L460.6,486.4 L461.7,488.1 L462.8,489.7 L464.0,491.3 L465.1,492.9 L466.2,494.5
		L467.3,496.1 L468.4,497.7 L469.5,499.3 L470.7,500.9 L471.8,502.5 L472.9,504.1 L474.0,505.6 L475.1,507.2
		L476.2,508.8 L477.4,510.3 L478.5,511.9 L479.6,513.5 L480.7,515.0 L481.8,516.6 L482.9,518.1 L484.1,519.6
		L485.2,521.2 L486.3,522.7 L487.4,524.2 L488.5,525.7 L489.6,527.2 L490.8,528.7 L491.9,530.2 L493.0,531.7
		L494.1,533.2 L495.2,534.7 L496.4,536.2 L497.5,537.7 L498.6,539.1 L499.7,540.6 L500.8,542.0 L501.9,543.5
		L503.1,544.9 L504.2,546.4 L505.3,547.8 L506.4,549.2 L507.5,550.7 L508.6,552.1 L509.8,553.5 L510.9,554.9
		L512.0,556.3 L513.1,557.7 L514.2,559.1 L515.3,560.4 L516.5,561.8 L517.6,563.2 L518.7,564.5 L519.8,565.9
		L520.9,567.3 L522.0,568.6 L523.2,569.9 L524.3,571.3 L525.4,572.6 L526.5,573.9 L527.6,575.2 L528.8,576.5
		L529.9,577.8 L531.0,579.1 L532.1,580.4 L533.2,581.7 L534.3,582.9 L535.5,584.2 L536.6,585.5 L537.7,586.7
		L538.8,588.0 L539.9,589.2 L541.0,590.4 L542.2,591.6 L543.3,592.9 L544.4,594.1 L545.5,595.3 L546.6,596.5
		L547.7,597.6 L548.9,598.8 L550.0,600.0 L551.1,601.2 L552.2,602.3 L553.3,603.5 L554.5,604.6 L555.6,605.8
		L556.7,606.9 L557.8,608.0 L558.9,609.1 L560.0,610.2 L561.2,611.3 L562.3,612.4 L563.4,613.5 L564.5,614.6
		L565.6,615.6 L566.7,616.7 L567.9,617.8 L569.0,618.8 L570.1,619.8 L571.2,620.9 L572.3,621.9 L573.4,622.9
		L574.6,623.9 L575.7,624.9 L576.8,625.9 L577.9,626.9 L579.0,627.9 L580.1,628.8 L581.3,629.8 L582.4,630.7
		L583.5,631.7 L584.6,632.6 L585.7,633.5 L586.9,634.5 L588.0,635.4 L589.1,636.3 L590.2,637.2 L591.3,638.1
		L592.4,638.9 L593.6,639.8 L594.7,640.7 L595.8,641.5 L596.9,642.4 L598.0,643.2 L599.1,644.0 L600.3,644.9
		L601.4,645.7 L602.5,646.5 L603.6,647.3 L604.7,648.1 L605.8,648.8 L607.0,649.6 L608.1,650.4 L609.2,651.1
		L610.3,651.9 L611.4,652.6 L612.6,653.3 L613.7,654.1 L614.8,654.8 L615.9,655.5 L617.0,656.2 L618.1,656.9
		L619.3,657.5 L620.4,658.2 L621.5,658.9 L622.6,659.5 L623.7,660.2 L624.8,660.8 L626.0,661.4 L627.1,662.1
		L628.2,662.7 L629.3,663.3 L630.4,663.9 L631.5,664.4 L632.7,665.0 L633.8,665.6 L634.9,666.1 L636.0,666.7
		L637.1,667.2 L638.2,667.8 L639.4,668.3 L640.5,668.8 L641.6,669.3 L642.7,669.8 L643.8,670.3 L645.0,670.8
		L646.1,671.3 L647.2,671.7 L648.3,672.2 L649.4,672.6 L650.5,673.1 L651.7,673.5 L652.8,673.9 L653.9,674.3
		L655.0,674.7 L656.1,675.1 L657.2,675.5 L658.4,675.9 L659.5,676.2 L660.6,676.6 L661.7,676.9 L662.8,677.3
		L663.9,677.6 L665.1,677.9 L666.2,678.3 L667.3,678.6 L668.4,678.9 L669.5,679.2 L670.7,679.4 L671.8,679.7
		L672.9,680.0 L674.0,680.2 L675.1,680.5 L676.2,680.7 L677.4,680.9 L678.5,681.1 L679.6,681.4 L680.7,681.6
		L681.8,681.8 L682.9,681.9 L684.1,682.1 L685.2,682.3 L686.3,682.4 L687.4,682.6 L688.5,682.7 L689.6,682.9
		L690.8,683.0 L691.9,683.1 L693.0,683.2 L694.1,683.3 L695.2,683.4 L696.3,683.5 L697.5,683.5 L698.6,683.6
		L699.7,683.7 L700.8,683.7 L701.9,683.8 L703.1,683.8 L704.2,683.8 L705.3,683.8 L706.4,683.8 L707.5,683.8
		L708.6,683.8 L709.8,683.8 L710.9,683.8 L712.0,683.7 L713.1,683.7 L714.2,683.6 L715.3,683.5 L716.5,683.5
		L717.6,683.4 L718.7,683.3 L719.8,683.2 L720.9,683.1 L722.0,683.0 L723.2,682.9 L724.3,682.7 L725.4,682.6
		L726.5,682.5 L727.6,682.3 L728.8,682.1 L729.9,682.0 L731.0,681.8 L732.1,681.6 L733.2,681.4 L734.3,681.2
		L735.5,681.0 L736.6,680.8 L737.7,680.5 L738.8,680.3 L739.9,680.1 L741.0,679.8 L742.2,679.5 L743.3,679.3
		L744.4,679.0 L745.5,678.7 L746.6,678.4 L747.7,678.1 L748.9,677.8 L750.0,677.5 L751.1,677.2 L752.2,676.8
		L753.3,676.5 L754.4,676.2 L755.6,675.8 L756.7,675.4 L757.8,675.1 L758.9,674.7 L760.0,674.3 L761.2,673.9
		L762.3,673.5 L763.4,673.1 L764.5,672.7 L765.6,672.3 L766.7,671.8 L767.9,671.4 L769.0,671.0 L770.1,670.5
		L771.2,670.1 L772.3,669.6 L773.4,669.1 L774.6,668.6 L775.7,668.1 L776.8,667.6 L777.9,667.1 L779.0,666.6
		L780.1,666.1 L781.3,665.6 L782.4,665.1 L783.5,664.5 L784.6,664.0 L785.7,663.4 L786.9,662.9 L788.0,662.3
		L789.1,661.7 L790.2,661.1 L791.3,660.5 L792.4,659.9 L793.6,659.3 L794.7,658.7 L795.8,658.1 L796.9,657.5
		L798.0,656.9 L799.1,656.2 L800.3,655.6 L801.4,654.9 L802.5,654.3 L803.6,653.6 L804.7,653.0 L805.8,652.3
		L807.0,651.6 L808.1,650.9 L809.2,650.2 L810.3,649.5 L811.4,648.8 L812.5,648.1 L813.7,647.4 L814.8,646.7
		L815.9,645.9 L817.0,645.2 L818.1,644.4 L819.3,643.7 L820.4,642.9 L821.5,642.2 L822.6,641.4 L823.7,640.6
		L824.8,639.9 L826.0,639.1 L827.1,638.3 L828.2,637.5 L829.3,636.7 L830.4,635.9 L831.5,635.1 L832.7,634.2
		L833.8,633.4 L834.9,632.6 L836.0,631.8 L837.1,630.9 L838.2,630.1 L839.4,629.2 L840.5,628.4 L841.6,627.5
		L842.7,626.6 L843.8,625.8 L845.0,624.9 L846.1,624.0 L847.2,623.1 L848.3,622.2 L849.4,621.3 L850.5,620.4
		L851.7,619.5 L852.8,618.6 L853.9,617.7 L855.0,616.8 L856.1,615.8 L857.2,614.9 L858.4,614.0 L859.5,613.0
		L860.6,612.1 L861.7,611.1 L862.8,610.2 L863.9,609.2 L865.1,608.2 L866.2,607.3 L867.3,606.3 L868.4,605.3
		L869.5,604.3 L870.6,603.4 L871.8,602.4 L872.9,601.4 L874.0,600.4 L875.1,599.4 L876.2,598.4 L877.4,597.4
		L878.5,596.4 L879.6,595.3 L880.7,594.3 L881.8,593.3 L882.9,592.3 L884.1,591.2 L885.2,590.2 L886.3,589.2
		L887.4,588.1 L888.5,587.1 L889.6,586.0 L890.8,585.0 L891.9,583.9 L893.0,582.9 L894.1,581.8 L895.2,580.7
		L896.3,579.7 L897.5,578.6 L898.6,577.5 L899.7,576.4 L900.8,575.3 L901.9,574.3 L903.0,573.2 L904.2,572.1
		L905.3,571.0 L906.4,569.9 L907.5,568.8 L908.6,567.7 L909.8,566.6 L910.9,565.5 L912.0,564.4 L913.1,563.3
		L914.2,562.2 L915.3,561.0 L916.5,559.9 L917.6,558.8 L918.7,557.7 L919.8,556.6 L920.9,555.4 L922.0,554.3
		L923.2,553.2 L924.3,552.0 L925.4,550.9 L926.5,549.8 L927.6,548.6 L928.7,547.5 L929.9,546.3 L931.0,545.2
		L932.1,544.1 L933.2,542.9 L934.3,541.8 L935.5,540.6 L936.6,539.5 L937.7,538.3 L938.8,537.1 L939.9,536.0
		L941.0,534.8 L942.2,533.7 L943.3,532.5 L944.4,531.4 L945.5,530.2 L946.6,529.0 L947.7,527.9 L948.9,526.7
		L950.0,525.5 L951.1,524.4 L952.2,523.2 L953.3,522.0 L954.4,520.9 L955.6,519.7 L956.7,518.5 L957.8,517.4
		L958.9,516.2 L960.0,515.0 L961.1,513.8 L962.3,512.7 L963.4,511.5 L964.5,510.3 L965.6,509.1 L966.7,508.0
		L967.9,506.8 L969.0,505.6 L970.1,504.5 L971.2,503.3 L972.3,502.1 L973.4,500.9 L974.6,499.8 L975.7,498.6
		L976.8,497.4 L977.9,496.2 L979.0,495.1 L980.1,493.9 L981.3,492.7 L982.4,491.6 L983.5,490.4 L984.6,489.2
		L985.7,488.0 L986.8,486.9 L988.0,485.7 L989.1,484.5 L990.2,483.4 L991.3,482.2 L992.4,481.0 L993.6,479.9
		L994.7,478.7 L995.8,477.6 L996.9,476.4 L998.0,475.2 L999.1,474.1 L1000.3,472.9 L1001.4,471.8 L1002.5,470.6
		L1003.6,469.5 L1004.7,468.3 L1005.8,467.2 L1007.0,466.0 L1008.1,464.9 L1009.2,463.7 L1010.3,462.6 L1011.4,461.4
		L1012.5,460.3 L1013.7,459.2 L1014.8,458.0 L1015.9,456.9 L1017.0,455.7 L1018.1,454.6 L1019.2,453.5 L1020.4,452.4
		L1021.5,451.2 L1022.6,450.1 L1023.7,449.0 L1024.8,447.9 L1026.0,446.7 L1027.1,445.6 L1028.2,444.5 L1029.3,443.4
		L1030.4,442.3 L1031.5,441.2 L1032.7,440.1 L1033.8,439.0 L1034.9,437.9 L1036.0,436.8 L1037.1,435.7 L1038.2,434.6
		L1039.4,433.5 L1040.5,432.4 L1041.6,431.4 L1042.7,430.3 L1043.8,429.2 L1044.9,428.1 L1046.1,427.1 L1047.2,426.0
		L1048.3,424.9 L1049.4,423.9 L1050.5,422.8 L1051.7,421.8 L1052.8,420.7 L1053.9,419.7 L1055.0,418.6 L1056.1,417.6
		L1057.2,416.5 L1058.4,415.5 L1059.5,414.5 L1060.6,413.4 L1061.7,412.4 L1062.8,411.4 L1063.9,410.4 L1065.1,409.4
		L1066.2,408.3 L1067.3,407.3 L1068.4,406.3 L1069.5,405.3 L1070.6,404.3 L1071.8,403.3 L1072.9,402.4 L1074.0,401.4
		L1075.1,400.4 L1076.2,399.4 L1077.3,398.4 L1078.5,397.5 L1079.6,396.5 L1080.7,395.5 L1081.8,394.6 L1082.9,393.6
		L1084.1,392.7 L1085.2,391.7 L1086.3,390.8 L1087.4,389.9 L1088.5,388.9 L1089.6,388.0 L1090.8,387.1 L1091.9,386.2
		L1093.0,385.3 L1094.1,384.4 L1095.2,383.5 L1096.3,382.6 L1097.5,381.7 L1098.6,380.8 L1099.7,379.9 L1100.8,379.0
		L1101.9,378.1 L1103.0,377.3 L1104.2,376.4 L1105.3,375.5 L1106.4,374.7 L1107.5,373.8 L1108.6,373.0 L1109.8,372.1
		L1110.9,371.3 L1112.0,370.5 L1113.1,369.6 L1114.2,368.8 L1115.3,368.0 L1116.5,367.2 L1117.6,366.4 L1118.7,365.6
		L1119.8,364.8 L1120.9,364.0 L1122.0,363.2 L1123.2,362.4 L1124.3,361.6 L1125.4,360.9 L1126.5,360.1 L1127.6,359.4
		L1128.7,358.6 L1129.9,357.9 L1131.0,357.1 L1132.1,356.4 L1133.2,355.6 L1134.3,354.9 L1135.4,354.2 L1136.6,353.5
		L1137.7,352.8 L1138.8,352.1 L1139.9,351.4 L1141.0,350.7 L1142.2,350.0 L1143.3,349.3 L1144.4,348.6 L1145.5,348.0
		L1146.6,347.3 L1147.7,346.7 L1148.9,346.0 L1150.0,345.4 L1151.1,344.7 L1152.2,344.1 L1153.3,343.5 L1154.4,342.9
		L1155.6,342.2 L1156.7,341.6 L1157.8,341.0 L1158.9,340.4 L1160.0,339.8 L1161.1,339.3 L1162.3,338.7 L1163.4,338.1
		L1164.5,337.5 L1165.6,337.0 L1166.7,336.4 L1167.9,335.9 L1169.0,335.4 L1170.1,334.8 L1171.2,334.3 L1172.3,333.8
		L1173.4,333.3 L1174.6,332.7 L1175.7,332.2 L1176.8,331.8 L1177.9,331.3 L1179.0,330.8 L1180.1,330.3 L1181.3,329.8
		L1182.4,329.4 L1183.5,328.9 L1184.6,328.5 L1185.7,328.0 L1186.8,327.6 L1188.0,327.2 L1189.1,326.8 L1190.2,326.3
		L1191.3,325.9 L1192.4,325.5 L1193.5,325.1 L1194.7,324.7 L1195.8,324.4 L1196.9,324.0 L1198.0,323.6 L1199.1,323.3
		L1200.3,322.9 L1201.4,322.6 L1202.5,322.2 L1203.6,321.9 L1204.7,321.6 L1205.8,321.2 L1207.0,320.9 L1208.1,320.6
		L1209.2,320.3 L1210.3,320.0 L1211.4,319.8 L1212.5,319.5 L1213.7,319.2 L1214.8,319.0 L1215.9,318.7 L1217.0,318.4
		L1218.1,318.2 L1219.2,318.0 L1220.4,317.7 L1221.5,317.5 L1222.6,317.3 L1223.7,317.1 L1224.8,316.9 L1226.0,316.7
		L1227.1,316.5 L1228.2,316.4 L1229.3,316.2 L1230.4,316.0 L1231.5,315.9 L1232.7,315.7 L1233.8,315.6 L1234.9,315.4
		L1236.0,315.3 L1237.1,315.2 L1238.2,315.1 L1239.4,315.0 L1240.5,314.9 L1241.6,314.8 L1242.7,314.7 L1243.8,314.6
		L1244.9,314.6 L1246.1,314.5 L1247.2,314.4 L1248.3,314.4 L1249.4,314.4 L1250.5,314.3 L1251.6,314.3 L1252.8,314.3
		L1253.9,314.3 L1255.0,314.3  '/></g>
	</g>
<g fill="none" color="white" stroke="rgb(230, 159,   0)" stroke-width="2.00" stroke-linecap="butt" stroke-linejoin="miter">
</g>
<g fill="none" color="black" stroke="currentColor" stroke-width="2.00" stroke-linecap="butt" stroke-linejoin="miter">
</g>
<g fill="none" color="black" stroke="black" stroke-width="1.00" stroke-linecap="butt" stroke-linejoin="miter">
</g>
<g fill="none" color="black" stroke="currentColor" stroke-width="1.00" stroke-linecap="butt" stroke-linejoin="miter">
	<path stroke='black'  d='M112.0,54.1 L112.0,684.0 L1255.0,684.0 L1255.0,54.1 L112.0,54.1 Z  '/></g>
<g fill="none" color="black" stroke="currentColor" stroke-width="1.00" stroke-linecap="butt" stroke-linejoin="miter">
</g>
</g>
</svg>

