<?xml version="1.0" encoding="utf-8"  standalone="no"?>
<svg 
 width="1280" height="720"
 viewBox="0 0 1280 720"
 xmlns="http://www.w3.org/2000/svg"
 xmlns:xlink="http://www.w3.org/1999/xlink"
>

<title>Gnuplot</title>
<desc>Produced by GNUPLOT 5.0 patchlevel 6 </desc>

<g id="gnuplot_canvas">

<rect x="0" y="0" width="1280" height="720" fill="none"/>
<defs>

	<circle id='gpDot' r='0.5' stroke-width='0.5'/>
	<path id='gpPt0' stroke-width='0.222' stroke='currentColor' d='M-1,0 h2 M0,-1 v2'/>
	<path id='gpPt1' stroke-width='0.222' stroke='currentColor' d='M-1,-1 L1,1 M1,-1 L-1,1'/>
	<path id='gpPt2' stroke-width='0.222' stroke='currentColor' d='M-1,0 L1,0 M0,-1 L0,1 M-1,-1 L1,1 M-1,1 L1,-1'/>
	<rect id='gpPt3' stroke-width='0.222' stroke='currentColor' x='-1' y='-1' width='2' height='2'/>
	<rect id='gpPt4' stroke-width='0.222' stroke='currentColor' fill='currentColor' x='-1' y='-1' width='2' height='2'/>
	<circle id='gpPt5' stroke-width='0.222' stroke='currentColor' cx='0' cy='0' r='1'/>
	<use xlink:href='#gpPt5' id='gpPt6' fill='currentColor' stroke='none'/>
	<path id='gpPt7' stroke-width='0.222' stroke='currentColor' d='M0,-1.33 L-1.33,0.67 L1.33,0.67 z'/>
	<use xlink:href='#gpPt7' id='gpPt8' fill='currentColor' stroke='none'/>
	<use xlink:href='#gpPt7' id='gpPt9' stroke='currentColor' transform='rotate(180)'/>
	<use xlink:href='#gpPt9' id='gpPt10' fill='currentColor' stroke='none'/>
	<use xlink:href='#gpPt3' id='gpPt11' stroke='currentColor' transform='rotate(45)'/>
	<use xlink:href='#gpPt11' id='gpPt12' fill='currentColor' stroke='none'/>
	<path id='gpPt13' stroke-width='0.222' stroke='currentColor' d='M0,1.330 L1.265,0.411 L0.782,-1.067 L-0.782,-1.076 L-1.265,0.411 z'/>
	<use xlink:href='#gpPt13' id='gpPt14' fill='currentColor' stroke='none'/>
	<filter id='textbox' filterUnits='objectBoundingBox' x='0' y='0' height='1' width='1'>
	  <feFlood flood-color='white' flood-opacity='1' result='bgnd'/>
	  <feComposite in='SourceGraphic' in2='bgnd' operator='atop'/>
	</filter>
	<filter id='greybox' filterUnits='objectBoundingBox' x='0' y='0' height='1' width='1'>
	  <feFlood flood-color='lightgrey' flood-opacity='1' result='grey'/>
	  <feComposite in='SourceGraphic' in2='grey' operator='atop'/>
	</filter>
</defs>
<g fill="none" color="white" stroke="currentColor" stroke-width="1.00" stroke-linecap="butt" stroke-linejoin="miter">
</g>
<g fill="none" color="black" stroke="currentColor" stroke-width="1.00" stroke-linecap="butt" stroke-linejoin="miter">
	<path stroke='black'  d='M78.8,683.0 L87.8,683.0 M1255.0,683.0 L1246.0,683.0  '/>	<g transform="translate(70.5,686.9)" stroke="none" fill="black" font-family="Arial" font-size="12.00"  text-anchor="end">
		<text><tspan font-family="Arial" >0.00005</tspan></text>
	</g>
</g>
<g fill="none" color="black" stroke="currentColor" stroke-width="1.00" stroke-linecap="butt" stroke-linejoin="miter">
	<path stroke='black'  d='M78.8,369.4 L87.8,369.4 M1255.0,369.4 L1246.0,369.4  '/>	<g transform="translate(70.5,373.3)" stroke="none" fill="black" font-family="Arial" font-size="12.00"  text-anchor="end">
		<text><tspan font-family="Arial" >0.00101</tspan></text>
	</g>
</g>
<g fill="none" color="black" stroke="currentColor" stroke-width="1.00" stroke-linecap="butt" stroke-linejoin="miter">
	<path stroke='black'  d='M78.8,55.7 L87.8,55.7 M1255.0,55.7 L1246.0,55.7  '/>	<g transform="translate(70.5,59.6)" stroke="none" fill="black" font-family="Arial" font-size="12.00"  text-anchor="end">
		<text><tspan font-family="Arial" >0.01917</tspan></text>
	</g>
</g>
<g fill="none" color="black" stroke="currentColor" stroke-width="1.00" stroke-linecap="butt" stroke-linejoin="miter">
	<path stroke='black'  d='M78.8,684.0 L78.8,675.0 M78.8,54.1 L78.8,63.1  '/>	<g transform="translate(78.8,705.9)" stroke="none" fill="black" font-family="Arial" font-size="12.00"  text-anchor="middle">
		<text><tspan font-family="Arial" > 0</tspan></text>
	</g>
</g>
<g fill="none" color="black" stroke="currentColor" stroke-width="1.00" stroke-linecap="butt" stroke-linejoin="miter">
	<path stroke='black'  d='M666.9,684.0 L666.9,675.0 M666.9,54.1 L666.9,63.1  '/>	<g transform="translate(666.9,705.9)" stroke="none" fill="black" font-family="Arial" font-size="12.00"  text-anchor="middle">
		<text><tspan font-family="Arial" >pi/2</tspan></text>
	</g>
</g>
<g fill="none" color="black" stroke="currentColor" stroke-width="1.00" stroke-linecap="butt" stroke-linejoin="miter">
	<path stroke='black'  d='M1255.0,684.0 L1255.0,675.0 M1255.0,54.1 L1255.0,63.1  '/>	<g transform="translate(1255.0,705.9)" stroke="none" fill="black" font-family="Arial" font-size="12.00"  text-anchor="middle">
		<text><tspan font-family="Arial" >pi</tspan></text>
	</g>
</g>
<g fill="none" color="black" stroke="currentColor" stroke-width="1.00" stroke-linecap="butt" stroke-linejoin="miter">
</g>
<g fill="none" color="black" stroke="currentColor" stroke-width="1.00" stroke-linecap="butt" stroke-linejoin="miter">
	<path stroke='black'  d='M78.8,54.1 L78.8,684.0 L1255.0,684.0 L1255.0,54.1 L78.8,54.1 Z  '/></g>
<g fill="none" color="black" stroke="currentColor" stroke-width="1.00" stroke-linecap="butt" stroke-linejoin="miter">
	<g transform="translate(666.9,31.0)" stroke="none" fill="black" font-family="Arial" font-size="12.00"  text-anchor="middle">
		<text><tspan font-family="Arial" >Material 29</tspan></text>
	</g>
</g>
	<g id="gnuplot_plot_1" ><title>scattering function</title>
<g fill="none" color="black" stroke="currentColor" stroke-width="1.00" stroke-linecap="butt" stroke-linejoin="miter">
	<g transform="translate(1187.9,76.0)" stroke="none" fill="black" font-family="Arial" font-size="12.00"  text-anchor="end">
		<text><tspan font-family="Arial" >scattering function</tspan></text>
	</g>
</g>
<g fill="none" color="black" stroke="currentColor" stroke-width="1.00" stroke-linecap="butt" stroke-linejoin="miter">
	<use xlink:href='#gpPt5' transform='translate(78.8,55.7) scale(2.25)' color='black'/>
	<use xlink:href='#gpPt5' transform='translate(79.5,55.8) scale(2.25)' color='black'/>
	<use xlink:href='#gpPt5' transform='translate(80.1,55.9) scale(2.25)' color='black'/>
	<use xlink:href='#gpPt5' transform='translate(80.8,56.1) scale(2.25)' color='black'/>
	<use xlink:href='#gpPt5' transform='translate(81.4,56.3) scale(2.25)' color='black'/>
	<use xlink:href='#gpPt5' transform='translate(82.1,56.7) scale(2.25)' color='black'/>
	<use xlink:href='#gpPt5' transform='translate(82.7,57.1) scale(2.25)' color='black'/>
	<use xlink:href='#gpPt5' transform='translate(83.4,57.5) scale(2.25)' color='black'/>
	<use xlink:href='#gpPt5' transform='translate(84.0,58.0) scale(2.25)' color='black'/>
	<use xlink:href='#gpPt5' transform='translate(84.7,58.4) scale(2.25)' color='black'/>
	<use xlink:href='#gpPt5' transform='translate(85.3,59.0) scale(2.25)' color='black'/>
	<use xlink:href='#gpPt5' transform='translate(86.0,59.6) scale(2.25)' color='black'/>
	<use xlink:href='#gpPt5' transform='translate(86.6,60.1) scale(2.25)' color='black'/>
	<use xlink:href='#gpPt5' transform='translate(87.3,60.8) scale(2.25)' color='black'/>
	<use xlink:href='#gpPt5' transform='translate(87.9,61.4) scale(2.25)' color='black'/>
	<use xlink:href='#gpPt5' transform='translate(88.6,62.1) scale(2.25)' color='black'/>
	<use xlink:href='#gpPt5' transform='translate(89.3,62.7) scale(2.25)' color='black'/>
	<use xlink:href='#gpPt5' transform='translate(89.9,63.4) scale(2.25)' color='black'/>
	<use xlink:href='#gpPt5' transform='translate(90.6,64.1) scale(2.25)' color='black'/>
	<use xlink:href='#gpPt5' transform='translate(91.2,64.8) scale(2.25)' color='black'/>
	<use xlink:href='#gpPt5' transform='translate(91.9,65.5) scale(2.25)' color='black'/>
	<use xlink:href='#gpPt5' transform='translate(98.4,72.9) scale(2.25)' color='black'/>
	<use xlink:href='#gpPt5' transform='translate(104.9,80.6) scale(2.25)' color='black'/>
	<use xlink:href='#gpPt5' transform='translate(111.5,88.5) scale(2.25)' color='black'/>
	<use xlink:href='#gpPt5' transform='translate(118.0,96.4) scale(2.25)' color='black'/>
	<use xlink:href='#gpPt5' transform='translate(131.1,112.4) scale(2.25)' color='black'/>
	<use xlink:href='#gpPt5' transform='translate(144.1,128.5) scale(2.25)' color='black'/>
	<use xlink:href='#gpPt5' transform='translate(157.2,144.6) scale(2.25)' color='black'/>
	<use xlink:href='#gpPt5' transform='translate(170.3,160.8) scale(2.25)' color='black'/>
	<use xlink:href='#gpPt5' transform='translate(183.4,176.9) scale(2.25)' color='black'/>
	<use xlink:href='#gpPt5' transform='translate(196.4,193.0) scale(2.25)' color='black'/>
	<use xlink:href='#gpPt5' transform='translate(209.5,209.2) scale(2.25)' color='black'/>
	<use xlink:href='#gpPt5' transform='translate(222.6,225.3) scale(2.25)' color='black'/>
	<use xlink:href='#gpPt5' transform='translate(235.6,241.3) scale(2.25)' color='black'/>
	<use xlink:href='#gpPt5' transform='translate(248.7,257.2) scale(2.25)' color='black'/>
	<use xlink:href='#gpPt5' transform='translate(261.8,272.9) scale(2.25)' color='black'/>
	<use xlink:href='#gpPt5' transform='translate(274.8,288.6) scale(2.25)' color='black'/>
	<use xlink:href='#gpPt5' transform='translate(287.9,304.1) scale(2.25)' color='black'/>
	<use xlink:href='#gpPt5' transform='translate(301.0,319.3) scale(2.25)' color='black'/>
	<use xlink:href='#gpPt5' transform='translate(314.0,334.4) scale(2.25)' color='black'/>
	<use xlink:href='#gpPt5' transform='translate(327.1,349.3) scale(2.25)' color='black'/>
	<use xlink:href='#gpPt5' transform='translate(340.2,363.8) scale(2.25)' color='black'/>
	<use xlink:href='#gpPt5' transform='translate(353.2,378.2) scale(2.25)' color='black'/>
	<use xlink:href='#gpPt5' transform='translate(366.3,392.4) scale(2.25)' color='black'/>
	<use xlink:href='#gpPt5' transform='translate(379.4,406.2) scale(2.25)' color='black'/>
	<use xlink:href='#gpPt5' transform='translate(392.5,419.8) scale(2.25)' color='black'/>
	<use xlink:href='#gpPt5' transform='translate(405.5,433.1) scale(2.25)' color='black'/>
	<use xlink:href='#gpPt5' transform='translate(418.6,446.1) scale(2.25)' color='black'/>
	<use xlink:href='#gpPt5' transform='translate(431.7,458.9) scale(2.25)' color='black'/>
	<use xlink:href='#gpPt5' transform='translate(444.7,471.3) scale(2.25)' color='black'/>
	<use xlink:href='#gpPt5' transform='translate(457.8,483.3) scale(2.25)' color='black'/>
	<use xlink:href='#gpPt5' transform='translate(470.9,495.2) scale(2.25)' color='black'/>
	<use xlink:href='#gpPt5' transform='translate(483.9,506.8) scale(2.25)' color='black'/>
	<use xlink:href='#gpPt5' transform='translate(497.0,518.0) scale(2.25)' color='black'/>
	<use xlink:href='#gpPt5' transform='translate(510.1,528.9) scale(2.25)' color='black'/>
	<use xlink:href='#gpPt5' transform='translate(523.1,539.4) scale(2.25)' color='black'/>
	<use xlink:href='#gpPt5' transform='translate(536.2,549.7) scale(2.25)' color='black'/>
	<use xlink:href='#gpPt5' transform='translate(549.3,559.5) scale(2.25)' color='black'/>
	<use xlink:href='#gpPt5' transform='translate(562.3,569.1) scale(2.25)' color='black'/>
	<use xlink:href='#gpPt5' transform='translate(575.4,578.5) scale(2.25)' color='black'/>
	<use xlink:href='#gpPt5' transform='translate(588.5,587.4) scale(2.25)' color='black'/>
	<use xlink:href='#gpPt5' transform='translate(601.6,595.8) scale(2.25)' color='black'/>
	<use xlink:href='#gpPt5' transform='translate(614.6,603.9) scale(2.25)' color='black'/>
	<use xlink:href='#gpPt5' transform='translate(627.7,611.7) scale(2.25)' color='black'/>
	<use xlink:href='#gpPt5' transform='translate(640.8,619.2) scale(2.25)' color='black'/>
	<use xlink:href='#gpPt5' transform='translate(653.8,626.3) scale(2.25)' color='black'/>
	<use xlink:href='#gpPt5' transform='translate(666.9,632.9) scale(2.25)' color='black'/>
	<use xlink:href='#gpPt5' transform='translate(680.0,639.3) scale(2.25)' color='black'/>
	<use xlink:href='#gpPt5' transform='translate(693.0,645.2) scale(2.25)' color='black'/>
	<use xlink:href='#gpPt5' transform='translate(706.1,650.6) scale(2.25)' color='black'/>
	<use xlink:href='#gpPt5' transform='translate(719.2,655.6) scale(2.25)' color='black'/>
	<use xlink:href='#gpPt5' transform='translate(732.2,660.3) scale(2.25)' color='black'/>
	<use xlink:href='#gpPt5' transform='translate(745.3,664.7) scale(2.25)' color='black'/>
	<use xlink:href='#gpPt5' transform='translate(758.4,668.5) scale(2.25)' color='black'/>
	<use xlink:href='#gpPt5' transform='translate(771.5,671.9) scale(2.25)' color='black'/>
	<use xlink:href='#gpPt5' transform='translate(784.5,674.9) scale(2.25)' color='black'/>
	<use xlink:href='#gpPt5' transform='translate(797.6,677.4) scale(2.25)' color='black'/>
	<use xlink:href='#gpPt5' transform='translate(810.7,679.5) scale(2.25)' color='black'/>
	<use xlink:href='#gpPt5' transform='translate(823.7,681.1) scale(2.25)' color='black'/>
	<use xlink:href='#gpPt5' transform='translate(836.8,682.2) scale(2.25)' color='black'/>
	<use xlink:href='#gpPt5' transform='translate(849.9,682.9) scale(2.25)' color='black'/>
	<use xlink:href='#gpPt5' transform='translate(862.9,683.0) scale(2.25)' color='black'/>
	<use xlink:href='#gpPt5' transform='translate(876.0,682.7) scale(2.25)' color='black'/>
	<use xlink:href='#gpPt5' transform='translate(889.1,682.0) scale(2.25)' color='black'/>
	<use xlink:href='#gpPt5' transform='translate(902.1,680.6) scale(2.25)' color='black'/>
	<use xlink:href='#gpPt5' transform='translate(915.2,678.8) scale(2.25)' color='black'/>
	<use xlink:href='#gpPt5' transform='translate(928.3,676.5) scale(2.25)' color='black'/>
	<use xlink:href='#gpPt5' transform='translate(941.3,673.8) scale(2.25)' color='black'/>
	<use xlink:href='#gpPt5' transform='translate(954.4,670.7) scale(2.25)' color='black'/>
	<use xlink:href='#gpPt5' transform='translate(967.5,667.0) scale(2.25)' color='black'/>
	<use xlink:href='#gpPt5' transform='translate(980.6,662.7) scale(2.25)' color='black'/>
	<use xlink:href='#gpPt5' transform='translate(993.6,658.3) scale(2.25)' color='black'/>
	<use xlink:href='#gpPt5' transform='translate(1006.7,653.8) scale(2.25)' color='black'/>
	<use xlink:href='#gpPt5' transform='translate(1019.8,648.9) scale(2.25)' color='black'/>
	<use xlink:href='#gpPt5' transform='translate(1032.8,643.8) scale(2.25)' color='black'/>
	<use xlink:href='#gpPt5' transform='translate(1045.9,638.5) scale(2.25)' color='black'/>
	<use xlink:href='#gpPt5' transform='translate(1059.0,633.6) scale(2.25)' color='black'/>
	<use xlink:href='#gpPt5' transform='translate(1072.0,629.2) scale(2.25)' color='black'/>
	<use xlink:href='#gpPt5' transform='translate(1085.1,625.1) scale(2.25)' color='black'/>
	<use xlink:href='#gpPt5' transform='translate(1098.2,621.1) scale(2.25)' color='black'/>
	<use xlink:href='#gpPt5' transform='translate(1111.2,617.8) scale(2.25)' color='black'/>
	<use xlink:href='#gpPt5' transform='translate(1124.3,615.2) scale(2.25)' color='black'/>
	<use xlink:href='#gpPt5' transform='translate(1137.4,613.5) scale(2.25)' color='black'/>
	<use xlink:href='#gpPt5' transform='translate(1150.4,613.2) scale(2.25)' color='black'/>
	<use xlink:href='#gpPt5' transform='translate(1163.5,615.0) scale(2.25)' color='black'/>
	<use xlink:href='#gpPt5' transform='translate(1176.6,619.1) scale(2.25)' color='black'/>
	<use xlink:href='#gpPt5' transform='translate(1189.7,625.1) scale(2.25)' color='black'/>
	<use xlink:href='#gpPt5' transform='translate(1202.7,630.5) scale(2.25)' color='black'/>
	<use xlink:href='#gpPt5' transform='translate(1215.8,630.7) scale(2.25)' color='black'/>
	<use xlink:href='#gpPt5' transform='translate(1228.9,623.5) scale(2.25)' color='black'/>
	<use xlink:href='#gpPt5' transform='translate(1241.9,612.8) scale(2.25)' color='black'/>
	<use xlink:href='#gpPt5' transform='translate(1255.0,607.0) scale(2.25)' color='black'/>
	<use xlink:href='#gpPt5' transform='translate(1217.3,72.1) scale(2.25)' color='black'/>
</g>
	</g>
	<g id="gnuplot_plot_2" ><title>2 (convex)</title>
<g fill="none" color="black" stroke="currentColor" stroke-width="1.00" stroke-linecap="butt" stroke-linejoin="miter">
	<g transform="translate(1187.9,94.0)" stroke="none" fill="black" font-family="Arial" font-size="12.00"  text-anchor="end">
		<text><tspan font-family="Arial" >2 (convex)</tspan></text>
	</g>
</g>
<g fill="none" color="black" stroke="currentColor" stroke-width="1.00" stroke-linecap="butt" stroke-linejoin="miter">
	<path stroke='rgb(  0, 158, 115)'  d='M1196.2,90.1 L1238.4,90.1 M78.8,54.1 L79.9,54.1 L81.1,54.2 L82.2,54.3 L83.4,54.5 L84.5,54.7
		L85.7,55.0 L86.8,55.3 L88.0,55.7 L89.1,56.1 L90.3,56.5 L91.4,57.0 L92.6,57.6 L93.7,58.2
		L94.9,58.8 L96.0,59.5 L97.2,60.3 L98.3,61.0 L99.5,61.9 L100.6,62.7 L101.8,63.6 L102.9,64.6
		L104.1,65.6 L105.2,66.6 L106.4,67.6 L107.5,68.7 L108.7,69.9 L109.8,71.1 L111.0,72.3 L112.1,73.5
		L113.3,74.8 L114.4,76.1 L115.6,77.4 L116.7,78.8 L117.9,80.2 L119.0,81.6 L120.2,83.1 L121.3,84.6
		L122.5,86.1 L123.6,87.6 L124.8,89.2 L125.9,90.8 L127.1,92.4 L128.2,94.0 L129.4,95.6 L130.5,97.3
		L131.7,99.0 L132.8,100.7 L134.0,102.4 L135.1,104.2 L136.3,105.9 L137.4,107.7 L138.6,109.5 L139.7,111.3
		L140.9,113.1 L142.0,115.0 L143.2,116.8 L144.3,118.7 L145.5,120.5 L146.6,122.4 L147.8,124.3 L148.9,126.2
		L150.1,128.1 L151.2,130.0 L152.4,131.9 L153.5,133.8 L154.7,135.7 L155.8,137.7 L157.0,139.6 L158.1,141.5
		L159.3,143.5 L160.4,145.4 L161.6,147.4 L162.7,149.3 L163.9,151.3 L165.0,153.3 L166.2,155.2 L167.3,157.2
		L168.5,159.1 L169.6,161.1 L170.8,163.1 L171.9,165.0 L173.1,167.0 L174.2,169.0 L175.4,170.9 L176.5,172.9
		L177.7,174.8 L178.8,176.8 L180.0,178.8 L181.1,180.7 L182.3,182.7 L183.4,184.6 L184.6,186.6 L185.7,188.5
		L186.9,190.4 L188.0,192.4 L189.2,194.3 L190.3,196.2 L191.5,198.1 L192.6,200.1 L193.8,202.0 L194.9,203.9
		L196.1,205.8 L197.2,207.7 L198.4,209.6 L199.5,211.5 L200.7,213.4 L201.8,215.3 L203.0,217.1 L204.1,219.0
		L205.3,220.9 L206.4,222.7 L207.6,224.6 L208.7,226.4 L209.9,228.3 L211.0,230.1 L212.2,231.9 L213.3,233.8
		L214.5,235.6 L215.6,237.4 L216.8,239.2 L217.9,241.0 L219.1,242.8 L220.2,244.6 L221.4,246.4 L222.5,248.2
		L223.7,249.9 L224.8,251.7 L226.0,253.4 L227.1,255.2 L228.3,256.9 L229.4,258.7 L230.6,260.4 L231.7,262.1
		L232.9,263.9 L234.0,265.6 L235.2,267.3 L236.3,269.0 L237.5,270.7 L238.6,272.4 L239.8,274.0 L240.9,275.7
		L242.1,277.4 L243.2,279.0 L244.4,280.7 L245.5,282.3 L246.7,284.0 L247.8,285.6 L249.0,287.3 L250.1,288.9
		L251.3,290.5 L252.4,292.1 L253.6,293.7 L254.7,295.3 L255.9,296.9 L257.0,298.5 L258.2,300.1 L259.3,301.6
		L260.5,303.2 L261.6,304.8 L262.8,306.3 L263.9,307.9 L265.1,309.4 L266.2,310.9 L267.4,312.5 L268.5,314.0
		L269.7,315.5 L270.8,317.0 L272.0,318.5 L273.1,320.0 L274.3,321.5 L275.4,323.0 L276.6,324.5 L277.7,326.0
		L278.9,327.4 L280.0,328.9 L281.2,330.4 L282.3,331.8 L283.5,333.2 L284.6,334.7 L285.8,336.1 L286.9,337.6
		L288.1,339.0 L289.2,340.4 L290.4,341.8 L291.5,343.2 L292.7,344.6 L293.8,346.0 L295.0,347.4 L296.1,348.8
		L297.3,350.1 L298.4,351.5 L299.6,352.9 L300.7,354.2 L301.9,355.6 L303.0,357.0 L304.2,358.3 L305.3,359.6
		L306.5,361.0 L307.6,362.3 L308.8,363.6 L309.9,364.9 L311.1,366.3 L312.2,367.6 L313.4,368.9 L314.5,370.2
		L315.6,371.5 L316.8,372.7 L317.9,374.0 L319.1,375.3 L320.2,376.6 L321.4,377.8 L322.5,379.1 L323.7,380.4
		L324.8,381.6 L326.0,382.9 L327.1,384.1 L328.3,385.3 L329.4,386.6 L330.6,387.8 L331.7,389.0 L332.9,390.2
		L334.0,391.5 L335.2,392.7 L336.3,393.9 L337.5,395.1 L338.6,396.3 L339.8,397.5 L340.9,398.7 L342.1,399.8
		L343.2,401.0 L344.4,402.2 L345.5,403.4 L346.7,404.5 L347.8,405.7 L349.0,406.8 L350.1,408.0 L351.3,409.1
		L352.4,410.3 L353.6,411.4 L354.7,412.5 L355.9,413.7 L357.0,414.8 L358.2,415.9 L359.3,417.0 L360.5,418.1
		L361.6,419.3 L362.8,420.4 L363.9,421.5 L365.1,422.6 L366.2,423.6 L367.4,424.7 L368.5,425.8 L369.7,426.9
		L370.8,428.0 L372.0,429.0 L373.1,430.1 L374.3,431.2 L375.4,432.2 L376.6,433.3 L377.7,434.3 L378.9,435.4
		L380.0,436.4 L381.2,437.5 L382.3,438.5 L383.5,439.6 L384.6,440.6 L385.8,441.6 L386.9,442.6 L388.1,443.6
		L389.2,444.7 L390.4,445.7 L391.5,446.7 L392.7,447.7 L393.8,448.7 L395.0,449.7 L396.1,450.7 L397.3,451.7
		L398.4,452.6 L399.6,453.6 L400.7,454.6 L401.9,455.6 L403.0,456.6 L404.2,457.5 L405.3,458.5 L406.5,459.5
		L407.6,460.4 L408.8,461.4 L409.9,462.3 L411.1,463.3 L412.2,464.2 L413.4,465.1 L414.5,466.1 L415.7,467.0
		L416.8,468.0 L418.0,468.9 L419.1,469.8 L420.3,470.7 L421.4,471.6 L422.6,472.6 L423.7,473.5 L424.9,474.4
		L426.0,475.3 L427.2,476.2 L428.3,477.1 L429.5,478.0 L430.6,478.9 L431.8,479.8 L432.9,480.7 L434.1,481.5
		L435.2,482.4 L436.4,483.3 L437.5,484.2 L438.7,485.0 L439.8,485.9 L441.0,486.8 L442.1,487.6 L443.3,488.5
		L444.4,489.4 L445.6,490.2 L446.7,491.1 L447.9,491.9 L449.0,492.8 L450.2,493.6 L451.3,494.4 L452.5,495.3
		L453.6,496.1 L454.8,496.9 L455.9,497.8 L457.1,498.6 L458.2,499.4 L459.4,500.2 L460.5,501.1 L461.7,501.9
		L462.8,502.7 L464.0,503.5 L465.1,504.3 L466.3,505.1 L467.4,505.9 L468.6,506.7 L469.7,507.5 L470.9,508.3
		L472.0,509.1 L473.2,509.9 L474.3,510.6 L475.5,511.4 L476.6,512.2 L477.8,513.0 L478.9,513.8 L480.1,514.5
		L481.2,515.3 L482.4,516.1 L483.5,516.8 L484.7,517.6 L485.8,518.3 L487.0,519.1 L488.1,519.9 L489.3,520.6
		L490.4,521.4 L491.6,522.1 L492.7,522.8 L493.9,523.6 L495.0,524.3 L496.2,525.1 L497.3,525.8 L498.5,526.5
		L499.6,527.3 L500.8,528.0 L501.9,528.7 L503.1,529.4 L504.2,530.1 L505.4,530.9 L506.5,531.6 L507.7,532.3
		L508.8,533.0 L510.0,533.7 L511.1,534.4 L512.3,535.1 L513.4,535.8 L514.6,536.5 L515.7,537.2 L516.9,537.9
		L518.0,538.6 L519.2,539.3 L520.3,540.0 L521.5,540.7 L522.6,541.3 L523.8,542.0 L524.9,542.7 L526.1,543.4
		L527.2,544.0 L528.4,544.7 L529.5,545.4 L530.7,546.1 L531.8,546.7 L533.0,547.4 L534.1,548.0 L535.3,548.7
		L536.4,549.4 L537.6,550.0 L538.7,550.7 L539.9,551.3 L541.0,552.0 L542.2,552.6 L543.3,553.2 L544.5,553.9
		L545.6,554.5 L546.8,555.2 L547.9,555.8 L549.1,556.4 L550.2,557.1 L551.3,557.7 L552.5,558.3 L553.6,558.9
		L554.8,559.6 L555.9,560.2 L557.1,560.8 L558.2,561.4 L559.4,562.0 L560.5,562.6 L561.7,563.2 L562.8,563.9
		L564.0,564.5 L565.1,565.1 L566.3,565.7 L567.4,566.3 L568.6,566.9 L569.7,567.5 L570.9,568.1 L572.0,568.6
		L573.2,569.2 L574.3,569.8 L575.5,570.4 L576.6,571.0 L577.8,571.6 L578.9,572.2 L580.1,572.7 L581.2,573.3
		L582.4,573.9 L583.5,574.5 L584.7,575.0 L585.8,575.6 L587.0,576.2 L588.1,576.7 L589.3,577.3 L590.4,577.8
		L591.6,578.4 L592.7,579.0 L593.9,579.5 L595.0,580.1 L596.2,580.6 L597.3,581.2 L598.5,581.7 L599.6,582.3
		L600.8,582.8 L601.9,583.4 L603.1,583.9 L604.2,584.4 L605.4,585.0 L606.5,585.5 L607.7,586.0 L608.8,586.6
		L610.0,587.1 L611.1,587.6 L612.3,588.2 L613.4,588.7 L614.6,589.2 L615.7,589.7 L616.9,590.2 L618.0,590.8
		L619.2,591.3 L620.3,591.8 L621.5,592.3 L622.6,592.8 L623.8,593.3 L624.9,593.8 L626.1,594.3 L627.2,594.8
		L628.4,595.3 L629.5,595.8 L630.7,596.3 L631.8,596.8 L633.0,597.3 L634.1,597.8 L635.3,598.3 L636.4,598.8
		L637.6,599.3 L638.7,599.8 L639.9,600.2 L641.0,600.7 L642.2,601.2 L643.3,601.7 L644.5,602.2 L645.6,602.6
		L646.8,603.1 L647.9,603.6 L649.1,604.0 L650.2,604.5 L651.4,605.0 L652.5,605.4 L653.7,605.9 L654.8,606.4
		L656.0,606.8 L657.1,607.3 L658.3,607.7 L659.4,608.2 L660.6,608.6 L661.7,609.1 L662.9,609.5 L664.0,610.0
		L665.2,610.4 L666.3,610.9 L667.5,611.3 L668.6,611.8 L669.8,612.2 L670.9,612.6 L672.1,613.1 L673.2,613.5
		L674.4,613.9 L675.5,614.4 L676.7,614.8 L677.8,615.2 L679.0,615.7 L680.1,616.1 L681.3,616.5 L682.4,616.9
		L683.6,617.3 L684.7,617.8 L685.9,618.2 L687.0,618.6 L688.2,619.0 L689.3,619.4 L690.5,619.8 L691.6,620.2
		L692.8,620.6 L693.9,621.0 L695.1,621.4 L696.2,621.8 L697.4,622.2 L698.5,622.6 L699.7,623.0 L700.8,623.4
		L702.0,623.8 L703.1,624.2 L704.3,624.6 L705.4,625.0 L706.6,625.4 L707.7,625.8 L708.9,626.1 L710.0,626.5
		L711.2,626.9 L712.3,627.3 L713.5,627.7 L714.6,628.0 L715.8,628.4 L716.9,628.8 L718.1,629.1 L719.2,629.5
		L720.4,629.9 L721.5,630.2 L722.7,630.6 L723.8,631.0 L725.0,631.3 L726.1,631.7 L727.3,632.0 L728.4,632.4
		L729.6,632.8 L730.7,633.1 L731.9,633.5 L733.0,633.8 L734.2,634.2 L735.3,634.5 L736.5,634.8 L737.6,635.2
		L738.8,635.5 L739.9,635.9 L741.1,636.2 L742.2,636.5 L743.4,636.9 L744.5,637.2 L745.7,637.5 L746.8,637.9
		L748.0,638.2 L749.1,638.5 L750.3,638.8 L751.4,639.2 L752.6,639.5 L753.7,639.8 L754.9,640.1 L756.0,640.4
		L757.2,640.7 L758.3,641.1 L759.5,641.4 L760.6,641.7 L761.8,642.0 L762.9,642.3 L764.1,642.6 L765.2,642.9
		L766.4,643.2 L767.5,643.5 L768.7,643.8 L769.8,644.1 L771.0,644.4 L772.1,644.7 L773.3,645.0 L774.4,645.3
		L775.6,645.5 L776.7,645.8 L777.9,646.1 L779.0,646.4 L780.2,646.7 L781.3,647.0 L782.5,647.2 L783.6,647.5
		L784.7,647.8 L785.9,648.1 L787.0,648.3 L788.2,648.6 L789.3,648.9 L790.5,649.1 L791.6,649.4 L792.8,649.7
		L793.9,649.9 L795.1,650.2 L796.2,650.4 L797.4,650.7 L798.5,650.9 L799.7,651.2 L800.8,651.4 L802.0,651.7
		L803.1,651.9 L804.3,652.2 L805.4,652.4 L806.6,652.7 L807.7,652.9 L808.9,653.1 L810.0,653.4 L811.2,653.6
		L812.3,653.8 L813.5,654.1 L814.6,654.3 L815.8,654.5 L816.9,654.8 L818.1,655.0 L819.2,655.2 L820.4,655.4
		L821.5,655.6 L822.7,655.9 L823.8,656.1 L825.0,656.3 L826.1,656.5 L827.3,656.7 L828.4,656.9 L829.6,657.1
		L830.7,657.3 L831.9,657.5 L833.0,657.7 L834.2,657.9 L835.3,658.1 L836.5,658.3 L837.6,658.5 L838.8,658.7
		L839.9,658.9 L841.1,659.1 L842.2,659.2 L843.4,659.4 L844.5,659.6 L845.7,659.8 L846.8,660.0 L848.0,660.1
		L849.1,660.3 L850.3,660.5 L851.4,660.7 L852.6,660.8 L853.7,661.0 L854.9,661.1 L856.0,661.3 L857.2,661.5
		L858.3,661.6 L859.5,661.8 L860.6,661.9 L861.8,662.1 L862.9,662.2 L864.1,662.4 L865.2,662.5 L866.4,662.7
		L867.5,662.8 L868.7,662.9 L869.8,663.1 L871.0,663.2 L872.1,663.4 L873.3,663.5 L874.4,663.6 L875.6,663.7
		L876.7,663.9 L877.9,664.0 L879.0,664.1 L880.2,664.2 L881.3,664.3 L882.5,664.5 L883.6,664.6 L884.8,664.7
		L885.9,664.8 L887.1,664.9 L888.2,665.0 L889.4,665.1 L890.5,665.2 L891.7,665.3 L892.8,665.4 L894.0,665.5
		L895.1,665.6 L896.3,665.7 L897.4,665.7 L898.6,665.8 L899.7,665.9 L900.9,666.0 L902.0,666.1 L903.2,666.1
		L904.3,666.2 L905.5,666.3 L906.6,666.4 L907.8,666.4 L908.9,666.5 L910.1,666.5 L911.2,666.6 L912.4,666.7
		L913.5,666.7 L914.7,666.8 L915.8,666.8 L917.0,666.9 L918.1,666.9 L919.3,666.9 L920.4,667.0 L921.6,667.0
		L922.7,667.1 L923.9,667.1 L925.0,667.1 L926.2,667.1 L927.3,667.2 L928.5,667.2 L929.6,667.2 L930.8,667.2
		L931.9,667.2 L933.1,667.3 L934.2,667.3 L935.4,667.3 L936.5,667.3 L937.7,667.3 L938.8,667.3 L940.0,667.3
		L941.1,667.3 L942.3,667.3 L943.4,667.3 L944.6,667.3 L945.7,667.2 L946.9,667.2 L948.0,667.2 L949.2,667.2
		L950.3,667.2 L951.5,667.1 L952.6,667.1 L953.8,667.1 L954.9,667.0 L956.1,667.0 L957.2,666.9 L958.4,666.9
		L959.5,666.9 L960.7,666.8 L961.8,666.8 L963.0,666.7 L964.1,666.6 L965.3,666.6 L966.4,666.5 L967.6,666.5
		L968.7,666.4 L969.9,666.3 L971.0,666.2 L972.2,666.2 L973.3,666.1 L974.5,666.0 L975.6,665.9 L976.8,665.8
		L977.9,665.7 L979.1,665.6 L980.2,665.5 L981.4,665.4 L982.5,665.3 L983.7,665.2 L984.8,665.1 L986.0,665.0
		L987.1,664.9 L988.3,664.8 L989.4,664.7 L990.6,664.6 L991.7,664.4 L992.9,664.3 L994.0,664.2 L995.2,664.0
		L996.3,663.9 L997.5,663.8 L998.6,663.6 L999.8,663.5 L1000.9,663.3 L1002.1,663.2 L1003.2,663.0 L1004.4,662.9
		L1005.5,662.7 L1006.7,662.5 L1007.8,662.4 L1009.0,662.2 L1010.1,662.0 L1011.3,661.9 L1012.4,661.7 L1013.6,661.5
		L1014.7,661.3 L1015.9,661.1 L1017.0,660.9 L1018.2,660.8 L1019.3,660.6 L1020.4,660.4 L1021.6,660.2 L1022.7,660.0
		L1023.9,659.8 L1025.0,659.5 L1026.2,659.3 L1027.3,659.1 L1028.5,658.9 L1029.6,658.7 L1030.8,658.5 L1031.9,658.2
		L1033.1,658.0 L1034.2,657.8 L1035.4,657.5 L1036.5,657.3 L1037.7,657.0 L1038.8,656.8 L1040.0,656.6 L1041.1,656.3
		L1042.3,656.1 L1043.4,655.8 L1044.6,655.5 L1045.7,655.3 L1046.9,655.0 L1048.0,654.7 L1049.2,654.5 L1050.3,654.2
		L1051.5,653.9 L1052.6,653.6 L1053.8,653.4 L1054.9,653.1 L1056.1,652.8 L1057.2,652.5 L1058.4,652.2 L1059.5,651.9
		L1060.7,651.6 L1061.8,651.3 L1063.0,651.0 L1064.1,650.7 L1065.3,650.4 L1066.4,650.1 L1067.6,649.8 L1068.7,649.5
		L1069.9,649.2 L1071.0,648.8 L1072.2,648.5 L1073.3,648.2 L1074.5,647.9 L1075.6,647.5 L1076.8,647.2 L1077.9,646.9
		L1079.1,646.5 L1080.2,646.2 L1081.4,645.8 L1082.5,645.5 L1083.7,645.2 L1084.8,644.8 L1086.0,644.5 L1087.1,644.1
		L1088.3,643.7 L1089.4,643.4 L1090.6,643.0 L1091.7,642.7 L1092.9,642.3 L1094.0,641.9 L1095.2,641.6 L1096.3,641.2
		L1097.5,640.8 L1098.6,640.5 L1099.8,640.1 L1100.9,639.7 L1102.1,639.4 L1103.2,639.0 L1104.4,638.6 L1105.5,638.2
		L1106.7,637.8 L1107.8,637.4 L1109.0,637.1 L1110.1,636.7 L1111.3,636.3 L1112.4,635.9 L1113.6,635.5 L1114.7,635.1
		L1115.9,634.7 L1117.0,634.3 L1118.2,633.9 L1119.3,633.6 L1120.5,633.2 L1121.6,632.8 L1122.8,632.4 L1123.9,632.0
		L1125.1,631.6 L1126.2,631.2 L1127.4,630.8 L1128.5,630.4 L1129.7,630.0 L1130.8,629.6 L1132.0,629.2 L1133.1,628.8
		L1134.3,628.4 L1135.4,628.0 L1136.6,627.6 L1137.7,627.2 L1138.9,626.8 L1140.0,626.4 L1141.2,626.0 L1142.3,625.6
		L1143.5,625.2 L1144.6,624.8 L1145.8,624.4 L1146.9,624.0 L1148.1,623.6 L1149.2,623.2 L1150.4,622.8 L1151.5,622.4
		L1152.7,622.0 L1153.8,621.7 L1155.0,621.3 L1156.1,620.9 L1157.3,620.5 L1158.4,620.1 L1159.6,619.7 L1160.7,619.3
		L1161.9,619.0 L1163.0,618.6 L1164.2,618.2 L1165.3,617.8 L1166.5,617.5 L1167.6,617.1 L1168.8,616.7 L1169.9,616.4
		L1171.1,616.0 L1172.2,615.6 L1173.4,615.3 L1174.5,614.9 L1175.7,614.6 L1176.8,614.2 L1178.0,613.9 L1179.1,613.5
		L1180.3,613.2 L1181.4,612.9 L1182.6,612.5 L1183.7,612.2 L1184.9,611.9 L1186.0,611.5 L1187.2,611.2 L1188.3,610.9
		L1189.5,610.6 L1190.6,610.3 L1191.8,610.0 L1192.9,609.7 L1194.1,609.4 L1195.2,609.1 L1196.4,608.8 L1197.5,608.5
		L1198.7,608.2 L1199.8,607.9 L1201.0,607.7 L1202.1,607.4 L1203.3,607.1 L1204.4,606.9 L1205.6,606.6 L1206.7,606.4
		L1207.9,606.1 L1209.0,605.9 L1210.2,605.7 L1211.3,605.4 L1212.5,605.2 L1213.6,605.0 L1214.8,604.8 L1215.9,604.6
		L1217.1,604.4 L1218.2,604.2 L1219.4,604.0 L1220.5,603.8 L1221.7,603.6 L1222.8,603.4 L1224.0,603.3 L1225.1,603.1
		L1226.3,602.9 L1227.4,602.8 L1228.6,602.6 L1229.7,602.5 L1230.9,602.4 L1232.0,602.2 L1233.2,602.1 L1234.3,602.0
		L1235.5,601.9 L1236.6,601.8 L1237.8,601.7 L1238.9,601.6 L1240.1,601.5 L1241.2,601.4 L1242.4,601.3 L1243.5,601.3
		L1244.7,601.2 L1245.8,601.2 L1247.0,601.1 L1248.1,601.1 L1249.3,601.0 L1250.4,601.0 L1251.6,601.0 L1252.7,601.0
		L1253.9,601.0 L1255.0,601.0  '/></g>
	</g>
	<g id="gnuplot_plot_3" ><title>4 (both)</title>
<g fill="none" color="black" stroke="currentColor" stroke-width="1.00" stroke-linecap="butt" stroke-linejoin="miter">
	<g transform="translate(1187.9,112.0)" stroke="none" fill="black" font-family="Arial" font-size="12.00"  text-anchor="end">
		<text><tspan font-family="Arial" >4 (both)</tspan></text>
	</g>
</g>
<g fill="none" color="black" stroke="currentColor" stroke-width="1.00" stroke-linecap="butt" stroke-linejoin="miter">
	<path stroke='rgb( 86, 180, 233)'  d='M1196.2,108.1 L1238.4,108.1 M78.8,61.7 L79.9,61.8 L81.1,61.8 L82.2,61.9 L83.4,62.0 L84.5,62.2
		L85.7,62.4 L86.8,62.7 L88.0,62.9 L89.1,63.3 L90.3,63.6 L91.4,64.0 L92.6,64.4 L93.7,64.9
		L94.9,65.4 L96.0,65.9 L97.2,66.5 L98.3,67.1 L99.5,67.8 L100.6,68.4 L101.8,69.1 L102.9,69.9
		L104.1,70.6 L105.2,71.4 L106.4,72.3 L107.5,73.1 L108.7,74.0 L109.8,74.9 L111.0,75.9 L112.1,76.9
		L113.3,77.9 L114.4,78.9 L115.6,80.0 L116.7,81.0 L117.9,82.2 L119.0,83.3 L120.2,84.4 L121.3,85.6
		L122.5,86.8 L123.6,88.1 L124.8,89.3 L125.9,90.6 L127.1,91.8 L128.2,93.2 L129.4,94.5 L130.5,95.8
		L131.7,97.2 L132.8,98.6 L134.0,100.0 L135.1,101.4 L136.3,102.8 L137.4,104.2 L138.6,105.7 L139.7,107.2
		L140.9,108.6 L142.0,110.1 L143.2,111.6 L144.3,113.2 L145.5,114.7 L146.6,116.2 L147.8,117.8 L148.9,119.4
		L150.1,120.9 L151.2,122.5 L152.4,124.1 L153.5,125.7 L154.7,127.3 L155.8,128.9 L157.0,130.5 L158.1,132.2
		L159.3,133.8 L160.4,135.4 L161.6,137.1 L162.7,138.7 L163.9,140.4 L165.0,142.0 L166.2,143.7 L167.3,145.4
		L168.5,147.0 L169.6,148.7 L170.8,150.4 L171.9,152.1 L173.1,153.8 L174.2,155.5 L175.4,157.1 L176.5,158.8
		L177.7,160.5 L178.8,162.2 L180.0,163.9 L181.1,165.6 L182.3,167.3 L183.4,169.0 L184.6,170.7 L185.7,172.4
		L186.9,174.1 L188.0,175.8 L189.2,177.5 L190.3,179.2 L191.5,180.8 L192.6,182.5 L193.8,184.2 L194.9,185.9
		L196.1,187.6 L197.2,189.3 L198.4,191.0 L199.5,192.7 L200.7,194.3 L201.8,196.0 L203.0,197.7 L204.1,199.4
		L205.3,201.0 L206.4,202.7 L207.6,204.4 L208.7,206.0 L209.9,207.7 L211.0,209.4 L212.2,211.0 L213.3,212.7
		L214.5,214.3 L215.6,216.0 L216.8,217.6 L217.9,219.3 L219.1,220.9 L220.2,222.5 L221.4,224.2 L222.5,225.8
		L223.7,227.4 L224.8,229.0 L226.0,230.6 L227.1,232.3 L228.3,233.9 L229.4,235.5 L230.6,237.1 L231.7,238.7
		L232.9,240.3 L234.0,241.8 L235.2,243.4 L236.3,245.0 L237.5,246.6 L238.6,248.2 L239.8,249.7 L240.9,251.3
		L242.1,252.9 L243.2,254.4 L244.4,256.0 L245.5,257.5 L246.7,259.1 L247.8,260.6 L249.0,262.1 L250.1,263.7
		L251.3,265.2 L252.4,266.7 L253.6,268.2 L254.7,269.8 L255.9,271.3 L257.0,272.8 L258.2,274.3 L259.3,275.8
		L260.5,277.3 L261.6,278.8 L262.8,280.2 L263.9,281.7 L265.1,283.2 L266.2,284.7 L267.4,286.1 L268.5,287.6
		L269.7,289.1 L270.8,290.5 L272.0,292.0 L273.1,293.4 L274.3,294.9 L275.4,296.3 L276.6,297.7 L277.7,299.2
		L278.9,300.6 L280.0,302.0 L281.2,303.4 L282.3,304.9 L283.5,306.3 L284.6,307.7 L285.8,309.1 L286.9,310.5
		L288.1,311.9 L289.2,313.3 L290.4,314.6 L291.5,316.0 L292.7,317.4 L293.8,318.8 L295.0,320.1 L296.1,321.5
		L297.3,322.9 L298.4,324.2 L299.6,325.6 L300.7,326.9 L301.9,328.3 L303.0,329.6 L304.2,331.0 L305.3,332.3
		L306.5,333.6 L307.6,334.9 L308.8,336.3 L309.9,337.6 L311.1,338.9 L312.2,340.2 L313.4,341.5 L314.5,342.8
		L315.6,344.1 L316.8,345.4 L317.9,346.7 L319.1,348.0 L320.2,349.3 L321.4,350.6 L322.5,351.9 L323.7,353.1
		L324.8,354.4 L326.0,355.7 L327.1,356.9 L328.3,358.2 L329.4,359.4 L330.6,360.7 L331.7,362.0 L332.9,363.2
		L334.0,364.4 L335.2,365.7 L336.3,366.9 L337.5,368.2 L338.6,369.4 L339.8,370.6 L340.9,371.8 L342.1,373.1
		L343.2,374.3 L344.4,375.5 L345.5,376.7 L346.7,377.9 L347.8,379.1 L349.0,380.3 L350.1,381.5 L351.3,382.7
		L352.4,383.9 L353.6,385.1 L354.7,386.3 L355.9,387.4 L357.0,388.6 L358.2,389.8 L359.3,391.0 L360.5,392.1
		L361.6,393.3 L362.8,394.5 L363.9,395.6 L365.1,396.8 L366.2,397.9 L367.4,399.1 L368.5,400.2 L369.7,401.4
		L370.8,402.5 L372.0,403.7 L373.1,404.8 L374.3,405.9 L375.4,407.1 L376.6,408.2 L377.7,409.3 L378.9,410.5
		L380.0,411.6 L381.2,412.7 L382.3,413.8 L383.5,414.9 L384.6,416.0 L385.8,417.2 L386.9,418.3 L388.1,419.4
		L389.2,420.5 L390.4,421.6 L391.5,422.7 L392.7,423.7 L393.8,424.8 L395.0,425.9 L396.1,427.0 L397.3,428.1
		L398.4,429.2 L399.6,430.2 L400.7,431.3 L401.9,432.4 L403.0,433.5 L404.2,434.5 L405.3,435.6 L406.5,436.7
		L407.6,437.7 L408.8,438.8 L409.9,439.8 L411.1,440.9 L412.2,441.9 L413.4,443.0 L414.5,444.0 L415.7,445.1
		L416.8,446.1 L418.0,447.2 L419.1,448.2 L420.3,449.2 L421.4,450.3 L422.6,451.3 L423.7,452.3 L424.9,453.4
		L426.0,454.4 L427.2,455.4 L428.3,456.4 L429.5,457.4 L430.6,458.5 L431.8,459.5 L432.9,460.5 L434.1,461.5
		L435.2,462.5 L436.4,463.5 L437.5,464.5 L438.7,465.5 L439.8,466.5 L441.0,467.5 L442.1,468.5 L443.3,469.5
		L444.4,470.5 L445.6,471.5 L446.7,472.5 L447.9,473.5 L449.0,474.5 L450.2,475.4 L451.3,476.4 L452.5,477.4
		L453.6,478.4 L454.8,479.4 L455.9,480.3 L457.1,481.3 L458.2,482.3 L459.4,483.2 L460.5,484.2 L461.7,485.2
		L462.8,486.1 L464.0,487.1 L465.1,488.0 L466.3,489.0 L467.4,490.0 L468.6,490.9 L469.7,491.9 L470.9,492.8
		L472.0,493.8 L473.2,494.7 L474.3,495.7 L475.5,496.6 L476.6,497.5 L477.8,498.5 L478.9,499.4 L480.1,500.4
		L481.2,501.3 L482.4,502.2 L483.5,503.2 L484.7,504.1 L485.8,505.0 L487.0,505.9 L488.1,506.9 L489.3,507.8
		L490.4,508.7 L491.6,509.6 L492.7,510.5 L493.9,511.5 L495.0,512.4 L496.2,513.3 L497.3,514.2 L498.5,515.1
		L499.6,516.0 L500.8,516.9 L501.9,517.8 L503.1,518.7 L504.2,519.6 L505.4,520.5 L506.5,521.4 L507.7,522.3
		L508.8,523.2 L510.0,524.1 L511.1,525.0 L512.3,525.9 L513.4,526.8 L514.6,527.7 L515.7,528.6 L516.9,529.5
		L518.0,530.4 L519.2,531.2 L520.3,532.1 L521.5,533.0 L522.6,533.9 L523.8,534.8 L524.9,535.6 L526.1,536.5
		L527.2,537.4 L528.4,538.3 L529.5,539.1 L530.7,540.0 L531.8,540.9 L533.0,541.7 L534.1,542.6 L535.3,543.5
		L536.4,544.3 L537.6,545.2 L538.7,546.0 L539.9,546.9 L541.0,547.7 L542.2,548.6 L543.3,549.4 L544.5,550.3
		L545.6,551.1 L546.8,552.0 L547.9,552.8 L549.1,553.7 L550.2,554.5 L551.3,555.4 L552.5,556.2 L553.6,557.0
		L554.8,557.9 L555.9,558.7 L557.1,559.5 L558.2,560.4 L559.4,561.2 L560.5,562.0 L561.7,562.9 L562.8,563.7
		L564.0,564.5 L565.1,565.3 L566.3,566.2 L567.4,567.0 L568.6,567.8 L569.7,568.6 L570.9,569.4 L572.0,570.3
		L573.2,571.1 L574.3,571.9 L575.5,572.7 L576.6,573.5 L577.8,574.3 L578.9,575.1 L580.1,575.9 L581.2,576.7
		L582.4,577.5 L583.5,578.3 L584.7,579.1 L585.8,579.9 L587.0,580.7 L588.1,581.5 L589.3,582.3 L590.4,583.1
		L591.6,583.8 L592.7,584.6 L593.9,585.4 L595.0,586.2 L596.2,587.0 L597.3,587.8 L598.5,588.5 L599.6,589.3
		L600.8,590.1 L601.9,590.8 L603.1,591.6 L604.2,592.4 L605.4,593.1 L606.5,593.9 L607.7,594.7 L608.8,595.4
		L610.0,596.2 L611.1,597.0 L612.3,597.7 L613.4,598.5 L614.6,599.2 L615.7,600.0 L616.9,600.7 L618.0,601.5
		L619.2,602.2 L620.3,602.9 L621.5,603.7 L622.6,604.4 L623.8,605.1 L624.9,605.9 L626.1,606.6 L627.2,607.3
		L628.4,608.1 L629.5,608.8 L630.7,609.5 L631.8,610.2 L633.0,611.0 L634.1,611.7 L635.3,612.4 L636.4,613.1
		L637.6,613.8 L638.7,614.5 L639.9,615.2 L641.0,615.9 L642.2,616.6 L643.3,617.3 L644.5,618.0 L645.6,618.7
		L646.8,619.4 L647.9,620.1 L649.1,620.8 L650.2,621.5 L651.4,622.1 L652.5,622.8 L653.7,623.5 L654.8,624.2
		L656.0,624.8 L657.1,625.5 L658.3,626.2 L659.4,626.8 L660.6,627.5 L661.7,628.2 L662.9,628.8 L664.0,629.5
		L665.2,630.1 L666.3,630.8 L667.5,631.4 L668.6,632.1 L669.8,632.7 L670.9,633.3 L672.1,634.0 L673.2,634.6
		L674.4,635.2 L675.5,635.9 L676.7,636.5 L677.8,637.1 L679.0,637.7 L680.1,638.3 L681.3,638.9 L682.4,639.6
		L683.6,640.2 L684.7,640.8 L685.9,641.4 L687.0,641.9 L688.2,642.5 L689.3,643.1 L690.5,643.7 L691.6,644.3
		L692.8,644.9 L693.9,645.5 L695.1,646.0 L696.2,646.6 L697.4,647.2 L698.5,647.7 L699.7,648.3 L700.8,648.8
		L702.0,649.4 L703.1,649.9 L704.3,650.5 L705.4,651.0 L706.6,651.6 L707.7,652.1 L708.9,652.6 L710.0,653.1
		L711.2,653.7 L712.3,654.2 L713.5,654.7 L714.6,655.2 L715.8,655.7 L716.9,656.2 L718.1,656.7 L719.2,657.2
		L720.4,657.7 L721.5,658.2 L722.7,658.7 L723.8,659.2 L725.0,659.6 L726.1,660.1 L727.3,660.6 L728.4,661.0
		L729.6,661.5 L730.7,662.0 L731.9,662.4 L733.0,662.9 L734.2,663.3 L735.3,663.7 L736.5,664.2 L737.6,664.6
		L738.8,665.0 L739.9,665.5 L741.1,665.9 L742.2,666.3 L743.4,666.7 L744.5,667.1 L745.7,667.5 L746.8,667.9
		L748.0,668.3 L749.1,668.7 L750.3,669.0 L751.4,669.4 L752.6,669.8 L753.7,670.2 L754.9,670.5 L756.0,670.9
		L757.2,671.2 L758.3,671.6 L759.5,671.9 L760.6,672.3 L761.8,672.6 L762.9,672.9 L764.1,673.3 L765.2,673.6
		L766.4,673.9 L767.5,674.2 L768.7,674.5 L769.8,674.8 L771.0,675.1 L772.1,675.4 L773.3,675.7 L774.4,676.0
		L775.6,676.3 L776.7,676.5 L777.9,676.8 L779.0,677.1 L780.2,677.3 L781.3,677.6 L782.5,677.8 L783.6,678.1
		L784.7,678.3 L785.9,678.5 L787.0,678.8 L788.2,679.0 L789.3,679.2 L790.5,679.4 L791.6,679.6 L792.8,679.8
		L793.9,680.0 L795.1,680.2 L796.2,680.4 L797.4,680.6 L798.5,680.8 L799.7,681.0 L800.8,681.1 L802.0,681.3
		L803.1,681.5 L804.3,681.6 L805.4,681.8 L806.6,681.9 L807.7,682.0 L808.9,682.2 L810.0,682.3 L811.2,682.4
		L812.3,682.5 L813.5,682.7 L814.6,682.8 L815.8,682.9 L816.9,683.0 L818.1,683.1 L819.2,683.2 L820.4,683.3
		L821.5,683.3 L822.7,683.4 L823.8,683.5 L825.0,683.6 L826.1,683.6 L827.3,683.7 L828.4,683.7 L829.6,683.8
		L830.7,683.8 L831.9,683.9 L833.0,683.9 L834.2,683.9 L835.3,683.9 L836.5,684.0 L837.6,684.0 L838.8,684.0
		L839.9,684.0 L841.1,684.0 L842.2,684.0 L843.4,684.0 L844.5,684.0 L845.7,684.0 L846.8,683.9 L848.0,683.9
		L849.1,683.9 L850.3,683.9 L851.4,683.8 L852.6,683.8 L853.7,683.7 L854.9,683.7 L856.0,683.6 L857.2,683.6
		L858.3,683.5 L859.5,683.4 L860.6,683.4 L861.8,683.3 L862.9,683.2 L864.1,683.1 L865.2,683.1 L866.4,683.0
		L867.5,682.9 L868.7,682.8 L869.8,682.7 L871.0,682.6 L872.1,682.5 L873.3,682.3 L874.4,682.2 L875.6,682.1
		L876.7,682.0 L877.9,681.9 L879.0,681.7 L880.2,681.6 L881.3,681.5 L882.5,681.3 L883.6,681.2 L884.8,681.0
		L885.9,680.9 L887.1,680.7 L888.2,680.6 L889.4,680.4 L890.5,680.2 L891.7,680.1 L892.8,679.9 L894.0,679.7
		L895.1,679.6 L896.3,679.4 L897.4,679.2 L898.6,679.0 L899.7,678.8 L900.9,678.6 L902.0,678.4 L903.2,678.2
		L904.3,678.0 L905.5,677.8 L906.6,677.6 L907.8,677.4 L908.9,677.2 L910.1,677.0 L911.2,676.8 L912.4,676.6
		L913.5,676.4 L914.7,676.1 L915.8,675.9 L917.0,675.7 L918.1,675.5 L919.3,675.2 L920.4,675.0 L921.6,674.8
		L922.7,674.5 L923.9,674.3 L925.0,674.0 L926.2,673.8 L927.3,673.6 L928.5,673.3 L929.6,673.1 L930.8,672.8
		L931.9,672.6 L933.1,672.3 L934.2,672.0 L935.4,671.8 L936.5,671.5 L937.7,671.3 L938.8,671.0 L940.0,670.7
		L941.1,670.5 L942.3,670.2 L943.4,669.9 L944.6,669.7 L945.7,669.4 L946.9,669.1 L948.0,668.8 L949.2,668.6
		L950.3,668.3 L951.5,668.0 L952.6,667.7 L953.8,667.4 L954.9,667.1 L956.1,666.9 L957.2,666.6 L958.4,666.3
		L959.5,666.0 L960.7,665.7 L961.8,665.4 L963.0,665.1 L964.1,664.8 L965.3,664.6 L966.4,664.3 L967.6,664.0
		L968.7,663.7 L969.9,663.4 L971.0,663.1 L972.2,662.8 L973.3,662.5 L974.5,662.2 L975.6,661.9 L976.8,661.6
		L977.9,661.3 L979.1,661.0 L980.2,660.7 L981.4,660.4 L982.5,660.1 L983.7,659.8 L984.8,659.5 L986.0,659.2
		L987.1,658.9 L988.3,658.6 L989.4,658.3 L990.6,658.0 L991.7,657.6 L992.9,657.3 L994.0,657.0 L995.2,656.7
		L996.3,656.4 L997.5,656.1 L998.6,655.8 L999.8,655.5 L1000.9,655.2 L1002.1,654.9 L1003.2,654.6 L1004.4,654.3
		L1005.5,654.0 L1006.7,653.7 L1007.8,653.4 L1009.0,653.1 L1010.1,652.8 L1011.3,652.4 L1012.4,652.1 L1013.6,651.8
		L1014.7,651.5 L1015.9,651.2 L1017.0,650.9 L1018.2,650.6 L1019.3,650.3 L1020.4,650.0 L1021.6,649.7 L1022.7,649.4
		L1023.9,649.1 L1025.0,648.8 L1026.2,648.5 L1027.3,648.2 L1028.5,647.9 L1029.6,647.6 L1030.8,647.3 L1031.9,647.0
		L1033.1,646.7 L1034.2,646.4 L1035.4,646.1 L1036.5,645.8 L1037.7,645.5 L1038.8,645.2 L1040.0,644.9 L1041.1,644.6
		L1042.3,644.3 L1043.4,644.0 L1044.6,643.8 L1045.7,643.5 L1046.9,643.2 L1048.0,642.9 L1049.2,642.6 L1050.3,642.3
		L1051.5,642.0 L1052.6,641.7 L1053.8,641.4 L1054.9,641.2 L1056.1,640.9 L1057.2,640.6 L1058.4,640.3 L1059.5,640.0
		L1060.7,639.8 L1061.8,639.5 L1063.0,639.2 L1064.1,638.9 L1065.3,638.6 L1066.4,638.4 L1067.6,638.1 L1068.7,637.8
		L1069.9,637.5 L1071.0,637.3 L1072.2,637.0 L1073.3,636.7 L1074.5,636.5 L1075.6,636.2 L1076.8,635.9 L1077.9,635.7
		L1079.1,635.4 L1080.2,635.1 L1081.4,634.9 L1082.5,634.6 L1083.7,634.4 L1084.8,634.1 L1086.0,633.9 L1087.1,633.6
		L1088.3,633.3 L1089.4,633.1 L1090.6,632.8 L1091.7,632.6 L1092.9,632.3 L1094.0,632.1 L1095.2,631.8 L1096.3,631.6
		L1097.5,631.4 L1098.6,631.1 L1099.8,630.9 L1100.9,630.6 L1102.1,630.4 L1103.2,630.2 L1104.4,629.9 L1105.5,629.7
		L1106.7,629.5 L1107.8,629.2 L1109.0,629.0 L1110.1,628.8 L1111.3,628.6 L1112.4,628.3 L1113.6,628.1 L1114.7,627.9
		L1115.9,627.7 L1117.0,627.4 L1118.2,627.2 L1119.3,627.0 L1120.5,626.8 L1121.6,626.6 L1122.8,626.4 L1123.9,626.2
		L1125.1,626.0 L1126.2,625.7 L1127.4,625.5 L1128.5,625.3 L1129.7,625.1 L1130.8,624.9 L1132.0,624.7 L1133.1,624.5
		L1134.3,624.3 L1135.4,624.1 L1136.6,624.0 L1137.7,623.8 L1138.9,623.6 L1140.0,623.4 L1141.2,623.2 L1142.3,623.0
		L1143.5,622.8 L1144.6,622.7 L1145.8,622.5 L1146.9,622.3 L1148.1,622.1 L1149.2,621.9 L1150.4,621.8 L1151.5,621.6
		L1152.7,621.4 L1153.8,621.3 L1155.0,621.1 L1156.1,620.9 L1157.3,620.8 L1158.4,620.6 L1159.6,620.5 L1160.7,620.3
		L1161.9,620.2 L1163.0,620.0 L1164.2,619.8 L1165.3,619.7 L1166.5,619.5 L1167.6,619.4 L1168.8,619.3 L1169.9,619.1
		L1171.1,619.0 L1172.2,618.8 L1173.4,618.7 L1174.5,618.6 L1175.7,618.4 L1176.8,618.3 L1178.0,618.2 L1179.1,618.0
		L1180.3,617.9 L1181.4,617.8 L1182.6,617.7 L1183.7,617.5 L1184.9,617.4 L1186.0,617.3 L1187.2,617.2 L1188.3,617.1
		L1189.5,617.0 L1190.6,616.9 L1191.8,616.8 L1192.9,616.7 L1194.1,616.5 L1195.2,616.4 L1196.4,616.3 L1197.5,616.2
		L1198.7,616.2 L1199.8,616.1 L1201.0,616.0 L1202.1,615.9 L1203.3,615.8 L1204.4,615.7 L1205.6,615.6 L1206.7,615.5
		L1207.9,615.5 L1209.0,615.4 L1210.2,615.3 L1211.3,615.2 L1212.5,615.1 L1213.6,615.1 L1214.8,615.0 L1215.9,614.9
		L1217.1,614.9 L1218.2,614.8 L1219.4,614.7 L1220.5,614.7 L1221.7,614.6 L1222.8,614.6 L1224.0,614.5 L1225.1,614.5
		L1226.3,614.4 L1227.4,614.4 L1228.6,614.3 L1229.7,614.3 L1230.9,614.2 L1232.0,614.2 L1233.2,614.2 L1234.3,614.1
		L1235.5,614.1 L1236.6,614.1 L1237.8,614.0 L1238.9,614.0 L1240.1,614.0 L1241.2,613.9 L1242.4,613.9 L1243.5,613.9
		L1244.7,613.9 L1245.8,613.9 L1247.0,613.9 L1248.1,613.8 L1249.3,613.8 L1250.4,613.8 L1251.6,613.8 L1252.7,613.8
		L1253.9,613.8 L1255.0,613.8  '/></g>
	</g>
	<g id="gnuplot_plot_4" ><title>8 (both)</title>
<g fill="none" color="black" stroke="currentColor" stroke-width="1.00" stroke-linecap="butt" stroke-linejoin="miter">
	<g transform="translate(1187.9,130.0)" stroke="none" fill="black" font-family="Arial" font-size="12.00"  text-anchor="end">
		<text><tspan font-family="Arial" >8 (both)</tspan></text>
	</g>
</g>
<g fill="none" color="black" stroke="currentColor" stroke-width="1.00" stroke-linecap="butt" stroke-linejoin="miter">
	<path stroke='rgb(230, 159,   0)'  d='M1196.2,126.1 L1238.4,126.1 M78.8,55.1 L79.9,55.2 L81.1,55.5 L82.2,56.0 L83.4,56.7 L84.5,57.6
		L85.7,58.6 L86.8,59.7 L88.0,60.9 L89.1,62.3 L90.3,63.7 L91.4,65.2 L92.6,66.7 L93.7,68.3
		L94.9,69.9 L96.0,71.4 L97.2,73.0 L98.3,74.6 L99.5,76.1 L100.6,77.6 L101.8,79.1 L102.9,80.6
		L104.1,82.0 L105.2,83.5 L106.4,84.9 L107.5,86.2 L108.7,87.6 L109.8,88.9 L111.0,90.2 L112.1,91.5
		L113.3,92.8 L114.4,94.1 L115.6,95.3 L116.7,96.6 L117.9,97.8 L119.0,99.1 L120.2,100.3 L121.3,101.5
		L122.5,102.8 L123.6,104.0 L124.8,105.2 L125.9,106.4 L127.1,107.7 L128.2,108.9 L129.4,110.2 L130.5,111.4
		L131.7,112.6 L132.8,113.9 L134.0,115.2 L135.1,116.4 L136.3,117.7 L137.4,119.0 L138.6,120.2 L139.7,121.5
		L140.9,122.8 L142.0,124.1 L143.2,125.5 L144.3,126.8 L145.5,128.1 L146.6,129.4 L147.8,130.8 L148.9,132.1
		L150.1,133.5 L151.2,134.8 L152.4,136.2 L153.5,137.6 L154.7,139.0 L155.8,140.4 L157.0,141.8 L158.1,143.2
		L159.3,144.6 L160.4,146.0 L161.6,147.4 L162.7,148.8 L163.9,150.3 L165.0,151.7 L166.2,153.1 L167.3,154.6
		L168.5,156.0 L169.6,157.5 L170.8,159.0 L171.9,160.4 L173.1,161.9 L174.2,163.4 L175.4,164.8 L176.5,166.3
		L177.7,167.8 L178.8,169.3 L180.0,170.8 L181.1,172.3 L182.3,173.8 L183.4,175.3 L184.6,176.8 L185.7,178.3
		L186.9,179.8 L188.0,181.3 L189.2,182.8 L190.3,184.3 L191.5,185.8 L192.6,187.3 L193.8,188.8 L194.9,190.3
		L196.1,191.9 L197.2,193.4 L198.4,194.9 L199.5,196.4 L200.7,197.9 L201.8,199.4 L203.0,201.0 L204.1,202.5
		L205.3,204.0 L206.4,205.5 L207.6,207.0 L208.7,208.6 L209.9,210.1 L211.0,211.6 L212.2,213.1 L213.3,214.6
		L214.5,216.1 L215.6,217.7 L216.8,219.2 L217.9,220.7 L219.1,222.2 L220.2,223.7 L221.4,225.2 L222.5,226.7
		L223.7,228.2 L224.8,229.7 L226.0,231.2 L227.1,232.7 L228.3,234.2 L229.4,235.7 L230.6,237.2 L231.7,238.7
		L232.9,240.2 L234.0,241.7 L235.2,243.2 L236.3,244.7 L237.5,246.1 L238.6,247.6 L239.8,249.1 L240.9,250.6
		L242.1,252.1 L243.2,253.5 L244.4,255.0 L245.5,256.5 L246.7,257.9 L247.8,259.4 L249.0,260.9 L250.1,262.3
		L251.3,263.8 L252.4,265.2 L253.6,266.7 L254.7,268.1 L255.9,269.6 L257.0,271.0 L258.2,272.5 L259.3,273.9
		L260.5,275.3 L261.6,276.8 L262.8,278.2 L263.9,279.6 L265.1,281.0 L266.2,282.5 L267.4,283.9 L268.5,285.3
		L269.7,286.7 L270.8,288.1 L272.0,289.5 L273.1,290.9 L274.3,292.3 L275.4,293.7 L276.6,295.1 L277.7,296.5
		L278.9,297.9 L280.0,299.3 L281.2,300.7 L282.3,302.0 L283.5,303.4 L284.6,304.8 L285.8,306.2 L286.9,307.5
		L288.1,308.9 L289.2,310.3 L290.4,311.6 L291.5,313.0 L292.7,314.3 L293.8,315.7 L295.0,317.0 L296.1,318.4
		L297.3,319.7 L298.4,321.1 L299.6,322.4 L300.7,323.7 L301.9,325.1 L303.0,326.4 L304.2,327.7 L305.3,329.1
		L306.5,330.4 L307.6,331.7 L308.8,333.0 L309.9,334.3 L311.1,335.6 L312.2,336.9 L313.4,338.2 L314.5,339.5
		L315.6,340.8 L316.8,342.1 L317.9,343.4 L319.1,344.7 L320.2,346.0 L321.4,347.3 L322.5,348.6 L323.7,349.8
		L324.8,351.1 L326.0,352.4 L327.1,353.7 L328.3,354.9 L329.4,356.2 L330.6,357.4 L331.7,358.7 L332.9,360.0
		L334.0,361.2 L335.2,362.5 L336.3,363.7 L337.5,365.0 L338.6,366.2 L339.8,367.4 L340.9,368.7 L342.1,369.9
		L343.2,371.1 L344.4,372.4 L345.5,373.6 L346.7,374.8 L347.8,376.1 L349.0,377.3 L350.1,378.5 L351.3,379.7
		L352.4,380.9 L353.6,382.1 L354.7,383.3 L355.9,384.5 L357.0,385.7 L358.2,386.9 L359.3,388.1 L360.5,389.3
		L361.6,390.5 L362.8,391.7 L363.9,392.9 L365.1,394.1 L366.2,395.3 L367.4,396.4 L368.5,397.6 L369.7,398.8
		L370.8,400.0 L372.0,401.1 L373.1,402.3 L374.3,403.5 L375.4,404.6 L376.6,405.8 L377.7,406.9 L378.9,408.1
		L380.0,409.3 L381.2,410.4 L382.3,411.6 L383.5,412.7 L384.6,413.8 L385.8,415.0 L386.9,416.1 L388.1,417.3
		L389.2,418.4 L390.4,419.5 L391.5,420.7 L392.7,421.8 L393.8,422.9 L395.0,424.0 L396.1,425.2 L397.3,426.3
		L398.4,427.4 L399.6,428.5 L400.7,429.6 L401.9,430.8 L403.0,431.9 L404.2,433.0 L405.3,434.1 L406.5,435.2
		L407.6,436.3 L408.8,437.4 L409.9,438.5 L411.1,439.6 L412.2,440.7 L413.4,441.7 L414.5,442.8 L415.7,443.9
		L416.8,445.0 L418.0,446.1 L419.1,447.2 L420.3,448.2 L421.4,449.3 L422.6,450.4 L423.7,451.5 L424.9,452.5
		L426.0,453.6 L427.2,454.7 L428.3,455.7 L429.5,456.8 L430.6,457.9 L431.8,458.9 L432.9,460.0 L434.1,461.0
		L435.2,462.1 L436.4,463.1 L437.5,464.2 L438.7,465.2 L439.8,466.3 L441.0,467.3 L442.1,468.3 L443.3,469.4
		L444.4,470.4 L445.6,471.5 L446.7,472.5 L447.9,473.5 L449.0,474.5 L450.2,475.6 L451.3,476.6 L452.5,477.6
		L453.6,478.6 L454.8,479.7 L455.9,480.7 L457.1,481.7 L458.2,482.7 L459.4,483.7 L460.5,484.7 L461.7,485.7
		L462.8,486.7 L464.0,487.8 L465.1,488.8 L466.3,489.8 L467.4,490.8 L468.6,491.8 L469.7,492.7 L470.9,493.7
		L472.0,494.7 L473.2,495.7 L474.3,496.7 L475.5,497.7 L476.6,498.7 L477.8,499.7 L478.9,500.6 L480.1,501.6
		L481.2,502.6 L482.4,503.6 L483.5,504.5 L484.7,505.5 L485.8,506.5 L487.0,507.5 L488.1,508.4 L489.3,509.4
		L490.4,510.3 L491.6,511.3 L492.7,512.3 L493.9,513.2 L495.0,514.2 L496.2,515.1 L497.3,516.1 L498.5,517.0
		L499.6,518.0 L500.8,518.9 L501.9,519.9 L503.1,520.8 L504.2,521.7 L505.4,522.7 L506.5,523.6 L507.7,524.6
		L508.8,525.5 L510.0,526.4 L511.1,527.3 L512.3,528.3 L513.4,529.2 L514.6,530.1 L515.7,531.0 L516.9,532.0
		L518.0,532.9 L519.2,533.8 L520.3,534.7 L521.5,535.6 L522.6,536.5 L523.8,537.4 L524.9,538.4 L526.1,539.3
		L527.2,540.2 L528.4,541.1 L529.5,542.0 L530.7,542.9 L531.8,543.8 L533.0,544.6 L534.1,545.5 L535.3,546.4
		L536.4,547.3 L537.6,548.2 L538.7,549.1 L539.9,550.0 L541.0,550.8 L542.2,551.7 L543.3,552.6 L544.5,553.5
		L545.6,554.3 L546.8,555.2 L547.9,556.1 L549.1,556.9 L550.2,557.8 L551.3,558.7 L552.5,559.5 L553.6,560.4
		L554.8,561.2 L555.9,562.1 L557.1,563.0 L558.2,563.8 L559.4,564.7 L560.5,565.5 L561.7,566.3 L562.8,567.2
		L564.0,568.0 L565.1,568.9 L566.3,569.7 L567.4,570.5 L568.6,571.4 L569.7,572.2 L570.9,573.0 L572.0,573.8
		L573.2,574.7 L574.3,575.5 L575.5,576.3 L576.6,577.1 L577.8,577.9 L578.9,578.7 L580.1,579.6 L581.2,580.4
		L582.4,581.2 L583.5,582.0 L584.7,582.8 L585.8,583.6 L587.0,584.4 L588.1,585.2 L589.3,585.9 L590.4,586.7
		L591.6,587.5 L592.7,588.3 L593.9,589.1 L595.0,589.9 L596.2,590.6 L597.3,591.4 L598.5,592.2 L599.6,593.0
		L600.8,593.7 L601.9,594.5 L603.1,595.3 L604.2,596.0 L605.4,596.8 L606.5,597.5 L607.7,598.3 L608.8,599.0
		L610.0,599.8 L611.1,600.5 L612.3,601.3 L613.4,602.0 L614.6,602.8 L615.7,603.5 L616.9,604.2 L618.0,605.0
		L619.2,605.7 L620.3,606.4 L621.5,607.1 L622.6,607.9 L623.8,608.6 L624.9,609.3 L626.1,610.0 L627.2,610.7
		L628.4,611.4 L629.5,612.1 L630.7,612.8 L631.8,613.5 L633.0,614.2 L634.1,614.9 L635.3,615.6 L636.4,616.3
		L637.6,617.0 L638.7,617.6 L639.9,618.3 L641.0,619.0 L642.2,619.7 L643.3,620.3 L644.5,621.0 L645.6,621.7
		L646.8,622.3 L647.9,623.0 L649.1,623.6 L650.2,624.3 L651.4,624.9 L652.5,625.6 L653.7,626.2 L654.8,626.9
		L656.0,627.5 L657.1,628.1 L658.3,628.8 L659.4,629.4 L660.6,630.0 L661.7,630.6 L662.9,631.3 L664.0,631.9
		L665.2,632.5 L666.3,633.1 L667.5,633.7 L668.6,634.3 L669.8,634.9 L670.9,635.5 L672.1,636.1 L673.2,636.7
		L674.4,637.3 L675.5,637.8 L676.7,638.4 L677.8,639.0 L679.0,639.6 L680.1,640.1 L681.3,640.7 L682.4,641.3
		L683.6,641.8 L684.7,642.4 L685.9,642.9 L687.0,643.5 L688.2,644.0 L689.3,644.5 L690.5,645.1 L691.6,645.6
		L692.8,646.1 L693.9,646.7 L695.1,647.2 L696.2,647.7 L697.4,648.2 L698.5,648.7 L699.7,649.2 L700.8,649.7
		L702.0,650.2 L703.1,650.7 L704.3,651.2 L705.4,651.7 L706.6,652.2 L707.7,652.7 L708.9,653.2 L710.0,653.6
		L711.2,654.1 L712.3,654.6 L713.5,655.0 L714.6,655.5 L715.8,655.9 L716.9,656.4 L718.1,656.8 L719.2,657.3
		L720.4,657.7 L721.5,658.2 L722.7,658.6 L723.8,659.0 L725.0,659.4 L726.1,659.9 L727.3,660.3 L728.4,660.7
		L729.6,661.1 L730.7,661.5 L731.9,661.9 L733.0,662.3 L734.2,662.7 L735.3,663.1 L736.5,663.4 L737.6,663.8
		L738.8,664.2 L739.9,664.6 L741.1,664.9 L742.2,665.3 L743.4,665.6 L744.5,666.0 L745.7,666.3 L746.8,666.7
		L748.0,667.0 L749.1,667.4 L750.3,667.7 L751.4,668.0 L752.6,668.3 L753.7,668.7 L754.9,669.0 L756.0,669.3
		L757.2,669.6 L758.3,669.9 L759.5,670.2 L760.6,670.5 L761.8,670.8 L762.9,671.1 L764.1,671.3 L765.2,671.6
		L766.4,671.9 L767.5,672.2 L768.7,672.4 L769.8,672.7 L771.0,672.9 L772.1,673.2 L773.3,673.4 L774.4,673.7
		L775.6,673.9 L776.7,674.2 L777.9,674.4 L779.0,674.6 L780.2,674.8 L781.3,675.0 L782.5,675.3 L783.6,675.5
		L784.7,675.7 L785.9,675.9 L787.0,676.1 L788.2,676.3 L789.3,676.4 L790.5,676.6 L791.6,676.8 L792.8,677.0
		L793.9,677.2 L795.1,677.3 L796.2,677.5 L797.4,677.6 L798.5,677.8 L799.7,677.9 L800.8,678.1 L802.0,678.2
		L803.1,678.4 L804.3,678.5 L805.4,678.6 L806.6,678.7 L807.7,678.9 L808.9,679.0 L810.0,679.1 L811.2,679.2
		L812.3,679.3 L813.5,679.4 L814.6,679.5 L815.8,679.6 L816.9,679.7 L818.1,679.8 L819.2,679.8 L820.4,679.9
		L821.5,680.0 L822.7,680.0 L823.8,680.1 L825.0,680.2 L826.1,680.2 L827.3,680.3 L828.4,680.3 L829.6,680.4
		L830.7,680.4 L831.9,680.4 L833.0,680.5 L834.2,680.5 L835.3,680.5 L836.5,680.5 L837.6,680.6 L838.8,680.6
		L839.9,680.6 L841.1,680.6 L842.2,680.6 L843.4,680.6 L844.5,680.6 L845.7,680.6 L846.8,680.5 L848.0,680.5
		L849.1,680.5 L850.3,680.5 L851.4,680.4 L852.6,680.4 L853.7,680.4 L854.9,680.3 L856.0,680.3 L857.2,680.3
		L858.3,680.2 L859.5,680.1 L860.6,680.1 L861.8,680.0 L862.9,680.0 L864.1,679.9 L865.2,679.8 L866.4,679.8
		L867.5,679.7 L868.7,679.6 L869.8,679.5 L871.0,679.4 L872.1,679.3 L873.3,679.2 L874.4,679.2 L875.6,679.1
		L876.7,678.9 L877.9,678.8 L879.0,678.7 L880.2,678.6 L881.3,678.5 L882.5,678.4 L883.6,678.3 L884.8,678.1
		L885.9,678.0 L887.1,677.9 L888.2,677.8 L889.4,677.6 L890.5,677.5 L891.7,677.3 L892.8,677.2 L894.0,677.1
		L895.1,676.9 L896.3,676.8 L897.4,676.6 L898.6,676.4 L899.7,676.3 L900.9,676.1 L902.0,676.0 L903.2,675.8
		L904.3,675.6 L905.5,675.4 L906.6,675.3 L907.8,675.1 L908.9,674.9 L910.1,674.7 L911.2,674.5 L912.4,674.4
		L913.5,674.2 L914.7,674.0 L915.8,673.8 L917.0,673.6 L918.1,673.4 L919.3,673.2 L920.4,673.0 L921.6,672.8
		L922.7,672.6 L923.9,672.4 L925.0,672.2 L926.2,671.9 L927.3,671.7 L928.5,671.5 L929.6,671.3 L930.8,671.1
		L931.9,670.9 L933.1,670.6 L934.2,670.4 L935.4,670.2 L936.5,669.9 L937.7,669.7 L938.8,669.5 L940.0,669.2
		L941.1,669.0 L942.3,668.8 L943.4,668.5 L944.6,668.3 L945.7,668.0 L946.9,667.8 L948.0,667.6 L949.2,667.3
		L950.3,667.1 L951.5,666.8 L952.6,666.6 L953.8,666.3 L954.9,666.1 L956.1,665.8 L957.2,665.5 L958.4,665.3
		L959.5,665.0 L960.7,664.8 L961.8,664.5 L963.0,664.2 L964.1,664.0 L965.3,663.7 L966.4,663.4 L967.6,663.2
		L968.7,662.9 L969.9,662.6 L971.0,662.4 L972.2,662.1 L973.3,661.8 L974.5,661.5 L975.6,661.3 L976.8,661.0
		L977.9,660.7 L979.1,660.4 L980.2,660.2 L981.4,659.9 L982.5,659.6 L983.7,659.3 L984.8,659.0 L986.0,658.8
		L987.1,658.5 L988.3,658.2 L989.4,657.9 L990.6,657.6 L991.7,657.3 L992.9,657.0 L994.0,656.8 L995.2,656.5
		L996.3,656.2 L997.5,655.9 L998.6,655.6 L999.8,655.3 L1000.9,655.0 L1002.1,654.7 L1003.2,654.5 L1004.4,654.2
		L1005.5,653.9 L1006.7,653.6 L1007.8,653.3 L1009.0,653.0 L1010.1,652.7 L1011.3,652.4 L1012.4,652.1 L1013.6,651.8
		L1014.7,651.5 L1015.9,651.3 L1017.0,651.0 L1018.2,650.7 L1019.3,650.4 L1020.4,650.1 L1021.6,649.8 L1022.7,649.5
		L1023.9,649.2 L1025.0,648.9 L1026.2,648.6 L1027.3,648.3 L1028.5,648.0 L1029.6,647.7 L1030.8,647.5 L1031.9,647.2
		L1033.1,646.9 L1034.2,646.6 L1035.4,646.3 L1036.5,646.0 L1037.7,645.7 L1038.8,645.4 L1040.0,645.1 L1041.1,644.8
		L1042.3,644.6 L1043.4,644.3 L1044.6,644.0 L1045.7,643.7 L1046.9,643.4 L1048.0,643.1 L1049.2,642.8 L1050.3,642.5
		L1051.5,642.3 L1052.6,642.0 L1053.8,641.7 L1054.9,641.4 L1056.1,641.1 L1057.2,640.8 L1058.4,640.6 L1059.5,640.3
		L1060.7,640.0 L1061.8,639.7 L1063.0,639.4 L1064.1,639.1 L1065.3,638.9 L1066.4,638.6 L1067.6,638.3 L1068.7,638.0
		L1069.9,637.8 L1071.0,637.5 L1072.2,637.2 L1073.3,636.9 L1074.5,636.7 L1075.6,636.4 L1076.8,636.1 L1077.9,635.9
		L1079.1,635.6 L1080.2,635.3 L1081.4,635.1 L1082.5,634.8 L1083.7,634.5 L1084.8,634.3 L1086.0,634.0 L1087.1,633.7
		L1088.3,633.5 L1089.4,633.2 L1090.6,633.0 L1091.7,632.7 L1092.9,632.4 L1094.0,632.2 L1095.2,631.9 L1096.3,631.7
		L1097.5,631.4 L1098.6,631.2 L1099.8,630.9 L1100.9,630.7 L1102.1,630.4 L1103.2,630.2 L1104.4,629.9 L1105.5,629.7
		L1106.7,629.5 L1107.8,629.2 L1109.0,629.0 L1110.1,628.7 L1111.3,628.5 L1112.4,628.3 L1113.6,628.0 L1114.7,627.8
		L1115.9,627.6 L1117.0,627.3 L1118.2,627.1 L1119.3,626.9 L1120.5,626.7 L1121.6,626.4 L1122.8,626.2 L1123.9,626.0
		L1125.1,625.8 L1126.2,625.6 L1127.4,625.3 L1128.5,625.1 L1129.7,624.9 L1130.8,624.7 L1132.0,624.5 L1133.1,624.3
		L1134.3,624.1 L1135.4,623.9 L1136.6,623.7 L1137.7,623.4 L1138.9,623.2 L1140.0,623.0 L1141.2,622.8 L1142.3,622.7
		L1143.5,622.5 L1144.6,622.3 L1145.8,622.1 L1146.9,621.9 L1148.1,621.7 L1149.2,621.5 L1150.4,621.3 L1151.5,621.1
		L1152.7,621.0 L1153.8,620.8 L1155.0,620.6 L1156.1,620.4 L1157.3,620.2 L1158.4,620.1 L1159.6,619.9 L1160.7,619.7
		L1161.9,619.6 L1163.0,619.4 L1164.2,619.2 L1165.3,619.1 L1166.5,618.9 L1167.6,618.8 L1168.8,618.6 L1169.9,618.4
		L1171.1,618.3 L1172.2,618.1 L1173.4,618.0 L1174.5,617.8 L1175.7,617.7 L1176.8,617.6 L1178.0,617.4 L1179.1,617.3
		L1180.3,617.1 L1181.4,617.0 L1182.6,616.9 L1183.7,616.7 L1184.9,616.6 L1186.0,616.5 L1187.2,616.4 L1188.3,616.2
		L1189.5,616.1 L1190.6,616.0 L1191.8,615.9 L1192.9,615.8 L1194.1,615.6 L1195.2,615.5 L1196.4,615.4 L1197.5,615.3
		L1198.7,615.2 L1199.8,615.1 L1201.0,615.0 L1202.1,614.9 L1203.3,614.8 L1204.4,614.7 L1205.6,614.6 L1206.7,614.5
		L1207.9,614.4 L1209.0,614.4 L1210.2,614.3 L1211.3,614.2 L1212.5,614.1 L1213.6,614.0 L1214.8,614.0 L1215.9,613.9
		L1217.1,613.8 L1218.2,613.7 L1219.4,613.7 L1220.5,613.6 L1221.7,613.5 L1222.8,613.5 L1224.0,613.4 L1225.1,613.4
		L1226.3,613.3 L1227.4,613.3 L1228.6,613.2 L1229.7,613.2 L1230.9,613.1 L1232.0,613.1 L1233.2,613.0 L1234.3,613.0
		L1235.5,612.9 L1236.6,612.9 L1237.8,612.9 L1238.9,612.8 L1240.1,612.8 L1241.2,612.8 L1242.4,612.8 L1243.5,612.7
		L1244.7,612.7 L1245.8,612.7 L1247.0,612.7 L1248.1,612.7 L1249.3,612.7 L1250.4,612.6 L1251.6,612.6 L1252.7,612.6
		L1253.9,612.6 L1255.0,612.6  '/></g>
	</g>
<g fill="none" color="white" stroke="rgb(230, 159,   0)" stroke-width="2.00" stroke-linecap="butt" stroke-linejoin="miter">
</g>
<g fill="none" color="black" stroke="currentColor" stroke-width="2.00" stroke-linecap="butt" stroke-linejoin="miter">
</g>
<g fill="none" color="black" stroke="black" stroke-width="1.00" stroke-linecap="butt" stroke-linejoin="miter">
</g>
<g fill="none" color="black" stroke="currentColor" stroke-width="1.00" stroke-linecap="butt" stroke-linejoin="miter">
	<path stroke='black'  d='M78.8,54.1 L78.8,684.0 L1255.0,684.0 L1255.0,54.1 L78.8,54.1 Z  '/></g>
<g fill="none" color="black" stroke="currentColor" stroke-width="1.00" stroke-linecap="butt" stroke-linejoin="miter">
</g>
</g>
</svg>

