<?xml version="1.0" encoding="utf-8"  standalone="no"?>
<svg 
 width="1280" height="720"
 viewBox="0 0 1280 720"
 xmlns="http://www.w3.org/2000/svg"
 xmlns:xlink="http://www.w3.org/1999/xlink"
>

<title>Gnuplot</title>
<desc>Produced by GNUPLOT 5.0 patchlevel 6 </desc>

<g id="gnuplot_canvas">

<rect x="0" y="0" width="1280" height="720" fill="none"/>
<defs>

	<circle id='gpDot' r='0.5' stroke-width='0.5'/>
	<path id='gpPt0' stroke-width='0.222' stroke='currentColor' d='M-1,0 h2 M0,-1 v2'/>
	<path id='gpPt1' stroke-width='0.222' stroke='currentColor' d='M-1,-1 L1,1 M1,-1 L-1,1'/>
	<path id='gpPt2' stroke-width='0.222' stroke='currentColor' d='M-1,0 L1,0 M0,-1 L0,1 M-1,-1 L1,1 M-1,1 L1,-1'/>
	<rect id='gpPt3' stroke-width='0.222' stroke='currentColor' x='-1' y='-1' width='2' height='2'/>
	<rect id='gpPt4' stroke-width='0.222' stroke='currentColor' fill='currentColor' x='-1' y='-1' width='2' height='2'/>
	<circle id='gpPt5' stroke-width='0.222' stroke='currentColor' cx='0' cy='0' r='1'/>
	<use xlink:href='#gpPt5' id='gpPt6' fill='currentColor' stroke='none'/>
	<path id='gpPt7' stroke-width='0.222' stroke='currentColor' d='M0,-1.33 L-1.33,0.67 L1.33,0.67 z'/>
	<use xlink:href='#gpPt7' id='gpPt8' fill='currentColor' stroke='none'/>
	<use xlink:href='#gpPt7' id='gpPt9' stroke='currentColor' transform='rotate(180)'/>
	<use xlink:href='#gpPt9' id='gpPt10' fill='currentColor' stroke='none'/>
	<use xlink:href='#gpPt3' id='gpPt11' stroke='currentColor' transform='rotate(45)'/>
	<use xlink:href='#gpPt11' id='gpPt12' fill='currentColor' stroke='none'/>
	<path id='gpPt13' stroke-width='0.222' stroke='currentColor' d='M0,1.330 L1.265,0.411 L0.782,-1.067 L-0.782,-1.076 L-1.265,0.411 z'/>
	<use xlink:href='#gpPt13' id='gpPt14' fill='currentColor' stroke='none'/>
	<filter id='textbox' filterUnits='objectBoundingBox' x='0' y='0' height='1' width='1'>
	  <feFlood flood-color='white' flood-opacity='1' result='bgnd'/>
	  <feComposite in='SourceGraphic' in2='bgnd' operator='atop'/>
	</filter>
	<filter id='greybox' filterUnits='objectBoundingBox' x='0' y='0' height='1' width='1'>
	  <feFlood flood-color='lightgrey' flood-opacity='1' result='grey'/>
	  <feComposite in='SourceGraphic' in2='grey' operator='atop'/>
	</filter>
</defs>
<g fill="none" color="white" stroke="currentColor" stroke-width="1.00" stroke-linecap="butt" stroke-linejoin="miter">
</g>
<g fill="none" color="black" stroke="currentColor" stroke-width="1.00" stroke-linecap="butt" stroke-linejoin="miter">
	<path stroke='black'  d='M103.7,681.2 L112.7,681.2 M1255.0,681.2 L1246.0,681.2  '/>	<g transform="translate(95.4,685.1)" stroke="none" fill="black" font-family="Arial" font-size="12.00"  text-anchor="end">
		<text><tspan font-family="Arial" > 0.0008618</tspan></text>
	</g>
</g>
<g fill="none" color="black" stroke="currentColor" stroke-width="1.00" stroke-linecap="butt" stroke-linejoin="miter">
	<path stroke='black'  d='M103.7,367.6 L112.7,367.6 M1255.0,367.6 L1246.0,367.6  '/>	<g transform="translate(95.4,371.5)" stroke="none" fill="black" font-family="Arial" font-size="12.00"  text-anchor="end">
		<text><tspan font-family="Arial" > 0.0444825</tspan></text>
	</g>
</g>
<g fill="none" color="black" stroke="currentColor" stroke-width="1.00" stroke-linecap="butt" stroke-linejoin="miter">
	<path stroke='black'  d='M103.7,54.1 L112.7,54.1 M1255.0,54.1 L1246.0,54.1  '/>	<g transform="translate(95.4,58.0)" stroke="none" fill="black" font-family="Arial" font-size="12.00"  text-anchor="end">
		<text><tspan font-family="Arial" > 2.296</tspan></text>
	</g>
</g>
<g fill="none" color="black" stroke="currentColor" stroke-width="1.00" stroke-linecap="butt" stroke-linejoin="miter">
	<path stroke='black'  d='M103.7,684.0 L103.7,675.0 M103.7,54.1 L103.7,63.1  '/>	<g transform="translate(103.7,705.9)" stroke="none" fill="black" font-family="Arial" font-size="12.00"  text-anchor="middle">
		<text><tspan font-family="Arial" > 0</tspan></text>
	</g>
</g>
<g fill="none" color="black" stroke="currentColor" stroke-width="1.00" stroke-linecap="butt" stroke-linejoin="miter">
	<path stroke='black'  d='M679.4,684.0 L679.4,675.0 M679.4,54.1 L679.4,63.1  '/>	<g transform="translate(679.4,705.9)" stroke="none" fill="black" font-family="Arial" font-size="12.00"  text-anchor="middle">
		<text><tspan font-family="Arial" >pi/2</tspan></text>
	</g>
</g>
<g fill="none" color="black" stroke="currentColor" stroke-width="1.00" stroke-linecap="butt" stroke-linejoin="miter">
	<path stroke='black'  d='M1255.0,684.0 L1255.0,675.0 M1255.0,54.1 L1255.0,63.1  '/>	<g transform="translate(1255.0,705.9)" stroke="none" fill="black" font-family="Arial" font-size="12.00"  text-anchor="middle">
		<text><tspan font-family="Arial" >pi</tspan></text>
	</g>
</g>
<g fill="none" color="black" stroke="currentColor" stroke-width="1.00" stroke-linecap="butt" stroke-linejoin="miter">
</g>
<g fill="none" color="black" stroke="currentColor" stroke-width="1.00" stroke-linecap="butt" stroke-linejoin="miter">
	<path stroke='black'  d='M103.7,54.1 L103.7,684.0 L1255.0,684.0 L1255.0,54.1 L103.7,54.1 Z  '/></g>
<g fill="none" color="black" stroke="currentColor" stroke-width="1.00" stroke-linecap="butt" stroke-linejoin="miter">
	<g transform="translate(679.3,31.0)" stroke="none" fill="black" font-family="Arial" font-size="12.00"  text-anchor="middle">
		<text><tspan font-family="Arial" >Material 45</tspan></text>
	</g>
</g>
	<g id="gnuplot_plot_1" ><title>scattering function</title>
<g fill="none" color="black" stroke="currentColor" stroke-width="1.00" stroke-linecap="butt" stroke-linejoin="miter">
	<g transform="translate(1187.9,76.0)" stroke="none" fill="black" font-family="Arial" font-size="12.00"  text-anchor="end">
		<text><tspan font-family="Arial" >scattering function</tspan></text>
	</g>
</g>
<g fill="none" color="black" stroke="currentColor" stroke-width="1.00" stroke-linecap="butt" stroke-linejoin="miter">
	<use xlink:href='#gpPt5' transform='translate(103.7,54.1) scale(2.25)' color='black'/>
	<use xlink:href='#gpPt5' transform='translate(104.3,57.7) scale(2.25)' color='black'/>
	<use xlink:href='#gpPt5' transform='translate(105.0,65.0) scale(2.25)' color='black'/>
	<use xlink:href='#gpPt5' transform='translate(105.6,72.0) scale(2.25)' color='black'/>
	<use xlink:href='#gpPt5' transform='translate(106.3,77.9) scale(2.25)' color='black'/>
	<use xlink:href='#gpPt5' transform='translate(106.9,83.0) scale(2.25)' color='black'/>
	<use xlink:href='#gpPt5' transform='translate(107.5,87.4) scale(2.25)' color='black'/>
	<use xlink:href='#gpPt5' transform='translate(108.2,91.3) scale(2.25)' color='black'/>
	<use xlink:href='#gpPt5' transform='translate(108.8,94.8) scale(2.25)' color='black'/>
	<use xlink:href='#gpPt5' transform='translate(109.5,98.1) scale(2.25)' color='black'/>
	<use xlink:href='#gpPt5' transform='translate(110.1,101.2) scale(2.25)' color='black'/>
	<use xlink:href='#gpPt5' transform='translate(110.7,104.2) scale(2.25)' color='black'/>
	<use xlink:href='#gpPt5' transform='translate(111.4,107.1) scale(2.25)' color='black'/>
	<use xlink:href='#gpPt5' transform='translate(112.0,110.0) scale(2.25)' color='black'/>
	<use xlink:href='#gpPt5' transform='translate(112.7,112.7) scale(2.25)' color='black'/>
	<use xlink:href='#gpPt5' transform='translate(113.3,115.5) scale(2.25)' color='black'/>
	<use xlink:href='#gpPt5' transform='translate(113.9,118.2) scale(2.25)' color='black'/>
	<use xlink:href='#gpPt5' transform='translate(114.6,121.0) scale(2.25)' color='black'/>
	<use xlink:href='#gpPt5' transform='translate(115.2,123.7) scale(2.25)' color='black'/>
	<use xlink:href='#gpPt5' transform='translate(115.9,126.4) scale(2.25)' color='black'/>
	<use xlink:href='#gpPt5' transform='translate(116.5,129.1) scale(2.25)' color='black'/>
	<use xlink:href='#gpPt5' transform='translate(122.9,155.1) scale(2.25)' color='black'/>
	<use xlink:href='#gpPt5' transform='translate(129.3,179.1) scale(2.25)' color='black'/>
	<use xlink:href='#gpPt5' transform='translate(135.7,200.7) scale(2.25)' color='black'/>
	<use xlink:href='#gpPt5' transform='translate(142.1,220.1) scale(2.25)' color='black'/>
	<use xlink:href='#gpPt5' transform='translate(154.9,252.4) scale(2.25)' color='black'/>
	<use xlink:href='#gpPt5' transform='translate(167.7,278.3) scale(2.25)' color='black'/>
	<use xlink:href='#gpPt5' transform='translate(180.5,298.9) scale(2.25)' color='black'/>
	<use xlink:href='#gpPt5' transform='translate(193.2,315.8) scale(2.25)' color='black'/>
	<use xlink:href='#gpPt5' transform='translate(206.0,330.2) scale(2.25)' color='black'/>
	<use xlink:href='#gpPt5' transform='translate(218.8,342.8) scale(2.25)' color='black'/>
	<use xlink:href='#gpPt5' transform='translate(231.6,354.6) scale(2.25)' color='black'/>
	<use xlink:href='#gpPt5' transform='translate(244.4,365.9) scale(2.25)' color='black'/>
	<use xlink:href='#gpPt5' transform='translate(257.2,376.7) scale(2.25)' color='black'/>
	<use xlink:href='#gpPt5' transform='translate(270.0,387.2) scale(2.25)' color='black'/>
	<use xlink:href='#gpPt5' transform='translate(282.8,397.4) scale(2.25)' color='black'/>
	<use xlink:href='#gpPt5' transform='translate(295.6,407.3) scale(2.25)' color='black'/>
	<use xlink:href='#gpPt5' transform='translate(308.4,417.3) scale(2.25)' color='black'/>
	<use xlink:href='#gpPt5' transform='translate(321.2,427.2) scale(2.25)' color='black'/>
	<use xlink:href='#gpPt5' transform='translate(334.0,437.3) scale(2.25)' color='black'/>
	<use xlink:href='#gpPt5' transform='translate(346.8,447.0) scale(2.25)' color='black'/>
	<use xlink:href='#gpPt5' transform='translate(359.5,456.0) scale(2.25)' color='black'/>
	<use xlink:href='#gpPt5' transform='translate(372.3,465.7) scale(2.25)' color='black'/>
	<use xlink:href='#gpPt5' transform='translate(385.1,475.2) scale(2.25)' color='black'/>
	<use xlink:href='#gpPt5' transform='translate(397.9,484.6) scale(2.25)' color='black'/>
	<use xlink:href='#gpPt5' transform='translate(410.7,493.4) scale(2.25)' color='black'/>
	<use xlink:href='#gpPt5' transform='translate(423.5,502.3) scale(2.25)' color='black'/>
	<use xlink:href='#gpPt5' transform='translate(436.3,511.5) scale(2.25)' color='black'/>
	<use xlink:href='#gpPt5' transform='translate(449.1,520.3) scale(2.25)' color='black'/>
	<use xlink:href='#gpPt5' transform='translate(461.9,528.8) scale(2.25)' color='black'/>
	<use xlink:href='#gpPt5' transform='translate(474.7,536.9) scale(2.25)' color='black'/>
	<use xlink:href='#gpPt5' transform='translate(487.5,545.2) scale(2.25)' color='black'/>
	<use xlink:href='#gpPt5' transform='translate(500.3,553.8) scale(2.25)' color='black'/>
	<use xlink:href='#gpPt5' transform='translate(513.1,562.1) scale(2.25)' color='black'/>
	<use xlink:href='#gpPt5' transform='translate(525.8,569.5) scale(2.25)' color='black'/>
	<use xlink:href='#gpPt5' transform='translate(538.6,576.6) scale(2.25)' color='black'/>
	<use xlink:href='#gpPt5' transform='translate(551.4,584.7) scale(2.25)' color='black'/>
	<use xlink:href='#gpPt5' transform='translate(564.2,592.4) scale(2.25)' color='black'/>
	<use xlink:href='#gpPt5' transform='translate(577.0,598.6) scale(2.25)' color='black'/>
	<use xlink:href='#gpPt5' transform='translate(589.8,605.5) scale(2.25)' color='black'/>
	<use xlink:href='#gpPt5' transform='translate(602.6,613.1) scale(2.25)' color='black'/>
	<use xlink:href='#gpPt5' transform='translate(615.4,619.5) scale(2.25)' color='black'/>
	<use xlink:href='#gpPt5' transform='translate(628.2,624.5) scale(2.25)' color='black'/>
	<use xlink:href='#gpPt5' transform='translate(641.0,630.5) scale(2.25)' color='black'/>
	<use xlink:href='#gpPt5' transform='translate(653.8,637.0) scale(2.25)' color='black'/>
	<use xlink:href='#gpPt5' transform='translate(666.6,642.2) scale(2.25)' color='black'/>
	<use xlink:href='#gpPt5' transform='translate(679.4,646.2) scale(2.25)' color='black'/>
	<use xlink:href='#gpPt5' transform='translate(692.1,651.6) scale(2.25)' color='black'/>
	<use xlink:href='#gpPt5' transform='translate(704.9,656.5) scale(2.25)' color='black'/>
	<use xlink:href='#gpPt5' transform='translate(717.7,659.5) scale(2.25)' color='black'/>
	<use xlink:href='#gpPt5' transform='translate(730.5,662.1) scale(2.25)' color='black'/>
	<use xlink:href='#gpPt5' transform='translate(743.3,666.6) scale(2.25)' color='black'/>
	<use xlink:href='#gpPt5' transform='translate(756.1,670.8) scale(2.25)' color='black'/>
	<use xlink:href='#gpPt5' transform='translate(768.9,672.6) scale(2.25)' color='black'/>
	<use xlink:href='#gpPt5' transform='translate(781.7,673.9) scale(2.25)' color='black'/>
	<use xlink:href='#gpPt5' transform='translate(794.5,677.3) scale(2.25)' color='black'/>
	<use xlink:href='#gpPt5' transform='translate(807.3,679.1) scale(2.25)' color='black'/>
	<use xlink:href='#gpPt5' transform='translate(820.1,680.0) scale(2.25)' color='black'/>
	<use xlink:href='#gpPt5' transform='translate(832.9,680.8) scale(2.25)' color='black'/>
	<use xlink:href='#gpPt5' transform='translate(845.6,681.2) scale(2.25)' color='black'/>
	<use xlink:href='#gpPt5' transform='translate(858.4,680.6) scale(2.25)' color='black'/>
	<use xlink:href='#gpPt5' transform='translate(871.2,680.6) scale(2.25)' color='black'/>
	<use xlink:href='#gpPt5' transform='translate(884.0,680.1) scale(2.25)' color='black'/>
	<use xlink:href='#gpPt5' transform='translate(896.8,678.6) scale(2.25)' color='black'/>
	<use xlink:href='#gpPt5' transform='translate(909.6,676.8) scale(2.25)' color='black'/>
	<use xlink:href='#gpPt5' transform='translate(922.4,673.6) scale(2.25)' color='black'/>
	<use xlink:href='#gpPt5' transform='translate(935.2,670.5) scale(2.25)' color='black'/>
	<use xlink:href='#gpPt5' transform='translate(948.0,666.6) scale(2.25)' color='black'/>
	<use xlink:href='#gpPt5' transform='translate(960.8,662.7) scale(2.25)' color='black'/>
	<use xlink:href='#gpPt5' transform='translate(973.6,655.6) scale(2.25)' color='black'/>
	<use xlink:href='#gpPt5' transform='translate(986.4,648.1) scale(2.25)' color='black'/>
	<use xlink:href='#gpPt5' transform='translate(999.2,642.1) scale(2.25)' color='black'/>
	<use xlink:href='#gpPt5' transform='translate(1011.9,634.7) scale(2.25)' color='black'/>
	<use xlink:href='#gpPt5' transform='translate(1024.7,628.1) scale(2.25)' color='black'/>
	<use xlink:href='#gpPt5' transform='translate(1037.5,624.3) scale(2.25)' color='black'/>
	<use xlink:href='#gpPt5' transform='translate(1050.3,619.4) scale(2.25)' color='black'/>
	<use xlink:href='#gpPt5' transform='translate(1063.1,615.9) scale(2.25)' color='black'/>
	<use xlink:href='#gpPt5' transform='translate(1075.9,613.7) scale(2.25)' color='black'/>
	<use xlink:href='#gpPt5' transform='translate(1088.7,614.3) scale(2.25)' color='black'/>
	<use xlink:href='#gpPt5' transform='translate(1101.5,614.3) scale(2.25)' color='black'/>
	<use xlink:href='#gpPt5' transform='translate(1114.3,612.6) scale(2.25)' color='black'/>
	<use xlink:href='#gpPt5' transform='translate(1127.1,610.2) scale(2.25)' color='black'/>
	<use xlink:href='#gpPt5' transform='translate(1139.9,606.6) scale(2.25)' color='black'/>
	<use xlink:href='#gpPt5' transform='translate(1152.7,600.6) scale(2.25)' color='black'/>
	<use xlink:href='#gpPt5' transform='translate(1165.5,595.6) scale(2.25)' color='black'/>
	<use xlink:href='#gpPt5' transform='translate(1178.2,593.1) scale(2.25)' color='black'/>
	<use xlink:href='#gpPt5' transform='translate(1191.0,592.9) scale(2.25)' color='black'/>
	<use xlink:href='#gpPt5' transform='translate(1203.8,595.4) scale(2.25)' color='black'/>
	<use xlink:href='#gpPt5' transform='translate(1216.6,594.5) scale(2.25)' color='black'/>
	<use xlink:href='#gpPt5' transform='translate(1229.4,590.8) scale(2.25)' color='black'/>
	<use xlink:href='#gpPt5' transform='translate(1242.2,579.1) scale(2.25)' color='black'/>
	<use xlink:href='#gpPt5' transform='translate(1255.0,564.4) scale(2.25)' color='black'/>
	<use xlink:href='#gpPt5' transform='translate(1217.3,72.1) scale(2.25)' color='black'/>
</g>
	</g>
	<g id="gnuplot_plot_2" ><title>2 (convex)</title>
<g fill="none" color="black" stroke="currentColor" stroke-width="1.00" stroke-linecap="butt" stroke-linejoin="miter">
	<g transform="translate(1187.9,94.0)" stroke="none" fill="black" font-family="Arial" font-size="12.00"  text-anchor="end">
		<text><tspan font-family="Arial" >2 (convex)</tspan></text>
	</g>
</g>
<g fill="none" color="black" stroke="currentColor" stroke-width="1.00" stroke-linecap="butt" stroke-linejoin="miter">
	<path stroke='rgb(  0, 158, 115)'  d='M1196.2,90.1 L1238.4,90.1 M103.7,106.2 L104.8,106.2 L106.0,106.4 L107.1,106.6 L108.2,107.0 L109.3,107.5
		L110.5,108.1 L111.6,108.7 L112.7,109.5 L113.8,110.4 L115.0,111.4 L116.1,112.4 L117.2,113.6 L118.3,114.8
		L119.5,116.1 L120.6,117.5 L121.7,119.0 L122.8,120.6 L124.0,122.2 L125.1,123.9 L126.2,125.7 L127.3,127.5
		L128.5,129.4 L129.6,131.4 L130.7,133.4 L131.8,135.4 L133.0,137.5 L134.1,139.7 L135.2,141.8 L136.3,144.1
		L137.5,146.3 L138.6,148.6 L139.7,150.9 L140.8,153.3 L142.0,155.6 L143.1,158.0 L144.2,160.4 L145.3,162.9
		L146.5,165.3 L147.6,167.8 L148.7,170.2 L149.8,172.7 L151.0,175.2 L152.1,177.7 L153.2,180.2 L154.3,182.7
		L155.5,185.2 L156.6,187.7 L157.7,190.2 L158.8,192.7 L160.0,195.2 L161.1,197.7 L162.2,200.2 L163.3,202.7
		L164.5,205.2 L165.6,207.7 L166.7,210.2 L167.8,212.7 L169.0,215.1 L170.1,217.6 L171.2,220.0 L172.4,222.4
		L173.5,224.9 L174.6,227.3 L175.7,229.7 L176.9,232.1 L178.0,234.4 L179.1,236.8 L180.2,239.2 L181.4,241.5
		L182.5,243.8 L183.6,246.2 L184.7,248.5 L185.9,250.8 L187.0,253.0 L188.1,255.3 L189.2,257.6 L190.4,259.8
		L191.5,262.0 L192.6,264.2 L193.7,266.4 L194.9,268.6 L196.0,270.8 L197.1,272.9 L198.2,275.1 L199.4,277.2
		L200.5,279.3 L201.6,281.4 L202.7,283.5 L203.9,285.6 L205.0,287.7 L206.1,289.7 L207.2,291.8 L208.4,293.8
		L209.5,295.8 L210.6,297.8 L211.7,299.8 L212.9,301.8 L214.0,303.7 L215.1,305.7 L216.2,307.6 L217.4,309.5
		L218.5,311.4 L219.6,313.3 L220.7,315.2 L221.9,317.1 L223.0,318.9 L224.1,320.8 L225.2,322.6 L226.4,324.5
		L227.5,326.3 L228.6,328.1 L229.7,329.9 L230.9,331.6 L232.0,333.4 L233.1,335.2 L234.2,336.9 L235.4,338.6
		L236.5,340.4 L237.6,342.1 L238.7,343.8 L239.9,345.5 L241.0,347.1 L242.1,348.8 L243.3,350.5 L244.4,352.1
		L245.5,353.8 L246.6,355.4 L247.8,357.0 L248.9,358.6 L250.0,360.2 L251.1,361.8 L252.3,363.4 L253.4,364.9
		L254.5,366.5 L255.6,368.1 L256.8,369.6 L257.9,371.1 L259.0,372.7 L260.1,374.2 L261.3,375.7 L262.4,377.2
		L263.5,378.7 L264.6,380.1 L265.8,381.6 L266.9,383.1 L268.0,384.5 L269.1,386.0 L270.3,387.4 L271.4,388.8
		L272.5,390.2 L273.6,391.7 L274.8,393.1 L275.9,394.4 L277.0,395.8 L278.1,397.2 L279.3,398.6 L280.4,400.0
		L281.5,401.3 L282.6,402.7 L283.8,404.0 L284.9,405.3 L286.0,406.7 L287.1,408.0 L288.3,409.3 L289.4,410.6
		L290.5,411.9 L291.6,413.2 L292.8,414.5 L293.9,415.7 L295.0,417.0 L296.1,418.3 L297.3,419.5 L298.4,420.8
		L299.5,422.0 L300.6,423.3 L301.8,424.5 L302.9,425.7 L304.0,426.9 L305.1,428.1 L306.3,429.3 L307.4,430.5
		L308.5,431.7 L309.7,432.9 L310.8,434.1 L311.9,435.3 L313.0,436.4 L314.2,437.6 L315.3,438.8 L316.4,439.9
		L317.5,441.1 L318.7,442.2 L319.8,443.3 L320.9,444.5 L322.0,445.6 L323.2,446.7 L324.3,447.8 L325.4,448.9
		L326.5,450.0 L327.7,451.1 L328.8,452.2 L329.9,453.3 L331.0,454.4 L332.2,455.4 L333.3,456.5 L334.4,457.6
		L335.5,458.6 L336.7,459.7 L337.8,460.7 L338.9,461.8 L340.0,462.8 L341.2,463.8 L342.3,464.9 L343.4,465.9
		L344.5,466.9 L345.7,467.9 L346.8,468.9 L347.9,469.9 L349.0,470.9 L350.2,471.9 L351.3,472.9 L352.4,473.9
		L353.5,474.9 L354.7,475.9 L355.8,476.9 L356.9,477.8 L358.0,478.8 L359.2,479.7 L360.3,480.7 L361.4,481.7
		L362.5,482.6 L363.7,483.5 L364.8,484.5 L365.9,485.4 L367.0,486.3 L368.2,487.3 L369.3,488.2 L370.4,489.1
		L371.5,490.0 L372.7,490.9 L373.8,491.8 L374.9,492.7 L376.1,493.6 L377.2,494.5 L378.3,495.4 L379.4,496.3
		L380.6,497.2 L381.7,498.1 L382.8,499.0 L383.9,499.8 L385.1,500.7 L386.2,501.6 L387.3,502.4 L388.4,503.3
		L389.6,504.1 L390.7,505.0 L391.8,505.8 L392.9,506.7 L394.1,507.5 L395.2,508.3 L396.3,509.2 L397.4,510.0
		L398.6,510.8 L399.7,511.6 L400.8,512.5 L401.9,513.3 L403.1,514.1 L404.2,514.9 L405.3,515.7 L406.4,516.5
		L407.6,517.3 L408.7,518.1 L409.8,518.9 L410.9,519.7 L412.1,520.5 L413.2,521.2 L414.3,522.0 L415.4,522.8
		L416.6,523.6 L417.7,524.3 L418.8,525.1 L419.9,525.9 L421.1,526.6 L422.2,527.4 L423.3,528.1 L424.4,528.9
		L425.6,529.6 L426.7,530.4 L427.8,531.1 L428.9,531.9 L430.1,532.6 L431.2,533.3 L432.3,534.1 L433.4,534.8
		L434.6,535.5 L435.7,536.2 L436.8,537.0 L437.9,537.7 L439.1,538.4 L440.2,539.1 L441.3,539.8 L442.5,540.5
		L443.6,541.2 L444.7,541.9 L445.8,542.6 L447.0,543.3 L448.1,544.0 L449.2,544.7 L450.3,545.4 L451.5,546.1
		L452.6,546.7 L453.7,547.4 L454.8,548.1 L456.0,548.8 L457.1,549.4 L458.2,550.1 L459.3,550.8 L460.5,551.4
		L461.6,552.1 L462.7,552.7 L463.8,553.4 L465.0,554.1 L466.1,554.7 L467.2,555.3 L468.3,556.0 L469.5,556.6
		L470.6,557.3 L471.7,557.9 L472.8,558.5 L474.0,559.2 L475.1,559.8 L476.2,560.4 L477.3,561.1 L478.5,561.7
		L479.6,562.3 L480.7,562.9 L481.8,563.5 L483.0,564.2 L484.1,564.8 L485.2,565.4 L486.3,566.0 L487.5,566.6
		L488.6,567.2 L489.7,567.8 L490.8,568.4 L492.0,569.0 L493.1,569.6 L494.2,570.2 L495.3,570.8 L496.5,571.4
		L497.6,571.9 L498.7,572.5 L499.8,573.1 L501.0,573.7 L502.1,574.3 L503.2,574.8 L504.3,575.4 L505.5,576.0
		L506.6,576.5 L507.7,577.1 L508.8,577.7 L510.0,578.2 L511.1,578.8 L512.2,579.3 L513.4,579.9 L514.5,580.5
		L515.6,581.0 L516.7,581.5 L517.9,582.1 L519.0,582.6 L520.1,583.2 L521.2,583.7 L522.4,584.3 L523.5,584.8
		L524.6,585.3 L525.7,585.9 L526.9,586.4 L528.0,586.9 L529.1,587.5 L530.2,588.0 L531.4,588.5 L532.5,589.0
		L533.6,589.5 L534.7,590.1 L535.9,590.6 L537.0,591.1 L538.1,591.6 L539.2,592.1 L540.4,592.6 L541.5,593.1
		L542.6,593.6 L543.7,594.1 L544.9,594.6 L546.0,595.1 L547.1,595.6 L548.2,596.1 L549.4,596.6 L550.5,597.1
		L551.6,597.6 L552.7,598.1 L553.9,598.5 L555.0,599.0 L556.1,599.5 L557.2,600.0 L558.4,600.5 L559.5,600.9
		L560.6,601.4 L561.7,601.9 L562.9,602.4 L564.0,602.8 L565.1,603.3 L566.2,603.7 L567.4,604.2 L568.5,604.7
		L569.6,605.1 L570.7,605.6 L571.9,606.0 L573.0,606.5 L574.1,606.9 L575.2,607.4 L576.4,607.8 L577.5,608.3
		L578.6,608.7 L579.8,609.2 L580.9,609.6 L582.0,610.1 L583.1,610.5 L584.3,610.9 L585.4,611.4 L586.5,611.8
		L587.6,612.2 L588.8,612.7 L589.9,613.1 L591.0,613.5 L592.1,613.9 L593.3,614.4 L594.4,614.8 L595.5,615.2
		L596.6,615.6 L597.8,616.0 L598.9,616.5 L600.0,616.9 L601.1,617.3 L602.3,617.7 L603.4,618.1 L604.5,618.5
		L605.6,618.9 L606.8,619.3 L607.9,619.7 L609.0,620.1 L610.1,620.5 L611.3,620.9 L612.4,621.3 L613.5,621.7
		L614.6,622.1 L615.8,622.5 L616.9,622.8 L618.0,623.2 L619.1,623.6 L620.3,624.0 L621.4,624.4 L622.5,624.8
		L623.6,625.1 L624.8,625.5 L625.9,625.9 L627.0,626.3 L628.1,626.6 L629.3,627.0 L630.4,627.4 L631.5,627.7
		L632.6,628.1 L633.8,628.5 L634.9,628.8 L636.0,629.2 L637.1,629.5 L638.3,629.9 L639.4,630.3 L640.5,630.6
		L641.6,631.0 L642.8,631.3 L643.9,631.7 L645.0,632.0 L646.2,632.4 L647.3,632.7 L648.4,633.0 L649.5,633.4
		L650.7,633.7 L651.8,634.1 L652.9,634.4 L654.0,634.7 L655.2,635.1 L656.3,635.4 L657.4,635.7 L658.5,636.0
		L659.7,636.4 L660.8,636.7 L661.9,637.0 L663.0,637.3 L664.2,637.7 L665.3,638.0 L666.4,638.3 L667.5,638.6
		L668.7,638.9 L669.8,639.2 L670.9,639.5 L672.0,639.9 L673.2,640.2 L674.3,640.5 L675.4,640.8 L676.5,641.1
		L677.7,641.4 L678.8,641.7 L679.9,642.0 L681.0,642.3 L682.2,642.6 L683.3,642.9 L684.4,643.2 L685.5,643.4
		L686.7,643.7 L687.8,644.0 L688.9,644.3 L690.0,644.6 L691.2,644.9 L692.3,645.1 L693.4,645.4 L694.5,645.7
		L695.7,646.0 L696.8,646.3 L697.9,646.5 L699.0,646.8 L700.2,647.1 L701.3,647.3 L702.4,647.6 L703.5,647.9
		L704.7,648.1 L705.8,648.4 L706.9,648.7 L708.0,648.9 L709.2,649.2 L710.3,649.4 L711.4,649.7 L712.5,649.9
		L713.7,650.2 L714.8,650.4 L715.9,650.7 L717.1,650.9 L718.2,651.2 L719.3,651.4 L720.4,651.6 L721.6,651.9
		L722.7,652.1 L723.8,652.4 L724.9,652.6 L726.1,652.8 L727.2,653.1 L728.3,653.3 L729.4,653.5 L730.6,653.7
		L731.7,654.0 L732.8,654.2 L733.9,654.4 L735.1,654.6 L736.2,654.9 L737.3,655.1 L738.4,655.3 L739.6,655.5
		L740.7,655.7 L741.8,655.9 L742.9,656.1 L744.1,656.3 L745.2,656.5 L746.3,656.7 L747.4,656.9 L748.6,657.1
		L749.7,657.3 L750.8,657.5 L751.9,657.7 L753.1,657.9 L754.2,658.1 L755.3,658.3 L756.4,658.5 L757.6,658.7
		L758.7,658.9 L759.8,659.0 L760.9,659.2 L762.1,659.4 L763.2,659.6 L764.3,659.8 L765.4,659.9 L766.6,660.1
		L767.7,660.3 L768.8,660.5 L769.9,660.6 L771.1,660.8 L772.2,661.0 L773.3,661.1 L774.4,661.3 L775.6,661.4
		L776.7,661.6 L777.8,661.7 L778.9,661.9 L780.1,662.1 L781.2,662.2 L782.3,662.4 L783.5,662.5 L784.6,662.6
		L785.7,662.8 L786.8,662.9 L788.0,663.1 L789.1,663.2 L790.2,663.3 L791.3,663.5 L792.5,663.6 L793.6,663.7
		L794.7,663.9 L795.8,664.0 L797.0,664.1 L798.1,664.2 L799.2,664.4 L800.3,664.5 L801.5,664.6 L802.6,664.7
		L803.7,664.8 L804.8,664.9 L806.0,665.1 L807.1,665.2 L808.2,665.3 L809.3,665.4 L810.5,665.5 L811.6,665.6
		L812.7,665.7 L813.8,665.8 L815.0,665.9 L816.1,666.0 L817.2,666.1 L818.3,666.2 L819.5,666.2 L820.6,666.3
		L821.7,666.4 L822.8,666.5 L824.0,666.6 L825.1,666.7 L826.2,666.7 L827.3,666.8 L828.5,666.9 L829.6,666.9
		L830.7,667.0 L831.8,667.1 L833.0,667.1 L834.1,667.2 L835.2,667.3 L836.3,667.3 L837.5,667.4 L838.6,667.4
		L839.7,667.5 L840.8,667.5 L842.0,667.6 L843.1,667.6 L844.2,667.7 L845.3,667.7 L846.5,667.8 L847.6,667.8
		L848.7,667.8 L849.9,667.9 L851.0,667.9 L852.1,667.9 L853.2,668.0 L854.4,668.0 L855.5,668.0 L856.6,668.0
		L857.7,668.1 L858.9,668.1 L860.0,668.1 L861.1,668.1 L862.2,668.1 L863.4,668.1 L864.5,668.1 L865.6,668.1
		L866.7,668.1 L867.9,668.1 L869.0,668.1 L870.1,668.1 L871.2,668.1 L872.4,668.1 L873.5,668.1 L874.6,668.1
		L875.7,668.1 L876.9,668.1 L878.0,668.1 L879.1,668.0 L880.2,668.0 L881.4,668.0 L882.5,668.0 L883.6,667.9
		L884.7,667.9 L885.9,667.9 L887.0,667.8 L888.1,667.8 L889.2,667.7 L890.4,667.7 L891.5,667.7 L892.6,667.6
		L893.7,667.6 L894.9,667.5 L896.0,667.4 L897.1,667.4 L898.2,667.3 L899.4,667.3 L900.5,667.2 L901.6,667.1
		L902.7,667.1 L903.9,667.0 L905.0,666.9 L906.1,666.8 L907.2,666.8 L908.4,666.7 L909.5,666.6 L910.6,666.5
		L911.7,666.4 L912.9,666.3 L914.0,666.2 L915.1,666.1 L916.2,666.1 L917.4,666.0 L918.5,665.8 L919.6,665.7
		L920.8,665.6 L921.9,665.5 L923.0,665.4 L924.1,665.3 L925.3,665.2 L926.4,665.1 L927.5,664.9 L928.6,664.8
		L929.8,664.7 L930.9,664.6 L932.0,664.4 L933.1,664.3 L934.3,664.2 L935.4,664.0 L936.5,663.9 L937.6,663.7
		L938.8,663.6 L939.9,663.4 L941.0,663.3 L942.1,663.1 L943.3,663.0 L944.4,662.8 L945.5,662.7 L946.6,662.5
		L947.8,662.3 L948.9,662.1 L950.0,662.0 L951.1,661.8 L952.3,661.6 L953.4,661.4 L954.5,661.3 L955.6,661.1
		L956.8,660.9 L957.9,660.7 L959.0,660.5 L960.1,660.3 L961.3,660.1 L962.4,659.9 L963.5,659.7 L964.6,659.5
		L965.8,659.3 L966.9,659.1 L968.0,658.9 L969.1,658.7 L970.3,658.4 L971.4,658.2 L972.5,658.0 L973.6,657.8
		L974.8,657.5 L975.9,657.3 L977.0,657.1 L978.1,656.8 L979.3,656.6 L980.4,656.4 L981.5,656.1 L982.6,655.9
		L983.8,655.6 L984.9,655.4 L986.0,655.1 L987.2,654.9 L988.3,654.6 L989.4,654.3 L990.5,654.1 L991.7,653.8
		L992.8,653.5 L993.9,653.3 L995.0,653.0 L996.2,652.7 L997.3,652.4 L998.4,652.1 L999.5,651.9 L1000.7,651.6
		L1001.8,651.3 L1002.9,651.0 L1004.0,650.7 L1005.2,650.4 L1006.3,650.1 L1007.4,649.8 L1008.5,649.5 L1009.7,649.2
		L1010.8,648.9 L1011.9,648.6 L1013.0,648.2 L1014.2,647.9 L1015.3,647.6 L1016.4,647.3 L1017.5,647.0 L1018.7,646.6
		L1019.8,646.3 L1020.9,646.0 L1022.0,645.6 L1023.2,645.3 L1024.3,645.0 L1025.4,644.6 L1026.5,644.3 L1027.7,643.9
		L1028.8,643.6 L1029.9,643.2 L1031.0,642.9 L1032.2,642.5 L1033.3,642.2 L1034.4,641.8 L1035.5,641.4 L1036.7,641.1
		L1037.8,640.7 L1038.9,640.3 L1040.0,640.0 L1041.2,639.6 L1042.3,639.2 L1043.4,638.8 L1044.5,638.5 L1045.7,638.1
		L1046.8,637.7 L1047.9,637.3 L1049.0,636.9 L1050.2,636.5 L1051.3,636.1 L1052.4,635.8 L1053.6,635.4 L1054.7,635.0
		L1055.8,634.6 L1056.9,634.2 L1058.1,633.8 L1059.2,633.3 L1060.3,632.9 L1061.4,632.5 L1062.6,632.1 L1063.7,631.7
		L1064.8,631.3 L1065.9,630.9 L1067.1,630.5 L1068.2,630.0 L1069.3,629.6 L1070.4,629.2 L1071.6,628.8 L1072.7,628.3
		L1073.8,627.9 L1074.9,627.5 L1076.1,627.1 L1077.2,626.6 L1078.3,626.2 L1079.4,625.8 L1080.6,625.3 L1081.7,624.9
		L1082.8,624.4 L1083.9,624.0 L1085.1,623.6 L1086.2,623.1 L1087.3,622.7 L1088.4,622.2 L1089.6,621.8 L1090.7,621.3
		L1091.8,620.9 L1092.9,620.5 L1094.1,620.0 L1095.2,619.6 L1096.3,619.1 L1097.4,618.6 L1098.6,618.2 L1099.7,617.7
		L1100.8,617.3 L1101.9,616.8 L1103.1,616.4 L1104.2,615.9 L1105.3,615.5 L1106.4,615.0 L1107.6,614.6 L1108.7,614.1
		L1109.8,613.6 L1110.9,613.2 L1112.1,612.7 L1113.2,612.3 L1114.3,611.8 L1115.4,611.4 L1116.6,610.9 L1117.7,610.4
		L1118.8,610.0 L1120.0,609.5 L1121.1,609.1 L1122.2,608.6 L1123.3,608.1 L1124.5,607.7 L1125.6,607.2 L1126.7,606.8
		L1127.8,606.3 L1129.0,605.9 L1130.1,605.4 L1131.2,605.0 L1132.3,604.5 L1133.5,604.0 L1134.6,603.6 L1135.7,603.1
		L1136.8,602.7 L1138.0,602.2 L1139.1,601.8 L1140.2,601.4 L1141.3,600.9 L1142.5,600.5 L1143.6,600.0 L1144.7,599.6
		L1145.8,599.1 L1147.0,598.7 L1148.1,598.3 L1149.2,597.8 L1150.3,597.4 L1151.5,597.0 L1152.6,596.5 L1153.7,596.1
		L1154.8,595.7 L1156.0,595.3 L1157.1,594.8 L1158.2,594.4 L1159.3,594.0 L1160.5,593.6 L1161.6,593.2 L1162.7,592.8
		L1163.8,592.4 L1165.0,592.0 L1166.1,591.6 L1167.2,591.2 L1168.3,590.8 L1169.5,590.4 L1170.6,590.0 L1171.7,589.6
		L1172.8,589.2 L1174.0,588.8 L1175.1,588.5 L1176.2,588.1 L1177.3,587.7 L1178.5,587.3 L1179.6,587.0 L1180.7,586.6
		L1181.8,586.3 L1183.0,585.9 L1184.1,585.6 L1185.2,585.2 L1186.3,584.9 L1187.5,584.5 L1188.6,584.2 L1189.7,583.9
		L1190.9,583.5 L1192.0,583.2 L1193.1,582.9 L1194.2,582.6 L1195.4,582.3 L1196.5,582.0 L1197.6,581.7 L1198.7,581.4
		L1199.9,581.1 L1201.0,580.8 L1202.1,580.5 L1203.2,580.3 L1204.4,580.0 L1205.5,579.7 L1206.6,579.5 L1207.7,579.2
		L1208.9,579.0 L1210.0,578.7 L1211.1,578.5 L1212.2,578.2 L1213.4,578.0 L1214.5,577.8 L1215.6,577.6 L1216.7,577.4
		L1217.9,577.1 L1219.0,576.9 L1220.1,576.8 L1221.2,576.6 L1222.4,576.4 L1223.5,576.2 L1224.6,576.0 L1225.7,575.9
		L1226.9,575.7 L1228.0,575.5 L1229.1,575.4 L1230.2,575.3 L1231.4,575.1 L1232.5,575.0 L1233.6,574.9 L1234.7,574.7
		L1235.9,574.6 L1237.0,574.5 L1238.1,574.4 L1239.2,574.3 L1240.4,574.3 L1241.5,574.2 L1242.6,574.1 L1243.7,574.0
		L1244.9,574.0 L1246.0,573.9 L1247.1,573.9 L1248.2,573.8 L1249.4,573.8 L1250.5,573.8 L1251.6,573.7 L1252.7,573.7
		L1253.9,573.7 L1255.0,573.7  '/></g>
	</g>
	<g id="gnuplot_plot_3" ><title>4 (both)</title>
<g fill="none" color="black" stroke="currentColor" stroke-width="1.00" stroke-linecap="butt" stroke-linejoin="miter">
	<g transform="translate(1187.9,112.0)" stroke="none" fill="black" font-family="Arial" font-size="12.00"  text-anchor="end">
		<text><tspan font-family="Arial" >4 (both)</tspan></text>
	</g>
</g>
<g fill="none" color="black" stroke="currentColor" stroke-width="1.00" stroke-linecap="butt" stroke-linejoin="miter">
	<path stroke='rgb( 86, 180, 233)'  d='M1196.2,108.1 L1238.4,108.1 M103.7,75.6 L104.8,76.1 L106.0,77.7 L107.1,80.2 L108.2,83.7 L109.3,87.9
		L110.5,92.9 L111.6,98.4 L112.7,104.4 L113.8,110.7 L115.0,117.3 L116.1,123.9 L117.2,130.7 L118.3,137.4
		L119.5,144.1 L120.6,150.7 L121.7,157.1 L122.8,163.3 L124.0,169.3 L125.1,175.1 L126.2,180.7 L127.3,186.0
		L128.5,191.1 L129.6,195.9 L130.7,200.6 L131.8,205.0 L133.0,209.2 L134.1,213.2 L135.2,217.0 L136.3,220.6
		L137.5,224.0 L138.6,227.3 L139.7,230.4 L140.8,233.4 L142.0,236.2 L143.1,238.9 L144.2,241.5 L145.3,244.0
		L146.5,246.3 L147.6,248.6 L148.7,250.8 L149.8,252.9 L151.0,254.9 L152.1,256.9 L153.2,258.8 L154.3,260.6
		L155.5,262.4 L156.6,264.1 L157.7,265.8 L158.8,267.4 L160.0,269.0 L161.1,270.6 L162.2,272.1 L163.3,273.6
		L164.5,275.1 L165.6,276.6 L166.7,278.0 L167.8,279.4 L169.0,280.8 L170.1,282.1 L171.2,283.5 L172.4,284.8
		L173.5,286.1 L174.6,287.4 L175.7,288.7 L176.9,290.0 L178.0,291.3 L179.1,292.5 L180.2,293.8 L181.4,295.0
		L182.5,296.2 L183.6,297.5 L184.7,298.7 L185.9,299.9 L187.0,301.1 L188.1,302.3 L189.2,303.5 L190.4,304.7
		L191.5,305.9 L192.6,307.1 L193.7,308.3 L194.9,309.5 L196.0,310.6 L197.1,311.8 L198.2,313.0 L199.4,314.2
		L200.5,315.3 L201.6,316.5 L202.7,317.7 L203.9,318.8 L205.0,320.0 L206.1,321.1 L207.2,322.3 L208.4,323.4
		L209.5,324.6 L210.6,325.7 L211.7,326.9 L212.9,328.0 L214.0,329.2 L215.1,330.3 L216.2,331.5 L217.4,332.6
		L218.5,333.7 L219.6,334.9 L220.7,336.0 L221.9,337.1 L223.0,338.3 L224.1,339.4 L225.2,340.5 L226.4,341.6
		L227.5,342.8 L228.6,343.9 L229.7,345.0 L230.9,346.1 L232.0,347.2 L233.1,348.4 L234.2,349.5 L235.4,350.6
		L236.5,351.7 L237.6,352.8 L238.7,353.9 L239.9,355.0 L241.0,356.1 L242.1,357.2 L243.3,358.3 L244.4,359.4
		L245.5,360.5 L246.6,361.6 L247.8,362.7 L248.9,363.8 L250.0,364.9 L251.1,366.0 L252.3,367.0 L253.4,368.1
		L254.5,369.2 L255.6,370.3 L256.8,371.3 L257.9,372.4 L259.0,373.5 L260.1,374.6 L261.3,375.6 L262.4,376.7
		L263.5,377.7 L264.6,378.8 L265.8,379.9 L266.9,380.9 L268.0,382.0 L269.1,383.0 L270.3,384.1 L271.4,385.1
		L272.5,386.1 L273.6,387.2 L274.8,388.2 L275.9,389.3 L277.0,390.3 L278.1,391.3 L279.3,392.4 L280.4,393.4
		L281.5,394.4 L282.6,395.4 L283.8,396.4 L284.9,397.5 L286.0,398.5 L287.1,399.5 L288.3,400.5 L289.4,401.5
		L290.5,402.5 L291.6,403.5 L292.8,404.5 L293.9,405.5 L295.0,406.5 L296.1,407.5 L297.3,408.5 L298.4,409.5
		L299.5,410.4 L300.6,411.4 L301.8,412.4 L302.9,413.4 L304.0,414.4 L305.1,415.3 L306.3,416.3 L307.4,417.3
		L308.5,418.2 L309.7,419.2 L310.8,420.2 L311.9,421.1 L313.0,422.1 L314.2,423.0 L315.3,424.0 L316.4,424.9
		L317.5,425.9 L318.7,426.8 L319.8,427.7 L320.9,428.7 L322.0,429.6 L323.2,430.6 L324.3,431.5 L325.4,432.4
		L326.5,433.3 L327.7,434.3 L328.8,435.2 L329.9,436.1 L331.0,437.0 L332.2,437.9 L333.3,438.8 L334.4,439.8
		L335.5,440.7 L336.7,441.6 L337.8,442.5 L338.9,443.4 L340.0,444.3 L341.2,445.2 L342.3,446.1 L343.4,446.9
		L344.5,447.8 L345.7,448.7 L346.8,449.6 L347.9,450.5 L349.0,451.4 L350.2,452.2 L351.3,453.1 L352.4,454.0
		L353.5,454.9 L354.7,455.7 L355.8,456.6 L356.9,457.5 L358.0,458.3 L359.2,459.2 L360.3,460.0 L361.4,460.9
		L362.5,461.8 L363.7,462.6 L364.8,463.5 L365.9,464.3 L367.0,465.1 L368.2,466.0 L369.3,466.8 L370.4,467.7
		L371.5,468.5 L372.7,469.3 L373.8,470.2 L374.9,471.0 L376.1,471.8 L377.2,472.7 L378.3,473.5 L379.4,474.3
		L380.6,475.1 L381.7,475.9 L382.8,476.8 L383.9,477.6 L385.1,478.4 L386.2,479.2 L387.3,480.0 L388.4,480.8
		L389.6,481.6 L390.7,482.4 L391.8,483.2 L392.9,484.0 L394.1,484.8 L395.2,485.6 L396.3,486.4 L397.4,487.2
		L398.6,488.0 L399.7,488.8 L400.8,489.6 L401.9,490.4 L403.1,491.1 L404.2,491.9 L405.3,492.7 L406.4,493.5
		L407.6,494.3 L408.7,495.0 L409.8,495.8 L410.9,496.6 L412.1,497.3 L413.2,498.1 L414.3,498.9 L415.4,499.6
		L416.6,500.4 L417.7,501.2 L418.8,501.9 L419.9,502.7 L421.1,503.4 L422.2,504.2 L423.3,504.9 L424.4,505.7
		L425.6,506.4 L426.7,507.2 L427.8,507.9 L428.9,508.7 L430.1,509.4 L431.2,510.2 L432.3,510.9 L433.4,511.6
		L434.6,512.4 L435.7,513.1 L436.8,513.8 L437.9,514.6 L439.1,515.3 L440.2,516.0 L441.3,516.8 L442.5,517.5
		L443.6,518.2 L444.7,518.9 L445.8,519.6 L447.0,520.4 L448.1,521.1 L449.2,521.8 L450.3,522.5 L451.5,523.2
		L452.6,523.9 L453.7,524.7 L454.8,525.4 L456.0,526.1 L457.1,526.8 L458.2,527.5 L459.3,528.2 L460.5,528.9
		L461.6,529.6 L462.7,530.3 L463.8,531.0 L465.0,531.7 L466.1,532.4 L467.2,533.1 L468.3,533.8 L469.5,534.5
		L470.6,535.2 L471.7,535.8 L472.8,536.5 L474.0,537.2 L475.1,537.9 L476.2,538.6 L477.3,539.3 L478.5,540.0
		L479.6,540.6 L480.7,541.3 L481.8,542.0 L483.0,542.7 L484.1,543.3 L485.2,544.0 L486.3,544.7 L487.5,545.4
		L488.6,546.0 L489.7,546.7 L490.8,547.4 L492.0,548.0 L493.1,548.7 L494.2,549.4 L495.3,550.0 L496.5,550.7
		L497.6,551.4 L498.7,552.0 L499.8,552.7 L501.0,553.3 L502.1,554.0 L503.2,554.7 L504.3,555.3 L505.5,556.0
		L506.6,556.6 L507.7,557.3 L508.8,557.9 L510.0,558.6 L511.1,559.2 L512.2,559.9 L513.4,560.5 L514.5,561.2
		L515.6,561.8 L516.7,562.4 L517.9,563.1 L519.0,563.7 L520.1,564.4 L521.2,565.0 L522.4,565.6 L523.5,566.3
		L524.6,566.9 L525.7,567.6 L526.9,568.2 L528.0,568.8 L529.1,569.5 L530.2,570.1 L531.4,570.7 L532.5,571.3
		L533.6,572.0 L534.7,572.6 L535.9,573.2 L537.0,573.8 L538.1,574.5 L539.2,575.1 L540.4,575.7 L541.5,576.3
		L542.6,577.0 L543.7,577.6 L544.9,578.2 L546.0,578.8 L547.1,579.4 L548.2,580.0 L549.4,580.7 L550.5,581.3
		L551.6,581.9 L552.7,582.5 L553.9,583.1 L555.0,583.7 L556.1,584.3 L557.2,584.9 L558.4,585.5 L559.5,586.1
		L560.6,586.7 L561.7,587.4 L562.9,588.0 L564.0,588.6 L565.1,589.2 L566.2,589.8 L567.4,590.4 L568.5,591.0
		L569.6,591.6 L570.7,592.2 L571.9,592.7 L573.0,593.3 L574.1,593.9 L575.2,594.5 L576.4,595.1 L577.5,595.7
		L578.6,596.3 L579.8,596.9 L580.9,597.5 L582.0,598.1 L583.1,598.7 L584.3,599.2 L585.4,599.8 L586.5,600.4
		L587.6,601.0 L588.8,601.6 L589.9,602.2 L591.0,602.7 L592.1,603.3 L593.3,603.9 L594.4,604.5 L595.5,605.0
		L596.6,605.6 L597.8,606.2 L598.9,606.8 L600.0,607.3 L601.1,607.9 L602.3,608.5 L603.4,609.0 L604.5,609.6
		L605.6,610.2 L606.8,610.7 L607.9,611.3 L609.0,611.9 L610.1,612.4 L611.3,613.0 L612.4,613.6 L613.5,614.1
		L614.6,614.7 L615.8,615.2 L616.9,615.8 L618.0,616.4 L619.1,616.9 L620.3,617.5 L621.4,618.0 L622.5,618.6
		L623.6,619.1 L624.8,619.7 L625.9,620.2 L627.0,620.8 L628.1,621.3 L629.3,621.9 L630.4,622.4 L631.5,622.9
		L632.6,623.5 L633.8,624.0 L634.9,624.6 L636.0,625.1 L637.1,625.6 L638.3,626.2 L639.4,626.7 L640.5,627.2
		L641.6,627.8 L642.8,628.3 L643.9,628.8 L645.0,629.4 L646.2,629.9 L647.3,630.4 L648.4,630.9 L649.5,631.5
		L650.7,632.0 L651.8,632.5 L652.9,633.0 L654.0,633.5 L655.2,634.1 L656.3,634.6 L657.4,635.1 L658.5,635.6
		L659.7,636.1 L660.8,636.6 L661.9,637.1 L663.0,637.6 L664.2,638.2 L665.3,638.7 L666.4,639.2 L667.5,639.7
		L668.7,640.2 L669.8,640.7 L670.9,641.2 L672.0,641.6 L673.2,642.1 L674.3,642.6 L675.4,643.1 L676.5,643.6
		L677.7,644.1 L678.8,644.6 L679.9,645.1 L681.0,645.5 L682.2,646.0 L683.3,646.5 L684.4,647.0 L685.5,647.5
		L686.7,647.9 L687.8,648.4 L688.9,648.9 L690.0,649.3 L691.2,649.8 L692.3,650.3 L693.4,650.7 L694.5,651.2
		L695.7,651.6 L696.8,652.1 L697.9,652.5 L699.0,653.0 L700.2,653.4 L701.3,653.9 L702.4,654.3 L703.5,654.8
		L704.7,655.2 L705.8,655.7 L706.9,656.1 L708.0,656.5 L709.2,657.0 L710.3,657.4 L711.4,657.8 L712.5,658.2
		L713.7,658.7 L714.8,659.1 L715.9,659.5 L717.1,659.9 L718.2,660.3 L719.3,660.7 L720.4,661.1 L721.6,661.5
		L722.7,662.0 L723.8,662.3 L724.9,662.7 L726.1,663.1 L727.2,663.5 L728.3,663.9 L729.4,664.3 L730.6,664.7
		L731.7,665.1 L732.8,665.4 L733.9,665.8 L735.1,666.2 L736.2,666.6 L737.3,666.9 L738.4,667.3 L739.6,667.6
		L740.7,668.0 L741.8,668.4 L742.9,668.7 L744.1,669.0 L745.2,669.4 L746.3,669.7 L747.4,670.1 L748.6,670.4
		L749.7,670.7 L750.8,671.1 L751.9,671.4 L753.1,671.7 L754.2,672.0 L755.3,672.3 L756.4,672.6 L757.6,672.9
		L758.7,673.3 L759.8,673.6 L760.9,673.8 L762.1,674.1 L763.2,674.4 L764.3,674.7 L765.4,675.0 L766.6,675.3
		L767.7,675.5 L768.8,675.8 L769.9,676.1 L771.1,676.3 L772.2,676.6 L773.3,676.8 L774.4,677.1 L775.6,677.3
		L776.7,677.6 L777.8,677.8 L778.9,678.1 L780.1,678.3 L781.2,678.5 L782.3,678.7 L783.5,678.9 L784.6,679.2
		L785.7,679.4 L786.8,679.6 L788.0,679.8 L789.1,680.0 L790.2,680.2 L791.3,680.3 L792.5,680.5 L793.6,680.7
		L794.7,680.9 L795.8,681.0 L797.0,681.2 L798.1,681.4 L799.2,681.5 L800.3,681.7 L801.5,681.8 L802.6,682.0
		L803.7,682.1 L804.8,682.2 L806.0,682.4 L807.1,682.5 L808.2,682.6 L809.3,682.7 L810.5,682.8 L811.6,682.9
		L812.7,683.0 L813.8,683.1 L815.0,683.2 L816.1,683.3 L817.2,683.4 L818.3,683.4 L819.5,683.5 L820.6,683.6
		L821.7,683.6 L822.8,683.7 L824.0,683.8 L825.1,683.8 L826.2,683.8 L827.3,683.9 L828.5,683.9 L829.6,683.9
		L830.7,684.0 L831.8,684.0 L833.0,684.0 L834.1,684.0 L835.2,684.0 L836.3,684.0 L837.5,684.0 L838.6,684.0
		L839.7,684.0 L840.8,683.9 L842.0,683.9 L843.1,683.9 L844.2,683.9 L845.3,683.8 L846.5,683.8 L847.6,683.7
		L848.7,683.7 L849.9,683.6 L851.0,683.5 L852.1,683.5 L853.2,683.4 L854.4,683.3 L855.5,683.2 L856.6,683.1
		L857.7,683.1 L858.9,683.0 L860.0,682.9 L861.1,682.8 L862.2,682.6 L863.4,682.5 L864.5,682.4 L865.6,682.3
		L866.7,682.2 L867.9,682.0 L869.0,681.9 L870.1,681.7 L871.2,681.6 L872.4,681.4 L873.5,681.3 L874.6,681.1
		L875.7,681.0 L876.9,680.8 L878.0,680.6 L879.1,680.5 L880.2,680.3 L881.4,680.1 L882.5,679.9 L883.6,679.7
		L884.7,679.5 L885.9,679.3 L887.0,679.1 L888.1,678.9 L889.2,678.7 L890.4,678.5 L891.5,678.2 L892.6,678.0
		L893.7,677.8 L894.9,677.6 L896.0,677.3 L897.1,677.1 L898.2,676.8 L899.4,676.6 L900.5,676.3 L901.6,676.1
		L902.7,675.8 L903.9,675.6 L905.0,675.3 L906.1,675.0 L907.2,674.8 L908.4,674.5 L909.5,674.2 L910.6,673.9
		L911.7,673.7 L912.9,673.4 L914.0,673.1 L915.1,672.8 L916.2,672.5 L917.4,672.2 L918.5,671.9 L919.6,671.6
		L920.8,671.3 L921.9,671.0 L923.0,670.6 L924.1,670.3 L925.3,670.0 L926.4,669.7 L927.5,669.4 L928.6,669.0
		L929.8,668.7 L930.9,668.4 L932.0,668.0 L933.1,667.7 L934.3,667.4 L935.4,667.0 L936.5,666.7 L937.6,666.3
		L938.8,666.0 L939.9,665.6 L941.0,665.3 L942.1,664.9 L943.3,664.6 L944.4,664.2 L945.5,663.9 L946.6,663.5
		L947.8,663.1 L948.9,662.8 L950.0,662.4 L951.1,662.0 L952.3,661.6 L953.4,661.3 L954.5,660.9 L955.6,660.5
		L956.8,660.1 L957.9,659.8 L959.0,659.4 L960.1,659.0 L961.3,658.6 L962.4,658.2 L963.5,657.8 L964.6,657.4
		L965.8,657.1 L966.9,656.7 L968.0,656.3 L969.1,655.9 L970.3,655.5 L971.4,655.1 L972.5,654.7 L973.6,654.3
		L974.8,653.9 L975.9,653.5 L977.0,653.1 L978.1,652.7 L979.3,652.3 L980.4,651.9 L981.5,651.5 L982.6,651.1
		L983.8,650.7 L984.9,650.3 L986.0,649.9 L987.2,649.5 L988.3,649.0 L989.4,648.6 L990.5,648.2 L991.7,647.8
		L992.8,647.4 L993.9,647.0 L995.0,646.6 L996.2,646.2 L997.3,645.8 L998.4,645.3 L999.5,644.9 L1000.7,644.5
		L1001.8,644.1 L1002.9,643.7 L1004.0,643.3 L1005.2,642.9 L1006.3,642.5 L1007.4,642.0 L1008.5,641.6 L1009.7,641.2
		L1010.8,640.8 L1011.9,640.4 L1013.0,640.0 L1014.2,639.6 L1015.3,639.1 L1016.4,638.7 L1017.5,638.3 L1018.7,637.9
		L1019.8,637.5 L1020.9,637.1 L1022.0,636.7 L1023.2,636.3 L1024.3,635.8 L1025.4,635.4 L1026.5,635.0 L1027.7,634.6
		L1028.8,634.2 L1029.9,633.8 L1031.0,633.4 L1032.2,633.0 L1033.3,632.6 L1034.4,632.2 L1035.5,631.8 L1036.7,631.4
		L1037.8,631.0 L1038.9,630.5 L1040.0,630.1 L1041.2,629.7 L1042.3,629.3 L1043.4,628.9 L1044.5,628.5 L1045.7,628.1
		L1046.8,627.7 L1047.9,627.3 L1049.0,626.9 L1050.2,626.5 L1051.3,626.2 L1052.4,625.8 L1053.6,625.4 L1054.7,625.0
		L1055.8,624.6 L1056.9,624.2 L1058.1,623.8 L1059.2,623.4 L1060.3,623.0 L1061.4,622.6 L1062.6,622.3 L1063.7,621.9
		L1064.8,621.5 L1065.9,621.1 L1067.1,620.7 L1068.2,620.3 L1069.3,620.0 L1070.4,619.6 L1071.6,619.2 L1072.7,618.8
		L1073.8,618.5 L1074.9,618.1 L1076.1,617.7 L1077.2,617.4 L1078.3,617.0 L1079.4,616.6 L1080.6,616.3 L1081.7,615.9
		L1082.8,615.5 L1083.9,615.2 L1085.1,614.8 L1086.2,614.5 L1087.3,614.1 L1088.4,613.7 L1089.6,613.4 L1090.7,613.0
		L1091.8,612.7 L1092.9,612.3 L1094.1,612.0 L1095.2,611.7 L1096.3,611.3 L1097.4,611.0 L1098.6,610.6 L1099.7,610.3
		L1100.8,610.0 L1101.9,609.6 L1103.1,609.3 L1104.2,609.0 L1105.3,608.6 L1106.4,608.3 L1107.6,608.0 L1108.7,607.6
		L1109.8,607.3 L1110.9,607.0 L1112.1,606.7 L1113.2,606.4 L1114.3,606.1 L1115.4,605.7 L1116.6,605.4 L1117.7,605.1
		L1118.8,604.8 L1120.0,604.5 L1121.1,604.2 L1122.2,603.9 L1123.3,603.6 L1124.5,603.3 L1125.6,603.0 L1126.7,602.7
		L1127.8,602.4 L1129.0,602.1 L1130.1,601.9 L1131.2,601.6 L1132.3,601.3 L1133.5,601.0 L1134.6,600.7 L1135.7,600.5
		L1136.8,600.2 L1138.0,599.9 L1139.1,599.6 L1140.2,599.4 L1141.3,599.1 L1142.5,598.8 L1143.6,598.6 L1144.7,598.3
		L1145.8,598.1 L1147.0,597.8 L1148.1,597.6 L1149.2,597.3 L1150.3,597.1 L1151.5,596.8 L1152.6,596.6 L1153.7,596.3
		L1154.8,596.1 L1156.0,595.9 L1157.1,595.6 L1158.2,595.4 L1159.3,595.2 L1160.5,594.9 L1161.6,594.7 L1162.7,594.5
		L1163.8,594.3 L1165.0,594.1 L1166.1,593.9 L1167.2,593.6 L1168.3,593.4 L1169.5,593.2 L1170.6,593.0 L1171.7,592.8
		L1172.8,592.6 L1174.0,592.4 L1175.1,592.2 L1176.2,592.0 L1177.3,591.8 L1178.5,591.7 L1179.6,591.5 L1180.7,591.3
		L1181.8,591.1 L1183.0,590.9 L1184.1,590.8 L1185.2,590.6 L1186.3,590.4 L1187.5,590.3 L1188.6,590.1 L1189.7,589.9
		L1190.9,589.8 L1192.0,589.6 L1193.1,589.5 L1194.2,589.3 L1195.4,589.2 L1196.5,589.0 L1197.6,588.9 L1198.7,588.7
		L1199.9,588.6 L1201.0,588.5 L1202.1,588.3 L1203.2,588.2 L1204.4,588.1 L1205.5,588.0 L1206.6,587.8 L1207.7,587.7
		L1208.9,587.6 L1210.0,587.5 L1211.1,587.4 L1212.2,587.3 L1213.4,587.2 L1214.5,587.1 L1215.6,587.0 L1216.7,586.9
		L1217.9,586.8 L1219.0,586.7 L1220.1,586.6 L1221.2,586.5 L1222.4,586.4 L1223.5,586.3 L1224.6,586.3 L1225.7,586.2
		L1226.9,586.1 L1228.0,586.1 L1229.1,586.0 L1230.2,585.9 L1231.4,585.9 L1232.5,585.8 L1233.6,585.8 L1234.7,585.7
		L1235.9,585.7 L1237.0,585.6 L1238.1,585.6 L1239.2,585.5 L1240.4,585.5 L1241.5,585.4 L1242.6,585.4 L1243.7,585.4
		L1244.9,585.4 L1246.0,585.3 L1247.1,585.3 L1248.2,585.3 L1249.4,585.3 L1250.5,585.3 L1251.6,585.3 L1252.7,585.2
		L1253.9,585.2 L1255.0,585.2  '/></g>
	</g>
	<g id="gnuplot_plot_4" ><title>8 (both)</title>
<g fill="none" color="black" stroke="currentColor" stroke-width="1.00" stroke-linecap="butt" stroke-linejoin="miter">
	<g transform="translate(1187.9,130.0)" stroke="none" fill="black" font-family="Arial" font-size="12.00"  text-anchor="end">
		<text><tspan font-family="Arial" >8 (both)</tspan></text>
	</g>
</g>
<g fill="none" color="black" stroke="currentColor" stroke-width="1.00" stroke-linecap="butt" stroke-linejoin="miter">
	<path stroke='rgb(230, 159,   0)'  d='M1196.2,126.1 L1238.4,126.1 M103.7,59.6 L104.8,64.3 L106.0,74.7 L107.1,85.1 L108.2,93.3 L109.3,99.6
		L110.5,104.7 L111.6,109.1 L112.7,113.3 L113.8,117.4 L115.0,121.5 L116.1,125.7 L117.2,130.0 L118.3,134.4
		L119.5,138.8 L120.6,143.3 L121.7,147.9 L122.8,152.4 L124.0,157.0 L125.1,161.6 L126.2,166.2 L127.3,170.7
		L128.5,175.1 L129.6,179.6 L130.7,183.9 L131.8,188.2 L133.0,192.4 L134.1,196.5 L135.2,200.5 L136.3,204.4
		L137.5,208.3 L138.6,212.0 L139.7,215.7 L140.8,219.2 L142.0,222.7 L143.1,226.0 L144.2,229.3 L145.3,232.5
		L146.5,235.6 L147.6,238.6 L148.7,241.5 L149.8,244.3 L151.0,247.1 L152.1,249.8 L153.2,252.4 L154.3,254.9
		L155.5,257.4 L156.6,259.8 L157.7,262.1 L158.8,264.4 L160.0,266.6 L161.1,268.8 L162.2,270.9 L163.3,272.9
		L164.5,274.9 L165.6,276.9 L166.7,278.8 L167.8,280.7 L169.0,282.5 L170.1,284.3 L171.2,286.0 L172.4,287.7
		L173.5,289.4 L174.6,291.1 L175.7,292.7 L176.9,294.3 L178.0,295.8 L179.1,297.3 L180.2,298.8 L181.4,300.3
		L182.5,301.8 L183.6,303.2 L184.7,304.6 L185.9,306.0 L187.0,307.4 L188.1,308.7 L189.2,310.1 L190.4,311.4
		L191.5,312.7 L192.6,314.0 L193.7,315.2 L194.9,316.5 L196.0,317.7 L197.1,319.0 L198.2,320.2 L199.4,321.4
		L200.5,322.6 L201.6,323.8 L202.7,324.9 L203.9,326.1 L205.0,327.3 L206.1,328.4 L207.2,329.5 L208.4,330.7
		L209.5,331.8 L210.6,332.9 L211.7,334.0 L212.9,335.1 L214.0,336.2 L215.1,337.3 L216.2,338.4 L217.4,339.5
		L218.5,340.5 L219.6,341.6 L220.7,342.7 L221.9,343.7 L223.0,344.8 L224.1,345.8 L225.2,346.9 L226.4,347.9
		L227.5,348.9 L228.6,350.0 L229.7,351.0 L230.9,352.0 L232.0,353.0 L233.1,354.0 L234.2,355.0 L235.4,356.1
		L236.5,357.1 L237.6,358.1 L238.7,359.1 L239.9,360.1 L241.0,361.1 L242.1,362.0 L243.3,363.0 L244.4,364.0
		L245.5,365.0 L246.6,366.0 L247.8,367.0 L248.9,368.0 L250.0,368.9 L251.1,369.9 L252.3,370.9 L253.4,371.8
		L254.5,372.8 L255.6,373.8 L256.8,374.7 L257.9,375.7 L259.0,376.7 L260.1,377.6 L261.3,378.6 L262.4,379.5
		L263.5,380.5 L264.6,381.5 L265.8,382.4 L266.9,383.4 L268.0,384.3 L269.1,385.3 L270.3,386.2 L271.4,387.1
		L272.5,388.1 L273.6,389.0 L274.8,390.0 L275.9,390.9 L277.0,391.8 L278.1,392.8 L279.3,393.7 L280.4,394.7
		L281.5,395.6 L282.6,396.5 L283.8,397.5 L284.9,398.4 L286.0,399.3 L287.1,400.2 L288.3,401.2 L289.4,402.1
		L290.5,403.0 L291.6,403.9 L292.8,404.9 L293.9,405.8 L295.0,406.7 L296.1,407.6 L297.3,408.5 L298.4,409.4
		L299.5,410.4 L300.6,411.3 L301.8,412.2 L302.9,413.1 L304.0,414.0 L305.1,414.9 L306.3,415.8 L307.4,416.7
		L308.5,417.6 L309.7,418.5 L310.8,419.4 L311.9,420.3 L313.0,421.2 L314.2,422.1 L315.3,423.0 L316.4,423.9
		L317.5,424.8 L318.7,425.7 L319.8,426.6 L320.9,427.5 L322.0,428.4 L323.2,429.3 L324.3,430.2 L325.4,431.1
		L326.5,432.0 L327.7,432.9 L328.8,433.7 L329.9,434.6 L331.0,435.5 L332.2,436.4 L333.3,437.3 L334.4,438.2
		L335.5,439.0 L336.7,439.9 L337.8,440.8 L338.9,441.7 L340.0,442.5 L341.2,443.4 L342.3,444.3 L343.4,445.2
		L344.5,446.0 L345.7,446.9 L346.8,447.8 L347.9,448.6 L349.0,449.5 L350.2,450.4 L351.3,451.2 L352.4,452.1
		L353.5,452.9 L354.7,453.8 L355.8,454.7 L356.9,455.5 L358.0,456.4 L359.2,457.2 L360.3,458.1 L361.4,458.9
		L362.5,459.8 L363.7,460.6 L364.8,461.5 L365.9,462.3 L367.0,463.2 L368.2,464.0 L369.3,464.8 L370.4,465.7
		L371.5,466.5 L372.7,467.4 L373.8,468.2 L374.9,469.0 L376.1,469.9 L377.2,470.7 L378.3,471.5 L379.4,472.4
		L380.6,473.2 L381.7,474.0 L382.8,474.9 L383.9,475.7 L385.1,476.5 L386.2,477.3 L387.3,478.2 L388.4,479.0
		L389.6,479.8 L390.7,480.6 L391.8,481.4 L392.9,482.3 L394.1,483.1 L395.2,483.9 L396.3,484.7 L397.4,485.5
		L398.6,486.3 L399.7,487.1 L400.8,487.9 L401.9,488.7 L403.1,489.5 L404.2,490.4 L405.3,491.2 L406.4,492.0
		L407.6,492.8 L408.7,493.6 L409.8,494.4 L410.9,495.1 L412.1,495.9 L413.2,496.7 L414.3,497.5 L415.4,498.3
		L416.6,499.1 L417.7,499.9 L418.8,500.7 L419.9,501.5 L421.1,502.2 L422.2,503.0 L423.3,503.8 L424.4,504.6
		L425.6,505.4 L426.7,506.1 L427.8,506.9 L428.9,507.7 L430.1,508.5 L431.2,509.2 L432.3,510.0 L433.4,510.8
		L434.6,511.6 L435.7,512.3 L436.8,513.1 L437.9,513.9 L439.1,514.6 L440.2,515.4 L441.3,516.1 L442.5,516.9
		L443.6,517.7 L444.7,518.4 L445.8,519.2 L447.0,519.9 L448.1,520.7 L449.2,521.4 L450.3,522.2 L451.5,522.9
		L452.6,523.7 L453.7,524.4 L454.8,525.2 L456.0,525.9 L457.1,526.6 L458.2,527.4 L459.3,528.1 L460.5,528.9
		L461.6,529.6 L462.7,530.3 L463.8,531.1 L465.0,531.8 L466.1,532.5 L467.2,533.3 L468.3,534.0 L469.5,534.7
		L470.6,535.4 L471.7,536.2 L472.8,536.9 L474.0,537.6 L475.1,538.3 L476.2,539.0 L477.3,539.8 L478.5,540.5
		L479.6,541.2 L480.7,541.9 L481.8,542.6 L483.0,543.3 L484.1,544.0 L485.2,544.8 L486.3,545.5 L487.5,546.2
		L488.6,546.9 L489.7,547.6 L490.8,548.3 L492.0,549.0 L493.1,549.7 L494.2,550.4 L495.3,551.1 L496.5,551.8
		L497.6,552.5 L498.7,553.2 L499.8,553.8 L501.0,554.5 L502.1,555.2 L503.2,555.9 L504.3,556.6 L505.5,557.3
		L506.6,558.0 L507.7,558.7 L508.8,559.3 L510.0,560.0 L511.1,560.7 L512.2,561.4 L513.4,562.0 L514.5,562.7
		L515.6,563.4 L516.7,564.1 L517.9,564.7 L519.0,565.4 L520.1,566.1 L521.2,566.7 L522.4,567.4 L523.5,568.1
		L524.6,568.7 L525.7,569.4 L526.9,570.0 L528.0,570.7 L529.1,571.4 L530.2,572.0 L531.4,572.7 L532.5,573.3
		L533.6,574.0 L534.7,574.6 L535.9,575.3 L537.0,575.9 L538.1,576.6 L539.2,577.2 L540.4,577.9 L541.5,578.5
		L542.6,579.1 L543.7,579.8 L544.9,580.4 L546.0,581.1 L547.1,581.7 L548.2,582.3 L549.4,583.0 L550.5,583.6
		L551.6,584.2 L552.7,584.9 L553.9,585.5 L555.0,586.1 L556.1,586.7 L557.2,587.4 L558.4,588.0 L559.5,588.6
		L560.6,589.2 L561.7,589.8 L562.9,590.5 L564.0,591.1 L565.1,591.7 L566.2,592.3 L567.4,592.9 L568.5,593.5
		L569.6,594.1 L570.7,594.7 L571.9,595.4 L573.0,596.0 L574.1,596.6 L575.2,597.2 L576.4,597.8 L577.5,598.4
		L578.6,599.0 L579.8,599.6 L580.9,600.2 L582.0,600.7 L583.1,601.3 L584.3,601.9 L585.4,602.5 L586.5,603.1
		L587.6,603.7 L588.8,604.3 L589.9,604.9 L591.0,605.5 L592.1,606.0 L593.3,606.6 L594.4,607.2 L595.5,607.8
		L596.6,608.3 L597.8,608.9 L598.9,609.5 L600.0,610.1 L601.1,610.6 L602.3,611.2 L603.4,611.8 L604.5,612.3
		L605.6,612.9 L606.8,613.5 L607.9,614.0 L609.0,614.6 L610.1,615.1 L611.3,615.7 L612.4,616.3 L613.5,616.8
		L614.6,617.4 L615.8,617.9 L616.9,618.5 L618.0,619.0 L619.1,619.6 L620.3,620.1 L621.4,620.6 L622.5,621.2
		L623.6,621.7 L624.8,622.3 L625.9,622.8 L627.0,623.3 L628.1,623.9 L629.3,624.4 L630.4,624.9 L631.5,625.5
		L632.6,626.0 L633.8,626.5 L634.9,627.1 L636.0,627.6 L637.1,628.1 L638.3,628.6 L639.4,629.1 L640.5,629.7
		L641.6,630.2 L642.8,630.7 L643.9,631.2 L645.0,631.7 L646.2,632.2 L647.3,632.7 L648.4,633.2 L649.5,633.7
		L650.7,634.2 L651.8,634.7 L652.9,635.2 L654.0,635.7 L655.2,636.2 L656.3,636.7 L657.4,637.2 L658.5,637.7
		L659.7,638.2 L660.8,638.7 L661.9,639.1 L663.0,639.6 L664.2,640.1 L665.3,640.6 L666.4,641.1 L667.5,641.5
		L668.7,642.0 L669.8,642.5 L670.9,642.9 L672.0,643.4 L673.2,643.9 L674.3,644.3 L675.4,644.8 L676.5,645.2
		L677.7,645.7 L678.8,646.2 L679.9,646.6 L681.0,647.1 L682.2,647.5 L683.3,648.0 L684.4,648.4 L685.5,648.8
		L686.7,649.3 L687.8,649.7 L688.9,650.2 L690.0,650.6 L691.2,651.0 L692.3,651.4 L693.4,651.9 L694.5,652.3
		L695.7,652.7 L696.8,653.1 L697.9,653.6 L699.0,654.0 L700.2,654.4 L701.3,654.8 L702.4,655.2 L703.5,655.6
		L704.7,656.0 L705.8,656.4 L706.9,656.8 L708.0,657.2 L709.2,657.6 L710.3,658.0 L711.4,658.4 L712.5,658.8
		L713.7,659.2 L714.8,659.5 L715.9,659.9 L717.1,660.3 L718.2,660.7 L719.3,661.0 L720.4,661.4 L721.6,661.8
		L722.7,662.1 L723.8,662.5 L724.9,662.8 L726.1,663.2 L727.2,663.6 L728.3,663.9 L729.4,664.3 L730.6,664.6
		L731.7,664.9 L732.8,665.3 L733.9,665.6 L735.1,665.9 L736.2,666.3 L737.3,666.6 L738.4,666.9 L739.6,667.2
		L740.7,667.6 L741.8,667.9 L742.9,668.2 L744.1,668.5 L745.2,668.8 L746.3,669.1 L747.4,669.4 L748.6,669.7
		L749.7,670.0 L750.8,670.3 L751.9,670.6 L753.1,670.8 L754.2,671.1 L755.3,671.4 L756.4,671.7 L757.6,671.9
		L758.7,672.2 L759.8,672.5 L760.9,672.7 L762.1,673.0 L763.2,673.2 L764.3,673.5 L765.4,673.7 L766.6,674.0
		L767.7,674.2 L768.8,674.4 L769.9,674.7 L771.1,674.9 L772.2,675.1 L773.3,675.4 L774.4,675.6 L775.6,675.8
		L776.7,676.0 L777.8,676.2 L778.9,676.4 L780.1,676.6 L781.2,676.8 L782.3,677.0 L783.5,677.2 L784.6,677.4
		L785.7,677.5 L786.8,677.7 L788.0,677.9 L789.1,678.1 L790.2,678.2 L791.3,678.4 L792.5,678.5 L793.6,678.7
		L794.7,678.8 L795.8,679.0 L797.0,679.1 L798.1,679.3 L799.2,679.4 L800.3,679.5 L801.5,679.7 L802.6,679.8
		L803.7,679.9 L804.8,680.0 L806.0,680.1 L807.1,680.2 L808.2,680.3 L809.3,680.4 L810.5,680.5 L811.6,680.6
		L812.7,680.7 L813.8,680.8 L815.0,680.8 L816.1,680.9 L817.2,681.0 L818.3,681.1 L819.5,681.1 L820.6,681.2
		L821.7,681.2 L822.8,681.3 L824.0,681.3 L825.1,681.4 L826.2,681.4 L827.3,681.4 L828.5,681.4 L829.6,681.5
		L830.7,681.5 L831.8,681.5 L833.0,681.5 L834.1,681.5 L835.2,681.5 L836.3,681.5 L837.5,681.5 L838.6,681.5
		L839.7,681.5 L840.8,681.5 L842.0,681.4 L843.1,681.4 L844.2,681.4 L845.3,681.3 L846.5,681.3 L847.6,681.3
		L848.7,681.2 L849.9,681.2 L851.0,681.1 L852.1,681.0 L853.2,681.0 L854.4,680.9 L855.5,680.8 L856.6,680.7
		L857.7,680.7 L858.9,680.6 L860.0,680.5 L861.1,680.4 L862.2,680.3 L863.4,680.2 L864.5,680.1 L865.6,680.0
		L866.7,679.9 L867.9,679.7 L869.0,679.6 L870.1,679.5 L871.2,679.4 L872.4,679.2 L873.5,679.1 L874.6,679.0
		L875.7,678.8 L876.9,678.7 L878.0,678.5 L879.1,678.3 L880.2,678.2 L881.4,678.0 L882.5,677.9 L883.6,677.7
		L884.7,677.5 L885.9,677.3 L887.0,677.1 L888.1,677.0 L889.2,676.8 L890.4,676.6 L891.5,676.4 L892.6,676.2
		L893.7,676.0 L894.9,675.8 L896.0,675.6 L897.1,675.3 L898.2,675.1 L899.4,674.9 L900.5,674.7 L901.6,674.4
		L902.7,674.2 L903.9,674.0 L905.0,673.7 L906.1,673.5 L907.2,673.3 L908.4,673.0 L909.5,672.8 L910.6,672.5
		L911.7,672.2 L912.9,672.0 L914.0,671.7 L915.1,671.5 L916.2,671.2 L917.4,670.9 L918.5,670.6 L919.6,670.4
		L920.8,670.1 L921.9,669.8 L923.0,669.5 L924.1,669.2 L925.3,668.9 L926.4,668.6 L927.5,668.3 L928.6,668.0
		L929.8,667.7 L930.9,667.4 L932.0,667.1 L933.1,666.8 L934.3,666.5 L935.4,666.2 L936.5,665.9 L937.6,665.6
		L938.8,665.2 L939.9,664.9 L941.0,664.6 L942.1,664.3 L943.3,663.9 L944.4,663.6 L945.5,663.3 L946.6,662.9
		L947.8,662.6 L948.9,662.3 L950.0,661.9 L951.1,661.6 L952.3,661.2 L953.4,660.9 L954.5,660.5 L955.6,660.2
		L956.8,659.8 L957.9,659.5 L959.0,659.1 L960.1,658.8 L961.3,658.4 L962.4,658.0 L963.5,657.7 L964.6,657.3
		L965.8,656.9 L966.9,656.6 L968.0,656.2 L969.1,655.8 L970.3,655.5 L971.4,655.1 L972.5,654.7 L973.6,654.3
		L974.8,654.0 L975.9,653.6 L977.0,653.2 L978.1,652.8 L979.3,652.5 L980.4,652.1 L981.5,651.7 L982.6,651.3
		L983.8,650.9 L984.9,650.5 L986.0,650.1 L987.2,649.8 L988.3,649.4 L989.4,649.0 L990.5,648.6 L991.7,648.2
		L992.8,647.8 L993.9,647.4 L995.0,647.0 L996.2,646.6 L997.3,646.2 L998.4,645.8 L999.5,645.5 L1000.7,645.1
		L1001.8,644.7 L1002.9,644.3 L1004.0,643.9 L1005.2,643.5 L1006.3,643.1 L1007.4,642.7 L1008.5,642.3 L1009.7,641.9
		L1010.8,641.5 L1011.9,641.1 L1013.0,640.7 L1014.2,640.3 L1015.3,639.9 L1016.4,639.5 L1017.5,639.1 L1018.7,638.7
		L1019.8,638.3 L1020.9,637.9 L1022.0,637.5 L1023.2,637.1 L1024.3,636.7 L1025.4,636.3 L1026.5,635.9 L1027.7,635.5
		L1028.8,635.1 L1029.9,634.7 L1031.0,634.3 L1032.2,633.9 L1033.3,633.5 L1034.4,633.1 L1035.5,632.7 L1036.7,632.3
		L1037.8,631.9 L1038.9,631.5 L1040.0,631.1 L1041.2,630.7 L1042.3,630.3 L1043.4,630.0 L1044.5,629.6 L1045.7,629.2
		L1046.8,628.8 L1047.9,628.4 L1049.0,628.0 L1050.2,627.6 L1051.3,627.2 L1052.4,626.8 L1053.6,626.4 L1054.7,626.1
		L1055.8,625.7 L1056.9,625.3 L1058.1,624.9 L1059.2,624.5 L1060.3,624.1 L1061.4,623.8 L1062.6,623.4 L1063.7,623.0
		L1064.8,622.6 L1065.9,622.2 L1067.1,621.9 L1068.2,621.5 L1069.3,621.1 L1070.4,620.8 L1071.6,620.4 L1072.7,620.0
		L1073.8,619.6 L1074.9,619.3 L1076.1,618.9 L1077.2,618.5 L1078.3,618.2 L1079.4,617.8 L1080.6,617.4 L1081.7,617.1
		L1082.8,616.7 L1083.9,616.4 L1085.1,616.0 L1086.2,615.7 L1087.3,615.3 L1088.4,615.0 L1089.6,614.6 L1090.7,614.3
		L1091.8,613.9 L1092.9,613.6 L1094.1,613.2 L1095.2,612.9 L1096.3,612.5 L1097.4,612.2 L1098.6,611.8 L1099.7,611.5
		L1100.8,611.2 L1101.9,610.8 L1103.1,610.5 L1104.2,610.2 L1105.3,609.8 L1106.4,609.5 L1107.6,609.2 L1108.7,608.9
		L1109.8,608.6 L1110.9,608.2 L1112.1,607.9 L1113.2,607.6 L1114.3,607.3 L1115.4,607.0 L1116.6,606.7 L1117.7,606.3
		L1118.8,606.0 L1120.0,605.7 L1121.1,605.4 L1122.2,605.1 L1123.3,604.8 L1124.5,604.5 L1125.6,604.2 L1126.7,603.9
		L1127.8,603.7 L1129.0,603.4 L1130.1,603.1 L1131.2,602.8 L1132.3,602.5 L1133.5,602.2 L1134.6,601.9 L1135.7,601.7
		L1136.8,601.4 L1138.0,601.1 L1139.1,600.8 L1140.2,600.6 L1141.3,600.3 L1142.5,600.0 L1143.6,599.8 L1144.7,599.5
		L1145.8,599.3 L1147.0,599.0 L1148.1,598.8 L1149.2,598.5 L1150.3,598.3 L1151.5,598.0 L1152.6,597.8 L1153.7,597.5
		L1154.8,597.3 L1156.0,597.0 L1157.1,596.8 L1158.2,596.6 L1159.3,596.3 L1160.5,596.1 L1161.6,595.9 L1162.7,595.7
		L1163.8,595.4 L1165.0,595.2 L1166.1,595.0 L1167.2,594.8 L1168.3,594.6 L1169.5,594.4 L1170.6,594.2 L1171.7,594.0
		L1172.8,593.8 L1174.0,593.6 L1175.1,593.4 L1176.2,593.2 L1177.3,593.0 L1178.5,592.8 L1179.6,592.6 L1180.7,592.4
		L1181.8,592.3 L1183.0,592.1 L1184.1,591.9 L1185.2,591.7 L1186.3,591.6 L1187.5,591.4 L1188.6,591.2 L1189.7,591.1
		L1190.9,590.9 L1192.0,590.7 L1193.1,590.6 L1194.2,590.4 L1195.4,590.3 L1196.5,590.1 L1197.6,590.0 L1198.7,589.9
		L1199.9,589.7 L1201.0,589.6 L1202.1,589.4 L1203.2,589.3 L1204.4,589.2 L1205.5,589.1 L1206.6,588.9 L1207.7,588.8
		L1208.9,588.7 L1210.0,588.6 L1211.1,588.5 L1212.2,588.4 L1213.4,588.3 L1214.5,588.2 L1215.6,588.1 L1216.7,588.0
		L1217.9,587.9 L1219.0,587.8 L1220.1,587.7 L1221.2,587.6 L1222.4,587.5 L1223.5,587.4 L1224.6,587.4 L1225.7,587.3
		L1226.9,587.2 L1228.0,587.1 L1229.1,587.1 L1230.2,587.0 L1231.4,586.9 L1232.5,586.9 L1233.6,586.8 L1234.7,586.8
		L1235.9,586.7 L1237.0,586.7 L1238.1,586.6 L1239.2,586.6 L1240.4,586.6 L1241.5,586.5 L1242.6,586.5 L1243.7,586.5
		L1244.9,586.4 L1246.0,586.4 L1247.1,586.4 L1248.2,586.4 L1249.4,586.4 L1250.5,586.3 L1251.6,586.3 L1252.7,586.3
		L1253.9,586.3 L1255.0,586.3  '/></g>
	</g>
<g fill="none" color="white" stroke="rgb(230, 159,   0)" stroke-width="2.00" stroke-linecap="butt" stroke-linejoin="miter">
</g>
<g fill="none" color="black" stroke="currentColor" stroke-width="2.00" stroke-linecap="butt" stroke-linejoin="miter">
</g>
<g fill="none" color="black" stroke="black" stroke-width="1.00" stroke-linecap="butt" stroke-linejoin="miter">
</g>
<g fill="none" color="black" stroke="currentColor" stroke-width="1.00" stroke-linecap="butt" stroke-linejoin="miter">
	<path stroke='black'  d='M103.7,54.1 L103.7,684.0 L1255.0,684.0 L1255.0,54.1 L103.7,54.1 Z  '/></g>
<g fill="none" color="black" stroke="currentColor" stroke-width="1.00" stroke-linecap="butt" stroke-linejoin="miter">
</g>
</g>
</svg>

