<?xml version="1.0" encoding="utf-8"  standalone="no"?>
<svg 
 width="1280" height="720"
 viewBox="0 0 1280 720"
 xmlns="http://www.w3.org/2000/svg"
 xmlns:xlink="http://www.w3.org/1999/xlink"
>

<title>Gnuplot</title>
<desc>Produced by GNUPLOT 5.2 patchlevel 2 </desc>

<g id="gnuplot_canvas">

<rect x="0" y="0" width="1280" height="720" fill="none"/>
<defs>

	<circle id='gpDot' r='0.5' stroke-width='0.5'/>
	<path id='gpPt0' stroke-width='0.222' stroke='currentColor' d='M-1,0 h2 M0,-1 v2'/>
	<path id='gpPt1' stroke-width='0.222' stroke='currentColor' d='M-1,-1 L1,1 M1,-1 L-1,1'/>
	<path id='gpPt2' stroke-width='0.222' stroke='currentColor' d='M-1,0 L1,0 M0,-1 L0,1 M-1,-1 L1,1 M-1,1 L1,-1'/>
	<rect id='gpPt3' stroke-width='0.222' stroke='currentColor' x='-1' y='-1' width='2' height='2'/>
	<rect id='gpPt4' stroke-width='0.222' stroke='currentColor' fill='currentColor' x='-1' y='-1' width='2' height='2'/>
	<circle id='gpPt5' stroke-width='0.222' stroke='currentColor' cx='0' cy='0' r='1'/>
	<use xlink:href='#gpPt5' id='gpPt6' fill='currentColor' stroke='none'/>
	<path id='gpPt7' stroke-width='0.222' stroke='currentColor' d='M0,-1.33 L-1.33,0.67 L1.33,0.67 z'/>
	<use xlink:href='#gpPt7' id='gpPt8' fill='currentColor' stroke='none'/>
	<use xlink:href='#gpPt7' id='gpPt9' stroke='currentColor' transform='rotate(180)'/>
	<use xlink:href='#gpPt9' id='gpPt10' fill='currentColor' stroke='none'/>
	<use xlink:href='#gpPt3' id='gpPt11' stroke='currentColor' transform='rotate(45)'/>
	<use xlink:href='#gpPt11' id='gpPt12' fill='currentColor' stroke='none'/>
	<path id='gpPt13' stroke-width='0.222' stroke='currentColor' d='M0,1.330 L1.265,0.411 L0.782,-1.067 L-0.782,-1.076 L-1.265,0.411 z'/>
	<use xlink:href='#gpPt13' id='gpPt14' fill='currentColor' stroke='none'/>
	<filter id='textbox' filterUnits='objectBoundingBox' x='0' y='0' height='1' width='1'>
	  <feFlood flood-color='white' flood-opacity='1' result='bgnd'/>
	  <feComposite in='SourceGraphic' in2='bgnd' operator='atop'/>
	</filter>
	<filter id='greybox' filterUnits='objectBoundingBox' x='0' y='0' height='1' width='1'>
	  <feFlood flood-color='lightgrey' flood-opacity='1' result='grey'/>
	  <feComposite in='SourceGraphic' in2='grey' operator='atop'/>
	</filter>
</defs>
<g fill="none" color="white" stroke="currentColor" stroke-width="1.00" stroke-linecap="butt" stroke-linejoin="miter">
</g>
<g fill="none" color="black" stroke="currentColor" stroke-width="1.00" stroke-linecap="butt" stroke-linejoin="miter">
	<path stroke='black'  d='M87.1,703.4 L96.1,703.4 M1255.0,703.4 L1246.0,703.4  '/>	<g transform="translate(78.8,707.3)" stroke="none" fill="black" font-family="Arial" font-size="12.00"  text-anchor="end">
		<text><tspan font-family="Arial" > 5.696</tspan></text>
	</g>
</g>
<g fill="none" color="black" stroke="currentColor" stroke-width="1.00" stroke-linecap="butt" stroke-linejoin="miter">
	<path stroke='black'  d='M87.1,113.8 L96.1,113.8 M1255.0,113.8 L1246.0,113.8  '/>	<g transform="translate(78.8,117.7)" stroke="none" fill="black" font-family="Arial" font-size="12.00"  text-anchor="end">
		<text><tspan font-family="Arial" > 35.2828</tspan></text>
	</g>
</g>
<g fill="none" color="black" stroke="currentColor" stroke-width="1.00" stroke-linecap="butt" stroke-linejoin="miter">
	<path stroke='black'  d='M87.1,54.1 L96.1,54.1 M1255.0,54.1 L1246.0,54.1  '/>	<g transform="translate(78.8,58.0)" stroke="none" fill="black" font-family="Arial" font-size="12.00"  text-anchor="end">
		<text><tspan font-family="Arial" > 38.281</tspan></text>
	</g>
</g>
<g fill="none" color="black" stroke="currentColor" stroke-width="1.00" stroke-linecap="butt" stroke-linejoin="miter">
</g>
<g fill="none" color="black" stroke="currentColor" stroke-width="1.00" stroke-linecap="butt" stroke-linejoin="miter">
	<path stroke='black'  d='M87.1,54.1 L87.1,703.4 L1255.0,703.4 L1255.0,54.1 L87.1,54.1 Z  '/></g>
<g fill="none" color="black" stroke="currentColor" stroke-width="1.00" stroke-linecap="butt" stroke-linejoin="miter">
	<g transform="translate(671.0,31.0)" stroke="none" fill="black" font-family="Arial" font-size="12.00"  text-anchor="middle">
		<text><tspan font-family="Arial" >Material 32, 8 components</tspan></text>
	</g>
</g>
	<g id="gnuplot_plot_1" ><title>log(likelihood)</title>
<g fill="none" color="black" stroke="currentColor" stroke-width="1.00" stroke-linecap="butt" stroke-linejoin="miter">
	<g transform="translate(1187.9,76.0)" stroke="none" fill="black" font-family="Arial" font-size="12.00"  text-anchor="end">
		<text><tspan font-family="Arial" >log(likelihood)</tspan></text>
	</g>
</g>
<g fill="none" color="black" stroke="currentColor" stroke-width="1.00" stroke-linecap="butt" stroke-linejoin="miter">
	<g stroke='none' shape-rendering='crispEdges'>
		<polygon fill = 'rgb(148,   0, 211)' fill-opacity = '0.100000' points = '1196.2,76.6 1238.4,76.6 1238.4,67.6 1196.2,67.6 '/>
	</g>
	<path stroke='rgb(148,   0, 211)'  d='M1196.2,76.6 L1238.4,76.6 L1238.4,67.6 L1196.2,67.6 L1196.2,76.6 Z  '/></g>
<g fill="none" color="black" stroke="currentColor" stroke-width="1.00" stroke-linecap="butt" stroke-linejoin="miter">
	<g stroke='none' shape-rendering='crispEdges'>
		<polygon fill = 'rgb(148,   0, 211)' fill-opacity = '0.100000' points = '87.1,703.4 87.7,699.7 88.3,684.1 88.9,666.1 89.5,660.2 90.2,659.7 90.8,641.7 91.4,512.0 92.0,361.4 92.6,355.0 93.2,340.2 93.8,203.5 94.4,198.3 95.0,198.6 95.7,198.9 96.3,198.4
96.9,208.8 97.5,193.9 98.1,216.6 98.7,154.8 99.3,172.4 99.9,203.8 100.5,214.6 101.1,201.0 101.8,182.1 102.4,230.3 103.0,190.0 103.6,198.1 104.2,210.6 104.8,213.2 105.4,206.7 106.0,181.1
106.6,177.3 107.3,177.3 107.9,194.5 108.5,172.0 109.1,196.2 109.7,165.9 110.3,199.7 110.9,218.8 111.5,197.2 112.1,189.4 112.8,206.5 113.4,149.4 114.0,152.6 114.6,171.3 115.2,169.0 115.8,198.6
116.4,162.7 117.0,205.8 117.6,165.5 118.3,152.3 118.9,201.1 119.5,203.4 120.1,203.0 120.7,216.5 121.3,155.2 121.9,165.5 122.5,202.9 123.1,195.4 123.7,204.9 124.4,152.7 125.0,152.7 125.6,152.7
126.2,145.0 126.8,145.0 127.4,142.4 128.0,151.8 128.6,164.4 129.2,147.4 129.9,164.4 130.5,164.6 131.1,157.5 131.7,137.9 132.3,138.4 132.9,138.4 133.5,149.3 134.1,150.2 134.7,152.3 135.4,139.0
136.0,150.6 136.6,114.6 137.2,141.2 137.8,129.8 138.4,118.3 139.0,117.9 139.6,121.6 140.2,181.3 140.9,200.0 141.5,150.1 142.1,150.1 142.7,148.6 143.3,191.9 143.9,178.9 144.5,178.9 145.1,129.1
145.7,168.6 146.4,168.5 147.0,168.5 147.6,128.4 148.2,128.9 148.8,130.9 149.4,136.6 150.0,187.8 150.6,182.6 151.2,179.4 151.8,179.4 152.5,179.4 153.1,179.4 153.7,167.7 154.3,154.8 154.9,180.0
155.5,180.7 156.1,177.8 156.7,178.9 157.3,151.1 158.0,173.4 158.6,178.9 159.2,178.9 159.8,153.0 160.4,149.3 161.0,154.2 161.6,153.4 162.2,155.8 162.8,174.4 163.5,155.3 164.1,162.6 164.7,162.6
165.3,162.6 165.9,162.6 166.5,162.6 167.1,155.0 167.7,157.6 168.3,158.0 169.0,167.2 169.6,165.7 170.2,167.0 170.8,172.8 171.4,150.7 172.0,153.1 172.6,173.8 173.2,187.6 173.8,180.6 174.4,171.4
175.1,172.5 175.7,165.3 176.3,165.3 176.9,157.3 177.5,156.9 178.1,157.3 178.7,146.6 179.3,150.5 179.9,151.6 180.6,146.2 181.2,153.6 181.8,151.6 182.4,154.6 183.0,159.9 183.6,161.5 184.2,152.6
184.8,151.8 185.4,140.2 186.1,148.4 186.7,147.9 187.3,146.1 187.9,144.2 188.5,149.1 189.1,143.7 189.7,159.4 190.3,155.6 190.9,155.6 191.6,151.3 192.2,137.3 192.8,137.3 193.4,146.6 194.0,152.8
194.6,133.0 195.2,133.0 195.8,132.5 196.4,132.5 197.0,132.5 197.7,133.0 198.3,133.0 198.9,148.3 199.5,148.3 200.1,149.1 200.7,149.1 201.3,156.7 201.9,148.3 202.5,146.8 203.2,146.7 203.8,145.3
204.4,145.6 205.0,148.1 205.6,117.5 206.2,117.5 206.8,116.9 207.4,116.9 208.0,113.8 208.7,128.5 209.3,162.9 209.9,152.9 210.5,151.2 211.1,144.2 211.7,152.6 212.3,139.9 212.9,117.5 213.5,138.9
214.2,132.6 214.8,124.8 215.4,133.8 216.0,109.1 216.6,154.8 217.2,154.0 217.8,152.6 218.4,132.2 219.0,129.0 219.6,129.0 220.3,130.9 220.9,130.3 221.5,138.3 222.1,133.3 222.7,119.1 223.3,121.8
223.9,145.6 224.5,128.4 225.1,131.7 225.8,136.5 226.4,131.0 227.0,131.0 227.6,132.6 228.2,128.0 228.8,121.1 229.4,116.1 230.0,97.5 230.6,107.2 231.3,110.7 231.9,109.2 232.5,100.0 233.1,114.1
233.7,110.3 234.3,111.6 234.9,117.7 235.5,105.1 236.1,110.0 236.8,106.2 237.4,108.2 238.0,121.7 238.6,125.7 239.2,117.6 239.8,118.2 240.4,116.2 241.0,116.2 241.6,116.2 242.2,110.1 242.9,109.1
243.5,109.1 244.1,96.4 244.7,101.7 245.3,105.7 245.9,105.7 246.5,105.7 247.1,105.7 247.7,105.6 248.4,106.4 249.0,106.4 249.6,105.4 250.2,105.4 250.8,111.2 251.4,113.7 252.0,109.5 252.6,96.7
253.2,96.7 253.9,95.0 254.5,94.7 255.1,112.1 255.7,112.1 256.3,99.8 256.9,99.8 257.5,99.8 258.1,99.8 258.7,99.8 259.4,99.8 260.0,93.5 260.6,98.7 261.2,98.7 261.8,98.7 262.4,89.7
263.0,90.2 263.6,90.2 264.2,97.3 264.9,97.2 265.5,95.6 266.1,95.8 266.7,103.6 267.3,107.8 267.9,95.0 268.5,95.0 269.1,99.5 269.7,103.2 270.3,83.8 271.0,83.5 271.6,85.9 272.2,85.0
272.8,84.2 273.4,84.2 274.0,84.7 274.6,87.0 275.2,88.7 275.8,92.2 276.5,95.2 277.1,94.8 277.7,93.4 278.3,105.1 278.9,105.1 279.5,105.1 280.1,109.1 280.7,106.8 281.3,104.3 282.0,104.0
282.6,104.6 283.2,104.6 283.8,110.3 284.4,109.4 285.0,109.4 285.6,107.3 286.2,106.4 286.8,106.4 287.5,112.5 288.1,125.3 288.7,119.5 289.3,119.5 289.9,110.6 290.5,101.8 291.1,109.6 291.7,112.5
292.3,115.2 292.9,116.7 293.6,114.8 294.2,115.4 294.8,102.1 295.4,113.4 296.0,107.5 296.6,104.1 297.2,91.9 297.8,105.7 298.4,105.7 299.1,106.0 299.7,106.0 300.3,98.5 300.9,97.9 301.5,120.2
302.1,122.2 302.7,116.9 303.3,129.2 303.9,99.4 304.6,98.3 305.2,98.3 305.8,98.3 306.4,98.3 307.0,95.8 307.6,95.8 308.2,88.7 308.8,92.9 309.4,95.2 310.1,108.0 310.7,92.6 311.3,91.9
311.9,89.1 312.5,88.1 313.1,93.4 313.7,93.4 314.3,102.8 314.9,102.8 315.5,103.4 316.2,91.2 316.8,85.0 317.4,85.0 318.0,85.0 318.6,85.0 319.2,77.3 319.8,80.3 320.4,80.2 321.0,80.2
321.7,81.6 322.3,81.6 322.9,81.6 323.5,79.0 324.1,79.0 324.7,83.0 325.3,83.3 325.9,83.3 326.5,81.1 327.2,79.1 327.8,79.1 328.4,78.3 329.0,81.5 329.6,82.5 330.2,82.5 330.8,82.8
331.4,82.8 332.0,82.8 332.7,82.8 333.3,83.2 333.9,77.7 334.5,83.2 335.1,84.8 335.7,85.2 336.3,85.2 336.9,87.6 337.5,85.3 338.1,85.3 338.8,92.5 339.4,88.3 340.0,88.3 340.6,88.3
341.2,90.6 341.8,90.3 342.4,91.1 343.0,91.1 343.6,90.9 344.3,93.6 344.9,93.6 345.5,100.4 346.1,101.6 346.7,97.9 347.3,96.7 347.9,98.6 348.5,98.6 349.1,95.5 349.8,98.5 350.4,110.9
351.0,101.7 351.6,101.7 352.2,101.7 352.8,101.1 353.4,98.9 354.0,103.5 354.6,103.5 355.3,110.8 355.9,113.1 356.5,127.2 357.1,127.2 357.7,126.1 358.3,126.1 358.9,123.3 359.5,123.3 360.1,123.3
360.8,129.0 361.4,128.5 362.0,125.8 362.6,127.2 363.2,125.8 363.8,101.3 364.4,101.3 365.0,101.3 365.6,101.3 366.2,101.3 366.9,101.3 367.5,98.7 368.1,98.7 368.7,95.4 369.3,95.5 369.9,95.5
370.5,94.1 371.1,82.8 371.7,90.1 372.4,96.0 373.0,96.0 373.6,96.0 374.2,95.6 374.8,120.0 375.4,91.2 376.0,99.9 376.6,95.2 377.2,98.0 377.9,110.5 378.5,111.4 379.1,105.6 379.7,98.1
380.3,96.2 380.9,97.2 381.5,96.8 382.1,99.6 382.7,99.4 383.4,99.4 384.0,99.4 384.6,99.9 385.2,102.4 385.8,102.4 386.4,102.4 387.0,102.4 387.6,102.4 388.2,102.4 388.8,102.4 389.5,99.8
390.1,102.1 390.7,102.5 391.3,102.4 391.9,100.4 392.5,101.7 393.1,111.9 393.7,111.6 394.3,111.6 395.0,103.2 395.6,104.8 396.2,102.2 396.8,100.6 397.4,91.1 398.0,91.0 398.6,97.9 399.2,102.9
399.8,102.9 400.5,103.4 401.1,103.0 401.7,103.0 402.3,102.4 402.9,95.2 403.5,97.8 404.1,102.9 404.7,103.1 405.3,103.1 406.0,102.7 406.6,99.4 407.2,95.8 407.8,95.8 408.4,95.8 409.0,95.8
409.6,95.2 410.2,96.8 410.8,96.8 411.4,96.8 412.1,98.0 412.7,98.0 413.3,104.8 413.9,93.6 414.5,92.3 415.1,96.7 415.7,98.8 416.3,102.4 416.9,102.5 417.6,102.2 418.2,90.3 418.8,95.5
419.4,87.2 420.0,80.1 420.6,79.8 421.2,79.8 421.8,81.4 422.4,81.1 423.1,92.2 423.7,88.7 424.3,90.0 424.9,88.2 425.5,85.2 426.1,92.7 426.7,92.5 427.3,92.5 427.9,92.6 428.6,98.7
429.2,102.7 429.8,102.7 430.4,107.8 431.0,91.8 431.6,107.6 432.2,97.3 432.8,97.3 433.4,105.0 434.0,106.0 434.7,104.4 435.3,103.9 435.9,108.3 436.5,103.4 437.1,103.4 437.7,100.5 438.3,89.6
438.9,102.5 439.5,111.0 440.2,104.9 440.8,104.0 441.4,105.9 442.0,113.2 442.6,123.7 443.2,123.7 443.8,123.7 444.4,116.2 445.0,116.2 445.7,112.6 446.3,116.2 446.9,99.1 447.5,106.3 448.1,102.0
448.7,112.6 449.3,110.5 449.9,113.0 450.5,113.0 451.2,114.6 451.8,111.3 452.4,108.3 453.0,105.0 453.6,107.0 454.2,113.3 454.8,110.8 455.4,109.6 456.0,110.9 456.6,110.9 457.3,110.9 457.9,107.4
458.5,107.9 459.1,114.0 459.7,115.0 460.3,112.1 460.9,111.2 461.5,111.2 462.1,111.3 462.8,122.5 463.4,122.5 464.0,122.3 464.6,120.8 465.2,119.9 465.8,119.9 466.4,113.3 467.0,113.1 467.6,113.1
468.3,114.1 468.9,110.4 469.5,112.0 470.1,107.8 470.7,115.4 471.3,110.2 471.9,124.3 472.5,125.2 473.1,112.9 473.8,119.2 474.4,119.2 475.0,118.9 475.6,118.7 476.2,118.7 476.8,114.9 477.4,114.9
478.0,118.6 478.6,122.3 479.3,112.3 479.9,115.0 480.5,114.6 481.1,114.2 481.7,101.3 482.3,101.3 482.9,104.3 483.5,103.2 484.1,114.6 484.7,117.7 485.4,109.0 486.0,114.4 486.6,109.5 487.2,114.9
487.8,114.9 488.4,115.5 489.0,115.9 489.6,102.6 490.2,113.8 490.9,108.7 491.5,109.1 492.1,106.3 492.7,107.8 493.3,115.1 493.9,116.3 494.5,117.6 495.1,117.6 495.7,110.3 496.4,87.7 497.0,95.4
497.6,110.3 498.2,113.3 498.8,110.9 499.4,88.3 500.0,90.1 500.6,96.7 501.2,96.7 501.9,103.9 502.5,100.8 503.1,100.8 503.7,104.4 504.3,98.3 504.9,103.0 505.5,102.0 506.1,111.9 506.7,121.0
507.3,121.9 508.0,113.3 508.6,111.1 509.2,123.0 509.8,120.0 510.4,114.8 511.0,114.8 511.6,114.8 512.2,123.3 512.8,103.5 513.5,113.1 514.1,119.2 514.7,119.0 515.3,123.5 515.9,123.9 516.5,123.9
517.1,123.9 517.7,126.0 518.3,126.0 519.0,128.8 519.6,128.7 520.2,129.8 520.8,114.1 521.4,117.9 522.0,122.9 522.6,120.2 523.2,123.2 523.8,126.2 524.5,124.8 525.1,122.7 525.7,122.6 526.3,123.2
526.9,105.2 527.5,99.7 528.1,100.6 528.7,102.5 529.3,103.9 529.9,95.8 530.6,97.9 531.2,121.3 531.8,122.0 532.4,125.4 533.0,120.0 533.6,122.4 534.2,124.1 534.8,123.7 535.4,99.2 536.1,101.4
536.7,102.7 537.3,100.1 537.9,91.8 538.5,113.4 539.1,124.3 539.7,123.1 540.3,120.4 540.9,121.7 541.6,117.0 542.2,115.9 542.8,106.3 543.4,98.6 544.0,102.3 544.6,99.9 545.2,122.6 545.8,116.0
546.4,116.9 547.1,110.8 547.7,115.1 548.3,111.8 548.9,113.3 549.5,108.6 550.1,115.1 550.7,111.0 551.3,108.7 551.9,114.7 552.5,108.9 553.2,109.7 553.8,115.6 554.4,115.6 555.0,115.3 555.6,99.6
556.2,100.7 556.8,102.8 557.4,101.9 558.0,96.7 558.7,94.3 559.3,94.8 559.9,94.8 560.5,94.2 561.1,107.2 561.7,105.8 562.3,96.0 562.9,96.0 563.5,96.0 564.2,95.3 564.8,95.0 565.4,109.5
566.0,103.6 566.6,103.5 567.2,100.5 567.8,100.5 568.4,100.5 569.0,100.4 569.7,100.4 570.3,98.2 570.9,103.1 571.5,103.1 572.1,104.8 572.7,105.2 573.3,105.2 573.9,108.9 574.5,106.2 575.2,103.3
575.8,92.7 576.4,108.6 577.0,109.3 577.6,105.7 578.2,109.1 578.8,105.0 579.4,108.9 580.0,106.9 580.6,96.9 581.3,99.6 581.9,113.6 582.5,113.6 583.1,114.1 583.7,104.3 584.3,110.2 584.9,109.4
585.5,109.4 586.1,105.0 586.8,108.0 587.4,97.9 588.0,93.9 588.6,93.9 589.2,85.8 589.8,90.7 590.4,89.9 591.0,90.8 591.6,94.0 592.3,100.6 592.9,99.7 593.5,99.6 594.1,97.2 594.7,93.4
595.3,90.5 595.9,85.8 596.5,85.0 597.1,88.5 597.8,88.5 598.4,87.4 599.0,88.7 599.6,88.6 600.2,87.0 600.8,118.7 601.4,120.0 602.0,119.1 602.6,117.5 603.2,117.6 603.9,111.3 604.5,121.6
605.1,122.3 605.7,129.0 606.3,125.7 606.9,125.7 607.5,120.8 608.1,120.8 608.7,120.8 609.4,120.8 610.0,118.7 610.6,120.8 611.2,129.5 611.8,130.0 612.4,138.0 613.0,130.4 613.6,132.9 614.2,128.3
614.9,115.8 615.5,118.6 616.1,118.6 616.7,118.6 617.3,113.9 617.9,115.0 618.5,114.6 619.1,111.2 619.7,103.5 620.4,102.1 621.0,115.5 621.6,115.5 622.2,113.3 622.8,109.4 623.4,99.0 624.0,105.4
624.6,106.5 625.2,122.4 625.8,122.7 626.5,117.0 627.1,119.7 627.7,117.4 628.3,118.6 628.9,109.9 629.5,107.6 630.1,106.6 630.7,109.9 631.3,96.9 632.0,125.2 632.6,134.9 633.2,134.6 633.8,123.5
634.4,123.6 635.0,124.6 635.6,124.3 636.2,120.8 636.8,120.8 637.5,120.8 638.1,123.7 638.7,118.5 639.3,129.1 639.9,125.0 640.5,125.4 641.1,132.9 641.7,134.5 642.3,119.5 643.0,126.0 643.6,129.6
644.2,129.6 644.8,128.0 645.4,121.6 646.0,128.8 646.6,128.8 647.2,121.1 647.8,103.1 648.4,107.1 649.1,119.3 649.7,122.1 650.3,102.5 650.9,102.5 651.5,101.7 652.1,101.7 652.7,101.7 653.3,103.7
653.9,96.1 654.6,98.7 655.2,98.7 655.8,109.5 656.4,87.6 657.0,89.1 657.6,86.2 658.2,90.9 658.8,90.9 659.4,99.3 660.1,89.5 660.7,93.5 661.3,92.3 661.9,92.3 662.5,94.3 663.1,94.3
663.7,93.9 664.3,123.8 664.9,95.8 665.6,97.0 666.2,107.4 666.8,100.2 667.4,100.4 668.0,100.8 668.6,111.2 669.2,111.2 669.8,111.2 670.4,111.9 671.1,90.7 671.7,84.8 672.3,83.4 672.9,88.9
673.5,88.9 674.1,89.7 674.7,86.0 675.3,86.0 675.9,86.0 676.5,86.0 677.2,89.2 677.8,90.5 678.4,88.2 679.0,111.0 679.6,97.9 680.2,105.1 680.8,89.3 681.4,91.2 682.0,85.0 682.7,92.4
683.3,93.0 683.9,93.0 684.5,88.8 685.1,85.8 685.7,103.0 686.3,103.0 686.9,103.0 687.5,109.1 688.2,113.0 688.8,113.4 689.4,115.2 690.0,123.3 690.6,116.6 691.2,124.2 691.8,124.4 692.4,105.9
693.0,105.9 693.7,105.9 694.3,105.9 694.9,106.6 695.5,92.7 696.1,102.3 696.7,102.3 697.3,102.3 697.9,116.5 698.5,110.1 699.1,109.4 699.8,109.4 700.4,114.8 701.0,115.3 701.6,115.3 702.2,125.4
702.8,111.7 703.4,122.5 704.0,117.0 704.6,122.5 705.3,117.9 705.9,120.9 706.5,121.1 707.1,121.1 707.7,121.1 708.3,123.6 708.9,123.6 709.5,133.5 710.1,126.0 710.8,120.2 711.4,119.7 712.0,99.4
712.6,100.2 713.2,100.4 713.8,100.4 714.4,118.3 715.0,118.3 715.6,120.4 716.3,96.9 716.9,105.0 717.5,104.8 718.1,104.8 718.7,105.7 719.3,102.9 719.9,102.9 720.5,97.8 721.1,102.0 721.7,97.5
722.4,94.9 723.0,102.8 723.6,102.1 724.2,87.3 724.8,92.4 725.4,89.4 726.0,89.6 726.6,90.2 727.2,86.0 727.9,89.5 728.5,106.6 729.1,114.9 729.7,115.7 730.3,118.1 730.9,119.1 731.5,116.1
732.1,110.8 732.7,120.3 733.4,114.1 734.0,120.4 734.6,120.4 735.2,120.4 735.8,111.1 736.4,111.9 737.0,112.3 737.6,112.0 738.2,121.9 738.9,124.0 739.5,124.2 740.1,124.2 740.7,123.0 741.3,123.3
741.9,120.9 742.5,120.9 743.1,118.1 743.7,123.2 744.3,123.2 745.0,121.0 745.6,119.0 746.2,118.5 746.8,117.5 747.4,117.5 748.0,116.7 748.6,116.7 749.2,116.7 749.8,116.7 750.5,118.1 751.1,105.2
751.7,109.3 752.3,103.8 752.9,100.7 753.5,99.5 754.1,99.5 754.7,99.5 755.3,93.7 756.0,122.4 756.6,113.2 757.2,117.6 757.8,97.5 758.4,99.4 759.0,100.9 759.6,100.9 760.2,100.9 760.8,97.6
761.5,100.1 762.1,100.1 762.7,99.7 763.3,99.7 763.9,95.6 764.5,92.6 765.1,92.6 765.7,92.7 766.3,91.0 766.9,93.3 767.6,88.7 768.2,86.6 768.8,86.6 769.4,83.8 770.0,84.5 770.6,83.8
771.2,83.8 771.8,80.8 772.4,79.7 773.1,85.1 773.7,85.1 774.3,88.7 774.9,91.0 775.5,94.9 776.1,85.6 776.7,85.6 777.3,84.6 777.9,84.6 778.6,84.6 779.2,84.6 779.8,84.6 780.4,83.8
781.0,83.5 781.6,83.5 782.2,93.9 782.8,103.9 783.4,104.5 784.1,101.4 784.7,102.1 785.3,101.1 785.9,99.4 786.5,99.4 787.1,102.9 787.7,91.8 788.3,91.8 788.9,97.9 789.6,100.5 790.2,106.9
790.8,110.4 791.4,103.4 792.0,106.1 792.6,102.0 793.2,101.9 793.8,104.3 794.4,104.8 795.0,105.7 795.7,116.3 796.3,121.9 796.9,113.6 797.5,125.0 798.1,119.6 798.7,118.3 799.3,118.3 799.9,112.7
800.5,102.9 801.2,105.4 801.8,110.9 802.4,106.3 803.0,105.5 803.6,107.1 804.2,103.8 804.8,102.0 805.4,109.3 806.0,101.9 806.7,97.4 807.3,96.5 807.9,103.0 808.5,101.0 809.1,101.6 809.7,106.3
810.3,93.7 810.9,94.6 811.5,92.7 812.2,94.7 812.8,89.3 813.4,84.2 814.0,84.2 814.6,84.0 815.2,84.0 815.8,79.5 816.4,77.9 817.0,77.9 817.6,79.8 818.3,77.7 818.9,82.5 819.5,82.5
820.1,76.1 820.7,76.1 821.3,75.3 821.9,74.7 822.5,74.7 823.1,74.7 823.8,74.2 824.4,77.3 825.0,86.1 825.6,86.1 826.2,78.9 826.8,78.9 827.4,78.9 828.0,78.7 828.6,78.8 829.3,89.4
829.9,82.2 830.5,81.8 831.1,81.8 831.7,81.8 832.3,81.0 832.9,79.8 833.5,79.8 834.1,83.4 834.8,83.4 835.4,80.0 836.0,80.0 836.6,80.3 837.2,77.5 837.8,77.5 838.4,78.3 839.0,79.3
839.6,79.2 840.2,72.0 840.9,73.3 841.5,69.1 842.1,102.5 842.7,102.0 843.3,102.0 843.9,95.3 844.5,95.3 845.1,82.5 845.7,78.9 846.4,80.7 847.0,73.5 847.6,73.5 848.2,70.8 848.8,71.4
849.4,73.6 850.0,75.9 850.6,75.9 851.2,75.9 851.9,78.1 852.5,79.8 853.1,79.8 853.7,79.9 854.3,96.8 854.9,96.1 855.5,96.1 856.1,94.9 856.7,94.9 857.4,88.9 858.0,88.5 858.6,87.7
859.2,87.7 859.8,87.7 860.4,87.7 861.0,87.4 861.6,82.0 862.2,74.0 862.8,74.0 863.5,84.8 864.1,79.1 864.7,74.7 865.3,73.9 865.9,73.9 866.5,76.6 867.1,71.9 867.7,71.8 868.3,71.8
869.0,67.2 869.6,66.7 870.2,66.7 870.8,66.7 871.4,66.7 872.0,70.4 872.6,70.4 873.2,71.8 873.8,57.6 874.5,58.8 875.1,59.7 875.7,69.9 876.3,72.6 876.9,59.3 877.5,59.2 878.1,59.2
878.7,66.0 879.3,67.9 880.0,54.1 880.6,54.1 881.2,57.3 881.8,58.2 882.4,57.1 883.0,58.3 883.6,57.9 884.2,57.9 884.8,57.9 885.5,90.5 886.1,91.2 886.7,67.4 887.3,65.7 887.9,65.7
888.5,65.7 889.1,101.0 889.7,101.0 890.3,91.7 890.9,91.7 891.6,91.7 892.2,91.7 892.8,95.5 893.4,104.8 894.0,104.8 894.6,104.8 895.2,103.8 895.8,112.9 896.4,95.6 897.1,99.6 897.7,102.2
898.3,94.3 898.9,108.5 899.5,112.6 900.1,115.4 900.7,100.8 901.3,100.9 901.9,106.8 902.6,101.5 903.2,101.5 903.8,102.9 904.4,102.5 905.0,102.5 905.6,103.7 906.2,106.6 906.8,106.6 907.4,101.1
908.1,120.8 908.7,93.2 909.3,90.5 909.9,94.7 910.5,94.7 911.1,90.4 911.7,94.4 912.3,95.1 912.9,95.0 913.5,82.9 914.2,111.9 914.8,114.6 915.4,117.0 916.0,117.0 916.6,121.6 917.2,99.1
917.8,99.1 918.4,106.7 919.0,110.4 919.7,108.3 920.3,114.6 920.9,117.7 921.5,117.7 922.1,117.9 922.7,118.0 923.3,118.0 923.9,118.1 924.5,99.9 925.2,99.9 925.8,104.3 926.4,95.5 927.0,105.8
927.6,105.8 928.2,101.8 928.8,101.8 929.4,101.8 930.0,101.5 930.7,104.7 931.3,104.7 931.9,104.7 932.5,100.3 933.1,102.2 933.7,104.2 934.3,111.6 934.9,111.6 935.5,112.6 936.1,114.2 936.8,114.2
937.4,134.1 938.0,135.8 938.6,137.1 939.2,137.1 939.8,119.1 940.4,114.5 941.0,108.5 941.6,113.2 942.3,105.4 942.9,114.2 943.5,134.4 944.1,124.8 944.7,126.0 945.3,108.9 945.9,107.7 946.5,107.7
947.1,103.8 947.8,96.5 948.4,96.5 949.0,97.5 949.6,99.4 950.2,110.0 950.8,100.0 951.4,126.8 952.0,128.4 952.6,129.2 953.3,106.1 953.9,98.4 954.5,102.6 955.1,107.8 955.7,107.8 956.3,112.9
956.9,112.9 957.5,112.9 958.1,105.9 958.7,104.3 959.4,105.4 960.0,96.2 960.6,95.0 961.2,95.7 961.8,94.4 962.4,93.7 963.0,93.7 963.6,94.2 964.2,96.1 964.9,96.1 965.5,72.5 966.1,86.9
966.7,83.9 967.3,83.9 967.9,70.3 968.5,73.3 969.1,79.4 969.7,77.9 970.4,83.3 971.0,83.7 971.6,85.5 972.2,85.5 972.8,94.7 973.4,89.2 974.0,89.0 974.6,98.3 975.2,104.7 975.9,102.1
976.5,102.1 977.1,99.7 977.7,100.9 978.3,100.9 978.9,101.5 979.5,94.0 980.1,103.3 980.7,82.8 981.3,78.4 982.0,69.3 982.6,65.4 983.2,68.2 983.8,77.0 984.4,69.3 985.0,67.3 985.6,69.9
986.2,82.7 986.8,81.6 987.5,80.0 988.1,85.2 988.7,107.5 989.3,105.8 989.9,111.0 990.5,104.7 991.1,93.6 991.7,95.1 992.3,95.1 993.0,96.2 993.6,94.9 994.2,94.6 994.8,94.6 995.4,98.6
996.0,103.1 996.6,114.1 997.2,108.9 997.8,114.6 998.5,120.5 999.1,120.5 999.7,110.4 1000.3,111.8 1000.9,111.8 1001.5,105.7 1002.1,95.7 1002.7,95.7 1003.3,93.5 1004.0,101.2 1004.6,101.4 1005.2,107.3
1005.8,106.2 1006.4,106.6 1007.0,107.4 1007.6,107.1 1008.2,107.1 1008.8,106.2 1009.4,106.6 1010.1,106.6 1010.7,99.4 1011.3,91.8 1011.9,91.8 1012.5,90.5 1013.1,92.9 1013.7,90.1 1014.3,95.3 1014.9,95.3
1015.6,92.9 1016.2,93.6 1016.8,93.6 1017.4,93.0 1018.0,90.9 1018.6,90.9 1019.2,93.2 1019.8,93.2 1020.4,101.7 1021.1,122.9 1021.7,122.9 1022.3,115.9 1022.9,119.7 1023.5,116.6 1024.1,120.3 1024.7,120.9
1025.3,88.6 1025.9,88.4 1026.6,92.6 1027.2,90.2 1027.8,90.2 1028.4,96.6 1029.0,96.6 1029.6,95.4 1030.2,94.1 1030.8,113.6 1031.4,113.0 1032.0,111.7 1032.7,113.8 1033.3,113.8 1033.9,112.0 1034.5,118.7
1035.1,119.4 1035.7,101.9 1036.3,103.0 1036.9,101.4 1037.5,95.1 1038.2,97.4 1038.8,96.6 1039.4,96.6 1040.0,97.3 1040.6,86.4 1041.2,86.4 1041.8,86.4 1042.4,85.3 1043.0,96.8 1043.7,93.8 1044.3,93.8
1044.9,86.1 1045.5,97.2 1046.1,92.9 1046.7,90.2 1047.3,99.2 1047.9,117.3 1048.5,102.5 1049.2,85.6 1049.8,85.7 1050.4,110.8 1051.0,112.0 1051.6,97.9 1052.2,100.1 1052.8,96.8 1053.4,97.6 1054.0,97.6
1054.6,98.3 1055.3,98.3 1055.9,100.8 1056.5,100.8 1057.1,100.8 1057.7,100.8 1058.3,104.1 1058.9,109.1 1059.5,100.7 1060.1,99.5 1060.8,105.9 1061.4,107.5 1062.0,106.3 1062.6,101.8 1063.2,99.2 1063.8,102.4
1064.4,110.6 1065.0,107.9 1065.6,105.9 1066.3,105.1 1066.9,105.1 1067.5,105.1 1068.1,105.0 1068.7,105.0 1069.3,106.1 1069.9,105.6 1070.5,108.9 1071.1,104.6 1071.8,104.3 1072.4,109.6 1073.0,109.6 1073.6,109.0
1074.2,111.0 1074.8,110.9 1075.4,111.7 1076.0,112.3 1076.6,112.7 1077.2,112.7 1077.9,112.7 1078.5,115.1 1079.1,115.1 1079.7,115.0 1080.3,115.0 1080.9,112.7 1081.5,115.0 1082.1,108.2 1082.7,114.5 1083.4,113.6
1084.0,114.3 1084.6,115.8 1085.2,113.9 1085.8,113.4 1086.4,113.4 1087.0,108.9 1087.6,107.9 1088.2,107.9 1088.9,95.7 1089.5,95.1 1090.1,108.1 1090.7,125.6 1091.3,125.8 1091.9,123.2 1092.5,124.3 1093.1,124.3
1093.7,121.1 1094.4,119.3 1095.0,119.3 1095.6,119.3 1096.2,119.6 1096.8,117.9 1097.4,118.1 1098.0,117.2 1098.6,114.0 1099.2,131.7 1099.9,123.0 1100.5,144.4 1101.1,131.6 1101.7,131.7 1102.3,132.7 1102.9,132.4
1103.5,127.6 1104.1,127.6 1104.7,134.1 1105.3,133.3 1106.0,133.3 1106.6,140.5 1107.2,136.7 1107.8,136.7 1108.4,132.3 1109.0,126.9 1109.6,126.9 1110.2,125.6 1110.8,133.4 1111.5,128.8 1112.1,128.8 1112.7,128.8
1113.3,135.2 1113.9,132.5 1114.5,137.5 1115.1,137.6 1115.7,131.8 1116.3,120.7 1117.0,115.8 1117.6,123.2 1118.2,128.8 1118.8,127.0 1119.4,129.7 1120.0,131.3 1120.6,119.6 1121.2,134.4 1121.8,120.3 1122.5,119.6
1123.1,114.3 1123.7,116.5 1124.3,116.8 1124.9,114.5 1125.5,114.5 1126.1,122.6 1126.7,122.2 1127.3,122.2 1127.9,120.8 1128.6,123.8 1129.2,123.6 1129.8,123.8 1130.4,123.8 1131.0,121.8 1131.6,125.0 1132.2,125.0
1132.8,120.5 1133.4,120.5 1134.1,119.8 1134.7,123.2 1135.3,106.8 1135.9,119.4 1136.5,123.5 1137.1,133.0 1137.7,121.4 1138.3,121.4 1138.9,109.1 1139.6,117.2 1140.2,124.6 1140.8,124.6 1141.4,124.6 1142.0,110.2
1142.6,103.3 1143.2,102.9 1143.8,100.1 1144.4,100.4 1145.1,105.2 1145.7,105.2 1146.3,105.1 1146.9,105.1 1147.5,103.9 1148.1,103.7 1148.7,104.4 1149.3,104.4 1149.9,101.5 1150.5,101.5 1151.2,102.8 1151.8,118.7
1152.4,118.7 1153.0,117.0 1153.6,117.0 1154.2,117.4 1154.8,117.4 1155.4,114.2 1156.0,113.8 1156.7,118.7 1157.3,122.3 1157.9,126.5 1158.5,132.5 1159.1,132.5 1159.7,122.3 1160.3,120.5 1160.9,126.7 1161.5,126.7
1162.2,126.7 1162.8,126.6 1163.4,125.2 1164.0,125.2 1164.6,125.2 1165.2,125.0 1165.8,125.0 1166.4,125.0 1167.0,119.3 1167.7,120.1 1168.3,124.2 1168.9,110.9 1169.5,110.9 1170.1,111.1 1170.7,113.1 1171.3,112.7
1171.9,116.1 1172.5,116.1 1173.1,104.4 1173.8,105.2 1174.4,105.3 1175.0,105.3 1175.6,105.0 1176.2,106.9 1176.8,104.3 1177.4,104.0 1178.0,106.9 1178.6,126.5 1179.3,130.5 1179.9,124.4 1180.5,121.1 1181.1,129.8
1181.7,129.3 1182.3,129.3 1182.9,132.2 1183.5,132.2 1184.1,130.4 1184.8,130.4 1185.4,130.4 1186.0,128.6 1186.6,113.5 1187.2,116.8 1187.8,128.6 1188.4,125.7 1189.0,125.7 1189.6,142.9 1190.3,127.8 1190.9,129.9
1191.5,121.6 1192.1,121.6 1192.7,121.9 1193.3,128.6 1193.9,128.6 1194.5,130.8 1195.1,119.8 1195.7,123.6 1196.4,123.6 1197.0,119.3 1197.6,126.8 1198.2,132.8 1198.8,131.7 1199.4,132.0 1200.0,127.8 1200.6,127.9
1201.2,134.2 1201.9,134.8 1202.5,120.5 1203.1,117.1 1203.7,120.0 1204.3,121.3 1204.9,122.4 1205.5,121.1 1206.1,125.2 1206.7,116.5 1207.4,119.6 1208.0,116.6 1208.6,109.4 1209.2,116.2 1209.8,124.6 1210.4,111.8
1211.0,110.9 1211.6,110.6 1212.2,109.8 1212.9,109.9 1213.5,105.8 1214.1,105.8 1214.7,96.0 1215.3,96.4 1215.9,94.7 1216.5,96.8 1217.1,106.8 1217.7,112.7 1218.4,110.4 1219.0,114.3 1219.6,114.3 1220.2,113.9
1220.8,114.3 1221.4,103.7 1222.0,103.8 1222.6,103.8 1223.2,103.3 1223.8,111.9 1224.5,111.5 1225.1,115.3 1225.7,115.6 1226.3,115.6 1226.9,115.9 1227.5,112.6 1228.1,114.4 1228.7,119.3 1229.3,113.7 1230.0,110.5
1230.6,103.6 1231.2,100.7 1231.8,92.4 1232.4,118.9 1233.0,117.7 1233.6,125.1 1234.2,131.3 1234.8,122.7 1235.5,126.3 1236.1,126.3 1236.7,125.8 1237.3,122.1 1237.9,124.7 1238.5,123.1 1239.1,126.7 1239.7,122.5
1240.3,114.6 1241.0,117.4 1241.6,117.4 1242.2,126.4 1242.8,120.0 1243.4,122.7 1244.0,122.7 1244.6,122.7 1245.2,125.8 1245.8,125.8 1246.4,126.7 1247.1,113.8 1247.7,119.9 1248.3,119.2 1248.9,120.3 1249.5,138.7
1250.1,123.6 1250.7,123.6 1251.3,123.6 1251.9,123.6 1252.6,125.0 1253.2,120.9 1253.8,123.3 1254.4,114.1 1255.0,113.3 1255.0,703.4 87.1,703.4 '/>
	</g>
</g>
	</g>
	<g id="gnuplot_plot_2" ><title>trendline (m=0.001111,b=34.220308)</title>
<g fill="none" color="black" stroke="currentColor" stroke-width="1.00" stroke-linecap="butt" stroke-linejoin="miter">
	<g transform="translate(1187.9,94.0)" stroke="none" fill="black" font-family="Arial" font-size="12.00"  text-anchor="end">
		<text><tspan font-family="Arial" >trendline (m=0.001111,b=34.220308)</tspan></text>
	</g>
</g>
<g fill="none" color="black" stroke="currentColor" stroke-width="1.00" stroke-linecap="butt" stroke-linejoin="miter">
	<path stroke='black'  d='M1196.2,90.1 L1238.4,90.1 M87.1,135.0 L98.9,134.6 L110.7,134.2 L122.5,133.7 L134.3,133.3 L146.1,132.9
		L157.9,132.4 L169.7,132.0 L181.5,131.6 L193.3,131.2 L205.1,130.7 L216.9,130.3 L228.7,129.9 L240.5,129.5
		L252.3,129.0 L264.1,128.6 L275.9,128.2 L287.6,127.7 L299.4,127.3 L311.2,126.9 L323.0,126.5 L334.8,126.0
		L346.6,125.6 L358.4,125.2 L370.2,124.8 L382.0,124.3 L393.8,123.9 L405.6,123.5 L417.4,123.0 L429.2,122.6
		L441.0,122.2 L452.8,121.8 L464.6,121.3 L476.4,120.9 L488.2,120.5 L500.0,120.0 L511.8,119.6 L523.6,119.2
		L535.4,118.8 L547.2,118.3 L559.0,117.9 L570.8,117.5 L582.6,117.1 L594.4,116.6 L606.2,116.2 L618.0,115.8
		L629.8,115.3 L641.6,114.9 L653.4,114.5 L665.2,114.1 L676.9,113.6 L688.7,113.2 L700.5,112.8 L712.3,112.3
		L724.1,111.9 L735.9,111.5 L747.7,111.1 L759.5,110.6 L771.3,110.2 L783.1,109.8 L794.9,109.4 L806.7,108.9
		L818.5,108.5 L830.3,108.1 L842.1,107.6 L853.9,107.2 L865.7,106.8 L877.5,106.4 L889.3,105.9 L901.1,105.5
		L912.9,105.1 L924.7,104.6 L936.5,104.2 L948.3,103.8 L960.1,103.4 L971.9,102.9 L983.7,102.5 L995.5,102.1
		L1007.3,101.7 L1019.1,101.2 L1030.9,100.8 L1042.7,100.4 L1054.5,99.9 L1066.2,99.5 L1078.0,99.1 L1089.8,98.7
		L1101.6,98.2 L1113.4,97.8 L1125.2,97.4 L1137.0,96.9 L1148.8,96.5 L1160.6,96.1 L1172.4,95.7 L1184.2,95.2
		L1196.0,94.8 L1207.8,94.4 L1219.6,94.0 L1231.4,93.5 L1243.2,93.1 L1255.0,92.7  '/></g>
	</g>
<g fill="none" color="white" stroke="black" stroke-width="2.00" stroke-linecap="butt" stroke-linejoin="miter">
</g>
<g fill="none" color="black" stroke="currentColor" stroke-width="2.00" stroke-linecap="butt" stroke-linejoin="miter">
</g>
<g fill="none" color="black" stroke="black" stroke-width="1.00" stroke-linecap="butt" stroke-linejoin="miter">
</g>
<g fill="none" color="black" stroke="currentColor" stroke-width="1.00" stroke-linecap="butt" stroke-linejoin="miter">
	<path stroke='black'  d='M87.1,54.1 L87.1,703.4 L1255.0,703.4 L1255.0,54.1 L87.1,54.1 Z  '/></g>
<g fill="none" color="black" stroke="currentColor" stroke-width="1.00" stroke-linecap="butt" stroke-linejoin="miter">
</g>
</g>
</svg>

