<?xml version="1.0" encoding="utf-8"  standalone="no"?>
<svg 
 width="1280" height="720"
 viewBox="0 0 1280 720"
 xmlns="http://www.w3.org/2000/svg"
 xmlns:xlink="http://www.w3.org/1999/xlink"
>

<title>Gnuplot</title>
<desc>Produced by GNUPLOT 5.0 patchlevel 6 </desc>

<g id="gnuplot_canvas">

<rect x="0" y="0" width="1280" height="720" fill="none"/>
<defs>

	<circle id='gpDot' r='0.5' stroke-width='0.5'/>
	<path id='gpPt0' stroke-width='0.222' stroke='currentColor' d='M-1,0 h2 M0,-1 v2'/>
	<path id='gpPt1' stroke-width='0.222' stroke='currentColor' d='M-1,-1 L1,1 M1,-1 L-1,1'/>
	<path id='gpPt2' stroke-width='0.222' stroke='currentColor' d='M-1,0 L1,0 M0,-1 L0,1 M-1,-1 L1,1 M-1,1 L1,-1'/>
	<rect id='gpPt3' stroke-width='0.222' stroke='currentColor' x='-1' y='-1' width='2' height='2'/>
	<rect id='gpPt4' stroke-width='0.222' stroke='currentColor' fill='currentColor' x='-1' y='-1' width='2' height='2'/>
	<circle id='gpPt5' stroke-width='0.222' stroke='currentColor' cx='0' cy='0' r='1'/>
	<use xlink:href='#gpPt5' id='gpPt6' fill='currentColor' stroke='none'/>
	<path id='gpPt7' stroke-width='0.222' stroke='currentColor' d='M0,-1.33 L-1.33,0.67 L1.33,0.67 z'/>
	<use xlink:href='#gpPt7' id='gpPt8' fill='currentColor' stroke='none'/>
	<use xlink:href='#gpPt7' id='gpPt9' stroke='currentColor' transform='rotate(180)'/>
	<use xlink:href='#gpPt9' id='gpPt10' fill='currentColor' stroke='none'/>
	<use xlink:href='#gpPt3' id='gpPt11' stroke='currentColor' transform='rotate(45)'/>
	<use xlink:href='#gpPt11' id='gpPt12' fill='currentColor' stroke='none'/>
	<path id='gpPt13' stroke-width='0.222' stroke='currentColor' d='M0,1.330 L1.265,0.411 L0.782,-1.067 L-0.782,-1.076 L-1.265,0.411 z'/>
	<use xlink:href='#gpPt13' id='gpPt14' fill='currentColor' stroke='none'/>
	<filter id='textbox' filterUnits='objectBoundingBox' x='0' y='0' height='1' width='1'>
	  <feFlood flood-color='white' flood-opacity='1' result='bgnd'/>
	  <feComposite in='SourceGraphic' in2='bgnd' operator='atop'/>
	</filter>
	<filter id='greybox' filterUnits='objectBoundingBox' x='0' y='0' height='1' width='1'>
	  <feFlood flood-color='lightgrey' flood-opacity='1' result='grey'/>
	  <feComposite in='SourceGraphic' in2='grey' operator='atop'/>
	</filter>
</defs>
<g fill="none" color="white" stroke="currentColor" stroke-width="1.00" stroke-linecap="butt" stroke-linejoin="miter">
</g>
<g fill="none" color="black" stroke="currentColor" stroke-width="1.00" stroke-linecap="butt" stroke-linejoin="miter">
	<path stroke='black'  d='M87.1,703.4 L96.1,703.4 M1255.0,703.4 L1246.0,703.4  '/>	<g transform="translate(78.8,707.3)" stroke="none" fill="black" font-family="Arial" font-size="12.00"  text-anchor="end">
		<text><tspan font-family="Arial" >-110.136</tspan></text>
	</g>
</g>
<g fill="none" color="black" stroke="currentColor" stroke-width="1.00" stroke-linecap="butt" stroke-linejoin="miter">
	<path stroke='black'  d='M87.1,82.5 L96.1,82.5 M1255.0,82.5 L1246.0,82.5  '/>	<g transform="translate(78.8,86.4)" stroke="none" fill="black" font-family="Arial" font-size="12.00"  text-anchor="end">
		<text><tspan font-family="Arial" > 174.182</tspan></text>
	</g>
</g>
<g fill="none" color="black" stroke="currentColor" stroke-width="1.00" stroke-linecap="butt" stroke-linejoin="miter">
	<path stroke='black'  d='M87.1,54.1 L96.1,54.1 M1255.0,54.1 L1246.0,54.1  '/>	<g transform="translate(78.8,58.0)" stroke="none" fill="black" font-family="Arial" font-size="12.00"  text-anchor="end">
		<text><tspan font-family="Arial" > 187.171</tspan></text>
	</g>
</g>
<g fill="none" color="black" stroke="currentColor" stroke-width="1.00" stroke-linecap="butt" stroke-linejoin="miter">
</g>
<g fill="none" color="black" stroke="currentColor" stroke-width="1.00" stroke-linecap="butt" stroke-linejoin="miter">
	<path stroke='black'  d='M87.1,54.1 L87.1,703.4 L1255.0,703.4 L1255.0,54.1 L87.1,54.1 Z  '/></g>
<g fill="none" color="black" stroke="currentColor" stroke-width="1.00" stroke-linecap="butt" stroke-linejoin="miter">
	<g transform="translate(671.0,31.0)" stroke="none" fill="black" font-family="Arial" font-size="12.00"  text-anchor="middle">
		<text><tspan font-family="Arial" >Material 53, 4 components</tspan></text>
	</g>
</g>
	<g id="gnuplot_plot_1" ><title>log(likelihood)</title>
<g fill="none" color="black" stroke="currentColor" stroke-width="1.00" stroke-linecap="butt" stroke-linejoin="miter">
	<g transform="translate(1187.9,76.0)" stroke="none" fill="black" font-family="Arial" font-size="12.00"  text-anchor="end">
		<text><tspan font-family="Arial" >log(likelihood)</tspan></text>
	</g>
</g>
<g fill="none" color="black" stroke="currentColor" stroke-width="1.00" stroke-linecap="butt" stroke-linejoin="miter">
	<g stroke='none' shape-rendering='crispEdges'>
		<polygon fill = 'rgb(148,   0, 211)' fill-opacity = '0.100000' points = '1196.2,76.6 1238.4,76.6 1238.4,67.6 1196.2,67.6 '/>
	</g>
	<path stroke='rgb(148,   0, 211)'  d='M1196.2,76.6 L1238.4,76.6 L1238.4,67.6 L1196.2,67.6 L1196.2,76.6 Z  '/></g>
<g fill="none" color="black" stroke="currentColor" stroke-width="1.00" stroke-linecap="butt" stroke-linejoin="miter">
	<g stroke='none' shape-rendering='crispEdges'>
		<polygon fill = 'rgb(148,   0, 211)' fill-opacity = '0.100000' points = '87.1,703.4 89.5,652.3 92.0,614.3 94.4,588.9 96.9,565.6 99.3,550.0 101.8,541.1 104.2,539.2 106.6,535.1 109.1,533.8 111.5,532.7 114.0,534.1 116.4,534.2 118.9,503.4 121.3,469.2 123.7,455.8
126.2,426.4 128.6,377.1 131.1,343.6 133.5,292.8 136.0,265.7 138.4,232.0 140.9,211.8 143.3,191.7 145.7,170.4 148.2,149.5 150.6,123.0 153.1,114.9 155.5,101.6 158.0,96.9 160.4,85.1 162.8,87.2
165.3,80.1 167.7,78.8 170.2,80.0 172.6,78.2 175.1,75.7 177.5,71.6 179.9,71.7 182.4,73.0 184.8,69.8 187.3,66.3 189.7,69.9 192.2,68.6 194.6,66.9 197.0,66.0 199.5,66.3 201.9,65.6
204.4,67.8 206.8,66.1 209.3,63.1 211.7,64.1 214.2,64.7 216.6,65.3 219.0,62.9 221.5,64.3 223.9,63.4 226.4,63.5 228.8,62.7 231.3,64.9 233.7,64.7 236.1,62.9 238.6,63.3 241.0,63.9
243.5,62.2 245.9,63.2 248.4,62.1 250.8,63.4 253.2,61.3 255.7,63.8 258.1,63.2 260.6,61.0 263.0,61.0 265.5,61.2 267.9,64.1 270.3,63.9 272.8,61.3 275.2,63.0 277.7,63.3 280.1,61.4
282.6,61.2 285.0,62.6 287.5,63.0 289.9,63.2 292.3,60.5 294.8,61.0 297.2,63.7 299.7,64.0 302.1,60.2 304.6,64.7 307.0,61.2 309.4,62.4 311.9,61.2 314.3,64.4 316.8,60.8 319.2,63.2
321.7,62.4 324.1,64.5 326.5,64.9 329.0,64.2 331.4,61.5 333.9,62.5 336.3,63.4 338.8,60.4 341.2,62.8 343.6,61.0 346.1,63.0 348.5,63.6 351.0,57.6 353.4,62.1 355.9,60.8 358.3,61.8
360.8,64.3 363.2,59.9 365.6,64.2 368.1,61.8 370.5,62.8 373.0,63.7 375.4,61.2 377.9,62.3 380.3,62.3 382.7,61.8 385.2,64.2 387.6,62.8 390.1,60.9 392.5,61.5 395.0,60.0 397.4,59.8
399.8,63.2 402.3,63.1 404.7,60.6 407.2,62.7 409.6,61.1 412.1,62.9 414.5,60.8 416.9,63.6 419.4,63.9 421.8,61.5 424.3,60.7 426.7,62.9 429.2,63.0 431.6,62.1 434.0,61.0 436.5,62.4
438.9,61.9 441.4,61.7 443.8,62.0 446.3,62.6 448.7,61.9 451.2,63.6 453.6,63.6 456.0,63.7 458.5,64.1 460.9,61.1 463.4,63.1 465.8,65.2 468.3,59.7 470.7,59.9 473.1,60.3 475.6,63.7
478.0,63.6 480.5,62.3 482.9,61.7 485.4,60.3 487.8,60.6 490.2,61.2 492.7,59.8 495.1,62.3 497.6,59.4 500.0,61.9 502.5,61.5 504.9,62.1 507.3,62.4 509.8,60.5 512.2,63.4 514.7,64.2
517.1,63.3 519.6,62.2 522.0,63.5 524.5,64.6 526.9,61.5 529.3,62.1 531.8,64.0 534.2,61.5 536.7,62.3 539.1,63.1 541.6,60.9 544.0,64.3 546.4,64.9 548.9,63.6 551.3,61.5 553.8,61.5
556.2,63.3 558.7,62.2 561.1,55.9 563.5,58.5 566.0,58.5 568.4,58.5 570.9,63.1 573.3,60.2 575.8,60.7 578.2,62.1 580.6,60.8 583.1,63.1 585.5,63.1 588.0,62.6 590.4,64.4 592.9,62.7
595.3,57.5 597.8,61.0 600.2,60.0 602.6,61.5 605.1,60.7 607.5,59.8 610.0,58.4 612.4,60.5 614.9,63.7 617.3,61.3 619.7,61.4 622.2,62.0 624.6,63.6 627.1,62.9 629.5,61.6 632.0,62.8
634.4,61.1 636.8,59.7 639.3,59.7 641.7,59.7 644.2,62.0 646.6,59.2 649.1,58.9 651.5,59.9 653.9,61.5 656.4,61.5 658.8,61.4 661.3,61.5 663.7,60.5 666.2,57.1 668.6,59.5 671.1,60.0
673.5,58.4 675.9,60.1 678.4,63.3 680.8,63.0 683.3,60.6 685.7,61.6 688.2,57.0 690.6,61.8 693.0,56.9 695.5,60.5 697.9,62.0 700.4,62.4 702.8,58.8 705.3,61.7 707.7,58.5 710.1,59.0
712.6,64.6 715.0,59.8 717.5,63.5 719.9,63.0 722.4,59.3 724.8,59.3 727.2,64.6 729.7,61.0 732.1,59.8 734.6,61.6 737.0,62.5 739.5,59.3 741.9,59.3 744.3,60.9 746.8,60.0 749.2,61.1
751.7,61.3 754.1,58.1 756.6,58.1 759.0,62.5 761.5,55.9 763.9,61.5 766.3,59.4 768.8,56.9 771.2,57.4 773.7,58.5 776.1,58.5 778.6,56.0 781.0,58.5 783.4,57.1 785.9,60.3 788.3,59.2
790.8,62.0 793.2,57.8 795.7,56.2 798.1,60.9 800.5,57.1 803.0,55.5 805.4,63.2 807.9,60.4 810.3,59.4 812.8,60.6 815.2,60.6 817.6,63.1 820.1,62.8 822.5,63.8 825.0,63.0 827.4,62.8
829.9,61.7 832.3,58.8 834.8,58.7 837.2,62.9 839.6,59.4 842.1,58.5 844.5,63.1 847.0,62.0 849.4,62.7 851.9,62.6 854.3,63.5 856.7,61.5 859.2,62.5 861.6,57.9 864.1,63.1 866.5,60.9
869.0,59.5 871.4,61.4 873.8,60.5 876.3,61.3 878.7,58.7 881.2,62.9 883.6,62.5 886.1,61.6 888.5,60.3 890.9,60.7 893.4,58.3 895.8,62.1 898.3,60.5 900.7,60.2 903.2,60.0 905.6,60.0
908.1,63.2 910.5,60.7 912.9,60.7 915.4,62.0 917.8,61.9 920.3,58.7 922.7,56.1 925.2,57.1 927.6,63.3 930.0,63.6 932.5,60.4 934.9,61.2 937.4,59.1 939.8,59.1 942.3,60.0 944.7,59.0
947.1,62.9 949.6,59.9 952.0,59.0 954.5,60.8 956.9,59.8 959.4,60.3 961.8,60.0 964.2,59.1 966.7,59.4 969.1,61.2 971.6,58.6 974.0,59.4 976.5,61.1 978.9,59.5 981.3,60.2 983.8,59.3
986.2,58.6 988.7,58.6 991.1,59.1 993.6,59.1 996.0,60.0 998.5,59.9 1000.9,59.7 1003.3,59.7 1005.8,62.9 1008.2,61.9 1010.7,61.9 1013.1,58.5 1015.6,58.2 1018.0,56.4 1020.4,59.2 1022.9,58.5
1025.3,59.7 1027.8,60.8 1030.2,56.7 1032.7,60.1 1035.1,58.1 1037.5,60.0 1040.0,63.0 1042.4,62.0 1044.9,59.0 1047.3,59.1 1049.8,60.5 1052.2,59.5 1054.6,59.5 1057.1,58.4 1059.5,63.8 1062.0,59.4
1064.4,56.7 1066.9,57.5 1069.3,60.4 1071.8,61.2 1074.2,63.8 1076.6,57.8 1079.1,57.8 1081.5,60.1 1084.0,61.2 1086.4,61.1 1088.9,59.3 1091.3,62.1 1093.7,60.5 1096.2,60.4 1098.6,56.5 1101.1,56.5
1103.5,59.6 1106.0,62.5 1108.4,58.5 1110.8,56.8 1113.3,54.7 1115.7,58.5 1118.2,59.6 1120.6,59.8 1123.1,56.9 1125.5,57.8 1127.9,57.1 1130.4,59.3 1132.8,58.9 1135.3,59.6 1137.7,59.4 1140.2,63.4
1142.6,55.6 1145.1,58.2 1147.5,61.4 1149.9,57.5 1152.4,55.9 1154.8,61.0 1157.3,56.8 1159.7,56.8 1162.2,58.9 1164.6,57.8 1167.0,61.0 1169.5,62.1 1171.9,60.6 1174.4,59.5 1176.8,61.6 1179.3,58.8
1181.7,62.5 1184.1,61.9 1186.6,58.5 1189.0,60.2 1191.5,57.4 1193.9,60.8 1196.4,63.4 1198.8,61.1 1201.2,59.7 1203.7,62.3 1206.1,58.2 1208.6,58.2 1211.0,57.0 1213.5,58.0 1215.9,55.3 1218.4,58.2
1220.8,57.2 1223.2,63.0 1225.7,59.2 1228.1,60.0 1230.6,60.9 1233.0,59.2 1235.5,55.5 1237.9,59.3 1240.3,55.8 1242.8,55.8 1245.2,60.3 1247.7,58.4 1250.1,59.3 1252.6,56.7 1255.0,54.1 1255.0,703.4
87.1,703.4 '/>
	</g>
	<path stroke='rgb(148,   0, 211)'  d='M87.1,703.4 L89.5,652.3 L92.0,614.3 L94.4,588.9 L96.9,565.6 L99.3,550.0 L101.8,541.1 L104.2,539.2
		L106.6,535.1 L109.1,533.8 L111.5,532.7 L114.0,534.1 L116.4,534.2 L118.9,503.4 L121.3,469.2 L123.7,455.8
		L126.2,426.4 L128.6,377.1 L131.1,343.6 L133.5,292.8 L136.0,265.7 L138.4,232.0 L140.9,211.8 L143.3,191.7
		L145.7,170.4 L148.2,149.5 L150.6,123.0 L153.1,114.9 L155.5,101.6 L158.0,96.9 L160.4,85.1 L162.8,87.2
		L165.3,80.1 L167.7,78.8 L170.2,80.0 L172.6,78.2 L175.1,75.7 L177.5,71.6 L179.9,71.7 L182.4,73.0
		L184.8,69.8 L187.3,66.3 L189.7,69.9 L192.2,68.6 L194.6,66.9 L197.0,66.0 L199.5,66.3 L201.9,65.6
		L204.4,67.8 L206.8,66.1 L209.3,63.1 L211.7,64.1 L214.2,64.7 L216.6,65.3 L219.0,62.9 L221.5,64.3
		L223.9,63.4 L226.4,63.5 L228.8,62.7 L231.3,64.9 L233.7,64.7 L236.1,62.9 L238.6,63.3 L241.0,63.9
		L243.5,62.2 L245.9,63.2 L248.4,62.1 L250.8,63.4 L253.2,61.3 L255.7,63.8 L258.1,63.2 L260.6,61.0
		L263.0,61.0 L265.5,61.2 L267.9,64.1 L270.3,63.9 L272.8,61.3 L275.2,63.0 L277.7,63.3 L280.1,61.4
		L282.6,61.2 L285.0,62.6 L287.5,63.0 L289.9,63.2 L292.3,60.5 L294.8,61.0 L297.2,63.7 L299.7,64.0
		L302.1,60.2 L304.6,64.7 L307.0,61.2 L309.4,62.4 L311.9,61.2 L314.3,64.4 L316.8,60.8 L319.2,63.2
		L321.7,62.4 L324.1,64.5 L326.5,64.9 L329.0,64.2 L331.4,61.5 L333.9,62.5 L336.3,63.4 L338.8,60.4
		L341.2,62.8 L343.6,61.0 L346.1,63.0 L348.5,63.6 L351.0,57.6 L353.4,62.1 L355.9,60.8 L358.3,61.8
		L360.8,64.3 L363.2,59.9 L365.6,64.2 L368.1,61.8 L370.5,62.8 L373.0,63.7 L375.4,61.2 L377.9,62.3
		L380.3,62.3 L382.7,61.8 L385.2,64.2 L387.6,62.8 L390.1,60.9 L392.5,61.5 L395.0,60.0 L397.4,59.8
		L399.8,63.2 L402.3,63.1 L404.7,60.6 L407.2,62.7 L409.6,61.1 L412.1,62.9 L414.5,60.8 L416.9,63.6
		L419.4,63.9 L421.8,61.5 L424.3,60.7 L426.7,62.9 L429.2,63.0 L431.6,62.1 L434.0,61.0 L436.5,62.4
		L438.9,61.9 L441.4,61.7 L443.8,62.0 L446.3,62.6 L448.7,61.9 L451.2,63.6 L453.6,63.6 L456.0,63.7
		L458.5,64.1 L460.9,61.1 L463.4,63.1 L465.8,65.2 L468.3,59.7 L470.7,59.9 L473.1,60.3 L475.6,63.7
		L478.0,63.6 L480.5,62.3 L482.9,61.7 L485.4,60.3 L487.8,60.6 L490.2,61.2 L492.7,59.8 L495.1,62.3
		L497.6,59.4 L500.0,61.9 L502.5,61.5 L504.9,62.1 L507.3,62.4 L509.8,60.5 L512.2,63.4 L514.7,64.2
		L517.1,63.3 L519.6,62.2 L522.0,63.5 L524.5,64.6 L526.9,61.5 L529.3,62.1 L531.8,64.0 L534.2,61.5
		L536.7,62.3 L539.1,63.1 L541.6,60.9 L544.0,64.3 L546.4,64.9 L548.9,63.6 L551.3,61.5 L553.8,61.5
		L556.2,63.3 L558.7,62.2 L561.1,55.9 L563.5,58.5 L566.0,58.5 L568.4,58.5 L570.9,63.1 L573.3,60.2
		L575.8,60.7 L578.2,62.1 L580.6,60.8 L583.1,63.1 L585.5,63.1 L588.0,62.6 L590.4,64.4 L592.9,62.7
		L595.3,57.5 L597.8,61.0 L600.2,60.0 L602.6,61.5 L605.1,60.7 L607.5,59.8 L610.0,58.4 L612.4,60.5
		L614.9,63.7 L617.3,61.3 L619.7,61.4 L622.2,62.0 L624.6,63.6 L627.1,62.9 L629.5,61.6 L632.0,62.8
		L634.4,61.1 L636.8,59.7 L639.3,59.7 L641.7,59.7 L644.2,62.0 L646.6,59.2 L649.1,58.9 L651.5,59.9
		L653.9,61.5 L656.4,61.5 L658.8,61.4 L661.3,61.5 L663.7,60.5 L666.2,57.1 L668.6,59.5 L671.1,60.0
		L673.5,58.4 L675.9,60.1 L678.4,63.3 L680.8,63.0 L683.3,60.6 L685.7,61.6 L688.2,57.0 L690.6,61.8
		L693.0,56.9 L695.5,60.5 L697.9,62.0 L700.4,62.4 L702.8,58.8 L705.3,61.7 L707.7,58.5 L710.1,59.0
		L712.6,64.6 L715.0,59.8 L717.5,63.5 L719.9,63.0 L722.4,59.3 L724.8,59.3 L727.2,64.6 L729.7,61.0
		L732.1,59.8 L734.6,61.6 L737.0,62.5 L739.5,59.3 L741.9,59.3 L744.3,60.9 L746.8,60.0 L749.2,61.1
		L751.7,61.3 L754.1,58.1 L756.6,58.1 L759.0,62.5 L761.5,55.9 L763.9,61.5 L766.3,59.4 L768.8,56.9
		L771.2,57.4 L773.7,58.5 L776.1,58.5 L778.6,56.0 L781.0,58.5 L783.4,57.1 L785.9,60.3 L788.3,59.2
		L790.8,62.0 L793.2,57.8 L795.7,56.2 L798.1,60.9 L800.5,57.1 L803.0,55.5 L805.4,63.2 L807.9,60.4
		L810.3,59.4 L812.8,60.6 L815.2,60.6 L817.6,63.1 L820.1,62.8 L822.5,63.8 L825.0,63.0 L827.4,62.8
		L829.9,61.7 L832.3,58.8 L834.8,58.7 L837.2,62.9 L839.6,59.4 L842.1,58.5 L844.5,63.1 L847.0,62.0
		L849.4,62.7 L851.9,62.6 L854.3,63.5 L856.7,61.5 L859.2,62.5 L861.6,57.9 L864.1,63.1 L866.5,60.9
		L869.0,59.5 L871.4,61.4 L873.8,60.5 L876.3,61.3 L878.7,58.7 L881.2,62.9 L883.6,62.5 L886.1,61.6
		L888.5,60.3 L890.9,60.7 L893.4,58.3 L895.8,62.1 L898.3,60.5 L900.7,60.2 L903.2,60.0 L905.6,60.0
		L908.1,63.2 L910.5,60.7 L912.9,60.7 L915.4,62.0 L917.8,61.9 L920.3,58.7 L922.7,56.1 L925.2,57.1
		L927.6,63.3 L930.0,63.6 L932.5,60.4 L934.9,61.2 L937.4,59.1 L939.8,59.1 L942.3,60.0 L944.7,59.0
		L947.1,62.9 L949.6,59.9 L952.0,59.0 L954.5,60.8 L956.9,59.8 L959.4,60.3 L961.8,60.0 L964.2,59.1
		L966.7,59.4 L969.1,61.2 L971.6,58.6 L974.0,59.4 L976.5,61.1 L978.9,59.5 L981.3,60.2 L983.8,59.3
		L986.2,58.6 L988.7,58.6 L991.1,59.1 L993.6,59.1 L996.0,60.0 L998.5,59.9 L1000.9,59.7 L1003.3,59.7
		L1005.8,62.9 L1008.2,61.9 L1010.7,61.9 L1013.1,58.5 L1015.6,58.2 L1018.0,56.4 L1020.4,59.2 L1022.9,58.5
		L1025.3,59.7 L1027.8,60.8 L1030.2,56.7 L1032.7,60.1 L1035.1,58.1 L1037.5,60.0 L1040.0,63.0 L1042.4,62.0
		L1044.9,59.0 L1047.3,59.1 L1049.8,60.5 L1052.2,59.5 L1054.6,59.5 L1057.1,58.4 L1059.5,63.8 L1062.0,59.4
		L1064.4,56.7 L1066.9,57.5 L1069.3,60.4 L1071.8,61.2 L1074.2,63.8 L1076.6,57.8 L1079.1,57.8 L1081.5,60.1
		L1084.0,61.2 L1086.4,61.1 L1088.9,59.3 L1091.3,62.1 L1093.7,60.5 L1096.2,60.4 L1098.6,56.5 L1101.1,56.5
		L1103.5,59.6 L1106.0,62.5 L1108.4,58.5 L1110.8,56.8 L1113.3,54.7 L1115.7,58.5 L1118.2,59.6 L1120.6,59.8
		L1123.1,56.9 L1125.5,57.8 L1127.9,57.1 L1130.4,59.3 L1132.8,58.9 L1135.3,59.6 L1137.7,59.4 L1140.2,63.4
		L1142.6,55.6 L1145.1,58.2 L1147.5,61.4 L1149.9,57.5 L1152.4,55.9 L1154.8,61.0 L1157.3,56.8 L1159.7,56.8
		L1162.2,58.9 L1164.6,57.8 L1167.0,61.0 L1169.5,62.1 L1171.9,60.6 L1174.4,59.5 L1176.8,61.6 L1179.3,58.8
		L1181.7,62.5 L1184.1,61.9 L1186.6,58.5 L1189.0,60.2 L1191.5,57.4 L1193.9,60.8 L1196.4,63.4 L1198.8,61.1
		L1201.2,59.7 L1203.7,62.3 L1206.1,58.2 L1208.6,58.2 L1211.0,57.0 L1213.5,58.0 L1215.9,55.3 L1218.4,58.2
		L1220.8,57.2 L1223.2,63.0 L1225.7,59.2 L1228.1,60.0 L1230.6,60.9 L1233.0,59.2 L1235.5,55.5 L1237.9,59.3
		L1240.3,55.8 L1242.8,55.8 L1245.2,60.3 L1247.7,58.4 L1250.1,59.3 L1252.6,56.7 L1255.0,54.1  '/></g>
	</g>
	<g id="gnuplot_plot_2" ><title>trendline (m=0.121691,b=145.097553)</title>
<g fill="none" color="black" stroke="currentColor" stroke-width="1.00" stroke-linecap="butt" stroke-linejoin="miter">
	<g transform="translate(1187.9,94.0)" stroke="none" fill="black" font-family="Arial" font-size="12.00"  text-anchor="end">
		<text><tspan font-family="Arial" >trendline (m=0.121691,b=145.097553)</tspan></text>
	</g>
</g>
<g fill="none" color="black" stroke="currentColor" stroke-width="1.00" stroke-linecap="butt" stroke-linejoin="miter">
	<path stroke='black'  d='M1196.2,90.1 L1238.4,90.1 M87.1,146.0 L98.9,144.7 L110.7,143.4 L122.5,142.1 L134.3,140.9 L146.1,139.6
		L157.9,138.3 L169.7,137.0 L181.5,135.7 L193.3,134.4 L205.1,133.2 L216.9,131.9 L228.7,130.6 L240.5,129.3
		L252.3,128.0 L264.1,126.7 L275.9,125.5 L287.6,124.2 L299.4,122.9 L311.2,121.6 L323.0,120.3 L334.8,119.0
		L346.6,117.8 L358.4,116.5 L370.2,115.2 L382.0,113.9 L393.8,112.6 L405.6,111.3 L417.4,110.1 L429.2,108.8
		L441.0,107.5 L452.8,106.2 L464.6,104.9 L476.4,103.6 L488.2,102.4 L500.0,101.1 L511.8,99.8 L523.6,98.5
		L535.4,97.2 L547.2,95.9 L559.0,94.7 L570.8,93.4 L582.6,92.1 L594.4,90.8 L606.2,89.5 L618.0,88.2
		L629.8,87.0 L641.6,85.7 L653.4,84.4 L665.2,83.1 L676.9,81.8 L688.7,80.5 L700.5,79.3 L712.3,78.0
		L724.1,76.7 L735.9,75.4 L747.7,74.1 L759.5,72.8 L771.3,71.6 L783.1,70.3 L794.9,69.0 L806.7,67.7
		L818.5,66.4 L830.3,65.1 L842.1,63.9 L853.9,62.6 L865.7,61.3 L877.5,60.0 L889.3,58.7 L901.1,57.4
		L912.9,56.2 L924.7,54.9 L931.8,54.1  '/></g>
	</g>
<g fill="none" color="white" stroke="black" stroke-width="2.00" stroke-linecap="butt" stroke-linejoin="miter">
</g>
<g fill="none" color="black" stroke="currentColor" stroke-width="2.00" stroke-linecap="butt" stroke-linejoin="miter">
</g>
<g fill="none" color="black" stroke="black" stroke-width="1.00" stroke-linecap="butt" stroke-linejoin="miter">
</g>
<g fill="none" color="black" stroke="currentColor" stroke-width="1.00" stroke-linecap="butt" stroke-linejoin="miter">
	<path stroke='black'  d='M87.1,54.1 L87.1,703.4 L1255.0,703.4 L1255.0,54.1 L87.1,54.1 Z  '/></g>
<g fill="none" color="black" stroke="currentColor" stroke-width="1.00" stroke-linecap="butt" stroke-linejoin="miter">
</g>
</g>
</svg>

