<?xml version="1.0" encoding="utf-8"  standalone="no"?>
<svg 
 width="1280" height="720"
 viewBox="0 0 1280 720"
 xmlns="http://www.w3.org/2000/svg"
 xmlns:xlink="http://www.w3.org/1999/xlink"
>

<title>Gnuplot</title>
<desc>Produced by GNUPLOT 5.0 patchlevel 6 </desc>

<g id="gnuplot_canvas">

<rect x="0" y="0" width="1280" height="720" fill="none"/>
<defs>

	<circle id='gpDot' r='0.5' stroke-width='0.5'/>
	<path id='gpPt0' stroke-width='0.222' stroke='currentColor' d='M-1,0 h2 M0,-1 v2'/>
	<path id='gpPt1' stroke-width='0.222' stroke='currentColor' d='M-1,-1 L1,1 M1,-1 L-1,1'/>
	<path id='gpPt2' stroke-width='0.222' stroke='currentColor' d='M-1,0 L1,0 M0,-1 L0,1 M-1,-1 L1,1 M-1,1 L1,-1'/>
	<rect id='gpPt3' stroke-width='0.222' stroke='currentColor' x='-1' y='-1' width='2' height='2'/>
	<rect id='gpPt4' stroke-width='0.222' stroke='currentColor' fill='currentColor' x='-1' y='-1' width='2' height='2'/>
	<circle id='gpPt5' stroke-width='0.222' stroke='currentColor' cx='0' cy='0' r='1'/>
	<use xlink:href='#gpPt5' id='gpPt6' fill='currentColor' stroke='none'/>
	<path id='gpPt7' stroke-width='0.222' stroke='currentColor' d='M0,-1.33 L-1.33,0.67 L1.33,0.67 z'/>
	<use xlink:href='#gpPt7' id='gpPt8' fill='currentColor' stroke='none'/>
	<use xlink:href='#gpPt7' id='gpPt9' stroke='currentColor' transform='rotate(180)'/>
	<use xlink:href='#gpPt9' id='gpPt10' fill='currentColor' stroke='none'/>
	<use xlink:href='#gpPt3' id='gpPt11' stroke='currentColor' transform='rotate(45)'/>
	<use xlink:href='#gpPt11' id='gpPt12' fill='currentColor' stroke='none'/>
	<path id='gpPt13' stroke-width='0.222' stroke='currentColor' d='M0,1.330 L1.265,0.411 L0.782,-1.067 L-0.782,-1.076 L-1.265,0.411 z'/>
	<use xlink:href='#gpPt13' id='gpPt14' fill='currentColor' stroke='none'/>
	<filter id='textbox' filterUnits='objectBoundingBox' x='0' y='0' height='1' width='1'>
	  <feFlood flood-color='white' flood-opacity='1' result='bgnd'/>
	  <feComposite in='SourceGraphic' in2='bgnd' operator='atop'/>
	</filter>
	<filter id='greybox' filterUnits='objectBoundingBox' x='0' y='0' height='1' width='1'>
	  <feFlood flood-color='lightgrey' flood-opacity='1' result='grey'/>
	  <feComposite in='SourceGraphic' in2='grey' operator='atop'/>
	</filter>
</defs>
<g fill="none" color="white" stroke="currentColor" stroke-width="1.00" stroke-linecap="butt" stroke-linejoin="miter">
</g>
<g fill="none" color="black" stroke="currentColor" stroke-width="1.00" stroke-linecap="butt" stroke-linejoin="miter">
	<path stroke='black'  d='M87.1,703.4 L96.1,703.4 M1255.0,703.4 L1246.0,703.4  '/>	<g transform="translate(78.8,707.3)" stroke="none" fill="black" font-family="Arial" font-size="12.00"  text-anchor="end">
		<text><tspan font-family="Arial" >-77.2684</tspan></text>
	</g>
</g>
<g fill="none" color="black" stroke="currentColor" stroke-width="1.00" stroke-linecap="butt" stroke-linejoin="miter">
	<path stroke='black'  d='M87.1,63.1 L96.1,63.1 M1255.0,63.1 L1246.0,63.1  '/>	<g transform="translate(78.8,67.0)" stroke="none" fill="black" font-family="Arial" font-size="12.00"  text-anchor="end">
		<text><tspan font-family="Arial" > 150.458</tspan></text>
	</g>
</g>
<g fill="none" color="black" stroke="currentColor" stroke-width="1.00" stroke-linecap="butt" stroke-linejoin="miter">
	<path stroke='black'  d='M87.1,54.1 L96.1,54.1 M1255.0,54.1 L1246.0,54.1  '/>	<g transform="translate(78.8,58.0)" stroke="none" fill="black" font-family="Arial" font-size="12.00"  text-anchor="end">
		<text><tspan font-family="Arial" > 153.668</tspan></text>
	</g>
</g>
<g fill="none" color="black" stroke="currentColor" stroke-width="1.00" stroke-linecap="butt" stroke-linejoin="miter">
</g>
<g fill="none" color="black" stroke="currentColor" stroke-width="1.00" stroke-linecap="butt" stroke-linejoin="miter">
	<path stroke='black'  d='M87.1,54.1 L87.1,703.4 L1255.0,703.4 L1255.0,54.1 L87.1,54.1 Z  '/></g>
<g fill="none" color="black" stroke="currentColor" stroke-width="1.00" stroke-linecap="butt" stroke-linejoin="miter">
	<g transform="translate(671.0,31.0)" stroke="none" fill="black" font-family="Arial" font-size="12.00"  text-anchor="middle">
		<text><tspan font-family="Arial" >Material 8, 4 components</tspan></text>
	</g>
</g>
	<g id="gnuplot_plot_1" ><title>log(likelihood)</title>
<g fill="none" color="black" stroke="currentColor" stroke-width="1.00" stroke-linecap="butt" stroke-linejoin="miter">
	<g transform="translate(1187.9,76.0)" stroke="none" fill="black" font-family="Arial" font-size="12.00"  text-anchor="end">
		<text><tspan font-family="Arial" >log(likelihood)</tspan></text>
	</g>
</g>
<g fill="none" color="black" stroke="currentColor" stroke-width="1.00" stroke-linecap="butt" stroke-linejoin="miter">
	<g stroke='none' shape-rendering='crispEdges'>
		<polygon fill = 'rgb(148,   0, 211)' fill-opacity = '0.100000' points = '1196.2,76.6 1238.4,76.6 1238.4,67.6 1196.2,67.6 '/>
	</g>
	<path stroke='rgb(148,   0, 211)'  d='M1196.2,76.6 L1238.4,76.6 L1238.4,67.6 L1196.2,67.6 L1196.2,76.6 Z  '/></g>
<g fill="none" color="black" stroke="currentColor" stroke-width="1.00" stroke-linecap="butt" stroke-linejoin="miter">
	<g stroke='none' shape-rendering='crispEdges'>
		<polygon fill = 'rgb(148,   0, 211)' fill-opacity = '0.100000' points = '87.1,703.4 88.6,602.2 90.0,604.4 91.5,559.5 92.9,472.3 94.4,472.3 95.8,411.6 97.3,362.3 98.7,332.6 100.2,310.4 101.7,285.5 103.1,214.9 104.6,144.2 106.0,77.3 107.5,75.4 108.9,71.2
110.4,60.2 111.9,60.5 113.3,59.6 114.8,57.2 116.2,56.2 117.7,56.4 119.1,56.1 120.6,56.5 122.0,57.4 123.5,58.2 125.0,57.2 126.4,57.9 127.9,58.0 129.3,58.2 130.8,56.2 132.2,55.8
133.7,57.7 135.2,56.4 136.6,56.7 138.1,56.0 139.5,55.6 141.0,56.3 142.4,56.1 143.9,57.1 145.3,57.4 146.8,57.1 148.3,56.6 149.7,56.4 151.2,54.9 152.6,56.3 154.1,56.7 155.5,56.2
157.0,56.5 158.5,57.1 159.9,57.7 161.4,57.0 162.8,55.9 164.3,57.2 165.7,57.9 167.2,55.9 168.6,56.9 170.1,57.5 171.6,56.7 173.0,56.0 174.5,58.2 175.9,57.7 177.4,57.8 178.8,56.7
180.3,57.0 181.8,56.7 183.2,55.2 184.7,56.5 186.1,57.4 187.6,56.8 189.0,57.2 190.5,58.3 191.9,58.8 193.4,57.3 194.9,55.8 196.3,56.9 197.8,56.7 199.2,57.3 200.7,57.7 202.1,56.3
203.6,57.8 205.1,57.0 206.5,55.5 208.0,56.0 209.4,57.0 210.9,55.6 212.3,58.3 213.8,58.4 215.2,55.7 216.7,57.4 218.2,56.6 219.6,58.6 221.1,56.8 222.5,55.1 224.0,57.6 225.4,55.3
226.9,56.9 228.4,56.4 229.8,55.6 231.3,55.9 232.7,55.7 234.2,58.1 235.6,57.9 237.1,59.8 238.5,57.9 240.0,57.9 241.5,56.4 242.9,57.5 244.4,57.8 245.8,57.0 247.3,57.8 248.7,56.6
250.2,57.8 251.7,58.2 253.1,58.3 254.6,56.8 256.0,56.8 257.5,56.9 258.9,58.5 260.4,56.6 261.8,56.8 263.3,56.0 264.8,57.0 266.2,56.3 267.7,57.8 269.1,56.9 270.6,56.3 272.0,58.5
273.5,58.3 275.0,57.3 276.4,57.6 277.9,58.4 279.3,57.9 280.8,56.3 282.2,55.2 283.7,58.3 285.1,58.1 286.6,58.8 288.1,57.2 289.5,58.0 291.0,59.4 292.4,58.5 293.9,57.4 295.3,55.5
296.8,57.3 298.3,57.0 299.7,58.4 301.2,59.3 302.6,56.5 304.1,58.1 305.5,55.7 307.0,56.8 308.4,56.9 309.9,57.5 311.4,57.1 312.8,58.6 314.3,58.6 315.7,57.6 317.2,57.8 318.6,58.3
320.1,56.4 321.6,56.0 323.0,56.0 324.5,55.8 325.9,55.8 327.4,56.6 328.8,56.6 330.3,55.4 331.7,58.4 333.2,57.8 334.7,58.4 336.1,58.2 337.6,59.2 339.0,58.1 340.5,57.7 341.9,56.2
343.4,55.9 344.9,55.6 346.3,55.5 347.8,55.8 349.2,56.1 350.7,55.4 352.1,57.3 353.6,56.1 355.0,56.3 356.5,58.4 358.0,58.1 359.4,55.6 360.9,55.6 362.3,55.5 363.8,55.9 365.2,55.8
366.7,56.3 368.2,56.2 369.6,56.1 371.1,58.2 372.5,57.7 374.0,58.4 375.4,57.5 376.9,58.4 378.3,58.2 379.8,56.9 381.3,58.4 382.7,56.5 384.2,57.1 385.6,57.9 387.1,56.8 388.5,57.1
390.0,57.7 391.5,57.2 392.9,57.3 394.4,57.0 395.8,57.9 397.3,57.0 398.7,57.5 400.2,57.0 401.6,56.9 403.1,56.0 404.6,57.0 406.0,59.1 407.5,58.6 408.9,57.5 410.4,58.1 411.8,57.7
413.3,57.0 414.8,58.1 416.2,56.6 417.7,57.2 419.1,58.2 420.6,56.8 422.0,57.4 423.5,57.9 424.9,59.7 426.4,55.5 427.9,55.8 429.3,55.8 430.8,56.2 432.2,55.6 433.7,55.6 435.1,55.5
436.6,57.8 438.1,57.6 439.5,58.0 441.0,57.0 442.4,57.3 443.9,56.7 445.3,58.3 446.8,57.2 448.2,58.3 449.7,58.7 451.2,56.5 452.6,57.2 454.1,57.1 455.5,56.8 457.0,58.6 458.4,57.2
459.9,56.5 461.4,57.1 462.8,57.9 464.3,58.8 465.7,57.2 467.2,58.3 468.6,57.1 470.1,57.1 471.5,58.0 473.0,57.8 474.5,58.6 475.9,57.5 477.4,57.5 478.8,57.9 480.3,56.4 481.7,56.6
483.2,55.8 484.7,55.8 486.1,57.6 487.6,55.9 489.0,57.4 490.5,56.8 491.9,57.5 493.4,57.3 494.8,56.6 496.3,60.0 497.8,57.5 499.2,57.7 500.7,58.8 502.1,57.2 503.6,58.1 505.0,57.3
506.5,57.1 508.0,57.2 509.4,58.2 510.9,57.5 512.3,59.3 513.8,59.0 515.2,59.0 516.7,57.7 518.1,57.2 519.6,58.0 521.1,57.4 522.5,58.7 524.0,57.7 525.4,57.8 526.9,58.8 528.3,58.8
529.8,56.6 531.3,57.5 532.7,56.5 534.2,57.7 535.6,58.0 537.1,58.0 538.5,58.2 540.0,58.3 541.4,57.5 542.9,57.7 544.4,57.7 545.8,57.5 547.3,56.5 548.7,56.1 550.2,56.6 551.6,57.8
553.1,56.1 554.6,57.9 556.0,56.0 557.5,56.5 558.9,58.0 560.4,56.6 561.8,56.0 563.3,55.4 564.7,56.1 566.2,57.4 567.7,55.9 569.1,55.5 570.6,55.8 572.0,57.3 573.5,56.8 574.9,57.8
576.4,57.7 577.9,55.9 579.3,57.1 580.8,57.5 582.2,58.3 583.7,56.7 585.1,56.2 586.6,57.7 588.0,57.3 589.5,56.3 591.0,57.5 592.4,57.8 593.9,57.6 595.3,57.3 596.8,57.1 598.2,56.6
599.7,56.7 601.2,55.0 602.6,55.9 604.1,56.0 605.5,55.7 607.0,55.7 608.4,56.6 609.9,56.6 611.3,56.4 612.8,56.9 614.3,57.5 615.7,56.5 617.2,55.2 618.6,58.2 620.1,57.8 621.5,56.0
623.0,57.5 624.5,58.1 625.9,57.8 627.4,57.6 628.8,58.8 630.3,57.9 631.7,56.8 633.2,56.7 634.6,57.3 636.1,56.7 637.6,56.1 639.0,56.7 640.5,57.1 641.9,57.4 643.4,57.2 644.8,57.3
646.3,58.1 647.8,56.0 649.2,58.1 650.7,56.2 652.1,56.5 653.6,58.7 655.0,58.5 656.5,57.7 657.9,58.2 659.4,58.7 660.9,57.5 662.3,58.9 663.8,58.1 665.2,57.9 666.7,57.8 668.1,58.8
669.6,57.0 671.1,56.7 672.5,56.7 674.0,57.6 675.4,59.1 676.9,59.4 678.3,55.7 679.8,56.2 681.2,57.1 682.7,56.5 684.2,57.7 685.6,57.6 687.1,57.8 688.5,57.4 690.0,56.8 691.4,56.6
692.9,56.1 694.3,56.6 695.8,55.9 697.3,57.2 698.7,56.9 700.2,58.4 701.6,58.0 703.1,56.8 704.5,56.8 706.0,57.2 707.5,57.3 708.9,56.6 710.4,56.8 711.8,56.3 713.3,57.6 714.7,56.0
716.2,57.2 717.6,58.2 719.1,57.3 720.6,58.7 722.0,57.9 723.5,59.6 724.9,56.7 726.4,59.9 727.8,57.9 729.3,55.5 730.8,55.5 732.2,56.7 733.7,56.0 735.1,57.5 736.6,57.5 738.0,56.2
739.5,57.2 740.9,56.7 742.4,56.3 743.9,56.4 745.3,56.6 746.8,57.5 748.2,56.7 749.7,56.9 751.1,57.0 752.6,57.9 754.1,55.7 755.5,56.9 757.0,57.6 758.4,55.8 759.9,56.0 761.3,56.9
762.8,56.5 764.2,55.0 765.7,55.7 767.2,56.2 768.6,57.3 770.1,57.5 771.5,57.3 773.0,57.8 774.4,56.4 775.9,57.1 777.4,56.3 778.8,57.0 780.3,56.7 781.7,56.2 783.2,55.6 784.6,57.9
786.1,57.1 787.5,56.0 789.0,54.9 790.5,55.9 791.9,57.1 793.4,56.4 794.8,58.9 796.3,59.3 797.7,59.3 799.2,58.9 800.7,57.7 802.1,56.7 803.6,58.4 805.0,58.3 806.5,56.1 807.9,56.5
809.4,57.0 810.8,56.0 812.3,57.7 813.8,57.3 815.2,59.4 816.7,57.6 818.1,57.0 819.6,56.9 821.0,57.9 822.5,56.9 824.0,56.1 825.4,58.5 826.9,57.4 828.3,57.9 829.8,56.1 831.2,57.3
832.7,58.2 834.1,56.9 835.6,56.4 837.1,56.7 838.5,57.4 840.0,57.1 841.4,57.5 842.9,57.9 844.3,57.7 845.8,57.0 847.3,57.4 848.7,56.5 850.2,55.9 851.6,56.4 853.1,56.6 854.5,58.7
856.0,57.8 857.4,57.0 858.9,56.6 860.4,56.1 861.8,59.1 863.3,57.2 864.7,55.4 866.2,55.7 867.6,57.3 869.1,57.9 870.6,55.7 872.0,57.8 873.5,57.3 874.9,57.5 876.4,57.6 877.8,59.0
879.3,57.6 880.7,58.3 882.2,58.0 883.7,57.1 885.1,55.9 886.6,57.5 888.0,57.4 889.5,57.0 890.9,56.7 892.4,55.9 893.9,57.5 895.3,56.1 896.8,58.6 898.2,57.4 899.7,55.3 901.1,57.1
902.6,56.8 904.0,58.8 905.5,57.7 907.0,56.0 908.4,58.3 909.9,58.2 911.3,57.6 912.8,57.3 914.2,57.6 915.7,56.9 917.2,57.6 918.6,56.8 920.1,57.4 921.5,56.2 923.0,57.3 924.4,57.9
925.9,58.2 927.3,56.7 928.8,57.4 930.3,57.2 931.7,57.9 933.2,57.3 934.6,59.0 936.1,58.0 937.5,57.2 939.0,57.6 940.5,57.7 941.9,57.8 943.4,57.4 944.8,57.9 946.3,57.6 947.7,56.2
949.2,57.0 950.6,57.6 952.1,57.6 953.6,57.0 955.0,57.0 956.5,58.5 957.9,55.6 959.4,54.4 960.8,58.2 962.3,57.0 963.8,57.5 965.2,56.2 966.7,57.9 968.1,56.3 969.6,57.2 971.0,56.6
972.5,56.2 973.9,57.8 975.4,57.0 976.9,57.0 978.3,56.0 979.8,57.3 981.2,56.2 982.7,57.6 984.1,57.2 985.6,55.6 987.1,57.0 988.5,56.8 990.0,58.6 991.4,55.6 992.9,56.5 994.3,57.8
995.8,56.0 997.2,55.3 998.7,58.3 1000.2,56.4 1001.6,56.0 1003.1,57.2 1004.5,56.9 1006.0,55.8 1007.4,59.3 1008.9,58.1 1010.4,56.1 1011.8,59.4 1013.3,57.6 1014.7,57.4 1016.2,58.4 1017.6,59.3
1019.1,57.2 1020.5,56.9 1022.0,55.5 1023.5,59.9 1024.9,59.3 1026.4,59.0 1027.8,60.5 1029.3,57.8 1030.7,57.0 1032.2,57.4 1033.7,59.0 1035.1,57.9 1036.6,58.1 1038.0,57.9 1039.5,58.4 1040.9,57.0
1042.4,56.3 1043.8,56.3 1045.3,58.7 1046.8,58.0 1048.2,57.1 1049.7,56.5 1051.1,56.5 1052.6,55.8 1054.0,56.2 1055.5,55.5 1057.0,56.0 1058.4,55.7 1059.9,55.8 1061.3,56.2 1062.8,56.2 1064.2,55.3
1065.7,57.6 1067.1,57.8 1068.6,56.8 1070.1,58.2 1071.5,58.2 1073.0,56.7 1074.4,57.5 1075.9,56.7 1077.3,58.3 1078.8,57.9 1080.3,56.9 1081.7,57.0 1083.2,58.1 1084.6,57.3 1086.1,56.9 1087.5,55.3
1089.0,57.7 1090.4,56.0 1091.9,56.5 1093.4,57.0 1094.8,57.8 1096.3,57.4 1097.7,57.9 1099.2,56.5 1100.6,56.5 1102.1,57.4 1103.6,57.6 1105.0,57.2 1106.5,57.7 1107.9,56.7 1109.4,55.4 1110.8,56.6
1112.3,55.2 1113.7,55.2 1115.2,55.8 1116.7,58.9 1118.1,59.0 1119.6,57.5 1121.0,57.3 1122.5,56.7 1123.9,58.2 1125.4,59.3 1126.9,58.7 1128.3,59.0 1129.8,57.8 1131.2,55.7 1132.7,57.6 1134.1,60.0
1135.6,57.0 1137.0,57.4 1138.5,56.5 1140.0,59.2 1141.4,59.3 1142.9,58.5 1144.3,58.3 1145.8,58.1 1147.2,56.9 1148.7,57.6 1150.2,57.4 1151.6,59.0 1153.1,58.0 1154.5,57.0 1156.0,58.5 1157.4,58.1
1158.9,58.0 1160.3,57.2 1161.8,57.7 1163.3,57.4 1164.7,56.0 1166.2,56.9 1167.6,57.5 1169.1,55.9 1170.5,55.9 1172.0,57.1 1173.5,57.3 1174.9,57.8 1176.4,56.3 1177.8,55.3 1179.3,57.5 1180.7,58.1
1182.2,56.4 1183.6,55.8 1185.1,57.4 1186.6,57.6 1188.0,56.5 1189.5,56.5 1190.9,58.8 1192.4,58.7 1193.8,58.2 1195.3,58.6 1196.8,57.7 1198.2,58.8 1199.7,57.2 1201.1,55.0 1202.6,58.2 1204.0,57.3
1205.5,57.1 1206.9,57.4 1208.4,55.4 1209.9,56.5 1211.3,55.6 1212.8,55.3 1214.2,57.3 1215.7,56.8 1217.1,56.0 1218.6,59.9 1220.1,56.7 1221.5,56.5 1223.0,57.8 1224.4,55.8 1225.9,57.2 1227.3,57.6
1228.8,56.9 1230.2,54.1 1231.7,54.5 1233.2,54.5 1234.6,54.7 1236.1,54.4 1237.5,55.9 1239.0,55.6 1240.4,55.7 1241.9,56.8 1243.4,56.3 1244.8,55.4 1246.3,57.3 1247.7,57.0 1249.2,56.6 1250.6,58.9
1252.1,56.4 1253.5,57.0 1255.0,57.2 1255.0,703.4 87.1,703.4 '/>
	</g>
	<path stroke='rgb(148,   0, 211)'  d='M87.1,703.4 L88.6,602.2 L90.0,604.4 L91.5,559.5 L92.9,472.3 L94.4,472.3 L95.8,411.6 L97.3,362.3
		L98.7,332.6 L100.2,310.4 L101.7,285.5 L103.1,214.9 L104.6,144.2 L106.0,77.3 L107.5,75.4 L108.9,71.2
		L110.4,60.2 L111.9,60.5 L113.3,59.6 L114.8,57.2 L116.2,56.2 L117.7,56.4 L119.1,56.1 L120.6,56.5
		L122.0,57.4 L123.5,58.2 L125.0,57.2 L126.4,57.9 L127.9,58.0 L129.3,58.2 L130.8,56.2 L132.2,55.8
		L133.7,57.7 L135.2,56.4 L136.6,56.7 L138.1,56.0 L139.5,55.6 L141.0,56.3 L142.4,56.1 L143.9,57.1
		L145.3,57.4 L146.8,57.1 L148.3,56.6 L149.7,56.4 L151.2,54.9 L152.6,56.3 L154.1,56.7 L155.5,56.2
		L157.0,56.5 L158.5,57.1 L159.9,57.7 L161.4,57.0 L162.8,55.9 L164.3,57.2 L165.7,57.9 L167.2,55.9
		L168.6,56.9 L170.1,57.5 L171.6,56.7 L173.0,56.0 L174.5,58.2 L175.9,57.7 L177.4,57.8 L178.8,56.7
		L180.3,57.0 L181.8,56.7 L183.2,55.2 L184.7,56.5 L186.1,57.4 L187.6,56.8 L189.0,57.2 L190.5,58.3
		L191.9,58.8 L193.4,57.3 L194.9,55.8 L196.3,56.9 L197.8,56.7 L199.2,57.3 L200.7,57.7 L202.1,56.3
		L203.6,57.8 L205.1,57.0 L206.5,55.5 L208.0,56.0 L209.4,57.0 L210.9,55.6 L212.3,58.3 L213.8,58.4
		L215.2,55.7 L216.7,57.4 L218.2,56.6 L219.6,58.6 L221.1,56.8 L222.5,55.1 L224.0,57.6 L225.4,55.3
		L226.9,56.9 L228.4,56.4 L229.8,55.6 L231.3,55.9 L232.7,55.7 L234.2,58.1 L235.6,57.9 L237.1,59.8
		L238.5,57.9 L240.0,57.9 L241.5,56.4 L242.9,57.5 L244.4,57.8 L245.8,57.0 L247.3,57.8 L248.7,56.6
		L250.2,57.8 L251.7,58.2 L253.1,58.3 L254.6,56.8 L256.0,56.8 L257.5,56.9 L258.9,58.5 L260.4,56.6
		L261.8,56.8 L263.3,56.0 L264.8,57.0 L266.2,56.3 L267.7,57.8 L269.1,56.9 L270.6,56.3 L272.0,58.5
		L273.5,58.3 L275.0,57.3 L276.4,57.6 L277.9,58.4 L279.3,57.9 L280.8,56.3 L282.2,55.2 L283.7,58.3
		L285.1,58.1 L286.6,58.8 L288.1,57.2 L289.5,58.0 L291.0,59.4 L292.4,58.5 L293.9,57.4 L295.3,55.5
		L296.8,57.3 L298.3,57.0 L299.7,58.4 L301.2,59.3 L302.6,56.5 L304.1,58.1 L305.5,55.7 L307.0,56.8
		L308.4,56.9 L309.9,57.5 L311.4,57.1 L312.8,58.6 L314.3,58.6 L315.7,57.6 L317.2,57.8 L318.6,58.3
		L320.1,56.4 L321.6,56.0 L323.0,56.0 L324.5,55.8 L325.9,55.8 L327.4,56.6 L328.8,56.6 L330.3,55.4
		L331.7,58.4 L333.2,57.8 L334.7,58.4 L336.1,58.2 L337.6,59.2 L339.0,58.1 L340.5,57.7 L341.9,56.2
		L343.4,55.9 L344.9,55.6 L346.3,55.5 L347.8,55.8 L349.2,56.1 L350.7,55.4 L352.1,57.3 L353.6,56.1
		L355.0,56.3 L356.5,58.4 L358.0,58.1 L359.4,55.6 L360.9,55.6 L362.3,55.5 L363.8,55.9 L365.2,55.8
		L366.7,56.3 L368.2,56.2 L369.6,56.1 L371.1,58.2 L372.5,57.7 L374.0,58.4 L375.4,57.5 L376.9,58.4
		L378.3,58.2 L379.8,56.9 L381.3,58.4 L382.7,56.5 L384.2,57.1 L385.6,57.9 L387.1,56.8 L388.5,57.1
		L390.0,57.7 L391.5,57.2 L392.9,57.3 L394.4,57.0 L395.8,57.9 L397.3,57.0 L398.7,57.5 L400.2,57.0
		L401.6,56.9 L403.1,56.0 L404.6,57.0 L406.0,59.1 L407.5,58.6 L408.9,57.5 L410.4,58.1 L411.8,57.7
		L413.3,57.0 L414.8,58.1 L416.2,56.6 L417.7,57.2 L419.1,58.2 L420.6,56.8 L422.0,57.4 L423.5,57.9
		L424.9,59.7 L426.4,55.5 L427.9,55.8 L429.3,55.8 L430.8,56.2 L432.2,55.6 L433.7,55.6 L435.1,55.5
		L436.6,57.8 L438.1,57.6 L439.5,58.0 L441.0,57.0 L442.4,57.3 L443.9,56.7 L445.3,58.3 L446.8,57.2
		L448.2,58.3 L449.7,58.7 L451.2,56.5 L452.6,57.2 L454.1,57.1 L455.5,56.8 L457.0,58.6 L458.4,57.2
		L459.9,56.5 L461.4,57.1 L462.8,57.9 L464.3,58.8 L465.7,57.2 L467.2,58.3 L468.6,57.1 L470.1,57.1
		L471.5,58.0 L473.0,57.8 L474.5,58.6 L475.9,57.5 L477.4,57.5 L478.8,57.9 L480.3,56.4 L481.7,56.6
		L483.2,55.8 L484.7,55.8 L486.1,57.6 L487.6,55.9 L489.0,57.4 L490.5,56.8 L491.9,57.5 L493.4,57.3
		L494.8,56.6 L496.3,60.0 L497.8,57.5 L499.2,57.7 L500.7,58.8 L502.1,57.2 L503.6,58.1 L505.0,57.3
		L506.5,57.1 L508.0,57.2 L509.4,58.2 L510.9,57.5 L512.3,59.3 L513.8,59.0 L515.2,59.0 L516.7,57.7
		L518.1,57.2 L519.6,58.0 L521.1,57.4 L522.5,58.7 L524.0,57.7 L525.4,57.8 L526.9,58.8 L528.3,58.8
		L529.8,56.6 L531.3,57.5 L532.7,56.5 L534.2,57.7 L535.6,58.0 L537.1,58.0 L538.5,58.2 L540.0,58.3
		L541.4,57.5 L542.9,57.7 L544.4,57.7 L545.8,57.5 L547.3,56.5 L548.7,56.1 L550.2,56.6 L551.6,57.8
		L553.1,56.1 L554.6,57.9 L556.0,56.0 L557.5,56.5 L558.9,58.0 L560.4,56.6 L561.8,56.0 L563.3,55.4
		L564.7,56.1 L566.2,57.4 L567.7,55.9 L569.1,55.5 L570.6,55.8 L572.0,57.3 L573.5,56.8 L574.9,57.8
		L576.4,57.7 L577.9,55.9 L579.3,57.1 L580.8,57.5 L582.2,58.3 L583.7,56.7 L585.1,56.2 L586.6,57.7
		L588.0,57.3 L589.5,56.3 L591.0,57.5 L592.4,57.8 L593.9,57.6 L595.3,57.3 L596.8,57.1 L598.2,56.6
		L599.7,56.7 L601.2,55.0 L602.6,55.9 L604.1,56.0 L605.5,55.7 L607.0,55.7 L608.4,56.6 L609.9,56.6
		L611.3,56.4 L612.8,56.9 L614.3,57.5 L615.7,56.5 L617.2,55.2 L618.6,58.2 L620.1,57.8 L621.5,56.0
		L623.0,57.5 L624.5,58.1 L625.9,57.8 L627.4,57.6 L628.8,58.8 L630.3,57.9 L631.7,56.8 L633.2,56.7
		L634.6,57.3 L636.1,56.7 L637.6,56.1 L639.0,56.7 L640.5,57.1 L641.9,57.4 L643.4,57.2 L644.8,57.3
		L646.3,58.1 L647.8,56.0 L649.2,58.1 L650.7,56.2 L652.1,56.5 L653.6,58.7 L655.0,58.5 L656.5,57.7
		L657.9,58.2 L659.4,58.7 L660.9,57.5 L662.3,58.9 L663.8,58.1 L665.2,57.9 L666.7,57.8 L668.1,58.8
		L669.6,57.0 L671.1,56.7 L672.5,56.7 L674.0,57.6 L675.4,59.1 L676.9,59.4 L678.3,55.7 L679.8,56.2
		L681.2,57.1 L682.7,56.5 L684.2,57.7 L685.6,57.6 L687.1,57.8 L688.5,57.4 L690.0,56.8 L691.4,56.6
		L692.9,56.1 L694.3,56.6 L695.8,55.9 L697.3,57.2 L698.7,56.9 L700.2,58.4 L701.6,58.0 L703.1,56.8
		L704.5,56.8 L706.0,57.2 L707.5,57.3 L708.9,56.6 L710.4,56.8 L711.8,56.3 L713.3,57.6 L714.7,56.0
		L716.2,57.2 L717.6,58.2 L719.1,57.3 L720.6,58.7 L722.0,57.9 L723.5,59.6 L724.9,56.7 L726.4,59.9
		L727.8,57.9 L729.3,55.5 L730.8,55.5 L732.2,56.7 L733.7,56.0 L735.1,57.5 L736.6,57.5 L738.0,56.2
		L739.5,57.2 L740.9,56.7 L742.4,56.3 L743.9,56.4 L745.3,56.6 L746.8,57.5 L748.2,56.7 L749.7,56.9
		L751.1,57.0 L752.6,57.9 L754.1,55.7 L755.5,56.9 L757.0,57.6 L758.4,55.8 L759.9,56.0 L761.3,56.9
		L762.8,56.5 L764.2,55.0 L765.7,55.7 L767.2,56.2 L768.6,57.3 L770.1,57.5 L771.5,57.3 L773.0,57.8
		L774.4,56.4 L775.9,57.1 L777.4,56.3 L778.8,57.0 L780.3,56.7 L781.7,56.2 L783.2,55.6 L784.6,57.9
		L786.1,57.1 L787.5,56.0 L789.0,54.9 L790.5,55.9 L791.9,57.1 L793.4,56.4 L794.8,58.9 L796.3,59.3
		L797.7,59.3 L799.2,58.9 L800.7,57.7 L802.1,56.7 L803.6,58.4 L805.0,58.3 L806.5,56.1 L807.9,56.5
		L809.4,57.0 L810.8,56.0 L812.3,57.7 L813.8,57.3 L815.2,59.4 L816.7,57.6 L818.1,57.0 L819.6,56.9
		L821.0,57.9 L822.5,56.9 L824.0,56.1 L825.4,58.5 L826.9,57.4 L828.3,57.9 L829.8,56.1 L831.2,57.3
		L832.7,58.2 L834.1,56.9 L835.6,56.4 L837.1,56.7 L838.5,57.4 L840.0,57.1 L841.4,57.5 L842.9,57.9
		L844.3,57.7 L845.8,57.0 L847.3,57.4 L848.7,56.5 L850.2,55.9 L851.6,56.4 L853.1,56.6 L854.5,58.7
		L856.0,57.8 L857.4,57.0 L858.9,56.6 L860.4,56.1 L861.8,59.1 L863.3,57.2 L864.7,55.4 L866.2,55.7
		L867.6,57.3 L869.1,57.9 L870.6,55.7 L872.0,57.8 L873.5,57.3 L874.9,57.5 L876.4,57.6 L877.8,59.0
		L879.3,57.6 L880.7,58.3 L882.2,58.0 L883.7,57.1 L885.1,55.9 L886.6,57.5 L888.0,57.4 L889.5,57.0
		L890.9,56.7 L892.4,55.9 L893.9,57.5 L895.3,56.1 L896.8,58.6 L898.2,57.4 L899.7,55.3 L901.1,57.1
		L902.6,56.8 L904.0,58.8 L905.5,57.7 L907.0,56.0 L908.4,58.3 L909.9,58.2 L911.3,57.6 L912.8,57.3
		L914.2,57.6 L915.7,56.9 L917.2,57.6 L918.6,56.8 L920.1,57.4 L921.5,56.2 L923.0,57.3 L924.4,57.9
		L925.9,58.2 L927.3,56.7 L928.8,57.4 L930.3,57.2 L931.7,57.9 L933.2,57.3 L934.6,59.0 L936.1,58.0
		L937.5,57.2 L939.0,57.6 L940.5,57.7 L941.9,57.8 L943.4,57.4 L944.8,57.9 L946.3,57.6 L947.7,56.2
		L949.2,57.0 L950.6,57.6 L952.1,57.6 L953.6,57.0 L955.0,57.0 L956.5,58.5 L957.9,55.6 L959.4,54.4
		L960.8,58.2 L962.3,57.0 L963.8,57.5 L965.2,56.2 L966.7,57.9 L968.1,56.3 L969.6,57.2 L971.0,56.6
		L972.5,56.2 L973.9,57.8 L975.4,57.0 L976.9,57.0 L978.3,56.0 L979.8,57.3 L981.2,56.2 L982.7,57.6
		L984.1,57.2 L985.6,55.6 L987.1,57.0 L988.5,56.8 L990.0,58.6 L991.4,55.6 L992.9,56.5 L994.3,57.8
		L995.8,56.0 L997.2,55.3 L998.7,58.3 L1000.2,56.4 L1001.6,56.0 L1003.1,57.2 L1004.5,56.9 L1006.0,55.8
		L1007.4,59.3 L1008.9,58.1 L1010.4,56.1 L1011.8,59.4 L1013.3,57.6 L1014.7,57.4 L1016.2,58.4 L1017.6,59.3
		L1019.1,57.2 L1020.5,56.9 L1022.0,55.5 L1023.5,59.9 L1024.9,59.3 L1026.4,59.0 L1027.8,60.5 L1029.3,57.8
		L1030.7,57.0 L1032.2,57.4 L1033.7,59.0 L1035.1,57.9 L1036.6,58.1 L1038.0,57.9 L1039.5,58.4 L1040.9,57.0
		L1042.4,56.3 L1043.8,56.3 L1045.3,58.7 L1046.8,58.0 L1048.2,57.1 L1049.7,56.5 L1051.1,56.5 L1052.6,55.8
		L1054.0,56.2 L1055.5,55.5 L1057.0,56.0 L1058.4,55.7 L1059.9,55.8 L1061.3,56.2 L1062.8,56.2 L1064.2,55.3
		L1065.7,57.6 L1067.1,57.8 L1068.6,56.8 L1070.1,58.2 L1071.5,58.2 L1073.0,56.7 L1074.4,57.5 L1075.9,56.7
		L1077.3,58.3 L1078.8,57.9 L1080.3,56.9 L1081.7,57.0 L1083.2,58.1 L1084.6,57.3 L1086.1,56.9 L1087.5,55.3
		L1089.0,57.7 L1090.4,56.0 L1091.9,56.5 L1093.4,57.0 L1094.8,57.8 L1096.3,57.4 L1097.7,57.9 L1099.2,56.5
		L1100.6,56.5 L1102.1,57.4 L1103.6,57.6 L1105.0,57.2 L1106.5,57.7 L1107.9,56.7 L1109.4,55.4 L1110.8,56.6
		L1112.3,55.2 L1113.7,55.2 L1115.2,55.8 L1116.7,58.9 L1118.1,59.0 L1119.6,57.5 L1121.0,57.3 L1122.5,56.7
		L1123.9,58.2 L1125.4,59.3 L1126.9,58.7 L1128.3,59.0 L1129.8,57.8 L1131.2,55.7 L1132.7,57.6 L1134.1,60.0
		L1135.6,57.0 L1137.0,57.4 L1138.5,56.5 L1140.0,59.2 L1141.4,59.3 L1142.9,58.5 L1144.3,58.3 L1145.8,58.1
		L1147.2,56.9 L1148.7,57.6 L1150.2,57.4 L1151.6,59.0 L1153.1,58.0 L1154.5,57.0 L1156.0,58.5 L1157.4,58.1
		L1158.9,58.0 L1160.3,57.2 L1161.8,57.7 L1163.3,57.4 L1164.7,56.0 L1166.2,56.9 L1167.6,57.5 L1169.1,55.9
		L1170.5,55.9 L1172.0,57.1 L1173.5,57.3 L1174.9,57.8 L1176.4,56.3 L1177.8,55.3 L1179.3,57.5 L1180.7,58.1
		L1182.2,56.4 L1183.6,55.8 L1185.1,57.4 L1186.6,57.6 L1188.0,56.5 L1189.5,56.5 L1190.9,58.8 L1192.4,58.7
		L1193.8,58.2 L1195.3,58.6 L1196.8,57.7 L1198.2,58.8 L1199.7,57.2 L1201.1,55.0 L1202.6,58.2 L1204.0,57.3
		L1205.5,57.1 L1206.9,57.4 L1208.4,55.4 L1209.9,56.5 L1211.3,55.6 L1212.8,55.3 L1214.2,57.3 L1215.7,56.8
		L1217.1,56.0 L1218.6,59.9 L1220.1,56.7 L1221.5,56.5 L1223.0,57.8 L1224.4,55.8 L1225.9,57.2 L1227.3,57.6
		L1228.8,56.9 L1230.2,54.1 L1231.7,54.5 L1233.2,54.5 L1234.6,54.7 L1236.1,54.4 L1237.5,55.9 L1239.0,55.6
		L1240.4,55.7 L1241.9,56.8 L1243.4,56.3 L1244.8,55.4 L1246.3,57.3 L1247.7,57.0 L1249.2,56.6 L1250.6,58.9
		L1252.1,56.4 L1253.5,57.0 L1255.0,57.2  '/></g>
	</g>
	<g id="gnuplot_plot_2" ><title>trendline (m=0.015653,b=144.180850)</title>
<g fill="none" color="black" stroke="currentColor" stroke-width="1.00" stroke-linecap="butt" stroke-linejoin="miter">
	<g transform="translate(1187.9,94.0)" stroke="none" fill="black" font-family="Arial" font-size="12.00"  text-anchor="end">
		<text><tspan font-family="Arial" >trendline (m=0.015653,b=144.180850)</tspan></text>
	</g>
</g>
<g fill="none" color="black" stroke="currentColor" stroke-width="1.00" stroke-linecap="butt" stroke-linejoin="miter">
	<path stroke='black'  d='M1196.2,90.1 L1238.4,90.1 M87.1,80.8 L98.9,80.4 L110.7,80.1 L122.5,79.7 L134.3,79.3 L146.1,79.0
		L157.9,78.6 L169.7,78.3 L181.5,77.9 L193.3,77.6 L205.1,77.2 L216.9,76.9 L228.7,76.5 L240.5,76.1
		L252.3,75.8 L264.1,75.4 L275.9,75.1 L287.6,74.7 L299.4,74.4 L311.2,74.0 L323.0,73.6 L334.8,73.3
		L346.6,72.9 L358.4,72.6 L370.2,72.2 L382.0,71.9 L393.8,71.5 L405.6,71.1 L417.4,70.8 L429.2,70.4
		L441.0,70.1 L452.8,69.7 L464.6,69.4 L476.4,69.0 L488.2,68.7 L500.0,68.3 L511.8,67.9 L523.6,67.6
		L535.4,67.2 L547.2,66.9 L559.0,66.5 L570.8,66.2 L582.6,65.8 L594.4,65.4 L606.2,65.1 L618.0,64.7
		L629.8,64.4 L641.6,64.0 L653.4,63.7 L665.2,63.3 L676.9,62.9 L688.7,62.6 L700.5,62.2 L712.3,61.9
		L724.1,61.5 L735.9,61.2 L747.7,60.8 L759.5,60.5 L771.3,60.1 L783.1,59.7 L794.9,59.4 L806.7,59.0
		L818.5,58.7 L830.3,58.3 L842.1,58.0 L853.9,57.6 L865.7,57.2 L877.5,56.9 L889.3,56.5 L901.1,56.2
		L912.9,55.8 L924.7,55.5 L936.5,55.1 L948.3,54.7 L960.1,54.4 L969.7,54.1  '/></g>
	</g>
<g fill="none" color="white" stroke="black" stroke-width="2.00" stroke-linecap="butt" stroke-linejoin="miter">
</g>
<g fill="none" color="black" stroke="currentColor" stroke-width="2.00" stroke-linecap="butt" stroke-linejoin="miter">
</g>
<g fill="none" color="black" stroke="black" stroke-width="1.00" stroke-linecap="butt" stroke-linejoin="miter">
</g>
<g fill="none" color="black" stroke="currentColor" stroke-width="1.00" stroke-linecap="butt" stroke-linejoin="miter">
	<path stroke='black'  d='M87.1,54.1 L87.1,703.4 L1255.0,703.4 L1255.0,54.1 L87.1,54.1 Z  '/></g>
<g fill="none" color="black" stroke="currentColor" stroke-width="1.00" stroke-linecap="butt" stroke-linejoin="miter">
</g>
</g>
</svg>

