<?xml version="1.0" encoding="utf-8"  standalone="no"?>
<svg 
 width="1280" height="720"
 viewBox="0 0 1280 720"
 xmlns="http://www.w3.org/2000/svg"
 xmlns:xlink="http://www.w3.org/1999/xlink"
>

<title>Gnuplot</title>
<desc>Produced by GNUPLOT 5.0 patchlevel 6 </desc>

<g id="gnuplot_canvas">

<rect x="0" y="0" width="1280" height="720" fill="none"/>
<defs>

	<circle id='gpDot' r='0.5' stroke-width='0.5'/>
	<path id='gpPt0' stroke-width='0.222' stroke='currentColor' d='M-1,0 h2 M0,-1 v2'/>
	<path id='gpPt1' stroke-width='0.222' stroke='currentColor' d='M-1,-1 L1,1 M1,-1 L-1,1'/>
	<path id='gpPt2' stroke-width='0.222' stroke='currentColor' d='M-1,0 L1,0 M0,-1 L0,1 M-1,-1 L1,1 M-1,1 L1,-1'/>
	<rect id='gpPt3' stroke-width='0.222' stroke='currentColor' x='-1' y='-1' width='2' height='2'/>
	<rect id='gpPt4' stroke-width='0.222' stroke='currentColor' fill='currentColor' x='-1' y='-1' width='2' height='2'/>
	<circle id='gpPt5' stroke-width='0.222' stroke='currentColor' cx='0' cy='0' r='1'/>
	<use xlink:href='#gpPt5' id='gpPt6' fill='currentColor' stroke='none'/>
	<path id='gpPt7' stroke-width='0.222' stroke='currentColor' d='M0,-1.33 L-1.33,0.67 L1.33,0.67 z'/>
	<use xlink:href='#gpPt7' id='gpPt8' fill='currentColor' stroke='none'/>
	<use xlink:href='#gpPt7' id='gpPt9' stroke='currentColor' transform='rotate(180)'/>
	<use xlink:href='#gpPt9' id='gpPt10' fill='currentColor' stroke='none'/>
	<use xlink:href='#gpPt3' id='gpPt11' stroke='currentColor' transform='rotate(45)'/>
	<use xlink:href='#gpPt11' id='gpPt12' fill='currentColor' stroke='none'/>
	<path id='gpPt13' stroke-width='0.222' stroke='currentColor' d='M0,1.330 L1.265,0.411 L0.782,-1.067 L-0.782,-1.076 L-1.265,0.411 z'/>
	<use xlink:href='#gpPt13' id='gpPt14' fill='currentColor' stroke='none'/>
	<filter id='textbox' filterUnits='objectBoundingBox' x='0' y='0' height='1' width='1'>
	  <feFlood flood-color='white' flood-opacity='1' result='bgnd'/>
	  <feComposite in='SourceGraphic' in2='bgnd' operator='atop'/>
	</filter>
	<filter id='greybox' filterUnits='objectBoundingBox' x='0' y='0' height='1' width='1'>
	  <feFlood flood-color='lightgrey' flood-opacity='1' result='grey'/>
	  <feComposite in='SourceGraphic' in2='grey' operator='atop'/>
	</filter>
</defs>
<g fill="none" color="white" stroke="currentColor" stroke-width="1.00" stroke-linecap="butt" stroke-linejoin="miter">
</g>
<g fill="none" color="black" stroke="currentColor" stroke-width="1.00" stroke-linecap="butt" stroke-linejoin="miter">
	<path stroke='black'  d='M87.1,703.4 L96.1,703.4 M1255.0,703.4 L1246.0,703.4  '/>	<g transform="translate(78.8,707.3)" stroke="none" fill="black" font-family="Arial" font-size="12.00"  text-anchor="end">
		<text><tspan font-family="Arial" > 136.727</tspan></text>
	</g>
</g>
<g fill="none" color="black" stroke="currentColor" stroke-width="1.00" stroke-linecap="butt" stroke-linejoin="miter">
	<path stroke='black'  d='M87.1,111.3 L96.1,111.3 M1255.0,111.3 L1246.0,111.3  '/>	<g transform="translate(78.8,115.2)" stroke="none" fill="black" font-family="Arial" font-size="12.00"  text-anchor="end">
		<text><tspan font-family="Arial" > 137.977</tspan></text>
	</g>
</g>
<g fill="none" color="black" stroke="currentColor" stroke-width="1.00" stroke-linecap="butt" stroke-linejoin="miter">
	<path stroke='black'  d='M87.1,54.1 L96.1,54.1 M1255.0,54.1 L1246.0,54.1  '/>	<g transform="translate(78.8,58.0)" stroke="none" fill="black" font-family="Arial" font-size="12.00"  text-anchor="end">
		<text><tspan font-family="Arial" > 138.098</tspan></text>
	</g>
</g>
<g fill="none" color="black" stroke="currentColor" stroke-width="1.00" stroke-linecap="butt" stroke-linejoin="miter">
</g>
<g fill="none" color="black" stroke="currentColor" stroke-width="1.00" stroke-linecap="butt" stroke-linejoin="miter">
	<path stroke='black'  d='M87.1,54.1 L87.1,703.4 L1255.0,703.4 L1255.0,54.1 L87.1,54.1 Z  '/></g>
<g fill="none" color="black" stroke="currentColor" stroke-width="1.00" stroke-linecap="butt" stroke-linejoin="miter">
	<g transform="translate(671.0,31.0)" stroke="none" fill="black" font-family="Arial" font-size="12.00"  text-anchor="middle">
		<text><tspan font-family="Arial" >Material 8, 1 functions</tspan></text>
	</g>
</g>
	<g id="gnuplot_plot_1" ><title>log(likelihood)</title>
<g fill="none" color="black" stroke="currentColor" stroke-width="1.00" stroke-linecap="butt" stroke-linejoin="miter">
	<g transform="translate(1187.9,76.0)" stroke="none" fill="black" font-family="Arial" font-size="12.00"  text-anchor="end">
		<text><tspan font-family="Arial" >log(likelihood)</tspan></text>
	</g>
</g>
<g fill="none" color="black" stroke="currentColor" stroke-width="1.00" stroke-linecap="butt" stroke-linejoin="miter">
	<g stroke='none' shape-rendering='crispEdges'>
		<polygon fill = 'rgb(148,   0, 211)' fill-opacity = '0.100000' points = '1196.2,76.6 1238.4,76.6 1238.4,67.6 1196.2,67.6 '/>
	</g>
	<path stroke='rgb(148,   0, 211)'  d='M1196.2,76.6 L1238.4,76.6 L1238.4,67.6 L1196.2,67.6 L1196.2,76.6 Z  '/></g>
<g fill="none" color="black" stroke="currentColor" stroke-width="1.00" stroke-linecap="butt" stroke-linejoin="miter">
	<g stroke='none' shape-rendering='crispEdges'>
		<polygon fill = 'rgb(148,   0, 211)' fill-opacity = '0.100000' points = '87.1,703.4 102.5,75.9 117.8,113.8 133.2,85.4 148.6,139.3 163.9,95.8 179.3,76.8 194.7,112.8 210.0,58.4 225.4,77.8 240.8,73.5 256.1,118.0 271.5,60.7 286.9,113.3 302.2,120.9 317.6,81.6
333.0,136.5 348.3,87.3 363.7,82.0 379.1,101.0 394.4,92.9 409.8,102.4 425.2,112.8 440.5,105.7 455.9,133.2 471.3,120.9 486.6,115.2 502.0,93.4 517.4,119.9 532.7,127.5 548.1,83.9 563.5,78.7
578.8,89.6 594.2,101.0 609.6,123.2 624.9,94.8 640.3,116.6 655.7,137.0 671.1,95.3 686.4,125.1 701.8,76.4 717.2,136.0 732.5,198.5 747.9,67.4 763.3,123.7 778.6,84.4 794.0,131.3 809.4,65.9
824.7,96.7 840.1,120.9 855.5,98.1 870.8,114.7 886.2,72.6 901.6,199.0 916.9,91.5 932.3,118.5 947.7,54.1 963.0,116.6 978.4,125.1 993.8,132.7 1009.1,95.3 1024.5,135.1 1039.9,93.4 1055.2,116.1
1070.6,108.6 1086.0,56.0 1101.3,76.8 1116.7,118.5 1132.1,65.5 1147.4,117.6 1162.8,77.3 1178.2,109.0 1193.5,106.7 1208.9,77.8 1224.3,66.9 1239.6,91.0 1255.0,147.9 1255.0,703.4 87.1,703.4 '/>
	</g>
	<path stroke='rgb(148,   0, 211)'  d='M87.1,703.4 L102.5,75.9 L117.8,113.8 L133.2,85.4 L148.6,139.3 L163.9,95.8 L179.3,76.8 L194.7,112.8
		L210.0,58.4 L225.4,77.8 L240.8,73.5 L256.1,118.0 L271.5,60.7 L286.9,113.3 L302.2,120.9 L317.6,81.6
		L333.0,136.5 L348.3,87.3 L363.7,82.0 L379.1,101.0 L394.4,92.9 L409.8,102.4 L425.2,112.8 L440.5,105.7
		L455.9,133.2 L471.3,120.9 L486.6,115.2 L502.0,93.4 L517.4,119.9 L532.7,127.5 L548.1,83.9 L563.5,78.7
		L578.8,89.6 L594.2,101.0 L609.6,123.2 L624.9,94.8 L640.3,116.6 L655.7,137.0 L671.1,95.3 L686.4,125.1
		L701.8,76.4 L717.2,136.0 L732.5,198.5 L747.9,67.4 L763.3,123.7 L778.6,84.4 L794.0,131.3 L809.4,65.9
		L824.7,96.7 L840.1,120.9 L855.5,98.1 L870.8,114.7 L886.2,72.6 L901.6,199.0 L916.9,91.5 L932.3,118.5
		L947.7,54.1 L963.0,116.6 L978.4,125.1 L993.8,132.7 L1009.1,95.3 L1024.5,135.1 L1039.9,93.4 L1055.2,116.1
		L1070.6,108.6 L1086.0,56.0 L1101.3,76.8 L1116.7,118.5 L1132.1,65.5 L1147.4,117.6 L1162.8,77.3 L1178.2,109.0
		L1193.5,106.7 L1208.9,77.8 L1224.3,66.9 L1239.6,91.0 L1255.0,147.9  '/></g>
	</g>
	<g id="gnuplot_plot_2" ><title>trendline (m=0.001127,b=137.934468)</title>
<g fill="none" color="black" stroke="currentColor" stroke-width="1.00" stroke-linecap="butt" stroke-linejoin="miter">
	<g transform="translate(1187.9,94.0)" stroke="none" fill="black" font-family="Arial" font-size="12.00"  text-anchor="end">
		<text><tspan font-family="Arial" >trendline (m=0.001127,b=137.934468)</tspan></text>
	</g>
</g>
<g fill="none" color="black" stroke="currentColor" stroke-width="1.00" stroke-linecap="butt" stroke-linejoin="miter">
	<path stroke='black'  d='M1196.2,90.1 L1238.4,90.1 M87.1,131.5 L98.9,131.1 L110.7,130.7 L122.5,130.3 L134.3,129.9 L146.1,129.5
		L157.9,129.1 L169.7,128.7 L181.5,128.3 L193.3,127.9 L205.1,127.5 L216.9,127.0 L228.7,126.6 L240.5,126.2
		L252.3,125.8 L264.1,125.4 L275.9,125.0 L287.6,124.6 L299.4,124.2 L311.2,123.8 L323.0,123.4 L334.8,122.9
		L346.6,122.5 L358.4,122.1 L370.2,121.7 L382.0,121.3 L393.8,120.9 L405.6,120.5 L417.4,120.1 L429.2,119.7
		L441.0,119.3 L452.8,118.8 L464.6,118.4 L476.4,118.0 L488.2,117.6 L500.0,117.2 L511.8,116.8 L523.6,116.4
		L535.4,116.0 L547.2,115.6 L559.0,115.2 L570.8,114.7 L582.6,114.3 L594.4,113.9 L606.2,113.5 L618.0,113.1
		L629.8,112.7 L641.6,112.3 L653.4,111.9 L665.2,111.5 L676.9,111.1 L688.7,110.6 L700.5,110.2 L712.3,109.8
		L724.1,109.4 L735.9,109.0 L747.7,108.6 L759.5,108.2 L771.3,107.8 L783.1,107.4 L794.9,107.0 L806.7,106.6
		L818.5,106.1 L830.3,105.7 L842.1,105.3 L853.9,104.9 L865.7,104.5 L877.5,104.1 L889.3,103.7 L901.1,103.3
		L912.9,102.9 L924.7,102.5 L936.5,102.0 L948.3,101.6 L960.1,101.2 L971.9,100.8 L983.7,100.4 L995.5,100.0
		L1007.3,99.6 L1019.1,99.2 L1030.9,98.8 L1042.7,98.4 L1054.5,97.9 L1066.2,97.5 L1078.0,97.1 L1089.8,96.7
		L1101.6,96.3 L1113.4,95.9 L1125.2,95.5 L1137.0,95.1 L1148.8,94.7 L1160.6,94.3 L1172.4,93.8 L1184.2,93.4
		L1196.0,93.0 L1207.8,92.6 L1219.6,92.2 L1231.4,91.8 L1243.2,91.4 L1255.0,91.0  '/></g>
	</g>
<g fill="none" color="white" stroke="black" stroke-width="2.00" stroke-linecap="butt" stroke-linejoin="miter">
</g>
<g fill="none" color="black" stroke="currentColor" stroke-width="2.00" stroke-linecap="butt" stroke-linejoin="miter">
</g>
<g fill="none" color="black" stroke="black" stroke-width="1.00" stroke-linecap="butt" stroke-linejoin="miter">
</g>
<g fill="none" color="black" stroke="currentColor" stroke-width="1.00" stroke-linecap="butt" stroke-linejoin="miter">
	<path stroke='black'  d='M87.1,54.1 L87.1,703.4 L1255.0,703.4 L1255.0,54.1 L87.1,54.1 Z  '/></g>
<g fill="none" color="black" stroke="currentColor" stroke-width="1.00" stroke-linecap="butt" stroke-linejoin="miter">
</g>
</g>
</svg>

