<?xml version="1.0" encoding="utf-8"  standalone="no"?>
<svg 
 width="1280" height="720"
 viewBox="0 0 1280 720"
 xmlns="http://www.w3.org/2000/svg"
 xmlns:xlink="http://www.w3.org/1999/xlink"
>

<title>Gnuplot</title>
<desc>Produced by GNUPLOT 5.0 patchlevel 6 </desc>

<g id="gnuplot_canvas">

<rect x="0" y="0" width="1280" height="720" fill="none"/>
<defs>

	<circle id='gpDot' r='0.5' stroke-width='0.5'/>
	<path id='gpPt0' stroke-width='0.222' stroke='currentColor' d='M-1,0 h2 M0,-1 v2'/>
	<path id='gpPt1' stroke-width='0.222' stroke='currentColor' d='M-1,-1 L1,1 M1,-1 L-1,1'/>
	<path id='gpPt2' stroke-width='0.222' stroke='currentColor' d='M-1,0 L1,0 M0,-1 L0,1 M-1,-1 L1,1 M-1,1 L1,-1'/>
	<rect id='gpPt3' stroke-width='0.222' stroke='currentColor' x='-1' y='-1' width='2' height='2'/>
	<rect id='gpPt4' stroke-width='0.222' stroke='currentColor' fill='currentColor' x='-1' y='-1' width='2' height='2'/>
	<circle id='gpPt5' stroke-width='0.222' stroke='currentColor' cx='0' cy='0' r='1'/>
	<use xlink:href='#gpPt5' id='gpPt6' fill='currentColor' stroke='none'/>
	<path id='gpPt7' stroke-width='0.222' stroke='currentColor' d='M0,-1.33 L-1.33,0.67 L1.33,0.67 z'/>
	<use xlink:href='#gpPt7' id='gpPt8' fill='currentColor' stroke='none'/>
	<use xlink:href='#gpPt7' id='gpPt9' stroke='currentColor' transform='rotate(180)'/>
	<use xlink:href='#gpPt9' id='gpPt10' fill='currentColor' stroke='none'/>
	<use xlink:href='#gpPt3' id='gpPt11' stroke='currentColor' transform='rotate(45)'/>
	<use xlink:href='#gpPt11' id='gpPt12' fill='currentColor' stroke='none'/>
	<path id='gpPt13' stroke-width='0.222' stroke='currentColor' d='M0,1.330 L1.265,0.411 L0.782,-1.067 L-0.782,-1.076 L-1.265,0.411 z'/>
	<use xlink:href='#gpPt13' id='gpPt14' fill='currentColor' stroke='none'/>
	<filter id='textbox' filterUnits='objectBoundingBox' x='0' y='0' height='1' width='1'>
	  <feFlood flood-color='white' flood-opacity='1' result='bgnd'/>
	  <feComposite in='SourceGraphic' in2='bgnd' operator='atop'/>
	</filter>
	<filter id='greybox' filterUnits='objectBoundingBox' x='0' y='0' height='1' width='1'>
	  <feFlood flood-color='lightgrey' flood-opacity='1' result='grey'/>
	  <feComposite in='SourceGraphic' in2='grey' operator='atop'/>
	</filter>
</defs>
<g fill="none" color="white" stroke="currentColor" stroke-width="1.00" stroke-linecap="butt" stroke-linejoin="miter">
</g>
<g fill="none" color="black" stroke="currentColor" stroke-width="1.00" stroke-linecap="butt" stroke-linejoin="miter">
	<path stroke='black'  d='M87.1,703.4 L96.1,703.4 M1255.0,703.4 L1246.0,703.4  '/>	<g transform="translate(78.8,707.3)" stroke="none" fill="black" font-family="Arial" font-size="12.00"  text-anchor="end">
		<text><tspan font-family="Arial" > 2485.27</tspan></text>
	</g>
</g>
<g fill="none" color="black" stroke="currentColor" stroke-width="1.00" stroke-linecap="butt" stroke-linejoin="miter">
	<path stroke='black'  d='M87.1,88.9 L96.1,88.9 M1255.0,88.9 L1246.0,88.9  '/>	<g transform="translate(78.8,92.8)" stroke="none" fill="black" font-family="Arial" font-size="12.00"  text-anchor="end">
		<text><tspan font-family="Arial" > 4851.51</tspan></text>
	</g>
</g>
<g fill="none" color="black" stroke="currentColor" stroke-width="1.00" stroke-linecap="butt" stroke-linejoin="miter">
	<path stroke='black'  d='M87.1,54.1 L96.1,54.1 M1255.0,54.1 L1246.0,54.1  '/>	<g transform="translate(78.8,58.0)" stroke="none" fill="black" font-family="Arial" font-size="12.00"  text-anchor="end">
		<text><tspan font-family="Arial" > 4985.34</tspan></text>
	</g>
</g>
<g fill="none" color="black" stroke="currentColor" stroke-width="1.00" stroke-linecap="butt" stroke-linejoin="miter">
</g>
<g fill="none" color="black" stroke="currentColor" stroke-width="1.00" stroke-linecap="butt" stroke-linejoin="miter">
	<path stroke='black'  d='M87.1,54.1 L87.1,703.4 L1255.0,703.4 L1255.0,54.1 L87.1,54.1 Z  '/></g>
<g fill="none" color="black" stroke="currentColor" stroke-width="1.00" stroke-linecap="butt" stroke-linejoin="miter">
	<g transform="translate(671.0,31.0)" stroke="none" fill="black" font-family="Arial" font-size="12.00"  text-anchor="middle">
		<text><tspan font-family="Arial" >Material 63, 4 components</tspan></text>
	</g>
</g>
	<g id="gnuplot_plot_1" ><title>log(likelihood)</title>
<g fill="none" color="black" stroke="currentColor" stroke-width="1.00" stroke-linecap="butt" stroke-linejoin="miter">
	<g transform="translate(1187.9,76.0)" stroke="none" fill="black" font-family="Arial" font-size="12.00"  text-anchor="end">
		<text><tspan font-family="Arial" >log(likelihood)</tspan></text>
	</g>
</g>
<g fill="none" color="black" stroke="currentColor" stroke-width="1.00" stroke-linecap="butt" stroke-linejoin="miter">
	<g stroke='none' shape-rendering='crispEdges'>
		<polygon fill = 'rgb(148,   0, 211)' fill-opacity = '0.100000' points = '1196.2,76.6 1238.4,76.6 1238.4,67.6 1196.2,67.6 '/>
	</g>
	<path stroke='rgb(148,   0, 211)'  d='M1196.2,76.6 L1238.4,76.6 L1238.4,67.6 L1196.2,67.6 L1196.2,76.6 Z  '/></g>
<g fill="none" color="black" stroke="currentColor" stroke-width="1.00" stroke-linecap="butt" stroke-linejoin="miter">
	<g stroke='none' shape-rendering='crispEdges'>
		<polygon fill = 'rgb(148,   0, 211)' fill-opacity = '0.100000' points = '87.1,702.7 87.9,702.8 88.6,703.1 89.4,703.0 90.1,703.2 90.9,703.3 91.7,703.4 92.4,703.2 93.2,703.0 93.9,703.3 94.7,702.8 95.5,702.9 96.2,702.6 97.0,701.0 97.7,700.6 98.5,698.6
99.3,696.5 100.0,684.8 100.8,653.2 101.5,629.3 102.3,594.6 103.1,556.3 103.8,535.2 104.6,507.6 105.3,497.0 106.1,485.3 106.9,462.5 107.6,456.5 108.4,443.2 109.1,433.5 109.9,421.5 110.7,408.1
111.4,387.3 112.2,373.8 112.9,359.2 113.7,347.8 114.5,341.0 115.2,332.8 116.0,322.5 116.7,315.4 117.5,311.9 118.3,307.2 119.0,302.0 119.8,295.5 120.5,290.3 121.3,286.7 122.1,282.6 122.8,277.9
123.6,275.2 124.3,271.9 125.1,270.2 125.9,268.0 126.6,266.0 127.4,264.6 128.1,262.4 128.9,259.3 129.7,257.8 130.4,257.6 131.2,255.1 131.9,253.9 132.7,251.0 133.5,249.8 134.2,247.9 135.0,247.0
135.7,245.1 136.5,245.0 137.3,243.3 138.0,240.6 138.8,240.8 139.5,238.9 140.3,238.9 141.0,236.6 141.8,235.1 142.6,233.3 143.3,232.2 144.1,230.2 144.8,226.8 145.6,224.9 146.4,223.8 147.1,222.8
147.9,222.1 148.6,220.8 149.4,218.5 150.2,214.8 150.9,213.0 151.7,210.9 152.4,209.4 153.2,208.3 154.0,206.6 154.7,205.2 155.5,204.0 156.2,202.1 157.0,200.6 157.8,197.9 158.5,196.0 159.3,195.4
160.0,194.3 160.8,193.1 161.6,191.4 162.3,190.0 163.1,188.9 163.8,188.0 164.6,187.5 165.4,186.5 166.1,184.6 166.9,181.9 167.6,179.8 168.4,176.9 169.2,175.6 169.9,174.4 170.7,171.9 171.4,170.6
172.2,168.7 173.0,167.4 173.7,167.0 174.5,165.7 175.2,163.4 176.0,162.8 176.8,161.1 177.5,160.6 178.3,159.6 179.0,158.0 179.8,157.2 180.6,157.0 181.3,155.4 182.1,154.5 182.8,152.3 183.6,152.1
184.4,150.5 185.1,150.6 185.9,149.0 186.6,148.4 187.4,148.2 188.2,146.9 188.9,146.8 189.7,146.1 190.4,146.1 191.2,144.4 192.0,144.3 192.7,144.4 193.5,143.0 194.2,142.2 195.0,140.9 195.8,140.7
196.5,140.0 197.3,139.1 198.0,139.2 198.8,138.7 199.6,138.2 200.3,137.6 201.1,136.9 201.8,135.9 202.6,135.9 203.4,134.9 204.1,134.5 204.9,133.8 205.6,133.8 206.4,132.9 207.2,132.2 207.9,132.0
208.7,132.1 209.4,130.4 210.2,130.2 211.0,129.3 211.7,129.2 212.5,129.2 213.2,128.1 214.0,127.9 214.8,127.0 215.5,126.7 216.3,126.1 217.0,125.9 217.8,124.9 218.6,123.9 219.3,123.2 220.1,123.4
220.8,123.0 221.6,122.5 222.4,122.1 223.1,120.8 223.9,120.5 224.6,120.5 225.4,119.2 226.2,119.0 226.9,118.7 227.7,118.4 228.4,117.3 229.2,116.5 230.0,116.6 230.7,116.5 231.5,115.9 232.2,115.6
233.0,114.2 233.8,114.0 234.5,113.4 235.3,113.2 236.0,111.5 236.8,111.7 237.6,111.0 238.3,110.5 239.1,110.7 239.8,110.0 240.6,109.6 241.4,108.8 242.1,108.6 242.9,109.0 243.6,108.4 244.4,107.7
245.2,107.8 245.9,107.4 246.7,107.0 247.4,106.0 248.2,106.1 248.9,106.1 249.7,105.4 250.5,105.4 251.2,104.9 252.0,104.4 252.7,103.8 253.5,103.3 254.3,102.9 255.0,102.4 255.8,102.2 256.5,101.9
257.3,101.2 258.1,101.3 258.8,100.9 259.6,101.0 260.3,100.7 261.1,100.1 261.9,100.2 262.6,100.3 263.4,99.5 264.1,99.4 264.9,99.1 265.7,98.9 266.4,98.4 267.2,98.4 267.9,97.9 268.7,97.0
269.5,96.8 270.2,96.4 271.0,97.0 271.7,96.9 272.5,96.2 273.3,96.4 274.0,95.9 274.8,95.6 275.5,95.2 276.3,95.0 277.1,94.8 277.8,94.4 278.6,94.5 279.3,94.1 280.1,93.7 280.9,93.6
281.6,93.5 282.4,92.8 283.1,93.3 283.9,92.5 284.7,92.3 285.4,92.5 286.2,92.0 286.9,92.1 287.7,91.7 288.5,91.6 289.2,91.4 290.0,91.3 290.7,91.4 291.5,90.6 292.3,90.7 293.0,90.7
293.8,89.7 294.5,89.3 295.3,89.8 296.1,89.4 296.8,89.6 297.6,88.6 298.3,88.2 299.1,88.4 299.9,88.1 300.6,88.3 301.4,87.8 302.1,88.0 302.9,87.7 303.7,87.4 304.4,87.5 305.2,87.6
305.9,87.5 306.7,86.5 307.5,86.6 308.2,86.9 309.0,86.7 309.7,86.6 310.5,86.2 311.3,86.0 312.0,86.0 312.8,85.9 313.5,85.4 314.3,85.2 315.1,85.6 315.8,85.3 316.6,85.2 317.3,84.8
318.1,84.5 318.9,84.4 319.6,84.0 320.4,84.1 321.1,84.0 321.9,83.9 322.7,83.9 323.4,83.6 324.2,83.3 324.9,83.2 325.7,83.5 326.5,83.3 327.2,83.2 328.0,83.1 328.7,82.4 329.5,82.5
330.3,82.8 331.0,82.0 331.8,81.6 332.5,81.6 333.3,81.5 334.1,81.6 334.8,81.6 335.6,80.9 336.3,81.3 337.1,81.3 337.9,81.1 338.6,80.9 339.4,80.7 340.1,80.6 340.9,80.4 341.7,80.4
342.4,80.6 343.2,80.4 343.9,79.8 344.7,80.3 345.5,80.0 346.2,79.7 347.0,79.8 347.7,79.3 348.5,79.6 349.3,79.6 350.0,78.8 350.8,79.2 351.5,79.1 352.3,79.2 353.0,78.7 353.8,78.6
354.6,78.8 355.3,79.0 356.1,78.7 356.8,78.3 357.6,78.2 358.4,78.6 359.1,78.4 359.9,78.1 360.6,77.5 361.4,77.6 362.2,77.8 362.9,77.8 363.7,77.6 364.4,77.5 365.2,77.7 366.0,77.6
366.7,77.5 367.5,77.1 368.2,77.2 369.0,77.1 369.8,77.1 370.5,76.7 371.3,76.7 372.0,76.7 372.8,76.7 373.6,76.1 374.3,76.4 375.1,76.6 375.8,76.2 376.6,76.4 377.4,75.8 378.1,75.9
378.9,75.9 379.6,76.1 380.4,76.0 381.2,75.4 381.9,75.3 382.7,75.7 383.4,75.5 384.2,75.5 385.0,75.1 385.7,75.0 386.5,75.1 387.2,75.3 388.0,75.0 388.8,75.0 389.5,74.8 390.3,75.0
391.0,74.4 391.8,74.3 392.6,74.3 393.3,74.2 394.1,74.1 394.8,74.5 395.6,73.7 396.4,74.2 397.1,74.2 397.9,74.0 398.6,73.7 399.4,73.4 400.2,73.8 400.9,73.5 401.7,73.6 402.4,73.3
403.2,73.3 404.0,73.1 404.7,73.3 405.5,72.7 406.2,72.8 407.0,72.9 407.8,72.7 408.5,73.0 409.3,72.9 410.0,72.6 410.8,72.9 411.6,72.4 412.3,72.4 413.1,72.3 413.8,71.9 414.6,72.5
415.4,72.5 416.1,72.0 416.9,71.9 417.6,71.9 418.4,71.7 419.2,72.1 419.9,71.2 420.7,71.8 421.4,71.7 422.2,71.8 423.0,71.7 423.7,71.4 424.5,71.2 425.2,71.6 426.0,71.4 426.8,71.2
427.5,70.7 428.3,71.1 429.0,70.5 429.8,71.0 430.6,71.2 431.3,70.7 432.1,70.8 432.8,70.9 433.6,70.9 434.4,70.6 435.1,70.8 435.9,70.7 436.6,70.6 437.4,70.8 438.2,70.6 438.9,70.7
439.7,70.6 440.4,70.1 441.2,70.7 442.0,70.2 442.7,70.5 443.5,70.5 444.2,70.3 445.0,69.8 445.8,70.3 446.5,70.2 447.3,69.6 448.0,69.7 448.8,69.7 449.6,69.7 450.3,69.3 451.1,69.8
451.8,69.5 452.6,69.5 453.4,69.1 454.1,69.8 454.9,69.6 455.6,69.4 456.4,68.7 457.2,69.2 457.9,68.7 458.7,68.9 459.4,68.9 460.2,69.0 460.9,68.9 461.7,68.8 462.5,68.9 463.2,69.1
464.0,69.0 464.7,69.0 465.5,68.6 466.3,68.6 467.0,68.8 467.8,68.8 468.5,68.7 469.3,68.4 470.1,68.4 470.8,68.3 471.6,68.4 472.3,68.4 473.1,68.5 473.9,68.2 474.6,68.3 475.4,68.3
476.1,68.4 476.9,68.4 477.7,68.1 478.4,67.9 479.2,68.0 479.9,68.2 480.7,68.0 481.5,67.7 482.2,68.1 483.0,67.7 483.7,68.1 484.5,67.4 485.3,67.5 486.0,67.3 486.8,67.5 487.5,67.3
488.3,67.4 489.1,67.3 489.8,67.4 490.6,67.1 491.3,66.8 492.1,67.2 492.9,66.9 493.6,66.9 494.4,66.8 495.1,66.9 495.9,66.9 496.7,66.7 497.4,66.7 498.2,66.9 498.9,66.7 499.7,66.6
500.5,67.0 501.2,67.0 502.0,66.7 502.7,66.5 503.5,66.4 504.3,66.5 505.0,66.6 505.8,66.5 506.5,66.6 507.3,66.5 508.1,66.4 508.8,66.2 509.6,66.6 510.3,66.4 511.1,66.4 511.9,66.1
512.6,66.0 513.4,66.0 514.1,66.0 514.9,66.2 515.7,65.7 516.4,65.3 517.2,66.1 517.9,65.6 518.7,65.7 519.5,65.2 520.2,65.3 521.0,66.0 521.7,65.8 522.5,65.9 523.3,65.5 524.0,65.5
524.8,65.8 525.5,65.3 526.3,65.2 527.1,65.4 527.8,65.2 528.6,65.4 529.3,65.4 530.1,65.3 530.9,65.3 531.6,65.2 532.4,65.6 533.1,65.5 533.9,65.3 534.7,65.2 535.4,65.4 536.2,65.2
536.9,65.4 537.7,65.1 538.5,65.3 539.2,64.9 540.0,65.1 540.7,65.0 541.5,65.1 542.3,64.9 543.0,64.9 543.8,65.0 544.5,64.7 545.3,64.5 546.1,64.7 546.8,64.8 547.6,64.3 548.3,64.3
549.1,64.7 549.9,64.3 550.6,64.8 551.4,64.4 552.1,64.1 552.9,64.0 553.7,64.6 554.4,64.3 555.2,64.2 555.9,64.4 556.7,64.5 557.5,63.8 558.2,64.3 559.0,63.8 559.7,64.1 560.5,64.3
561.3,64.5 562.0,63.4 562.8,64.2 563.5,64.1 564.3,63.8 565.0,63.6 565.8,63.7 566.6,63.8 567.3,64.0 568.1,63.8 568.8,64.0 569.6,63.9 570.4,63.8 571.1,63.9 571.9,63.8 572.6,64.2
573.4,64.0 574.2,63.7 574.9,63.9 575.7,63.6 576.4,63.7 577.2,63.3 578.0,63.6 578.7,63.3 579.5,63.1 580.2,63.6 581.0,63.5 581.8,63.6 582.5,63.5 583.3,63.3 584.0,63.3 584.8,63.4
585.6,62.9 586.3,62.9 587.1,62.9 587.8,62.9 588.6,62.6 589.4,63.2 590.1,63.0 590.9,63.4 591.6,63.3 592.4,63.3 593.2,63.1 593.9,63.0 594.7,63.0 595.4,62.8 596.2,62.7 597.0,62.9
597.7,63.0 598.5,62.5 599.2,62.9 600.0,63.0 600.8,62.9 601.5,62.9 602.3,62.5 603.0,62.6 603.8,63.3 604.6,62.5 605.3,62.6 606.1,62.6 606.8,62.4 607.6,62.8 608.4,62.7 609.1,62.9
609.9,62.9 610.6,62.5 611.4,62.2 612.2,62.4 612.9,62.6 613.7,62.1 614.4,62.6 615.2,62.4 616.0,62.4 616.7,62.3 617.5,62.2 618.2,62.3 619.0,62.3 619.8,62.1 620.5,62.3 621.3,62.4
622.0,62.0 622.8,62.4 623.6,62.2 624.3,62.1 625.1,62.4 625.8,62.4 626.6,61.8 627.4,62.1 628.1,62.1 628.9,62.4 629.6,62.0 630.4,61.7 631.2,62.1 631.9,62.1 632.7,62.1 633.4,61.5
634.2,61.4 635.0,61.7 635.7,61.7 636.5,61.5 637.2,61.6 638.0,61.6 638.8,61.5 639.5,61.7 640.3,61.7 641.0,61.6 641.8,61.7 642.6,61.5 643.3,61.8 644.1,61.5 644.8,61.1 645.6,61.4
646.4,61.2 647.1,61.4 647.9,61.0 648.6,61.2 649.4,61.3 650.2,61.5 650.9,61.4 651.7,61.5 652.4,61.4 653.2,61.1 654.0,61.2 654.7,60.9 655.5,61.3 656.2,61.1 657.0,60.9 657.8,61.0
658.5,61.1 659.3,61.3 660.0,61.5 660.8,61.1 661.6,61.3 662.3,60.9 663.1,60.9 663.8,61.1 664.6,61.0 665.4,60.9 666.1,61.1 666.9,61.2 667.6,61.1 668.4,61.1 669.2,60.5 669.9,60.9
670.7,60.7 671.4,60.6 672.2,60.6 672.9,60.8 673.7,60.6 674.5,60.8 675.2,60.4 676.0,60.4 676.7,60.3 677.5,60.3 678.3,60.8 679.0,60.8 679.8,61.0 680.5,60.4 681.3,60.6 682.1,60.4
682.8,60.8 683.6,60.8 684.3,60.8 685.1,60.8 685.9,60.9 686.6,60.4 687.4,60.5 688.1,60.5 688.9,60.5 689.7,60.7 690.4,61.3 691.2,60.9 691.9,60.6 692.7,60.0 693.5,60.1 694.2,60.6
695.0,60.0 695.7,60.2 696.5,60.3 697.3,60.5 698.0,60.3 698.8,60.5 699.5,60.3 700.3,60.2 701.1,60.0 701.8,60.3 702.6,60.5 703.3,60.5 704.1,60.3 704.9,59.9 705.6,60.2 706.4,60.1
707.1,60.3 707.9,60.1 708.7,60.4 709.4,60.8 710.2,59.9 710.9,60.2 711.7,60.2 712.5,60.2 713.2,60.0 714.0,60.2 714.7,60.2 715.5,59.7 716.3,60.0 717.0,59.6 717.8,60.1 718.5,59.4
719.3,59.7 720.1,59.7 720.8,59.6 721.6,59.6 722.3,59.8 723.1,59.8 723.9,59.8 724.6,59.5 725.4,59.7 726.1,59.7 726.9,59.9 727.7,59.7 728.4,59.5 729.2,59.6 729.9,59.6 730.7,59.8
731.5,60.2 732.2,59.1 733.0,59.2 733.7,59.1 734.5,59.5 735.3,59.2 736.0,59.6 736.8,59.3 737.5,59.2 738.3,59.2 739.1,59.3 739.8,59.4 740.6,59.8 741.3,59.6 742.1,59.4 742.9,59.7
743.6,59.8 744.4,59.2 745.1,59.3 745.9,59.6 746.7,59.1 747.4,59.6 748.2,59.4 748.9,59.5 749.7,59.6 750.5,59.7 751.2,59.6 752.0,59.5 752.7,59.6 753.5,59.4 754.3,59.9 755.0,59.6
755.8,59.3 756.5,59.3 757.3,59.5 758.1,59.4 758.8,59.4 759.6,58.9 760.3,59.5 761.1,59.0 761.9,59.2 762.6,59.0 763.4,59.0 764.1,59.3 764.9,59.4 765.7,59.1 766.4,59.5 767.2,59.1
767.9,59.1 768.7,59.3 769.5,59.1 770.2,58.9 771.0,58.9 771.7,58.6 772.5,59.0 773.3,59.0 774.0,59.0 774.8,58.9 775.5,59.2 776.3,58.5 777.1,58.6 777.8,58.6 778.6,58.7 779.3,58.8
780.1,58.8 780.8,59.0 781.6,58.2 782.4,58.2 783.1,58.2 783.9,58.8 784.6,58.6 785.4,58.6 786.2,58.7 786.9,58.7 787.7,58.6 788.4,59.0 789.2,59.1 790.0,58.9 790.7,58.7 791.5,58.7
792.2,58.9 793.0,59.1 793.8,58.6 794.5,58.6 795.3,58.7 796.0,58.9 796.8,58.7 797.6,58.7 798.3,58.0 799.1,58.0 799.8,58.3 800.6,58.3 801.4,58.3 802.1,58.2 802.9,58.2 803.6,58.2
804.4,58.1 805.2,58.1 805.9,58.1 806.7,58.1 807.4,57.9 808.2,57.9 809.0,57.9 809.7,57.9 810.5,57.9 811.2,57.9 812.0,57.9 812.8,58.2 813.5,58.4 814.3,58.4 815.0,58.0 815.8,57.8
816.6,58.0 817.3,58.0 818.1,58.3 818.8,58.3 819.6,58.1 820.4,58.1 821.1,57.9 821.9,58.4 822.6,58.1 823.4,58.1 824.2,58.2 824.9,58.2 825.7,58.2 826.4,58.2 827.2,58.0 828.0,58.4
828.7,58.4 829.5,58.3 830.2,58.1 831.0,57.9 831.8,58.2 832.5,58.3 833.3,58.4 834.0,58.3 834.8,58.1 835.6,58.3 836.3,58.0 837.1,58.1 837.8,58.2 838.6,58.0 839.4,57.8 840.1,57.7
840.9,58.1 841.6,58.3 842.4,58.5 843.2,58.3 843.9,58.4 844.7,58.3 845.4,58.3 846.2,58.2 847.0,58.1 847.7,58.4 848.5,57.7 849.2,58.3 850.0,57.8 850.8,58.1 851.5,57.8 852.3,58.1
853.0,57.8 853.8,57.8 854.6,58.3 855.3,58.1 856.1,58.0 856.8,57.8 857.6,58.1 858.4,58.0 859.1,58.0 859.9,58.1 860.6,58.0 861.4,57.7 862.2,57.9 862.9,57.3 863.7,57.7 864.4,58.1
865.2,57.7 866.0,57.8 866.7,58.1 867.5,57.6 868.2,57.8 869.0,57.7 869.8,57.7 870.5,57.4 871.3,57.9 872.0,57.7 872.8,58.1 873.6,58.0 874.3,57.6 875.1,57.3 875.8,57.9 876.6,57.9
877.4,57.5 878.1,57.8 878.9,58.0 879.6,58.0 880.4,58.0 881.2,58.0 881.9,57.7 882.7,57.7 883.4,57.6 884.2,57.5 884.9,57.5 885.7,57.6 886.5,57.6 887.2,57.7 888.0,57.8 888.7,57.9
889.5,57.5 890.3,57.5 891.0,57.6 891.8,57.8 892.5,57.2 893.3,57.2 894.1,57.6 894.8,57.6 895.6,57.2 896.3,57.2 897.1,57.2 897.9,57.4 898.6,57.2 899.4,58.0 900.1,57.2 900.9,57.2
901.7,57.2 902.4,57.1 903.2,57.1 903.9,57.1 904.7,57.1 905.5,57.1 906.2,57.0 907.0,57.7 907.7,57.9 908.5,57.5 909.3,57.5 910.0,57.6 910.8,57.3 911.5,57.5 912.3,57.6 913.1,57.7
913.8,57.3 914.6,57.8 915.3,57.2 916.1,57.5 916.9,57.0 917.6,57.3 918.4,57.2 919.1,57.3 919.9,57.4 920.7,57.1 921.4,57.2 922.2,57.3 922.9,57.7 923.7,57.4 924.5,57.2 925.2,57.1
926.0,57.2 926.7,57.0 927.5,57.5 928.3,57.2 929.0,57.3 929.8,57.4 930.5,56.9 931.3,57.2 932.1,57.4 932.8,57.0 933.6,57.2 934.3,57.0 935.1,57.0 935.9,57.3 936.6,57.5 937.4,57.5
938.1,57.0 938.9,57.3 939.7,57.1 940.4,57.3 941.2,57.3 941.9,57.7 942.7,57.4 943.5,57.6 944.2,57.2 945.0,56.9 945.7,57.2 946.5,57.0 947.3,57.2 948.0,57.1 948.8,57.2 949.5,57.2
950.3,57.0 951.1,57.0 951.8,56.8 952.6,56.7 953.3,56.7 954.1,57.1 954.9,57.3 955.6,57.2 956.4,57.5 957.1,57.0 957.9,56.7 958.7,56.9 959.4,57.0 960.2,56.7 960.9,57.3 961.7,57.3
962.5,56.9 963.2,57.1 964.0,57.1 964.7,56.8 965.5,57.0 966.3,56.7 967.0,56.6 967.8,56.6 968.5,56.6 969.3,56.6 970.1,56.4 970.8,56.4 971.6,56.3 972.3,57.1 973.1,56.1 973.9,56.5
974.6,56.6 975.4,56.3 976.1,56.6 976.9,56.7 977.7,56.2 978.4,56.4 979.2,56.6 979.9,56.8 980.7,56.5 981.5,56.5 982.2,56.7 983.0,56.5 983.7,56.7 984.5,56.7 985.3,56.5 986.0,56.6
986.8,56.7 987.5,56.5 988.3,56.3 989.1,56.2 989.8,56.2 990.6,56.7 991.3,57.0 992.1,56.7 992.8,56.5 993.6,56.1 994.4,56.3 995.1,56.5 995.9,56.1 996.6,56.5 997.4,56.3 998.2,56.2
998.9,56.5 999.7,56.5 1000.4,56.4 1001.2,56.6 1002.0,56.5 1002.7,56.5 1003.5,56.3 1004.2,56.6 1005.0,56.5 1005.8,56.5 1006.5,56.7 1007.3,56.2 1008.0,56.0 1008.8,56.0 1009.6,56.0 1010.3,56.0
1011.1,56.0 1011.8,56.0 1012.6,56.5 1013.4,56.1 1014.1,56.5 1014.9,56.6 1015.6,56.3 1016.4,56.2 1017.2,56.2 1017.9,55.8 1018.7,55.8 1019.4,56.4 1020.2,56.2 1021.0,56.4 1021.7,56.1 1022.5,56.2
1023.2,56.6 1024.0,56.4 1024.8,56.5 1025.5,56.4 1026.3,56.7 1027.0,56.0 1027.8,56.4 1028.6,56.2 1029.3,56.5 1030.1,56.4 1030.8,56.0 1031.6,55.9 1032.4,56.4 1033.1,56.3 1033.9,56.2 1034.6,55.9
1035.4,55.9 1036.2,55.9 1036.9,56.7 1037.7,56.5 1038.4,56.3 1039.2,56.3 1040.0,56.3 1040.7,56.2 1041.5,55.8 1042.2,56.4 1043.0,56.2 1043.8,56.0 1044.5,56.0 1045.3,56.0 1046.0,55.8 1046.8,56.1
1047.6,55.8 1048.3,55.8 1049.1,56.0 1049.8,55.7 1050.6,55.7 1051.4,56.1 1052.1,55.6 1052.9,55.8 1053.6,56.0 1054.4,56.0 1055.2,56.0 1055.9,56.0 1056.7,56.2 1057.4,55.7 1058.2,55.8 1059.0,56.0
1059.7,56.0 1060.5,56.4 1061.2,56.2 1062.0,56.4 1062.8,56.3 1063.5,56.3 1064.3,56.2 1065.0,55.5 1065.8,56.3 1066.6,56.4 1067.3,56.1 1068.1,56.1 1068.8,56.1 1069.6,56.1 1070.4,55.9 1071.1,55.5
1071.9,56.2 1072.6,55.9 1073.4,56.0 1074.2,56.5 1074.9,56.1 1075.7,56.1 1076.4,56.5 1077.2,55.9 1078.0,56.4 1078.7,55.5 1079.5,55.6 1080.2,56.1 1081.0,56.2 1081.8,56.1 1082.5,55.9 1083.3,56.1
1084.0,56.0 1084.8,56.0 1085.6,56.1 1086.3,56.0 1087.1,56.0 1087.8,55.9 1088.6,55.8 1089.4,55.8 1090.1,55.8 1090.9,56.1 1091.6,55.7 1092.4,55.9 1093.2,56.0 1093.9,55.6 1094.7,55.7 1095.4,56.0
1096.2,55.7 1096.9,56.1 1097.7,55.5 1098.5,55.9 1099.2,55.9 1100.0,55.8 1100.7,55.8 1101.5,56.1 1102.3,56.1 1103.0,55.7 1103.8,55.7 1104.5,56.0 1105.3,55.9 1106.1,56.0 1106.8,56.2 1107.6,56.1
1108.3,56.1 1109.1,56.1 1109.9,55.7 1110.6,56.0 1111.4,55.4 1112.1,55.4 1112.9,55.3 1113.7,55.3 1114.4,55.9 1115.2,56.0 1115.9,55.7 1116.7,56.3 1117.5,56.1 1118.2,56.2 1119.0,55.9 1119.7,56.0
1120.5,56.0 1121.3,55.7 1122.0,55.8 1122.8,55.8 1123.5,55.9 1124.3,55.7 1125.1,55.7 1125.8,55.7 1126.6,56.1 1127.3,55.8 1128.1,56.1 1128.9,56.0 1129.6,56.2 1130.4,55.9 1131.1,55.8 1131.9,55.8
1132.7,55.7 1133.4,55.8 1134.2,56.0 1134.9,55.7 1135.7,55.5 1136.5,56.0 1137.2,56.0 1138.0,55.5 1138.7,55.8 1139.5,55.6 1140.3,55.5 1141.0,55.5 1141.8,55.9 1142.5,55.5 1143.3,55.7 1144.1,55.7
1144.8,55.4 1145.6,55.7 1146.3,55.9 1147.1,55.7 1147.9,55.5 1148.6,55.3 1149.4,55.3 1150.1,55.3 1150.9,55.4 1151.7,55.1 1152.4,55.4 1153.2,55.5 1153.9,55.3 1154.7,55.3 1155.5,55.5 1156.2,55.5
1157.0,55.5 1157.7,55.5 1158.5,55.3 1159.3,54.9 1160.0,55.1 1160.8,55.1 1161.5,55.2 1162.3,55.2 1163.1,55.1 1163.8,55.3 1164.6,55.3 1165.3,55.4 1166.1,55.3 1166.9,55.6 1167.6,55.4 1168.4,55.5
1169.1,55.3 1169.9,55.5 1170.7,55.3 1171.4,55.5 1172.2,55.3 1172.9,55.1 1173.7,55.2 1174.5,55.2 1175.2,55.2 1176.0,55.1 1176.7,54.8 1177.5,55.0 1178.3,55.0 1179.0,55.0 1179.8,55.6 1180.5,55.3
1181.3,55.1 1182.1,55.2 1182.8,55.1 1183.6,55.0 1184.3,54.7 1185.1,54.8 1185.9,54.8 1186.6,55.3 1187.4,55.0 1188.1,54.9 1188.9,55.3 1189.7,55.3 1190.4,54.4 1191.2,55.2 1191.9,55.1 1192.7,55.1
1193.5,55.3 1194.2,55.2 1195.0,55.0 1195.7,54.8 1196.5,54.5 1197.3,55.3 1198.0,55.2 1198.8,55.0 1199.5,54.9 1200.3,55.4 1201.1,55.0 1201.8,54.7 1202.6,55.0 1203.3,54.2 1204.1,54.7 1204.8,54.8
1205.6,54.8 1206.4,55.0 1207.1,55.0 1207.9,54.7 1208.6,54.6 1209.4,54.7 1210.2,54.7 1210.9,54.6 1211.7,55.0 1212.4,55.0 1213.2,54.8 1214.0,54.8 1214.7,54.4 1215.5,54.5 1216.2,54.9 1217.0,54.9
1217.8,54.8 1218.5,54.4 1219.3,54.4 1220.0,54.4 1220.8,54.4 1221.6,54.4 1222.3,54.7 1223.1,54.8 1223.8,55.0 1224.6,55.1 1225.4,54.7 1226.1,54.7 1226.9,55.3 1227.6,54.6 1228.4,54.9 1229.2,54.9
1229.9,54.9 1230.7,54.6 1231.4,54.8 1232.2,54.8 1233.0,54.7 1233.7,54.8 1234.5,54.7 1235.2,55.2 1236.0,54.6 1236.8,54.5 1237.5,54.6 1238.3,54.7 1239.0,54.5 1239.8,54.6 1240.6,54.6 1241.3,54.8
1242.1,55.0 1242.8,54.7 1243.6,54.1 1244.4,54.2 1245.1,54.2 1245.9,54.2 1246.6,54.6 1247.4,54.6 1248.2,54.6 1248.9,54.4 1249.7,54.4 1250.4,54.5 1251.2,54.9 1252.0,54.9 1252.7,54.5 1253.5,54.7
1254.2,54.4 1255.0,54.7 1255.0,703.4 87.1,703.4 '/>
	</g>
	<path stroke='rgb(148,   0, 211)'  d='M87.1,702.7 L87.9,702.8 L88.6,703.1 L89.4,703.0 L90.1,703.2 L90.9,703.3 L91.7,703.4 L92.4,703.2
		L93.2,703.0 L93.9,703.3 L94.7,702.8 L95.5,702.9 L96.2,702.6 L97.0,701.0 L97.7,700.6 L98.5,698.6
		L99.3,696.5 L100.0,684.8 L100.8,653.2 L101.5,629.3 L102.3,594.6 L103.1,556.3 L103.8,535.2 L104.6,507.6
		L105.3,497.0 L106.1,485.3 L106.9,462.5 L107.6,456.5 L108.4,443.2 L109.1,433.5 L109.9,421.5 L110.7,408.1
		L111.4,387.3 L112.2,373.8 L112.9,359.2 L113.7,347.8 L114.5,341.0 L115.2,332.8 L116.0,322.5 L116.7,315.4
		L117.5,311.9 L118.3,307.2 L119.0,302.0 L119.8,295.5 L120.5,290.3 L121.3,286.7 L122.1,282.6 L122.8,277.9
		L123.6,275.2 L124.3,271.9 L125.1,270.2 L125.9,268.0 L126.6,266.0 L127.4,264.6 L128.1,262.4 L128.9,259.3
		L129.7,257.8 L130.4,257.6 L131.2,255.1 L131.9,253.9 L132.7,251.0 L133.5,249.8 L134.2,247.9 L135.0,247.0
		L135.7,245.1 L136.5,245.0 L137.3,243.3 L138.0,240.6 L138.8,240.8 L139.5,238.9 L140.3,238.9 L141.0,236.6
		L141.8,235.1 L142.6,233.3 L143.3,232.2 L144.1,230.2 L144.8,226.8 L145.6,224.9 L146.4,223.8 L147.1,222.8
		L147.9,222.1 L148.6,220.8 L149.4,218.5 L150.2,214.8 L150.9,213.0 L151.7,210.9 L152.4,209.4 L153.2,208.3
		L154.0,206.6 L154.7,205.2 L155.5,204.0 L156.2,202.1 L157.0,200.6 L157.8,197.9 L158.5,196.0 L159.3,195.4
		L160.0,194.3 L160.8,193.1 L161.6,191.4 L162.3,190.0 L163.1,188.9 L163.8,188.0 L164.6,187.5 L165.4,186.5
		L166.1,184.6 L166.9,181.9 L167.6,179.8 L168.4,176.9 L169.2,175.6 L169.9,174.4 L170.7,171.9 L171.4,170.6
		L172.2,168.7 L173.0,167.4 L173.7,167.0 L174.5,165.7 L175.2,163.4 L176.0,162.8 L176.8,161.1 L177.5,160.6
		L178.3,159.6 L179.0,158.0 L179.8,157.2 L180.6,157.0 L181.3,155.4 L182.1,154.5 L182.8,152.3 L183.6,152.1
		L184.4,150.5 L185.1,150.6 L185.9,149.0 L186.6,148.4 L187.4,148.2 L188.2,146.9 L188.9,146.8 L189.7,146.1
		L190.4,146.1 L191.2,144.4 L192.0,144.3 L192.7,144.4 L193.5,143.0 L194.2,142.2 L195.0,140.9 L195.8,140.7
		L196.5,140.0 L197.3,139.1 L198.0,139.2 L198.8,138.7 L199.6,138.2 L200.3,137.6 L201.1,136.9 L201.8,135.9
		L202.6,135.9 L203.4,134.9 L204.1,134.5 L204.9,133.8 L205.6,133.8 L206.4,132.9 L207.2,132.2 L207.9,132.0
		L208.7,132.1 L209.4,130.4 L210.2,130.2 L211.0,129.3 L211.7,129.2 L212.5,129.2 L213.2,128.1 L214.0,127.9
		L214.8,127.0 L215.5,126.7 L216.3,126.1 L217.0,125.9 L217.8,124.9 L218.6,123.9 L219.3,123.2 L220.1,123.4
		L220.8,123.0 L221.6,122.5 L222.4,122.1 L223.1,120.8 L223.9,120.5 L224.6,120.5 L225.4,119.2 L226.2,119.0
		L226.9,118.7 L227.7,118.4 L228.4,117.3 L229.2,116.5 L230.0,116.6 L230.7,116.5 L231.5,115.9 L232.2,115.6
		L233.0,114.2 L233.8,114.0 L234.5,113.4 L235.3,113.2 L236.0,111.5 L236.8,111.7 L237.6,111.0 L238.3,110.5
		L239.1,110.7 L239.8,110.0 L240.6,109.6 L241.4,108.8 L242.1,108.6 L242.9,109.0 L243.6,108.4 L244.4,107.7
		L245.2,107.8 L245.9,107.4 L246.7,107.0 L247.4,106.0 L248.2,106.1 L248.9,106.1 L249.7,105.4 L250.5,105.4
		L251.2,104.9 L252.0,104.4 L252.7,103.8 L253.5,103.3 L254.3,102.9 L255.0,102.4 L255.8,102.2 L256.5,101.9
		L257.3,101.2 L258.1,101.3 L258.8,100.9 L259.6,101.0 L260.3,100.7 L261.1,100.1 L261.9,100.2 L262.6,100.3
		L263.4,99.5 L264.1,99.4 L264.9,99.1 L265.7,98.9 L266.4,98.4 L267.2,98.4 L267.9,97.9 L268.7,97.0
		L269.5,96.8 L270.2,96.4 L271.0,97.0 L271.7,96.9 L272.5,96.2 L273.3,96.4 L274.0,95.9 L274.8,95.6
		L275.5,95.2 L276.3,95.0 L277.1,94.8 L277.8,94.4 L278.6,94.5 L279.3,94.1 L280.1,93.7 L280.9,93.6
		L281.6,93.5 L282.4,92.8 L283.1,93.3 L283.9,92.5 L284.7,92.3 L285.4,92.5 L286.2,92.0 L286.9,92.1
		L287.7,91.7 L288.5,91.6 L289.2,91.4 L290.0,91.3 L290.7,91.4 L291.5,90.6 L292.3,90.7 L293.0,90.7
		L293.8,89.7 L294.5,89.3 L295.3,89.8 L296.1,89.4 L296.8,89.6 L297.6,88.6 L298.3,88.2 L299.1,88.4
		L299.9,88.1 L300.6,88.3 L301.4,87.8 L302.1,88.0 L302.9,87.7 L303.7,87.4 L304.4,87.5 L305.2,87.6
		L305.9,87.5 L306.7,86.5 L307.5,86.6 L308.2,86.9 L309.0,86.7 L309.7,86.6 L310.5,86.2 L311.3,86.0
		L312.0,86.0 L312.8,85.9 L313.5,85.4 L314.3,85.2 L315.1,85.6 L315.8,85.3 L316.6,85.2 L317.3,84.8
		L318.1,84.5 L318.9,84.4 L319.6,84.0 L320.4,84.1 L321.1,84.0 L321.9,83.9 L322.7,83.9 L323.4,83.6
		L324.2,83.3 L324.9,83.2 L325.7,83.5 L326.5,83.3 L327.2,83.2 L328.0,83.1 L328.7,82.4 L329.5,82.5
		L330.3,82.8 L331.0,82.0 L331.8,81.6 L332.5,81.6 L333.3,81.5 L334.1,81.6 L334.8,81.6 L335.6,80.9
		L336.3,81.3 L337.1,81.3 L337.9,81.1 L338.6,80.9 L339.4,80.7 L340.1,80.6 L340.9,80.4 L341.7,80.4
		L342.4,80.6 L343.2,80.4 L343.9,79.8 L344.7,80.3 L345.5,80.0 L346.2,79.7 L347.0,79.8 L347.7,79.3
		L348.5,79.6 L349.3,79.6 L350.0,78.8 L350.8,79.2 L351.5,79.1 L352.3,79.2 L353.0,78.7 L353.8,78.6
		L354.6,78.8 L355.3,79.0 L356.1,78.7 L356.8,78.3 L357.6,78.2 L358.4,78.6 L359.1,78.4 L359.9,78.1
		L360.6,77.5 L361.4,77.6 L362.2,77.8 L362.9,77.8 L363.7,77.6 L364.4,77.5 L365.2,77.7 L366.0,77.6
		L366.7,77.5 L367.5,77.1 L368.2,77.2 L369.0,77.1 L369.8,77.1 L370.5,76.7 L371.3,76.7 L372.0,76.7
		L372.8,76.7 L373.6,76.1 L374.3,76.4 L375.1,76.6 L375.8,76.2 L376.6,76.4 L377.4,75.8 L378.1,75.9
		L378.9,75.9 L379.6,76.1 L380.4,76.0 L381.2,75.4 L381.9,75.3 L382.7,75.7 L383.4,75.5 L384.2,75.5
		L385.0,75.1 L385.7,75.0 L386.5,75.1 L387.2,75.3 L388.0,75.0 L388.8,75.0 L389.5,74.8 L390.3,75.0
		L391.0,74.4 L391.8,74.3 L392.6,74.3 L393.3,74.2 L394.1,74.1 L394.8,74.5 L395.6,73.7 L396.4,74.2
		L397.1,74.2 L397.9,74.0 L398.6,73.7 L399.4,73.4 L400.2,73.8 L400.9,73.5 L401.7,73.6 L402.4,73.3
		L403.2,73.3 L404.0,73.1 L404.7,73.3 L405.5,72.7 L406.2,72.8 L407.0,72.9 L407.8,72.7 L408.5,73.0
		L409.3,72.9 L410.0,72.6 L410.8,72.9 L411.6,72.4 L412.3,72.4 L413.1,72.3 L413.8,71.9 L414.6,72.5
		L415.4,72.5 L416.1,72.0 L416.9,71.9 L417.6,71.9 L418.4,71.7 L419.2,72.1 L419.9,71.2 L420.7,71.8
		L421.4,71.7 L422.2,71.8 L423.0,71.7 L423.7,71.4 L424.5,71.2 L425.2,71.6 L426.0,71.4 L426.8,71.2
		L427.5,70.7 L428.3,71.1 L429.0,70.5 L429.8,71.0 L430.6,71.2 L431.3,70.7 L432.1,70.8 L432.8,70.9
		L433.6,70.9 L434.4,70.6 L435.1,70.8 L435.9,70.7 L436.6,70.6 L437.4,70.8 L438.2,70.6 L438.9,70.7
		L439.7,70.6 L440.4,70.1 L441.2,70.7 L442.0,70.2 L442.7,70.5 L443.5,70.5 L444.2,70.3 L445.0,69.8
		L445.8,70.3 L446.5,70.2 L447.3,69.6 L448.0,69.7 L448.8,69.7 L449.6,69.7 L450.3,69.3 L451.1,69.8
		L451.8,69.5 L452.6,69.5 L453.4,69.1 L454.1,69.8 L454.9,69.6 L455.6,69.4 L456.4,68.7 L457.2,69.2
		L457.9,68.7 L458.7,68.9 L459.4,68.9 L460.2,69.0 L460.9,68.9 L461.7,68.8 L462.5,68.9 L463.2,69.1
		L464.0,69.0 L464.7,69.0 L465.5,68.6 L466.3,68.6 L467.0,68.8 L467.8,68.8 L468.5,68.7 L469.3,68.4
		L470.1,68.4 L470.8,68.3 L471.6,68.4 L472.3,68.4 L473.1,68.5 L473.9,68.2 L474.6,68.3 L475.4,68.3
		L476.1,68.4 L476.9,68.4 L477.7,68.1 L478.4,67.9 L479.2,68.0 L479.9,68.2 L480.7,68.0 L481.5,67.7
		L482.2,68.1 L483.0,67.7 L483.7,68.1 L484.5,67.4 L485.3,67.5 L486.0,67.3 L486.8,67.5 L487.5,67.3
		L488.3,67.4 L489.1,67.3 L489.8,67.4 L490.6,67.1 L491.3,66.8 L492.1,67.2 L492.9,66.9 L493.6,66.9
		L494.4,66.8 L495.1,66.9 L495.9,66.9 L496.7,66.7 L497.4,66.7 L498.2,66.9 L498.9,66.7 L499.7,66.6
		L500.5,67.0 L501.2,67.0 L502.0,66.7 L502.7,66.5 L503.5,66.4 L504.3,66.5 L505.0,66.6 L505.8,66.5
		L506.5,66.6 L507.3,66.5 L508.1,66.4 L508.8,66.2 L509.6,66.6 L510.3,66.4 L511.1,66.4 L511.9,66.1
		L512.6,66.0 L513.4,66.0 L514.1,66.0 L514.9,66.2 L515.7,65.7 L516.4,65.3 L517.2,66.1 L517.9,65.6
		L518.7,65.7 L519.5,65.2 L520.2,65.3 L521.0,66.0 L521.7,65.8 L522.5,65.9 L523.3,65.5 L524.0,65.5
		L524.8,65.8 L525.5,65.3 L526.3,65.2 L527.1,65.4 L527.8,65.2 L528.6,65.4 L529.3,65.4 L530.1,65.3
		L530.9,65.3 L531.6,65.2 L532.4,65.6 L533.1,65.5 L533.9,65.3 L534.7,65.2 L535.4,65.4 L536.2,65.2
		L536.9,65.4 L537.7,65.1 L538.5,65.3 L539.2,64.9 L540.0,65.1 L540.7,65.0 L541.5,65.1 L542.3,64.9
		L543.0,64.9 L543.8,65.0 L544.5,64.7 L545.3,64.5 L546.1,64.7 L546.8,64.8 L547.6,64.3 L548.3,64.3
		L549.1,64.7 L549.9,64.3 L550.6,64.8 L551.4,64.4 L552.1,64.1 L552.9,64.0 L553.7,64.6 L554.4,64.3
		L555.2,64.2 L555.9,64.4 L556.7,64.5 L557.5,63.8 L558.2,64.3 L559.0,63.8 L559.7,64.1 L560.5,64.3
		L561.3,64.5 L562.0,63.4 L562.8,64.2 L563.5,64.1 L564.3,63.8 L565.0,63.6 L565.8,63.7 L566.6,63.8
		L567.3,64.0 L568.1,63.8 L568.8,64.0 L569.6,63.9 L570.4,63.8 L571.1,63.9 L571.9,63.8 L572.6,64.2
		L573.4,64.0 L574.2,63.7 L574.9,63.9 L575.7,63.6 L576.4,63.7 L577.2,63.3 L578.0,63.6 L578.7,63.3
		L579.5,63.1 L580.2,63.6 L581.0,63.5 L581.8,63.6 L582.5,63.5 L583.3,63.3 L584.0,63.3 L584.8,63.4
		L585.6,62.9 L586.3,62.9 L587.1,62.9 L587.8,62.9 L588.6,62.6 L589.4,63.2 L590.1,63.0 L590.9,63.4
		L591.6,63.3 L592.4,63.3 L593.2,63.1 L593.9,63.0 L594.7,63.0 L595.4,62.8 L596.2,62.7 L597.0,62.9
		L597.7,63.0 L598.5,62.5 L599.2,62.9 L600.0,63.0 L600.8,62.9 L601.5,62.9 L602.3,62.5 L603.0,62.6
		L603.8,63.3 L604.6,62.5 L605.3,62.6 L606.1,62.6 L606.8,62.4 L607.6,62.8 L608.4,62.7 L609.1,62.9
		L609.9,62.9 L610.6,62.5 L611.4,62.2 L612.2,62.4 L612.9,62.6 L613.7,62.1 L614.4,62.6 L615.2,62.4
		L616.0,62.4 L616.7,62.3 L617.5,62.2 L618.2,62.3 L619.0,62.3 L619.8,62.1 L620.5,62.3 L621.3,62.4
		L622.0,62.0 L622.8,62.4 L623.6,62.2 L624.3,62.1 L625.1,62.4 L625.8,62.4 L626.6,61.8 L627.4,62.1
		L628.1,62.1 L628.9,62.4 L629.6,62.0 L630.4,61.7 L631.2,62.1 L631.9,62.1 L632.7,62.1 L633.4,61.5
		L634.2,61.4 L635.0,61.7 L635.7,61.7 L636.5,61.5 L637.2,61.6 L638.0,61.6 L638.8,61.5 L639.5,61.7
		L640.3,61.7 L641.0,61.6 L641.8,61.7 L642.6,61.5 L643.3,61.8 L644.1,61.5 L644.8,61.1 L645.6,61.4
		L646.4,61.2 L647.1,61.4 L647.9,61.0 L648.6,61.2 L649.4,61.3 L650.2,61.5 L650.9,61.4 L651.7,61.5
		L652.4,61.4 L653.2,61.1 L654.0,61.2 L654.7,60.9 L655.5,61.3 L656.2,61.1 L657.0,60.9 L657.8,61.0
		L658.5,61.1 L659.3,61.3 L660.0,61.5 L660.8,61.1 L661.6,61.3 L662.3,60.9 L663.1,60.9 L663.8,61.1
		L664.6,61.0 L665.4,60.9 L666.1,61.1 L666.9,61.2 L667.6,61.1 L668.4,61.1 L669.2,60.5 L669.9,60.9
		L670.7,60.7 L671.4,60.6 L672.2,60.6 L672.9,60.8 L673.7,60.6 L674.5,60.8 L675.2,60.4 L676.0,60.4
		L676.7,60.3 L677.5,60.3 L678.3,60.8 L679.0,60.8 L679.8,61.0 L680.5,60.4 L681.3,60.6 L682.1,60.4
		L682.8,60.8 L683.6,60.8 L684.3,60.8 L685.1,60.8 L685.9,60.9 L686.6,60.4 L687.4,60.5 L688.1,60.5
		L688.9,60.5 L689.7,60.7 L690.4,61.3 L691.2,60.9 L691.9,60.6 L692.7,60.0 L693.5,60.1 L694.2,60.6
		L695.0,60.0 L695.7,60.2 L696.5,60.3 L697.3,60.5 L698.0,60.3 L698.8,60.5 L699.5,60.3 L700.3,60.2
		L701.1,60.0 L701.8,60.3 L702.6,60.5 L703.3,60.5 L704.1,60.3 L704.9,59.9 L705.6,60.2 L706.4,60.1
		L707.1,60.3 L707.9,60.1 L708.7,60.4 L709.4,60.8 L710.2,59.9 L710.9,60.2 L711.7,60.2 L712.5,60.2
		L713.2,60.0 L714.0,60.2 L714.7,60.2 L715.5,59.7 L716.3,60.0 L717.0,59.6 L717.8,60.1 L718.5,59.4
		L719.3,59.7 L720.1,59.7 L720.8,59.6 L721.6,59.6 L722.3,59.8 L723.1,59.8 L723.9,59.8 L724.6,59.5
		L725.4,59.7 L726.1,59.7 L726.9,59.9 L727.7,59.7 L728.4,59.5 L729.2,59.6 L729.9,59.6 L730.7,59.8
		L731.5,60.2 L732.2,59.1 L733.0,59.2 L733.7,59.1 L734.5,59.5 L735.3,59.2 L736.0,59.6 L736.8,59.3
		L737.5,59.2 L738.3,59.2 L739.1,59.3 L739.8,59.4 L740.6,59.8 L741.3,59.6 L742.1,59.4 L742.9,59.7
		L743.6,59.8 L744.4,59.2 L745.1,59.3 L745.9,59.6 L746.7,59.1 L747.4,59.6 L748.2,59.4 L748.9,59.5
		L749.7,59.6 L750.5,59.7 L751.2,59.6 L752.0,59.5 L752.7,59.6 L753.5,59.4 L754.3,59.9 L755.0,59.6
		L755.8,59.3 L756.5,59.3 L757.3,59.5 L758.1,59.4 L758.8,59.4 L759.6,58.9 L760.3,59.5 L761.1,59.0
		L761.9,59.2 L762.6,59.0 L763.4,59.0 L764.1,59.3 L764.9,59.4 L765.7,59.1 L766.4,59.5 L767.2,59.1
		L767.9,59.1 L768.7,59.3 L769.5,59.1 L770.2,58.9 L771.0,58.9 L771.7,58.6 L772.5,59.0 L773.3,59.0
		L774.0,59.0 L774.8,58.9 L775.5,59.2 L776.3,58.5 L777.1,58.6 L777.8,58.6 L778.6,58.7 L779.3,58.8
		L780.1,58.8 L780.8,59.0 L781.6,58.2 L782.4,58.2 L783.1,58.2 L783.9,58.8 L784.6,58.6 L785.4,58.6
		L786.2,58.7 L786.9,58.7 L787.7,58.6 L788.4,59.0 L789.2,59.1 L790.0,58.9 L790.7,58.7 L791.5,58.7
		L792.2,58.9 L793.0,59.1 L793.8,58.6 L794.5,58.6 L795.3,58.7 L796.0,58.9 L796.8,58.7 L797.6,58.7
		L798.3,58.0 L799.1,58.0 L799.8,58.3 L800.6,58.3 L801.4,58.3 L802.1,58.2 L802.9,58.2 L803.6,58.2
		L804.4,58.1 L805.2,58.1 L805.9,58.1 L806.7,58.1 L807.4,57.9 L808.2,57.9 L809.0,57.9 L809.7,57.9
		L810.5,57.9 L811.2,57.9 L812.0,57.9 L812.8,58.2 L813.5,58.4 L814.3,58.4 L815.0,58.0 L815.8,57.8
		L816.6,58.0 L817.3,58.0 L818.1,58.3 L818.8,58.3 L819.6,58.1 L820.4,58.1 L821.1,57.9 L821.9,58.4
		L822.6,58.1 L823.4,58.1 L824.2,58.2 L824.9,58.2 L825.7,58.2 L826.4,58.2 L827.2,58.0 L828.0,58.4
		L828.7,58.4 L829.5,58.3 L830.2,58.1 L831.0,57.9 L831.8,58.2 L832.5,58.3 L833.3,58.4 L834.0,58.3
		L834.8,58.1 L835.6,58.3 L836.3,58.0 L837.1,58.1 L837.8,58.2 L838.6,58.0 L839.4,57.8 L840.1,57.7
		L840.9,58.1 L841.6,58.3 L842.4,58.5 L843.2,58.3 L843.9,58.4 L844.7,58.3 L845.4,58.3 L846.2,58.2
		L847.0,58.1 L847.7,58.4 L848.5,57.7 L849.2,58.3 L850.0,57.8 L850.8,58.1 L851.5,57.8 L852.3,58.1
		L853.0,57.8 L853.8,57.8 L854.6,58.3 L855.3,58.1 L856.1,58.0 L856.8,57.8 L857.6,58.1 L858.4,58.0
		L859.1,58.0 L859.9,58.1 L860.6,58.0 L861.4,57.7 L862.2,57.9 L862.9,57.3 L863.7,57.7 L864.4,58.1
		L865.2,57.7 L866.0,57.8 L866.7,58.1 L867.5,57.6 L868.2,57.8 L869.0,57.7 L869.8,57.7 L870.5,57.4
		L871.3,57.9 L872.0,57.7 L872.8,58.1 L873.6,58.0 L874.3,57.6 L875.1,57.3 L875.8,57.9 L876.6,57.9
		L877.4,57.5 L878.1,57.8 L878.9,58.0 L879.6,58.0 L880.4,58.0 L881.2,58.0 L881.9,57.7 L882.7,57.7
		L883.4,57.6 L884.2,57.5 L884.9,57.5 L885.7,57.6 L886.5,57.6 L887.2,57.7 L888.0,57.8 L888.7,57.9
		L889.5,57.5 L890.3,57.5 L891.0,57.6 L891.8,57.8 L892.5,57.2 L893.3,57.2 L894.1,57.6 L894.8,57.6
		L895.6,57.2 L896.3,57.2 L897.1,57.2 L897.9,57.4 L898.6,57.2 L899.4,58.0 L900.1,57.2 L900.9,57.2
		L901.7,57.2 L902.4,57.1 L903.2,57.1 L903.9,57.1 L904.7,57.1 L905.5,57.1 L906.2,57.0 L907.0,57.7
		L907.7,57.9 L908.5,57.5 L909.3,57.5 L910.0,57.6 L910.8,57.3 L911.5,57.5 L912.3,57.6 L913.1,57.7
		L913.8,57.3 L914.6,57.8 L915.3,57.2 L916.1,57.5 L916.9,57.0 L917.6,57.3 L918.4,57.2 L919.1,57.3
		L919.9,57.4 L920.7,57.1 L921.4,57.2 L922.2,57.3 L922.9,57.7 L923.7,57.4 L924.5,57.2 L925.2,57.1
		L926.0,57.2 L926.7,57.0 L927.5,57.5 L928.3,57.2 L929.0,57.3 L929.8,57.4 L930.5,56.9 L931.3,57.2
		L932.1,57.4 L932.8,57.0 L933.6,57.2 L934.3,57.0 L935.1,57.0 L935.9,57.3 L936.6,57.5 L937.4,57.5
		L938.1,57.0 L938.9,57.3 L939.7,57.1 L940.4,57.3 L941.2,57.3 L941.9,57.7 L942.7,57.4 L943.5,57.6
		L944.2,57.2 L945.0,56.9 L945.7,57.2 L946.5,57.0 L947.3,57.2 L948.0,57.1 L948.8,57.2 L949.5,57.2
		L950.3,57.0 L951.1,57.0 L951.8,56.8 L952.6,56.7 L953.3,56.7 L954.1,57.1 L954.9,57.3 L955.6,57.2
		L956.4,57.5 L957.1,57.0 L957.9,56.7 L958.7,56.9 L959.4,57.0 L960.2,56.7 L960.9,57.3 L961.7,57.3
		L962.5,56.9 L963.2,57.1 L964.0,57.1 L964.7,56.8 L965.5,57.0 L966.3,56.7 L967.0,56.6 L967.8,56.6
		L968.5,56.6 L969.3,56.6 L970.1,56.4 L970.8,56.4 L971.6,56.3 L972.3,57.1 L973.1,56.1 L973.9,56.5
		L974.6,56.6 L975.4,56.3 L976.1,56.6 L976.9,56.7 L977.7,56.2 L978.4,56.4 L979.2,56.6 L979.9,56.8
		L980.7,56.5 L981.5,56.5 L982.2,56.7 L983.0,56.5 L983.7,56.7 L984.5,56.7 L985.3,56.5 L986.0,56.6
		L986.8,56.7 L987.5,56.5 L988.3,56.3 L989.1,56.2 L989.8,56.2 L990.6,56.7 L991.3,57.0 L992.1,56.7
		L992.8,56.5 L993.6,56.1 L994.4,56.3 L995.1,56.5 L995.9,56.1 L996.6,56.5 L997.4,56.3 L998.2,56.2
		L998.9,56.5 L999.7,56.5 L1000.4,56.4 L1001.2,56.6 L1002.0,56.5 L1002.7,56.5 L1003.5,56.3 L1004.2,56.6
		L1005.0,56.5 L1005.8,56.5 L1006.5,56.7 L1007.3,56.2 L1008.0,56.0 L1008.8,56.0 L1009.6,56.0 L1010.3,56.0
		L1011.1,56.0 L1011.8,56.0 L1012.6,56.5 L1013.4,56.1 L1014.1,56.5 L1014.9,56.6 L1015.6,56.3 L1016.4,56.2
		L1017.2,56.2 L1017.9,55.8 L1018.7,55.8 L1019.4,56.4 L1020.2,56.2 L1021.0,56.4 L1021.7,56.1 L1022.5,56.2
		L1023.2,56.6 L1024.0,56.4 L1024.8,56.5 L1025.5,56.4 L1026.3,56.7 L1027.0,56.0 L1027.8,56.4 L1028.6,56.2
		L1029.3,56.5 L1030.1,56.4 L1030.8,56.0 L1031.6,55.9 L1032.4,56.4 L1033.1,56.3 L1033.9,56.2 L1034.6,55.9
		L1035.4,55.9 L1036.2,55.9 L1036.9,56.7 L1037.7,56.5 L1038.4,56.3 L1039.2,56.3 L1040.0,56.3 L1040.7,56.2
		L1041.5,55.8 L1042.2,56.4 L1043.0,56.2 L1043.8,56.0 L1044.5,56.0 L1045.3,56.0 L1046.0,55.8 L1046.8,56.1
		L1047.6,55.8 L1048.3,55.8 L1049.1,56.0 L1049.8,55.7 L1050.6,55.7 L1051.4,56.1 L1052.1,55.6 L1052.9,55.8
		L1053.6,56.0 L1054.4,56.0 L1055.2,56.0 L1055.9,56.0 L1056.7,56.2 L1057.4,55.7 L1058.2,55.8 L1059.0,56.0
		L1059.7,56.0 L1060.5,56.4 L1061.2,56.2 L1062.0,56.4 L1062.8,56.3 L1063.5,56.3 L1064.3,56.2 L1065.0,55.5
		L1065.8,56.3 L1066.6,56.4 L1067.3,56.1 L1068.1,56.1 L1068.8,56.1 L1069.6,56.1 L1070.4,55.9 L1071.1,55.5
		L1071.9,56.2 L1072.6,55.9 L1073.4,56.0 L1074.2,56.5 L1074.9,56.1 L1075.7,56.1 L1076.4,56.5 L1077.2,55.9
		L1078.0,56.4 L1078.7,55.5 L1079.5,55.6 L1080.2,56.1 L1081.0,56.2 L1081.8,56.1 L1082.5,55.9 L1083.3,56.1
		L1084.0,56.0 L1084.8,56.0 L1085.6,56.1 L1086.3,56.0 L1087.1,56.0 L1087.8,55.9 L1088.6,55.8 L1089.4,55.8
		L1090.1,55.8 L1090.9,56.1 L1091.6,55.7 L1092.4,55.9 L1093.2,56.0 L1093.9,55.6 L1094.7,55.7 L1095.4,56.0
		L1096.2,55.7 L1096.9,56.1 L1097.7,55.5 L1098.5,55.9 L1099.2,55.9 L1100.0,55.8 L1100.7,55.8 L1101.5,56.1
		L1102.3,56.1 L1103.0,55.7 L1103.8,55.7 L1104.5,56.0 L1105.3,55.9 L1106.1,56.0 L1106.8,56.2 L1107.6,56.1
		L1108.3,56.1 L1109.1,56.1 L1109.9,55.7 L1110.6,56.0 L1111.4,55.4 L1112.1,55.4 L1112.9,55.3 L1113.7,55.3
		L1114.4,55.9 L1115.2,56.0 L1115.9,55.7 L1116.7,56.3 L1117.5,56.1 L1118.2,56.2 L1119.0,55.9 L1119.7,56.0
		L1120.5,56.0 L1121.3,55.7 L1122.0,55.8 L1122.8,55.8 L1123.5,55.9 L1124.3,55.7 L1125.1,55.7 L1125.8,55.7
		L1126.6,56.1 L1127.3,55.8 L1128.1,56.1 L1128.9,56.0 L1129.6,56.2 L1130.4,55.9 L1131.1,55.8 L1131.9,55.8
		L1132.7,55.7 L1133.4,55.8 L1134.2,56.0 L1134.9,55.7 L1135.7,55.5 L1136.5,56.0 L1137.2,56.0 L1138.0,55.5
		L1138.7,55.8 L1139.5,55.6 L1140.3,55.5 L1141.0,55.5 L1141.8,55.9 L1142.5,55.5 L1143.3,55.7 L1144.1,55.7
		L1144.8,55.4 L1145.6,55.7 L1146.3,55.9 L1147.1,55.7 L1147.9,55.5 L1148.6,55.3 L1149.4,55.3 L1150.1,55.3
		L1150.9,55.4 L1151.7,55.1 L1152.4,55.4 L1153.2,55.5 L1153.9,55.3 L1154.7,55.3 L1155.5,55.5 L1156.2,55.5
		L1157.0,55.5 L1157.7,55.5 L1158.5,55.3 L1159.3,54.9 L1160.0,55.1 L1160.8,55.1 L1161.5,55.2 L1162.3,55.2
		L1163.1,55.1 L1163.8,55.3 L1164.6,55.3 L1165.3,55.4 L1166.1,55.3 L1166.9,55.6 L1167.6,55.4 L1168.4,55.5
		L1169.1,55.3 L1169.9,55.5 L1170.7,55.3 L1171.4,55.5 L1172.2,55.3 L1172.9,55.1 L1173.7,55.2 L1174.5,55.2
		L1175.2,55.2 L1176.0,55.1 L1176.7,54.8 L1177.5,55.0 L1178.3,55.0 L1179.0,55.0 L1179.8,55.6 L1180.5,55.3
		L1181.3,55.1 L1182.1,55.2 L1182.8,55.1 L1183.6,55.0 L1184.3,54.7 L1185.1,54.8 L1185.9,54.8 L1186.6,55.3
		L1187.4,55.0 L1188.1,54.9 L1188.9,55.3 L1189.7,55.3 L1190.4,54.4 L1191.2,55.2 L1191.9,55.1 L1192.7,55.1
		L1193.5,55.3 L1194.2,55.2 L1195.0,55.0 L1195.7,54.8 L1196.5,54.5 L1197.3,55.3 L1198.0,55.2 L1198.8,55.0
		L1199.5,54.9 L1200.3,55.4 L1201.1,55.0 L1201.8,54.7 L1202.6,55.0 L1203.3,54.2 L1204.1,54.7 L1204.8,54.8
		L1205.6,54.8 L1206.4,55.0 L1207.1,55.0 L1207.9,54.7 L1208.6,54.6 L1209.4,54.7 L1210.2,54.7 L1210.9,54.6
		L1211.7,55.0 L1212.4,55.0 L1213.2,54.8 L1214.0,54.8 L1214.7,54.4 L1215.5,54.5 L1216.2,54.9 L1217.0,54.9
		L1217.8,54.8 L1218.5,54.4 L1219.3,54.4 L1220.0,54.4 L1220.8,54.4 L1221.6,54.4 L1222.3,54.7 L1223.1,54.8
		L1223.8,55.0 L1224.6,55.1 L1225.4,54.7 L1226.1,54.7 L1226.9,55.3 L1227.6,54.6 L1228.4,54.9 L1229.2,54.9
		L1229.9,54.9 L1230.7,54.6 L1231.4,54.8 L1232.2,54.8 L1233.0,54.7 L1233.7,54.8 L1234.5,54.7 L1235.2,55.2
		L1236.0,54.6 L1236.8,54.5 L1237.5,54.6 L1238.3,54.7 L1239.0,54.5 L1239.8,54.6 L1240.6,54.6 L1241.3,54.8
		L1242.1,55.0 L1242.8,54.7 L1243.6,54.1 L1244.4,54.2 L1245.1,54.2 L1245.9,54.2 L1246.6,54.6 L1247.4,54.6
		L1248.2,54.6 L1248.9,54.4 L1249.7,54.4 L1250.4,54.5 L1251.2,54.9 L1252.0,54.9 L1252.7,54.5 L1253.5,54.7
		L1254.2,54.4 L1255.0,54.7  '/></g>
	</g>
	<g id="gnuplot_plot_2" ><title>trendline (m=0.408020,b=4537.738621)</title>
<g fill="none" color="black" stroke="currentColor" stroke-width="1.00" stroke-linecap="butt" stroke-linejoin="miter">
	<g transform="translate(1187.9,94.0)" stroke="none" fill="black" font-family="Arial" font-size="12.00"  text-anchor="end">
		<text><tspan font-family="Arial" >trendline (m=0.408020,b=4537.738621)</tspan></text>
	</g>
</g>
<g fill="none" color="black" stroke="currentColor" stroke-width="1.00" stroke-linecap="butt" stroke-linejoin="miter">
	<path stroke='black'  d='M1196.2,90.1 L1238.4,90.1 M87.1,170.3 L98.9,168.7 L110.7,167.1 L122.5,165.4 L134.3,163.8 L146.1,162.1
		L157.9,160.5 L169.7,158.8 L181.5,157.2 L193.3,155.5 L205.1,153.9 L216.9,152.2 L228.7,150.6 L240.5,149.0
		L252.3,147.3 L264.1,145.7 L275.9,144.0 L287.6,142.4 L299.4,140.7 L311.2,139.1 L323.0,137.4 L334.8,135.8
		L346.6,134.2 L358.4,132.5 L370.2,130.9 L382.0,129.2 L393.8,127.6 L405.6,125.9 L417.4,124.3 L429.2,122.6
		L441.0,121.0 L452.8,119.3 L464.6,117.7 L476.4,116.1 L488.2,114.4 L500.0,112.8 L511.8,111.1 L523.6,109.5
		L535.4,107.8 L547.2,106.2 L559.0,104.5 L570.8,102.9 L582.6,101.2 L594.4,99.6 L606.2,98.0 L618.0,96.3
		L629.8,94.7 L641.6,93.0 L653.4,91.4 L665.2,89.7 L676.9,88.1 L688.7,86.4 L700.5,84.8 L712.3,83.2
		L724.1,81.5 L735.9,79.9 L747.7,78.2 L759.5,76.6 L771.3,74.9 L783.1,73.3 L794.9,71.6 L806.7,70.0
		L818.5,68.3 L830.3,66.7 L842.1,65.1 L853.9,63.4 L865.7,61.8 L877.5,60.1 L889.3,58.5 L901.1,56.8
		L912.9,55.2 L920.7,54.1  '/></g>
	</g>
<g fill="none" color="white" stroke="black" stroke-width="2.00" stroke-linecap="butt" stroke-linejoin="miter">
</g>
<g fill="none" color="black" stroke="currentColor" stroke-width="2.00" stroke-linecap="butt" stroke-linejoin="miter">
</g>
<g fill="none" color="black" stroke="black" stroke-width="1.00" stroke-linecap="butt" stroke-linejoin="miter">
</g>
<g fill="none" color="black" stroke="currentColor" stroke-width="1.00" stroke-linecap="butt" stroke-linejoin="miter">
	<path stroke='black'  d='M87.1,54.1 L87.1,703.4 L1255.0,703.4 L1255.0,54.1 L87.1,54.1 Z  '/></g>
<g fill="none" color="black" stroke="currentColor" stroke-width="1.00" stroke-linecap="butt" stroke-linejoin="miter">
</g>
</g>
</svg>

