<?xml version="1.0" encoding="utf-8"  standalone="no"?>
<svg 
 width="1280" height="720"
 viewBox="0 0 1280 720"
 xmlns="http://www.w3.org/2000/svg"
 xmlns:xlink="http://www.w3.org/1999/xlink"
>

<title>Gnuplot</title>
<desc>Produced by GNUPLOT 5.0 patchlevel 6 </desc>

<g id="gnuplot_canvas">

<rect x="0" y="0" width="1280" height="720" fill="none"/>
<defs>

	<circle id='gpDot' r='0.5' stroke-width='0.5'/>
	<path id='gpPt0' stroke-width='0.222' stroke='currentColor' d='M-1,0 h2 M0,-1 v2'/>
	<path id='gpPt1' stroke-width='0.222' stroke='currentColor' d='M-1,-1 L1,1 M1,-1 L-1,1'/>
	<path id='gpPt2' stroke-width='0.222' stroke='currentColor' d='M-1,0 L1,0 M0,-1 L0,1 M-1,-1 L1,1 M-1,1 L1,-1'/>
	<rect id='gpPt3' stroke-width='0.222' stroke='currentColor' x='-1' y='-1' width='2' height='2'/>
	<rect id='gpPt4' stroke-width='0.222' stroke='currentColor' fill='currentColor' x='-1' y='-1' width='2' height='2'/>
	<circle id='gpPt5' stroke-width='0.222' stroke='currentColor' cx='0' cy='0' r='1'/>
	<use xlink:href='#gpPt5' id='gpPt6' fill='currentColor' stroke='none'/>
	<path id='gpPt7' stroke-width='0.222' stroke='currentColor' d='M0,-1.33 L-1.33,0.67 L1.33,0.67 z'/>
	<use xlink:href='#gpPt7' id='gpPt8' fill='currentColor' stroke='none'/>
	<use xlink:href='#gpPt7' id='gpPt9' stroke='currentColor' transform='rotate(180)'/>
	<use xlink:href='#gpPt9' id='gpPt10' fill='currentColor' stroke='none'/>
	<use xlink:href='#gpPt3' id='gpPt11' stroke='currentColor' transform='rotate(45)'/>
	<use xlink:href='#gpPt11' id='gpPt12' fill='currentColor' stroke='none'/>
	<path id='gpPt13' stroke-width='0.222' stroke='currentColor' d='M0,1.330 L1.265,0.411 L0.782,-1.067 L-0.782,-1.076 L-1.265,0.411 z'/>
	<use xlink:href='#gpPt13' id='gpPt14' fill='currentColor' stroke='none'/>
	<filter id='textbox' filterUnits='objectBoundingBox' x='0' y='0' height='1' width='1'>
	  <feFlood flood-color='white' flood-opacity='1' result='bgnd'/>
	  <feComposite in='SourceGraphic' in2='bgnd' operator='atop'/>
	</filter>
	<filter id='greybox' filterUnits='objectBoundingBox' x='0' y='0' height='1' width='1'>
	  <feFlood flood-color='lightgrey' flood-opacity='1' result='grey'/>
	  <feComposite in='SourceGraphic' in2='grey' operator='atop'/>
	</filter>
</defs>
<g fill="none" color="white" stroke="currentColor" stroke-width="1.00" stroke-linecap="butt" stroke-linejoin="miter">
</g>
<g fill="none" color="black" stroke="currentColor" stroke-width="1.00" stroke-linecap="butt" stroke-linejoin="miter">
	<path stroke='black'  d='M87.1,703.4 L96.1,703.4 M1255.0,703.4 L1246.0,703.4  '/>	<g transform="translate(78.8,707.3)" stroke="none" fill="black" font-family="Arial" font-size="12.00"  text-anchor="end">
		<text><tspan font-family="Arial" >-129.627</tspan></text>
	</g>
</g>
<g fill="none" color="black" stroke="currentColor" stroke-width="1.00" stroke-linecap="butt" stroke-linejoin="miter">
	<path stroke='black'  d='M87.1,331.9 L96.1,331.9 M1255.0,331.9 L1246.0,331.9  '/>	<g transform="translate(78.8,335.8)" stroke="none" fill="black" font-family="Arial" font-size="12.00"  text-anchor="end">
		<text><tspan font-family="Arial" >-128.864</tspan></text>
	</g>
</g>
<g fill="none" color="black" stroke="currentColor" stroke-width="1.00" stroke-linecap="butt" stroke-linejoin="miter">
	<path stroke='black'  d='M87.1,54.1 L96.1,54.1 M1255.0,54.1 L1246.0,54.1  '/>	<g transform="translate(78.8,58.0)" stroke="none" fill="black" font-family="Arial" font-size="12.00"  text-anchor="end">
		<text><tspan font-family="Arial" >-128.293</tspan></text>
	</g>
</g>
<g fill="none" color="black" stroke="currentColor" stroke-width="1.00" stroke-linecap="butt" stroke-linejoin="miter">
</g>
<g fill="none" color="black" stroke="currentColor" stroke-width="1.00" stroke-linecap="butt" stroke-linejoin="miter">
	<path stroke='black'  d='M87.1,54.1 L87.1,703.4 L1255.0,703.4 L1255.0,54.1 L87.1,54.1 Z  '/></g>
<g fill="none" color="black" stroke="currentColor" stroke-width="1.00" stroke-linecap="butt" stroke-linejoin="miter">
	<g transform="translate(671.0,31.0)" stroke="none" fill="black" font-family="Arial" font-size="12.00"  text-anchor="middle">
		<text><tspan font-family="Arial" >Material 50, 2 components</tspan></text>
	</g>
</g>
	<g id="gnuplot_plot_1" ><title>log(likelihood)</title>
<g fill="none" color="black" stroke="currentColor" stroke-width="1.00" stroke-linecap="butt" stroke-linejoin="miter">
	<g transform="translate(1187.9,76.0)" stroke="none" fill="black" font-family="Arial" font-size="12.00"  text-anchor="end">
		<text><tspan font-family="Arial" >log(likelihood)</tspan></text>
	</g>
</g>
<g fill="none" color="black" stroke="currentColor" stroke-width="1.00" stroke-linecap="butt" stroke-linejoin="miter">
	<g stroke='none' shape-rendering='crispEdges'>
		<polygon fill = 'rgb(148,   0, 211)' fill-opacity = '0.100000' points = '1196.2,76.6 1238.4,76.6 1238.4,67.6 1196.2,67.6 '/>
	</g>
	<path stroke='rgb(148,   0, 211)'  d='M1196.2,76.6 L1238.4,76.6 L1238.4,67.6 L1196.2,67.6 L1196.2,76.6 Z  '/></g>
<g fill="none" color="black" stroke="currentColor" stroke-width="1.00" stroke-linecap="butt" stroke-linejoin="miter">
	<g stroke='none' shape-rendering='crispEdges'>
		<polygon fill = 'rgb(148,   0, 211)' fill-opacity = '0.100000' points = '87.1,201.1 96.8,275.6 106.6,243.9 116.3,288.2 126.0,204.5 135.8,370.5 145.5,412.3 155.2,287.7 165.0,258.5 174.7,94.5 184.4,311.6 194.2,564.7 203.9,217.2 213.6,239.1 223.4,475.6 233.1,531.6
242.8,505.8 252.6,413.8 262.3,463.0 272.0,272.6 281.8,250.3 291.5,562.7 301.2,640.1 310.9,255.1 320.7,197.7 330.4,328.6 340.1,389.9 349.9,378.7 359.6,146.6 369.3,360.3 379.1,435.2 388.8,703.4
398.5,419.1 408.3,239.1 418.0,320.3 427.7,440.6 437.5,290.7 447.2,546.7 456.9,512.1 466.7,192.8 476.4,139.3 486.1,207.9 495.9,338.8 505.6,293.1 515.3,54.1 525.1,536.0 534.8,423.0 544.5,353.4
554.3,249.3 564.0,590.5 573.7,555.4 583.5,277.5 593.2,178.2 602.9,471.7 612.7,432.3 622.4,375.3 632.1,392.9 641.9,305.3 651.6,112.0 661.3,113.5 671.1,114.9 680.8,162.6 690.5,289.7 700.2,93.5
710.0,218.6 719.7,334.5 729.4,486.8 739.2,72.1 748.9,178.7 758.6,490.7 768.4,395.3 778.1,246.8 787.8,461.0 797.6,176.8 807.3,143.2 817.0,257.6 826.8,448.4 836.5,208.4 846.2,451.8 856.0,306.7
865.7,199.6 875.4,362.7 885.2,499.5 894.9,259.5 904.6,508.2 914.4,429.9 924.1,347.1 933.8,384.1 943.6,561.3 953.3,650.8 963.0,608.5 972.8,245.4 982.5,334.5 992.2,144.1 1002.0,410.9 1011.7,348.6
1021.4,422.6 1031.2,355.9 1040.9,352.0 1050.6,331.1 1060.4,464.9 1070.1,394.3 1079.8,303.8 1089.5,502.9 1099.3,206.4 1109.0,71.6 1118.7,363.2 1128.5,211.8 1138.2,112.0 1147.9,283.8 1157.7,488.3 1167.4,363.2
1177.1,238.1 1186.9,382.2 1196.6,177.2 1206.3,178.2 1216.1,136.8 1225.8,442.5 1235.5,131.0 1245.3,456.6 1255.0,311.1 1255.0,703.4 87.1,703.4 '/>
	</g>
	<path stroke='rgb(148,   0, 211)'  d='M87.1,201.1 L96.8,275.6 L106.6,243.9 L116.3,288.2 L126.0,204.5 L135.8,370.5 L145.5,412.3 L155.2,287.7
		L165.0,258.5 L174.7,94.5 L184.4,311.6 L194.2,564.7 L203.9,217.2 L213.6,239.1 L223.4,475.6 L233.1,531.6
		L242.8,505.8 L252.6,413.8 L262.3,463.0 L272.0,272.6 L281.8,250.3 L291.5,562.7 L301.2,640.1 L310.9,255.1
		L320.7,197.7 L330.4,328.6 L340.1,389.9 L349.9,378.7 L359.6,146.6 L369.3,360.3 L379.1,435.2 L388.8,703.4
		L398.5,419.1 L408.3,239.1 L418.0,320.3 L427.7,440.6 L437.5,290.7 L447.2,546.7 L456.9,512.1 L466.7,192.8
		L476.4,139.3 L486.1,207.9 L495.9,338.8 L505.6,293.1 L515.3,54.1 L525.1,536.0 L534.8,423.0 L544.5,353.4
		L554.3,249.3 L564.0,590.5 L573.7,555.4 L583.5,277.5 L593.2,178.2 L602.9,471.7 L612.7,432.3 L622.4,375.3
		L632.1,392.9 L641.9,305.3 L651.6,112.0 L661.3,113.5 L671.1,114.9 L680.8,162.6 L690.5,289.7 L700.2,93.5
		L710.0,218.6 L719.7,334.5 L729.4,486.8 L739.2,72.1 L748.9,178.7 L758.6,490.7 L768.4,395.3 L778.1,246.8
		L787.8,461.0 L797.6,176.8 L807.3,143.2 L817.0,257.6 L826.8,448.4 L836.5,208.4 L846.2,451.8 L856.0,306.7
		L865.7,199.6 L875.4,362.7 L885.2,499.5 L894.9,259.5 L904.6,508.2 L914.4,429.9 L924.1,347.1 L933.8,384.1
		L943.6,561.3 L953.3,650.8 L963.0,608.5 L972.8,245.4 L982.5,334.5 L992.2,144.1 L1002.0,410.9 L1011.7,348.6
		L1021.4,422.6 L1031.2,355.9 L1040.9,352.0 L1050.6,331.1 L1060.4,464.9 L1070.1,394.3 L1079.8,303.8 L1089.5,502.9
		L1099.3,206.4 L1109.0,71.6 L1118.7,363.2 L1128.5,211.8 L1138.2,112.0 L1147.9,283.8 L1157.7,488.3 L1167.4,363.2
		L1177.1,238.1 L1186.9,382.2 L1196.6,177.2 L1206.3,178.2 L1216.1,136.8 L1225.8,442.5 L1235.5,131.0 L1245.3,456.6
		L1255.0,311.1  '/></g>
	</g>
	<g id="gnuplot_plot_2" ><title>trendline (m=0.000453,b=-128.890831)</title>
<g fill="none" color="black" stroke="currentColor" stroke-width="1.00" stroke-linecap="butt" stroke-linejoin="miter">
	<g transform="translate(1187.9,94.0)" stroke="none" fill="black" font-family="Arial" font-size="12.00"  text-anchor="end">
		<text><tspan font-family="Arial" >trendline (m=0.000453,b=-128.890831)</tspan></text>
	</g>
</g>
<g fill="none" color="black" stroke="currentColor" stroke-width="1.00" stroke-linecap="butt" stroke-linejoin="miter">
	<path stroke='black'  d='M1196.2,90.1 L1238.4,90.1 M87.1,345.1 L98.9,344.8 L110.7,344.5 L122.5,344.3 L134.3,344.0 L146.1,343.7
		L157.9,343.5 L169.7,343.2 L181.5,342.9 L193.3,342.7 L205.1,342.4 L216.9,342.1 L228.7,341.9 L240.5,341.6
		L252.3,341.3 L264.1,341.1 L275.9,340.8 L287.6,340.5 L299.4,340.3 L311.2,340.0 L323.0,339.7 L334.8,339.5
		L346.6,339.2 L358.4,338.9 L370.2,338.7 L382.0,338.4 L393.8,338.1 L405.6,337.9 L417.4,337.6 L429.2,337.3
		L441.0,337.1 L452.8,336.8 L464.6,336.5 L476.4,336.3 L488.2,336.0 L500.0,335.7 L511.8,335.5 L523.6,335.2
		L535.4,334.9 L547.2,334.7 L559.0,334.4 L570.8,334.1 L582.6,333.9 L594.4,333.6 L606.2,333.3 L618.0,333.1
		L629.8,332.8 L641.6,332.5 L653.4,332.3 L665.2,332.0 L676.9,331.7 L688.7,331.5 L700.5,331.2 L712.3,330.9
		L724.1,330.7 L735.9,330.4 L747.7,330.1 L759.5,329.9 L771.3,329.6 L783.1,329.3 L794.9,329.1 L806.7,328.8
		L818.5,328.5 L830.3,328.3 L842.1,328.0 L853.9,327.7 L865.7,327.5 L877.5,327.2 L889.3,326.9 L901.1,326.7
		L912.9,326.4 L924.7,326.1 L936.5,325.9 L948.3,325.6 L960.1,325.3 L971.9,325.1 L983.7,324.8 L995.5,324.5
		L1007.3,324.3 L1019.1,324.0 L1030.9,323.7 L1042.7,323.4 L1054.5,323.2 L1066.2,322.9 L1078.0,322.6 L1089.8,322.4
		L1101.6,322.1 L1113.4,321.8 L1125.2,321.6 L1137.0,321.3 L1148.8,321.0 L1160.6,320.8 L1172.4,320.5 L1184.2,320.2
		L1196.0,320.0 L1207.8,319.7 L1219.6,319.4 L1231.4,319.2 L1243.2,318.9 L1255.0,318.6  '/></g>
	</g>
<g fill="none" color="white" stroke="black" stroke-width="2.00" stroke-linecap="butt" stroke-linejoin="miter">
</g>
<g fill="none" color="black" stroke="currentColor" stroke-width="2.00" stroke-linecap="butt" stroke-linejoin="miter">
</g>
<g fill="none" color="black" stroke="black" stroke-width="1.00" stroke-linecap="butt" stroke-linejoin="miter">
</g>
<g fill="none" color="black" stroke="currentColor" stroke-width="1.00" stroke-linecap="butt" stroke-linejoin="miter">
	<path stroke='black'  d='M87.1,54.1 L87.1,703.4 L1255.0,703.4 L1255.0,54.1 L87.1,54.1 Z  '/></g>
<g fill="none" color="black" stroke="currentColor" stroke-width="1.00" stroke-linecap="butt" stroke-linejoin="miter">
</g>
</g>
</svg>

