<?xml version="1.0" encoding="utf-8"  standalone="no"?>
<svg 
 width="1280" height="720"
 viewBox="0 0 1280 720"
 xmlns="http://www.w3.org/2000/svg"
 xmlns:xlink="http://www.w3.org/1999/xlink"
>

<title>Gnuplot</title>
<desc>Produced by GNUPLOT 5.0 patchlevel 6 </desc>

<g id="gnuplot_canvas">

<rect x="0" y="0" width="1280" height="720" fill="none"/>
<defs>

	<circle id='gpDot' r='0.5' stroke-width='0.5'/>
	<path id='gpPt0' stroke-width='0.222' stroke='currentColor' d='M-1,0 h2 M0,-1 v2'/>
	<path id='gpPt1' stroke-width='0.222' stroke='currentColor' d='M-1,-1 L1,1 M1,-1 L-1,1'/>
	<path id='gpPt2' stroke-width='0.222' stroke='currentColor' d='M-1,0 L1,0 M0,-1 L0,1 M-1,-1 L1,1 M-1,1 L1,-1'/>
	<rect id='gpPt3' stroke-width='0.222' stroke='currentColor' x='-1' y='-1' width='2' height='2'/>
	<rect id='gpPt4' stroke-width='0.222' stroke='currentColor' fill='currentColor' x='-1' y='-1' width='2' height='2'/>
	<circle id='gpPt5' stroke-width='0.222' stroke='currentColor' cx='0' cy='0' r='1'/>
	<use xlink:href='#gpPt5' id='gpPt6' fill='currentColor' stroke='none'/>
	<path id='gpPt7' stroke-width='0.222' stroke='currentColor' d='M0,-1.33 L-1.33,0.67 L1.33,0.67 z'/>
	<use xlink:href='#gpPt7' id='gpPt8' fill='currentColor' stroke='none'/>
	<use xlink:href='#gpPt7' id='gpPt9' stroke='currentColor' transform='rotate(180)'/>
	<use xlink:href='#gpPt9' id='gpPt10' fill='currentColor' stroke='none'/>
	<use xlink:href='#gpPt3' id='gpPt11' stroke='currentColor' transform='rotate(45)'/>
	<use xlink:href='#gpPt11' id='gpPt12' fill='currentColor' stroke='none'/>
	<path id='gpPt13' stroke-width='0.222' stroke='currentColor' d='M0,1.330 L1.265,0.411 L0.782,-1.067 L-0.782,-1.076 L-1.265,0.411 z'/>
	<use xlink:href='#gpPt13' id='gpPt14' fill='currentColor' stroke='none'/>
	<filter id='textbox' filterUnits='objectBoundingBox' x='0' y='0' height='1' width='1'>
	  <feFlood flood-color='white' flood-opacity='1' result='bgnd'/>
	  <feComposite in='SourceGraphic' in2='bgnd' operator='atop'/>
	</filter>
	<filter id='greybox' filterUnits='objectBoundingBox' x='0' y='0' height='1' width='1'>
	  <feFlood flood-color='lightgrey' flood-opacity='1' result='grey'/>
	  <feComposite in='SourceGraphic' in2='grey' operator='atop'/>
	</filter>
</defs>
<g fill="none" color="white" stroke="currentColor" stroke-width="1.00" stroke-linecap="butt" stroke-linejoin="miter">
</g>
<g fill="none" color="black" stroke="currentColor" stroke-width="1.00" stroke-linecap="butt" stroke-linejoin="miter">
	<path stroke='black'  d='M87.1,703.4 L96.1,703.4 M1255.0,703.4 L1246.0,703.4  '/>	<g transform="translate(78.8,707.3)" stroke="none" fill="black" font-family="Arial" font-size="12.00"  text-anchor="end">
		<text><tspan font-family="Arial" >-4553.68</tspan></text>
	</g>
</g>
<g fill="none" color="black" stroke="currentColor" stroke-width="1.00" stroke-linecap="butt" stroke-linejoin="miter">
	<path stroke='black'  d='M87.1,137.4 L96.1,137.4 M1255.0,137.4 L1246.0,137.4  '/>	<g transform="translate(78.8,141.3)" stroke="none" fill="black" font-family="Arial" font-size="12.00"  text-anchor="end">
		<text><tspan font-family="Arial" >-804.59</tspan></text>
	</g>
</g>
<g fill="none" color="black" stroke="currentColor" stroke-width="1.00" stroke-linecap="butt" stroke-linejoin="miter">
	<path stroke='black'  d='M87.1,54.1 L96.1,54.1 M1255.0,54.1 L1246.0,54.1  '/>	<g transform="translate(78.8,58.0)" stroke="none" fill="black" font-family="Arial" font-size="12.00"  text-anchor="end">
		<text><tspan font-family="Arial" >-252.958</tspan></text>
	</g>
</g>
<g fill="none" color="black" stroke="currentColor" stroke-width="1.00" stroke-linecap="butt" stroke-linejoin="miter">
</g>
<g fill="none" color="black" stroke="currentColor" stroke-width="1.00" stroke-linecap="butt" stroke-linejoin="miter">
	<path stroke='black'  d='M87.1,54.1 L87.1,703.4 L1255.0,703.4 L1255.0,54.1 L87.1,54.1 Z  '/></g>
<g fill="none" color="black" stroke="currentColor" stroke-width="1.00" stroke-linecap="butt" stroke-linejoin="miter">
	<g transform="translate(671.0,31.0)" stroke="none" fill="black" font-family="Arial" font-size="12.00"  text-anchor="middle">
		<text><tspan font-family="Arial" >Material 100, 2 components</tspan></text>
	</g>
</g>
	<g id="gnuplot_plot_1" ><title>log(likelihood)</title>
<g fill="none" color="black" stroke="currentColor" stroke-width="1.00" stroke-linecap="butt" stroke-linejoin="miter">
	<g transform="translate(1187.9,76.0)" stroke="none" fill="black" font-family="Arial" font-size="12.00"  text-anchor="end">
		<text><tspan font-family="Arial" >log(likelihood)</tspan></text>
	</g>
</g>
<g fill="none" color="black" stroke="currentColor" stroke-width="1.00" stroke-linecap="butt" stroke-linejoin="miter">
	<g stroke='none' shape-rendering='crispEdges'>
		<polygon fill = 'rgb(148,   0, 211)' fill-opacity = '0.100000' points = '1196.2,76.6 1238.4,76.6 1238.4,67.6 1196.2,67.6 '/>
	</g>
	<path stroke='rgb(148,   0, 211)'  d='M1196.2,76.6 L1238.4,76.6 L1238.4,67.6 L1196.2,67.6 L1196.2,76.6 Z  '/></g>
<g fill="none" color="black" stroke="currentColor" stroke-width="1.00" stroke-linecap="butt" stroke-linejoin="miter">
	<g stroke='none' shape-rendering='crispEdges'>
		<polygon fill = 'rgb(148,   0, 211)' fill-opacity = '0.100000' points = '87.1,703.4 89.2,693.9 91.4,688.3 93.5,676.5 95.6,668.9 97.8,668.9 99.9,660.9 102.0,659.3 104.2,659.3 106.3,656.4 108.5,654.2 110.6,654.2 112.7,654.2 114.9,642.2 117.0,635.9 119.1,631.1
121.3,631.1 123.4,629.6 125.5,629.6 127.7,624.9 129.8,624.9 131.9,624.9 134.1,619.8 136.2,619.8 138.3,617.7 140.5,613.3 142.6,613.3 144.7,613.3 146.9,611.6 149.0,605.4 151.2,605.4 153.3,596.1
155.4,596.1 157.6,589.8 159.7,589.8 161.8,582.9 164.0,582.9 166.1,582.9 168.2,582.9 170.4,572.4 172.5,572.4 174.6,572.1 176.8,560.0 178.9,541.0 181.0,540.6 183.2,535.8 185.3,535.8 187.4,533.8
189.6,510.1 191.7,510.1 193.9,509.8 196.0,509.2 198.1,502.6 200.3,468.8 202.4,468.0 204.5,468.0 206.7,468.0 208.8,453.4 210.9,441.9 213.1,425.4 215.2,413.4 217.3,393.8 219.5,385.7 221.6,385.7
223.7,360.0 225.9,355.1 228.0,349.3 230.2,337.9 232.3,328.3 234.4,320.6 236.6,304.6 238.7,299.8 240.8,295.0 243.0,293.6 245.1,291.0 247.2,287.6 249.4,282.9 251.5,279.2 253.6,277.4 255.8,271.0
257.9,265.6 260.0,260.1 262.2,259.1 264.3,253.6 266.4,252.4 268.6,250.3 270.7,245.1 272.9,237.9 275.0,237.3 277.1,233.5 279.3,229.5 281.4,224.6 283.5,221.3 285.7,218.7 287.8,216.1 289.9,213.7
292.1,211.1 294.2,209.2 296.3,206.1 298.5,204.4 300.6,201.6 302.7,199.9 304.9,197.5 307.0,196.0 309.2,195.2 311.3,192.7 313.4,189.9 315.6,186.9 317.7,182.4 319.8,182.4 322.0,180.7 324.1,178.6
326.2,175.7 328.4,174.4 330.5,171.5 332.6,169.5 334.8,167.4 336.9,164.6 339.0,163.0 341.2,161.1 343.3,158.6 345.4,155.3 347.6,153.4 349.7,152.0 351.9,149.3 354.0,147.1 356.1,144.2 358.3,140.2
360.4,135.6 362.5,131.1 364.7,126.5 366.8,123.5 368.9,121.4 371.1,118.2 373.2,115.6 375.3,111.6 377.5,111.0 379.6,108.9 381.7,107.3 383.9,106.9 386.0,106.8 388.1,106.7 390.3,106.7 392.4,106.6
394.6,106.6 396.7,106.6 398.8,106.6 401.0,106.4 403.1,106.2 405.2,104.0 407.4,100.8 409.5,94.8 411.6,81.8 413.8,67.2 415.9,60.3 418.0,55.4 420.2,54.6 422.3,54.4 424.4,54.3 426.6,54.3
428.7,54.2 430.9,54.2 433.0,54.2 435.1,54.2 437.3,54.2 439.4,54.2 441.5,54.3 443.7,54.3 445.8,54.2 447.9,54.3 450.1,54.4 452.2,54.2 454.3,54.3 456.5,54.2 458.6,54.2 460.7,54.3
462.9,54.2 465.0,54.2 467.1,54.2 469.3,54.3 471.4,54.3 473.6,54.2 475.7,54.3 477.8,54.3 480.0,54.3 482.1,54.2 484.2,54.3 486.4,54.3 488.5,54.3 490.6,54.2 492.8,54.2 494.9,54.2
497.0,54.3 499.2,54.2 501.3,54.2 503.4,54.2 505.6,54.3 507.7,54.2 509.8,54.2 512.0,54.3 514.1,54.3 516.3,54.3 518.4,54.2 520.5,54.3 522.7,54.2 524.8,54.2 526.9,54.3 529.1,54.2
531.2,54.2 533.3,54.2 535.5,54.4 537.6,54.2 539.7,54.4 541.9,54.3 544.0,54.1 546.1,54.2 548.3,54.3 550.4,54.3 552.6,54.2 554.7,54.3 556.8,54.3 559.0,54.2 561.1,54.2 563.2,54.2
565.4,54.2 567.5,54.2 569.6,54.2 571.8,54.3 573.9,54.1 576.0,54.2 578.2,54.3 580.3,54.3 582.4,54.2 584.6,54.2 586.7,54.3 588.8,54.3 591.0,54.2 593.1,54.2 595.3,54.2 597.4,54.3
599.5,54.4 601.7,54.3 603.8,54.3 605.9,54.2 608.1,54.3 610.2,54.3 612.3,54.2 614.5,54.3 616.6,54.2 618.7,54.2 620.9,54.2 623.0,54.2 625.1,54.3 627.3,54.3 629.4,54.3 631.6,54.2
633.7,54.3 635.8,54.3 638.0,54.3 640.1,54.2 642.2,54.3 644.4,54.3 646.5,54.2 648.6,54.1 650.8,54.3 652.9,54.3 655.0,54.2 657.2,54.3 659.3,54.3 661.4,54.2 663.6,54.3 665.7,54.4
667.8,54.2 670.0,54.3 672.1,54.3 674.3,54.3 676.4,54.3 678.5,54.3 680.7,54.3 682.8,54.3 684.9,54.3 687.1,54.2 689.2,54.2 691.3,54.3 693.5,54.4 695.6,54.2 697.7,54.3 699.9,54.2
702.0,54.2 704.1,54.1 706.3,54.2 708.4,54.2 710.5,54.3 712.7,54.2 714.8,54.2 717.0,54.3 719.1,54.3 721.2,54.3 723.4,54.2 725.5,54.2 727.6,54.3 729.8,54.2 731.9,54.2 734.0,54.3
736.2,54.3 738.3,54.2 740.4,54.3 742.6,54.2 744.7,54.3 746.8,54.3 749.0,54.3 751.1,54.2 753.3,54.3 755.4,54.2 757.5,54.2 759.7,54.1 761.8,54.3 763.9,54.3 766.1,54.2 768.2,54.2
770.3,54.3 772.5,54.3 774.6,54.3 776.7,54.1 778.9,54.3 781.0,54.3 783.1,54.2 785.3,54.2 787.4,54.3 789.5,54.2 791.7,54.1 793.8,54.2 796.0,54.3 798.1,54.4 800.2,54.3 802.4,54.2
804.5,54.3 806.6,54.3 808.8,54.3 810.9,54.2 813.0,54.2 815.2,54.3 817.3,54.2 819.4,54.3 821.6,54.3 823.7,54.2 825.8,54.2 828.0,54.3 830.1,54.3 832.3,54.3 834.4,54.4 836.5,54.2
838.7,54.2 840.8,54.2 842.9,54.2 845.1,54.3 847.2,54.3 849.3,54.3 851.5,54.2 853.6,54.2 855.7,54.2 857.9,54.2 860.0,54.2 862.1,54.2 864.3,54.4 866.4,54.3 868.5,54.3 870.7,54.2
872.8,54.2 875.0,54.3 877.1,54.2 879.2,54.2 881.4,54.3 883.5,54.3 885.6,54.3 887.8,54.2 889.9,54.2 892.0,54.2 894.2,54.3 896.3,54.2 898.4,54.3 900.6,54.3 902.7,54.3 904.8,54.3
907.0,54.2 909.1,54.2 911.2,54.3 913.4,54.2 915.5,54.2 917.7,54.3 919.8,54.2 921.9,54.2 924.1,54.2 926.2,54.2 928.3,54.3 930.5,54.3 932.6,54.2 934.7,54.2 936.9,54.2 939.0,54.3
941.1,54.3 943.3,54.2 945.4,54.3 947.5,54.3 949.7,54.2 951.8,54.2 954.0,54.2 956.1,54.2 958.2,54.2 960.4,54.2 962.5,54.3 964.6,54.3 966.8,54.2 968.9,54.3 971.0,54.2 973.2,54.2
975.3,54.2 977.4,54.1 979.6,54.2 981.7,54.2 983.8,54.2 986.0,54.2 988.1,54.2 990.2,54.2 992.4,54.2 994.5,54.2 996.7,54.3 998.8,54.3 1000.9,54.2 1003.1,54.3 1005.2,54.3 1007.3,54.4
1009.5,54.3 1011.6,54.3 1013.7,54.2 1015.9,54.2 1018.0,54.3 1020.1,54.2 1022.3,54.2 1024.4,54.2 1026.5,54.3 1028.7,54.3 1030.8,54.2 1032.9,54.2 1035.1,54.3 1037.2,54.1 1039.4,54.2 1041.5,54.2
1043.6,54.2 1045.8,54.2 1047.9,54.3 1050.0,54.2 1052.2,54.3 1054.3,54.3 1056.4,54.2 1058.6,54.2 1060.7,54.2 1062.8,54.3 1065.0,54.2 1067.1,54.1 1069.2,54.3 1071.4,54.3 1073.5,54.2 1075.7,54.2
1077.8,54.2 1079.9,54.4 1082.1,54.3 1084.2,54.3 1086.3,54.3 1088.5,54.3 1090.6,54.3 1092.7,54.2 1094.9,54.2 1097.0,54.2 1099.1,54.2 1101.3,54.3 1103.4,54.2 1105.5,54.3 1107.7,54.3 1109.8,54.2
1111.9,54.2 1114.1,54.3 1116.2,54.2 1118.4,54.3 1120.5,54.2 1122.6,54.2 1124.8,54.2 1126.9,54.2 1129.0,54.3 1131.2,54.3 1133.3,54.2 1135.4,54.2 1137.6,54.3 1139.7,54.1 1141.8,54.2 1144.0,54.2
1146.1,54.3 1148.2,54.3 1150.4,54.2 1152.5,54.2 1154.7,54.3 1156.8,54.3 1158.9,54.3 1161.1,54.2 1163.2,54.2 1165.3,54.2 1167.5,54.2 1169.6,54.3 1171.7,54.2 1173.9,54.4 1176.0,54.2 1178.1,54.2
1180.3,54.2 1182.4,54.3 1184.5,54.3 1186.7,54.3 1188.8,54.2 1190.9,54.3 1193.1,54.3 1195.2,54.2 1197.4,54.3 1199.5,54.2 1201.6,54.2 1203.8,54.2 1205.9,54.2 1208.0,54.3 1210.2,54.1 1212.3,54.2
1214.4,54.2 1216.6,54.3 1218.7,54.3 1220.8,54.2 1223.0,54.2 1225.1,54.3 1227.2,54.2 1229.4,54.2 1231.5,54.2 1233.6,54.2 1235.8,54.1 1237.9,54.2 1240.1,54.1 1242.2,54.2 1244.3,54.3 1246.5,54.3
1248.6,54.2 1250.7,54.2 1252.9,54.2 1255.0,54.3 1255.0,703.4 87.1,703.4 '/>
	</g>
	<path stroke='rgb(148,   0, 211)'  d='M87.1,703.4 L89.2,693.9 L91.4,688.3 L93.5,676.5 L95.6,668.9 L97.8,668.9 L99.9,660.9 L102.0,659.3
		L104.2,659.3 L106.3,656.4 L108.5,654.2 L110.6,654.2 L112.7,654.2 L114.9,642.2 L117.0,635.9 L119.1,631.1
		L121.3,631.1 L123.4,629.6 L125.5,629.6 L127.7,624.9 L129.8,624.9 L131.9,624.9 L134.1,619.8 L136.2,619.8
		L138.3,617.7 L140.5,613.3 L142.6,613.3 L144.7,613.3 L146.9,611.6 L149.0,605.4 L151.2,605.4 L153.3,596.1
		L155.4,596.1 L157.6,589.8 L159.7,589.8 L161.8,582.9 L164.0,582.9 L166.1,582.9 L168.2,582.9 L170.4,572.4
		L172.5,572.4 L174.6,572.1 L176.8,560.0 L178.9,541.0 L181.0,540.6 L183.2,535.8 L185.3,535.8 L187.4,533.8
		L189.6,510.1 L191.7,510.1 L193.9,509.8 L196.0,509.2 L198.1,502.6 L200.3,468.8 L202.4,468.0 L204.5,468.0
		L206.7,468.0 L208.8,453.4 L210.9,441.9 L213.1,425.4 L215.2,413.4 L217.3,393.8 L219.5,385.7 L221.6,385.7
		L223.7,360.0 L225.9,355.1 L228.0,349.3 L230.2,337.9 L232.3,328.3 L234.4,320.6 L236.6,304.6 L238.7,299.8
		L240.8,295.0 L243.0,293.6 L245.1,291.0 L247.2,287.6 L249.4,282.9 L251.5,279.2 L253.6,277.4 L255.8,271.0
		L257.9,265.6 L260.0,260.1 L262.2,259.1 L264.3,253.6 L266.4,252.4 L268.6,250.3 L270.7,245.1 L272.9,237.9
		L275.0,237.3 L277.1,233.5 L279.3,229.5 L281.4,224.6 L283.5,221.3 L285.7,218.7 L287.8,216.1 L289.9,213.7
		L292.1,211.1 L294.2,209.2 L296.3,206.1 L298.5,204.4 L300.6,201.6 L302.7,199.9 L304.9,197.5 L307.0,196.0
		L309.2,195.2 L311.3,192.7 L313.4,189.9 L315.6,186.9 L317.7,182.4 L319.8,182.4 L322.0,180.7 L324.1,178.6
		L326.2,175.7 L328.4,174.4 L330.5,171.5 L332.6,169.5 L334.8,167.4 L336.9,164.6 L339.0,163.0 L341.2,161.1
		L343.3,158.6 L345.4,155.3 L347.6,153.4 L349.7,152.0 L351.9,149.3 L354.0,147.1 L356.1,144.2 L358.3,140.2
		L360.4,135.6 L362.5,131.1 L364.7,126.5 L366.8,123.5 L368.9,121.4 L371.1,118.2 L373.2,115.6 L375.3,111.6
		L377.5,111.0 L379.6,108.9 L381.7,107.3 L383.9,106.9 L386.0,106.8 L388.1,106.7 L390.3,106.7 L392.4,106.6
		L394.6,106.6 L396.7,106.6 L398.8,106.6 L401.0,106.4 L403.1,106.2 L405.2,104.0 L407.4,100.8 L409.5,94.8
		L411.6,81.8 L413.8,67.2 L415.9,60.3 L418.0,55.4 L420.2,54.6 L422.3,54.4 L424.4,54.3 L426.6,54.3
		L428.7,54.2 L430.9,54.2 L433.0,54.2 L435.1,54.2 L437.3,54.2 L439.4,54.2 L441.5,54.3 L443.7,54.3
		L445.8,54.2 L447.9,54.3 L450.1,54.4 L452.2,54.2 L454.3,54.3 L456.5,54.2 L458.6,54.2 L460.7,54.3
		L462.9,54.2 L465.0,54.2 L467.1,54.2 L469.3,54.3 L471.4,54.3 L473.6,54.2 L475.7,54.3 L477.8,54.3
		L480.0,54.3 L482.1,54.2 L484.2,54.3 L486.4,54.3 L488.5,54.3 L490.6,54.2 L492.8,54.2 L494.9,54.2
		L497.0,54.3 L499.2,54.2 L501.3,54.2 L503.4,54.2 L505.6,54.3 L507.7,54.2 L509.8,54.2 L512.0,54.3
		L514.1,54.3 L516.3,54.3 L518.4,54.2 L520.5,54.3 L522.7,54.2 L524.8,54.2 L526.9,54.3 L529.1,54.2
		L531.2,54.2 L533.3,54.2 L535.5,54.4 L537.6,54.2 L539.7,54.4 L541.9,54.3 L544.0,54.1 L546.1,54.2
		L548.3,54.3 L550.4,54.3 L552.6,54.2 L554.7,54.3 L556.8,54.3 L559.0,54.2 L561.1,54.2 L563.2,54.2
		L565.4,54.2 L567.5,54.2 L569.6,54.2 L571.8,54.3 L573.9,54.1 L576.0,54.2 L578.2,54.3 L580.3,54.3
		L582.4,54.2 L584.6,54.2 L586.7,54.3 L588.8,54.3 L591.0,54.2 L593.1,54.2 L595.3,54.2 L597.4,54.3
		L599.5,54.4 L601.7,54.3 L603.8,54.3 L605.9,54.2 L608.1,54.3 L610.2,54.3 L612.3,54.2 L614.5,54.3
		L616.6,54.2 L618.7,54.2 L620.9,54.2 L623.0,54.2 L625.1,54.3 L627.3,54.3 L629.4,54.3 L631.6,54.2
		L633.7,54.3 L635.8,54.3 L638.0,54.3 L640.1,54.2 L642.2,54.3 L644.4,54.3 L646.5,54.2 L648.6,54.1
		L650.8,54.3 L652.9,54.3 L655.0,54.2 L657.2,54.3 L659.3,54.3 L661.4,54.2 L663.6,54.3 L665.7,54.4
		L667.8,54.2 L670.0,54.3 L672.1,54.3 L674.3,54.3 L676.4,54.3 L678.5,54.3 L680.7,54.3 L682.8,54.3
		L684.9,54.3 L687.1,54.2 L689.2,54.2 L691.3,54.3 L693.5,54.4 L695.6,54.2 L697.7,54.3 L699.9,54.2
		L702.0,54.2 L704.1,54.1 L706.3,54.2 L708.4,54.2 L710.5,54.3 L712.7,54.2 L714.8,54.2 L717.0,54.3
		L719.1,54.3 L721.2,54.3 L723.4,54.2 L725.5,54.2 L727.6,54.3 L729.8,54.2 L731.9,54.2 L734.0,54.3
		L736.2,54.3 L738.3,54.2 L740.4,54.3 L742.6,54.2 L744.7,54.3 L746.8,54.3 L749.0,54.3 L751.1,54.2
		L753.3,54.3 L755.4,54.2 L757.5,54.2 L759.7,54.1 L761.8,54.3 L763.9,54.3 L766.1,54.2 L768.2,54.2
		L770.3,54.3 L772.5,54.3 L774.6,54.3 L776.7,54.1 L778.9,54.3 L781.0,54.3 L783.1,54.2 L785.3,54.2
		L787.4,54.3 L789.5,54.2 L791.7,54.1 L793.8,54.2 L796.0,54.3 L798.1,54.4 L800.2,54.3 L802.4,54.2
		L804.5,54.3 L806.6,54.3 L808.8,54.3 L810.9,54.2 L813.0,54.2 L815.2,54.3 L817.3,54.2 L819.4,54.3
		L821.6,54.3 L823.7,54.2 L825.8,54.2 L828.0,54.3 L830.1,54.3 L832.3,54.3 L834.4,54.4 L836.5,54.2
		L838.7,54.2 L840.8,54.2 L842.9,54.2 L845.1,54.3 L847.2,54.3 L849.3,54.3 L851.5,54.2 L853.6,54.2
		L855.7,54.2 L857.9,54.2 L860.0,54.2 L862.1,54.2 L864.3,54.4 L866.4,54.3 L868.5,54.3 L870.7,54.2
		L872.8,54.2 L875.0,54.3 L877.1,54.2 L879.2,54.2 L881.4,54.3 L883.5,54.3 L885.6,54.3 L887.8,54.2
		L889.9,54.2 L892.0,54.2 L894.2,54.3 L896.3,54.2 L898.4,54.3 L900.6,54.3 L902.7,54.3 L904.8,54.3
		L907.0,54.2 L909.1,54.2 L911.2,54.3 L913.4,54.2 L915.5,54.2 L917.7,54.3 L919.8,54.2 L921.9,54.2
		L924.1,54.2 L926.2,54.2 L928.3,54.3 L930.5,54.3 L932.6,54.2 L934.7,54.2 L936.9,54.2 L939.0,54.3
		L941.1,54.3 L943.3,54.2 L945.4,54.3 L947.5,54.3 L949.7,54.2 L951.8,54.2 L954.0,54.2 L956.1,54.2
		L958.2,54.2 L960.4,54.2 L962.5,54.3 L964.6,54.3 L966.8,54.2 L968.9,54.3 L971.0,54.2 L973.2,54.2
		L975.3,54.2 L977.4,54.1 L979.6,54.2 L981.7,54.2 L983.8,54.2 L986.0,54.2 L988.1,54.2 L990.2,54.2
		L992.4,54.2 L994.5,54.2 L996.7,54.3 L998.8,54.3 L1000.9,54.2 L1003.1,54.3 L1005.2,54.3 L1007.3,54.4
		L1009.5,54.3 L1011.6,54.3 L1013.7,54.2 L1015.9,54.2 L1018.0,54.3 L1020.1,54.2 L1022.3,54.2 L1024.4,54.2
		L1026.5,54.3 L1028.7,54.3 L1030.8,54.2 L1032.9,54.2 L1035.1,54.3 L1037.2,54.1 L1039.4,54.2 L1041.5,54.2
		L1043.6,54.2 L1045.8,54.2 L1047.9,54.3 L1050.0,54.2 L1052.2,54.3 L1054.3,54.3 L1056.4,54.2 L1058.6,54.2
		L1060.7,54.2 L1062.8,54.3 L1065.0,54.2 L1067.1,54.1 L1069.2,54.3 L1071.4,54.3 L1073.5,54.2 L1075.7,54.2
		L1077.8,54.2 L1079.9,54.4 L1082.1,54.3 L1084.2,54.3 L1086.3,54.3 L1088.5,54.3 L1090.6,54.3 L1092.7,54.2
		L1094.9,54.2 L1097.0,54.2 L1099.1,54.2 L1101.3,54.3 L1103.4,54.2 L1105.5,54.3 L1107.7,54.3 L1109.8,54.2
		L1111.9,54.2 L1114.1,54.3 L1116.2,54.2 L1118.4,54.3 L1120.5,54.2 L1122.6,54.2 L1124.8,54.2 L1126.9,54.2
		L1129.0,54.3 L1131.2,54.3 L1133.3,54.2 L1135.4,54.2 L1137.6,54.3 L1139.7,54.1 L1141.8,54.2 L1144.0,54.2
		L1146.1,54.3 L1148.2,54.3 L1150.4,54.2 L1152.5,54.2 L1154.7,54.3 L1156.8,54.3 L1158.9,54.3 L1161.1,54.2
		L1163.2,54.2 L1165.3,54.2 L1167.5,54.2 L1169.6,54.3 L1171.7,54.2 L1173.9,54.4 L1176.0,54.2 L1178.1,54.2
		L1180.3,54.2 L1182.4,54.3 L1184.5,54.3 L1186.7,54.3 L1188.8,54.2 L1190.9,54.3 L1193.1,54.3 L1195.2,54.2
		L1197.4,54.3 L1199.5,54.2 L1201.6,54.2 L1203.8,54.2 L1205.9,54.2 L1208.0,54.3 L1210.2,54.1 L1212.3,54.2
		L1214.4,54.2 L1216.6,54.3 L1218.7,54.3 L1220.8,54.2 L1223.0,54.2 L1225.1,54.3 L1227.2,54.2 L1229.4,54.2
		L1231.5,54.2 L1233.6,54.2 L1235.8,54.1 L1237.9,54.2 L1240.1,54.1 L1242.2,54.2 L1244.3,54.3 L1246.5,54.3
		L1248.6,54.2 L1250.7,54.2 L1252.9,54.2 L1255.0,54.3  '/></g>
	</g>
	<g id="gnuplot_plot_2" ><title>trendline (m=5.014709,b=-2178.620026)</title>
<g fill="none" color="black" stroke="currentColor" stroke-width="1.00" stroke-linecap="butt" stroke-linejoin="miter">
	<g transform="translate(1187.9,94.0)" stroke="none" fill="black" font-family="Arial" font-size="12.00"  text-anchor="end">
		<text><tspan font-family="Arial" >trendline (m=5.014709,b=-2178.620026)</tspan></text>
	</g>
</g>
<g fill="none" color="black" stroke="currentColor" stroke-width="1.00" stroke-linecap="butt" stroke-linejoin="miter">
	<path stroke='black'  d='M1196.2,90.1 L1238.4,90.1 M87.1,344.8 L98.9,340.6 L110.7,336.5 L122.5,332.3 L134.3,328.1 L146.1,323.9
		L157.9,319.7 L169.7,315.5 L181.5,311.4 L193.3,307.2 L205.1,303.0 L216.9,298.8 L228.7,294.6 L240.5,290.4
		L252.3,286.3 L264.1,282.1 L275.9,277.9 L287.6,273.7 L299.4,269.5 L311.2,265.3 L323.0,261.2 L334.8,257.0
		L346.6,252.8 L358.4,248.6 L370.2,244.4 L382.0,240.2 L393.8,236.1 L405.6,231.9 L417.4,227.7 L429.2,223.5
		L441.0,219.3 L452.8,215.1 L464.6,211.0 L476.4,206.8 L488.2,202.6 L500.0,198.4 L511.8,194.2 L523.6,190.1
		L535.4,185.9 L547.2,181.7 L559.0,177.5 L570.8,173.3 L582.6,169.1 L594.4,165.0 L606.2,160.8 L618.0,156.6
		L629.8,152.4 L641.6,148.2 L653.4,144.0 L665.2,139.9 L676.9,135.7 L688.7,131.5 L700.5,127.3 L712.3,123.1
		L724.1,118.9 L735.9,114.8 L747.7,110.6 L759.5,106.4 L771.3,102.2 L783.1,98.0 L794.9,93.8 L806.7,89.7
		L818.5,85.5 L830.3,81.3 L842.1,77.1 L853.9,72.9 L865.7,68.7 L877.5,64.6 L889.3,60.4 L901.1,56.2
		L907.0,54.1  '/></g>
	</g>
<g fill="none" color="white" stroke="black" stroke-width="2.00" stroke-linecap="butt" stroke-linejoin="miter">
</g>
<g fill="none" color="black" stroke="currentColor" stroke-width="2.00" stroke-linecap="butt" stroke-linejoin="miter">
</g>
<g fill="none" color="black" stroke="black" stroke-width="1.00" stroke-linecap="butt" stroke-linejoin="miter">
</g>
<g fill="none" color="black" stroke="currentColor" stroke-width="1.00" stroke-linecap="butt" stroke-linejoin="miter">
	<path stroke='black'  d='M87.1,54.1 L87.1,703.4 L1255.0,703.4 L1255.0,54.1 L87.1,54.1 Z  '/></g>
<g fill="none" color="black" stroke="currentColor" stroke-width="1.00" stroke-linecap="butt" stroke-linejoin="miter">
</g>
</g>
</svg>

