<?xml version="1.0" encoding="utf-8"  standalone="no"?>
<svg 
 width="1280" height="720"
 viewBox="0 0 1280 720"
 xmlns="http://www.w3.org/2000/svg"
 xmlns:xlink="http://www.w3.org/1999/xlink"
>

<title>Gnuplot</title>
<desc>Produced by GNUPLOT 5.0 patchlevel 6 </desc>

<g id="gnuplot_canvas">

<rect x="0" y="0" width="1280" height="720" fill="none"/>
<defs>

	<circle id='gpDot' r='0.5' stroke-width='0.5'/>
	<path id='gpPt0' stroke-width='0.222' stroke='currentColor' d='M-1,0 h2 M0,-1 v2'/>
	<path id='gpPt1' stroke-width='0.222' stroke='currentColor' d='M-1,-1 L1,1 M1,-1 L-1,1'/>
	<path id='gpPt2' stroke-width='0.222' stroke='currentColor' d='M-1,0 L1,0 M0,-1 L0,1 M-1,-1 L1,1 M-1,1 L1,-1'/>
	<rect id='gpPt3' stroke-width='0.222' stroke='currentColor' x='-1' y='-1' width='2' height='2'/>
	<rect id='gpPt4' stroke-width='0.222' stroke='currentColor' fill='currentColor' x='-1' y='-1' width='2' height='2'/>
	<circle id='gpPt5' stroke-width='0.222' stroke='currentColor' cx='0' cy='0' r='1'/>
	<use xlink:href='#gpPt5' id='gpPt6' fill='currentColor' stroke='none'/>
	<path id='gpPt7' stroke-width='0.222' stroke='currentColor' d='M0,-1.33 L-1.33,0.67 L1.33,0.67 z'/>
	<use xlink:href='#gpPt7' id='gpPt8' fill='currentColor' stroke='none'/>
	<use xlink:href='#gpPt7' id='gpPt9' stroke='currentColor' transform='rotate(180)'/>
	<use xlink:href='#gpPt9' id='gpPt10' fill='currentColor' stroke='none'/>
	<use xlink:href='#gpPt3' id='gpPt11' stroke='currentColor' transform='rotate(45)'/>
	<use xlink:href='#gpPt11' id='gpPt12' fill='currentColor' stroke='none'/>
	<path id='gpPt13' stroke-width='0.222' stroke='currentColor' d='M0,1.330 L1.265,0.411 L0.782,-1.067 L-0.782,-1.076 L-1.265,0.411 z'/>
	<use xlink:href='#gpPt13' id='gpPt14' fill='currentColor' stroke='none'/>
	<filter id='textbox' filterUnits='objectBoundingBox' x='0' y='0' height='1' width='1'>
	  <feFlood flood-color='white' flood-opacity='1' result='bgnd'/>
	  <feComposite in='SourceGraphic' in2='bgnd' operator='atop'/>
	</filter>
	<filter id='greybox' filterUnits='objectBoundingBox' x='0' y='0' height='1' width='1'>
	  <feFlood flood-color='lightgrey' flood-opacity='1' result='grey'/>
	  <feComposite in='SourceGraphic' in2='grey' operator='atop'/>
	</filter>
</defs>
<g fill="none" color="white" stroke="currentColor" stroke-width="1.00" stroke-linecap="butt" stroke-linejoin="miter">
</g>
<g fill="none" color="black" stroke="currentColor" stroke-width="1.00" stroke-linecap="butt" stroke-linejoin="miter">
	<path stroke='black'  d='M87.1,703.4 L96.1,703.4 M1255.0,703.4 L1246.0,703.4  '/>	<g transform="translate(78.8,707.3)" stroke="none" fill="black" font-family="Arial" font-size="12.00"  text-anchor="end">
		<text><tspan font-family="Arial" > 188.15</tspan></text>
	</g>
</g>
<g fill="none" color="black" stroke="currentColor" stroke-width="1.00" stroke-linecap="butt" stroke-linejoin="miter">
	<path stroke='black'  d='M87.1,141.5 L96.1,141.5 M1255.0,141.5 L1246.0,141.5  '/>	<g transform="translate(78.8,145.4)" stroke="none" fill="black" font-family="Arial" font-size="12.00"  text-anchor="end">
		<text><tspan font-family="Arial" > 230.124</tspan></text>
	</g>
</g>
<g fill="none" color="black" stroke="currentColor" stroke-width="1.00" stroke-linecap="butt" stroke-linejoin="miter">
	<path stroke='black'  d='M87.1,54.1 L96.1,54.1 M1255.0,54.1 L1246.0,54.1  '/>	<g transform="translate(78.8,58.0)" stroke="none" fill="black" font-family="Arial" font-size="12.00"  text-anchor="end">
		<text><tspan font-family="Arial" > 236.65</tspan></text>
	</g>
</g>
<g fill="none" color="black" stroke="currentColor" stroke-width="1.00" stroke-linecap="butt" stroke-linejoin="miter">
</g>
<g fill="none" color="black" stroke="currentColor" stroke-width="1.00" stroke-linecap="butt" stroke-linejoin="miter">
	<path stroke='black'  d='M87.1,54.1 L87.1,703.4 L1255.0,703.4 L1255.0,54.1 L87.1,54.1 Z  '/></g>
<g fill="none" color="black" stroke="currentColor" stroke-width="1.00" stroke-linecap="butt" stroke-linejoin="miter">
	<g transform="translate(671.0,31.0)" stroke="none" fill="black" font-family="Arial" font-size="12.00"  text-anchor="middle">
		<text><tspan font-family="Arial" >Material 31, 8 components</tspan></text>
	</g>
</g>
	<g id="gnuplot_plot_1" ><title>log(likelihood)</title>
<g fill="none" color="black" stroke="currentColor" stroke-width="1.00" stroke-linecap="butt" stroke-linejoin="miter">
	<g transform="translate(1187.9,76.0)" stroke="none" fill="black" font-family="Arial" font-size="12.00"  text-anchor="end">
		<text><tspan font-family="Arial" >log(likelihood)</tspan></text>
	</g>
</g>
<g fill="none" color="black" stroke="currentColor" stroke-width="1.00" stroke-linecap="butt" stroke-linejoin="miter">
	<g stroke='none' shape-rendering='crispEdges'>
		<polygon fill = 'rgb(148,   0, 211)' fill-opacity = '0.100000' points = '1196.2,76.6 1238.4,76.6 1238.4,67.6 1196.2,67.6 '/>
	</g>
	<path stroke='rgb(148,   0, 211)'  d='M1196.2,76.6 L1238.4,76.6 L1238.4,67.6 L1196.2,67.6 L1196.2,76.6 Z  '/></g>
<g fill="none" color="black" stroke="currentColor" stroke-width="1.00" stroke-linecap="butt" stroke-linejoin="miter">
	<g stroke='none' shape-rendering='crispEdges'>
		<polygon fill = 'rgb(148,   0, 211)' fill-opacity = '0.100000' points = '87.1,702.9 87.7,702.9 88.3,703.0 88.9,703.4 89.5,699.3 90.2,697.2 90.8,679.3 91.4,624.2 92.0,512.3 92.6,495.3 93.2,506.2 93.8,424.5 94.4,454.6 95.0,387.2 95.7,406.8 96.3,424.1
96.9,402.6 97.5,409.7 98.1,372.5 98.7,353.0 99.3,377.4 99.9,388.5 100.5,362.0 101.1,349.5 101.8,343.5 102.4,345.5 103.0,346.8 103.6,352.8 104.2,355.1 104.8,357.7 105.4,345.7 106.0,343.8
106.6,349.2 107.3,348.1 107.9,359.9 108.5,348.9 109.1,349.6 109.7,295.4 110.3,356.1 110.9,332.2 111.5,345.3 112.1,337.5 112.8,342.0 113.4,318.5 114.0,338.6 114.6,327.9 115.2,327.1 115.8,295.9
116.4,350.2 117.0,321.9 117.6,313.8 118.3,303.2 118.9,304.9 119.5,326.4 120.1,330.7 120.7,289.6 121.3,254.5 121.9,299.9 122.5,299.6 123.1,289.1 123.7,277.6 124.4,294.8 125.0,275.0 125.6,277.4
126.2,292.8 126.8,286.2 127.4,284.0 128.0,281.5 128.6,281.5 129.2,257.3 129.9,262.6 130.5,264.2 131.1,264.2 131.7,264.2 132.3,301.9 132.9,266.3 133.5,266.5 134.1,279.7 134.7,287.3 135.4,276.0
136.0,278.0 136.6,276.4 137.2,233.2 137.8,239.4 138.4,270.0 139.0,284.9 139.6,267.5 140.2,267.3 140.9,258.9 141.5,258.9 142.1,278.8 142.7,297.0 143.3,279.8 143.9,277.4 144.5,284.2 145.1,289.6
145.7,280.6 146.4,266.3 147.0,260.9 147.6,261.7 148.2,233.8 148.8,285.3 149.4,289.7 150.0,255.7 150.6,237.0 151.2,234.2 151.8,229.3 152.5,237.3 153.1,246.7 153.7,237.0 154.3,254.7 154.9,258.9
155.5,260.5 156.1,243.9 156.7,254.7 157.3,263.9 158.0,253.3 158.6,219.8 159.2,235.3 159.8,239.6 160.4,248.1 161.0,228.6 161.6,209.6 162.2,209.6 162.8,205.1 163.5,231.0 164.1,221.6 164.7,203.5
165.3,211.5 165.9,217.2 166.5,211.8 167.1,211.8 167.7,203.4 168.3,222.5 169.0,231.3 169.6,236.1 170.2,217.5 170.8,204.6 171.4,222.9 172.0,253.6 172.6,250.3 173.2,251.1 173.8,247.0 174.4,216.2
175.1,233.8 175.7,209.1 176.3,211.7 176.9,243.4 177.5,243.4 178.1,227.8 178.7,255.1 179.3,248.1 179.9,243.1 180.6,250.0 181.2,235.9 181.8,214.7 182.4,214.7 183.0,245.0 183.6,216.4 184.2,216.2
184.8,208.9 185.4,200.5 186.1,257.2 186.7,247.4 187.3,237.1 187.9,227.1 188.5,217.3 189.1,223.3 189.7,211.6 190.3,237.0 190.9,206.1 191.6,230.4 192.2,233.1 192.8,230.7 193.4,220.1 194.0,219.1
194.6,210.2 195.2,246.7 195.8,233.1 196.4,232.9 197.0,226.9 197.7,221.9 198.3,219.3 198.9,229.8 199.5,224.4 200.1,212.7 200.7,216.3 201.3,226.8 201.9,238.1 202.5,213.0 203.2,213.0 203.8,232.0
204.4,222.1 205.0,220.9 205.6,217.8 206.2,210.5 206.8,210.5 207.4,219.2 208.0,227.8 208.7,222.2 209.3,235.6 209.9,232.6 210.5,214.5 211.1,227.7 211.7,231.5 212.3,229.8 212.9,234.7 213.5,233.7
214.2,235.7 214.8,246.2 215.4,229.9 216.0,218.9 216.6,211.1 217.2,227.1 217.8,238.9 218.4,236.7 219.0,219.7 219.6,247.2 220.3,238.3 220.9,212.8 221.5,212.8 222.1,208.2 222.7,210.2 223.3,216.8
223.9,222.2 224.5,220.4 225.1,203.1 225.8,186.1 226.4,247.3 227.0,247.3 227.6,235.4 228.2,219.3 228.8,217.2 229.4,217.2 230.0,223.1 230.6,238.8 231.3,200.0 231.9,200.0 232.5,233.2 233.1,238.8
233.7,229.3 234.3,228.9 234.9,226.5 235.5,221.6 236.1,221.6 236.8,196.0 237.4,212.0 238.0,198.4 238.6,202.1 239.2,200.5 239.8,226.3 240.4,233.9 241.0,217.3 241.6,213.0 242.2,224.4 242.9,224.4
243.5,221.4 244.1,205.5 244.7,201.1 245.3,192.9 245.9,208.3 246.5,218.6 247.1,217.0 247.7,218.7 248.4,209.8 249.0,211.1 249.6,220.7 250.2,226.6 250.8,224.6 251.4,230.0 252.0,230.0 252.6,219.3
253.2,212.2 253.9,222.2 254.5,236.2 255.1,232.6 255.7,210.1 256.3,210.1 256.9,229.4 257.5,234.4 258.1,201.9 258.7,219.9 259.4,218.2 260.0,224.3 260.6,226.9 261.2,209.9 261.8,207.4 262.4,232.0
263.0,225.7 263.6,224.5 264.2,213.3 264.9,201.2 265.5,212.0 266.1,218.2 266.7,201.3 267.3,180.3 267.9,219.3 268.5,212.8 269.1,196.1 269.7,215.0 270.3,207.4 271.0,207.4 271.6,215.1 272.2,215.1
272.8,225.8 273.4,195.3 274.0,189.5 274.6,190.5 275.2,190.5 275.8,221.2 276.5,217.3 277.1,220.7 277.7,218.5 278.3,218.5 278.9,218.1 279.5,218.1 280.1,210.3 280.7,215.9 281.3,235.2 282.0,235.4
282.6,229.3 283.2,228.6 283.8,232.5 284.4,237.9 285.0,237.6 285.6,240.0 286.2,198.4 286.8,198.4 287.5,211.6 288.1,218.6 288.7,216.0 289.3,198.3 289.9,188.3 290.5,194.1 291.1,189.1 291.7,207.8
292.3,189.9 292.9,195.8 293.6,188.1 294.2,229.5 294.8,208.6 295.4,203.3 296.0,209.9 296.6,212.4 297.2,216.1 297.8,216.1 298.4,222.0 299.1,224.5 299.7,227.0 300.3,177.7 300.9,234.6 301.5,225.0
302.1,222.4 302.7,225.1 303.3,220.7 303.9,222.5 304.6,166.6 305.2,166.2 305.8,166.2 306.4,173.3 307.0,183.8 307.6,192.2 308.2,181.6 308.8,211.9 309.4,209.8 310.1,212.2 310.7,212.0 311.3,211.7
311.9,186.5 312.5,196.6 313.1,188.5 313.7,186.2 314.3,197.9 314.9,195.0 315.5,181.6 316.2,175.5 316.8,185.4 317.4,198.2 318.0,172.1 318.6,168.8 319.2,171.5 319.8,165.6 320.4,152.4 321.0,160.8
321.7,194.0 322.3,187.7 322.9,194.3 323.5,208.5 324.1,191.8 324.7,203.9 325.3,219.1 325.9,205.2 326.5,202.8 327.2,170.1 327.8,169.0 328.4,188.7 329.0,180.4 329.6,205.5 330.2,212.7 330.8,207.3
331.4,212.7 332.0,209.3 332.7,191.3 333.3,192.5 333.9,177.3 334.5,185.3 335.1,192.6 335.7,191.5 336.3,191.5 336.9,152.6 337.5,157.0 338.1,186.8 338.8,188.6 339.4,160.4 340.0,181.7 340.6,158.6
341.2,162.0 341.8,193.2 342.4,178.9 343.0,195.0 343.6,187.4 344.3,198.5 344.9,186.8 345.5,184.8 346.1,181.3 346.7,181.2 347.3,163.0 347.9,163.0 348.5,158.0 349.1,158.0 349.8,176.3 350.4,149.3
351.0,147.3 351.6,148.3 352.2,165.4 352.8,167.6 353.4,169.5 354.0,157.1 354.6,160.6 355.3,149.5 355.9,151.0 356.5,134.4 357.1,144.5 357.7,155.6 358.3,155.6 358.9,155.8 359.5,152.8 360.1,158.9
360.8,158.9 361.4,149.5 362.0,150.8 362.6,150.8 363.2,148.9 363.8,142.7 364.4,146.5 365.0,146.5 365.6,146.5 366.2,150.6 366.9,154.9 367.5,155.3 368.1,154.0 368.7,147.4 369.3,141.4 369.9,129.0
370.5,126.8 371.1,138.3 371.7,123.0 372.4,129.2 373.0,129.2 373.6,136.9 374.2,132.7 374.8,145.0 375.4,144.9 376.0,194.9 376.6,188.4 377.2,160.9 377.9,161.0 378.5,171.8 379.1,176.9 379.7,181.1
380.3,181.1 380.9,181.1 381.5,181.1 382.1,109.6 382.7,132.7 383.4,132.7 384.0,129.3 384.6,129.3 385.2,101.4 385.8,155.3 386.4,153.4 387.0,163.8 387.6,176.4 388.2,138.2 388.8,154.4 389.5,133.5
390.1,162.8 390.7,167.5 391.3,167.5 391.9,112.9 392.5,157.6 393.1,90.7 393.7,148.8 394.3,161.4 395.0,161.4 395.6,161.4 396.2,161.0 396.8,161.0 397.4,162.6 398.0,162.6 398.6,152.7 399.2,164.6
399.8,139.5 400.5,134.7 401.1,110.5 401.7,112.3 402.3,112.3 402.9,121.2 403.5,159.4 404.1,175.3 404.7,175.3 405.3,158.8 406.0,137.3 406.6,170.1 407.2,171.2 407.8,151.2 408.4,156.1 409.0,172.0
409.6,178.9 410.2,178.9 410.8,132.9 411.4,102.8 412.1,99.0 412.7,98.7 413.3,98.7 413.9,95.3 414.5,115.8 415.1,117.4 415.7,114.9 416.3,169.8 416.9,169.8 417.6,154.0 418.2,164.8 418.8,167.7
419.4,169.8 420.0,168.4 420.6,169.8 421.2,188.9 421.8,145.4 422.4,145.2 423.1,145.2 423.7,145.2 424.3,168.3 424.9,169.4 425.5,169.4 426.1,169.4 426.7,169.4 427.3,165.5 427.9,158.5 428.6,150.5
429.2,145.6 429.8,181.0 430.4,150.3 431.0,144.1 431.6,160.7 432.2,150.9 432.8,129.7 433.4,144.5 434.0,129.7 434.7,129.7 435.3,154.9 435.9,127.2 436.5,137.0 437.1,133.4 437.7,143.7 438.3,126.6
438.9,130.7 439.5,153.8 440.2,150.8 440.8,150.8 441.4,172.4 442.0,166.8 442.6,158.0 443.2,158.0 443.8,154.9 444.4,154.9 445.0,154.9 445.7,135.7 446.3,154.9 446.9,151.6 447.5,154.9 448.1,163.4
448.7,163.4 449.3,165.3 449.9,165.3 450.5,165.3 451.2,164.2 451.8,164.2 452.4,154.7 453.0,156.3 453.6,154.3 454.2,139.6 454.8,166.1 455.4,153.9 456.0,169.8 456.6,163.0 457.3,173.0 457.9,159.6
458.5,156.3 459.1,145.7 459.7,133.7 460.3,133.7 460.9,134.6 461.5,161.9 462.1,111.3 462.8,138.8 463.4,132.2 464.0,132.2 464.6,126.1 465.2,126.1 465.8,139.5 466.4,139.5 467.0,102.4 467.6,102.4
468.3,107.0 468.9,101.6 469.5,101.6 470.1,98.6 470.7,98.6 471.3,100.0 471.9,115.2 472.5,115.2 473.1,95.4 473.8,95.4 474.4,95.4 475.0,114.1 475.6,110.0 476.2,134.0 476.8,97.8 477.4,157.8
478.0,161.7 478.6,171.3 479.3,156.3 479.9,156.3 480.5,123.6 481.1,155.3 481.7,155.3 482.3,156.0 482.9,154.9 483.5,142.7 484.1,116.4 484.7,102.4 485.4,102.9 486.0,108.7 486.6,138.3 487.2,138.3
487.8,138.3 488.4,137.4 489.0,138.3 489.6,127.6 490.2,122.1 490.9,122.1 491.5,122.1 492.1,95.7 492.7,96.5 493.3,97.1 493.9,97.1 494.5,97.1 495.1,102.1 495.7,102.1 496.4,102.1 497.0,102.1
497.6,102.1 498.2,97.5 498.8,97.5 499.4,100.3 500.0,106.5 500.6,106.5 501.2,132.5 501.9,123.1 502.5,132.1 503.1,132.1 503.7,139.6 504.3,140.9 504.9,131.5 505.5,126.0 506.1,119.7 506.7,119.7
507.3,119.7 508.0,128.1 508.6,122.2 509.2,106.8 509.8,134.9 510.4,101.3 511.0,101.3 511.6,111.3 512.2,133.4 512.8,133.4 513.5,133.4 514.1,130.0 514.7,130.0 515.3,131.5 515.9,131.5 516.5,133.6
517.1,135.0 517.7,126.1 518.3,117.9 519.0,117.9 519.6,117.9 520.2,137.7 520.8,124.5 521.4,127.1 522.0,140.1 522.6,105.4 523.2,105.4 523.8,103.2 524.5,116.5 525.1,106.8 525.7,97.3 526.3,98.2
526.9,123.1 527.5,123.1 528.1,130.7 528.7,127.5 529.3,118.8 529.9,104.4 530.6,107.4 531.2,116.8 531.8,115.9 532.4,112.3 533.0,128.6 533.6,125.2 534.2,130.9 534.8,117.6 535.4,94.8 536.1,101.7
536.7,91.5 537.3,107.5 537.9,104.4 538.5,131.9 539.1,159.8 539.7,119.0 540.3,128.3 540.9,128.3 541.6,135.3 542.2,130.2 542.8,116.7 543.4,118.0 544.0,114.8 544.6,89.5 545.2,111.3 545.8,111.3
546.4,107.5 547.1,111.3 547.7,100.2 548.3,100.2 548.9,105.5 549.5,102.1 550.1,102.1 550.7,96.0 551.3,125.4 551.9,125.4 552.5,127.1 553.2,91.4 553.8,91.4 554.4,95.0 555.0,109.5 555.6,109.5
556.2,113.4 556.8,137.0 557.4,137.2 558.0,136.4 558.7,159.2 559.3,124.8 559.9,124.1 560.5,124.1 561.1,126.6 561.7,130.7 562.3,130.5 562.9,124.2 563.5,109.5 564.2,101.8 564.8,107.4 565.4,107.4
566.0,102.2 566.6,102.2 567.2,126.1 567.8,126.1 568.4,126.1 569.0,121.0 569.7,126.1 570.3,126.1 570.9,126.1 571.5,114.6 572.1,118.8 572.7,111.3 573.3,129.2 573.9,135.0 574.5,135.0 575.2,135.0
575.8,135.0 576.4,135.0 577.0,135.0 577.6,135.0 578.2,122.6 578.8,122.5 579.4,121.4 580.0,143.1 580.6,146.1 581.3,140.6 581.9,133.6 582.5,129.0 583.1,128.7 583.7,134.7 584.3,92.6 584.9,96.4
585.5,96.4 586.1,122.7 586.8,120.7 587.4,115.5 588.0,102.8 588.6,114.5 589.2,114.3 589.8,114.3 590.4,107.4 591.0,114.3 591.6,114.3 592.3,118.6 592.9,118.6 593.5,117.7 594.1,127.5 594.7,127.5
595.3,126.9 595.9,117.6 596.5,123.4 597.1,125.6 597.8,126.8 598.4,121.2 599.0,130.1 599.6,106.4 600.2,106.7 600.8,106.7 601.4,131.0 602.0,134.8 602.6,134.8 603.2,134.8 603.9,134.8 604.5,134.8
605.1,126.9 605.7,130.6 606.3,130.6 606.9,130.6 607.5,130.6 608.1,130.6 608.7,124.4 609.4,115.1 610.0,115.1 610.6,130.4 611.2,116.7 611.8,108.4 612.4,108.6 613.0,107.5 613.6,107.5 614.2,103.8
614.9,109.2 615.5,105.2 616.1,105.2 616.7,105.2 617.3,111.1 617.9,113.6 618.5,121.7 619.1,119.3 619.7,117.2 620.4,112.9 621.0,108.7 621.6,102.9 622.2,91.4 622.8,90.8 623.4,99.1 624.0,101.6
624.6,101.6 625.2,96.6 625.8,98.2 626.5,117.1 627.1,108.9 627.7,110.2 628.3,100.8 628.9,100.8 629.5,95.4 630.1,95.4 630.7,94.4 631.3,103.4 632.0,101.5 632.6,101.5 633.2,102.8 633.8,103.6
634.4,103.6 635.0,117.0 635.6,117.0 636.2,99.9 636.8,110.7 637.5,110.7 638.1,110.7 638.7,93.5 639.3,96.0 639.9,99.5 640.5,100.3 641.1,134.8 641.7,134.8 642.3,99.3 643.0,108.4 643.6,108.4
644.2,108.4 644.8,108.4 645.4,108.4 646.0,120.4 646.6,115.8 647.2,134.0 647.8,128.9 648.4,127.5 649.1,116.2 649.7,116.0 650.3,99.7 650.9,99.2 651.5,99.2 652.1,99.2 652.7,95.1 653.3,107.2
653.9,107.2 654.6,105.2 655.2,105.2 655.8,107.3 656.4,107.5 657.0,103.5 657.6,103.5 658.2,90.0 658.8,108.2 659.4,108.2 660.1,108.2 660.7,118.1 661.3,109.8 661.9,131.2 662.5,115.3 663.1,81.3
663.7,81.3 664.3,80.0 664.9,103.7 665.6,103.7 666.2,130.1 666.8,130.3 667.4,124.2 668.0,104.2 668.6,129.5 669.2,112.3 669.8,135.2 670.4,116.9 671.1,112.1 671.7,114.0 672.3,107.9 672.9,116.7
673.5,123.1 674.1,117.1 674.7,123.1 675.3,123.1 675.9,123.1 676.5,144.9 677.2,119.3 677.8,119.3 678.4,119.3 679.0,86.6 679.6,86.6 680.2,84.7 680.8,84.7 681.4,84.7 682.0,84.8 682.7,84.8
683.3,108.5 683.9,108.5 684.5,105.5 685.1,128.3 685.7,102.5 686.3,127.1 686.9,126.0 687.5,129.7 688.2,133.7 688.8,114.0 689.4,132.6 690.0,120.3 690.6,129.4 691.2,120.8 691.8,126.3 692.4,133.4
693.0,133.4 693.7,111.2 694.3,93.4 694.9,104.2 695.5,107.7 696.1,104.0 696.7,108.6 697.3,89.7 697.9,89.3 698.5,89.8 699.1,96.7 699.8,117.2 700.4,120.4 701.0,96.3 701.6,96.3 702.2,90.0
702.8,89.1 703.4,89.1 704.0,89.1 704.6,110.0 705.3,96.6 705.9,91.8 706.5,91.8 707.1,91.2 707.7,105.3 708.3,108.7 708.9,109.1 709.5,108.4 710.1,101.8 710.8,87.9 711.4,83.9 712.0,86.4
712.6,101.9 713.2,129.4 713.8,127.4 714.4,129.2 715.0,120.6 715.6,117.1 716.3,117.1 716.9,119.5 717.5,87.8 718.1,118.9 718.7,118.9 719.3,112.6 719.9,106.4 720.5,102.2 721.1,102.2 721.7,111.8
722.4,105.5 723.0,105.5 723.6,105.5 724.2,105.5 724.8,105.5 725.4,105.5 726.0,120.7 726.6,114.3 727.2,114.3 727.9,129.8 728.5,110.6 729.1,139.4 729.7,93.4 730.3,89.3 730.9,89.3 731.5,78.7
732.1,78.7 732.7,93.8 733.4,108.0 734.0,109.7 734.6,98.2 735.2,109.7 735.8,118.8 736.4,98.3 737.0,102.5 737.6,97.2 738.2,108.3 738.9,100.5 739.5,112.6 740.1,104.0 740.7,103.2 741.3,103.2
741.9,92.5 742.5,96.8 743.1,101.2 743.7,113.0 744.3,113.0 745.0,113.0 745.6,106.5 746.2,105.3 746.8,130.5 747.4,135.6 748.0,106.3 748.6,106.3 749.2,106.3 749.8,128.3 750.5,128.8 751.1,125.3
751.7,124.6 752.3,115.0 752.9,121.1 753.5,122.7 754.1,122.2 754.7,122.2 755.3,122.2 756.0,119.0 756.6,116.4 757.2,111.8 757.8,116.8 758.4,121.5 759.0,121.5 759.6,118.6 760.2,118.6 760.8,101.9
761.5,135.1 762.1,116.0 762.7,108.1 763.3,112.5 763.9,108.8 764.5,87.5 765.1,88.6 765.7,103.3 766.3,106.3 766.9,144.0 767.6,146.5 768.2,142.9 768.8,118.0 769.4,117.7 770.0,115.3 770.6,107.5
771.2,97.4 771.8,97.4 772.4,97.1 773.1,104.1 773.7,107.6 774.3,114.2 774.9,123.5 775.5,110.4 776.1,111.7 776.7,95.9 777.3,108.9 777.9,81.1 778.6,81.1 779.2,94.8 779.8,101.9 780.4,94.3
781.0,94.6 781.6,94.6 782.2,94.6 782.8,94.4 783.4,89.6 784.1,100.4 784.7,104.6 785.3,130.2 785.9,130.2 786.5,130.2 787.1,112.4 787.7,112.4 788.3,112.4 788.9,110.8 789.6,110.4 790.2,110.4
790.8,116.8 791.4,114.1 792.0,104.6 792.6,104.6 793.2,101.6 793.8,101.2 794.4,101.2 795.0,132.1 795.7,132.1 796.3,132.7 796.9,132.7 797.5,94.0 798.1,115.1 798.7,100.5 799.3,100.5 799.9,121.4
800.5,112.7 801.2,112.7 801.8,120.5 802.4,97.6 803.0,93.2 803.6,89.6 804.2,89.6 804.8,105.7 805.4,91.7 806.0,91.7 806.7,107.2 807.3,108.6 807.9,133.2 808.5,134.6 809.1,119.4 809.7,126.0
810.3,119.2 810.9,119.2 811.5,120.1 812.2,123.7 812.8,113.3 813.4,114.3 814.0,114.3 814.6,124.4 815.2,110.9 815.8,111.1 816.4,101.5 817.0,101.5 817.6,101.5 818.3,124.0 818.9,116.7 819.5,107.8
820.1,101.6 820.7,133.7 821.3,112.5 821.9,112.5 822.5,119.0 823.1,119.0 823.8,117.6 824.4,129.4 825.0,126.7 825.6,109.7 826.2,106.7 826.8,102.6 827.4,118.4 828.0,117.2 828.6,125.5 829.3,125.3
829.9,111.6 830.5,107.4 831.1,116.6 831.7,116.3 832.3,115.9 832.9,115.9 833.5,115.9 834.1,131.1 834.8,139.6 835.4,138.5 836.0,123.7 836.6,128.1 837.2,109.8 837.8,109.8 838.4,109.8 839.0,110.8
839.6,117.4 840.2,132.6 840.9,132.6 841.5,132.6 842.1,132.6 842.7,118.6 843.3,129.8 843.9,129.8 844.5,117.7 845.1,130.3 845.7,134.6 846.4,134.6 847.0,121.5 847.6,122.5 848.2,122.5 848.8,146.8
849.4,134.6 850.0,133.3 850.6,127.2 851.2,123.7 851.9,132.3 852.5,124.7 853.1,128.5 853.7,121.6 854.3,121.6 854.9,119.7 855.5,118.3 856.1,118.3 856.7,117.5 857.4,118.4 858.0,124.1 858.6,124.1
859.2,136.0 859.8,123.3 860.4,98.6 861.0,111.6 861.6,111.6 862.2,111.6 862.8,105.9 863.5,105.9 864.1,105.9 864.7,111.7 865.3,104.5 865.9,129.4 866.5,127.6 867.1,129.4 867.7,146.6 868.3,130.1
869.0,129.9 869.6,130.2 870.2,118.9 870.8,123.7 871.4,119.0 872.0,118.8 872.6,118.8 873.2,117.3 873.8,117.3 874.5,117.6 875.1,117.6 875.7,114.9 876.3,114.9 876.9,115.8 877.5,114.3 878.1,114.3
878.7,103.1 879.3,124.3 880.0,117.3 880.6,120.5 881.2,120.5 881.8,126.6 882.4,134.4 883.0,127.0 883.6,127.0 884.2,126.2 884.8,114.4 885.5,110.4 886.1,111.7 886.7,109.3 887.3,107.9 887.9,107.8
888.5,107.8 889.1,113.8 889.7,100.9 890.3,100.9 890.9,101.2 891.6,98.5 892.2,101.1 892.8,98.5 893.4,98.5 894.0,98.5 894.6,100.5 895.2,101.4 895.8,101.4 896.4,101.4 897.1,104.3 897.7,102.0
898.3,97.2 898.9,109.9 899.5,108.9 900.1,117.3 900.7,112.1 901.3,104.9 901.9,108.3 902.6,101.7 903.2,101.7 903.8,99.4 904.4,98.4 905.0,98.4 905.6,105.3 906.2,105.3 906.8,108.5 907.4,105.3
908.1,105.7 908.7,111.9 909.3,112.8 909.9,103.1 910.5,105.9 911.1,113.0 911.7,116.3 912.3,116.3 912.9,116.3 913.5,104.0 914.2,111.0 914.8,112.3 915.4,101.0 916.0,110.7 916.6,110.7 917.2,112.4
917.8,112.4 918.4,111.4 919.0,109.9 919.7,111.3 920.3,113.1 920.9,108.7 921.5,97.4 922.1,120.6 922.7,90.1 923.3,91.3 923.9,91.3 924.5,114.3 925.2,114.1 925.8,101.6 926.4,110.1 927.0,111.1
927.6,121.0 928.2,121.0 928.8,115.5 929.4,114.9 930.0,114.9 930.7,99.8 931.3,100.0 931.9,110.2 932.5,109.9 933.1,105.6 933.7,105.6 934.3,117.1 934.9,114.9 935.5,115.5 936.1,114.3 936.8,114.3
937.4,114.3 938.0,94.2 938.6,110.5 939.2,110.5 939.8,110.5 940.4,103.3 941.0,97.0 941.6,97.0 942.3,96.0 942.9,96.2 943.5,96.2 944.1,108.4 944.7,106.0 945.3,106.0 945.9,106.6 946.5,87.9
947.1,83.1 947.8,83.1 948.4,83.1 949.0,83.1 949.6,85.3 950.2,84.6 950.8,91.6 951.4,97.3 952.0,97.3 952.6,95.0 953.3,95.8 953.9,97.4 954.5,89.1 955.1,89.1 955.7,87.6 956.3,87.6
956.9,105.6 957.5,105.3 958.1,92.0 958.7,103.7 959.4,103.7 960.0,98.4 960.6,122.8 961.2,114.0 961.8,114.0 962.4,111.4 963.0,114.6 963.6,88.1 964.2,85.5 964.9,85.5 965.5,93.2 966.1,123.7
966.7,115.6 967.3,116.0 967.9,109.0 968.5,103.2 969.1,103.2 969.7,102.9 970.4,102.9 971.0,102.9 971.6,99.5 972.2,99.5 972.8,103.7 973.4,113.7 974.0,117.5 974.6,113.5 975.2,113.5 975.9,113.5
976.5,111.9 977.1,117.1 977.7,74.7 978.3,75.1 978.9,100.8 979.5,115.3 980.1,110.4 980.7,114.0 981.3,107.1 982.0,96.8 982.6,96.8 983.2,89.7 983.8,89.7 984.4,94.5 985.0,114.8 985.6,114.8
986.2,95.7 986.8,121.5 987.5,90.6 988.1,121.5 988.7,121.5 989.3,121.5 989.9,121.5 990.5,121.5 991.1,123.7 991.7,114.6 992.3,114.6 993.0,114.6 993.6,114.6 994.2,114.6 994.8,114.6 995.4,113.8
996.0,84.8 996.6,83.1 997.2,80.7 997.8,80.7 998.5,80.7 999.1,98.1 999.7,98.1 1000.3,98.1 1000.9,98.1 1001.5,92.7 1002.1,96.4 1002.7,88.5 1003.3,96.4 1004.0,97.7 1004.6,97.0 1005.2,94.6
1005.8,94.6 1006.4,92.9 1007.0,92.9 1007.6,92.9 1008.2,74.7 1008.8,73.4 1009.4,73.4 1010.1,93.2 1010.7,80.2 1011.3,85.7 1011.9,98.3 1012.5,98.3 1013.1,98.3 1013.7,113.2 1014.3,97.5 1014.9,99.4
1015.6,99.4 1016.2,99.3 1016.8,135.7 1017.4,102.0 1018.0,102.0 1018.6,104.2 1019.2,117.5 1019.8,115.1 1020.4,108.8 1021.1,100.4 1021.7,99.0 1022.3,99.0 1022.9,93.0 1023.5,98.2 1024.1,98.2 1024.7,98.2
1025.3,98.2 1025.9,84.3 1026.6,102.3 1027.2,102.3 1027.8,91.3 1028.4,91.3 1029.0,87.4 1029.6,87.4 1030.2,87.4 1030.8,86.5 1031.4,86.5 1032.0,86.5 1032.7,91.3 1033.3,95.0 1033.9,104.1 1034.5,93.6
1035.1,91.9 1035.7,75.6 1036.3,75.6 1036.9,88.6 1037.5,101.9 1038.2,118.7 1038.8,118.7 1039.4,117.5 1040.0,100.2 1040.6,90.6 1041.2,90.9 1041.8,87.2 1042.4,106.7 1043.0,99.7 1043.7,99.7 1044.3,93.0
1044.9,93.8 1045.5,98.6 1046.1,110.2 1046.7,110.2 1047.3,97.1 1047.9,111.1 1048.5,97.9 1049.2,97.9 1049.8,102.1 1050.4,116.5 1051.0,108.5 1051.6,109.0 1052.2,109.0 1052.8,109.0 1053.4,110.9 1054.0,110.9
1054.6,118.2 1055.3,113.5 1055.9,113.8 1056.5,123.0 1057.1,123.6 1057.7,125.9 1058.3,126.5 1058.9,85.9 1059.5,85.9 1060.1,86.0 1060.8,86.0 1061.4,86.0 1062.0,92.8 1062.6,94.1 1063.2,113.3 1063.8,82.7
1064.4,91.7 1065.0,89.9 1065.6,87.6 1066.3,121.1 1066.9,121.1 1067.5,124.6 1068.1,124.6 1068.7,140.9 1069.3,91.5 1069.9,93.0 1070.5,93.0 1071.1,93.0 1071.8,87.7 1072.4,89.4 1073.0,89.4 1073.6,76.7
1074.2,76.7 1074.8,80.7 1075.4,80.7 1076.0,80.7 1076.6,100.4 1077.2,100.4 1077.9,100.4 1078.5,100.4 1079.1,87.0 1079.7,98.8 1080.3,86.4 1080.9,98.9 1081.5,96.6 1082.1,84.0 1082.7,100.5 1083.4,91.9
1084.0,97.2 1084.6,99.3 1085.2,99.3 1085.8,99.3 1086.4,88.1 1087.0,88.1 1087.6,88.1 1088.2,90.1 1088.9,75.8 1089.5,75.8 1090.1,72.7 1090.7,72.7 1091.3,80.4 1091.9,80.4 1092.5,79.0 1093.1,79.0
1093.7,94.5 1094.4,97.9 1095.0,90.2 1095.6,102.1 1096.2,102.1 1096.8,98.2 1097.4,98.2 1098.0,94.9 1098.6,93.6 1099.2,102.0 1099.9,91.1 1100.5,91.1 1101.1,88.6 1101.7,86.6 1102.3,86.0 1102.9,86.0
1103.5,88.5 1104.1,89.0 1104.7,89.0 1105.3,89.0 1106.0,89.0 1106.6,90.7 1107.2,87.9 1107.8,87.9 1108.4,90.1 1109.0,101.3 1109.6,90.9 1110.2,75.7 1110.8,90.8 1111.5,104.1 1112.1,100.1 1112.7,92.6
1113.3,104.4 1113.9,96.5 1114.5,73.7 1115.1,74.6 1115.7,83.7 1116.3,79.1 1117.0,81.4 1117.6,94.9 1118.2,90.5 1118.8,90.0 1119.4,90.0 1120.0,102.5 1120.6,97.6 1121.2,97.1 1121.8,99.1 1122.5,99.1
1123.1,91.3 1123.7,91.3 1124.3,96.1 1124.9,95.3 1125.5,75.4 1126.1,70.3 1126.7,76.7 1127.3,99.6 1127.9,98.8 1128.6,95.2 1129.2,85.8 1129.8,87.4 1130.4,85.0 1131.0,102.3 1131.6,102.3 1132.2,116.5
1132.8,92.5 1133.4,107.8 1134.1,96.1 1134.7,94.9 1135.3,96.1 1135.9,77.2 1136.5,77.2 1137.1,77.2 1137.7,83.1 1138.3,84.9 1138.9,68.3 1139.6,68.3 1140.2,68.3 1140.8,81.9 1141.4,81.9 1142.0,81.9
1142.6,81.9 1143.2,81.9 1143.8,81.9 1144.4,107.3 1145.1,107.3 1145.7,107.3 1146.3,109.6 1146.9,112.6 1147.5,72.7 1148.1,72.7 1148.7,72.7 1149.3,94.3 1149.9,87.9 1150.5,87.9 1151.2,84.0 1151.8,102.1
1152.4,113.4 1153.0,113.4 1153.6,119.4 1154.2,119.4 1154.8,98.4 1155.4,98.4 1156.0,98.4 1156.7,74.8 1157.3,74.8 1157.9,74.8 1158.5,74.8 1159.1,92.3 1159.7,91.2 1160.3,111.7 1160.9,113.2 1161.5,88.4
1162.2,88.4 1162.8,88.4 1163.4,88.4 1164.0,88.4 1164.6,80.6 1165.2,80.6 1165.8,80.6 1166.4,73.4 1167.0,73.4 1167.7,73.4 1168.3,69.1 1168.9,69.1 1169.5,75.4 1170.1,75.4 1170.7,75.4 1171.3,74.5
1171.9,74.5 1172.5,74.5 1173.1,54.1 1173.8,56.0 1174.4,55.9 1175.0,55.9 1175.6,55.9 1176.2,55.9 1176.8,55.9 1177.4,55.9 1178.0,55.9 1178.6,55.9 1179.3,55.7 1179.9,71.9 1180.5,70.9 1181.1,70.9
1181.7,70.9 1182.3,72.8 1182.9,72.8 1183.5,72.8 1184.1,74.0 1184.8,74.0 1185.4,74.0 1186.0,74.0 1186.6,81.6 1187.2,106.4 1187.8,113.5 1188.4,90.1 1189.0,87.7 1189.6,87.4 1190.3,83.4 1190.9,83.4
1191.5,81.8 1192.1,82.0 1192.7,70.9 1193.3,70.9 1193.9,70.9 1194.5,71.4 1195.1,71.4 1195.7,75.1 1196.4,74.0 1197.0,79.6 1197.6,78.5 1198.2,74.8 1198.8,76.4 1199.4,100.4 1200.0,94.9 1200.6,91.9
1201.2,95.5 1201.9,95.8 1202.5,97.6 1203.1,99.4 1203.7,94.5 1204.3,94.5 1204.9,100.9 1205.5,100.4 1206.1,100.4 1206.7,100.4 1207.4,92.9 1208.0,92.9 1208.6,92.9 1209.2,92.9 1209.8,92.9 1210.4,89.7
1211.0,96.3 1211.6,96.3 1212.2,96.3 1212.9,98.6 1213.5,98.6 1214.1,98.7 1214.7,98.7 1215.3,98.7 1215.9,102.7 1216.5,102.7 1217.1,100.1 1217.7,98.1 1218.4,96.5 1219.0,103.8 1219.6,90.8 1220.2,90.8
1220.8,86.9 1221.4,101.6 1222.0,110.4 1222.6,110.4 1223.2,88.1 1223.8,88.1 1224.5,88.1 1225.1,88.1 1225.7,88.2 1226.3,95.2 1226.9,96.8 1227.5,96.8 1228.1,99.0 1228.7,99.5 1229.3,98.6 1230.0,101.4
1230.6,105.7 1231.2,99.3 1231.8,79.5 1232.4,82.1 1233.0,79.7 1233.6,96.4 1234.2,95.6 1234.8,96.1 1235.5,96.1 1236.1,66.4 1236.7,66.3 1237.3,85.1 1237.9,81.9 1238.5,81.9 1239.1,81.9 1239.7,80.8
1240.3,90.4 1241.0,91.3 1241.6,91.3 1242.2,91.3 1242.8,92.1 1243.4,92.1 1244.0,81.1 1244.6,74.6 1245.2,75.2 1245.8,74.2 1246.4,72.2 1247.1,72.2 1247.7,76.6 1248.3,79.5 1248.9,82.1 1249.5,85.3
1250.1,84.8 1250.7,84.8 1251.3,84.8 1251.9,81.0 1252.6,79.7 1253.2,79.7 1253.8,76.3 1254.4,76.3 1255.0,74.5 1255.0,703.4 87.1,703.4 '/>
	</g>
	<path stroke='rgb(148,   0, 211)'  d='M87.1,702.9 L87.7,702.9 L88.3,703.0 L88.9,703.4 L89.5,699.3 L90.2,697.2 L90.8,679.3 L91.4,624.2
		L92.0,512.3 L92.6,495.3 L93.2,506.2 L93.8,424.5 L94.4,454.6 L95.0,387.2 L95.7,406.8 L96.3,424.1
		L96.9,402.6 L97.5,409.7 L98.1,372.5 L98.7,353.0 L99.3,377.4 L99.9,388.5 L100.5,362.0 L101.1,349.5
		L101.8,343.5 L102.4,345.5 L103.0,346.8 L103.6,352.8 L104.2,355.1 L104.8,357.7 L105.4,345.7 L106.0,343.8
		L106.6,349.2 L107.3,348.1 L107.9,359.9 L108.5,348.9 L109.1,349.6 L109.7,295.4 L110.3,356.1 L110.9,332.2
		L111.5,345.3 L112.1,337.5 L112.8,342.0 L113.4,318.5 L114.0,338.6 L114.6,327.9 L115.2,327.1 L115.8,295.9
		L116.4,350.2 L117.0,321.9 L117.6,313.8 L118.3,303.2 L118.9,304.9 L119.5,326.4 L120.1,330.7 L120.7,289.6
		L121.3,254.5 L121.9,299.9 L122.5,299.6 L123.1,289.1 L123.7,277.6 L124.4,294.8 L125.0,275.0 L125.6,277.4
		L126.2,292.8 L126.8,286.2 L127.4,284.0 L128.0,281.5 L128.6,281.5 L129.2,257.3 L129.9,262.6 L130.5,264.2
		L131.1,264.2 L131.7,264.2 L132.3,301.9 L132.9,266.3 L133.5,266.5 L134.1,279.7 L134.7,287.3 L135.4,276.0
		L136.0,278.0 L136.6,276.4 L137.2,233.2 L137.8,239.4 L138.4,270.0 L139.0,284.9 L139.6,267.5 L140.2,267.3
		L140.9,258.9 L141.5,258.9 L142.1,278.8 L142.7,297.0 L143.3,279.8 L143.9,277.4 L144.5,284.2 L145.1,289.6
		L145.7,280.6 L146.4,266.3 L147.0,260.9 L147.6,261.7 L148.2,233.8 L148.8,285.3 L149.4,289.7 L150.0,255.7
		L150.6,237.0 L151.2,234.2 L151.8,229.3 L152.5,237.3 L153.1,246.7 L153.7,237.0 L154.3,254.7 L154.9,258.9
		L155.5,260.5 L156.1,243.9 L156.7,254.7 L157.3,263.9 L158.0,253.3 L158.6,219.8 L159.2,235.3 L159.8,239.6
		L160.4,248.1 L161.0,228.6 L161.6,209.6 L162.2,209.6 L162.8,205.1 L163.5,231.0 L164.1,221.6 L164.7,203.5
		L165.3,211.5 L165.9,217.2 L166.5,211.8 L167.1,211.8 L167.7,203.4 L168.3,222.5 L169.0,231.3 L169.6,236.1
		L170.2,217.5 L170.8,204.6 L171.4,222.9 L172.0,253.6 L172.6,250.3 L173.2,251.1 L173.8,247.0 L174.4,216.2
		L175.1,233.8 L175.7,209.1 L176.3,211.7 L176.9,243.4 L177.5,243.4 L178.1,227.8 L178.7,255.1 L179.3,248.1
		L179.9,243.1 L180.6,250.0 L181.2,235.9 L181.8,214.7 L182.4,214.7 L183.0,245.0 L183.6,216.4 L184.2,216.2
		L184.8,208.9 L185.4,200.5 L186.1,257.2 L186.7,247.4 L187.3,237.1 L187.9,227.1 L188.5,217.3 L189.1,223.3
		L189.7,211.6 L190.3,237.0 L190.9,206.1 L191.6,230.4 L192.2,233.1 L192.8,230.7 L193.4,220.1 L194.0,219.1
		L194.6,210.2 L195.2,246.7 L195.8,233.1 L196.4,232.9 L197.0,226.9 L197.7,221.9 L198.3,219.3 L198.9,229.8
		L199.5,224.4 L200.1,212.7 L200.7,216.3 L201.3,226.8 L201.9,238.1 L202.5,213.0 L203.2,213.0 L203.8,232.0
		L204.4,222.1 L205.0,220.9 L205.6,217.8 L206.2,210.5 L206.8,210.5 L207.4,219.2 L208.0,227.8 L208.7,222.2
		L209.3,235.6 L209.9,232.6 L210.5,214.5 L211.1,227.7 L211.7,231.5 L212.3,229.8 L212.9,234.7 L213.5,233.7
		L214.2,235.7 L214.8,246.2 L215.4,229.9 L216.0,218.9 L216.6,211.1 L217.2,227.1 L217.8,238.9 L218.4,236.7
		L219.0,219.7 L219.6,247.2 L220.3,238.3 L220.9,212.8 L221.5,212.8 L222.1,208.2 L222.7,210.2 L223.3,216.8
		L223.9,222.2 L224.5,220.4 L225.1,203.1 L225.8,186.1 L226.4,247.3 L227.0,247.3 L227.6,235.4 L228.2,219.3
		L228.8,217.2 L229.4,217.2 L230.0,223.1 L230.6,238.8 L231.3,200.0 L231.9,200.0 L232.5,233.2 L233.1,238.8
		L233.7,229.3 L234.3,228.9 L234.9,226.5 L235.5,221.6 L236.1,221.6 L236.8,196.0 L237.4,212.0 L238.0,198.4
		L238.6,202.1 L239.2,200.5 L239.8,226.3 L240.4,233.9 L241.0,217.3 L241.6,213.0 L242.2,224.4 L242.9,224.4
		L243.5,221.4 L244.1,205.5 L244.7,201.1 L245.3,192.9 L245.9,208.3 L246.5,218.6 L247.1,217.0 L247.7,218.7
		L248.4,209.8 L249.0,211.1 L249.6,220.7 L250.2,226.6 L250.8,224.6 L251.4,230.0 L252.0,230.0 L252.6,219.3
		L253.2,212.2 L253.9,222.2 L254.5,236.2 L255.1,232.6 L255.7,210.1 L256.3,210.1 L256.9,229.4 L257.5,234.4
		L258.1,201.9 L258.7,219.9 L259.4,218.2 L260.0,224.3 L260.6,226.9 L261.2,209.9 L261.8,207.4 L262.4,232.0
		L263.0,225.7 L263.6,224.5 L264.2,213.3 L264.9,201.2 L265.5,212.0 L266.1,218.2 L266.7,201.3 L267.3,180.3
		L267.9,219.3 L268.5,212.8 L269.1,196.1 L269.7,215.0 L270.3,207.4 L271.0,207.4 L271.6,215.1 L272.2,215.1
		L272.8,225.8 L273.4,195.3 L274.0,189.5 L274.6,190.5 L275.2,190.5 L275.8,221.2 L276.5,217.3 L277.1,220.7
		L277.7,218.5 L278.3,218.5 L278.9,218.1 L279.5,218.1 L280.1,210.3 L280.7,215.9 L281.3,235.2 L282.0,235.4
		L282.6,229.3 L283.2,228.6 L283.8,232.5 L284.4,237.9 L285.0,237.6 L285.6,240.0 L286.2,198.4 L286.8,198.4
		L287.5,211.6 L288.1,218.6 L288.7,216.0 L289.3,198.3 L289.9,188.3 L290.5,194.1 L291.1,189.1 L291.7,207.8
		L292.3,189.9 L292.9,195.8 L293.6,188.1 L294.2,229.5 L294.8,208.6 L295.4,203.3 L296.0,209.9 L296.6,212.4
		L297.2,216.1 L297.8,216.1 L298.4,222.0 L299.1,224.5 L299.7,227.0 L300.3,177.7 L300.9,234.6 L301.5,225.0
		L302.1,222.4 L302.7,225.1 L303.3,220.7 L303.9,222.5 L304.6,166.6 L305.2,166.2 L305.8,166.2 L306.4,173.3
		L307.0,183.8 L307.6,192.2 L308.2,181.6 L308.8,211.9 L309.4,209.8 L310.1,212.2 L310.7,212.0 L311.3,211.7
		L311.9,186.5 L312.5,196.6 L313.1,188.5 L313.7,186.2 L314.3,197.9 L314.9,195.0 L315.5,181.6 L316.2,175.5
		L316.8,185.4 L317.4,198.2 L318.0,172.1 L318.6,168.8 L319.2,171.5 L319.8,165.6 L320.4,152.4 L321.0,160.8
		L321.7,194.0 L322.3,187.7 L322.9,194.3 L323.5,208.5 L324.1,191.8 L324.7,203.9 L325.3,219.1 L325.9,205.2
		L326.5,202.8 L327.2,170.1 L327.8,169.0 L328.4,188.7 L329.0,180.4 L329.6,205.5 L330.2,212.7 L330.8,207.3
		L331.4,212.7 L332.0,209.3 L332.7,191.3 L333.3,192.5 L333.9,177.3 L334.5,185.3 L335.1,192.6 L335.7,191.5
		L336.3,191.5 L336.9,152.6 L337.5,157.0 L338.1,186.8 L338.8,188.6 L339.4,160.4 L340.0,181.7 L340.6,158.6
		L341.2,162.0 L341.8,193.2 L342.4,178.9 L343.0,195.0 L343.6,187.4 L344.3,198.5 L344.9,186.8 L345.5,184.8
		L346.1,181.3 L346.7,181.2 L347.3,163.0 L347.9,163.0 L348.5,158.0 L349.1,158.0 L349.8,176.3 L350.4,149.3
		L351.0,147.3 L351.6,148.3 L352.2,165.4 L352.8,167.6 L353.4,169.5 L354.0,157.1 L354.6,160.6 L355.3,149.5
		L355.9,151.0 L356.5,134.4 L357.1,144.5 L357.7,155.6 L358.3,155.6 L358.9,155.8 L359.5,152.8 L360.1,158.9
		L360.8,158.9 L361.4,149.5 L362.0,150.8 L362.6,150.8 L363.2,148.9 L363.8,142.7 L364.4,146.5 L365.0,146.5
		L365.6,146.5 L366.2,150.6 L366.9,154.9 L367.5,155.3 L368.1,154.0 L368.7,147.4 L369.3,141.4 L369.9,129.0
		L370.5,126.8 L371.1,138.3 L371.7,123.0 L372.4,129.2 L373.0,129.2 L373.6,136.9 L374.2,132.7 L374.8,145.0
		L375.4,144.9 L376.0,194.9 L376.6,188.4 L377.2,160.9 L377.9,161.0 L378.5,171.8 L379.1,176.9 L379.7,181.1
		L380.3,181.1 L380.9,181.1 L381.5,181.1 L382.1,109.6 L382.7,132.7 L383.4,132.7 L384.0,129.3 L384.6,129.3
		L385.2,101.4 L385.8,155.3 L386.4,153.4 L387.0,163.8 L387.6,176.4 L388.2,138.2 L388.8,154.4 L389.5,133.5
		L390.1,162.8 L390.7,167.5 L391.3,167.5 L391.9,112.9 L392.5,157.6 L393.1,90.7 L393.7,148.8 L394.3,161.4
		L395.0,161.4 L395.6,161.4 L396.2,161.0 L396.8,161.0 L397.4,162.6 L398.0,162.6 L398.6,152.7 L399.2,164.6
		L399.8,139.5 L400.5,134.7 L401.1,110.5 L401.7,112.3 L402.3,112.3 L402.9,121.2 L403.5,159.4 L404.1,175.3
		L404.7,175.3 L405.3,158.8 L406.0,137.3 L406.6,170.1 L407.2,171.2 L407.8,151.2 L408.4,156.1 L409.0,172.0
		L409.6,178.9 L410.2,178.9 L410.8,132.9 L411.4,102.8 L412.1,99.0 L412.7,98.7 L413.3,98.7 L413.9,95.3
		L414.5,115.8 L415.1,117.4 L415.7,114.9 L416.3,169.8 L416.9,169.8 L417.6,154.0 L418.2,164.8 L418.8,167.7
		L419.4,169.8 L420.0,168.4 L420.6,169.8 L421.2,188.9 L421.8,145.4 L422.4,145.2 L423.1,145.2 L423.7,145.2
		L424.3,168.3 L424.9,169.4 L425.5,169.4 L426.1,169.4 L426.7,169.4 L427.3,165.5 L427.9,158.5 L428.6,150.5
		L429.2,145.6 L429.8,181.0 L430.4,150.3 L431.0,144.1 L431.6,160.7 L432.2,150.9 L432.8,129.7 L433.4,144.5
		L434.0,129.7 L434.7,129.7 L435.3,154.9 L435.9,127.2 L436.5,137.0 L437.1,133.4 L437.7,143.7 L438.3,126.6
		L438.9,130.7 L439.5,153.8 L440.2,150.8 L440.8,150.8 L441.4,172.4 L442.0,166.8 L442.6,158.0 L443.2,158.0
		L443.8,154.9 L444.4,154.9 L445.0,154.9 L445.7,135.7 L446.3,154.9 L446.9,151.6 L447.5,154.9 L448.1,163.4
		L448.7,163.4 L449.3,165.3 L449.9,165.3 L450.5,165.3 L451.2,164.2 L451.8,164.2 L452.4,154.7 L453.0,156.3
		L453.6,154.3 L454.2,139.6 L454.8,166.1 L455.4,153.9 L456.0,169.8 L456.6,163.0 L457.3,173.0 L457.9,159.6
		L458.5,156.3 L459.1,145.7 L459.7,133.7 L460.3,133.7 L460.9,134.6 L461.5,161.9 L462.1,111.3 L462.8,138.8
		L463.4,132.2 L464.0,132.2 L464.6,126.1 L465.2,126.1 L465.8,139.5 L466.4,139.5 L467.0,102.4 L467.6,102.4
		L468.3,107.0 L468.9,101.6 L469.5,101.6 L470.1,98.6 L470.7,98.6 L471.3,100.0 L471.9,115.2 L472.5,115.2
		L473.1,95.4 L473.8,95.4 L474.4,95.4 L475.0,114.1 L475.6,110.0 L476.2,134.0 L476.8,97.8 L477.4,157.8
		L478.0,161.7 L478.6,171.3 L479.3,156.3 L479.9,156.3 L480.5,123.6 L481.1,155.3 L481.7,155.3 L482.3,156.0
		L482.9,154.9 L483.5,142.7 L484.1,116.4 L484.7,102.4 L485.4,102.9 L486.0,108.7 L486.6,138.3 L487.2,138.3
		L487.8,138.3 L488.4,137.4 L489.0,138.3 L489.6,127.6 L490.2,122.1 L490.9,122.1 L491.5,122.1 L492.1,95.7
		L492.7,96.5 L493.3,97.1 L493.9,97.1 L494.5,97.1 L495.1,102.1 L495.7,102.1 L496.4,102.1 L497.0,102.1
		L497.6,102.1 L498.2,97.5 L498.8,97.5 L499.4,100.3 L500.0,106.5 L500.6,106.5 L501.2,132.5 L501.9,123.1
		L502.5,132.1 L503.1,132.1 L503.7,139.6 L504.3,140.9 L504.9,131.5 L505.5,126.0 L506.1,119.7 L506.7,119.7
		L507.3,119.7 L508.0,128.1 L508.6,122.2 L509.2,106.8 L509.8,134.9 L510.4,101.3 L511.0,101.3 L511.6,111.3
		L512.2,133.4 L512.8,133.4 L513.5,133.4 L514.1,130.0 L514.7,130.0 L515.3,131.5 L515.9,131.5 L516.5,133.6
		L517.1,135.0 L517.7,126.1 L518.3,117.9 L519.0,117.9 L519.6,117.9 L520.2,137.7 L520.8,124.5 L521.4,127.1
		L522.0,140.1 L522.6,105.4 L523.2,105.4 L523.8,103.2 L524.5,116.5 L525.1,106.8 L525.7,97.3 L526.3,98.2
		L526.9,123.1 L527.5,123.1 L528.1,130.7 L528.7,127.5 L529.3,118.8 L529.9,104.4 L530.6,107.4 L531.2,116.8
		L531.8,115.9 L532.4,112.3 L533.0,128.6 L533.6,125.2 L534.2,130.9 L534.8,117.6 L535.4,94.8 L536.1,101.7
		L536.7,91.5 L537.3,107.5 L537.9,104.4 L538.5,131.9 L539.1,159.8 L539.7,119.0 L540.3,128.3 L540.9,128.3
		L541.6,135.3 L542.2,130.2 L542.8,116.7 L543.4,118.0 L544.0,114.8 L544.6,89.5 L545.2,111.3 L545.8,111.3
		L546.4,107.5 L547.1,111.3 L547.7,100.2 L548.3,100.2 L548.9,105.5 L549.5,102.1 L550.1,102.1 L550.7,96.0
		L551.3,125.4 L551.9,125.4 L552.5,127.1 L553.2,91.4 L553.8,91.4 L554.4,95.0 L555.0,109.5 L555.6,109.5
		L556.2,113.4 L556.8,137.0 L557.4,137.2 L558.0,136.4 L558.7,159.2 L559.3,124.8 L559.9,124.1 L560.5,124.1
		L561.1,126.6 L561.7,130.7 L562.3,130.5 L562.9,124.2 L563.5,109.5 L564.2,101.8 L564.8,107.4 L565.4,107.4
		L566.0,102.2 L566.6,102.2 L567.2,126.1 L567.8,126.1 L568.4,126.1 L569.0,121.0 L569.7,126.1 L570.3,126.1
		L570.9,126.1 L571.5,114.6 L572.1,118.8 L572.7,111.3 L573.3,129.2 L573.9,135.0 L574.5,135.0 L575.2,135.0
		L575.8,135.0 L576.4,135.0 L577.0,135.0 L577.6,135.0 L578.2,122.6 L578.8,122.5 L579.4,121.4 L580.0,143.1
		L580.6,146.1 L581.3,140.6 L581.9,133.6 L582.5,129.0 L583.1,128.7 L583.7,134.7 L584.3,92.6 L584.9,96.4
		L585.5,96.4 L586.1,122.7 L586.8,120.7 L587.4,115.5 L588.0,102.8 L588.6,114.5 L589.2,114.3 L589.8,114.3
		L590.4,107.4 L591.0,114.3 L591.6,114.3 L592.3,118.6 L592.9,118.6 L593.5,117.7 L594.1,127.5 L594.7,127.5
		L595.3,126.9 L595.9,117.6 L596.5,123.4 L597.1,125.6 L597.8,126.8 L598.4,121.2 L599.0,130.1 L599.6,106.4
		L600.2,106.7 L600.8,106.7 L601.4,131.0 L602.0,134.8 L602.6,134.8 L603.2,134.8 L603.9,134.8 L604.5,134.8
		L605.1,126.9 L605.7,130.6 L606.3,130.6 L606.9,130.6 L607.5,130.6 L608.1,130.6 L608.7,124.4 L609.4,115.1
		L610.0,115.1 L610.6,130.4 L611.2,116.7 L611.8,108.4 L612.4,108.6 L613.0,107.5 L613.6,107.5 L614.2,103.8
		L614.9,109.2 L615.5,105.2 L616.1,105.2 L616.7,105.2 L617.3,111.1 L617.9,113.6 L618.5,121.7 L619.1,119.3
		L619.7,117.2 L620.4,112.9 L621.0,108.7 L621.6,102.9 L622.2,91.4 L622.8,90.8 L623.4,99.1 L624.0,101.6
		L624.6,101.6 L625.2,96.6 L625.8,98.2 L626.5,117.1 L627.1,108.9 L627.7,110.2 L628.3,100.8 L628.9,100.8
		L629.5,95.4 L630.1,95.4 L630.7,94.4 L631.3,103.4 L632.0,101.5 L632.6,101.5 L633.2,102.8 L633.8,103.6
		L634.4,103.6 L635.0,117.0 L635.6,117.0 L636.2,99.9 L636.8,110.7 L637.5,110.7 L638.1,110.7 L638.7,93.5
		L639.3,96.0 L639.9,99.5 L640.5,100.3 L641.1,134.8 L641.7,134.8 L642.3,99.3 L643.0,108.4 L643.6,108.4
		L644.2,108.4 L644.8,108.4 L645.4,108.4 L646.0,120.4 L646.6,115.8 L647.2,134.0 L647.8,128.9 L648.4,127.5
		L649.1,116.2 L649.7,116.0 L650.3,99.7 L650.9,99.2 L651.5,99.2 L652.1,99.2 L652.7,95.1 L653.3,107.2
		L653.9,107.2 L654.6,105.2 L655.2,105.2 L655.8,107.3 L656.4,107.5 L657.0,103.5 L657.6,103.5 L658.2,90.0
		L658.8,108.2 L659.4,108.2 L660.1,108.2 L660.7,118.1 L661.3,109.8 L661.9,131.2 L662.5,115.3 L663.1,81.3
		L663.7,81.3 L664.3,80.0 L664.9,103.7 L665.6,103.7 L666.2,130.1 L666.8,130.3 L667.4,124.2 L668.0,104.2
		L668.6,129.5 L669.2,112.3 L669.8,135.2 L670.4,116.9 L671.1,112.1 L671.7,114.0 L672.3,107.9 L672.9,116.7
		L673.5,123.1 L674.1,117.1 L674.7,123.1 L675.3,123.1 L675.9,123.1 L676.5,144.9 L677.2,119.3 L677.8,119.3
		L678.4,119.3 L679.0,86.6 L679.6,86.6 L680.2,84.7 L680.8,84.7 L681.4,84.7 L682.0,84.8 L682.7,84.8
		L683.3,108.5 L683.9,108.5 L684.5,105.5 L685.1,128.3 L685.7,102.5 L686.3,127.1 L686.9,126.0 L687.5,129.7
		L688.2,133.7 L688.8,114.0 L689.4,132.6 L690.0,120.3 L690.6,129.4 L691.2,120.8 L691.8,126.3 L692.4,133.4
		L693.0,133.4 L693.7,111.2 L694.3,93.4 L694.9,104.2 L695.5,107.7 L696.1,104.0 L696.7,108.6 L697.3,89.7
		L697.9,89.3 L698.5,89.8 L699.1,96.7 L699.8,117.2 L700.4,120.4 L701.0,96.3 L701.6,96.3 L702.2,90.0
		L702.8,89.1 L703.4,89.1 L704.0,89.1 L704.6,110.0 L705.3,96.6 L705.9,91.8 L706.5,91.8 L707.1,91.2
		L707.7,105.3 L708.3,108.7 L708.9,109.1 L709.5,108.4 L710.1,101.8 L710.8,87.9 L711.4,83.9 L712.0,86.4
		L712.6,101.9 L713.2,129.4 L713.8,127.4 L714.4,129.2 L715.0,120.6 L715.6,117.1 L716.3,117.1 L716.9,119.5
		L717.5,87.8 L718.1,118.9 L718.7,118.9 L719.3,112.6 L719.9,106.4 L720.5,102.2 L721.1,102.2 L721.7,111.8
		L722.4,105.5 L723.0,105.5 L723.6,105.5 L724.2,105.5 L724.8,105.5 L725.4,105.5 L726.0,120.7 L726.6,114.3
		L727.2,114.3 L727.9,129.8 L728.5,110.6 L729.1,139.4 L729.7,93.4 L730.3,89.3 L730.9,89.3 L731.5,78.7
		L732.1,78.7 L732.7,93.8 L733.4,108.0 L734.0,109.7 L734.6,98.2 L735.2,109.7 L735.8,118.8 L736.4,98.3
		L737.0,102.5 L737.6,97.2 L738.2,108.3 L738.9,100.5 L739.5,112.6 L740.1,104.0 L740.7,103.2 L741.3,103.2
		L741.9,92.5 L742.5,96.8 L743.1,101.2 L743.7,113.0 L744.3,113.0 L745.0,113.0 L745.6,106.5 L746.2,105.3
		L746.8,130.5 L747.4,135.6 L748.0,106.3 L748.6,106.3 L749.2,106.3 L749.8,128.3 L750.5,128.8 L751.1,125.3
		L751.7,124.6 L752.3,115.0 L752.9,121.1 L753.5,122.7 L754.1,122.2 L754.7,122.2 L755.3,122.2 L756.0,119.0
		L756.6,116.4 L757.2,111.8 L757.8,116.8 L758.4,121.5 L759.0,121.5 L759.6,118.6 L760.2,118.6 L760.8,101.9
		L761.5,135.1 L762.1,116.0 L762.7,108.1 L763.3,112.5 L763.9,108.8 L764.5,87.5 L765.1,88.6 L765.7,103.3
		L766.3,106.3 L766.9,144.0 L767.6,146.5 L768.2,142.9 L768.8,118.0 L769.4,117.7 L770.0,115.3 L770.6,107.5
		L771.2,97.4 L771.8,97.4 L772.4,97.1 L773.1,104.1 L773.7,107.6 L774.3,114.2 L774.9,123.5 L775.5,110.4
		L776.1,111.7 L776.7,95.9 L777.3,108.9 L777.9,81.1 L778.6,81.1 L779.2,94.8 L779.8,101.9 L780.4,94.3
		L781.0,94.6 L781.6,94.6 L782.2,94.6 L782.8,94.4 L783.4,89.6 L784.1,100.4 L784.7,104.6 L785.3,130.2
		L785.9,130.2 L786.5,130.2 L787.1,112.4 L787.7,112.4 L788.3,112.4 L788.9,110.8 L789.6,110.4 L790.2,110.4
		L790.8,116.8 L791.4,114.1 L792.0,104.6 L792.6,104.6 L793.2,101.6 L793.8,101.2 L794.4,101.2 L795.0,132.1
		L795.7,132.1 L796.3,132.7 L796.9,132.7 L797.5,94.0 L798.1,115.1 L798.7,100.5 L799.3,100.5 L799.9,121.4
		L800.5,112.7 L801.2,112.7 L801.8,120.5 L802.4,97.6 L803.0,93.2 L803.6,89.6 L804.2,89.6 L804.8,105.7
		L805.4,91.7 L806.0,91.7 L806.7,107.2 L807.3,108.6 L807.9,133.2 L808.5,134.6 L809.1,119.4 L809.7,126.0
		L810.3,119.2 L810.9,119.2 L811.5,120.1 L812.2,123.7 L812.8,113.3 L813.4,114.3 L814.0,114.3 L814.6,124.4
		L815.2,110.9 L815.8,111.1 L816.4,101.5 L817.0,101.5 L817.6,101.5 L818.3,124.0 L818.9,116.7 L819.5,107.8
		L820.1,101.6 L820.7,133.7 L821.3,112.5 L821.9,112.5 L822.5,119.0 L823.1,119.0 L823.8,117.6 L824.4,129.4
		L825.0,126.7 L825.6,109.7 L826.2,106.7 L826.8,102.6 L827.4,118.4 L828.0,117.2 L828.6,125.5 L829.3,125.3
		L829.9,111.6 L830.5,107.4 L831.1,116.6 L831.7,116.3 L832.3,115.9 L832.9,115.9 L833.5,115.9 L834.1,131.1
		L834.8,139.6 L835.4,138.5 L836.0,123.7 L836.6,128.1 L837.2,109.8 L837.8,109.8 L838.4,109.8 L839.0,110.8
		L839.6,117.4 L840.2,132.6 L840.9,132.6 L841.5,132.6 L842.1,132.6 L842.7,118.6 L843.3,129.8 L843.9,129.8
		L844.5,117.7 L845.1,130.3 L845.7,134.6 L846.4,134.6 L847.0,121.5 L847.6,122.5 L848.2,122.5 L848.8,146.8
		L849.4,134.6 L850.0,133.3 L850.6,127.2 L851.2,123.7 L851.9,132.3 L852.5,124.7 L853.1,128.5 L853.7,121.6
		L854.3,121.6 L854.9,119.7 L855.5,118.3 L856.1,118.3 L856.7,117.5 L857.4,118.4 L858.0,124.1 L858.6,124.1
		L859.2,136.0 L859.8,123.3 L860.4,98.6 L861.0,111.6 L861.6,111.6 L862.2,111.6 L862.8,105.9 L863.5,105.9
		L864.1,105.9 L864.7,111.7 L865.3,104.5 L865.9,129.4 L866.5,127.6 L867.1,129.4 L867.7,146.6 L868.3,130.1
		L869.0,129.9 L869.6,130.2 L870.2,118.9 L870.8,123.7 L871.4,119.0 L872.0,118.8 L872.6,118.8 L873.2,117.3
		L873.8,117.3 L874.5,117.6 L875.1,117.6 L875.7,114.9 L876.3,114.9 L876.9,115.8 L877.5,114.3 L878.1,114.3
		L878.7,103.1 L879.3,124.3 L880.0,117.3 L880.6,120.5 L881.2,120.5 L881.8,126.6 L882.4,134.4 L883.0,127.0
		L883.6,127.0 L884.2,126.2 L884.8,114.4 L885.5,110.4 L886.1,111.7 L886.7,109.3 L887.3,107.9 L887.9,107.8
		L888.5,107.8 L889.1,113.8 L889.7,100.9 L890.3,100.9 L890.9,101.2 L891.6,98.5 L892.2,101.1 L892.8,98.5
		L893.4,98.5 L894.0,98.5 L894.6,100.5 L895.2,101.4 L895.8,101.4 L896.4,101.4 L897.1,104.3 L897.7,102.0
		L898.3,97.2 L898.9,109.9 L899.5,108.9 L900.1,117.3 L900.7,112.1 L901.3,104.9 L901.9,108.3 L902.6,101.7
		L903.2,101.7 L903.8,99.4 L904.4,98.4 L905.0,98.4 L905.6,105.3 L906.2,105.3 L906.8,108.5 L907.4,105.3
		L908.1,105.7 L908.7,111.9 L909.3,112.8 L909.9,103.1 L910.5,105.9 L911.1,113.0 L911.7,116.3 L912.3,116.3
		L912.9,116.3 L913.5,104.0 L914.2,111.0 L914.8,112.3 L915.4,101.0 L916.0,110.7 L916.6,110.7 L917.2,112.4
		L917.8,112.4 L918.4,111.4 L919.0,109.9 L919.7,111.3 L920.3,113.1 L920.9,108.7 L921.5,97.4 L922.1,120.6
		L922.7,90.1 L923.3,91.3 L923.9,91.3 L924.5,114.3 L925.2,114.1 L925.8,101.6 L926.4,110.1 L927.0,111.1
		L927.6,121.0 L928.2,121.0 L928.8,115.5 L929.4,114.9 L930.0,114.9 L930.7,99.8 L931.3,100.0 L931.9,110.2
		L932.5,109.9 L933.1,105.6 L933.7,105.6 L934.3,117.1 L934.9,114.9 L935.5,115.5 L936.1,114.3 L936.8,114.3
		L937.4,114.3 L938.0,94.2 L938.6,110.5 L939.2,110.5 L939.8,110.5 L940.4,103.3 L941.0,97.0 L941.6,97.0
		L942.3,96.0 L942.9,96.2 L943.5,96.2 L944.1,108.4 L944.7,106.0 L945.3,106.0 L945.9,106.6 L946.5,87.9
		L947.1,83.1 L947.8,83.1 L948.4,83.1 L949.0,83.1 L949.6,85.3 L950.2,84.6 L950.8,91.6 L951.4,97.3
		L952.0,97.3 L952.6,95.0 L953.3,95.8 L953.9,97.4 L954.5,89.1 L955.1,89.1 L955.7,87.6 L956.3,87.6
		L956.9,105.6 L957.5,105.3 L958.1,92.0 L958.7,103.7 L959.4,103.7 L960.0,98.4 L960.6,122.8 L961.2,114.0
		L961.8,114.0 L962.4,111.4 L963.0,114.6 L963.6,88.1 L964.2,85.5 L964.9,85.5 L965.5,93.2 L966.1,123.7
		L966.7,115.6 L967.3,116.0 L967.9,109.0 L968.5,103.2 L969.1,103.2 L969.7,102.9 L970.4,102.9 L971.0,102.9
		L971.6,99.5 L972.2,99.5 L972.8,103.7 L973.4,113.7 L974.0,117.5 L974.6,113.5 L975.2,113.5 L975.9,113.5
		L976.5,111.9 L977.1,117.1 L977.7,74.7 L978.3,75.1 L978.9,100.8 L979.5,115.3 L980.1,110.4 L980.7,114.0
		L981.3,107.1 L982.0,96.8 L982.6,96.8 L983.2,89.7 L983.8,89.7 L984.4,94.5 L985.0,114.8 L985.6,114.8
		L986.2,95.7 L986.8,121.5 L987.5,90.6 L988.1,121.5 L988.7,121.5 L989.3,121.5 L989.9,121.5 L990.5,121.5
		L991.1,123.7 L991.7,114.6 L992.3,114.6 L993.0,114.6 L993.6,114.6 L994.2,114.6 L994.8,114.6 L995.4,113.8
		L996.0,84.8 L996.6,83.1 L997.2,80.7 L997.8,80.7 L998.5,80.7 L999.1,98.1 L999.7,98.1 L1000.3,98.1
		L1000.9,98.1 L1001.5,92.7 L1002.1,96.4 L1002.7,88.5 L1003.3,96.4 L1004.0,97.7 L1004.6,97.0 L1005.2,94.6
		L1005.8,94.6 L1006.4,92.9 L1007.0,92.9 L1007.6,92.9 L1008.2,74.7 L1008.8,73.4 L1009.4,73.4 L1010.1,93.2
		L1010.7,80.2 L1011.3,85.7 L1011.9,98.3 L1012.5,98.3 L1013.1,98.3 L1013.7,113.2 L1014.3,97.5 L1014.9,99.4
		L1015.6,99.4 L1016.2,99.3 L1016.8,135.7 L1017.4,102.0 L1018.0,102.0 L1018.6,104.2 L1019.2,117.5 L1019.8,115.1
		L1020.4,108.8 L1021.1,100.4 L1021.7,99.0 L1022.3,99.0 L1022.9,93.0 L1023.5,98.2 L1024.1,98.2 L1024.7,98.2
		L1025.3,98.2 L1025.9,84.3 L1026.6,102.3 L1027.2,102.3 L1027.8,91.3 L1028.4,91.3 L1029.0,87.4 L1029.6,87.4
		L1030.2,87.4 L1030.8,86.5 L1031.4,86.5 L1032.0,86.5 L1032.7,91.3 L1033.3,95.0 L1033.9,104.1 L1034.5,93.6
		L1035.1,91.9 L1035.7,75.6 L1036.3,75.6 L1036.9,88.6 L1037.5,101.9 L1038.2,118.7 L1038.8,118.7 L1039.4,117.5
		L1040.0,100.2 L1040.6,90.6 L1041.2,90.9 L1041.8,87.2 L1042.4,106.7 L1043.0,99.7 L1043.7,99.7 L1044.3,93.0
		L1044.9,93.8 L1045.5,98.6 L1046.1,110.2 L1046.7,110.2 L1047.3,97.1 L1047.9,111.1 L1048.5,97.9 L1049.2,97.9
		L1049.8,102.1 L1050.4,116.5 L1051.0,108.5 L1051.6,109.0 L1052.2,109.0 L1052.8,109.0 L1053.4,110.9 L1054.0,110.9
		L1054.6,118.2 L1055.3,113.5 L1055.9,113.8 L1056.5,123.0 L1057.1,123.6 L1057.7,125.9 L1058.3,126.5 L1058.9,85.9
		L1059.5,85.9 L1060.1,86.0 L1060.8,86.0 L1061.4,86.0 L1062.0,92.8 L1062.6,94.1 L1063.2,113.3 L1063.8,82.7
		L1064.4,91.7 L1065.0,89.9 L1065.6,87.6 L1066.3,121.1 L1066.9,121.1 L1067.5,124.6 L1068.1,124.6 L1068.7,140.9
		L1069.3,91.5 L1069.9,93.0 L1070.5,93.0 L1071.1,93.0 L1071.8,87.7 L1072.4,89.4 L1073.0,89.4 L1073.6,76.7
		L1074.2,76.7 L1074.8,80.7 L1075.4,80.7 L1076.0,80.7 L1076.6,100.4 L1077.2,100.4 L1077.9,100.4 L1078.5,100.4
		L1079.1,87.0 L1079.7,98.8 L1080.3,86.4 L1080.9,98.9 L1081.5,96.6 L1082.1,84.0 L1082.7,100.5 L1083.4,91.9
		L1084.0,97.2 L1084.6,99.3 L1085.2,99.3 L1085.8,99.3 L1086.4,88.1 L1087.0,88.1 L1087.6,88.1 L1088.2,90.1
		L1088.9,75.8 L1089.5,75.8 L1090.1,72.7 L1090.7,72.7 L1091.3,80.4 L1091.9,80.4 L1092.5,79.0 L1093.1,79.0
		L1093.7,94.5 L1094.4,97.9 L1095.0,90.2 L1095.6,102.1 L1096.2,102.1 L1096.8,98.2 L1097.4,98.2 L1098.0,94.9
		L1098.6,93.6 L1099.2,102.0 L1099.9,91.1 L1100.5,91.1 L1101.1,88.6 L1101.7,86.6 L1102.3,86.0 L1102.9,86.0
		L1103.5,88.5 L1104.1,89.0 L1104.7,89.0 L1105.3,89.0 L1106.0,89.0 L1106.6,90.7 L1107.2,87.9 L1107.8,87.9
		L1108.4,90.1 L1109.0,101.3 L1109.6,90.9 L1110.2,75.7 L1110.8,90.8 L1111.5,104.1 L1112.1,100.1 L1112.7,92.6
		L1113.3,104.4 L1113.9,96.5 L1114.5,73.7 L1115.1,74.6 L1115.7,83.7 L1116.3,79.1 L1117.0,81.4 L1117.6,94.9
		L1118.2,90.5 L1118.8,90.0 L1119.4,90.0 L1120.0,102.5 L1120.6,97.6 L1121.2,97.1 L1121.8,99.1 L1122.5,99.1
		L1123.1,91.3 L1123.7,91.3 L1124.3,96.1 L1124.9,95.3 L1125.5,75.4 L1126.1,70.3 L1126.7,76.7 L1127.3,99.6
		L1127.9,98.8 L1128.6,95.2 L1129.2,85.8 L1129.8,87.4 L1130.4,85.0 L1131.0,102.3 L1131.6,102.3 L1132.2,116.5
		L1132.8,92.5 L1133.4,107.8 L1134.1,96.1 L1134.7,94.9 L1135.3,96.1 L1135.9,77.2 L1136.5,77.2 L1137.1,77.2
		L1137.7,83.1 L1138.3,84.9 L1138.9,68.3 L1139.6,68.3 L1140.2,68.3 L1140.8,81.9 L1141.4,81.9 L1142.0,81.9
		L1142.6,81.9 L1143.2,81.9 L1143.8,81.9 L1144.4,107.3 L1145.1,107.3 L1145.7,107.3 L1146.3,109.6 L1146.9,112.6
		L1147.5,72.7 L1148.1,72.7 L1148.7,72.7 L1149.3,94.3 L1149.9,87.9 L1150.5,87.9 L1151.2,84.0 L1151.8,102.1
		L1152.4,113.4 L1153.0,113.4 L1153.6,119.4 L1154.2,119.4 L1154.8,98.4 L1155.4,98.4 L1156.0,98.4 L1156.7,74.8
		L1157.3,74.8 L1157.9,74.8 L1158.5,74.8 L1159.1,92.3 L1159.7,91.2 L1160.3,111.7 L1160.9,113.2 L1161.5,88.4
		L1162.2,88.4 L1162.8,88.4 L1163.4,88.4 L1164.0,88.4 L1164.6,80.6 L1165.2,80.6 L1165.8,80.6 L1166.4,73.4
		L1167.0,73.4 L1167.7,73.4 L1168.3,69.1 L1168.9,69.1 L1169.5,75.4 L1170.1,75.4 L1170.7,75.4 L1171.3,74.5
		L1171.9,74.5 L1172.5,74.5 L1173.1,54.1 L1173.8,56.0 L1174.4,55.9 L1175.0,55.9 L1175.6,55.9 L1176.2,55.9
		L1176.8,55.9 L1177.4,55.9 L1178.0,55.9 L1178.6,55.9 L1179.3,55.7 L1179.9,71.9 L1180.5,70.9 L1181.1,70.9
		L1181.7,70.9 L1182.3,72.8 L1182.9,72.8 L1183.5,72.8 L1184.1,74.0 L1184.8,74.0 L1185.4,74.0 L1186.0,74.0
		L1186.6,81.6 L1187.2,106.4 L1187.8,113.5 L1188.4,90.1 L1189.0,87.7 L1189.6,87.4 L1190.3,83.4 L1190.9,83.4
		L1191.5,81.8 L1192.1,82.0 L1192.7,70.9 L1193.3,70.9 L1193.9,70.9 L1194.5,71.4 L1195.1,71.4 L1195.7,75.1
		L1196.4,74.0 L1197.0,79.6 L1197.6,78.5 L1198.2,74.8 L1198.8,76.4 L1199.4,100.4 L1200.0,94.9 L1200.6,91.9
		L1201.2,95.5 L1201.9,95.8 L1202.5,97.6 L1203.1,99.4 L1203.7,94.5 L1204.3,94.5 L1204.9,100.9 L1205.5,100.4
		L1206.1,100.4 L1206.7,100.4 L1207.4,92.9 L1208.0,92.9 L1208.6,92.9 L1209.2,92.9 L1209.8,92.9 L1210.4,89.7
		L1211.0,96.3 L1211.6,96.3 L1212.2,96.3 L1212.9,98.6 L1213.5,98.6 L1214.1,98.7 L1214.7,98.7 L1215.3,98.7
		L1215.9,102.7 L1216.5,102.7 L1217.1,100.1 L1217.7,98.1 L1218.4,96.5 L1219.0,103.8 L1219.6,90.8 L1220.2,90.8
		L1220.8,86.9 L1221.4,101.6 L1222.0,110.4 L1222.6,110.4 L1223.2,88.1 L1223.8,88.1 L1224.5,88.1 L1225.1,88.1
		L1225.7,88.2 L1226.3,95.2 L1226.9,96.8 L1227.5,96.8 L1228.1,99.0 L1228.7,99.5 L1229.3,98.6 L1230.0,101.4
		L1230.6,105.7 L1231.2,99.3 L1231.8,79.5 L1232.4,82.1 L1233.0,79.7 L1233.6,96.4 L1234.2,95.6 L1234.8,96.1
		L1235.5,96.1 L1236.1,66.4 L1236.7,66.3 L1237.3,85.1 L1237.9,81.9 L1238.5,81.9 L1239.1,81.9 L1239.7,80.8
		L1240.3,90.4 L1241.0,91.3 L1241.6,91.3 L1242.2,91.3 L1242.8,92.1 L1243.4,92.1 L1244.0,81.1 L1244.6,74.6
		L1245.2,75.2 L1245.8,74.2 L1246.4,72.2 L1247.1,72.2 L1247.7,76.6 L1248.3,79.5 L1248.9,82.1 L1249.5,85.3
		L1250.1,84.8 L1250.7,84.8 L1251.3,84.8 L1251.9,81.0 L1252.6,79.7 L1253.2,79.7 L1253.8,76.3 L1254.4,76.3
		L1255.0,74.5  '/></g>
	</g>
	<g id="gnuplot_plot_2" ><title>trendline (m=0.007218,b=223.223198)</title>
<g fill="none" color="black" stroke="currentColor" stroke-width="1.00" stroke-linecap="butt" stroke-linejoin="miter">
	<g transform="translate(1187.9,94.0)" stroke="none" fill="black" font-family="Arial" font-size="12.00"  text-anchor="end">
		<text><tspan font-family="Arial" >trendline (m=0.007218,b=223.223198)</tspan></text>
	</g>
</g>
<g fill="none" color="black" stroke="currentColor" stroke-width="1.00" stroke-linecap="butt" stroke-linejoin="miter">
	<path stroke='black'  d='M1196.2,90.1 L1238.4,90.1 M87.1,233.9 L98.9,232.0 L110.7,230.1 L122.5,228.3 L134.3,226.4 L146.1,224.5
		L157.9,222.7 L169.7,220.8 L181.5,218.9 L193.3,217.1 L205.1,215.2 L216.9,213.3 L228.7,211.5 L240.5,209.6
		L252.3,207.7 L264.1,205.9 L275.9,204.0 L287.6,202.1 L299.4,200.3 L311.2,198.4 L323.0,196.5 L334.8,194.7
		L346.6,192.8 L358.4,190.9 L370.2,189.1 L382.0,187.2 L393.8,185.3 L405.6,183.5 L417.4,181.6 L429.2,179.7
		L441.0,177.9 L452.8,176.0 L464.6,174.1 L476.4,172.3 L488.2,170.4 L500.0,168.5 L511.8,166.7 L523.6,164.8
		L535.4,162.9 L547.2,161.1 L559.0,159.2 L570.8,157.3 L582.6,155.5 L594.4,153.6 L606.2,151.7 L618.0,149.9
		L629.8,148.0 L641.6,146.1 L653.4,144.3 L665.2,142.4 L676.9,140.5 L688.7,138.7 L700.5,136.8 L712.3,134.9
		L724.1,133.1 L735.9,131.2 L747.7,129.3 L759.5,127.5 L771.3,125.6 L783.1,123.7 L794.9,121.9 L806.7,120.0
		L818.5,118.1 L830.3,116.3 L842.1,114.4 L853.9,112.5 L865.7,110.7 L877.5,108.8 L889.3,106.9 L901.1,105.1
		L912.9,103.2 L924.7,101.3 L936.5,99.5 L948.3,97.6 L960.1,95.7 L971.9,93.9 L983.7,92.0 L995.5,90.1
		L1007.3,88.3 L1019.1,86.4 L1030.9,84.5 L1042.7,82.7 L1054.5,80.8 L1066.2,78.9 L1078.0,77.1 L1089.8,75.2
		L1101.6,73.3 L1113.4,71.5 L1125.2,69.6 L1137.0,67.7 L1148.8,65.9 L1160.6,64.0 L1172.4,62.1 L1184.2,60.3
		L1196.0,58.4 L1207.8,56.5 L1219.6,54.7 L1223.3,54.1  '/></g>
	</g>
<g fill="none" color="white" stroke="black" stroke-width="2.00" stroke-linecap="butt" stroke-linejoin="miter">
</g>
<g fill="none" color="black" stroke="currentColor" stroke-width="2.00" stroke-linecap="butt" stroke-linejoin="miter">
</g>
<g fill="none" color="black" stroke="black" stroke-width="1.00" stroke-linecap="butt" stroke-linejoin="miter">
</g>
<g fill="none" color="black" stroke="currentColor" stroke-width="1.00" stroke-linecap="butt" stroke-linejoin="miter">
	<path stroke='black'  d='M87.1,54.1 L87.1,703.4 L1255.0,703.4 L1255.0,54.1 L87.1,54.1 Z  '/></g>
<g fill="none" color="black" stroke="currentColor" stroke-width="1.00" stroke-linecap="butt" stroke-linejoin="miter">
</g>
</g>
</svg>

