<?xml version="1.0" encoding="utf-8"  standalone="no"?>
<svg 
 width="1280" height="720"
 viewBox="0 0 1280 720"
 xmlns="http://www.w3.org/2000/svg"
 xmlns:xlink="http://www.w3.org/1999/xlink"
>

<title>Gnuplot</title>
<desc>Produced by GNUPLOT 5.2 patchlevel 2 </desc>

<g id="gnuplot_canvas">

<rect x="0" y="0" width="1280" height="720" fill="none"/>
<defs>

	<circle id='gpDot' r='0.5' stroke-width='0.5'/>
	<path id='gpPt0' stroke-width='0.222' stroke='currentColor' d='M-1,0 h2 M0,-1 v2'/>
	<path id='gpPt1' stroke-width='0.222' stroke='currentColor' d='M-1,-1 L1,1 M1,-1 L-1,1'/>
	<path id='gpPt2' stroke-width='0.222' stroke='currentColor' d='M-1,0 L1,0 M0,-1 L0,1 M-1,-1 L1,1 M-1,1 L1,-1'/>
	<rect id='gpPt3' stroke-width='0.222' stroke='currentColor' x='-1' y='-1' width='2' height='2'/>
	<rect id='gpPt4' stroke-width='0.222' stroke='currentColor' fill='currentColor' x='-1' y='-1' width='2' height='2'/>
	<circle id='gpPt5' stroke-width='0.222' stroke='currentColor' cx='0' cy='0' r='1'/>
	<use xlink:href='#gpPt5' id='gpPt6' fill='currentColor' stroke='none'/>
	<path id='gpPt7' stroke-width='0.222' stroke='currentColor' d='M0,-1.33 L-1.33,0.67 L1.33,0.67 z'/>
	<use xlink:href='#gpPt7' id='gpPt8' fill='currentColor' stroke='none'/>
	<use xlink:href='#gpPt7' id='gpPt9' stroke='currentColor' transform='rotate(180)'/>
	<use xlink:href='#gpPt9' id='gpPt10' fill='currentColor' stroke='none'/>
	<use xlink:href='#gpPt3' id='gpPt11' stroke='currentColor' transform='rotate(45)'/>
	<use xlink:href='#gpPt11' id='gpPt12' fill='currentColor' stroke='none'/>
	<path id='gpPt13' stroke-width='0.222' stroke='currentColor' d='M0,1.330 L1.265,0.411 L0.782,-1.067 L-0.782,-1.076 L-1.265,0.411 z'/>
	<use xlink:href='#gpPt13' id='gpPt14' fill='currentColor' stroke='none'/>
	<filter id='textbox' filterUnits='objectBoundingBox' x='0' y='0' height='1' width='1'>
	  <feFlood flood-color='white' flood-opacity='1' result='bgnd'/>
	  <feComposite in='SourceGraphic' in2='bgnd' operator='atop'/>
	</filter>
	<filter id='greybox' filterUnits='objectBoundingBox' x='0' y='0' height='1' width='1'>
	  <feFlood flood-color='lightgrey' flood-opacity='1' result='grey'/>
	  <feComposite in='SourceGraphic' in2='grey' operator='atop'/>
	</filter>
</defs>
<g fill="none" color="white" stroke="currentColor" stroke-width="1.00" stroke-linecap="butt" stroke-linejoin="miter">
</g>
<g fill="none" color="black" stroke="currentColor" stroke-width="1.00" stroke-linecap="butt" stroke-linejoin="miter">
	<path stroke='black'  d='M87.1,703.4 L96.1,703.4 M1255.0,703.4 L1246.0,703.4  '/>	<g transform="translate(78.8,707.3)" stroke="none" fill="black" font-family="Arial" font-size="12.00"  text-anchor="end">
		<text><tspan font-family="Arial" >-98.504</tspan></text>
	</g>
</g>
<g fill="none" color="black" stroke="currentColor" stroke-width="1.00" stroke-linecap="butt" stroke-linejoin="miter">
	<path stroke='black'  d='M87.1,73.3 L96.1,73.3 M1255.0,73.3 L1246.0,73.3  '/>	<g transform="translate(78.8,77.2)" stroke="none" fill="black" font-family="Arial" font-size="12.00"  text-anchor="end">
		<text><tspan font-family="Arial" > 115.669</tspan></text>
	</g>
</g>
<g fill="none" color="black" stroke="currentColor" stroke-width="1.00" stroke-linecap="butt" stroke-linejoin="miter">
	<path stroke='black'  d='M87.1,54.1 L96.1,54.1 M1255.0,54.1 L1246.0,54.1  '/>	<g transform="translate(78.8,58.0)" stroke="none" fill="black" font-family="Arial" font-size="12.00"  text-anchor="end">
		<text><tspan font-family="Arial" > 122.188</tspan></text>
	</g>
</g>
<g fill="none" color="black" stroke="currentColor" stroke-width="1.00" stroke-linecap="butt" stroke-linejoin="miter">
</g>
<g fill="none" color="black" stroke="currentColor" stroke-width="1.00" stroke-linecap="butt" stroke-linejoin="miter">
	<path stroke='black'  d='M87.1,54.1 L87.1,703.4 L1255.0,703.4 L1255.0,54.1 L87.1,54.1 Z  '/></g>
<g fill="none" color="black" stroke="currentColor" stroke-width="1.00" stroke-linecap="butt" stroke-linejoin="miter">
	<g transform="translate(671.0,31.0)" stroke="none" fill="black" font-family="Arial" font-size="12.00"  text-anchor="middle">
		<text><tspan font-family="Arial" >Material 37, 4 components</tspan></text>
	</g>
</g>
	<g id="gnuplot_plot_1" ><title>log(likelihood)</title>
<g fill="none" color="black" stroke="currentColor" stroke-width="1.00" stroke-linecap="butt" stroke-linejoin="miter">
	<g transform="translate(1187.9,76.0)" stroke="none" fill="black" font-family="Arial" font-size="12.00"  text-anchor="end">
		<text><tspan font-family="Arial" >log(likelihood)</tspan></text>
	</g>
</g>
<g fill="none" color="black" stroke="currentColor" stroke-width="1.00" stroke-linecap="butt" stroke-linejoin="miter">
	<g stroke='none' shape-rendering='crispEdges'>
		<polygon fill = 'rgb(148,   0, 211)' fill-opacity = '0.100000' points = '1196.2,76.6 1238.4,76.6 1238.4,67.6 1196.2,67.6 '/>
	</g>
	<path stroke='rgb(148,   0, 211)'  d='M1196.2,76.6 L1238.4,76.6 L1238.4,67.6 L1196.2,67.6 L1196.2,76.6 Z  '/></g>
<g fill="none" color="black" stroke="currentColor" stroke-width="1.00" stroke-linecap="butt" stroke-linejoin="miter">
	<g stroke='none' shape-rendering='crispEdges'>
		<polygon fill = 'rgb(148,   0, 211)' fill-opacity = '0.100000' points = '87.1,703.4 88.7,603.0 90.4,587.5 92.0,585.7 93.7,582.5 95.3,578.6 96.9,571.8 98.6,563.5 100.2,558.2 101.8,541.0 103.5,525.3 105.1,476.2 106.8,462.0 108.4,416.2 110.0,356.5 111.7,314.6
113.3,293.3 114.9,239.4 116.6,200.3 118.2,150.4 119.9,152.6 121.5,134.6 123.1,111.7 124.8,110.6 126.4,100.2 128.1,91.9 129.7,81.2 131.3,79.0 133.0,71.7 134.6,71.3 136.2,67.2 137.9,63.5
139.5,69.3 141.2,64.1 142.8,59.7 144.4,61.3 146.1,61.7 147.7,59.5 149.3,61.8 151.0,66.2 152.6,61.8 154.3,62.3 155.9,65.0 157.5,62.0 159.2,62.7 160.8,63.2 162.4,64.2 164.1,61.9
165.7,60.9 167.4,62.4 169.0,60.8 170.6,63.9 172.3,61.5 173.9,59.3 175.6,59.3 177.2,61.5 178.8,62.0 180.5,61.9 182.1,60.6 183.7,62.5 185.4,62.2 187.0,60.2 188.7,63.7 190.3,62.5
191.9,61.9 193.6,60.0 195.2,58.4 196.8,59.2 198.5,61.9 200.1,61.8 201.8,61.3 203.4,62.9 205.0,61.2 206.7,62.5 208.3,63.6 210.0,61.4 211.6,63.4 213.2,61.3 214.9,63.5 216.5,61.9
218.1,60.9 219.8,58.9 221.4,60.6 223.1,65.9 224.7,63.1 226.3,60.3 228.0,63.1 229.6,61.4 231.2,61.2 232.9,58.1 234.5,61.7 236.2,64.0 237.8,60.0 239.4,60.2 241.1,62.5 242.7,58.1
244.3,61.8 246.0,61.6 247.6,61.3 249.3,61.4 250.9,58.8 252.5,61.8 254.2,64.9 255.8,63.6 257.5,61.6 259.1,61.7 260.7,61.6 262.4,61.3 264.0,64.7 265.6,63.1 267.3,62.2 268.9,61.3
270.6,59.5 272.2,62.2 273.8,65.4 275.5,61.5 277.1,61.6 278.7,63.1 280.4,61.1 282.0,60.7 283.7,62.8 285.3,63.0 286.9,61.2 288.6,64.7 290.2,56.3 291.9,59.0 293.5,60.0 295.1,62.8
296.8,60.8 298.4,60.5 300.0,60.6 301.7,63.1 303.3,61.6 305.0,62.4 306.6,60.6 308.2,62.4 309.9,62.4 311.5,63.8 313.1,63.0 314.8,61.9 316.4,60.8 318.1,63.9 319.7,63.1 321.3,62.0
323.0,63.7 324.6,62.6 326.2,63.7 327.9,60.3 329.5,57.7 331.2,59.9 332.8,57.4 334.4,59.0 336.1,61.1 337.7,64.4 339.4,62.7 341.0,63.7 342.6,56.2 344.3,61.7 345.9,61.2 347.5,63.1
349.2,58.9 350.8,59.2 352.5,62.2 354.1,64.5 355.7,62.3 357.4,60.4 359.0,63.8 360.6,59.4 362.3,63.2 363.9,62.5 365.6,62.2 367.2,63.4 368.8,60.5 370.5,59.0 372.1,57.7 373.8,63.5
375.4,62.7 377.0,60.9 378.7,61.2 380.3,63.7 381.9,63.7 383.6,60.4 385.2,62.0 386.9,58.6 388.5,63.0 390.1,61.6 391.8,59.1 393.4,62.4 395.0,59.4 396.7,60.9 398.3,62.4 400.0,60.0
401.6,59.7 403.2,57.5 404.9,64.3 406.5,63.6 408.1,62.0 409.8,61.3 411.4,62.2 413.1,60.5 414.7,61.0 416.3,59.2 418.0,61.3 419.6,61.9 421.3,60.3 422.9,62.3 424.5,60.1 426.2,58.7
427.8,65.3 429.4,62.3 431.1,65.1 432.7,60.7 434.4,63.2 436.0,56.2 437.6,60.1 439.3,60.7 440.9,62.6 442.5,62.5 444.2,62.1 445.8,64.4 447.5,62.6 449.1,59.8 450.7,63.7 452.4,62.9
454.0,59.0 455.7,60.9 457.3,61.8 458.9,61.7 460.6,58.7 462.2,59.5 463.8,58.4 465.5,61.5 467.1,61.2 468.8,60.9 470.4,64.8 472.0,62.8 473.7,62.9 475.3,65.8 476.9,59.7 478.6,62.8
480.2,62.3 481.9,61.1 483.5,60.9 485.1,59.5 486.8,60.4 488.4,58.4 490.1,62.4 491.7,61.6 493.3,64.0 495.0,65.8 496.6,60.6 498.2,64.3 499.9,62.6 501.5,60.2 503.2,66.2 504.8,61.8
506.4,63.0 508.1,60.3 509.7,58.1 511.3,62.2 513.0,62.0 514.6,63.2 516.3,64.0 517.9,58.2 519.5,63.9 521.2,60.2 522.8,62.2 524.4,60.7 526.1,63.1 527.7,59.9 529.4,64.2 531.0,63.0
532.6,62.5 534.3,63.4 535.9,61.0 537.6,62.6 539.2,62.3 540.8,63.3 542.5,59.2 544.1,56.5 545.7,56.9 547.4,56.6 549.0,59.9 550.7,58.8 552.3,63.9 553.9,61.8 555.6,58.8 557.2,58.7
558.8,63.5 560.5,60.9 562.1,58.2 563.8,61.1 565.4,62.7 567.0,60.9 568.7,62.3 570.3,57.1 572.0,60.9 573.6,61.1 575.2,63.2 576.9,62.4 578.5,62.7 580.1,62.9 581.8,59.2 583.4,61.4
585.1,63.0 586.7,63.4 588.3,62.9 590.0,58.5 591.6,61.8 593.2,59.3 594.9,62.0 596.5,60.0 598.2,58.9 599.8,61.1 601.4,56.4 603.1,59.5 604.7,56.3 606.3,62.8 608.0,58.5 609.6,62.0
611.3,62.2 612.9,60.9 614.5,64.1 616.2,60.7 617.8,59.2 619.5,59.9 621.1,57.6 622.7,59.2 624.4,62.2 626.0,58.9 627.6,59.3 629.3,61.8 630.9,62.6 632.6,58.9 634.2,59.4 635.8,59.2
637.5,61.9 639.1,59.5 640.7,60.9 642.4,62.7 644.0,61.2 645.7,62.0 647.3,62.6 648.9,62.0 650.6,56.1 652.2,63.6 653.9,64.5 655.5,59.2 657.1,64.6 658.8,61.4 660.4,57.9 662.0,60.8
663.7,63.0 665.3,61.5 667.0,60.3 668.6,58.5 670.2,64.9 671.9,59.5 673.5,60.5 675.1,61.4 676.8,57.9 678.4,65.8 680.1,57.5 681.7,63.4 683.3,62.6 685.0,62.5 686.6,64.1 688.2,58.4
689.9,63.0 691.5,63.9 693.2,62.0 694.8,62.2 696.4,60.3 698.1,64.5 699.7,60.5 701.4,57.8 703.0,64.7 704.6,65.3 706.3,62.7 707.9,63.3 709.5,59.3 711.2,61.9 712.8,62.2 714.5,59.1
716.1,58.6 717.7,63.0 719.4,62.1 721.0,62.4 722.6,57.4 724.3,62.6 725.9,59.8 727.6,58.6 729.2,59.8 730.8,60.6 732.5,63.0 734.1,57.5 735.8,64.5 737.4,60.7 739.0,60.5 740.7,62.2
742.3,62.1 743.9,56.7 745.6,62.2 747.2,61.2 748.9,59.5 750.5,60.7 752.1,61.6 753.8,60.5 755.4,63.6 757.0,62.3 758.7,60.4 760.3,59.8 762.0,62.6 763.6,60.3 765.2,60.8 766.9,60.3
768.5,62.3 770.1,63.8 771.8,64.6 773.4,62.7 775.1,62.3 776.7,61.4 778.3,63.9 780.0,60.8 781.6,62.7 783.3,62.6 784.9,63.3 786.5,62.2 788.2,62.4 789.8,63.3 791.4,62.4 793.1,62.2
794.7,58.4 796.4,62.8 798.0,63.2 799.6,62.8 801.3,60.0 802.9,59.1 804.5,61.1 806.2,62.5 807.8,66.1 809.5,62.3 811.1,57.5 812.7,62.7 814.4,59.3 816.0,61.0 817.7,63.2 819.3,61.4
820.9,61.5 822.6,63.3 824.2,60.2 825.8,59.3 827.5,61.8 829.1,58.4 830.8,61.1 832.4,64.6 834.0,63.6 835.7,57.8 837.3,64.2 838.9,64.2 840.6,61.1 842.2,63.0 843.9,66.5 845.5,63.8
847.1,63.6 848.8,61.5 850.4,61.0 852.0,65.0 853.7,62.3 855.3,62.5 857.0,61.5 858.6,56.6 860.2,65.1 861.9,63.7 863.5,64.4 865.2,63.0 866.8,61.6 868.4,59.6 870.1,57.7 871.7,65.2
873.3,62.1 875.0,57.3 876.6,62.3 878.3,62.5 879.9,62.4 881.5,62.3 883.2,60.0 884.8,60.8 886.4,64.4 888.1,60.1 889.7,58.5 891.4,62.2 893.0,62.9 894.6,60.4 896.3,62.6 897.9,59.7
899.6,62.8 901.2,60.3 902.8,62.6 904.5,62.3 906.1,62.8 907.7,61.0 909.4,60.2 911.0,60.6 912.7,61.2 914.3,58.9 915.9,57.3 917.6,60.0 919.2,63.8 920.8,60.7 922.5,60.1 924.1,61.0
925.8,61.7 927.4,60.1 929.0,63.0 930.7,60.9 932.3,64.0 934.0,63.6 935.6,62.0 937.2,62.1 938.9,61.5 940.5,61.6 942.1,61.6 943.8,61.7 945.4,63.8 947.1,63.0 948.7,58.9 950.3,58.9
952.0,60.6 953.6,61.3 955.2,58.2 956.9,60.2 958.5,59.9 960.2,61.3 961.8,61.5 963.4,61.7 965.1,58.0 966.7,62.5 968.3,62.5 970.0,58.4 971.6,56.5 973.3,61.7 974.9,59.3 976.5,63.3
978.2,63.1 979.8,64.4 981.5,63.9 983.1,61.2 984.7,59.0 986.4,56.3 988.0,62.0 989.6,59.7 991.3,60.9 992.9,61.2 994.6,58.6 996.2,61.0 997.8,61.6 999.5,62.2 1001.1,59.1 1002.7,61.2
1004.4,58.5 1006.0,61.6 1007.7,62.8 1009.3,62.0 1010.9,64.0 1012.6,61.9 1014.2,58.8 1015.9,60.7 1017.5,64.5 1019.1,59.5 1020.8,65.4 1022.4,66.3 1024.0,64.7 1025.7,64.7 1027.3,58.7 1029.0,62.1
1030.6,63.1 1032.2,60.5 1033.9,62.8 1035.5,63.1 1037.1,59.4 1038.8,61.5 1040.4,64.6 1042.1,61.2 1043.7,62.2 1045.3,65.6 1047.0,61.6 1048.6,59.4 1050.2,60.3 1051.9,61.6 1053.5,58.0 1055.2,61.7
1056.8,64.0 1058.4,58.3 1060.1,57.9 1061.7,59.1 1063.4,61.3 1065.0,63.1 1066.6,58.0 1068.3,59.2 1069.9,59.3 1071.5,59.4 1073.2,59.5 1074.8,62.3 1076.5,61.3 1078.1,60.7 1079.7,62.0 1081.4,61.4
1083.0,63.3 1084.6,63.3 1086.3,63.0 1087.9,61.6 1089.6,62.6 1091.2,63.4 1092.8,62.3 1094.5,54.3 1096.1,60.4 1097.8,62.4 1099.4,63.4 1101.0,60.5 1102.7,59.8 1104.3,64.3 1105.9,60.6 1107.6,62.0
1109.2,62.4 1110.9,63.9 1112.5,61.3 1114.1,61.7 1115.8,62.1 1117.4,61.6 1119.0,64.8 1120.7,62.5 1122.3,60.9 1124.0,57.3 1125.6,61.2 1127.2,64.7 1128.9,59.3 1130.5,62.2 1132.1,59.2 1133.8,65.8
1135.4,61.7 1137.1,61.0 1138.7,63.5 1140.3,61.0 1142.0,61.0 1143.6,63.3 1145.3,62.9 1146.9,61.7 1148.5,54.1 1150.2,60.7 1151.8,60.8 1153.4,64.3 1155.1,62.3 1156.7,63.5 1158.4,63.5 1160.0,61.5
1161.6,58.6 1163.3,60.3 1164.9,57.3 1166.5,62.0 1168.2,57.4 1169.8,62.2 1171.5,61.0 1173.1,59.5 1174.7,56.9 1176.4,63.4 1178.0,58.8 1179.7,56.8 1181.3,66.3 1182.9,61.1 1184.6,64.8 1186.2,60.0
1187.8,62.0 1189.5,63.6 1191.1,60.9 1192.8,60.2 1194.4,62.1 1196.0,63.7 1197.7,59.3 1199.3,60.9 1200.9,62.6 1202.6,61.0 1204.2,61.4 1205.9,63.4 1207.5,60.8 1209.1,60.5 1210.8,59.8 1212.4,62.1
1214.0,61.7 1215.7,60.9 1217.3,58.2 1219.0,60.2 1220.6,59.1 1222.2,61.0 1223.9,61.1 1225.5,58.8 1227.2,61.0 1228.8,66.4 1230.4,61.3 1232.1,57.9 1233.7,64.5 1235.3,61.7 1237.0,65.8 1238.6,62.8
1240.3,62.0 1241.9,60.2 1243.5,65.7 1245.2,61.2 1246.8,61.6 1248.4,58.0 1250.1,61.4 1251.7,62.1 1253.4,61.6 1255.0,61.9 1255.0,703.4 87.1,703.4 '/>
	</g>
</g>
	</g>
	<g id="gnuplot_plot_2" ><title>trendline (m=0.033246,b=103.799711)</title>
<g fill="none" color="black" stroke="currentColor" stroke-width="1.00" stroke-linecap="butt" stroke-linejoin="miter">
	<g transform="translate(1187.9,94.0)" stroke="none" fill="black" font-family="Arial" font-size="12.00"  text-anchor="end">
		<text><tspan font-family="Arial" >trendline (m=0.033246,b=103.799711)</tspan></text>
	</g>
</g>
<g fill="none" color="black" stroke="currentColor" stroke-width="1.00" stroke-linecap="butt" stroke-linejoin="miter">
	<path stroke='black'  d='M1196.2,90.1 L1238.4,90.1 M87.1,108.2 L98.9,107.5 L110.7,106.8 L122.5,106.1 L134.3,105.4 L146.1,104.7
		L157.9,104.0 L169.7,103.3 L181.5,102.6 L193.3,101.9 L205.1,101.2 L216.9,100.5 L228.7,99.7 L240.5,99.0
		L252.3,98.3 L264.1,97.6 L275.9,96.9 L287.6,96.2 L299.4,95.5 L311.2,94.8 L323.0,94.1 L334.8,93.4
		L346.6,92.7 L358.4,92.0 L370.2,91.3 L382.0,90.6 L393.8,89.9 L405.6,89.2 L417.4,88.5 L429.2,87.8
		L441.0,87.1 L452.8,86.4 L464.6,85.7 L476.4,85.0 L488.2,84.2 L500.0,83.5 L511.8,82.8 L523.6,82.1
		L535.4,81.4 L547.2,80.7 L559.0,80.0 L570.8,79.3 L582.6,78.6 L594.4,77.9 L606.2,77.2 L618.0,76.5
		L629.8,75.8 L641.6,75.1 L653.4,74.4 L665.2,73.7 L676.9,73.0 L688.7,72.3 L700.5,71.6 L712.3,70.9
		L724.1,70.2 L735.9,69.5 L747.7,68.8 L759.5,68.0 L771.3,67.3 L783.1,66.6 L794.9,65.9 L806.7,65.2
		L818.5,64.5 L830.3,63.8 L842.1,63.1 L853.9,62.4 L865.7,61.7 L877.5,61.0 L889.3,60.3 L901.1,59.6
		L912.9,58.9 L924.7,58.2 L936.5,57.5 L948.3,56.8 L960.1,56.1 L971.9,55.4 L983.7,54.7 L993.1,54.1
		 '/></g>
	</g>
<g fill="none" color="white" stroke="black" stroke-width="2.00" stroke-linecap="butt" stroke-linejoin="miter">
</g>
<g fill="none" color="black" stroke="currentColor" stroke-width="2.00" stroke-linecap="butt" stroke-linejoin="miter">
</g>
<g fill="none" color="black" stroke="black" stroke-width="1.00" stroke-linecap="butt" stroke-linejoin="miter">
</g>
<g fill="none" color="black" stroke="currentColor" stroke-width="1.00" stroke-linecap="butt" stroke-linejoin="miter">
	<path stroke='black'  d='M87.1,54.1 L87.1,703.4 L1255.0,703.4 L1255.0,54.1 L87.1,54.1 Z  '/></g>
<g fill="none" color="black" stroke="currentColor" stroke-width="1.00" stroke-linecap="butt" stroke-linejoin="miter">
</g>
</g>
</svg>

