<?xml version="1.0" encoding="utf-8"  standalone="no"?>
<svg 
 width="1280" height="720"
 viewBox="0 0 1280 720"
 xmlns="http://www.w3.org/2000/svg"
 xmlns:xlink="http://www.w3.org/1999/xlink"
>

<title>Gnuplot</title>
<desc>Produced by GNUPLOT 5.2 patchlevel 2 </desc>

<g id="gnuplot_canvas">

<rect x="0" y="0" width="1280" height="720" fill="none"/>
<defs>

	<circle id='gpDot' r='0.5' stroke-width='0.5'/>
	<path id='gpPt0' stroke-width='0.222' stroke='currentColor' d='M-1,0 h2 M0,-1 v2'/>
	<path id='gpPt1' stroke-width='0.222' stroke='currentColor' d='M-1,-1 L1,1 M1,-1 L-1,1'/>
	<path id='gpPt2' stroke-width='0.222' stroke='currentColor' d='M-1,0 L1,0 M0,-1 L0,1 M-1,-1 L1,1 M-1,1 L1,-1'/>
	<rect id='gpPt3' stroke-width='0.222' stroke='currentColor' x='-1' y='-1' width='2' height='2'/>
	<rect id='gpPt4' stroke-width='0.222' stroke='currentColor' fill='currentColor' x='-1' y='-1' width='2' height='2'/>
	<circle id='gpPt5' stroke-width='0.222' stroke='currentColor' cx='0' cy='0' r='1'/>
	<use xlink:href='#gpPt5' id='gpPt6' fill='currentColor' stroke='none'/>
	<path id='gpPt7' stroke-width='0.222' stroke='currentColor' d='M0,-1.33 L-1.33,0.67 L1.33,0.67 z'/>
	<use xlink:href='#gpPt7' id='gpPt8' fill='currentColor' stroke='none'/>
	<use xlink:href='#gpPt7' id='gpPt9' stroke='currentColor' transform='rotate(180)'/>
	<use xlink:href='#gpPt9' id='gpPt10' fill='currentColor' stroke='none'/>
	<use xlink:href='#gpPt3' id='gpPt11' stroke='currentColor' transform='rotate(45)'/>
	<use xlink:href='#gpPt11' id='gpPt12' fill='currentColor' stroke='none'/>
	<path id='gpPt13' stroke-width='0.222' stroke='currentColor' d='M0,1.330 L1.265,0.411 L0.782,-1.067 L-0.782,-1.076 L-1.265,0.411 z'/>
	<use xlink:href='#gpPt13' id='gpPt14' fill='currentColor' stroke='none'/>
	<filter id='textbox' filterUnits='objectBoundingBox' x='0' y='0' height='1' width='1'>
	  <feFlood flood-color='white' flood-opacity='1' result='bgnd'/>
	  <feComposite in='SourceGraphic' in2='bgnd' operator='atop'/>
	</filter>
	<filter id='greybox' filterUnits='objectBoundingBox' x='0' y='0' height='1' width='1'>
	  <feFlood flood-color='lightgrey' flood-opacity='1' result='grey'/>
	  <feComposite in='SourceGraphic' in2='grey' operator='atop'/>
	</filter>
</defs>
<g fill="none" color="white" stroke="currentColor" stroke-width="1.00" stroke-linecap="butt" stroke-linejoin="miter">
</g>
<g fill="none" color="black" stroke="currentColor" stroke-width="1.00" stroke-linecap="butt" stroke-linejoin="miter">
	<path stroke='black'  d='M87.1,703.4 L96.1,703.4 M1255.0,703.4 L1246.0,703.4  '/>	<g transform="translate(78.8,707.3)" stroke="none" fill="black" font-family="Arial" font-size="12.00"  text-anchor="end">
		<text><tspan font-family="Arial" > 397.412</tspan></text>
	</g>
</g>
<g fill="none" color="black" stroke="currentColor" stroke-width="1.00" stroke-linecap="butt" stroke-linejoin="miter">
	<path stroke='black'  d='M87.1,97.0 L96.1,97.0 M1255.0,97.0 L1246.0,97.0  '/>	<g transform="translate(78.8,100.9)" stroke="none" fill="black" font-family="Arial" font-size="12.00"  text-anchor="end">
		<text><tspan font-family="Arial" > 424.765</tspan></text>
	</g>
</g>
<g fill="none" color="black" stroke="currentColor" stroke-width="1.00" stroke-linecap="butt" stroke-linejoin="miter">
	<path stroke='black'  d='M87.1,54.1 L96.1,54.1 M1255.0,54.1 L1246.0,54.1  '/>	<g transform="translate(78.8,58.0)" stroke="none" fill="black" font-family="Arial" font-size="12.00"  text-anchor="end">
		<text><tspan font-family="Arial" > 426.7</tspan></text>
	</g>
</g>
<g fill="none" color="black" stroke="currentColor" stroke-width="1.00" stroke-linecap="butt" stroke-linejoin="miter">
</g>
<g fill="none" color="black" stroke="currentColor" stroke-width="1.00" stroke-linecap="butt" stroke-linejoin="miter">
	<path stroke='black'  d='M87.1,54.1 L87.1,703.4 L1255.0,703.4 L1255.0,54.1 L87.1,54.1 Z  '/></g>
<g fill="none" color="black" stroke="currentColor" stroke-width="1.00" stroke-linecap="butt" stroke-linejoin="miter">
	<g transform="translate(671.0,31.0)" stroke="none" fill="black" font-family="Arial" font-size="12.00"  text-anchor="middle">
		<text><tspan font-family="Arial" >Material 29, 8 components</tspan></text>
	</g>
</g>
	<g id="gnuplot_plot_1" ><title>log(likelihood)</title>
<g fill="none" color="black" stroke="currentColor" stroke-width="1.00" stroke-linecap="butt" stroke-linejoin="miter">
	<g transform="translate(1187.9,76.0)" stroke="none" fill="black" font-family="Arial" font-size="12.00"  text-anchor="end">
		<text><tspan font-family="Arial" >log(likelihood)</tspan></text>
	</g>
</g>
<g fill="none" color="black" stroke="currentColor" stroke-width="1.00" stroke-linecap="butt" stroke-linejoin="miter">
	<g stroke='none' shape-rendering='crispEdges'>
		<polygon fill = 'rgb(148,   0, 211)' fill-opacity = '0.100000' points = '1196.2,76.6 1238.4,76.6 1238.4,67.6 1196.2,67.6 '/>
	</g>
	<path stroke='rgb(148,   0, 211)'  d='M1196.2,76.6 L1238.4,76.6 L1238.4,67.6 L1196.2,67.6 L1196.2,76.6 Z  '/></g>
<g fill="none" color="black" stroke="currentColor" stroke-width="1.00" stroke-linecap="butt" stroke-linejoin="miter">
	<g stroke='none' shape-rendering='crispEdges'>
		<polygon fill = 'rgb(148,   0, 211)' fill-opacity = '0.100000' points = '87.1,703.4 87.7,661.3 88.3,645.6 88.9,629.8 89.5,454.0 90.2,479.9 90.8,412.4 91.4,410.6 92.0,406.7 92.6,285.8 93.2,238.2 93.8,293.9 94.4,286.4 95.0,231.2 95.7,286.7 96.3,276.3
96.9,258.4 97.5,258.4 98.1,232.2 98.7,259.6 99.3,244.3 99.9,228.7 100.5,247.0 101.1,244.5 101.8,210.1 102.4,245.1 103.0,206.9 103.6,185.5 104.2,211.1 104.8,202.1 105.4,205.1 106.0,152.0
106.6,201.9 107.3,247.6 107.9,174.9 108.5,181.8 109.1,185.0 109.7,185.3 110.3,182.6 110.9,184.4 111.5,163.8 112.1,163.8 112.8,94.2 113.4,103.6 114.0,102.2 114.6,114.3 115.2,109.4 115.8,102.1
116.4,95.5 117.0,149.1 117.6,132.7 118.3,148.2 118.9,121.0 119.5,144.1 120.1,142.0 120.7,148.7 121.3,135.4 121.9,140.8 122.5,142.1 123.1,131.8 123.7,131.8 124.4,141.6 125.0,137.4 125.6,140.6
126.2,138.5 126.8,136.9 127.4,120.4 128.0,122.2 128.6,122.2 129.2,134.3 129.9,132.3 130.5,139.8 131.1,166.7 131.7,170.8 132.3,168.0 132.9,164.4 133.5,171.2 134.1,154.4 134.7,126.5 135.4,130.1
136.0,127.9 136.6,132.2 137.2,132.8 137.8,130.4 138.4,133.5 139.0,131.6 139.6,125.9 140.2,143.1 140.9,139.0 141.5,134.8 142.1,133.8 142.7,127.6 143.3,121.0 143.9,126.8 144.5,112.1 145.1,127.7
145.7,127.7 146.4,127.7 147.0,127.7 147.6,125.8 148.2,99.5 148.8,101.6 149.4,101.6 150.0,101.6 150.6,106.1 151.2,128.9 151.8,137.7 152.5,124.7 153.1,114.6 153.7,126.3 154.3,121.0 154.9,104.7
155.5,103.2 156.1,105.5 156.7,105.5 157.3,105.5 158.0,105.3 158.6,105.4 159.2,104.7 159.8,103.8 160.4,104.0 161.0,95.3 161.6,97.5 162.2,97.5 162.8,96.8 163.5,93.0 164.1,93.0 164.7,96.7
165.3,104.0 165.9,104.4 166.5,104.6 167.1,101.3 167.7,107.0 168.3,103.4 169.0,103.6 169.6,105.2 170.2,107.9 170.8,105.3 171.4,109.2 172.0,107.7 172.6,109.9 173.2,107.7 173.8,86.6 174.4,107.7
175.1,104.8 175.7,105.3 176.3,118.0 176.9,119.6 177.5,127.0 178.1,125.0 178.7,127.0 179.3,127.4 179.9,127.0 180.6,126.1 181.2,116.3 181.8,94.6 182.4,121.7 183.0,116.4 183.6,113.6 184.2,120.6
184.8,100.6 185.4,111.6 186.1,108.3 186.7,111.6 187.3,112.0 187.9,116.4 188.5,119.6 189.1,125.4 189.7,114.8 190.3,115.3 190.9,105.5 191.6,113.5 192.2,113.5 192.8,104.2 193.4,106.2 194.0,104.2
194.6,105.1 195.2,96.6 195.8,106.0 196.4,103.2 197.0,102.3 197.7,98.7 198.3,97.6 198.9,91.1 199.5,95.1 200.1,90.9 200.7,93.2 201.3,106.6 201.9,110.9 202.5,110.9 203.2,106.0 203.8,106.0
204.4,89.6 205.0,89.3 205.6,99.9 206.2,100.7 206.8,100.7 207.4,102.3 208.0,96.5 208.7,95.2 209.3,97.2 209.9,95.2 210.5,100.1 211.1,100.1 211.7,107.5 212.3,107.5 212.9,115.3 213.5,106.1
214.2,102.9 214.8,101.8 215.4,94.6 216.0,115.2 216.6,107.7 217.2,101.7 217.8,114.8 218.4,121.3 219.0,118.5 219.6,124.9 220.3,121.9 220.9,120.2 221.5,129.3 222.1,134.8 222.7,135.5 223.3,125.7
223.9,129.0 224.5,107.3 225.1,129.3 225.8,109.6 226.4,134.1 227.0,98.7 227.6,91.0 228.2,90.5 228.8,97.5 229.4,100.1 230.0,100.1 230.6,95.5 231.3,95.5 231.9,94.0 232.5,94.0 233.1,94.0
233.7,97.0 234.3,99.1 234.9,96.4 235.5,100.8 236.1,97.4 236.8,99.9 237.4,109.5 238.0,115.1 238.6,102.5 239.2,107.4 239.8,103.9 240.4,103.9 241.0,103.9 241.6,103.9 242.2,100.3 242.9,107.4
243.5,108.4 244.1,97.8 244.7,101.9 245.3,101.9 245.9,88.0 246.5,99.9 247.1,99.9 247.7,92.8 248.4,79.6 249.0,100.9 249.6,95.0 250.2,80.5 250.8,91.9 251.4,94.4 252.0,96.9 252.6,96.9
253.2,95.0 253.9,99.1 254.5,98.9 255.1,82.1 255.7,80.0 256.3,82.5 256.9,71.3 257.5,69.5 258.1,69.3 258.7,68.0 259.4,68.1 260.0,72.4 260.6,70.0 261.2,70.3 261.8,70.3 262.4,68.5
263.0,68.6 263.6,70.9 264.2,71.9 264.9,71.6 265.5,71.6 266.1,74.9 266.7,78.8 267.3,76.6 267.9,73.9 268.5,74.1 269.1,77.7 269.7,76.5 270.3,103.8 271.0,88.2 271.6,96.5 272.2,92.5
272.8,94.9 273.4,85.8 274.0,88.0 274.6,88.0 275.2,79.3 275.8,78.0 276.5,78.0 277.1,72.4 277.7,81.9 278.3,89.0 278.9,87.2 279.5,101.4 280.1,115.0 280.7,109.0 281.3,117.9 282.0,114.8
282.6,98.7 283.2,101.3 283.8,95.6 284.4,95.0 285.0,95.6 285.6,99.9 286.2,98.8 286.8,94.5 287.5,109.1 288.1,115.0 288.7,96.6 289.3,113.2 289.9,103.6 290.5,102.5 291.1,98.2 291.7,96.2
292.3,94.8 292.9,107.1 293.6,111.0 294.2,112.6 294.8,107.1 295.4,105.6 296.0,102.1 296.6,93.3 297.2,102.7 297.8,102.7 298.4,99.2 299.1,89.2 299.7,90.8 300.3,87.3 300.9,87.3 301.5,92.5
302.1,95.4 302.7,82.4 303.3,79.8 303.9,78.8 304.6,74.2 305.2,77.7 305.8,75.7 306.4,72.0 307.0,70.8 307.6,70.8 308.2,70.8 308.8,69.8 309.4,66.6 310.1,66.6 310.7,66.6 311.3,66.6
311.9,66.0 312.5,66.0 313.1,66.0 313.7,66.4 314.3,64.5 314.9,64.4 315.5,64.4 316.2,84.9 316.8,83.9 317.4,84.1 318.0,76.7 318.6,77.8 319.2,81.9 319.8,81.9 320.4,81.8 321.0,67.3
321.7,84.2 322.3,78.9 322.9,72.9 323.5,76.9 324.1,77.6 324.7,77.4 325.3,79.9 325.9,78.5 326.5,80.2 327.2,78.2 327.8,85.9 328.4,85.0 329.0,78.9 329.6,85.3 330.2,86.3 330.8,86.3
331.4,86.5 332.0,86.5 332.7,86.5 333.3,86.3 333.9,80.9 334.5,81.6 335.1,82.5 335.7,85.9 336.3,85.9 336.9,82.9 337.5,82.9 338.1,85.1 338.8,92.9 339.4,92.9 340.0,89.3 340.6,86.0
341.2,92.7 341.8,93.0 342.4,89.0 343.0,95.5 343.6,96.3 344.3,89.3 344.9,93.9 345.5,93.4 346.1,85.4 346.7,87.4 347.3,84.9 347.9,85.5 348.5,77.0 349.1,77.0 349.8,73.3 350.4,85.2
351.0,83.6 351.6,87.3 352.2,87.0 352.8,89.3 353.4,90.9 354.0,90.9 354.6,93.5 355.3,87.4 355.9,85.6 356.5,92.0 357.1,83.7 357.7,83.7 358.3,83.4 358.9,99.8 359.5,101.9 360.1,94.9
360.8,94.9 361.4,94.9 362.0,92.8 362.6,92.7 363.2,92.9 363.8,100.3 364.4,75.9 365.0,80.4 365.6,86.7 366.2,84.9 366.9,95.0 367.5,82.7 368.1,86.2 368.7,86.4 369.3,86.4 369.9,86.4
370.5,89.3 371.1,95.4 371.7,92.3 372.4,92.1 373.0,94.4 373.6,89.9 374.2,89.0 374.8,68.1 375.4,78.4 376.0,90.8 376.6,90.4 377.2,89.3 377.9,90.6 378.5,98.6 379.1,95.7 379.7,95.7
380.3,94.3 380.9,89.5 381.5,91.4 382.1,91.5 382.7,91.2 383.4,90.4 384.0,80.5 384.6,88.7 385.2,76.5 385.8,86.2 386.4,70.2 387.0,70.2 387.6,73.5 388.2,90.8 388.8,90.8 389.5,85.8
390.1,82.5 390.7,86.3 391.3,83.2 391.9,77.9 392.5,83.1 393.1,89.9 393.7,89.9 394.3,93.7 395.0,93.4 395.6,93.8 396.2,94.8 396.8,95.3 397.4,94.0 398.0,92.4 398.6,95.5 399.2,101.8
399.8,98.3 400.5,96.4 401.1,96.3 401.7,98.2 402.3,97.2 402.9,89.3 403.5,89.5 404.1,93.5 404.7,88.3 405.3,88.3 406.0,87.5 406.6,88.1 407.2,81.4 407.8,94.2 408.4,94.0 409.0,90.6
409.6,88.0 410.2,83.9 410.8,83.4 411.4,85.8 412.1,76.3 412.7,75.2 413.3,69.4 413.9,70.2 414.5,64.7 415.1,61.8 415.7,69.8 416.3,70.0 416.9,73.1 417.6,73.1 418.2,73.1 418.8,73.1
419.4,73.1 420.0,72.1 420.6,72.0 421.2,68.8 421.8,70.0 422.4,81.9 423.1,77.3 423.7,84.6 424.3,83.1 424.9,82.9 425.5,76.2 426.1,91.7 426.7,91.2 427.3,90.3 427.9,92.5 428.6,89.9
429.2,90.9 429.8,91.6 430.4,92.8 431.0,80.8 431.6,74.7 432.2,70.5 432.8,70.5 433.4,68.0 434.0,67.9 434.7,67.2 435.3,71.4 435.9,78.0 436.5,68.3 437.1,70.8 437.7,73.4 438.3,73.4
438.9,72.2 439.5,74.0 440.2,77.7 440.8,77.7 441.4,84.6 442.0,82.7 442.6,82.9 443.2,82.9 443.8,83.0 444.4,82.5 445.0,83.0 445.7,84.4 446.3,76.2 446.9,78.3 447.5,80.5 448.1,80.5
448.7,75.5 449.3,78.9 449.9,79.6 450.5,79.3 451.2,79.2 451.8,79.5 452.4,76.7 453.0,76.9 453.6,77.0 454.2,75.6 454.8,75.1 455.4,75.1 456.0,75.1 456.6,75.1 457.3,75.1 457.9,75.1
458.5,74.7 459.1,73.8 459.7,73.8 460.3,68.0 460.9,69.9 461.5,69.8 462.1,69.8 462.8,68.9 463.4,68.9 464.0,68.7 464.6,68.3 465.2,68.6 465.8,68.6 466.4,68.6 467.0,63.6 467.6,59.2
468.3,60.4 468.9,60.8 469.5,64.9 470.1,79.9 470.7,79.0 471.3,72.7 471.9,69.6 472.5,69.7 473.1,63.4 473.8,63.4 474.4,59.1 475.0,59.1 475.6,68.3 476.2,73.7 476.8,83.0 477.4,90.7
478.0,95.2 478.6,95.2 479.3,95.2 479.9,87.3 480.5,88.3 481.1,88.3 481.7,88.1 482.3,86.4 482.9,86.4 483.5,86.4 484.1,94.4 484.7,94.4 485.4,101.2 486.0,107.2 486.6,83.1 487.2,93.2
487.8,92.7 488.4,84.9 489.0,84.9 489.6,79.0 490.2,79.0 490.9,77.7 491.5,76.7 492.1,81.6 492.7,83.4 493.3,86.7 493.9,87.0 494.5,82.6 495.1,80.9 495.7,77.4 496.4,80.1 497.0,81.7
497.6,84.4 498.2,86.4 498.8,85.0 499.4,84.7 500.0,68.1 500.6,80.0 501.2,80.3 501.9,75.4 502.5,78.6 503.1,75.5 503.7,66.3 504.3,71.7 504.9,71.3 505.5,70.4 506.1,71.7 506.7,71.8
507.3,71.8 508.0,70.8 508.6,70.8 509.2,68.6 509.8,75.6 510.4,74.3 511.0,71.8 511.6,74.3 512.2,74.3 512.8,74.3 513.5,69.6 514.1,77.4 514.7,77.4 515.3,71.4 515.9,77.2 516.5,77.2
517.1,77.2 517.7,70.3 518.3,70.3 519.0,75.1 519.6,84.3 520.2,84.5 520.8,72.4 521.4,72.6 522.0,68.9 522.6,80.5 523.2,78.9 523.8,78.8 524.5,78.8 525.1,78.8 525.7,78.8 526.3,77.4
526.9,74.9 527.5,75.4 528.1,73.7 528.7,92.5 529.3,95.9 529.9,95.9 530.6,88.9 531.2,88.9 531.8,88.9 532.4,72.4 533.0,70.5 533.6,85.5 534.2,85.2 534.8,91.0 535.4,91.0 536.1,108.7
536.7,108.7 537.3,107.8 537.9,107.8 538.5,91.4 539.1,92.4 539.7,92.4 540.3,92.4 540.9,83.4 541.6,89.4 542.2,86.6 542.8,88.3 543.4,88.9 544.0,87.7 544.6,87.7 545.2,89.8 545.8,87.7
546.4,85.1 547.1,80.3 547.7,80.3 548.3,81.0 548.9,81.5 549.5,81.5 550.1,82.1 550.7,100.8 551.3,102.9 551.9,104.3 552.5,96.4 553.2,98.5 553.8,92.8 554.4,91.1 555.0,88.2 555.6,91.6
556.2,90.1 556.8,94.2 557.4,104.6 558.0,98.9 558.7,98.9 559.3,98.2 559.9,102.1 560.5,88.9 561.1,97.7 561.7,97.7 562.3,98.5 562.9,98.6 563.5,98.6 564.2,98.6 564.8,96.4 565.4,95.9
566.0,95.5 566.6,99.3 567.2,95.5 567.8,97.0 568.4,87.2 569.0,86.8 569.7,86.8 570.3,82.7 570.9,90.2 571.5,92.3 572.1,92.3 572.7,92.0 573.3,84.1 573.9,85.8 574.5,85.8 575.2,84.6
575.8,85.4 576.4,90.8 577.0,101.4 577.6,101.3 578.2,101.3 578.8,103.5 579.4,68.6 580.0,68.6 580.6,75.0 581.3,72.0 581.9,84.0 582.5,76.1 583.1,75.5 583.7,75.5 584.3,73.3 584.9,78.6
585.5,57.2 586.1,60.2 586.8,82.6 587.4,88.1 588.0,87.8 588.6,87.8 589.2,85.9 589.8,86.0 590.4,86.0 591.0,88.8 591.6,87.3 592.3,87.3 592.9,90.2 593.5,90.2 594.1,82.3 594.7,87.4
595.3,87.4 595.9,93.8 596.5,93.8 597.1,93.8 597.8,89.6 598.4,91.7 599.0,90.6 599.6,85.5 600.2,80.7 600.8,75.0 601.4,75.3 602.0,75.1 602.6,71.7 603.2,71.7 603.9,80.5 604.5,84.6
605.1,84.8 605.7,82.9 606.3,82.9 606.9,82.9 607.5,81.0 608.1,82.7 608.7,85.7 609.4,86.0 610.0,86.8 610.6,87.7 611.2,87.7 611.8,87.7 612.4,87.7 613.0,85.0 613.6,74.8 614.2,72.9
614.9,75.7 615.5,78.4 616.1,78.8 616.7,78.4 617.3,77.4 617.9,90.3 618.5,84.1 619.1,85.0 619.7,85.0 620.4,95.6 621.0,90.7 621.6,90.7 622.2,88.8 622.8,89.5 623.4,84.7 624.0,84.7
624.6,84.3 625.2,84.3 625.8,95.2 626.5,95.0 627.1,95.0 627.7,96.2 628.3,85.7 628.9,81.8 629.5,90.9 630.1,79.2 630.7,82.9 631.3,85.6 632.0,84.6 632.6,84.6 633.2,86.0 633.8,91.9
634.4,96.6 635.0,95.7 635.6,90.6 636.2,91.0 636.8,90.3 637.5,90.2 638.1,90.0 638.7,84.9 639.3,75.8 639.9,74.5 640.5,72.2 641.1,74.0 641.7,74.3 642.3,76.1 643.0,76.9 643.6,75.5
644.2,75.6 644.8,75.6 645.4,71.0 646.0,73.0 646.6,72.5 647.2,73.7 647.8,73.7 648.4,77.4 649.1,71.7 649.7,81.8 650.3,83.6 650.9,82.8 651.5,81.5 652.1,83.2 652.7,80.4 653.3,80.4
653.9,79.4 654.6,80.0 655.2,80.0 655.8,83.1 656.4,80.1 657.0,70.1 657.6,69.8 658.2,71.6 658.8,71.0 659.4,76.6 660.1,76.6 660.7,76.8 661.3,76.0 661.9,75.1 662.5,78.8 663.1,82.1
663.7,82.0 664.3,81.5 664.9,83.1 665.6,84.0 666.2,72.8 666.8,80.3 667.4,65.3 668.0,65.3 668.6,74.5 669.2,74.3 669.8,74.3 670.4,74.6 671.1,61.7 671.7,68.3 672.3,69.3 672.9,68.9
673.5,68.9 674.1,70.0 674.7,70.0 675.3,69.0 675.9,70.7 676.5,71.5 677.2,72.3 677.8,72.3 678.4,73.0 679.0,72.5 679.6,72.5 680.2,72.5 680.8,72.5 681.4,72.5 682.0,72.5 682.7,70.9
683.3,71.2 683.9,71.6 684.5,71.6 685.1,71.6 685.7,71.6 686.3,71.6 686.9,71.6 687.5,71.6 688.2,71.7 688.8,72.0 689.4,72.4 690.0,73.3 690.6,73.3 691.2,67.8 691.8,67.5 692.4,67.8
693.0,67.8 693.7,72.8 694.3,67.9 694.9,67.9 695.5,67.9 696.1,70.2 696.7,70.2 697.3,70.2 697.9,71.0 698.5,72.5 699.1,72.5 699.8,72.5 700.4,81.3 701.0,75.5 701.6,72.7 702.2,73.5
702.8,73.5 703.4,73.6 704.0,74.5 704.6,75.0 705.3,73.5 705.9,75.1 706.5,79.9 707.1,83.3 707.7,85.6 708.3,80.7 708.9,78.7 709.5,83.4 710.1,88.5 710.8,73.7 711.4,73.8 712.0,73.1
712.6,73.1 713.2,74.2 713.8,76.7 714.4,76.7 715.0,73.8 715.6,73.1 716.3,70.3 716.9,74.0 717.5,80.7 718.1,85.7 718.7,76.8 719.3,82.1 719.9,81.8 720.5,86.6 721.1,85.5 721.7,85.5
722.4,85.5 723.0,85.7 723.6,75.2 724.2,76.5 724.8,74.9 725.4,73.1 726.0,84.2 726.6,84.2 727.2,81.7 727.9,81.7 728.5,81.7 729.1,80.5 729.7,80.5 730.3,82.0 730.9,83.1 731.5,83.1
732.1,81.1 732.7,78.6 733.4,79.3 734.0,82.9 734.6,81.9 735.2,81.9 735.8,81.6 736.4,81.6 737.0,79.4 737.6,79.4 738.2,71.4 738.9,67.2 739.5,67.2 740.1,62.8 740.7,62.8 741.3,62.0
741.9,64.5 742.5,63.7 743.1,63.7 743.7,63.7 744.3,63.7 745.0,60.6 745.6,60.8 746.2,61.7 746.8,62.1 747.4,62.4 748.0,60.6 748.6,74.9 749.2,82.2 749.8,79.7 750.5,79.0 751.1,76.4
751.7,78.6 752.3,85.0 752.9,81.5 753.5,81.1 754.1,89.8 754.7,97.0 755.3,89.1 756.0,88.0 756.6,87.6 757.2,87.6 757.8,87.6 758.4,78.9 759.0,82.4 759.6,86.6 760.2,82.2 760.8,81.9
761.5,83.8 762.1,73.6 762.7,76.4 763.3,76.4 763.9,77.7 764.5,77.7 765.1,68.9 765.7,68.9 766.3,72.0 766.9,68.8 767.6,68.8 768.2,68.9 768.8,68.2 769.4,68.2 770.0,71.9 770.6,85.7
771.2,85.6 771.8,75.6 772.4,75.6 773.1,83.8 773.7,84.8 774.3,85.4 774.9,84.3 775.5,84.3 776.1,90.1 776.7,89.3 777.3,88.4 777.9,88.4 778.6,88.0 779.2,88.1 779.8,88.1 780.4,71.3
781.0,74.4 781.6,83.6 782.2,91.5 782.8,95.9 783.4,95.9 784.1,95.9 784.7,97.7 785.3,94.5 785.9,97.4 786.5,98.8 787.1,99.9 787.7,98.1 788.3,97.8 788.9,95.8 789.6,95.8 790.2,95.4
790.8,89.2 791.4,80.9 792.0,80.7 792.6,80.5 793.2,80.1 793.8,84.8 794.4,80.2 795.0,99.6 795.7,97.2 796.3,97.2 796.9,89.1 797.5,89.1 798.1,89.3 798.7,90.2 799.3,90.5 799.9,90.1
800.5,90.2 801.2,90.5 801.8,85.9 802.4,85.9 803.0,82.2 803.6,82.2 804.2,54.1 804.8,91.3 805.4,84.4 806.0,56.1 806.7,67.8 807.3,74.0 807.9,75.7 808.5,75.6 809.1,75.6 809.7,81.6
810.3,77.1 810.9,97.1 811.5,96.0 812.2,91.3 812.8,90.4 813.4,93.0 814.0,106.8 814.6,92.0 815.2,92.6 815.8,92.6 816.4,91.3 817.0,88.9 817.6,83.1 818.3,83.1 818.9,82.7 819.5,82.7
820.1,82.7 820.7,82.7 821.3,82.1 821.9,79.0 822.5,82.5 823.1,74.4 823.8,79.2 824.4,85.6 825.0,85.6 825.6,87.4 826.2,90.3 826.8,97.1 827.4,92.0 828.0,85.3 828.6,84.1 829.3,85.1
829.9,88.2 830.5,88.4 831.1,83.0 831.7,79.8 832.3,79.8 832.9,79.8 833.5,83.8 834.1,76.9 834.8,78.7 835.4,69.2 836.0,65.8 836.6,63.3 837.2,60.8 837.8,72.3 838.4,66.6 839.0,74.5
839.6,74.5 840.2,75.8 840.9,74.8 841.5,74.1 842.1,73.6 842.7,85.5 843.3,85.2 843.9,80.4 844.5,97.5 845.1,97.1 845.7,97.5 846.4,88.8 847.0,94.4 847.6,85.4 848.2,83.3 848.8,83.3
849.4,83.3 850.0,81.6 850.6,86.6 851.2,81.0 851.9,76.4 852.5,79.7 853.1,79.4 853.7,79.9 854.3,79.9 854.9,73.7 855.5,85.9 856.1,85.9 856.7,79.1 857.4,83.5 858.0,92.1 858.6,92.1
859.2,92.1 859.8,92.1 860.4,88.3 861.0,87.4 861.6,87.4 862.2,89.0 862.8,79.6 863.5,80.0 864.1,73.7 864.7,72.8 865.3,72.8 865.9,72.5 866.5,72.3 867.1,68.4 867.7,68.7 868.3,79.9
869.0,70.7 869.6,70.8 870.2,70.8 870.8,70.7 871.4,70.6 872.0,71.1 872.6,69.8 873.2,70.6 873.8,70.6 874.5,75.8 875.1,77.2 875.7,77.1 876.3,79.6 876.9,78.5 877.5,78.2 878.1,73.0
878.7,77.8 879.3,77.5 880.0,79.3 880.6,91.7 881.2,85.6 881.8,85.2 882.4,85.2 883.0,83.1 883.6,82.7 884.2,82.7 884.8,79.6 885.5,79.7 886.1,80.8 886.7,81.4 887.3,84.4 887.9,81.5
888.5,82.7 889.1,82.3 889.7,72.7 890.3,81.4 890.9,81.4 891.6,86.3 892.2,80.4 892.8,75.2 893.4,85.0 894.0,84.7 894.6,84.7 895.2,80.9 895.8,80.9 896.4,80.1 897.1,78.1 897.7,82.0
898.3,82.0 898.9,80.6 899.5,81.7 900.1,80.6 900.7,80.5 901.3,78.7 901.9,79.3 902.6,80.5 903.2,80.5 903.8,81.6 904.4,81.6 905.0,81.6 905.6,81.6 906.2,81.6 906.8,81.6 907.4,81.6
908.1,80.6 908.7,80.6 909.3,84.4 909.9,84.3 910.5,84.5 911.1,90.5 911.7,88.6 912.3,88.9 912.9,90.9 913.5,91.9 914.2,101.9 914.8,104.8 915.4,108.0 916.0,100.2 916.6,99.8 917.2,95.7
917.8,87.5 918.4,100.3 919.0,100.8 919.7,102.5 920.3,101.6 920.9,101.9 921.5,104.9 922.1,105.1 922.7,104.1 923.3,100.1 923.9,104.0 924.5,89.6 925.2,90.9 925.8,86.6 926.4,86.8 927.0,86.3
927.6,85.9 928.2,83.6 928.8,83.5 929.4,83.1 930.0,87.4 930.7,85.6 931.3,91.3 931.9,107.4 932.5,107.4 933.1,107.2 933.7,104.6 934.3,107.8 934.9,107.6 935.5,108.1 936.1,98.0 936.8,97.7
937.4,97.7 938.0,97.7 938.6,97.7 939.2,91.6 939.8,91.6 940.4,93.1 941.0,93.1 941.6,97.3 942.3,109.7 942.9,109.7 943.5,107.8 944.1,107.8 944.7,110.3 945.3,110.3 945.9,108.3 946.5,105.2
947.1,96.3 947.8,96.3 948.4,94.4 949.0,98.7 949.6,100.6 950.2,94.3 950.8,97.8 951.4,104.8 952.0,107.2 952.6,105.7 953.3,106.1 953.9,106.1 954.5,107.0 955.1,109.0 955.7,102.5 956.3,107.2
956.9,111.2 957.5,107.9 958.1,110.1 958.7,112.1 959.4,112.4 960.0,110.9 960.6,109.4 961.2,107.6 961.8,104.9 962.4,102.9 963.0,100.4 963.6,105.9 964.2,105.9 964.9,106.8 965.5,106.8 966.1,100.8
966.7,106.8 967.3,106.4 967.9,96.1 968.5,109.1 969.1,94.4 969.7,95.6 970.4,96.6 971.0,105.4 971.6,109.4 972.2,105.6 972.8,96.4 973.4,91.9 974.0,91.7 974.6,92.1 975.2,92.1 975.9,93.8
976.5,93.8 977.1,93.4 977.7,92.1 978.3,92.1 978.9,92.0 979.5,97.0 980.1,98.5 980.7,99.7 981.3,100.0 982.0,98.6 982.6,91.4 983.2,89.0 983.8,90.0 984.4,90.0 985.0,84.2 985.6,82.5
986.2,83.3 986.8,83.3 987.5,84.9 988.1,84.9 988.7,84.9 989.3,84.1 989.9,83.4 990.5,86.4 991.1,86.5 991.7,86.5 992.3,86.5 993.0,86.5 993.6,86.5 994.2,86.5 994.8,85.3 995.4,87.9
996.0,87.9 996.6,87.9 997.2,88.0 997.8,91.9 998.5,91.5 999.1,91.7 999.7,90.9 1000.3,94.4 1000.9,90.7 1001.5,96.7 1002.1,107.2 1002.7,104.7 1003.3,109.9 1004.0,100.4 1004.6,106.9 1005.2,106.9
1005.8,107.5 1006.4,109.2 1007.0,123.7 1007.6,121.0 1008.2,117.9 1008.8,116.0 1009.4,121.1 1010.1,114.0 1010.7,110.3 1011.3,111.2 1011.9,110.8 1012.5,112.6 1013.1,114.9 1013.7,115.1 1014.3,113.5 1014.9,111.1
1015.6,112.7 1016.2,107.0 1016.8,117.1 1017.4,110.1 1018.0,108.9 1018.6,109.8 1019.2,109.7 1019.8,107.2 1020.4,107.2 1021.1,106.9 1021.7,106.9 1022.3,106.7 1022.9,106.7 1023.5,106.9 1024.1,112.6 1024.7,114.7
1025.3,110.7 1025.9,106.1 1026.6,110.0 1027.2,113.9 1027.8,113.9 1028.4,113.9 1029.0,111.2 1029.6,102.9 1030.2,103.4 1030.8,103.1 1031.4,121.2 1032.0,114.5 1032.7,114.1 1033.3,107.3 1033.9,107.3 1034.5,121.7
1035.1,120.6 1035.7,120.8 1036.3,117.2 1036.9,113.5 1037.5,120.0 1038.2,117.2 1038.8,113.3 1039.4,113.2 1040.0,119.9 1040.6,119.9 1041.2,119.9 1041.8,121.6 1042.4,118.9 1043.0,123.4 1043.7,121.5 1044.3,122.3
1044.9,117.0 1045.5,124.7 1046.1,125.4 1046.7,125.0 1047.3,108.0 1047.9,110.3 1048.5,121.4 1049.2,117.6 1049.8,113.2 1050.4,107.7 1051.0,110.9 1051.6,111.0 1052.2,106.5 1052.8,111.9 1053.4,103.8 1054.0,108.7
1054.6,106.2 1055.3,114.5 1055.9,108.6 1056.5,100.2 1057.1,101.9 1057.7,108.4 1058.3,99.9 1058.9,94.0 1059.5,109.7 1060.1,105.5 1060.8,105.5 1061.4,106.8 1062.0,101.0 1062.6,89.1 1063.2,91.8 1063.8,93.6
1064.4,106.9 1065.0,98.9 1065.6,98.9 1066.3,100.0 1066.9,100.0 1067.5,103.0 1068.1,100.1 1068.7,101.4 1069.3,108.7 1069.9,110.2 1070.5,110.3 1071.1,110.9 1071.8,110.9 1072.4,111.0 1073.0,107.4 1073.6,104.8
1074.2,104.8 1074.8,105.2 1075.4,106.4 1076.0,104.2 1076.6,112.7 1077.2,113.2 1077.9,112.6 1078.5,112.6 1079.1,114.1 1079.7,114.1 1080.3,114.2 1080.9,101.4 1081.5,103.8 1082.1,110.7 1082.7,110.7 1083.4,111.8
1084.0,111.5 1084.6,110.8 1085.2,102.7 1085.8,110.3 1086.4,109.5 1087.0,112.1 1087.6,114.1 1088.2,109.8 1088.9,101.6 1089.5,112.7 1090.1,101.8 1090.7,99.8 1091.3,95.2 1091.9,93.6 1092.5,98.3 1093.1,103.2
1093.7,103.2 1094.4,103.2 1095.0,101.9 1095.6,97.9 1096.2,94.7 1096.8,94.7 1097.4,98.8 1098.0,97.0 1098.6,98.6 1099.2,99.3 1099.9,98.3 1100.5,96.2 1101.1,103.1 1101.7,101.6 1102.3,106.5 1102.9,106.4
1103.5,104.8 1104.1,101.5 1104.7,99.5 1105.3,96.4 1106.0,104.1 1106.6,104.1 1107.2,104.1 1107.8,107.0 1108.4,108.6 1109.0,117.1 1109.6,121.4 1110.2,121.4 1110.8,118.9 1111.5,130.1 1112.1,101.8 1112.7,101.8
1113.3,107.4 1113.9,112.8 1114.5,111.9 1115.1,114.6 1115.7,115.6 1116.3,117.9 1117.0,117.9 1117.6,111.3 1118.2,115.9 1118.8,122.3 1119.4,122.3 1120.0,119.9 1120.6,92.9 1121.2,100.5 1121.8,102.1 1122.5,101.1
1123.1,103.6 1123.7,108.3 1124.3,108.7 1124.9,107.5 1125.5,107.5 1126.1,112.9 1126.7,114.3 1127.3,108.5 1127.9,112.8 1128.6,112.4 1129.2,113.2 1129.8,103.7 1130.4,111.6 1131.0,111.6 1131.6,107.7 1132.2,108.7
1132.8,108.7 1133.4,110.3 1134.1,113.1 1134.7,105.5 1135.3,116.0 1135.9,114.8 1136.5,114.8 1137.1,113.9 1137.7,114.8 1138.3,110.3 1138.9,111.7 1139.6,111.6 1140.2,97.7 1140.8,94.9 1141.4,94.9 1142.0,100.0
1142.6,102.0 1143.2,108.4 1143.8,110.2 1144.4,107.8 1145.1,106.0 1145.7,111.2 1146.3,108.2 1146.9,109.9 1147.5,103.5 1148.1,91.8 1148.7,101.0 1149.3,109.9 1149.9,109.9 1150.5,107.5 1151.2,98.6 1151.8,99.8
1152.4,110.1 1153.0,106.4 1153.6,109.6 1154.2,91.2 1154.8,84.3 1155.4,81.1 1156.0,81.1 1156.7,81.5 1157.3,82.9 1157.9,86.0 1158.5,82.0 1159.1,85.6 1159.7,91.0 1160.3,90.6 1160.9,95.4 1161.5,90.1
1162.2,98.5 1162.8,120.9 1163.4,108.4 1164.0,115.8 1164.6,127.9 1165.2,124.2 1165.8,133.2 1166.4,133.2 1167.0,126.5 1167.7,114.0 1168.3,118.4 1168.9,104.1 1169.5,100.6 1170.1,100.0 1170.7,99.3 1171.3,97.6
1171.9,111.8 1172.5,111.8 1173.1,110.1 1173.8,110.1 1174.4,111.7 1175.0,112.3 1175.6,109.6 1176.2,108.9 1176.8,102.5 1177.4,103.6 1178.0,100.6 1178.6,100.3 1179.3,100.9 1179.9,109.6 1180.5,113.1 1181.1,99.1
1181.7,98.3 1182.3,98.3 1182.9,99.0 1183.5,81.2 1184.1,88.1 1184.8,80.1 1185.4,80.1 1186.0,80.1 1186.6,108.2 1187.2,102.0 1187.8,105.7 1188.4,110.2 1189.0,110.2 1189.6,101.9 1190.3,99.4 1190.9,93.9
1191.5,101.7 1192.1,105.5 1192.7,106.7 1193.3,103.7 1193.9,98.2 1194.5,112.1 1195.1,110.6 1195.7,111.0 1196.4,111.0 1197.0,112.0 1197.6,112.3 1198.2,112.3 1198.8,112.3 1199.4,111.7 1200.0,116.1 1200.6,116.1
1201.2,115.5 1201.9,116.2 1202.5,116.5 1203.1,118.7 1203.7,101.7 1204.3,100.9 1204.9,99.9 1205.5,100.3 1206.1,101.9 1206.7,91.8 1207.4,92.1 1208.0,104.4 1208.6,104.4 1209.2,105.0 1209.8,105.0 1210.4,105.0
1211.0,109.8 1211.6,107.3 1212.2,114.6 1212.9,112.6 1213.5,112.2 1214.1,112.2 1214.7,107.9 1215.3,106.4 1215.9,105.5 1216.5,107.2 1217.1,111.3 1217.7,111.3 1218.4,102.0 1219.0,99.9 1219.6,102.3 1220.2,102.3
1220.8,98.1 1221.4,102.9 1222.0,102.9 1222.6,101.5 1223.2,102.1 1223.8,88.5 1224.5,111.2 1225.1,80.8 1225.7,77.9 1226.3,78.4 1226.9,96.1 1227.5,99.2 1228.1,104.5 1228.7,106.4 1229.3,105.8 1230.0,91.8
1230.6,92.0 1231.2,100.7 1231.8,93.6 1232.4,102.5 1233.0,102.5 1233.6,105.4 1234.2,105.4 1234.8,104.7 1235.5,105.5 1236.1,108.1 1236.7,109.4 1237.3,104.8 1237.9,111.0 1238.5,111.0 1239.1,111.0 1239.7,111.0
1240.3,104.0 1241.0,112.4 1241.6,110.6 1242.2,112.7 1242.8,114.2 1243.4,112.9 1244.0,107.4 1244.6,113.0 1245.2,114.9 1245.8,116.6 1246.4,115.9 1247.1,115.9 1247.7,126.2 1248.3,125.0 1248.9,126.2 1249.5,120.1
1250.1,121.1 1250.7,119.7 1251.3,120.4 1251.9,103.0 1252.6,109.2 1253.2,101.5 1253.8,105.4 1254.4,105.4 1255.0,110.1 1255.0,703.4 87.1,703.4 '/>
	</g>
</g>
	</g>
	<g id="gnuplot_plot_2" ><title>trendline (m=0.000447,b=424.337720)</title>
<g fill="none" color="black" stroke="currentColor" stroke-width="1.00" stroke-linecap="butt" stroke-linejoin="miter">
	<g transform="translate(1187.9,94.0)" stroke="none" fill="black" font-family="Arial" font-size="12.00"  text-anchor="end">
		<text><tspan font-family="Arial" >trendline (m=0.000447,b=424.337720)</tspan></text>
	</g>
</g>
<g fill="none" color="black" stroke="currentColor" stroke-width="1.00" stroke-linecap="butt" stroke-linejoin="miter">
	<path stroke='black'  d='M1196.2,90.1 L1238.4,90.1 M87.1,106.5 L98.9,106.3 L110.7,106.1 L122.5,105.9 L134.3,105.7 L146.1,105.5
		L157.9,105.3 L169.7,105.1 L181.5,104.9 L193.3,104.7 L205.1,104.6 L216.9,104.4 L228.7,104.2 L240.5,104.0
		L252.3,103.8 L264.1,103.6 L275.9,103.4 L287.6,103.2 L299.4,103.0 L311.2,102.8 L323.0,102.6 L334.8,102.5
		L346.6,102.3 L358.4,102.1 L370.2,101.9 L382.0,101.7 L393.8,101.5 L405.6,101.3 L417.4,101.1 L429.2,100.9
		L441.0,100.7 L452.8,100.5 L464.6,100.3 L476.4,100.2 L488.2,100.0 L500.0,99.8 L511.8,99.6 L523.6,99.4
		L535.4,99.2 L547.2,99.0 L559.0,98.8 L570.8,98.6 L582.6,98.4 L594.4,98.2 L606.2,98.1 L618.0,97.9
		L629.8,97.7 L641.6,97.5 L653.4,97.3 L665.2,97.1 L676.9,96.9 L688.7,96.7 L700.5,96.5 L712.3,96.3
		L724.1,96.1 L735.9,96.0 L747.7,95.8 L759.5,95.6 L771.3,95.4 L783.1,95.2 L794.9,95.0 L806.7,94.8
		L818.5,94.6 L830.3,94.4 L842.1,94.2 L853.9,94.0 L865.7,93.8 L877.5,93.7 L889.3,93.5 L901.1,93.3
		L912.9,93.1 L924.7,92.9 L936.5,92.7 L948.3,92.5 L960.1,92.3 L971.9,92.1 L983.7,91.9 L995.5,91.7
		L1007.3,91.6 L1019.1,91.4 L1030.9,91.2 L1042.7,91.0 L1054.5,90.8 L1066.2,90.6 L1078.0,90.4 L1089.8,90.2
		L1101.6,90.0 L1113.4,89.8 L1125.2,89.6 L1137.0,89.4 L1148.8,89.3 L1160.6,89.1 L1172.4,88.9 L1184.2,88.7
		L1196.0,88.5 L1207.8,88.3 L1219.6,88.1 L1231.4,87.9 L1243.2,87.7 L1255.0,87.5  '/></g>
	</g>
<g fill="none" color="white" stroke="black" stroke-width="2.00" stroke-linecap="butt" stroke-linejoin="miter">
</g>
<g fill="none" color="black" stroke="currentColor" stroke-width="2.00" stroke-linecap="butt" stroke-linejoin="miter">
</g>
<g fill="none" color="black" stroke="black" stroke-width="1.00" stroke-linecap="butt" stroke-linejoin="miter">
</g>
<g fill="none" color="black" stroke="currentColor" stroke-width="1.00" stroke-linecap="butt" stroke-linejoin="miter">
	<path stroke='black'  d='M87.1,54.1 L87.1,703.4 L1255.0,703.4 L1255.0,54.1 L87.1,54.1 Z  '/></g>
<g fill="none" color="black" stroke="currentColor" stroke-width="1.00" stroke-linecap="butt" stroke-linejoin="miter">
</g>
</g>
</svg>

