<?xml version="1.0" encoding="utf-8"  standalone="no"?>
<svg 
 width="1280" height="720"
 viewBox="0 0 1280 720"
 xmlns="http://www.w3.org/2000/svg"
 xmlns:xlink="http://www.w3.org/1999/xlink"
>

<title>Gnuplot</title>
<desc>Produced by GNUPLOT 5.0 patchlevel 6 </desc>

<g id="gnuplot_canvas">

<rect x="0" y="0" width="1280" height="720" fill="none"/>
<defs>

	<circle id='gpDot' r='0.5' stroke-width='0.5'/>
	<path id='gpPt0' stroke-width='0.222' stroke='currentColor' d='M-1,0 h2 M0,-1 v2'/>
	<path id='gpPt1' stroke-width='0.222' stroke='currentColor' d='M-1,-1 L1,1 M1,-1 L-1,1'/>
	<path id='gpPt2' stroke-width='0.222' stroke='currentColor' d='M-1,0 L1,0 M0,-1 L0,1 M-1,-1 L1,1 M-1,1 L1,-1'/>
	<rect id='gpPt3' stroke-width='0.222' stroke='currentColor' x='-1' y='-1' width='2' height='2'/>
	<rect id='gpPt4' stroke-width='0.222' stroke='currentColor' fill='currentColor' x='-1' y='-1' width='2' height='2'/>
	<circle id='gpPt5' stroke-width='0.222' stroke='currentColor' cx='0' cy='0' r='1'/>
	<use xlink:href='#gpPt5' id='gpPt6' fill='currentColor' stroke='none'/>
	<path id='gpPt7' stroke-width='0.222' stroke='currentColor' d='M0,-1.33 L-1.33,0.67 L1.33,0.67 z'/>
	<use xlink:href='#gpPt7' id='gpPt8' fill='currentColor' stroke='none'/>
	<use xlink:href='#gpPt7' id='gpPt9' stroke='currentColor' transform='rotate(180)'/>
	<use xlink:href='#gpPt9' id='gpPt10' fill='currentColor' stroke='none'/>
	<use xlink:href='#gpPt3' id='gpPt11' stroke='currentColor' transform='rotate(45)'/>
	<use xlink:href='#gpPt11' id='gpPt12' fill='currentColor' stroke='none'/>
	<path id='gpPt13' stroke-width='0.222' stroke='currentColor' d='M0,1.330 L1.265,0.411 L0.782,-1.067 L-0.782,-1.076 L-1.265,0.411 z'/>
	<use xlink:href='#gpPt13' id='gpPt14' fill='currentColor' stroke='none'/>
	<filter id='textbox' filterUnits='objectBoundingBox' x='0' y='0' height='1' width='1'>
	  <feFlood flood-color='white' flood-opacity='1' result='bgnd'/>
	  <feComposite in='SourceGraphic' in2='bgnd' operator='atop'/>
	</filter>
	<filter id='greybox' filterUnits='objectBoundingBox' x='0' y='0' height='1' width='1'>
	  <feFlood flood-color='lightgrey' flood-opacity='1' result='grey'/>
	  <feComposite in='SourceGraphic' in2='grey' operator='atop'/>
	</filter>
</defs>
<g fill="none" color="white" stroke="currentColor" stroke-width="1.00" stroke-linecap="butt" stroke-linejoin="miter">
</g>
<g fill="none" color="black" stroke="currentColor" stroke-width="1.00" stroke-linecap="butt" stroke-linejoin="miter">
	<path stroke='black'  d='M87.1,703.4 L96.1,703.4 M1255.0,703.4 L1246.0,703.4  '/>	<g transform="translate(78.8,707.3)" stroke="none" fill="black" font-family="Arial" font-size="12.00"  text-anchor="end">
		<text><tspan font-family="Arial" >-43.1832</tspan></text>
	</g>
</g>
<g fill="none" color="black" stroke="currentColor" stroke-width="1.00" stroke-linecap="butt" stroke-linejoin="miter">
	<path stroke='black'  d='M87.1,71.8 L96.1,71.8 M1255.0,71.8 L1246.0,71.8  '/>	<g transform="translate(78.8,75.7)" stroke="none" fill="black" font-family="Arial" font-size="12.00"  text-anchor="end">
		<text><tspan font-family="Arial" > 187.534</tspan></text>
	</g>
</g>
<g fill="none" color="black" stroke="currentColor" stroke-width="1.00" stroke-linecap="butt" stroke-linejoin="miter">
	<path stroke='black'  d='M87.1,54.1 L96.1,54.1 M1255.0,54.1 L1246.0,54.1  '/>	<g transform="translate(78.8,58.0)" stroke="none" fill="black" font-family="Arial" font-size="12.00"  text-anchor="end">
		<text><tspan font-family="Arial" > 194.003</tspan></text>
	</g>
</g>
<g fill="none" color="black" stroke="currentColor" stroke-width="1.00" stroke-linecap="butt" stroke-linejoin="miter">
</g>
<g fill="none" color="black" stroke="currentColor" stroke-width="1.00" stroke-linecap="butt" stroke-linejoin="miter">
	<path stroke='black'  d='M87.1,54.1 L87.1,703.4 L1255.0,703.4 L1255.0,54.1 L87.1,54.1 Z  '/></g>
<g fill="none" color="black" stroke="currentColor" stroke-width="1.00" stroke-linecap="butt" stroke-linejoin="miter">
	<g transform="translate(671.0,31.0)" stroke="none" fill="black" font-family="Arial" font-size="12.00"  text-anchor="middle">
		<text><tspan font-family="Arial" >Material 2, 4 components</tspan></text>
	</g>
</g>
	<g id="gnuplot_plot_1" ><title>log(likelihood)</title>
<g fill="none" color="black" stroke="currentColor" stroke-width="1.00" stroke-linecap="butt" stroke-linejoin="miter">
	<g transform="translate(1187.9,76.0)" stroke="none" fill="black" font-family="Arial" font-size="12.00"  text-anchor="end">
		<text><tspan font-family="Arial" >log(likelihood)</tspan></text>
	</g>
</g>
<g fill="none" color="black" stroke="currentColor" stroke-width="1.00" stroke-linecap="butt" stroke-linejoin="miter">
	<g stroke='none' shape-rendering='crispEdges'>
		<polygon fill = 'rgb(148,   0, 211)' fill-opacity = '0.100000' points = '1196.2,76.6 1238.4,76.6 1238.4,67.6 1196.2,67.6 '/>
	</g>
	<path stroke='rgb(148,   0, 211)'  d='M1196.2,76.6 L1238.4,76.6 L1238.4,67.6 L1196.2,67.6 L1196.2,76.6 Z  '/></g>
<g fill="none" color="black" stroke="currentColor" stroke-width="1.00" stroke-linecap="butt" stroke-linejoin="miter">
	<g stroke='none' shape-rendering='crispEdges'>
		<polygon fill = 'rgb(148,   0, 211)' fill-opacity = '0.100000' points = '87.1,703.4 88.6,619.1 90.0,597.8 91.5,597.8 92.9,597.8 94.4,577.2 95.8,530.9 97.3,497.2 98.7,466.5 100.2,436.4 101.7,388.1 103.1,322.5 104.6,263.1 106.0,208.4 107.5,143.1 108.9,143.0
110.4,112.4 111.9,116.1 113.3,116.1 114.8,101.4 116.2,103.7 117.7,102.0 119.1,102.1 120.6,97.3 122.0,100.9 123.5,95.9 125.0,96.5 126.4,96.2 127.9,96.2 129.3,93.9 130.8,95.5 132.2,93.6
133.7,95.9 135.2,94.8 136.6,93.0 138.1,90.2 139.5,92.0 141.0,91.0 142.4,93.7 143.9,93.4 145.3,92.5 146.8,88.9 148.3,89.0 149.7,89.0 151.2,88.3 152.6,89.2 154.1,88.3 155.5,87.7
157.0,88.4 158.5,89.5 159.9,89.8 161.4,89.3 162.8,86.4 164.3,81.2 165.7,86.8 167.2,87.5 168.6,84.1 170.1,83.2 171.6,85.8 173.0,85.8 174.5,84.8 175.9,85.7 177.4,85.8 178.8,84.8
180.3,81.6 181.8,84.2 183.2,82.0 184.7,84.3 186.1,82.7 187.6,82.0 189.0,83.0 190.5,83.3 191.9,80.7 193.4,79.1 194.9,80.8 196.3,80.8 197.8,80.1 199.2,80.1 200.7,81.3 202.1,81.3
203.6,78.5 205.1,78.5 206.5,78.2 208.0,78.2 209.4,78.0 210.9,79.2 212.3,78.1 213.8,80.1 215.2,78.9 216.7,77.5 218.2,75.3 219.6,78.7 221.1,78.4 222.5,81.0 224.0,79.6 225.4,76.5
226.9,75.9 228.4,74.6 229.8,74.6 231.3,72.5 232.7,72.5 234.2,74.6 235.6,74.5 237.1,74.5 238.5,74.5 240.0,74.5 241.5,74.2 242.9,70.0 244.4,70.0 245.8,70.0 247.3,70.1 248.7,70.0
250.2,70.0 251.7,70.0 253.1,70.0 254.6,73.7 256.0,74.8 257.5,74.2 258.9,74.2 260.4,74.2 261.8,77.6 263.3,70.0 264.8,70.0 266.2,70.7 267.7,70.2 269.1,69.4 270.6,69.2 272.0,71.2
273.5,70.2 275.0,70.2 276.4,70.2 277.9,70.2 279.3,70.2 280.8,73.1 282.2,73.8 283.7,70.7 285.1,71.4 286.6,71.4 288.1,71.5 289.5,70.6 291.0,70.6 292.4,72.8 293.9,73.3 295.3,73.3
296.8,69.7 298.3,72.7 299.7,70.8 301.2,72.3 302.6,72.8 304.1,74.3 305.5,73.4 307.0,73.9 308.4,72.6 309.9,71.6 311.4,71.7 312.8,72.0 314.3,74.0 315.7,72.8 317.2,72.6 318.6,67.9
320.1,70.5 321.6,71.2 323.0,71.2 324.5,70.8 325.9,66.9 327.4,66.9 328.8,73.2 330.3,71.7 331.7,71.7 333.2,69.7 334.7,68.9 336.1,63.5 337.6,66.7 339.0,68.2 340.5,68.2 341.9,67.1
343.4,66.9 344.9,66.9 346.3,66.9 347.8,67.1 349.2,67.1 350.7,68.5 352.1,63.5 353.6,63.9 355.0,63.9 356.5,63.9 358.0,69.4 359.4,69.4 360.9,71.4 362.3,70.5 363.8,65.0 365.2,65.9
366.7,65.9 368.2,68.7 369.6,64.8 371.1,63.4 372.5,68.0 374.0,67.0 375.4,68.9 376.9,67.0 378.3,67.0 379.8,68.7 381.3,68.7 382.7,69.2 384.2,68.8 385.6,68.8 387.1,67.7 388.5,68.1
390.0,68.8 391.5,68.5 392.9,70.0 394.4,70.3 395.8,68.5 397.3,71.5 398.7,68.9 400.2,65.9 401.6,69.3 403.1,68.1 404.6,66.4 406.0,66.4 407.5,66.1 408.9,65.5 410.4,65.1 411.8,65.1
413.3,64.6 414.8,64.5 416.2,65.4 417.7,66.0 419.1,65.1 420.6,65.9 422.0,65.4 423.5,67.4 424.9,67.9 426.4,65.2 427.9,65.3 429.3,67.6 430.8,66.9 432.2,68.2 433.7,68.2 435.1,65.2
436.6,65.4 438.1,65.2 439.5,64.1 441.0,64.2 442.4,64.2 443.9,63.8 445.3,63.8 446.8,63.8 448.2,63.8 449.7,61.5 451.2,63.9 452.6,64.0 454.1,63.9 455.5,63.7 457.0,63.7 458.4,64.4
459.9,64.4 461.4,61.6 462.8,63.5 464.3,62.3 465.7,65.8 467.2,60.5 468.6,60.5 470.1,63.5 471.5,64.5 473.0,65.2 474.5,64.2 475.9,63.5 477.4,63.9 478.8,63.9 480.3,62.2 481.7,63.3
483.2,63.2 484.7,61.5 486.1,61.5 487.6,62.3 489.0,65.0 490.5,67.1 491.9,66.7 493.4,64.9 494.8,64.1 496.3,64.1 497.8,63.3 499.2,63.3 500.7,63.6 502.1,63.1 503.6,63.4 505.0,63.5
506.5,63.5 508.0,64.5 509.4,62.4 510.9,65.5 512.3,64.4 513.8,60.0 515.2,63.9 516.7,63.9 518.1,64.0 519.6,61.9 521.1,62.0 522.5,61.4 524.0,62.9 525.4,62.9 526.9,62.9 528.3,62.9
529.8,61.6 531.3,61.1 532.7,60.8 534.2,61.4 535.6,58.7 537.1,57.9 538.5,62.5 540.0,61.1 541.4,60.5 542.9,59.9 544.4,62.4 545.8,61.9 547.3,61.2 548.7,60.8 550.2,59.1 551.6,60.0
553.1,60.0 554.6,60.0 556.0,60.2 557.5,58.8 558.9,58.8 560.4,56.7 561.8,58.4 563.3,58.4 564.7,58.3 566.2,58.3 567.7,59.0 569.1,58.8 570.6,58.8 572.0,58.8 573.5,59.7 574.9,57.7
576.4,57.7 577.9,57.7 579.3,58.4 580.8,56.7 582.2,60.5 583.7,60.5 585.1,61.2 586.6,59.7 588.0,58.3 589.5,58.5 591.0,58.4 592.4,58.4 593.9,57.3 595.3,57.3 596.8,57.3 598.2,57.3
599.7,60.0 601.2,60.0 602.6,59.2 604.1,58.8 605.5,61.5 607.0,62.0 608.4,62.0 609.9,60.0 611.3,60.0 612.8,61.1 614.3,58.8 615.7,59.0 617.2,60.8 618.6,60.8 620.1,60.8 621.5,59.9
623.0,59.5 624.5,62.2 625.9,60.5 627.4,59.9 628.8,60.0 630.3,61.4 631.7,60.0 633.2,62.8 634.6,61.8 636.1,62.4 637.6,62.4 639.0,61.1 640.5,59.3 641.9,61.4 643.4,60.9 644.8,61.2
646.3,63.0 647.8,61.0 649.2,60.6 650.7,61.4 652.1,60.0 653.6,58.4 655.0,60.0 656.5,60.5 657.9,60.5 659.4,61.4 660.9,64.5 662.3,61.8 663.8,61.6 665.2,61.6 666.7,58.8 668.1,59.9
669.6,59.6 671.1,61.1 672.5,61.7 674.0,61.4 675.4,61.7 676.9,61.8 678.3,61.9 679.8,61.3 681.2,61.4 682.7,61.9 684.2,65.4 685.6,61.1 687.1,61.5 688.5,61.5 690.0,61.2 691.4,61.0
692.9,61.0 694.3,61.2 695.8,61.2 697.3,61.2 698.7,61.5 700.2,60.6 701.6,61.4 703.1,61.5 704.5,62.9 706.0,60.7 707.5,61.9 708.9,62.1 710.4,61.8 711.8,59.6 713.3,59.6 714.7,61.3
716.2,61.7 717.6,60.1 719.1,61.1 720.6,61.5 722.0,62.2 723.5,62.2 724.9,62.2 726.4,62.2 727.8,64.5 729.3,62.7 730.8,63.7 732.2,62.4 733.7,62.4 735.1,61.7 736.6,61.5 738.0,61.7
739.5,61.7 740.9,61.7 742.4,61.3 743.9,61.9 745.3,63.0 746.8,62.3 748.2,63.9 749.7,62.1 751.1,62.1 752.6,62.5 754.1,62.7 755.5,63.5 757.0,63.5 758.4,61.8 759.9,63.4 761.3,61.1
762.8,60.9 764.2,60.3 765.7,61.8 767.2,61.3 768.6,60.9 770.1,61.3 771.5,61.2 773.0,60.9 774.4,60.9 775.9,61.0 777.4,61.1 778.8,60.6 780.3,61.2 781.7,60.3 783.2,60.3 784.6,59.8
786.1,60.4 787.5,60.0 789.0,61.7 790.5,60.9 791.9,61.0 793.4,58.1 794.8,57.4 796.3,58.3 797.7,58.3 799.2,58.8 800.7,58.9 802.1,58.9 803.6,58.9 805.0,58.9 806.5,58.9 807.9,58.5
809.4,58.6 810.8,57.7 812.3,60.5 813.8,61.6 815.2,61.8 816.7,61.6 818.1,59.5 819.6,60.6 821.0,59.2 822.5,61.2 824.0,61.8 825.4,61.2 826.9,61.3 828.3,60.4 829.8,62.0 831.2,61.2
832.7,62.1 834.1,61.4 835.6,61.4 837.1,56.9 838.5,56.5 840.0,56.5 841.4,60.7 842.9,60.9 844.3,59.7 845.8,60.0 847.3,60.0 848.7,61.0 850.2,60.9 851.6,60.9 853.1,60.8 854.5,60.9
856.0,60.9 857.4,63.9 858.9,60.0 860.4,59.6 861.8,59.6 863.3,59.6 864.7,59.6 866.2,59.8 867.6,59.5 869.1,59.1 870.6,59.6 872.0,59.6 873.5,56.4 874.9,58.4 876.4,58.2 877.8,58.3
879.3,58.3 880.7,58.6 882.2,56.1 883.7,55.9 885.1,55.9 886.6,55.6 888.0,59.1 889.5,56.8 890.9,58.0 892.4,58.0 893.9,57.8 895.3,58.0 896.8,58.0 898.2,58.4 899.7,58.4 901.1,58.4
902.6,58.9 904.0,58.1 905.5,58.1 907.0,59.4 908.4,60.1 909.9,58.7 911.3,58.7 912.8,57.4 914.2,57.4 915.7,57.4 917.2,60.4 918.6,59.5 920.1,59.3 921.5,60.4 923.0,59.4 924.4,60.5
925.9,60.7 927.3,60.5 928.8,58.9 930.3,61.6 931.7,61.5 933.2,58.8 934.6,57.5 936.1,57.5 937.5,57.1 939.0,57.5 940.5,59.3 941.9,57.3 943.4,57.3 944.8,58.0 946.3,58.0 947.7,58.9
949.2,59.1 950.6,59.1 952.1,59.2 953.6,60.7 955.0,61.4 956.5,60.4 957.9,58.2 959.4,58.2 960.8,56.8 962.3,59.4 963.8,59.3 965.2,59.9 966.7,59.9 968.1,59.4 969.6,59.5 971.0,61.0
972.5,59.0 973.9,59.2 975.4,61.4 976.9,60.8 978.3,60.8 979.8,57.8 981.2,57.8 982.7,59.9 984.1,60.3 985.6,60.4 987.1,58.6 988.5,58.6 990.0,58.6 991.4,58.6 992.9,58.7 994.3,59.1
995.8,59.1 997.2,59.1 998.7,59.1 1000.2,59.3 1001.6,59.3 1003.1,59.7 1004.5,60.0 1006.0,57.4 1007.4,57.4 1008.9,56.7 1010.4,56.7 1011.8,58.0 1013.3,56.7 1014.7,57.6 1016.2,57.6 1017.6,57.3
1019.1,57.3 1020.5,58.6 1022.0,58.2 1023.5,56.6 1024.9,57.5 1026.4,58.1 1027.8,58.1 1029.3,58.1 1030.7,56.5 1032.2,60.0 1033.7,57.4 1035.1,57.0 1036.6,58.6 1038.0,58.9 1039.5,58.9 1040.9,58.4
1042.4,58.4 1043.8,57.3 1045.3,58.3 1046.8,58.0 1048.2,57.2 1049.7,57.5 1051.1,58.8 1052.6,58.4 1054.0,58.4 1055.5,57.6 1057.0,57.2 1058.4,57.1 1059.9,56.2 1061.3,56.7 1062.8,56.9 1064.2,56.9
1065.7,56.2 1067.1,56.9 1068.6,56.5 1070.1,56.9 1071.5,58.3 1073.0,57.7 1074.4,58.6 1075.9,57.3 1077.3,59.1 1078.8,58.5 1080.3,58.4 1081.7,59.1 1083.2,59.1 1084.6,57.3 1086.1,59.3 1087.5,55.8
1089.0,55.6 1090.4,56.2 1091.9,56.2 1093.4,56.7 1094.8,56.4 1096.3,59.3 1097.7,60.0 1099.2,58.9 1100.6,61.0 1102.1,60.2 1103.6,58.9 1105.0,59.7 1106.5,57.7 1107.9,58.6 1109.4,58.5 1110.8,59.2
1112.3,56.1 1113.7,56.1 1115.2,58.2 1116.7,57.4 1118.1,57.4 1119.6,57.4 1121.0,56.9 1122.5,56.6 1123.9,56.7 1125.4,55.3 1126.9,55.9 1128.3,55.9 1129.8,56.7 1131.2,56.7 1132.7,56.2 1134.1,55.7
1135.6,55.9 1137.0,55.9 1138.5,56.0 1140.0,56.6 1141.4,56.6 1142.9,59.0 1144.3,58.9 1145.8,56.9 1147.2,56.9 1148.7,56.9 1150.2,57.0 1151.6,57.0 1153.1,56.7 1154.5,57.1 1156.0,57.1 1157.4,57.3
1158.9,57.4 1160.3,57.4 1161.8,55.9 1163.3,56.5 1164.7,55.8 1166.2,55.8 1167.6,55.8 1169.1,56.1 1170.5,58.7 1172.0,57.1 1173.5,57.1 1174.9,57.1 1176.4,57.2 1177.8,56.2 1179.3,57.2 1180.7,56.4
1182.2,56.4 1183.6,56.4 1185.1,56.6 1186.6,57.2 1188.0,57.2 1189.5,57.1 1190.9,57.2 1192.4,57.3 1193.8,58.1 1195.3,58.4 1196.8,57.9 1198.2,57.8 1199.7,56.1 1201.1,56.1 1202.6,56.1 1204.0,56.1
1205.5,56.1 1206.9,56.1 1208.4,56.1 1209.9,56.1 1211.3,56.1 1212.8,58.3 1214.2,56.0 1215.7,56.5 1217.1,57.5 1218.6,54.6 1220.1,54.4 1221.5,56.3 1223.0,57.0 1224.4,56.1 1225.9,56.3 1227.3,56.3
1228.8,55.2 1230.2,55.2 1231.7,55.2 1233.2,56.3 1234.6,55.0 1236.1,55.3 1237.5,54.1 1239.0,55.4 1240.4,56.4 1241.9,56.4 1243.4,56.4 1244.8,57.2 1246.3,58.1 1247.7,56.2 1249.2,55.5 1250.6,55.0
1252.1,54.8 1253.5,56.2 1255.0,57.6 1255.0,703.4 87.1,703.4 '/>
	</g>
	<path stroke='rgb(148,   0, 211)'  d='M87.1,703.4 L88.6,619.1 L90.0,597.8 L91.5,597.8 L92.9,597.8 L94.4,577.2 L95.8,530.9 L97.3,497.2
		L98.7,466.5 L100.2,436.4 L101.7,388.1 L103.1,322.5 L104.6,263.1 L106.0,208.4 L107.5,143.1 L108.9,143.0
		L110.4,112.4 L111.9,116.1 L113.3,116.1 L114.8,101.4 L116.2,103.7 L117.7,102.0 L119.1,102.1 L120.6,97.3
		L122.0,100.9 L123.5,95.9 L125.0,96.5 L126.4,96.2 L127.9,96.2 L129.3,93.9 L130.8,95.5 L132.2,93.6
		L133.7,95.9 L135.2,94.8 L136.6,93.0 L138.1,90.2 L139.5,92.0 L141.0,91.0 L142.4,93.7 L143.9,93.4
		L145.3,92.5 L146.8,88.9 L148.3,89.0 L149.7,89.0 L151.2,88.3 L152.6,89.2 L154.1,88.3 L155.5,87.7
		L157.0,88.4 L158.5,89.5 L159.9,89.8 L161.4,89.3 L162.8,86.4 L164.3,81.2 L165.7,86.8 L167.2,87.5
		L168.6,84.1 L170.1,83.2 L171.6,85.8 L173.0,85.8 L174.5,84.8 L175.9,85.7 L177.4,85.8 L178.8,84.8
		L180.3,81.6 L181.8,84.2 L183.2,82.0 L184.7,84.3 L186.1,82.7 L187.6,82.0 L189.0,83.0 L190.5,83.3
		L191.9,80.7 L193.4,79.1 L194.9,80.8 L196.3,80.8 L197.8,80.1 L199.2,80.1 L200.7,81.3 L202.1,81.3
		L203.6,78.5 L205.1,78.5 L206.5,78.2 L208.0,78.2 L209.4,78.0 L210.9,79.2 L212.3,78.1 L213.8,80.1
		L215.2,78.9 L216.7,77.5 L218.2,75.3 L219.6,78.7 L221.1,78.4 L222.5,81.0 L224.0,79.6 L225.4,76.5
		L226.9,75.9 L228.4,74.6 L229.8,74.6 L231.3,72.5 L232.7,72.5 L234.2,74.6 L235.6,74.5 L237.1,74.5
		L238.5,74.5 L240.0,74.5 L241.5,74.2 L242.9,70.0 L244.4,70.0 L245.8,70.0 L247.3,70.1 L248.7,70.0
		L250.2,70.0 L251.7,70.0 L253.1,70.0 L254.6,73.7 L256.0,74.8 L257.5,74.2 L258.9,74.2 L260.4,74.2
		L261.8,77.6 L263.3,70.0 L264.8,70.0 L266.2,70.7 L267.7,70.2 L269.1,69.4 L270.6,69.2 L272.0,71.2
		L273.5,70.2 L275.0,70.2 L276.4,70.2 L277.9,70.2 L279.3,70.2 L280.8,73.1 L282.2,73.8 L283.7,70.7
		L285.1,71.4 L286.6,71.4 L288.1,71.5 L289.5,70.6 L291.0,70.6 L292.4,72.8 L293.9,73.3 L295.3,73.3
		L296.8,69.7 L298.3,72.7 L299.7,70.8 L301.2,72.3 L302.6,72.8 L304.1,74.3 L305.5,73.4 L307.0,73.9
		L308.4,72.6 L309.9,71.6 L311.4,71.7 L312.8,72.0 L314.3,74.0 L315.7,72.8 L317.2,72.6 L318.6,67.9
		L320.1,70.5 L321.6,71.2 L323.0,71.2 L324.5,70.8 L325.9,66.9 L327.4,66.9 L328.8,73.2 L330.3,71.7
		L331.7,71.7 L333.2,69.7 L334.7,68.9 L336.1,63.5 L337.6,66.7 L339.0,68.2 L340.5,68.2 L341.9,67.1
		L343.4,66.9 L344.9,66.9 L346.3,66.9 L347.8,67.1 L349.2,67.1 L350.7,68.5 L352.1,63.5 L353.6,63.9
		L355.0,63.9 L356.5,63.9 L358.0,69.4 L359.4,69.4 L360.9,71.4 L362.3,70.5 L363.8,65.0 L365.2,65.9
		L366.7,65.9 L368.2,68.7 L369.6,64.8 L371.1,63.4 L372.5,68.0 L374.0,67.0 L375.4,68.9 L376.9,67.0
		L378.3,67.0 L379.8,68.7 L381.3,68.7 L382.7,69.2 L384.2,68.8 L385.6,68.8 L387.1,67.7 L388.5,68.1
		L390.0,68.8 L391.5,68.5 L392.9,70.0 L394.4,70.3 L395.8,68.5 L397.3,71.5 L398.7,68.9 L400.2,65.9
		L401.6,69.3 L403.1,68.1 L404.6,66.4 L406.0,66.4 L407.5,66.1 L408.9,65.5 L410.4,65.1 L411.8,65.1
		L413.3,64.6 L414.8,64.5 L416.2,65.4 L417.7,66.0 L419.1,65.1 L420.6,65.9 L422.0,65.4 L423.5,67.4
		L424.9,67.9 L426.4,65.2 L427.9,65.3 L429.3,67.6 L430.8,66.9 L432.2,68.2 L433.7,68.2 L435.1,65.2
		L436.6,65.4 L438.1,65.2 L439.5,64.1 L441.0,64.2 L442.4,64.2 L443.9,63.8 L445.3,63.8 L446.8,63.8
		L448.2,63.8 L449.7,61.5 L451.2,63.9 L452.6,64.0 L454.1,63.9 L455.5,63.7 L457.0,63.7 L458.4,64.4
		L459.9,64.4 L461.4,61.6 L462.8,63.5 L464.3,62.3 L465.7,65.8 L467.2,60.5 L468.6,60.5 L470.1,63.5
		L471.5,64.5 L473.0,65.2 L474.5,64.2 L475.9,63.5 L477.4,63.9 L478.8,63.9 L480.3,62.2 L481.7,63.3
		L483.2,63.2 L484.7,61.5 L486.1,61.5 L487.6,62.3 L489.0,65.0 L490.5,67.1 L491.9,66.7 L493.4,64.9
		L494.8,64.1 L496.3,64.1 L497.8,63.3 L499.2,63.3 L500.7,63.6 L502.1,63.1 L503.6,63.4 L505.0,63.5
		L506.5,63.5 L508.0,64.5 L509.4,62.4 L510.9,65.5 L512.3,64.4 L513.8,60.0 L515.2,63.9 L516.7,63.9
		L518.1,64.0 L519.6,61.9 L521.1,62.0 L522.5,61.4 L524.0,62.9 L525.4,62.9 L526.9,62.9 L528.3,62.9
		L529.8,61.6 L531.3,61.1 L532.7,60.8 L534.2,61.4 L535.6,58.7 L537.1,57.9 L538.5,62.5 L540.0,61.1
		L541.4,60.5 L542.9,59.9 L544.4,62.4 L545.8,61.9 L547.3,61.2 L548.7,60.8 L550.2,59.1 L551.6,60.0
		L553.1,60.0 L554.6,60.0 L556.0,60.2 L557.5,58.8 L558.9,58.8 L560.4,56.7 L561.8,58.4 L563.3,58.4
		L564.7,58.3 L566.2,58.3 L567.7,59.0 L569.1,58.8 L570.6,58.8 L572.0,58.8 L573.5,59.7 L574.9,57.7
		L576.4,57.7 L577.9,57.7 L579.3,58.4 L580.8,56.7 L582.2,60.5 L583.7,60.5 L585.1,61.2 L586.6,59.7
		L588.0,58.3 L589.5,58.5 L591.0,58.4 L592.4,58.4 L593.9,57.3 L595.3,57.3 L596.8,57.3 L598.2,57.3
		L599.7,60.0 L601.2,60.0 L602.6,59.2 L604.1,58.8 L605.5,61.5 L607.0,62.0 L608.4,62.0 L609.9,60.0
		L611.3,60.0 L612.8,61.1 L614.3,58.8 L615.7,59.0 L617.2,60.8 L618.6,60.8 L620.1,60.8 L621.5,59.9
		L623.0,59.5 L624.5,62.2 L625.9,60.5 L627.4,59.9 L628.8,60.0 L630.3,61.4 L631.7,60.0 L633.2,62.8
		L634.6,61.8 L636.1,62.4 L637.6,62.4 L639.0,61.1 L640.5,59.3 L641.9,61.4 L643.4,60.9 L644.8,61.2
		L646.3,63.0 L647.8,61.0 L649.2,60.6 L650.7,61.4 L652.1,60.0 L653.6,58.4 L655.0,60.0 L656.5,60.5
		L657.9,60.5 L659.4,61.4 L660.9,64.5 L662.3,61.8 L663.8,61.6 L665.2,61.6 L666.7,58.8 L668.1,59.9
		L669.6,59.6 L671.1,61.1 L672.5,61.7 L674.0,61.4 L675.4,61.7 L676.9,61.8 L678.3,61.9 L679.8,61.3
		L681.2,61.4 L682.7,61.9 L684.2,65.4 L685.6,61.1 L687.1,61.5 L688.5,61.5 L690.0,61.2 L691.4,61.0
		L692.9,61.0 L694.3,61.2 L695.8,61.2 L697.3,61.2 L698.7,61.5 L700.2,60.6 L701.6,61.4 L703.1,61.5
		L704.5,62.9 L706.0,60.7 L707.5,61.9 L708.9,62.1 L710.4,61.8 L711.8,59.6 L713.3,59.6 L714.7,61.3
		L716.2,61.7 L717.6,60.1 L719.1,61.1 L720.6,61.5 L722.0,62.2 L723.5,62.2 L724.9,62.2 L726.4,62.2
		L727.8,64.5 L729.3,62.7 L730.8,63.7 L732.2,62.4 L733.7,62.4 L735.1,61.7 L736.6,61.5 L738.0,61.7
		L739.5,61.7 L740.9,61.7 L742.4,61.3 L743.9,61.9 L745.3,63.0 L746.8,62.3 L748.2,63.9 L749.7,62.1
		L751.1,62.1 L752.6,62.5 L754.1,62.7 L755.5,63.5 L757.0,63.5 L758.4,61.8 L759.9,63.4 L761.3,61.1
		L762.8,60.9 L764.2,60.3 L765.7,61.8 L767.2,61.3 L768.6,60.9 L770.1,61.3 L771.5,61.2 L773.0,60.9
		L774.4,60.9 L775.9,61.0 L777.4,61.1 L778.8,60.6 L780.3,61.2 L781.7,60.3 L783.2,60.3 L784.6,59.8
		L786.1,60.4 L787.5,60.0 L789.0,61.7 L790.5,60.9 L791.9,61.0 L793.4,58.1 L794.8,57.4 L796.3,58.3
		L797.7,58.3 L799.2,58.8 L800.7,58.9 L802.1,58.9 L803.6,58.9 L805.0,58.9 L806.5,58.9 L807.9,58.5
		L809.4,58.6 L810.8,57.7 L812.3,60.5 L813.8,61.6 L815.2,61.8 L816.7,61.6 L818.1,59.5 L819.6,60.6
		L821.0,59.2 L822.5,61.2 L824.0,61.8 L825.4,61.2 L826.9,61.3 L828.3,60.4 L829.8,62.0 L831.2,61.2
		L832.7,62.1 L834.1,61.4 L835.6,61.4 L837.1,56.9 L838.5,56.5 L840.0,56.5 L841.4,60.7 L842.9,60.9
		L844.3,59.7 L845.8,60.0 L847.3,60.0 L848.7,61.0 L850.2,60.9 L851.6,60.9 L853.1,60.8 L854.5,60.9
		L856.0,60.9 L857.4,63.9 L858.9,60.0 L860.4,59.6 L861.8,59.6 L863.3,59.6 L864.7,59.6 L866.2,59.8
		L867.6,59.5 L869.1,59.1 L870.6,59.6 L872.0,59.6 L873.5,56.4 L874.9,58.4 L876.4,58.2 L877.8,58.3
		L879.3,58.3 L880.7,58.6 L882.2,56.1 L883.7,55.9 L885.1,55.9 L886.6,55.6 L888.0,59.1 L889.5,56.8
		L890.9,58.0 L892.4,58.0 L893.9,57.8 L895.3,58.0 L896.8,58.0 L898.2,58.4 L899.7,58.4 L901.1,58.4
		L902.6,58.9 L904.0,58.1 L905.5,58.1 L907.0,59.4 L908.4,60.1 L909.9,58.7 L911.3,58.7 L912.8,57.4
		L914.2,57.4 L915.7,57.4 L917.2,60.4 L918.6,59.5 L920.1,59.3 L921.5,60.4 L923.0,59.4 L924.4,60.5
		L925.9,60.7 L927.3,60.5 L928.8,58.9 L930.3,61.6 L931.7,61.5 L933.2,58.8 L934.6,57.5 L936.1,57.5
		L937.5,57.1 L939.0,57.5 L940.5,59.3 L941.9,57.3 L943.4,57.3 L944.8,58.0 L946.3,58.0 L947.7,58.9
		L949.2,59.1 L950.6,59.1 L952.1,59.2 L953.6,60.7 L955.0,61.4 L956.5,60.4 L957.9,58.2 L959.4,58.2
		L960.8,56.8 L962.3,59.4 L963.8,59.3 L965.2,59.9 L966.7,59.9 L968.1,59.4 L969.6,59.5 L971.0,61.0
		L972.5,59.0 L973.9,59.2 L975.4,61.4 L976.9,60.8 L978.3,60.8 L979.8,57.8 L981.2,57.8 L982.7,59.9
		L984.1,60.3 L985.6,60.4 L987.1,58.6 L988.5,58.6 L990.0,58.6 L991.4,58.6 L992.9,58.7 L994.3,59.1
		L995.8,59.1 L997.2,59.1 L998.7,59.1 L1000.2,59.3 L1001.6,59.3 L1003.1,59.7 L1004.5,60.0 L1006.0,57.4
		L1007.4,57.4 L1008.9,56.7 L1010.4,56.7 L1011.8,58.0 L1013.3,56.7 L1014.7,57.6 L1016.2,57.6 L1017.6,57.3
		L1019.1,57.3 L1020.5,58.6 L1022.0,58.2 L1023.5,56.6 L1024.9,57.5 L1026.4,58.1 L1027.8,58.1 L1029.3,58.1
		L1030.7,56.5 L1032.2,60.0 L1033.7,57.4 L1035.1,57.0 L1036.6,58.6 L1038.0,58.9 L1039.5,58.9 L1040.9,58.4
		L1042.4,58.4 L1043.8,57.3 L1045.3,58.3 L1046.8,58.0 L1048.2,57.2 L1049.7,57.5 L1051.1,58.8 L1052.6,58.4
		L1054.0,58.4 L1055.5,57.6 L1057.0,57.2 L1058.4,57.1 L1059.9,56.2 L1061.3,56.7 L1062.8,56.9 L1064.2,56.9
		L1065.7,56.2 L1067.1,56.9 L1068.6,56.5 L1070.1,56.9 L1071.5,58.3 L1073.0,57.7 L1074.4,58.6 L1075.9,57.3
		L1077.3,59.1 L1078.8,58.5 L1080.3,58.4 L1081.7,59.1 L1083.2,59.1 L1084.6,57.3 L1086.1,59.3 L1087.5,55.8
		L1089.0,55.6 L1090.4,56.2 L1091.9,56.2 L1093.4,56.7 L1094.8,56.4 L1096.3,59.3 L1097.7,60.0 L1099.2,58.9
		L1100.6,61.0 L1102.1,60.2 L1103.6,58.9 L1105.0,59.7 L1106.5,57.7 L1107.9,58.6 L1109.4,58.5 L1110.8,59.2
		L1112.3,56.1 L1113.7,56.1 L1115.2,58.2 L1116.7,57.4 L1118.1,57.4 L1119.6,57.4 L1121.0,56.9 L1122.5,56.6
		L1123.9,56.7 L1125.4,55.3 L1126.9,55.9 L1128.3,55.9 L1129.8,56.7 L1131.2,56.7 L1132.7,56.2 L1134.1,55.7
		L1135.6,55.9 L1137.0,55.9 L1138.5,56.0 L1140.0,56.6 L1141.4,56.6 L1142.9,59.0 L1144.3,58.9 L1145.8,56.9
		L1147.2,56.9 L1148.7,56.9 L1150.2,57.0 L1151.6,57.0 L1153.1,56.7 L1154.5,57.1 L1156.0,57.1 L1157.4,57.3
		L1158.9,57.4 L1160.3,57.4 L1161.8,55.9 L1163.3,56.5 L1164.7,55.8 L1166.2,55.8 L1167.6,55.8 L1169.1,56.1
		L1170.5,58.7 L1172.0,57.1 L1173.5,57.1 L1174.9,57.1 L1176.4,57.2 L1177.8,56.2 L1179.3,57.2 L1180.7,56.4
		L1182.2,56.4 L1183.6,56.4 L1185.1,56.6 L1186.6,57.2 L1188.0,57.2 L1189.5,57.1 L1190.9,57.2 L1192.4,57.3
		L1193.8,58.1 L1195.3,58.4 L1196.8,57.9 L1198.2,57.8 L1199.7,56.1 L1201.1,56.1 L1202.6,56.1 L1204.0,56.1
		L1205.5,56.1 L1206.9,56.1 L1208.4,56.1 L1209.9,56.1 L1211.3,56.1 L1212.8,58.3 L1214.2,56.0 L1215.7,56.5
		L1217.1,57.5 L1218.6,54.6 L1220.1,54.4 L1221.5,56.3 L1223.0,57.0 L1224.4,56.1 L1225.9,56.3 L1227.3,56.3
		L1228.8,55.2 L1230.2,55.2 L1231.7,55.2 L1233.2,56.3 L1234.6,55.0 L1236.1,55.3 L1237.5,54.1 L1239.0,55.4
		L1240.4,56.4 L1241.9,56.4 L1243.4,56.4 L1244.8,57.2 L1246.3,58.1 L1247.7,56.2 L1249.2,55.5 L1250.6,55.0
		L1252.1,54.8 L1253.5,56.2 L1255.0,57.6  '/></g>
	</g>
	<g id="gnuplot_plot_2" ><title>trendline (m=0.031709,b=174.819011)</title>
<g fill="none" color="black" stroke="currentColor" stroke-width="1.00" stroke-linecap="butt" stroke-linejoin="miter">
	<g transform="translate(1187.9,94.0)" stroke="none" fill="black" font-family="Arial" font-size="12.00"  text-anchor="end">
		<text><tspan font-family="Arial" >trendline (m=0.031709,b=174.819011)</tspan></text>
	</g>
</g>
<g fill="none" color="black" stroke="currentColor" stroke-width="1.00" stroke-linecap="butt" stroke-linejoin="miter">
	<path stroke='black'  d='M1196.2,90.1 L1238.4,90.1 M87.1,106.6 L98.9,105.9 L110.7,105.2 L122.5,104.5 L134.3,103.8 L146.1,103.1
		L157.9,102.4 L169.7,101.7 L181.5,101.0 L193.3,100.3 L205.1,99.6 L216.9,98.9 L228.7,98.2 L240.5,97.5
		L252.3,96.8 L264.1,96.1 L275.9,95.4 L287.6,94.7 L299.4,94.0 L311.2,93.3 L323.0,92.6 L334.8,91.8
		L346.6,91.1 L358.4,90.4 L370.2,89.7 L382.0,89.0 L393.8,88.3 L405.6,87.6 L417.4,86.9 L429.2,86.2
		L441.0,85.5 L452.8,84.8 L464.6,84.1 L476.4,83.4 L488.2,82.7 L500.0,82.0 L511.8,81.3 L523.6,80.6
		L535.4,79.9 L547.2,79.2 L559.0,78.5 L570.8,77.8 L582.6,77.1 L594.4,76.4 L606.2,75.7 L618.0,75.0
		L629.8,74.3 L641.6,73.6 L653.4,72.9 L665.2,72.2 L676.9,71.5 L688.7,70.8 L700.5,70.1 L712.3,69.3
		L724.1,68.6 L735.9,67.9 L747.7,67.2 L759.5,66.5 L771.3,65.8 L783.1,65.1 L794.9,64.4 L806.7,63.7
		L818.5,63.0 L830.3,62.3 L842.1,61.6 L853.9,60.9 L865.7,60.2 L877.5,59.5 L889.3,58.8 L901.1,58.1
		L912.9,57.4 L924.7,56.7 L936.5,56.0 L948.3,55.3 L960.1,54.6 L968.1,54.1  '/></g>
	</g>
<g fill="none" color="white" stroke="black" stroke-width="2.00" stroke-linecap="butt" stroke-linejoin="miter">
</g>
<g fill="none" color="black" stroke="currentColor" stroke-width="2.00" stroke-linecap="butt" stroke-linejoin="miter">
</g>
<g fill="none" color="black" stroke="black" stroke-width="1.00" stroke-linecap="butt" stroke-linejoin="miter">
</g>
<g fill="none" color="black" stroke="currentColor" stroke-width="1.00" stroke-linecap="butt" stroke-linejoin="miter">
	<path stroke='black'  d='M87.1,54.1 L87.1,703.4 L1255.0,703.4 L1255.0,54.1 L87.1,54.1 Z  '/></g>
<g fill="none" color="black" stroke="currentColor" stroke-width="1.00" stroke-linecap="butt" stroke-linejoin="miter">
</g>
</g>
</svg>

