<?xml version="1.0" encoding="utf-8"  standalone="no"?>
<svg 
 width="1280" height="720"
 viewBox="0 0 1280 720"
 xmlns="http://www.w3.org/2000/svg"
 xmlns:xlink="http://www.w3.org/1999/xlink"
>

<title>Gnuplot</title>
<desc>Produced by GNUPLOT 5.0 patchlevel 6 </desc>

<g id="gnuplot_canvas">

<rect x="0" y="0" width="1280" height="720" fill="none"/>
<defs>

	<circle id='gpDot' r='0.5' stroke-width='0.5'/>
	<path id='gpPt0' stroke-width='0.222' stroke='currentColor' d='M-1,0 h2 M0,-1 v2'/>
	<path id='gpPt1' stroke-width='0.222' stroke='currentColor' d='M-1,-1 L1,1 M1,-1 L-1,1'/>
	<path id='gpPt2' stroke-width='0.222' stroke='currentColor' d='M-1,0 L1,0 M0,-1 L0,1 M-1,-1 L1,1 M-1,1 L1,-1'/>
	<rect id='gpPt3' stroke-width='0.222' stroke='currentColor' x='-1' y='-1' width='2' height='2'/>
	<rect id='gpPt4' stroke-width='0.222' stroke='currentColor' fill='currentColor' x='-1' y='-1' width='2' height='2'/>
	<circle id='gpPt5' stroke-width='0.222' stroke='currentColor' cx='0' cy='0' r='1'/>
	<use xlink:href='#gpPt5' id='gpPt6' fill='currentColor' stroke='none'/>
	<path id='gpPt7' stroke-width='0.222' stroke='currentColor' d='M0,-1.33 L-1.33,0.67 L1.33,0.67 z'/>
	<use xlink:href='#gpPt7' id='gpPt8' fill='currentColor' stroke='none'/>
	<use xlink:href='#gpPt7' id='gpPt9' stroke='currentColor' transform='rotate(180)'/>
	<use xlink:href='#gpPt9' id='gpPt10' fill='currentColor' stroke='none'/>
	<use xlink:href='#gpPt3' id='gpPt11' stroke='currentColor' transform='rotate(45)'/>
	<use xlink:href='#gpPt11' id='gpPt12' fill='currentColor' stroke='none'/>
	<path id='gpPt13' stroke-width='0.222' stroke='currentColor' d='M0,1.330 L1.265,0.411 L0.782,-1.067 L-0.782,-1.076 L-1.265,0.411 z'/>
	<use xlink:href='#gpPt13' id='gpPt14' fill='currentColor' stroke='none'/>
	<filter id='textbox' filterUnits='objectBoundingBox' x='0' y='0' height='1' width='1'>
	  <feFlood flood-color='white' flood-opacity='1' result='bgnd'/>
	  <feComposite in='SourceGraphic' in2='bgnd' operator='atop'/>
	</filter>
	<filter id='greybox' filterUnits='objectBoundingBox' x='0' y='0' height='1' width='1'>
	  <feFlood flood-color='lightgrey' flood-opacity='1' result='grey'/>
	  <feComposite in='SourceGraphic' in2='grey' operator='atop'/>
	</filter>
</defs>
<g fill="none" color="white" stroke="currentColor" stroke-width="1.00" stroke-linecap="butt" stroke-linejoin="miter">
</g>
<g fill="none" color="black" stroke="currentColor" stroke-width="1.00" stroke-linecap="butt" stroke-linejoin="miter">
	<path stroke='black'  d='M87.1,703.4 L96.1,703.4 M1255.0,703.4 L1246.0,703.4  '/>	<g transform="translate(78.8,707.3)" stroke="none" fill="black" font-family="Arial" font-size="12.00"  text-anchor="end">
		<text><tspan font-family="Arial" > 283.145</tspan></text>
	</g>
</g>
<g fill="none" color="black" stroke="currentColor" stroke-width="1.00" stroke-linecap="butt" stroke-linejoin="miter">
	<path stroke='black'  d='M87.1,374.1 L96.1,374.1 M1255.0,374.1 L1246.0,374.1  '/>	<g transform="translate(78.8,378.0)" stroke="none" fill="black" font-family="Arial" font-size="12.00"  text-anchor="end">
		<text><tspan font-family="Arial" > 283.846</tspan></text>
	</g>
</g>
<g fill="none" color="black" stroke="currentColor" stroke-width="1.00" stroke-linecap="butt" stroke-linejoin="miter">
	<path stroke='black'  d='M87.1,54.1 L96.1,54.1 M1255.0,54.1 L1246.0,54.1  '/>	<g transform="translate(78.8,58.0)" stroke="none" fill="black" font-family="Arial" font-size="12.00"  text-anchor="end">
		<text><tspan font-family="Arial" > 284.528</tspan></text>
	</g>
</g>
<g fill="none" color="black" stroke="currentColor" stroke-width="1.00" stroke-linecap="butt" stroke-linejoin="miter">
</g>
<g fill="none" color="black" stroke="currentColor" stroke-width="1.00" stroke-linecap="butt" stroke-linejoin="miter">
	<path stroke='black'  d='M87.1,54.1 L87.1,703.4 L1255.0,703.4 L1255.0,54.1 L87.1,54.1 Z  '/></g>
<g fill="none" color="black" stroke="currentColor" stroke-width="1.00" stroke-linecap="butt" stroke-linejoin="miter">
	<g transform="translate(671.0,31.0)" stroke="none" fill="black" font-family="Arial" font-size="12.00"  text-anchor="middle">
		<text><tspan font-family="Arial" >Material 27, 2 components</tspan></text>
	</g>
</g>
	<g id="gnuplot_plot_1" ><title>log(likelihood)</title>
<g fill="none" color="black" stroke="currentColor" stroke-width="1.00" stroke-linecap="butt" stroke-linejoin="miter">
	<g transform="translate(1187.9,76.0)" stroke="none" fill="black" font-family="Arial" font-size="12.00"  text-anchor="end">
		<text><tspan font-family="Arial" >log(likelihood)</tspan></text>
	</g>
</g>
<g fill="none" color="black" stroke="currentColor" stroke-width="1.00" stroke-linecap="butt" stroke-linejoin="miter">
	<g stroke='none' shape-rendering='crispEdges'>
		<polygon fill = 'rgb(148,   0, 211)' fill-opacity = '0.100000' points = '1196.2,76.6 1238.4,76.6 1238.4,67.6 1196.2,67.6 '/>
	</g>
	<path stroke='rgb(148,   0, 211)'  d='M1196.2,76.6 L1238.4,76.6 L1238.4,67.6 L1196.2,67.6 L1196.2,76.6 Z  '/></g>
<g fill="none" color="black" stroke="currentColor" stroke-width="1.00" stroke-linecap="butt" stroke-linejoin="miter">
	<g stroke='none' shape-rendering='crispEdges'>
		<polygon fill = 'rgb(148,   0, 211)' fill-opacity = '0.100000' points = '87.1,278.5 96.8,444.2 106.6,315.6 116.3,389.8 126.0,537.7 135.8,366.8 145.5,436.3 155.2,252.7 165.0,238.6 174.7,391.7 184.4,399.6 194.2,417.0 203.9,212.3 213.6,509.5 223.4,489.8 233.1,466.8
242.8,310.9 252.6,426.4 262.3,54.1 272.0,280.4 281.8,113.3 291.5,87.4 301.2,260.2 310.9,241.4 320.7,429.2 330.4,444.7 340.1,516.1 349.9,592.1 359.6,350.3 369.3,454.1 379.1,500.6 388.8,393.5
398.5,622.6 408.3,360.7 418.0,200.1 427.7,385.6 437.5,313.3 447.2,379.5 456.9,384.1 466.7,254.6 476.4,262.6 486.1,383.2 495.9,341.4 505.6,206.2 515.3,164.9 525.1,259.7 534.8,321.7 544.5,579.9
554.3,387.4 564.0,440.0 573.7,344.7 583.5,546.1 593.2,321.7 602.9,213.7 612.7,298.2 622.4,435.8 632.1,468.2 641.9,339.1 651.6,292.6 661.3,473.4 671.1,175.7 680.8,572.9 690.5,362.6 700.2,421.2
710.0,385.6 719.7,448.5 729.4,285.6 739.2,309.5 748.9,362.6 758.6,210.9 768.4,525.5 778.1,515.6 787.8,354.6 797.6,265.8 807.3,292.6 817.0,575.7 826.8,300.1 836.5,407.2 846.2,456.0 856.0,444.2
865.7,605.7 875.4,467.2 885.2,476.6 894.9,442.4 904.6,345.7 914.4,257.4 924.1,605.3 933.8,407.6 943.6,239.5 953.3,274.3 963.0,456.9 972.8,301.5 982.5,257.9 992.2,513.3 1002.0,404.8 1011.7,556.9
1021.4,188.8 1031.2,262.1 1040.9,420.8 1050.6,279.0 1060.4,187.0 1070.1,471.9 1079.8,415.1 1089.5,470.1 1099.3,375.7 1109.0,417.5 1118.7,199.6 1128.5,355.5 1138.2,373.4 1147.9,198.2 1157.7,458.3 1167.4,267.2
1177.1,345.2 1186.9,370.1 1196.6,425.5 1206.3,402.5 1216.1,512.8 1225.8,497.8 1235.5,703.4 1245.3,646.1 1255.0,153.2 1255.0,703.4 87.1,703.4 '/>
	</g>
	<path stroke='rgb(148,   0, 211)'  d='M87.1,278.5 L96.8,444.2 L106.6,315.6 L116.3,389.8 L126.0,537.7 L135.8,366.8 L145.5,436.3 L155.2,252.7
		L165.0,238.6 L174.7,391.7 L184.4,399.6 L194.2,417.0 L203.9,212.3 L213.6,509.5 L223.4,489.8 L233.1,466.8
		L242.8,310.9 L252.6,426.4 L262.3,54.1 L272.0,280.4 L281.8,113.3 L291.5,87.4 L301.2,260.2 L310.9,241.4
		L320.7,429.2 L330.4,444.7 L340.1,516.1 L349.9,592.1 L359.6,350.3 L369.3,454.1 L379.1,500.6 L388.8,393.5
		L398.5,622.6 L408.3,360.7 L418.0,200.1 L427.7,385.6 L437.5,313.3 L447.2,379.5 L456.9,384.1 L466.7,254.6
		L476.4,262.6 L486.1,383.2 L495.9,341.4 L505.6,206.2 L515.3,164.9 L525.1,259.7 L534.8,321.7 L544.5,579.9
		L554.3,387.4 L564.0,440.0 L573.7,344.7 L583.5,546.1 L593.2,321.7 L602.9,213.7 L612.7,298.2 L622.4,435.8
		L632.1,468.2 L641.9,339.1 L651.6,292.6 L661.3,473.4 L671.1,175.7 L680.8,572.9 L690.5,362.6 L700.2,421.2
		L710.0,385.6 L719.7,448.5 L729.4,285.6 L739.2,309.5 L748.9,362.6 L758.6,210.9 L768.4,525.5 L778.1,515.6
		L787.8,354.6 L797.6,265.8 L807.3,292.6 L817.0,575.7 L826.8,300.1 L836.5,407.2 L846.2,456.0 L856.0,444.2
		L865.7,605.7 L875.4,467.2 L885.2,476.6 L894.9,442.4 L904.6,345.7 L914.4,257.4 L924.1,605.3 L933.8,407.6
		L943.6,239.5 L953.3,274.3 L963.0,456.9 L972.8,301.5 L982.5,257.9 L992.2,513.3 L1002.0,404.8 L1011.7,556.9
		L1021.4,188.8 L1031.2,262.1 L1040.9,420.8 L1050.6,279.0 L1060.4,187.0 L1070.1,471.9 L1079.8,415.1 L1089.5,470.1
		L1099.3,375.7 L1109.0,417.5 L1118.7,199.6 L1128.5,355.5 L1138.2,373.4 L1147.9,198.2 L1157.7,458.3 L1167.4,267.2
		L1177.1,345.2 L1186.9,370.1 L1196.6,425.5 L1206.3,402.5 L1216.1,512.8 L1225.8,497.8 L1235.5,703.4 L1245.3,646.1
		L1255.0,153.2  '/></g>
	</g>
	<g id="gnuplot_plot_2" ><title>trendline (m=-0.000865,b=283.898303)</title>
<g fill="none" color="black" stroke="currentColor" stroke-width="1.00" stroke-linecap="butt" stroke-linejoin="miter">
	<g transform="translate(1187.9,94.0)" stroke="none" fill="black" font-family="Arial" font-size="12.00"  text-anchor="end">
		<text><tspan font-family="Arial" >trendline (m=-0.000865,b=283.898303)</tspan></text>
	</g>
</g>
<g fill="none" color="black" stroke="currentColor" stroke-width="1.00" stroke-linecap="butt" stroke-linejoin="miter">
	<path stroke='black'  d='M1196.2,90.1 L1238.4,90.1 M87.1,349.7 L98.9,350.2 L110.7,350.7 L122.5,351.2 L134.3,351.7 L146.1,352.2
		L157.9,352.7 L169.7,353.2 L181.5,353.7 L193.3,354.2 L205.1,354.7 L216.9,355.1 L228.7,355.6 L240.5,356.1
		L252.3,356.6 L264.1,357.1 L275.9,357.6 L287.6,358.1 L299.4,358.6 L311.2,359.1 L323.0,359.6 L334.8,360.1
		L346.6,360.6 L358.4,361.1 L370.2,361.5 L382.0,362.0 L393.8,362.5 L405.6,363.0 L417.4,363.5 L429.2,364.0
		L441.0,364.5 L452.8,365.0 L464.6,365.5 L476.4,366.0 L488.2,366.5 L500.0,367.0 L511.8,367.4 L523.6,367.9
		L535.4,368.4 L547.2,368.9 L559.0,369.4 L570.8,369.9 L582.6,370.4 L594.4,370.9 L606.2,371.4 L618.0,371.9
		L629.8,372.4 L641.6,372.9 L653.4,373.4 L665.2,373.8 L676.9,374.3 L688.7,374.8 L700.5,375.3 L712.3,375.8
		L724.1,376.3 L735.9,376.8 L747.7,377.3 L759.5,377.8 L771.3,378.3 L783.1,378.8 L794.9,379.3 L806.7,379.7
		L818.5,380.2 L830.3,380.7 L842.1,381.2 L853.9,381.7 L865.7,382.2 L877.5,382.7 L889.3,383.2 L901.1,383.7
		L912.9,384.2 L924.7,384.7 L936.5,385.2 L948.3,385.7 L960.1,386.1 L971.9,386.6 L983.7,387.1 L995.5,387.6
		L1007.3,388.1 L1019.1,388.6 L1030.9,389.1 L1042.7,389.6 L1054.5,390.1 L1066.2,390.6 L1078.0,391.1 L1089.8,391.6
		L1101.6,392.0 L1113.4,392.5 L1125.2,393.0 L1137.0,393.5 L1148.8,394.0 L1160.6,394.5 L1172.4,395.0 L1184.2,395.5
		L1196.0,396.0 L1207.8,396.5 L1219.6,397.0 L1231.4,397.5 L1243.2,398.0 L1255.0,398.4  '/></g>
	</g>
<g fill="none" color="white" stroke="black" stroke-width="2.00" stroke-linecap="butt" stroke-linejoin="miter">
</g>
<g fill="none" color="black" stroke="currentColor" stroke-width="2.00" stroke-linecap="butt" stroke-linejoin="miter">
</g>
<g fill="none" color="black" stroke="black" stroke-width="1.00" stroke-linecap="butt" stroke-linejoin="miter">
</g>
<g fill="none" color="black" stroke="currentColor" stroke-width="1.00" stroke-linecap="butt" stroke-linejoin="miter">
	<path stroke='black'  d='M87.1,54.1 L87.1,703.4 L1255.0,703.4 L1255.0,54.1 L87.1,54.1 Z  '/></g>
<g fill="none" color="black" stroke="currentColor" stroke-width="1.00" stroke-linecap="butt" stroke-linejoin="miter">
</g>
</g>
</svg>

