<?xml version="1.0" encoding="utf-8"  standalone="no"?>
<svg 
 width="1280" height="720"
 viewBox="0 0 1280 720"
 xmlns="http://www.w3.org/2000/svg"
 xmlns:xlink="http://www.w3.org/1999/xlink"
>

<title>Gnuplot</title>
<desc>Produced by GNUPLOT 5.2 patchlevel 2 </desc>

<g id="gnuplot_canvas">

<rect x="0" y="0" width="1280" height="720" fill="none"/>
<defs>

	<circle id='gpDot' r='0.5' stroke-width='0.5'/>
	<path id='gpPt0' stroke-width='0.222' stroke='currentColor' d='M-1,0 h2 M0,-1 v2'/>
	<path id='gpPt1' stroke-width='0.222' stroke='currentColor' d='M-1,-1 L1,1 M1,-1 L-1,1'/>
	<path id='gpPt2' stroke-width='0.222' stroke='currentColor' d='M-1,0 L1,0 M0,-1 L0,1 M-1,-1 L1,1 M-1,1 L1,-1'/>
	<rect id='gpPt3' stroke-width='0.222' stroke='currentColor' x='-1' y='-1' width='2' height='2'/>
	<rect id='gpPt4' stroke-width='0.222' stroke='currentColor' fill='currentColor' x='-1' y='-1' width='2' height='2'/>
	<circle id='gpPt5' stroke-width='0.222' stroke='currentColor' cx='0' cy='0' r='1'/>
	<use xlink:href='#gpPt5' id='gpPt6' fill='currentColor' stroke='none'/>
	<path id='gpPt7' stroke-width='0.222' stroke='currentColor' d='M0,-1.33 L-1.33,0.67 L1.33,0.67 z'/>
	<use xlink:href='#gpPt7' id='gpPt8' fill='currentColor' stroke='none'/>
	<use xlink:href='#gpPt7' id='gpPt9' stroke='currentColor' transform='rotate(180)'/>
	<use xlink:href='#gpPt9' id='gpPt10' fill='currentColor' stroke='none'/>
	<use xlink:href='#gpPt3' id='gpPt11' stroke='currentColor' transform='rotate(45)'/>
	<use xlink:href='#gpPt11' id='gpPt12' fill='currentColor' stroke='none'/>
	<path id='gpPt13' stroke-width='0.222' stroke='currentColor' d='M0,1.330 L1.265,0.411 L0.782,-1.067 L-0.782,-1.076 L-1.265,0.411 z'/>
	<use xlink:href='#gpPt13' id='gpPt14' fill='currentColor' stroke='none'/>
	<filter id='textbox' filterUnits='objectBoundingBox' x='0' y='0' height='1' width='1'>
	  <feFlood flood-color='white' flood-opacity='1' result='bgnd'/>
	  <feComposite in='SourceGraphic' in2='bgnd' operator='atop'/>
	</filter>
	<filter id='greybox' filterUnits='objectBoundingBox' x='0' y='0' height='1' width='1'>
	  <feFlood flood-color='lightgrey' flood-opacity='1' result='grey'/>
	  <feComposite in='SourceGraphic' in2='grey' operator='atop'/>
	</filter>
</defs>
<g fill="none" color="white" stroke="currentColor" stroke-width="1.00" stroke-linecap="butt" stroke-linejoin="miter">
</g>
<g fill="none" color="black" stroke="currentColor" stroke-width="1.00" stroke-linecap="butt" stroke-linejoin="miter">
	<path stroke='black'  d='M78.8,703.4 L87.8,703.4 M1255.0,703.4 L1246.0,703.4  '/>	<g transform="translate(70.5,707.3)" stroke="none" fill="black" font-family="Arial" font-size="12.00"  text-anchor="end">
		<text><tspan font-family="Arial" >-61.31</tspan></text>
	</g>
</g>
<g fill="none" color="black" stroke="currentColor" stroke-width="1.00" stroke-linecap="butt" stroke-linejoin="miter">
	<path stroke='black'  d='M78.8,118.8 L87.8,118.8 M1255.0,118.8 L1246.0,118.8  '/>	<g transform="translate(70.5,122.7)" stroke="none" fill="black" font-family="Arial" font-size="12.00"  text-anchor="end">
		<text><tspan font-family="Arial" >-33.303</tspan></text>
	</g>
</g>
<g fill="none" color="black" stroke="currentColor" stroke-width="1.00" stroke-linecap="butt" stroke-linejoin="miter">
	<path stroke='black'  d='M78.8,54.1 L87.8,54.1 M1255.0,54.1 L1246.0,54.1  '/>	<g transform="translate(70.5,58.0)" stroke="none" fill="black" font-family="Arial" font-size="12.00"  text-anchor="end">
		<text><tspan font-family="Arial" >-30.201</tspan></text>
	</g>
</g>
<g fill="none" color="black" stroke="currentColor" stroke-width="1.00" stroke-linecap="butt" stroke-linejoin="miter">
</g>
<g fill="none" color="black" stroke="currentColor" stroke-width="1.00" stroke-linecap="butt" stroke-linejoin="miter">
	<path stroke='black'  d='M78.8,54.1 L78.8,703.4 L1255.0,703.4 L1255.0,54.1 L78.8,54.1 Z  '/></g>
<g fill="none" color="black" stroke="currentColor" stroke-width="1.00" stroke-linecap="butt" stroke-linejoin="miter">
	<g transform="translate(666.9,31.0)" stroke="none" fill="black" font-family="Arial" font-size="12.00"  text-anchor="middle">
		<text><tspan font-family="Arial" >Material 53, 8 components</tspan></text>
	</g>
</g>
	<g id="gnuplot_plot_1" ><title>log(likelihood)</title>
<g fill="none" color="black" stroke="currentColor" stroke-width="1.00" stroke-linecap="butt" stroke-linejoin="miter">
	<g transform="translate(1187.9,76.0)" stroke="none" fill="black" font-family="Arial" font-size="12.00"  text-anchor="end">
		<text><tspan font-family="Arial" >log(likelihood)</tspan></text>
	</g>
</g>
<g fill="none" color="black" stroke="currentColor" stroke-width="1.00" stroke-linecap="butt" stroke-linejoin="miter">
	<g stroke='none' shape-rendering='crispEdges'>
		<polygon fill = 'rgb(148,   0, 211)' fill-opacity = '0.100000' points = '1196.2,76.6 1238.4,76.6 1238.4,67.6 1196.2,67.6 '/>
	</g>
	<path stroke='rgb(148,   0, 211)'  d='M1196.2,76.6 L1238.4,76.6 L1238.4,67.6 L1196.2,67.6 L1196.2,76.6 Z  '/></g>
<g fill="none" color="black" stroke="currentColor" stroke-width="1.00" stroke-linecap="butt" stroke-linejoin="miter">
	<g stroke='none' shape-rendering='crispEdges'>
		<polygon fill = 'rgb(148,   0, 211)' fill-opacity = '0.100000' points = '78.8,703.3 79.4,703.3 80.0,703.4 80.6,703.3 81.3,703.3 81.9,697.7 82.5,697.8 83.1,689.5 83.7,680.9 84.3,625.2 85.0,664.7 85.6,526.8 86.2,571.4 86.8,561.3 87.4,520.1 88.0,507.1
88.6,393.4 89.3,409.0 89.9,400.2 90.5,383.8 91.1,337.9 91.7,400.2 92.3,394.6 92.9,400.6 93.6,399.0 94.2,329.8 94.8,331.9 95.4,335.1 96.0,331.5 96.6,302.4 97.3,301.4 97.9,312.3
98.5,314.9 99.1,315.3 99.7,324.3 100.3,310.8 100.9,305.5 101.6,308.8 102.2,326.8 102.8,316.3 103.4,176.3 104.0,219.6 104.6,312.8 105.3,272.0 105.9,298.6 106.5,256.8 107.1,254.8 107.7,195.2
108.3,220.8 108.9,253.7 109.6,209.8 110.2,263.6 110.8,273.7 111.4,207.8 112.0,229.5 112.6,255.9 113.2,268.9 113.9,249.7 114.5,245.6 115.1,274.5 115.7,209.2 116.3,252.9 116.9,237.8 117.6,180.0
118.2,258.9 118.8,248.8 119.4,246.5 120.0,261.1 120.6,255.2 121.2,249.1 121.9,211.8 122.5,174.8 123.1,242.9 123.7,162.4 124.3,231.5 124.9,205.0 125.6,213.8 126.2,199.3 126.8,241.4 127.4,208.2
128.0,199.2 128.6,197.1 129.2,197.1 129.9,197.1 130.5,197.7 131.1,205.3 131.7,189.5 132.3,189.5 132.9,191.9 133.5,219.2 134.2,219.8 134.8,193.6 135.4,189.9 136.0,189.9 136.6,192.8 137.2,178.4
137.9,201.8 138.5,174.8 139.1,199.8 139.7,209.8 140.3,169.9 140.9,172.2 141.5,188.6 142.2,203.6 142.8,203.6 143.4,205.8 144.0,175.4 144.6,172.7 145.2,172.4 145.9,204.0 146.5,203.7 147.1,190.5
147.7,193.2 148.3,210.6 148.9,164.3 149.5,242.1 150.2,196.2 150.8,207.2 151.4,236.2 152.0,180.6 152.6,181.4 153.2,198.5 153.9,197.5 154.5,207.1 155.1,201.7 155.7,193.7 156.3,191.4 156.9,178.3
157.5,204.1 158.2,181.1 158.8,195.0 159.4,190.1 160.0,200.4 160.6,179.5 161.2,170.3 161.8,174.9 162.5,167.9 163.1,146.6 163.7,172.0 164.3,145.5 164.9,164.9 165.5,162.8 166.2,177.1 166.8,152.2
167.4,164.0 168.0,145.7 168.6,169.0 169.2,152.5 169.8,165.3 170.5,170.8 171.1,147.2 171.7,169.6 172.3,165.8 172.9,160.6 173.5,163.7 174.2,172.1 174.8,169.8 175.4,160.2 176.0,144.9 176.6,182.6
177.2,171.9 177.8,180.1 178.5,170.6 179.1,170.5 179.7,170.5 180.3,148.8 180.9,159.3 181.5,167.1 182.1,173.1 182.8,173.8 183.4,161.4 184.0,154.2 184.6,154.2 185.2,152.1 185.8,146.0 186.5,133.8
187.1,149.8 187.7,135.3 188.3,168.4 188.9,168.4 189.5,119.6 190.1,110.6 190.8,110.6 191.4,165.6 192.0,165.8 192.6,171.4 193.2,175.4 193.8,175.3 194.5,175.3 195.1,157.9 195.7,167.3 196.3,164.4
196.9,160.0 197.5,151.3 198.1,141.1 198.8,154.6 199.4,156.3 200.0,159.1 200.6,147.0 201.2,161.7 201.8,148.5 202.4,122.9 203.1,131.8 203.7,136.4 204.3,136.4 204.9,136.4 205.5,150.1 206.1,169.2
206.8,170.8 207.4,143.9 208.0,168.7 208.6,159.3 209.2,158.2 209.8,157.8 210.4,152.0 211.1,157.8 211.7,157.8 212.3,157.8 212.9,156.7 213.5,161.8 214.1,167.6 214.8,167.7 215.4,167.7 216.0,167.7
216.6,167.7 217.2,156.2 217.8,127.7 218.4,141.7 219.1,148.6 219.7,105.6 220.3,108.2 220.9,118.7 221.5,131.1 222.1,131.8 222.7,129.2 223.4,113.8 224.0,113.8 224.6,113.8 225.2,117.7 225.8,139.9
226.4,151.2 227.1,154.5 227.7,154.5 228.3,135.4 228.9,118.4 229.5,125.8 230.1,138.7 230.7,133.8 231.4,133.8 232.0,124.0 232.6,125.4 233.2,125.4 233.8,125.4 234.4,124.1 235.1,125.4 235.7,118.5
236.3,125.4 236.9,128.7 237.5,132.6 238.1,114.4 238.7,114.4 239.4,131.5 240.0,133.6 240.6,133.6 241.2,122.2 241.8,122.2 242.4,124.7 243.0,130.8 243.7,125.2 244.3,125.2 244.9,134.3 245.5,119.8
246.1,137.0 246.7,137.0 247.4,141.3 248.0,148.7 248.6,148.7 249.2,149.2 249.8,149.2 250.4,153.1 251.0,144.7 251.7,145.5 252.3,147.1 252.9,134.3 253.5,125.5 254.1,125.5 254.7,118.5 255.4,121.8
256.0,112.0 256.6,139.3 257.2,143.6 257.8,143.6 258.4,143.6 259.0,136.0 259.7,134.6 260.3,132.8 260.9,131.3 261.5,131.3 262.1,134.1 262.7,97.1 263.4,116.9 264.0,122.5 264.6,122.5 265.2,119.8
265.8,119.8 266.4,119.8 267.0,99.3 267.7,99.1 268.3,99.1 268.9,100.2 269.5,100.2 270.1,105.4 270.7,94.6 271.3,94.5 272.0,94.5 272.6,144.3 273.2,145.3 273.8,138.0 274.4,141.9 275.0,141.9
275.7,144.9 276.3,140.1 276.9,136.3 277.5,136.7 278.1,127.0 278.7,129.9 279.3,128.7 280.0,117.5 280.6,118.4 281.2,125.7 281.8,135.9 282.4,128.7 283.0,131.1 283.7,129.4 284.3,129.4 284.9,112.2
285.5,104.2 286.1,115.4 286.7,134.2 287.3,134.2 288.0,131.8 288.6,131.8 289.2,139.8 289.8,134.4 290.4,132.2 291.0,130.8 291.6,133.8 292.3,129.8 292.9,125.1 293.5,125.9 294.1,125.9 294.7,125.9
295.3,125.9 296.0,136.8 296.6,136.8 297.2,95.6 297.8,95.6 298.4,96.9 299.0,100.5 299.6,100.5 300.3,111.8 300.9,111.8 301.5,111.8 302.1,111.8 302.7,111.8 303.3,111.4 304.0,111.4 304.6,111.4
305.2,119.2 305.8,118.7 306.4,118.7 307.0,118.7 307.6,117.0 308.3,118.0 308.9,115.7 309.5,115.7 310.1,115.4 310.7,115.4 311.3,120.6 311.9,121.9 312.6,121.9 313.2,118.8 313.8,144.5 314.4,124.9
315.0,124.9 315.6,132.1 316.3,120.6 316.9,131.1 317.5,131.1 318.1,123.1 318.7,123.1 319.3,102.7 319.9,102.7 320.6,102.7 321.2,102.7 321.8,83.9 322.4,83.9 323.0,100.4 323.6,101.9 324.3,101.9
324.9,101.9 325.5,101.9 326.1,101.9 326.7,105.9 327.3,105.9 327.9,105.9 328.6,105.9 329.2,106.7 329.8,121.6 330.4,121.6 331.0,123.2 331.6,123.9 332.2,123.9 332.9,119.1 333.5,136.5 334.1,136.8
334.7,102.8 335.3,102.8 335.9,126.4 336.6,126.4 337.2,136.8 337.8,140.6 338.4,134.1 339.0,134.7 339.6,120.2 340.2,120.2 340.9,123.5 341.5,123.5 342.1,131.5 342.7,124.5 343.3,121.7 343.9,133.6
344.6,133.6 345.2,137.5 345.8,137.5 346.4,137.5 347.0,140.1 347.6,140.1 348.2,120.5 348.9,117.5 349.5,117.5 350.1,117.5 350.7,117.5 351.3,117.5 351.9,120.7 352.5,115.7 353.2,116.5 353.8,116.5
354.4,116.5 355.0,117.7 355.6,119.7 356.2,121.7 356.9,121.7 357.5,121.7 358.1,121.7 358.7,121.7 359.3,121.7 359.9,124.9 360.5,124.9 361.2,116.2 361.8,115.7 362.4,124.9 363.0,124.9 363.6,124.9
364.2,127.3 364.9,134.3 365.5,119.1 366.1,117.1 366.7,146.7 367.3,147.1 367.9,137.3 368.5,133.8 369.2,135.9 369.8,107.1 370.4,107.5 371.0,107.5 371.6,116.6 372.2,92.9 372.9,105.8 373.5,114.4
374.1,114.4 374.7,114.4 375.3,114.4 375.9,114.4 376.5,109.5 377.2,108.7 377.8,109.5 378.4,108.7 379.0,107.2 379.6,107.2 380.2,114.9 380.8,114.9 381.5,114.9 382.1,114.9 382.7,114.9 383.3,114.9
383.9,114.3 384.5,112.8 385.2,146.1 385.8,138.9 386.4,136.8 387.0,145.1 387.6,137.2 388.2,133.8 388.8,133.8 389.5,139.0 390.1,133.5 390.7,126.0 391.3,131.8 391.9,137.6 392.5,132.4 393.2,140.2
393.8,117.1 394.4,124.8 395.0,121.4 395.6,119.3 396.2,119.3 396.8,111.7 397.5,110.7 398.1,124.3 398.7,91.6 399.3,120.9 399.9,121.3 400.5,123.2 401.1,135.2 401.8,129.7 402.4,129.7 403.0,122.8
403.6,120.6 404.2,121.1 404.8,118.8 405.5,115.0 406.1,115.0 406.7,139.4 407.3,141.0 407.9,147.8 408.5,149.6 409.1,133.4 409.8,141.9 410.4,141.9 411.0,138.0 411.6,138.0 412.2,138.0 412.8,145.0
413.5,120.2 414.1,120.2 414.7,90.2 415.3,101.9 415.9,106.3 416.5,99.8 417.1,98.4 417.8,98.4 418.4,105.4 419.0,106.2 419.6,100.2 420.2,100.2 420.8,100.2 421.4,100.2 422.1,93.7 422.7,100.3
423.3,100.2 423.9,113.4 424.5,107.7 425.1,107.7 425.8,104.9 426.4,109.5 427.0,109.5 427.6,106.0 428.2,100.6 428.8,98.6 429.4,98.6 430.1,98.6 430.7,92.4 431.3,116.8 431.9,115.0 432.5,111.2
433.1,111.2 433.8,111.2 434.4,105.7 435.0,102.2 435.6,109.7 436.2,114.9 436.8,119.4 437.4,110.8 438.1,118.2 438.7,119.4 439.3,118.8 439.9,127.7 440.5,139.6 441.1,136.9 441.7,135.8 442.4,122.8
443.0,117.3 443.6,117.1 444.2,126.3 444.8,135.3 445.4,134.5 446.1,116.5 446.7,120.4 447.3,118.7 447.9,111.0 448.5,113.0 449.1,113.0 449.7,113.0 450.4,115.3 451.0,105.4 451.6,105.4 452.2,105.4
452.8,105.0 453.4,105.0 454.1,103.3 454.7,106.2 455.3,104.7 455.9,104.7 456.5,104.7 457.1,104.7 457.7,98.0 458.4,104.4 459.0,107.4 459.6,108.1 460.2,108.1 460.8,114.2 461.4,114.2 462.0,114.3
462.7,108.7 463.3,120.7 463.9,124.8 464.5,102.5 465.1,114.1 465.7,118.8 466.4,125.4 467.0,117.6 467.6,104.5 468.2,104.5 468.8,103.8 469.4,117.0 470.0,103.0 470.7,130.8 471.3,125.8 471.9,127.7
472.5,116.5 473.1,118.6 473.7,136.3 474.4,141.1 475.0,117.7 475.6,98.2 476.2,98.2 476.8,100.1 477.4,92.2 478.0,86.5 478.7,86.5 479.3,86.5 479.9,87.5 480.5,113.3 481.1,116.5 481.7,96.3
482.3,128.8 483.0,122.1 483.6,111.5 484.2,110.6 484.8,109.8 485.4,109.8 486.0,109.8 486.7,94.8 487.3,96.8 487.9,96.9 488.5,96.9 489.1,108.3 489.7,110.8 490.3,110.7 491.0,110.7 491.6,110.7
492.2,104.8 492.8,104.8 493.4,103.5 494.0,107.2 494.7,110.5 495.3,110.5 495.9,115.3 496.5,115.3 497.1,115.3 497.7,113.0 498.3,113.0 499.0,111.4 499.6,138.4 500.2,131.9 500.8,132.4 501.4,109.5
502.0,109.5 502.7,109.4 503.3,121.3 503.9,119.2 504.5,117.1 505.1,116.2 505.7,117.1 506.3,117.1 507.0,116.5 507.6,116.5 508.2,117.1 508.8,117.0 509.4,112.4 510.0,119.1 510.6,121.4 511.3,121.4
511.9,112.7 512.5,110.4 513.1,110.4 513.7,102.9 514.3,102.9 515.0,115.8 515.6,115.8 516.2,109.6 516.8,113.1 517.4,113.1 518.0,113.1 518.6,113.1 519.3,97.3 519.9,98.2 520.5,127.2 521.1,124.0
521.7,114.0 522.3,117.8 523.0,107.4 523.6,94.3 524.2,94.2 524.8,83.8 525.4,94.9 526.0,94.9 526.6,92.0 527.3,92.9 527.9,86.8 528.5,91.2 529.1,90.2 529.7,87.5 530.3,89.2 530.9,98.8
531.6,95.8 532.2,95.8 532.8,105.6 533.4,99.4 534.0,108.7 534.6,113.5 535.3,113.5 535.9,111.4 536.5,117.6 537.1,117.6 537.7,126.0 538.3,128.4 538.9,124.8 539.6,132.5 540.2,129.2 540.8,131.6
541.4,130.5 542.0,130.9 542.6,136.7 543.3,138.5 543.9,146.7 544.5,128.8 545.1,142.9 545.7,128.2 546.3,117.9 546.9,123.7 547.6,124.8 548.2,125.5 548.8,105.5 549.4,121.8 550.0,121.4 550.6,127.1
551.2,111.4 551.9,111.4 552.5,86.5 553.1,86.6 553.7,86.5 554.3,88.8 554.9,88.8 555.6,88.1 556.2,88.1 556.8,101.4 557.4,102.9 558.0,104.0 558.6,105.3 559.2,111.8 559.9,113.8 560.5,113.8
561.1,114.1 561.7,103.6 562.3,111.4 562.9,109.7 563.6,109.3 564.2,110.1 564.8,110.1 565.4,111.4 566.0,107.2 566.6,104.3 567.2,104.8 567.9,104.8 568.5,104.8 569.1,104.4 569.7,99.2 570.3,101.6
570.9,102.6 571.5,102.6 572.2,105.0 572.8,105.0 573.4,99.4 574.0,99.4 574.6,98.8 575.2,113.7 575.9,118.6 576.5,131.1 577.1,131.8 577.7,131.8 578.3,133.5 578.9,125.4 579.5,126.1 580.2,127.8
580.8,134.8 581.4,134.8 582.0,131.7 582.6,130.8 583.2,138.5 583.9,138.9 584.5,139.4 585.1,114.6 585.7,124.8 586.3,140.1 586.9,140.1 587.5,136.4 588.2,140.0 588.8,134.5 589.4,121.7 590.0,141.0
590.6,148.5 591.2,148.5 591.8,144.4 592.5,148.5 593.1,148.1 593.7,146.5 594.3,133.8 594.9,144.9 595.5,140.8 596.2,133.5 596.8,145.7 597.4,145.5 598.0,144.1 598.6,145.5 599.2,132.1 599.8,145.8
600.5,146.6 601.1,130.6 601.7,116.4 602.3,120.8 602.9,122.4 603.5,113.1 604.2,120.0 604.8,135.0 605.4,138.4 606.0,110.5 606.6,115.7 607.2,122.0 607.8,124.0 608.5,122.3 609.1,122.3 609.7,130.8
610.3,128.5 610.9,121.5 611.5,125.3 612.2,128.2 612.8,115.8 613.4,113.8 614.0,112.1 614.6,138.3 615.2,137.0 615.8,118.7 616.5,118.7 617.1,116.1 617.7,115.8 618.3,115.8 618.9,115.8 619.5,115.8
620.1,127.6 620.8,127.3 621.4,118.2 622.0,118.3 622.6,110.2 623.2,114.8 623.8,113.3 624.5,105.8 625.1,120.4 625.7,108.2 626.3,105.0 626.9,113.4 627.5,112.4 628.1,111.2 628.8,108.0 629.4,103.8
630.0,100.1 630.6,101.9 631.2,103.5 631.8,105.5 632.5,100.0 633.1,110.7 633.7,113.1 634.3,113.1 634.9,113.1 635.5,109.6 636.1,114.5 636.8,118.7 637.4,105.2 638.0,107.3 638.6,116.4 639.2,117.1
639.8,117.1 640.4,121.0 641.1,120.0 641.7,79.9 642.3,103.6 642.9,103.6 643.5,115.2 644.1,127.5 644.8,121.1 645.4,127.5 646.0,123.5 646.6,129.6 647.2,130.6 647.8,128.4 648.4,121.6 649.1,135.7
649.7,136.4 650.3,136.4 650.9,134.2 651.5,131.8 652.1,118.1 652.8,126.7 653.4,126.7 654.0,117.6 654.6,122.6 655.2,119.7 655.8,117.7 656.4,120.1 657.1,98.9 657.7,103.9 658.3,98.2 658.9,110.2
659.5,107.7 660.1,100.0 660.7,121.4 661.4,104.5 662.0,104.5 662.6,102.2 663.2,99.1 663.8,99.1 664.4,99.1 665.1,94.1 665.7,93.0 666.3,93.0 666.9,93.0 667.5,89.2 668.1,90.7 668.7,95.2
669.4,103.2 670.0,103.2 670.6,107.7 671.2,108.5 671.8,109.2 672.4,99.8 673.1,102.2 673.7,101.0 674.3,100.6 674.9,100.6 675.5,94.9 676.1,94.2 676.7,111.7 677.4,104.6 678.0,103.8 678.6,103.8
679.2,106.0 679.8,106.7 680.4,108.3 681.0,109.2 681.7,92.7 682.3,101.8 682.9,102.7 683.5,102.7 684.1,96.1 684.7,94.4 685.4,94.3 686.0,99.6 686.6,103.9 687.2,100.6 687.8,100.1 688.4,105.7
689.0,106.9 689.7,120.7 690.3,123.2 690.9,123.2 691.5,123.0 692.1,121.3 692.7,121.3 693.4,127.4 694.0,107.0 694.6,123.8 695.2,126.4 695.8,119.4 696.4,119.5 697.0,120.4 697.7,120.2 698.3,103.9
698.9,110.6 699.5,110.4 700.1,105.9 700.7,108.5 701.3,105.0 702.0,104.0 702.6,105.0 703.2,115.3 703.8,115.3 704.4,120.0 705.0,117.7 705.7,98.4 706.3,98.4 706.9,98.4 707.5,98.4 708.1,98.9
708.7,98.3 709.3,92.6 710.0,92.1 710.6,90.6 711.2,90.2 711.8,87.9 712.4,92.5 713.0,92.2 713.7,91.6 714.3,93.2 714.9,93.2 715.5,107.1 716.1,106.0 716.7,106.0 717.3,99.8 718.0,97.7
718.6,97.8 719.2,95.8 719.8,91.6 720.4,97.5 721.0,96.1 721.6,99.3 722.3,100.0 722.9,100.0 723.5,100.0 724.1,99.9 724.7,99.9 725.3,98.1 726.0,98.1 726.6,98.3 727.2,93.6 727.8,90.3
728.4,86.2 729.0,88.9 729.6,87.5 730.3,85.4 730.9,87.8 731.5,92.2 732.1,91.8 732.7,91.8 733.3,93.7 734.0,94.2 734.6,94.2 735.2,94.2 735.8,98.1 736.4,91.9 737.0,95.6 737.6,93.8
738.3,93.8 738.9,100.9 739.5,99.9 740.1,96.1 740.7,95.3 741.3,97.0 742.0,100.2 742.6,100.2 743.2,92.5 743.8,90.0 744.4,90.0 745.0,89.7 745.6,91.4 746.3,96.2 746.9,96.6 747.5,96.1
748.1,111.4 748.7,96.4 749.3,93.2 749.9,93.2 750.6,93.2 751.2,93.2 751.8,97.0 752.4,100.7 753.0,98.9 753.6,98.9 754.3,93.7 754.9,92.8 755.5,97.8 756.1,95.0 756.7,101.4 757.3,101.4
757.9,95.8 758.6,93.0 759.2,97.1 759.8,95.1 760.4,97.2 761.0,94.3 761.6,93.9 762.3,93.8 762.9,92.6 763.5,93.0 764.1,97.5 764.7,97.5 765.3,98.7 765.9,98.1 766.6,96.7 767.2,95.0
767.8,105.5 768.4,98.9 769.0,98.5 769.6,97.8 770.2,89.7 770.9,89.4 771.5,88.0 772.1,87.9 772.7,91.2 773.3,91.1 773.9,90.8 774.6,90.6 775.2,90.6 775.8,92.1 776.4,92.1 777.0,92.9
777.6,94.6 778.2,95.8 778.9,106.2 779.5,106.2 780.1,109.8 780.7,108.7 781.3,106.2 781.9,97.2 782.6,100.4 783.2,108.7 783.8,94.8 784.4,95.2 785.0,97.5 785.6,97.4 786.2,97.4 786.9,109.3
787.5,104.0 788.1,106.5 788.7,105.9 789.3,99.2 789.9,99.2 790.5,98.3 791.2,102.7 791.8,105.1 792.4,108.9 793.0,109.1 793.6,109.3 794.2,109.3 794.9,107.6 795.5,92.0 796.1,94.5 796.7,87.2
797.3,90.9 797.9,90.9 798.5,90.9 799.2,90.7 799.8,89.8 800.4,68.5 801.0,72.6 801.6,70.2 802.2,77.0 802.9,72.7 803.5,86.7 804.1,88.6 804.7,90.4 805.3,90.4 805.9,90.4 806.5,81.2
807.2,81.8 807.8,85.5 808.4,85.5 809.0,83.3 809.6,97.6 810.2,97.6 810.8,97.6 811.5,97.6 812.1,91.0 812.7,97.2 813.3,86.1 813.9,86.4 814.5,88.1 815.2,78.5 815.8,83.2 816.4,78.4
817.0,81.3 817.6,82.6 818.2,81.4 818.8,73.6 819.5,83.5 820.1,84.8 820.7,85.2 821.3,80.8 821.9,80.8 822.5,80.9 823.2,81.7 823.8,78.4 824.4,81.9 825.0,84.3 825.6,84.5 826.2,87.7
826.8,73.5 827.5,67.3 828.1,67.1 828.7,72.3 829.3,71.5 829.9,71.7 830.5,76.4 831.1,76.4 831.8,68.2 832.4,69.0 833.0,69.0 833.6,69.0 834.2,69.0 834.8,69.3 835.5,66.6 836.1,74.8
836.7,76.2 837.3,76.2 837.9,75.2 838.5,75.2 839.1,70.8 839.8,67.9 840.4,67.9 841.0,82.4 841.6,85.2 842.2,85.2 842.8,96.8 843.5,100.6 844.1,104.8 844.7,103.2 845.3,104.6 845.9,105.8
846.5,96.8 847.1,97.1 847.8,97.1 848.4,97.1 849.0,103.9 849.6,101.1 850.2,91.3 850.8,98.8 851.5,81.0 852.1,84.1 852.7,86.1 853.3,86.1 853.9,86.1 854.5,79.2 855.1,92.3 855.8,79.2
856.4,83.8 857.0,73.4 857.6,73.4 858.2,75.6 858.8,75.6 859.4,77.6 860.1,71.2 860.7,71.0 861.3,71.4 861.9,69.1 862.5,69.1 863.1,69.1 863.8,69.1 864.4,66.2 865.0,67.6 865.6,69.2
866.2,66.6 866.8,65.7 867.4,68.9 868.1,68.3 868.7,68.3 869.3,70.0 869.9,60.2 870.5,75.2 871.1,75.2 871.8,83.8 872.4,83.8 873.0,83.8 873.6,82.7 874.2,78.5 874.8,80.1 875.4,80.1
876.1,82.5 876.7,71.4 877.3,63.8 877.9,63.8 878.5,71.8 879.1,73.7 879.7,68.8 880.4,68.3 881.0,84.5 881.6,87.3 882.2,80.1 882.8,79.6 883.4,79.6 884.1,79.3 884.7,79.3 885.3,78.9
885.9,74.8 886.5,79.5 887.1,78.7 887.7,74.2 888.4,74.2 889.0,75.8 889.6,75.8 890.2,68.7 890.8,74.3 891.4,74.3 892.1,74.3 892.7,73.2 893.3,81.5 893.9,81.5 894.5,92.5 895.1,92.5
895.7,82.8 896.4,98.3 897.0,98.9 897.6,82.6 898.2,89.5 898.8,94.4 899.4,89.2 900.0,81.4 900.7,72.3 901.3,75.0 901.9,78.8 902.5,78.8 903.1,75.7 903.7,75.7 904.4,75.7 905.0,73.1
905.6,69.9 906.2,69.9 906.8,70.2 907.4,73.0 908.0,73.0 908.7,71.2 909.3,69.6 909.9,104.8 910.5,72.7 911.1,71.9 911.7,71.9 912.4,71.9 913.0,88.5 913.6,78.4 914.2,78.4 914.8,80.2
915.4,80.2 916.0,81.7 916.7,82.7 917.3,83.8 917.9,86.4 918.5,98.6 919.1,98.6 919.7,92.8 920.3,92.8 921.0,92.8 921.6,92.8 922.2,92.8 922.8,77.4 923.4,73.8 924.0,78.1 924.7,83.4
925.3,83.7 925.9,83.5 926.5,87.0 927.1,88.7 927.7,88.7 928.3,88.7 929.0,88.7 929.6,84.4 930.2,84.9 930.8,80.1 931.4,80.1 932.0,74.8 932.7,72.0 933.3,73.7 933.9,74.6 934.5,74.7
935.1,74.7 935.7,73.1 936.3,79.3 937.0,80.6 937.6,80.6 938.2,82.0 938.8,92.8 939.4,92.8 940.0,95.1 940.6,95.1 941.3,89.6 941.9,75.7 942.5,85.6 943.1,85.8 943.7,85.8 944.3,85.8
945.0,86.8 945.6,86.8 946.2,86.1 946.8,93.2 947.4,91.6 948.0,91.6 948.6,92.3 949.3,76.4 949.9,92.3 950.5,83.2 951.1,89.8 951.7,90.0 952.3,81.3 953.0,79.5 953.6,79.5 954.2,79.5
954.8,79.5 955.4,71.7 956.0,76.5 956.6,75.4 957.3,84.7 957.9,80.2 958.5,80.2 959.1,78.4 959.7,78.4 960.3,69.3 961.0,69.3 961.6,78.4 962.2,71.9 962.8,76.2 963.4,69.3 964.0,69.3
964.6,69.3 965.3,72.6 965.9,72.6 966.5,72.6 967.1,69.8 967.7,76.1 968.3,76.1 968.9,71.5 969.6,80.4 970.2,80.4 970.8,80.4 971.4,80.4 972.0,73.1 972.6,73.4 973.3,74.2 973.9,75.2
974.5,76.1 975.1,76.1 975.7,76.1 976.3,75.3 976.9,74.8 977.6,74.8 978.2,73.8 978.8,74.0 979.4,92.5 980.0,86.5 980.6,86.7 981.3,86.7 981.9,86.7 982.5,83.6 983.1,79.4 983.7,80.5
984.3,89.1 984.9,85.5 985.6,93.5 986.2,97.4 986.8,72.5 987.4,74.3 988.0,83.2 988.6,83.2 989.2,83.2 989.9,75.8 990.5,75.8 991.1,62.7 991.7,72.2 992.3,66.7 992.9,55.1 993.6,54.1
994.2,54.1 994.8,54.1 995.4,54.1 996.0,55.6 996.6,55.1 997.2,55.1 997.9,55.1 998.5,73.4 999.1,69.8 999.7,68.0 1000.3,54.1 1000.9,69.8 1001.6,69.2 1002.2,65.1 1002.8,65.1 1003.4,65.1
1004.0,65.1 1004.6,65.1 1005.2,65.1 1005.9,61.9 1006.5,61.9 1007.1,61.9 1007.7,62.8 1008.3,62.8 1008.9,80.8 1009.5,68.8 1010.2,65.5 1010.8,76.1 1011.4,85.2 1012.0,96.6 1012.6,95.9 1013.2,95.9
1013.9,80.8 1014.5,74.0 1015.1,93.3 1015.7,93.3 1016.3,93.3 1016.9,84.2 1017.5,81.8 1018.2,82.2 1018.8,78.0 1019.4,74.2 1020.0,74.2 1020.6,79.3 1021.2,79.9 1021.9,87.8 1022.5,87.8 1023.1,87.8
1023.7,81.8 1024.3,79.0 1024.9,86.6 1025.5,85.9 1026.2,89.0 1026.8,89.2 1027.4,93.6 1028.0,94.9 1028.6,94.9 1029.2,96.3 1029.8,94.1 1030.5,91.9 1031.1,85.2 1031.7,101.9 1032.3,101.9 1032.9,93.5
1033.5,93.5 1034.2,90.1 1034.8,81.8 1035.4,78.0 1036.0,77.5 1036.6,84.6 1037.2,91.1 1037.8,91.1 1038.5,94.7 1039.1,87.4 1039.7,89.8 1040.3,89.3 1040.9,97.6 1041.5,92.7 1042.2,94.8 1042.8,91.7
1043.4,98.6 1044.0,103.3 1044.6,94.9 1045.2,91.5 1045.8,104.9 1046.5,104.9 1047.1,104.9 1047.7,104.9 1048.3,103.8 1048.9,111.3 1049.5,105.2 1050.1,96.9 1050.8,90.9 1051.4,82.4 1052.0,82.4 1052.6,82.4
1053.2,75.4 1053.8,70.7 1054.5,85.0 1055.1,68.5 1055.7,68.5 1056.3,84.7 1056.9,84.7 1057.5,92.7 1058.1,89.9 1058.8,102.6 1059.4,102.6 1060.0,107.3 1060.6,85.8 1061.2,85.1 1061.8,86.0 1062.5,89.6
1063.1,78.9 1063.7,99.2 1064.3,105.7 1064.9,81.6 1065.5,77.4 1066.1,77.4 1066.8,82.6 1067.4,80.0 1068.0,78.8 1068.6,78.8 1069.2,80.9 1069.8,97.8 1070.4,93.5 1071.1,106.1 1071.7,88.7 1072.3,91.9
1072.9,91.3 1073.5,103.8 1074.1,102.5 1074.8,110.6 1075.4,98.1 1076.0,98.1 1076.6,92.4 1077.2,107.4 1077.8,113.6 1078.4,113.6 1079.1,130.5 1079.7,125.2 1080.3,122.2 1080.9,122.2 1081.5,122.2 1082.1,130.7
1082.8,120.1 1083.4,114.9 1084.0,103.0 1084.6,110.1 1085.2,114.4 1085.8,103.9 1086.4,103.9 1087.1,103.9 1087.7,102.3 1088.3,108.5 1088.9,110.5 1089.5,116.0 1090.1,106.3 1090.8,106.3 1091.4,108.0 1092.0,108.2
1092.6,108.2 1093.2,92.6 1093.8,99.0 1094.4,101.4 1095.1,101.4 1095.7,101.4 1096.3,101.4 1096.9,101.5 1097.5,87.0 1098.1,93.6 1098.7,90.7 1099.4,91.3 1100.0,90.4 1100.6,88.3 1101.2,88.3 1101.8,86.7
1102.4,86.7 1103.1,76.3 1103.7,79.3 1104.3,80.4 1104.9,81.6 1105.5,74.0 1106.1,69.6 1106.7,73.2 1107.4,76.2 1108.0,69.6 1108.6,71.6 1109.2,71.0 1109.8,71.0 1110.4,67.5 1111.1,67.5 1111.7,67.5
1112.3,73.8 1112.9,73.8 1113.5,87.6 1114.1,87.6 1114.7,85.6 1115.4,77.6 1116.0,77.6 1116.6,77.1 1117.2,77.3 1117.8,76.8 1118.4,73.9 1119.0,122.5 1119.7,113.0 1120.3,119.3 1120.9,125.8 1121.5,125.8
1122.1,74.1 1122.7,80.4 1123.4,80.9 1124.0,73.8 1124.6,70.6 1125.2,71.5 1125.8,73.6 1126.4,82.5 1127.0,82.5 1127.7,80.3 1128.3,80.3 1128.9,74.8 1129.5,73.8 1130.1,77.3 1130.7,84.4 1131.4,91.5
1132.0,88.1 1132.6,88.1 1133.2,92.3 1133.8,91.7 1134.4,78.5 1135.0,78.0 1135.7,86.6 1136.3,86.6 1136.9,86.6 1137.5,86.8 1138.1,77.1 1138.7,78.6 1139.3,78.6 1140.0,78.6 1140.6,88.9 1141.2,92.2
1141.8,98.5 1142.4,94.2 1143.0,92.6 1143.7,120.5 1144.3,105.8 1144.9,102.9 1145.5,99.4 1146.1,93.5 1146.7,93.5 1147.3,96.1 1148.0,96.1 1148.6,95.4 1149.2,95.4 1149.8,108.6 1150.4,108.7 1151.0,104.8
1151.7,121.4 1152.3,121.4 1152.9,119.5 1153.5,100.0 1154.1,98.6 1154.7,104.6 1155.3,108.4 1156.0,107.6 1156.6,107.6 1157.2,107.6 1157.8,116.9 1158.4,112.7 1159.0,118.4 1159.6,121.8 1160.3,107.4 1160.9,119.4
1161.5,119.2 1162.1,119.0 1162.7,110.8 1163.3,107.9 1164.0,107.9 1164.6,118.8 1165.2,118.4 1165.8,118.4 1166.4,118.7 1167.0,105.3 1167.6,118.7 1168.3,113.2 1168.9,88.3 1169.5,106.6 1170.1,118.1 1170.7,116.1
1171.3,116.1 1172.0,119.1 1172.6,123.8 1173.2,123.8 1173.8,101.2 1174.4,118.1 1175.0,104.8 1175.6,105.4 1176.3,105.4 1176.9,92.1 1177.5,87.8 1178.1,89.0 1178.7,89.9 1179.3,88.3 1179.9,80.7 1180.6,81.3
1181.2,89.8 1181.8,103.4 1182.4,103.4 1183.0,93.6 1183.6,113.1 1184.3,104.3 1184.9,121.5 1185.5,111.8 1186.1,112.1 1186.7,108.5 1187.3,108.5 1187.9,108.5 1188.6,100.6 1189.2,102.3 1189.8,102.3 1190.4,102.5
1191.0,104.3 1191.6,105.8 1192.3,111.1 1192.9,108.2 1193.5,108.2 1194.1,118.0 1194.7,110.0 1195.3,106.7 1195.9,120.9 1196.6,120.0 1197.2,120.9 1197.8,120.9 1198.4,118.7 1199.0,120.9 1199.6,113.4 1200.3,113.4
1200.9,115.5 1201.5,115.5 1202.1,111.7 1202.7,102.1 1203.3,105.7 1203.9,107.7 1204.6,122.6 1205.2,119.6 1205.8,80.8 1206.4,78.8 1207.0,106.3 1207.6,99.9 1208.2,94.9 1208.9,94.9 1209.5,112.3 1210.1,112.2
1210.7,112.2 1211.3,112.2 1211.9,113.9 1212.6,117.2 1213.2,123.0 1213.8,123.0 1214.4,107.9 1215.0,121.8 1215.6,125.4 1216.2,124.7 1216.9,124.7 1217.5,124.7 1218.1,124.7 1218.7,110.7 1219.3,115.4 1219.9,102.3
1220.6,102.3 1221.2,95.8 1221.8,124.5 1222.4,113.6 1223.0,112.8 1223.6,102.2 1224.2,101.7 1224.9,102.8 1225.5,100.0 1226.1,102.7 1226.7,102.7 1227.3,101.7 1227.9,108.1 1228.5,108.1 1229.2,108.1 1229.8,101.3
1230.4,100.1 1231.0,106.3 1231.6,106.5 1232.2,103.1 1232.9,103.9 1233.5,103.3 1234.1,104.0 1234.7,103.6 1235.3,103.6 1235.9,103.7 1236.5,106.4 1237.2,106.4 1237.8,101.9 1238.4,95.4 1239.0,96.0 1239.6,96.0
1240.2,102.3 1240.9,102.3 1241.5,102.3 1242.1,102.3 1242.7,118.9 1243.3,106.6 1243.9,107.4 1244.5,103.4 1245.2,103.2 1245.8,102.7 1246.4,106.7 1247.0,102.5 1247.6,102.5 1248.2,102.5 1248.8,102.4 1249.5,101.9
1250.1,105.0 1250.7,105.0 1251.3,100.9 1251.9,111.6 1252.5,111.7 1253.2,112.2 1253.8,110.0 1254.4,109.7 1255.0,94.4 1255.0,703.4 78.8,703.4 '/>
	</g>
</g>
	</g>
	<g id="gnuplot_plot_2" ><title>trendline (m=0.002925,b=-36.098947)</title>
<g fill="none" color="black" stroke="currentColor" stroke-width="1.00" stroke-linecap="butt" stroke-linejoin="miter">
	<g transform="translate(1187.9,94.0)" stroke="none" fill="black" font-family="Arial" font-size="12.00"  text-anchor="end">
		<text><tspan font-family="Arial" >trendline (m=0.002925,b=-36.098947)</tspan></text>
	</g>
</g>
<g fill="none" color="black" stroke="currentColor" stroke-width="1.00" stroke-linecap="butt" stroke-linejoin="miter">
	<path stroke='black'  d='M1196.2,90.1 L1238.4,90.1 M78.8,177.2 L90.7,176.0 L102.6,174.8 L114.4,173.7 L126.3,172.5 L138.2,171.3
		L150.1,170.1 L162.0,168.9 L173.8,167.8 L185.7,166.6 L197.6,165.4 L209.5,164.2 L221.4,163.1 L233.3,161.9
		L245.1,160.7 L257.0,159.5 L268.9,158.3 L280.8,157.2 L292.7,156.0 L304.5,154.8 L316.4,153.6 L328.3,152.4
		L340.2,151.3 L352.1,150.1 L363.9,148.9 L375.8,147.7 L387.7,146.5 L399.6,145.4 L411.5,144.2 L423.3,143.0
		L435.2,141.8 L447.1,140.7 L459.0,139.5 L470.9,138.3 L482.7,137.1 L494.6,135.9 L506.5,134.8 L518.4,133.6
		L530.3,132.4 L542.2,131.2 L554.0,130.0 L565.9,128.9 L577.8,127.7 L589.7,126.5 L601.6,125.3 L613.4,124.1
		L625.3,123.0 L637.2,121.8 L649.1,120.6 L661.0,119.4 L672.8,118.3 L684.7,117.1 L696.6,115.9 L708.5,114.7
		L720.4,113.5 L732.2,112.4 L744.1,111.2 L756.0,110.0 L767.9,108.8 L779.8,107.6 L791.6,106.5 L803.5,105.3
		L815.4,104.1 L827.3,102.9 L839.2,101.8 L851.1,100.6 L862.9,99.4 L874.8,98.2 L886.7,97.0 L898.6,95.9
		L910.5,94.7 L922.3,93.5 L934.2,92.3 L946.1,91.1 L958.0,90.0 L969.9,88.8 L981.7,87.6 L993.6,86.4
		L1005.5,85.2 L1017.4,84.1 L1029.3,82.9 L1041.1,81.7 L1053.0,80.5 L1064.9,79.4 L1076.8,78.2 L1088.7,77.0
		L1100.5,75.8 L1112.4,74.6 L1124.3,73.5 L1136.2,72.3 L1148.1,71.1 L1160.0,69.9 L1171.8,68.7 L1183.7,67.6
		L1195.6,66.4 L1207.5,65.2 L1219.4,64.0 L1231.2,62.8 L1243.1,61.7 L1255.0,60.5  '/></g>
	</g>
<g fill="none" color="white" stroke="black" stroke-width="2.00" stroke-linecap="butt" stroke-linejoin="miter">
</g>
<g fill="none" color="black" stroke="currentColor" stroke-width="2.00" stroke-linecap="butt" stroke-linejoin="miter">
</g>
<g fill="none" color="black" stroke="black" stroke-width="1.00" stroke-linecap="butt" stroke-linejoin="miter">
</g>
<g fill="none" color="black" stroke="currentColor" stroke-width="1.00" stroke-linecap="butt" stroke-linejoin="miter">
	<path stroke='black'  d='M78.8,54.1 L78.8,703.4 L1255.0,703.4 L1255.0,54.1 L78.8,54.1 Z  '/></g>
<g fill="none" color="black" stroke="currentColor" stroke-width="1.00" stroke-linecap="butt" stroke-linejoin="miter">
</g>
</g>
</svg>

