<?xml version="1.0" encoding="utf-8"  standalone="no"?>
<svg 
 width="1280" height="720"
 viewBox="0 0 1280 720"
 xmlns="http://www.w3.org/2000/svg"
 xmlns:xlink="http://www.w3.org/1999/xlink"
>

<title>Gnuplot</title>
<desc>Produced by GNUPLOT 5.0 patchlevel 6 </desc>

<g id="gnuplot_canvas">

<rect x="0" y="0" width="1280" height="720" fill="none"/>
<defs>

	<circle id='gpDot' r='0.5' stroke-width='0.5'/>
	<path id='gpPt0' stroke-width='0.222' stroke='currentColor' d='M-1,0 h2 M0,-1 v2'/>
	<path id='gpPt1' stroke-width='0.222' stroke='currentColor' d='M-1,-1 L1,1 M1,-1 L-1,1'/>
	<path id='gpPt2' stroke-width='0.222' stroke='currentColor' d='M-1,0 L1,0 M0,-1 L0,1 M-1,-1 L1,1 M-1,1 L1,-1'/>
	<rect id='gpPt3' stroke-width='0.222' stroke='currentColor' x='-1' y='-1' width='2' height='2'/>
	<rect id='gpPt4' stroke-width='0.222' stroke='currentColor' fill='currentColor' x='-1' y='-1' width='2' height='2'/>
	<circle id='gpPt5' stroke-width='0.222' stroke='currentColor' cx='0' cy='0' r='1'/>
	<use xlink:href='#gpPt5' id='gpPt6' fill='currentColor' stroke='none'/>
	<path id='gpPt7' stroke-width='0.222' stroke='currentColor' d='M0,-1.33 L-1.33,0.67 L1.33,0.67 z'/>
	<use xlink:href='#gpPt7' id='gpPt8' fill='currentColor' stroke='none'/>
	<use xlink:href='#gpPt7' id='gpPt9' stroke='currentColor' transform='rotate(180)'/>
	<use xlink:href='#gpPt9' id='gpPt10' fill='currentColor' stroke='none'/>
	<use xlink:href='#gpPt3' id='gpPt11' stroke='currentColor' transform='rotate(45)'/>
	<use xlink:href='#gpPt11' id='gpPt12' fill='currentColor' stroke='none'/>
	<path id='gpPt13' stroke-width='0.222' stroke='currentColor' d='M0,1.330 L1.265,0.411 L0.782,-1.067 L-0.782,-1.076 L-1.265,0.411 z'/>
	<use xlink:href='#gpPt13' id='gpPt14' fill='currentColor' stroke='none'/>
	<filter id='textbox' filterUnits='objectBoundingBox' x='0' y='0' height='1' width='1'>
	  <feFlood flood-color='white' flood-opacity='1' result='bgnd'/>
	  <feComposite in='SourceGraphic' in2='bgnd' operator='atop'/>
	</filter>
	<filter id='greybox' filterUnits='objectBoundingBox' x='0' y='0' height='1' width='1'>
	  <feFlood flood-color='lightgrey' flood-opacity='1' result='grey'/>
	  <feComposite in='SourceGraphic' in2='grey' operator='atop'/>
	</filter>
</defs>
<g fill="none" color="white" stroke="currentColor" stroke-width="1.00" stroke-linecap="butt" stroke-linejoin="miter">
</g>
<g fill="none" color="black" stroke="currentColor" stroke-width="1.00" stroke-linecap="butt" stroke-linejoin="miter">
	<path stroke='black'  d='M87.1,703.4 L96.1,703.4 M1255.0,703.4 L1246.0,703.4  '/>	<g transform="translate(78.8,707.3)" stroke="none" fill="black" font-family="Arial" font-size="12.00"  text-anchor="end">
		<text><tspan font-family="Arial" > 2120.91</tspan></text>
	</g>
</g>
<g fill="none" color="black" stroke="currentColor" stroke-width="1.00" stroke-linecap="butt" stroke-linejoin="miter">
	<path stroke='black'  d='M87.1,159.4 L96.1,159.4 M1255.0,159.4 L1246.0,159.4  '/>	<g transform="translate(78.8,163.3)" stroke="none" fill="black" font-family="Arial" font-size="12.00"  text-anchor="end">
		<text><tspan font-family="Arial" > 2521.92</tspan></text>
	</g>
</g>
<g fill="none" color="black" stroke="currentColor" stroke-width="1.00" stroke-linecap="butt" stroke-linejoin="miter">
	<path stroke='black'  d='M87.1,54.1 L96.1,54.1 M1255.0,54.1 L1246.0,54.1  '/>	<g transform="translate(78.8,58.0)" stroke="none" fill="black" font-family="Arial" font-size="12.00"  text-anchor="end">
		<text><tspan font-family="Arial" > 2599.55</tspan></text>
	</g>
</g>
<g fill="none" color="black" stroke="currentColor" stroke-width="1.00" stroke-linecap="butt" stroke-linejoin="miter">
</g>
<g fill="none" color="black" stroke="currentColor" stroke-width="1.00" stroke-linecap="butt" stroke-linejoin="miter">
	<path stroke='black'  d='M87.1,54.1 L87.1,703.4 L1255.0,703.4 L1255.0,54.1 L87.1,54.1 Z  '/></g>
<g fill="none" color="black" stroke="currentColor" stroke-width="1.00" stroke-linecap="butt" stroke-linejoin="miter">
	<g transform="translate(671.0,31.0)" stroke="none" fill="black" font-family="Arial" font-size="12.00"  text-anchor="middle">
		<text><tspan font-family="Arial" >Material 65, 8 components</tspan></text>
	</g>
</g>
	<g id="gnuplot_plot_1" ><title>log(likelihood)</title>
<g fill="none" color="black" stroke="currentColor" stroke-width="1.00" stroke-linecap="butt" stroke-linejoin="miter">
	<g transform="translate(1187.9,76.0)" stroke="none" fill="black" font-family="Arial" font-size="12.00"  text-anchor="end">
		<text><tspan font-family="Arial" >log(likelihood)</tspan></text>
	</g>
</g>
<g fill="none" color="black" stroke="currentColor" stroke-width="1.00" stroke-linecap="butt" stroke-linejoin="miter">
	<g stroke='none' shape-rendering='crispEdges'>
		<polygon fill = 'rgb(148,   0, 211)' fill-opacity = '0.100000' points = '1196.2,76.6 1238.4,76.6 1238.4,67.6 1196.2,67.6 '/>
	</g>
	<path stroke='rgb(148,   0, 211)'  d='M1196.2,76.6 L1238.4,76.6 L1238.4,67.6 L1196.2,67.6 L1196.2,76.6 Z  '/></g>
<g fill="none" color="black" stroke="currentColor" stroke-width="1.00" stroke-linecap="butt" stroke-linejoin="miter">
	<g stroke='none' shape-rendering='crispEdges'>
		<polygon fill = 'rgb(148,   0, 211)' fill-opacity = '0.100000' points = '87.1,703.4 88.3,703.4 89.4,703.4 90.6,703.4 91.8,699.2 92.9,687.9 94.1,677.5 95.3,661.8 96.4,637.8 97.6,611.9 98.8,600.3 99.9,582.4 101.1,569.9 102.3,560.4 103.4,539.2 104.6,532.9
105.8,529.5 106.9,520.5 108.1,516.9 109.3,516.7 110.4,513.2 111.6,514.0 112.8,504.4 113.9,504.8 115.1,488.8 116.3,470.2 117.4,460.9 118.6,459.6 119.8,458.5 120.9,452.8 122.1,445.6 123.3,447.7
124.4,447.8 125.6,442.8 126.8,436.9 127.9,436.9 129.1,438.4 130.3,429.8 131.4,427.5 132.6,422.9 133.8,416.3 134.9,412.4 136.1,409.0 137.3,412.4 138.4,403.8 139.6,401.4 140.8,401.4 141.9,399.1
143.1,398.4 144.3,393.0 145.4,393.0 146.6,376.4 147.8,379.7 148.9,388.5 150.1,380.9 151.3,381.6 152.4,380.9 153.6,374.7 154.8,376.0 155.9,372.5 157.1,374.1 158.3,374.1 159.4,373.2 160.6,371.4
161.8,371.5 162.9,369.0 164.1,367.5 165.3,370.8 166.4,361.2 167.6,366.2 168.8,368.8 169.9,367.6 171.1,366.9 172.3,368.0 173.4,366.9 174.6,369.3 175.8,366.2 176.9,360.8 178.1,360.8 179.3,368.0
180.4,365.0 181.6,359.4 182.8,363.5 183.9,360.0 185.1,360.3 186.3,363.9 187.4,362.0 188.6,358.3 189.8,359.3 190.9,359.7 192.1,356.9 193.3,361.9 194.4,353.8 195.6,358.2 196.8,356.7 197.9,351.1
199.1,354.6 200.3,352.7 201.4,353.3 202.6,351.4 203.8,353.5 204.9,346.7 206.1,353.2 207.3,348.1 208.4,347.2 209.6,338.4 210.8,337.5 211.9,340.6 213.1,334.3 214.3,339.7 215.4,335.5 216.6,332.5
217.8,333.1 218.9,331.0 220.1,331.7 221.3,335.4 222.4,336.2 223.6,329.2 224.8,331.3 225.9,332.1 227.1,333.5 228.3,328.2 229.4,323.5 230.6,325.7 231.8,325.2 232.9,324.2 234.1,325.3 235.3,320.6
236.4,322.7 237.6,323.8 238.8,323.8 239.9,321.9 241.1,325.1 242.3,326.3 243.4,320.0 244.6,325.4 245.8,316.9 246.9,316.2 248.1,321.1 249.3,312.1 250.4,316.2 251.6,308.7 252.8,313.8 253.9,311.3
255.1,305.0 256.3,312.5 257.4,308.6 258.6,311.7 259.8,309.5 260.9,304.9 262.1,304.4 263.3,305.3 264.4,302.2 265.6,302.2 266.8,301.8 267.9,304.9 269.1,306.5 270.3,305.6 271.4,303.4 272.6,300.8
273.8,298.5 274.9,301.0 276.1,291.1 277.3,292.6 278.4,293.1 279.6,295.8 280.8,288.0 281.9,290.5 283.1,289.3 284.3,288.9 285.4,281.7 286.6,286.6 287.8,285.3 288.9,290.7 290.1,288.1 291.3,288.3
292.4,282.0 293.6,279.5 294.8,278.7 295.9,279.6 297.1,274.7 298.3,275.9 299.4,275.9 300.6,274.6 301.8,273.9 302.9,273.2 304.1,275.9 305.3,277.3 306.4,274.2 307.6,275.3 308.8,274.0 309.9,272.3
311.1,271.9 312.3,268.7 313.4,268.6 314.6,268.7 315.8,267.2 316.9,266.1 318.1,262.4 319.3,262.4 320.4,260.4 321.6,261.1 322.8,262.5 323.9,263.5 325.1,256.6 326.3,258.1 327.4,255.4 328.6,253.3
329.8,253.2 330.9,250.3 332.1,255.4 333.3,251.7 334.4,253.9 335.6,251.0 336.8,249.8 337.9,244.1 339.1,246.6 340.3,246.8 341.4,245.6 342.6,244.0 343.8,243.3 344.9,230.9 346.1,234.5 347.3,228.1
348.4,229.8 349.6,229.6 350.8,229.6 351.9,226.7 353.1,224.7 354.3,224.7 355.4,224.7 356.6,226.6 357.8,227.0 358.9,226.4 360.1,226.6 361.3,229.0 362.4,229.1 363.6,225.6 364.8,225.6 365.9,226.8
367.1,225.6 368.3,225.1 369.4,225.9 370.6,224.0 371.8,222.9 372.9,222.9 374.1,220.5 375.3,216.3 376.4,221.2 377.6,221.4 378.8,222.1 380.0,221.9 381.1,221.9 382.3,220.7 383.5,220.1 384.6,219.3
385.8,212.5 387.0,213.8 388.1,210.6 389.3,212.7 390.5,211.6 391.6,204.4 392.8,207.4 394.0,207.4 395.1,206.1 396.3,206.7 397.5,199.9 398.6,199.9 399.8,205.1 401.0,201.3 402.1,201.3 403.3,201.3
404.5,201.3 405.6,201.3 406.8,201.3 408.0,200.7 409.1,200.3 410.3,199.8 411.5,197.8 412.6,191.0 413.8,189.6 415.0,189.6 416.1,190.0 417.3,189.5 418.5,189.5 419.6,185.7 420.8,185.7 422.0,185.7
423.1,185.8 424.3,185.8 425.5,185.8 426.6,186.4 427.8,186.3 429.0,189.4 430.1,188.4 431.3,186.3 432.5,186.3 433.6,187.6 434.8,185.9 436.0,182.8 437.1,183.2 438.3,182.2 439.5,177.6 440.6,177.6
441.8,175.9 443.0,174.8 444.1,173.7 445.3,177.9 446.5,175.0 447.6,175.6 448.8,177.4 450.0,177.4 451.1,171.7 452.3,165.4 453.5,164.6 454.6,172.4 455.8,167.4 457.0,169.3 458.1,169.6 459.3,168.3
460.5,167.4 461.6,167.5 462.8,164.6 464.0,163.2 465.1,162.8 466.3,161.9 467.5,163.3 468.6,162.7 469.8,163.2 471.0,157.0 472.1,161.0 473.3,161.8 474.5,154.5 475.6,154.9 476.8,154.4 478.0,152.5
479.1,152.0 480.3,152.0 481.5,151.3 482.6,151.3 483.8,150.1 485.0,151.0 486.1,147.3 487.3,150.3 488.5,150.3 489.6,149.7 490.8,150.3 492.0,149.6 493.1,149.6 494.3,148.1 495.5,148.4 496.6,146.0
497.8,147.5 499.0,136.7 500.1,139.2 501.3,139.2 502.5,139.2 503.6,139.2 504.8,139.4 506.0,141.7 507.1,141.7 508.3,139.9 509.5,139.6 510.6,139.2 511.8,139.2 513.0,139.2 514.1,139.2 515.3,138.5
516.5,138.0 517.6,137.7 518.8,138.0 520.0,138.0 521.1,138.1 522.3,138.1 523.5,138.3 524.6,134.1 525.8,133.3 527.0,135.4 528.1,131.9 529.3,133.3 530.5,133.7 531.6,133.7 532.8,135.6 534.0,130.3
535.1,129.8 536.3,129.8 537.5,129.8 538.6,130.0 539.8,128.5 541.0,128.5 542.1,129.4 543.3,131.5 544.5,130.4 545.6,133.2 546.8,129.8 548.0,128.6 549.1,125.3 550.3,131.7 551.5,127.7 552.6,127.3
553.8,124.8 555.0,120.5 556.1,123.0 557.3,121.0 558.5,126.9 559.6,121.9 560.8,124.2 562.0,123.9 563.1,123.9 564.3,122.8 565.5,122.9 566.6,120.5 567.8,120.5 569.0,120.5 570.1,120.5 571.3,122.4
572.5,121.9 573.6,121.7 574.8,120.7 576.0,119.6 577.1,119.1 578.3,115.6 579.5,116.5 580.6,116.5 581.8,119.8 583.0,120.0 584.1,120.0 585.3,120.0 586.5,116.1 587.6,120.0 588.8,120.0 590.0,119.8
591.1,121.1 592.3,118.0 593.5,116.2 594.6,117.5 595.8,116.4 597.0,112.9 598.1,109.9 599.3,117.2 600.5,111.8 601.6,111.8 602.8,111.8 604.0,111.8 605.1,113.0 606.3,113.0 607.5,110.1 608.6,112.6
609.8,111.7 611.0,107.8 612.1,111.5 613.3,111.5 614.5,111.7 615.6,111.7 616.8,106.8 618.0,106.9 619.1,106.9 620.3,106.9 621.5,106.9 622.6,106.9 623.8,106.9 625.0,107.0 626.1,107.0 627.3,107.0
628.5,106.8 629.6,106.8 630.8,109.1 632.0,109.5 633.1,109.5 634.3,104.1 635.5,104.1 636.6,104.1 637.8,104.1 639.0,102.9 640.1,102.6 641.3,102.7 642.5,102.7 643.6,102.7 644.8,102.7 646.0,103.2
647.1,99.4 648.3,96.9 649.5,104.7 650.6,97.9 651.8,100.9 653.0,102.0 654.1,99.5 655.3,99.5 656.5,99.7 657.6,98.5 658.8,97.5 660.0,99.6 661.1,95.9 662.3,95.9 663.5,96.5 664.6,96.5
665.8,96.5 667.0,96.5 668.1,96.5 669.3,95.1 670.5,94.1 671.6,94.1 672.8,95.7 674.0,95.0 675.1,96.3 676.3,94.7 677.5,94.7 678.6,94.7 679.8,94.7 681.0,95.2 682.1,94.4 683.3,94.4
684.5,95.2 685.6,95.2 686.8,95.2 688.0,95.2 689.1,95.6 690.3,95.4 691.5,95.9 692.6,93.9 693.8,97.1 695.0,97.1 696.1,97.1 697.3,97.1 698.5,97.1 699.6,97.1 700.8,96.1 702.0,96.1
703.1,96.1 704.3,96.6 705.5,96.1 706.6,96.1 707.8,93.9 709.0,93.8 710.1,93.8 711.3,93.8 712.5,93.2 713.6,93.0 714.8,93.2 716.0,90.2 717.1,88.7 718.3,90.4 719.5,90.8 720.6,90.8
721.8,90.6 723.0,89.5 724.1,89.6 725.3,89.6 726.5,89.6 727.6,90.3 728.8,90.3 730.0,92.1 731.1,92.1 732.3,92.1 733.5,92.4 734.6,88.8 735.8,89.1 737.0,89.1 738.1,88.9 739.3,88.9
740.5,90.8 741.6,90.7 742.8,90.7 744.0,90.2 745.1,89.2 746.3,90.3 747.5,90.3 748.6,89.2 749.8,89.1 751.0,88.4 752.1,84.9 753.3,91.7 754.5,92.2 755.6,92.2 756.8,92.2 758.0,92.2
759.1,92.2 760.3,91.5 761.5,93.9 762.6,93.9 763.8,93.9 765.0,89.2 766.1,90.2 767.3,91.6 768.5,91.6 769.6,90.4 770.8,90.2 772.0,90.2 773.1,90.2 774.3,88.1 775.5,88.1 776.6,88.1
777.8,88.1 779.0,88.1 780.1,88.1 781.3,88.5 782.5,88.5 783.6,88.5 784.8,88.5 786.0,88.5 787.1,88.1 788.3,88.1 789.5,88.1 790.6,87.9 791.8,87.9 793.0,87.6 794.1,87.6 795.3,87.9
796.5,86.4 797.6,86.4 798.8,86.5 800.0,86.5 801.1,87.0 802.3,88.7 803.5,86.8 804.6,86.8 805.8,86.8 807.0,86.5 808.1,87.3 809.3,92.5 810.5,92.9 811.6,92.3 812.8,92.3 814.0,92.2
815.1,91.1 816.3,89.1 817.5,89.8 818.6,89.8 819.8,88.4 821.0,88.4 822.1,90.2 823.3,87.8 824.5,87.8 825.6,90.7 826.8,89.5 828.0,88.2 829.1,88.2 830.3,88.3 831.5,87.8 832.6,87.8
833.8,87.8 835.0,87.8 836.1,90.9 837.3,87.7 838.5,89.9 839.6,89.3 840.8,88.1 842.0,88.1 843.1,88.1 844.3,88.1 845.5,88.1 846.6,88.1 847.8,88.1 849.0,88.1 850.1,88.1 851.3,87.1
852.5,87.1 853.6,87.1 854.8,82.2 856.0,82.2 857.1,84.7 858.3,84.7 859.5,84.7 860.6,84.7 861.8,84.7 863.0,83.2 864.1,83.2 865.3,88.6 866.5,89.2 867.6,86.8 868.8,82.5 870.0,82.5
871.1,82.5 872.3,82.5 873.5,82.5 874.6,85.9 875.8,82.0 877.0,82.0 878.1,86.6 879.3,88.3 880.5,88.3 881.6,88.6 882.8,87.6 884.0,87.4 885.1,87.1 886.3,86.8 887.5,86.8 888.6,86.8
889.8,87.0 891.0,87.0 892.1,87.0 893.3,87.4 894.5,85.9 895.6,85.9 896.8,85.5 898.0,85.9 899.1,85.9 900.3,86.5 901.5,83.8 902.6,83.8 903.8,83.8 905.0,83.8 906.1,83.8 907.3,85.9
908.5,85.7 909.6,81.8 910.8,82.1 912.0,82.1 913.1,82.1 914.3,80.6 915.5,86.1 916.6,84.0 917.8,79.7 919.0,79.7 920.1,79.7 921.3,79.7 922.5,79.7 923.6,79.9 924.8,79.9 926.0,79.9
927.1,79.4 928.3,79.4 929.5,79.3 930.6,79.3 931.8,79.3 933.0,79.0 934.1,79.0 935.3,79.0 936.5,79.0 937.6,80.2 938.8,80.5 940.0,79.4 941.1,81.1 942.3,80.5 943.5,80.5 944.6,80.1
945.8,80.1 947.0,76.2 948.1,76.2 949.3,76.2 950.5,79.8 951.6,78.5 952.8,78.8 954.0,78.8 955.1,78.8 956.3,79.1 957.5,79.1 958.6,79.1 959.8,79.1 961.0,78.4 962.1,78.4 963.3,78.2
964.5,79.1 965.7,79.1 966.8,74.2 968.0,78.6 969.2,77.6 970.3,78.3 971.5,75.1 972.7,75.1 973.8,76.4 975.0,76.8 976.2,75.8 977.3,76.0 978.5,75.1 979.7,75.1 980.8,75.2 982.0,74.5
983.2,73.4 984.3,73.4 985.5,73.4 986.7,73.3 987.8,73.3 989.0,73.3 990.2,73.3 991.3,73.3 992.5,73.8 993.7,73.7 994.8,72.2 996.0,72.2 997.2,72.7 998.3,72.0 999.5,72.0 1000.7,72.5
1001.8,72.5 1003.0,72.2 1004.2,72.2 1005.3,72.2 1006.5,72.2 1007.7,74.0 1008.8,74.0 1010.0,73.2 1011.2,73.2 1012.3,73.2 1013.5,73.2 1014.7,72.3 1015.8,73.2 1017.0,72.0 1018.2,72.7 1019.3,67.2
1020.5,71.5 1021.7,72.3 1022.8,69.1 1024.0,68.7 1025.2,68.8 1026.3,69.1 1027.5,69.1 1028.7,69.7 1029.8,69.8 1031.0,69.8 1032.2,69.8 1033.3,69.8 1034.5,69.5 1035.7,70.0 1036.8,70.1 1038.0,66.3
1039.2,68.1 1040.3,68.1 1041.5,68.1 1042.7,66.8 1043.8,66.6 1045.0,62.4 1046.2,62.4 1047.3,60.1 1048.5,59.2 1049.7,61.6 1050.8,60.9 1052.0,62.8 1053.2,60.0 1054.3,63.8 1055.5,59.8 1056.7,57.5
1057.8,57.5 1059.0,57.5 1060.2,57.5 1061.3,57.5 1062.5,61.1 1063.7,59.7 1064.8,59.1 1066.0,59.1 1067.2,59.1 1068.3,59.1 1069.5,59.7 1070.7,61.6 1071.8,58.3 1073.0,58.6 1074.2,58.6 1075.3,58.6
1076.5,58.6 1077.7,58.6 1078.8,58.4 1080.0,60.5 1081.2,59.0 1082.3,59.0 1083.5,59.0 1084.7,59.0 1085.8,59.9 1087.0,59.2 1088.2,59.5 1089.3,59.5 1090.5,62.0 1091.7,60.7 1092.8,60.7 1094.0,59.5
1095.2,59.5 1096.3,59.5 1097.5,61.3 1098.7,60.5 1099.8,61.0 1101.0,61.0 1102.2,61.2 1103.3,61.2 1104.5,61.5 1105.7,56.7 1106.8,55.9 1108.0,56.1 1109.2,58.2 1110.3,54.8 1111.5,55.1 1112.7,55.1
1113.8,55.1 1115.0,55.1 1116.2,55.1 1117.3,54.7 1118.5,54.7 1119.7,54.7 1120.8,55.0 1122.0,55.0 1123.2,58.0 1124.3,56.9 1125.5,56.2 1126.7,56.2 1127.8,56.2 1129.0,56.2 1130.2,54.8 1131.3,54.8
1132.5,54.8 1133.7,57.7 1134.8,57.7 1136.0,54.1 1137.2,54.1 1138.3,54.1 1139.5,61.9 1140.7,60.8 1141.8,60.8 1143.0,61.3 1144.2,60.5 1145.3,60.5 1146.5,63.1 1147.7,62.4 1148.8,62.4 1150.0,62.4
1151.2,62.4 1152.3,64.4 1153.5,65.4 1154.7,59.0 1155.8,59.0 1157.0,59.0 1158.2,63.2 1159.3,64.1 1160.5,60.4 1161.7,59.7 1162.8,59.7 1164.0,59.7 1165.2,60.5 1166.3,60.5 1167.5,58.7 1168.7,60.0
1169.8,59.1 1171.0,59.1 1172.2,59.0 1173.3,59.1 1174.5,59.2 1175.7,59.2 1176.8,57.4 1178.0,57.4 1179.2,59.1 1180.3,59.2 1181.5,58.3 1182.7,58.3 1183.8,58.3 1185.0,58.6 1186.2,58.6 1187.3,58.6
1188.5,57.8 1189.7,56.1 1190.8,56.1 1192.0,58.5 1193.2,58.0 1194.3,58.0 1195.5,57.2 1196.7,57.1 1197.8,57.1 1199.0,57.5 1200.2,57.5 1201.3,56.2 1202.5,56.2 1203.7,56.3 1204.8,56.3 1206.0,56.3
1207.2,56.3 1208.3,56.9 1209.5,56.9 1210.7,56.9 1211.8,56.4 1213.0,56.4 1214.2,56.4 1215.3,56.4 1216.5,56.4 1217.7,56.4 1218.8,56.4 1220.0,55.7 1221.2,55.7 1222.3,55.4 1223.5,55.4 1224.7,56.0
1225.8,55.6 1227.0,55.6 1228.2,55.6 1229.3,56.8 1230.5,56.8 1231.7,55.5 1232.8,55.5 1234.0,55.5 1235.2,55.5 1236.3,57.6 1237.5,57.6 1238.7,57.6 1239.8,57.6 1241.0,59.2 1242.2,60.4 1243.3,60.4
1244.5,60.4 1245.7,60.4 1246.8,59.5 1248.0,59.5 1249.2,57.4 1250.3,60.7 1251.5,60.1 1252.7,60.0 1253.8,60.0 1255.0,61.0 1255.0,703.4 87.1,703.4 '/>
	</g>
	<path stroke='rgb(148,   0, 211)'  d='M87.1,703.4 L88.3,703.4 L89.4,703.4 L90.6,703.4 L91.8,699.2 L92.9,687.9 L94.1,677.5 L95.3,661.8
		L96.4,637.8 L97.6,611.9 L98.8,600.3 L99.9,582.4 L101.1,569.9 L102.3,560.4 L103.4,539.2 L104.6,532.9
		L105.8,529.5 L106.9,520.5 L108.1,516.9 L109.3,516.7 L110.4,513.2 L111.6,514.0 L112.8,504.4 L113.9,504.8
		L115.1,488.8 L116.3,470.2 L117.4,460.9 L118.6,459.6 L119.8,458.5 L120.9,452.8 L122.1,445.6 L123.3,447.7
		L124.4,447.8 L125.6,442.8 L126.8,436.9 L127.9,436.9 L129.1,438.4 L130.3,429.8 L131.4,427.5 L132.6,422.9
		L133.8,416.3 L134.9,412.4 L136.1,409.0 L137.3,412.4 L138.4,403.8 L139.6,401.4 L140.8,401.4 L141.9,399.1
		L143.1,398.4 L144.3,393.0 L145.4,393.0 L146.6,376.4 L147.8,379.7 L148.9,388.5 L150.1,380.9 L151.3,381.6
		L152.4,380.9 L153.6,374.7 L154.8,376.0 L155.9,372.5 L157.1,374.1 L158.3,374.1 L159.4,373.2 L160.6,371.4
		L161.8,371.5 L162.9,369.0 L164.1,367.5 L165.3,370.8 L166.4,361.2 L167.6,366.2 L168.8,368.8 L169.9,367.6
		L171.1,366.9 L172.3,368.0 L173.4,366.9 L174.6,369.3 L175.8,366.2 L176.9,360.8 L178.1,360.8 L179.3,368.0
		L180.4,365.0 L181.6,359.4 L182.8,363.5 L183.9,360.0 L185.1,360.3 L186.3,363.9 L187.4,362.0 L188.6,358.3
		L189.8,359.3 L190.9,359.7 L192.1,356.9 L193.3,361.9 L194.4,353.8 L195.6,358.2 L196.8,356.7 L197.9,351.1
		L199.1,354.6 L200.3,352.7 L201.4,353.3 L202.6,351.4 L203.8,353.5 L204.9,346.7 L206.1,353.2 L207.3,348.1
		L208.4,347.2 L209.6,338.4 L210.8,337.5 L211.9,340.6 L213.1,334.3 L214.3,339.7 L215.4,335.5 L216.6,332.5
		L217.8,333.1 L218.9,331.0 L220.1,331.7 L221.3,335.4 L222.4,336.2 L223.6,329.2 L224.8,331.3 L225.9,332.1
		L227.1,333.5 L228.3,328.2 L229.4,323.5 L230.6,325.7 L231.8,325.2 L232.9,324.2 L234.1,325.3 L235.3,320.6
		L236.4,322.7 L237.6,323.8 L238.8,323.8 L239.9,321.9 L241.1,325.1 L242.3,326.3 L243.4,320.0 L244.6,325.4
		L245.8,316.9 L246.9,316.2 L248.1,321.1 L249.3,312.1 L250.4,316.2 L251.6,308.7 L252.8,313.8 L253.9,311.3
		L255.1,305.0 L256.3,312.5 L257.4,308.6 L258.6,311.7 L259.8,309.5 L260.9,304.9 L262.1,304.4 L263.3,305.3
		L264.4,302.2 L265.6,302.2 L266.8,301.8 L267.9,304.9 L269.1,306.5 L270.3,305.6 L271.4,303.4 L272.6,300.8
		L273.8,298.5 L274.9,301.0 L276.1,291.1 L277.3,292.6 L278.4,293.1 L279.6,295.8 L280.8,288.0 L281.9,290.5
		L283.1,289.3 L284.3,288.9 L285.4,281.7 L286.6,286.6 L287.8,285.3 L288.9,290.7 L290.1,288.1 L291.3,288.3
		L292.4,282.0 L293.6,279.5 L294.8,278.7 L295.9,279.6 L297.1,274.7 L298.3,275.9 L299.4,275.9 L300.6,274.6
		L301.8,273.9 L302.9,273.2 L304.1,275.9 L305.3,277.3 L306.4,274.2 L307.6,275.3 L308.8,274.0 L309.9,272.3
		L311.1,271.9 L312.3,268.7 L313.4,268.6 L314.6,268.7 L315.8,267.2 L316.9,266.1 L318.1,262.4 L319.3,262.4
		L320.4,260.4 L321.6,261.1 L322.8,262.5 L323.9,263.5 L325.1,256.6 L326.3,258.1 L327.4,255.4 L328.6,253.3
		L329.8,253.2 L330.9,250.3 L332.1,255.4 L333.3,251.7 L334.4,253.9 L335.6,251.0 L336.8,249.8 L337.9,244.1
		L339.1,246.6 L340.3,246.8 L341.4,245.6 L342.6,244.0 L343.8,243.3 L344.9,230.9 L346.1,234.5 L347.3,228.1
		L348.4,229.8 L349.6,229.6 L350.8,229.6 L351.9,226.7 L353.1,224.7 L354.3,224.7 L355.4,224.7 L356.6,226.6
		L357.8,227.0 L358.9,226.4 L360.1,226.6 L361.3,229.0 L362.4,229.1 L363.6,225.6 L364.8,225.6 L365.9,226.8
		L367.1,225.6 L368.3,225.1 L369.4,225.9 L370.6,224.0 L371.8,222.9 L372.9,222.9 L374.1,220.5 L375.3,216.3
		L376.4,221.2 L377.6,221.4 L378.8,222.1 L380.0,221.9 L381.1,221.9 L382.3,220.7 L383.5,220.1 L384.6,219.3
		L385.8,212.5 L387.0,213.8 L388.1,210.6 L389.3,212.7 L390.5,211.6 L391.6,204.4 L392.8,207.4 L394.0,207.4
		L395.1,206.1 L396.3,206.7 L397.5,199.9 L398.6,199.9 L399.8,205.1 L401.0,201.3 L402.1,201.3 L403.3,201.3
		L404.5,201.3 L405.6,201.3 L406.8,201.3 L408.0,200.7 L409.1,200.3 L410.3,199.8 L411.5,197.8 L412.6,191.0
		L413.8,189.6 L415.0,189.6 L416.1,190.0 L417.3,189.5 L418.5,189.5 L419.6,185.7 L420.8,185.7 L422.0,185.7
		L423.1,185.8 L424.3,185.8 L425.5,185.8 L426.6,186.4 L427.8,186.3 L429.0,189.4 L430.1,188.4 L431.3,186.3
		L432.5,186.3 L433.6,187.6 L434.8,185.9 L436.0,182.8 L437.1,183.2 L438.3,182.2 L439.5,177.6 L440.6,177.6
		L441.8,175.9 L443.0,174.8 L444.1,173.7 L445.3,177.9 L446.5,175.0 L447.6,175.6 L448.8,177.4 L450.0,177.4
		L451.1,171.7 L452.3,165.4 L453.5,164.6 L454.6,172.4 L455.8,167.4 L457.0,169.3 L458.1,169.6 L459.3,168.3
		L460.5,167.4 L461.6,167.5 L462.8,164.6 L464.0,163.2 L465.1,162.8 L466.3,161.9 L467.5,163.3 L468.6,162.7
		L469.8,163.2 L471.0,157.0 L472.1,161.0 L473.3,161.8 L474.5,154.5 L475.6,154.9 L476.8,154.4 L478.0,152.5
		L479.1,152.0 L480.3,152.0 L481.5,151.3 L482.6,151.3 L483.8,150.1 L485.0,151.0 L486.1,147.3 L487.3,150.3
		L488.5,150.3 L489.6,149.7 L490.8,150.3 L492.0,149.6 L493.1,149.6 L494.3,148.1 L495.5,148.4 L496.6,146.0
		L497.8,147.5 L499.0,136.7 L500.1,139.2 L501.3,139.2 L502.5,139.2 L503.6,139.2 L504.8,139.4 L506.0,141.7
		L507.1,141.7 L508.3,139.9 L509.5,139.6 L510.6,139.2 L511.8,139.2 L513.0,139.2 L514.1,139.2 L515.3,138.5
		L516.5,138.0 L517.6,137.7 L518.8,138.0 L520.0,138.0 L521.1,138.1 L522.3,138.1 L523.5,138.3 L524.6,134.1
		L525.8,133.3 L527.0,135.4 L528.1,131.9 L529.3,133.3 L530.5,133.7 L531.6,133.7 L532.8,135.6 L534.0,130.3
		L535.1,129.8 L536.3,129.8 L537.5,129.8 L538.6,130.0 L539.8,128.5 L541.0,128.5 L542.1,129.4 L543.3,131.5
		L544.5,130.4 L545.6,133.2 L546.8,129.8 L548.0,128.6 L549.1,125.3 L550.3,131.7 L551.5,127.7 L552.6,127.3
		L553.8,124.8 L555.0,120.5 L556.1,123.0 L557.3,121.0 L558.5,126.9 L559.6,121.9 L560.8,124.2 L562.0,123.9
		L563.1,123.9 L564.3,122.8 L565.5,122.9 L566.6,120.5 L567.8,120.5 L569.0,120.5 L570.1,120.5 L571.3,122.4
		L572.5,121.9 L573.6,121.7 L574.8,120.7 L576.0,119.6 L577.1,119.1 L578.3,115.6 L579.5,116.5 L580.6,116.5
		L581.8,119.8 L583.0,120.0 L584.1,120.0 L585.3,120.0 L586.5,116.1 L587.6,120.0 L588.8,120.0 L590.0,119.8
		L591.1,121.1 L592.3,118.0 L593.5,116.2 L594.6,117.5 L595.8,116.4 L597.0,112.9 L598.1,109.9 L599.3,117.2
		L600.5,111.8 L601.6,111.8 L602.8,111.8 L604.0,111.8 L605.1,113.0 L606.3,113.0 L607.5,110.1 L608.6,112.6
		L609.8,111.7 L611.0,107.8 L612.1,111.5 L613.3,111.5 L614.5,111.7 L615.6,111.7 L616.8,106.8 L618.0,106.9
		L619.1,106.9 L620.3,106.9 L621.5,106.9 L622.6,106.9 L623.8,106.9 L625.0,107.0 L626.1,107.0 L627.3,107.0
		L628.5,106.8 L629.6,106.8 L630.8,109.1 L632.0,109.5 L633.1,109.5 L634.3,104.1 L635.5,104.1 L636.6,104.1
		L637.8,104.1 L639.0,102.9 L640.1,102.6 L641.3,102.7 L642.5,102.7 L643.6,102.7 L644.8,102.7 L646.0,103.2
		L647.1,99.4 L648.3,96.9 L649.5,104.7 L650.6,97.9 L651.8,100.9 L653.0,102.0 L654.1,99.5 L655.3,99.5
		L656.5,99.7 L657.6,98.5 L658.8,97.5 L660.0,99.6 L661.1,95.9 L662.3,95.9 L663.5,96.5 L664.6,96.5
		L665.8,96.5 L667.0,96.5 L668.1,96.5 L669.3,95.1 L670.5,94.1 L671.6,94.1 L672.8,95.7 L674.0,95.0
		L675.1,96.3 L676.3,94.7 L677.5,94.7 L678.6,94.7 L679.8,94.7 L681.0,95.2 L682.1,94.4 L683.3,94.4
		L684.5,95.2 L685.6,95.2 L686.8,95.2 L688.0,95.2 L689.1,95.6 L690.3,95.4 L691.5,95.9 L692.6,93.9
		L693.8,97.1 L695.0,97.1 L696.1,97.1 L697.3,97.1 L698.5,97.1 L699.6,97.1 L700.8,96.1 L702.0,96.1
		L703.1,96.1 L704.3,96.6 L705.5,96.1 L706.6,96.1 L707.8,93.9 L709.0,93.8 L710.1,93.8 L711.3,93.8
		L712.5,93.2 L713.6,93.0 L714.8,93.2 L716.0,90.2 L717.1,88.7 L718.3,90.4 L719.5,90.8 L720.6,90.8
		L721.8,90.6 L723.0,89.5 L724.1,89.6 L725.3,89.6 L726.5,89.6 L727.6,90.3 L728.8,90.3 L730.0,92.1
		L731.1,92.1 L732.3,92.1 L733.5,92.4 L734.6,88.8 L735.8,89.1 L737.0,89.1 L738.1,88.9 L739.3,88.9
		L740.5,90.8 L741.6,90.7 L742.8,90.7 L744.0,90.2 L745.1,89.2 L746.3,90.3 L747.5,90.3 L748.6,89.2
		L749.8,89.1 L751.0,88.4 L752.1,84.9 L753.3,91.7 L754.5,92.2 L755.6,92.2 L756.8,92.2 L758.0,92.2
		L759.1,92.2 L760.3,91.5 L761.5,93.9 L762.6,93.9 L763.8,93.9 L765.0,89.2 L766.1,90.2 L767.3,91.6
		L768.5,91.6 L769.6,90.4 L770.8,90.2 L772.0,90.2 L773.1,90.2 L774.3,88.1 L775.5,88.1 L776.6,88.1
		L777.8,88.1 L779.0,88.1 L780.1,88.1 L781.3,88.5 L782.5,88.5 L783.6,88.5 L784.8,88.5 L786.0,88.5
		L787.1,88.1 L788.3,88.1 L789.5,88.1 L790.6,87.9 L791.8,87.9 L793.0,87.6 L794.1,87.6 L795.3,87.9
		L796.5,86.4 L797.6,86.4 L798.8,86.5 L800.0,86.5 L801.1,87.0 L802.3,88.7 L803.5,86.8 L804.6,86.8
		L805.8,86.8 L807.0,86.5 L808.1,87.3 L809.3,92.5 L810.5,92.9 L811.6,92.3 L812.8,92.3 L814.0,92.2
		L815.1,91.1 L816.3,89.1 L817.5,89.8 L818.6,89.8 L819.8,88.4 L821.0,88.4 L822.1,90.2 L823.3,87.8
		L824.5,87.8 L825.6,90.7 L826.8,89.5 L828.0,88.2 L829.1,88.2 L830.3,88.3 L831.5,87.8 L832.6,87.8
		L833.8,87.8 L835.0,87.8 L836.1,90.9 L837.3,87.7 L838.5,89.9 L839.6,89.3 L840.8,88.1 L842.0,88.1
		L843.1,88.1 L844.3,88.1 L845.5,88.1 L846.6,88.1 L847.8,88.1 L849.0,88.1 L850.1,88.1 L851.3,87.1
		L852.5,87.1 L853.6,87.1 L854.8,82.2 L856.0,82.2 L857.1,84.7 L858.3,84.7 L859.5,84.7 L860.6,84.7
		L861.8,84.7 L863.0,83.2 L864.1,83.2 L865.3,88.6 L866.5,89.2 L867.6,86.8 L868.8,82.5 L870.0,82.5
		L871.1,82.5 L872.3,82.5 L873.5,82.5 L874.6,85.9 L875.8,82.0 L877.0,82.0 L878.1,86.6 L879.3,88.3
		L880.5,88.3 L881.6,88.6 L882.8,87.6 L884.0,87.4 L885.1,87.1 L886.3,86.8 L887.5,86.8 L888.6,86.8
		L889.8,87.0 L891.0,87.0 L892.1,87.0 L893.3,87.4 L894.5,85.9 L895.6,85.9 L896.8,85.5 L898.0,85.9
		L899.1,85.9 L900.3,86.5 L901.5,83.8 L902.6,83.8 L903.8,83.8 L905.0,83.8 L906.1,83.8 L907.3,85.9
		L908.5,85.7 L909.6,81.8 L910.8,82.1 L912.0,82.1 L913.1,82.1 L914.3,80.6 L915.5,86.1 L916.6,84.0
		L917.8,79.7 L919.0,79.7 L920.1,79.7 L921.3,79.7 L922.5,79.7 L923.6,79.9 L924.8,79.9 L926.0,79.9
		L927.1,79.4 L928.3,79.4 L929.5,79.3 L930.6,79.3 L931.8,79.3 L933.0,79.0 L934.1,79.0 L935.3,79.0
		L936.5,79.0 L937.6,80.2 L938.8,80.5 L940.0,79.4 L941.1,81.1 L942.3,80.5 L943.5,80.5 L944.6,80.1
		L945.8,80.1 L947.0,76.2 L948.1,76.2 L949.3,76.2 L950.5,79.8 L951.6,78.5 L952.8,78.8 L954.0,78.8
		L955.1,78.8 L956.3,79.1 L957.5,79.1 L958.6,79.1 L959.8,79.1 L961.0,78.4 L962.1,78.4 L963.3,78.2
		L964.5,79.1 L965.7,79.1 L966.8,74.2 L968.0,78.6 L969.2,77.6 L970.3,78.3 L971.5,75.1 L972.7,75.1
		L973.8,76.4 L975.0,76.8 L976.2,75.8 L977.3,76.0 L978.5,75.1 L979.7,75.1 L980.8,75.2 L982.0,74.5
		L983.2,73.4 L984.3,73.4 L985.5,73.4 L986.7,73.3 L987.8,73.3 L989.0,73.3 L990.2,73.3 L991.3,73.3
		L992.5,73.8 L993.7,73.7 L994.8,72.2 L996.0,72.2 L997.2,72.7 L998.3,72.0 L999.5,72.0 L1000.7,72.5
		L1001.8,72.5 L1003.0,72.2 L1004.2,72.2 L1005.3,72.2 L1006.5,72.2 L1007.7,74.0 L1008.8,74.0 L1010.0,73.2
		L1011.2,73.2 L1012.3,73.2 L1013.5,73.2 L1014.7,72.3 L1015.8,73.2 L1017.0,72.0 L1018.2,72.7 L1019.3,67.2
		L1020.5,71.5 L1021.7,72.3 L1022.8,69.1 L1024.0,68.7 L1025.2,68.8 L1026.3,69.1 L1027.5,69.1 L1028.7,69.7
		L1029.8,69.8 L1031.0,69.8 L1032.2,69.8 L1033.3,69.8 L1034.5,69.5 L1035.7,70.0 L1036.8,70.1 L1038.0,66.3
		L1039.2,68.1 L1040.3,68.1 L1041.5,68.1 L1042.7,66.8 L1043.8,66.6 L1045.0,62.4 L1046.2,62.4 L1047.3,60.1
		L1048.5,59.2 L1049.7,61.6 L1050.8,60.9 L1052.0,62.8 L1053.2,60.0 L1054.3,63.8 L1055.5,59.8 L1056.7,57.5
		L1057.8,57.5 L1059.0,57.5 L1060.2,57.5 L1061.3,57.5 L1062.5,61.1 L1063.7,59.7 L1064.8,59.1 L1066.0,59.1
		L1067.2,59.1 L1068.3,59.1 L1069.5,59.7 L1070.7,61.6 L1071.8,58.3 L1073.0,58.6 L1074.2,58.6 L1075.3,58.6
		L1076.5,58.6 L1077.7,58.6 L1078.8,58.4 L1080.0,60.5 L1081.2,59.0 L1082.3,59.0 L1083.5,59.0 L1084.7,59.0
		L1085.8,59.9 L1087.0,59.2 L1088.2,59.5 L1089.3,59.5 L1090.5,62.0 L1091.7,60.7 L1092.8,60.7 L1094.0,59.5
		L1095.2,59.5 L1096.3,59.5 L1097.5,61.3 L1098.7,60.5 L1099.8,61.0 L1101.0,61.0 L1102.2,61.2 L1103.3,61.2
		L1104.5,61.5 L1105.7,56.7 L1106.8,55.9 L1108.0,56.1 L1109.2,58.2 L1110.3,54.8 L1111.5,55.1 L1112.7,55.1
		L1113.8,55.1 L1115.0,55.1 L1116.2,55.1 L1117.3,54.7 L1118.5,54.7 L1119.7,54.7 L1120.8,55.0 L1122.0,55.0
		L1123.2,58.0 L1124.3,56.9 L1125.5,56.2 L1126.7,56.2 L1127.8,56.2 L1129.0,56.2 L1130.2,54.8 L1131.3,54.8
		L1132.5,54.8 L1133.7,57.7 L1134.8,57.7 L1136.0,54.1 L1137.2,54.1 L1138.3,54.1 L1139.5,61.9 L1140.7,60.8
		L1141.8,60.8 L1143.0,61.3 L1144.2,60.5 L1145.3,60.5 L1146.5,63.1 L1147.7,62.4 L1148.8,62.4 L1150.0,62.4
		L1151.2,62.4 L1152.3,64.4 L1153.5,65.4 L1154.7,59.0 L1155.8,59.0 L1157.0,59.0 L1158.2,63.2 L1159.3,64.1
		L1160.5,60.4 L1161.7,59.7 L1162.8,59.7 L1164.0,59.7 L1165.2,60.5 L1166.3,60.5 L1167.5,58.7 L1168.7,60.0
		L1169.8,59.1 L1171.0,59.1 L1172.2,59.0 L1173.3,59.1 L1174.5,59.2 L1175.7,59.2 L1176.8,57.4 L1178.0,57.4
		L1179.2,59.1 L1180.3,59.2 L1181.5,58.3 L1182.7,58.3 L1183.8,58.3 L1185.0,58.6 L1186.2,58.6 L1187.3,58.6
		L1188.5,57.8 L1189.7,56.1 L1190.8,56.1 L1192.0,58.5 L1193.2,58.0 L1194.3,58.0 L1195.5,57.2 L1196.7,57.1
		L1197.8,57.1 L1199.0,57.5 L1200.2,57.5 L1201.3,56.2 L1202.5,56.2 L1203.7,56.3 L1204.8,56.3 L1206.0,56.3
		L1207.2,56.3 L1208.3,56.9 L1209.5,56.9 L1210.7,56.9 L1211.8,56.4 L1213.0,56.4 L1214.2,56.4 L1215.3,56.4
		L1216.5,56.4 L1217.7,56.4 L1218.8,56.4 L1220.0,55.7 L1221.2,55.7 L1222.3,55.4 L1223.5,55.4 L1224.7,56.0
		L1225.8,55.6 L1227.0,55.6 L1228.2,55.6 L1229.3,56.8 L1230.5,56.8 L1231.7,55.5 L1232.8,55.5 L1234.0,55.5
		L1235.2,55.5 L1236.3,57.6 L1237.5,57.6 L1238.7,57.6 L1239.8,57.6 L1241.0,59.2 L1242.2,60.4 L1243.3,60.4
		L1244.5,60.4 L1245.7,60.4 L1246.8,59.5 L1248.0,59.5 L1249.2,57.4 L1250.3,60.7 L1251.5,60.1 L1252.7,60.0
		L1253.8,60.0 L1255.0,61.0  '/></g>
	</g>
	<g id="gnuplot_plot_2" ><title>trendline (m=0.270975,b=2386.164027)</title>
<g fill="none" color="black" stroke="currentColor" stroke-width="1.00" stroke-linecap="butt" stroke-linejoin="miter">
	<g transform="translate(1187.9,94.0)" stroke="none" fill="black" font-family="Arial" font-size="12.00"  text-anchor="end">
		<text><tspan font-family="Arial" >trendline (m=0.270975,b=2386.164027)</tspan></text>
	</g>
</g>
<g fill="none" color="black" stroke="currentColor" stroke-width="1.00" stroke-linecap="butt" stroke-linejoin="miter">
	<path stroke='black'  d='M1196.2,90.1 L1238.4,90.1 M87.1,343.6 L98.9,339.9 L110.7,336.1 L122.5,332.4 L134.3,328.7 L146.1,325.0
		L157.9,321.3 L169.7,317.6 L181.5,313.8 L193.3,310.1 L205.1,306.4 L216.9,302.7 L228.7,299.0 L240.5,295.3
		L252.3,291.5 L264.1,287.8 L275.9,284.1 L287.6,280.4 L299.4,276.7 L311.2,272.9 L323.0,269.2 L334.8,265.5
		L346.6,261.8 L358.4,258.1 L370.2,254.4 L382.0,250.6 L393.8,246.9 L405.6,243.2 L417.4,239.5 L429.2,235.8
		L441.0,232.1 L452.8,228.3 L464.6,224.6 L476.4,220.9 L488.2,217.2 L500.0,213.5 L511.8,209.8 L523.6,206.0
		L535.4,202.3 L547.2,198.6 L559.0,194.9 L570.8,191.2 L582.6,187.5 L594.4,183.7 L606.2,180.0 L618.0,176.3
		L629.8,172.6 L641.6,168.9 L653.4,165.2 L665.2,161.4 L676.9,157.7 L688.7,154.0 L700.5,150.3 L712.3,146.6
		L724.1,142.9 L735.9,139.1 L747.7,135.4 L759.5,131.7 L771.3,128.0 L783.1,124.3 L794.9,120.6 L806.7,116.8
		L818.5,113.1 L830.3,109.4 L842.1,105.7 L853.9,102.0 L865.7,98.3 L877.5,94.5 L889.3,90.8 L901.1,87.1
		L912.9,83.4 L924.7,79.7 L936.5,76.0 L948.3,72.2 L960.1,68.5 L971.9,64.8 L983.7,61.1 L995.5,57.4
		L1005.9,54.1  '/></g>
	</g>
<g fill="none" color="white" stroke="black" stroke-width="2.00" stroke-linecap="butt" stroke-linejoin="miter">
</g>
<g fill="none" color="black" stroke="currentColor" stroke-width="2.00" stroke-linecap="butt" stroke-linejoin="miter">
</g>
<g fill="none" color="black" stroke="black" stroke-width="1.00" stroke-linecap="butt" stroke-linejoin="miter">
</g>
<g fill="none" color="black" stroke="currentColor" stroke-width="1.00" stroke-linecap="butt" stroke-linejoin="miter">
	<path stroke='black'  d='M87.1,54.1 L87.1,703.4 L1255.0,703.4 L1255.0,54.1 L87.1,54.1 Z  '/></g>
<g fill="none" color="black" stroke="currentColor" stroke-width="1.00" stroke-linecap="butt" stroke-linejoin="miter">
</g>
</g>
</svg>

