<?xml version="1.0" encoding="utf-8"  standalone="no"?>
<svg 
 width="1280" height="720"
 viewBox="0 0 1280 720"
 xmlns="http://www.w3.org/2000/svg"
 xmlns:xlink="http://www.w3.org/1999/xlink"
>

<title>Gnuplot</title>
<desc>Produced by GNUPLOT 5.2 patchlevel 2 </desc>

<g id="gnuplot_canvas">

<rect x="0" y="0" width="1280" height="720" fill="none"/>
<defs>

	<circle id='gpDot' r='0.5' stroke-width='0.5'/>
	<path id='gpPt0' stroke-width='0.222' stroke='currentColor' d='M-1,0 h2 M0,-1 v2'/>
	<path id='gpPt1' stroke-width='0.222' stroke='currentColor' d='M-1,-1 L1,1 M1,-1 L-1,1'/>
	<path id='gpPt2' stroke-width='0.222' stroke='currentColor' d='M-1,0 L1,0 M0,-1 L0,1 M-1,-1 L1,1 M-1,1 L1,-1'/>
	<rect id='gpPt3' stroke-width='0.222' stroke='currentColor' x='-1' y='-1' width='2' height='2'/>
	<rect id='gpPt4' stroke-width='0.222' stroke='currentColor' fill='currentColor' x='-1' y='-1' width='2' height='2'/>
	<circle id='gpPt5' stroke-width='0.222' stroke='currentColor' cx='0' cy='0' r='1'/>
	<use xlink:href='#gpPt5' id='gpPt6' fill='currentColor' stroke='none'/>
	<path id='gpPt7' stroke-width='0.222' stroke='currentColor' d='M0,-1.33 L-1.33,0.67 L1.33,0.67 z'/>
	<use xlink:href='#gpPt7' id='gpPt8' fill='currentColor' stroke='none'/>
	<use xlink:href='#gpPt7' id='gpPt9' stroke='currentColor' transform='rotate(180)'/>
	<use xlink:href='#gpPt9' id='gpPt10' fill='currentColor' stroke='none'/>
	<use xlink:href='#gpPt3' id='gpPt11' stroke='currentColor' transform='rotate(45)'/>
	<use xlink:href='#gpPt11' id='gpPt12' fill='currentColor' stroke='none'/>
	<path id='gpPt13' stroke-width='0.222' stroke='currentColor' d='M0,1.330 L1.265,0.411 L0.782,-1.067 L-0.782,-1.076 L-1.265,0.411 z'/>
	<use xlink:href='#gpPt13' id='gpPt14' fill='currentColor' stroke='none'/>
	<filter id='textbox' filterUnits='objectBoundingBox' x='0' y='0' height='1' width='1'>
	  <feFlood flood-color='white' flood-opacity='1' result='bgnd'/>
	  <feComposite in='SourceGraphic' in2='bgnd' operator='atop'/>
	</filter>
	<filter id='greybox' filterUnits='objectBoundingBox' x='0' y='0' height='1' width='1'>
	  <feFlood flood-color='lightgrey' flood-opacity='1' result='grey'/>
	  <feComposite in='SourceGraphic' in2='grey' operator='atop'/>
	</filter>
</defs>
<g fill="none" color="white" stroke="currentColor" stroke-width="1.00" stroke-linecap="butt" stroke-linejoin="miter">
</g>
<g fill="none" color="black" stroke="currentColor" stroke-width="1.00" stroke-linecap="butt" stroke-linejoin="miter">
	<path stroke='black'  d='M87.1,703.4 L96.1,703.4 M1255.0,703.4 L1246.0,703.4  '/>	<g transform="translate(78.8,707.3)" stroke="none" fill="black" font-family="Arial" font-size="12.00"  text-anchor="end">
		<text><tspan font-family="Arial" >-154.258</tspan></text>
	</g>
</g>
<g fill="none" color="black" stroke="currentColor" stroke-width="1.00" stroke-linecap="butt" stroke-linejoin="miter">
	<path stroke='black'  d='M87.1,173.7 L96.1,173.7 M1255.0,173.7 L1246.0,173.7  '/>	<g transform="translate(78.8,177.6)" stroke="none" fill="black" font-family="Arial" font-size="12.00"  text-anchor="end">
		<text><tspan font-family="Arial" >-40.0204</tspan></text>
	</g>
</g>
<g fill="none" color="black" stroke="currentColor" stroke-width="1.00" stroke-linecap="butt" stroke-linejoin="miter">
	<path stroke='black'  d='M87.1,54.1 L96.1,54.1 M1255.0,54.1 L1246.0,54.1  '/>	<g transform="translate(78.8,58.0)" stroke="none" fill="black" font-family="Arial" font-size="12.00"  text-anchor="end">
		<text><tspan font-family="Arial" >-14.215</tspan></text>
	</g>
</g>
<g fill="none" color="black" stroke="currentColor" stroke-width="1.00" stroke-linecap="butt" stroke-linejoin="miter">
</g>
<g fill="none" color="black" stroke="currentColor" stroke-width="1.00" stroke-linecap="butt" stroke-linejoin="miter">
	<path stroke='black'  d='M87.1,54.1 L87.1,703.4 L1255.0,703.4 L1255.0,54.1 L87.1,54.1 Z  '/></g>
<g fill="none" color="black" stroke="currentColor" stroke-width="1.00" stroke-linecap="butt" stroke-linejoin="miter">
	<g transform="translate(671.0,31.0)" stroke="none" fill="black" font-family="Arial" font-size="12.00"  text-anchor="middle">
		<text><tspan font-family="Arial" >Material 35, 4 components</tspan></text>
	</g>
</g>
	<g id="gnuplot_plot_1" ><title>log(likelihood)</title>
<g fill="none" color="black" stroke="currentColor" stroke-width="1.00" stroke-linecap="butt" stroke-linejoin="miter">
	<g transform="translate(1187.9,76.0)" stroke="none" fill="black" font-family="Arial" font-size="12.00"  text-anchor="end">
		<text><tspan font-family="Arial" >log(likelihood)</tspan></text>
	</g>
</g>
<g fill="none" color="black" stroke="currentColor" stroke-width="1.00" stroke-linecap="butt" stroke-linejoin="miter">
	<g stroke='none' shape-rendering='crispEdges'>
		<polygon fill = 'rgb(148,   0, 211)' fill-opacity = '0.100000' points = '1196.2,76.6 1238.4,76.6 1238.4,67.6 1196.2,67.6 '/>
	</g>
	<path stroke='rgb(148,   0, 211)'  d='M1196.2,76.6 L1238.4,76.6 L1238.4,67.6 L1196.2,67.6 L1196.2,76.6 Z  '/></g>
<g fill="none" color="black" stroke="currentColor" stroke-width="1.00" stroke-linecap="butt" stroke-linejoin="miter">
	<g stroke='none' shape-rendering='crispEdges'>
		<polygon fill = 'rgb(148,   0, 211)' fill-opacity = '0.100000' points = '87.1,703.4 89.5,631.7 92.0,620.2 94.4,606.2 96.9,597.2 99.3,603.7 101.8,600.8 104.2,602.5 106.6,600.6 109.1,605.6 111.5,599.9 114.0,596.9 116.4,597.6 118.9,596.3 121.3,597.7 123.7,596.8
126.2,601.2 128.6,598.4 131.1,594.9 133.5,594.3 136.0,594.2 138.4,594.2 140.9,594.1 143.3,593.0 145.7,593.5 148.2,593.4 150.6,592.6 153.1,593.9 155.5,593.6 158.0,594.4 160.4,594.0 162.8,592.2
165.3,595.7 167.7,594.9 170.2,595.8 172.6,592.9 175.1,593.1 177.5,594.4 179.9,594.5 182.4,594.4 184.8,593.8 187.3,591.9 189.7,590.1 192.2,588.4 194.6,587.9 197.0,590.2 199.5,596.7 201.9,597.1
204.4,593.7 206.8,590.1 209.3,592.4 211.7,592.4 214.2,593.8 216.6,592.1 219.0,593.4 221.5,589.3 223.9,589.3 226.4,587.5 228.8,581.0 231.3,586.0 233.7,581.6 236.1,581.6 238.6,581.7 241.0,582.8
243.5,594.0 245.9,592.9 248.4,578.0 250.8,586.6 253.2,576.6 255.7,576.2 258.1,584.3 260.6,583.8 263.0,580.0 265.5,594.9 267.9,593.1 270.3,585.3 272.8,585.6 275.2,587.0 277.7,581.1 280.1,579.9
282.6,534.9 285.0,535.4 287.5,521.9 289.9,516.4 292.3,515.8 294.8,509.9 297.2,511.0 299.7,456.5 302.1,456.5 304.6,416.1 307.0,390.6 309.4,370.4 311.9,372.7 314.3,364.1 316.8,306.7 319.2,304.6
321.7,298.1 324.1,287.0 326.5,275.9 329.0,265.8 331.4,260.5 333.9,262.3 336.3,251.0 338.8,254.5 341.2,249.4 343.6,240.3 346.1,240.3 348.5,240.6 351.0,241.2 353.4,233.8 355.9,230.9 358.3,204.2
360.8,212.4 363.2,201.3 365.6,184.7 368.1,178.2 370.5,166.3 373.0,152.8 375.4,129.2 377.9,128.0 380.3,114.2 382.7,102.7 385.2,96.9 387.6,103.5 390.1,86.8 392.5,86.7 395.0,84.5 397.4,83.7
399.8,82.8 402.3,87.9 404.7,83.6 407.2,79.9 409.6,79.4 412.1,74.8 414.5,71.9 416.9,75.2 419.4,73.4 421.8,74.4 424.3,66.4 426.7,72.3 429.2,72.2 431.6,70.8 434.0,69.9 436.5,72.7
438.9,70.2 441.4,71.7 443.8,73.1 446.3,73.4 448.7,64.3 451.2,70.8 453.6,70.2 456.0,72.6 458.5,66.3 460.9,68.9 463.4,63.3 465.8,63.1 468.3,62.3 470.7,68.1 473.1,62.7 475.6,68.2
478.0,69.2 480.5,61.8 482.9,67.1 485.4,67.5 487.8,62.0 490.2,64.5 492.7,67.1 495.1,67.6 497.6,67.6 500.0,65.2 502.5,65.2 504.9,66.2 507.3,64.0 509.8,61.9 512.2,62.3 514.7,61.3
517.1,63.4 519.6,68.5 522.0,59.5 524.5,64.3 526.9,62.2 529.3,61.0 531.8,65.1 534.2,64.3 536.7,61.9 539.1,60.3 541.6,64.1 544.0,59.6 546.4,56.8 548.9,62.5 551.3,61.2 553.8,63.3
556.2,59.5 558.7,65.6 561.1,63.9 563.5,62.4 566.0,61.3 568.4,61.5 570.9,60.3 573.3,64.1 575.8,63.7 578.2,63.8 580.6,65.2 583.1,67.3 585.5,63.8 588.0,63.7 590.4,64.2 592.9,61.4
595.3,62.0 597.8,61.7 600.2,61.2 602.6,57.5 605.1,68.1 607.5,63.4 610.0,66.2 612.4,67.1 614.9,62.4 617.3,61.7 619.7,64.2 622.2,64.3 624.6,61.1 627.1,61.4 629.5,67.4 632.0,66.9
634.4,61.2 636.8,60.2 639.3,62.6 641.7,65.0 644.2,64.7 646.6,64.3 649.1,60.5 651.5,60.5 653.9,61.6 656.4,63.3 658.8,66.2 661.3,61.8 663.7,59.1 666.2,62.2 668.6,61.0 671.1,67.0
673.5,65.1 675.9,62.2 678.4,61.5 680.8,62.5 683.3,62.1 685.7,63.3 688.2,67.0 690.6,68.2 693.0,70.1 695.5,71.3 697.9,66.0 700.4,62.1 702.8,68.1 705.3,65.4 707.7,63.5 710.1,59.6
712.6,66.5 715.0,67.7 717.5,67.4 719.9,64.8 722.4,64.7 724.8,62.6 727.2,62.5 729.7,63.8 732.1,64.5 734.6,63.0 737.0,62.4 739.5,67.3 741.9,62.0 744.3,61.9 746.8,64.5 749.2,60.4
751.7,64.8 754.1,63.6 756.6,64.5 759.0,67.7 761.5,64.1 763.9,67.0 766.3,63.7 768.8,61.7 771.2,62.9 773.7,62.1 776.1,65.9 778.6,65.5 781.0,59.3 783.4,59.0 785.9,62.1 788.3,66.2
790.8,65.6 793.2,65.0 795.7,59.8 798.1,63.8 800.5,64.6 803.0,66.9 805.4,62.8 807.9,65.6 810.3,63.6 812.8,66.7 815.2,63.1 817.6,63.7 820.1,65.4 822.5,56.7 825.0,59.5 827.4,59.6
829.9,59.0 832.3,58.2 834.8,57.9 837.2,59.8 839.6,59.8 842.1,58.7 844.5,58.1 847.0,57.2 849.4,57.2 851.9,58.1 854.3,56.7 856.7,56.2 859.2,55.7 861.6,65.8 864.1,69.8 866.5,67.0
869.0,66.6 871.4,62.2 873.8,60.6 876.3,62.1 878.7,64.8 881.2,58.7 883.6,63.5 886.1,61.3 888.5,65.9 890.9,65.7 893.4,65.3 895.8,63.2 898.3,69.1 900.7,66.6 903.2,65.9 905.6,68.8
908.1,61.9 910.5,67.1 912.9,61.6 915.4,64.1 917.8,63.5 920.3,64.9 922.7,65.0 925.2,64.6 927.6,66.8 930.0,63.1 932.5,64.3 934.9,66.5 937.4,66.3 939.8,64.2 942.3,66.9 944.7,63.7
947.1,63.7 949.6,64.5 952.0,63.5 954.5,67.4 956.9,61.6 959.4,57.5 961.8,64.0 964.2,64.2 966.7,63.0 969.1,62.4 971.6,61.9 974.0,62.4 976.5,62.4 978.9,62.2 981.3,61.1 983.8,61.1
986.2,63.4 988.7,62.4 991.1,65.3 993.6,66.1 996.0,65.6 998.5,62.4 1000.9,63.4 1003.3,60.3 1005.8,65.3 1008.2,60.1 1010.7,59.3 1013.1,61.3 1015.6,61.5 1018.0,61.9 1020.4,62.0 1022.9,60.6
1025.3,59.7 1027.8,63.3 1030.2,62.2 1032.7,62.9 1035.1,66.2 1037.5,65.0 1040.0,61.3 1042.4,64.8 1044.9,64.3 1047.3,62.3 1049.8,64.2 1052.2,61.7 1054.6,61.0 1057.1,60.0 1059.5,58.8 1062.0,61.2
1064.4,61.5 1066.9,62.4 1069.3,62.8 1071.8,61.2 1074.2,54.1 1076.6,57.0 1079.1,59.7 1081.5,60.7 1084.0,63.6 1086.4,64.5 1088.9,64.0 1091.3,62.1 1093.7,64.2 1096.2,68.4 1098.6,66.9 1101.1,59.2
1103.5,64.3 1106.0,65.3 1108.4,62.5 1110.8,60.8 1113.3,64.3 1115.7,66.1 1118.2,65.7 1120.6,61.9 1123.1,64.9 1125.5,63.3 1127.9,68.9 1130.4,61.6 1132.8,62.3 1135.3,67.4 1137.7,62.6 1140.2,62.5
1142.6,64.5 1145.1,62.9 1147.5,61.7 1149.9,66.8 1152.4,62.5 1154.8,64.2 1157.3,60.7 1159.7,59.9 1162.2,61.1 1164.6,58.1 1167.0,59.5 1169.5,58.9 1171.9,59.3 1174.4,61.7 1176.8,61.9 1179.3,63.0
1181.7,59.1 1184.1,61.4 1186.6,63.3 1189.0,63.0 1191.5,60.8 1193.9,60.4 1196.4,68.3 1198.8,64.7 1201.2,63.2 1203.7,66.0 1206.1,65.1 1208.6,60.7 1211.0,67.4 1213.5,63.8 1215.9,66.1 1218.4,63.1
1220.8,61.2 1223.2,61.8 1225.7,62.3 1228.1,62.2 1230.6,62.1 1233.0,63.8 1235.5,63.0 1237.9,63.4 1240.3,66.2 1242.8,66.5 1245.2,64.2 1247.7,65.6 1250.1,62.6 1252.6,70.1 1255.0,65.5 1255.0,703.4
87.1,703.4 '/>
	</g>
</g>
	</g>
	<g id="gnuplot_plot_2" ><title>trendline (m=0.235377,b=-96.275489)</title>
<g fill="none" color="black" stroke="currentColor" stroke-width="1.00" stroke-linecap="butt" stroke-linejoin="miter">
	<g transform="translate(1187.9,94.0)" stroke="none" fill="black" font-family="Arial" font-size="12.00"  text-anchor="end">
		<text><tspan font-family="Arial" >trendline (m=0.235377,b=-96.275489)</tspan></text>
	</g>
</g>
<g fill="none" color="black" stroke="currentColor" stroke-width="1.00" stroke-linecap="butt" stroke-linejoin="miter">
	<path stroke='black'  d='M1196.2,90.1 L1238.4,90.1 M87.1,434.6 L98.9,429.3 L110.7,424.0 L122.5,418.8 L134.3,413.5 L146.1,408.2
		L157.9,403.0 L169.7,397.7 L181.5,392.4 L193.3,387.1 L205.1,381.9 L216.9,376.6 L228.7,371.3 L240.5,366.1
		L252.3,360.8 L264.1,355.5 L275.9,350.3 L287.6,345.0 L299.4,339.7 L311.2,334.5 L323.0,329.2 L334.8,323.9
		L346.6,318.6 L358.4,313.4 L370.2,308.1 L382.0,302.8 L393.8,297.6 L405.6,292.3 L417.4,287.0 L429.2,281.8
		L441.0,276.5 L452.8,271.2 L464.6,266.0 L476.4,260.7 L488.2,255.4 L500.0,250.1 L511.8,244.9 L523.6,239.6
		L535.4,234.3 L547.2,229.1 L559.0,223.8 L570.8,218.5 L582.6,213.3 L594.4,208.0 L606.2,202.7 L618.0,197.5
		L629.8,192.2 L641.6,186.9 L653.4,181.6 L665.2,176.4 L676.9,171.1 L688.7,165.8 L700.5,160.6 L712.3,155.3
		L724.1,150.0 L735.9,144.8 L747.7,139.5 L759.5,134.2 L771.3,129.0 L783.1,123.7 L794.9,118.4 L806.7,113.1
		L818.5,107.9 L830.3,102.6 L842.1,97.3 L853.9,92.1 L865.7,86.8 L877.5,81.5 L889.3,76.3 L901.1,71.0
		L912.9,65.7 L924.7,60.5 L936.5,55.2 L938.9,54.1  '/></g>
	</g>
<g fill="none" color="white" stroke="black" stroke-width="2.00" stroke-linecap="butt" stroke-linejoin="miter">
</g>
<g fill="none" color="black" stroke="currentColor" stroke-width="2.00" stroke-linecap="butt" stroke-linejoin="miter">
</g>
<g fill="none" color="black" stroke="black" stroke-width="1.00" stroke-linecap="butt" stroke-linejoin="miter">
</g>
<g fill="none" color="black" stroke="currentColor" stroke-width="1.00" stroke-linecap="butt" stroke-linejoin="miter">
	<path stroke='black'  d='M87.1,54.1 L87.1,703.4 L1255.0,703.4 L1255.0,54.1 L87.1,54.1 Z  '/></g>
<g fill="none" color="black" stroke="currentColor" stroke-width="1.00" stroke-linecap="butt" stroke-linejoin="miter">
</g>
</g>
</svg>

