<?xml version="1.0" encoding="utf-8"  standalone="no"?>
<svg 
 width="1280" height="720"
 viewBox="0 0 1280 720"
 xmlns="http://www.w3.org/2000/svg"
 xmlns:xlink="http://www.w3.org/1999/xlink"
>

<title>Gnuplot</title>
<desc>Produced by GNUPLOT 5.0 patchlevel 6 </desc>

<g id="gnuplot_canvas">

<rect x="0" y="0" width="1280" height="720" fill="none"/>
<defs>

	<circle id='gpDot' r='0.5' stroke-width='0.5'/>
	<path id='gpPt0' stroke-width='0.222' stroke='currentColor' d='M-1,0 h2 M0,-1 v2'/>
	<path id='gpPt1' stroke-width='0.222' stroke='currentColor' d='M-1,-1 L1,1 M1,-1 L-1,1'/>
	<path id='gpPt2' stroke-width='0.222' stroke='currentColor' d='M-1,0 L1,0 M0,-1 L0,1 M-1,-1 L1,1 M-1,1 L1,-1'/>
	<rect id='gpPt3' stroke-width='0.222' stroke='currentColor' x='-1' y='-1' width='2' height='2'/>
	<rect id='gpPt4' stroke-width='0.222' stroke='currentColor' fill='currentColor' x='-1' y='-1' width='2' height='2'/>
	<circle id='gpPt5' stroke-width='0.222' stroke='currentColor' cx='0' cy='0' r='1'/>
	<use xlink:href='#gpPt5' id='gpPt6' fill='currentColor' stroke='none'/>
	<path id='gpPt7' stroke-width='0.222' stroke='currentColor' d='M0,-1.33 L-1.33,0.67 L1.33,0.67 z'/>
	<use xlink:href='#gpPt7' id='gpPt8' fill='currentColor' stroke='none'/>
	<use xlink:href='#gpPt7' id='gpPt9' stroke='currentColor' transform='rotate(180)'/>
	<use xlink:href='#gpPt9' id='gpPt10' fill='currentColor' stroke='none'/>
	<use xlink:href='#gpPt3' id='gpPt11' stroke='currentColor' transform='rotate(45)'/>
	<use xlink:href='#gpPt11' id='gpPt12' fill='currentColor' stroke='none'/>
	<path id='gpPt13' stroke-width='0.222' stroke='currentColor' d='M0,1.330 L1.265,0.411 L0.782,-1.067 L-0.782,-1.076 L-1.265,0.411 z'/>
	<use xlink:href='#gpPt13' id='gpPt14' fill='currentColor' stroke='none'/>
	<filter id='textbox' filterUnits='objectBoundingBox' x='0' y='0' height='1' width='1'>
	  <feFlood flood-color='white' flood-opacity='1' result='bgnd'/>
	  <feComposite in='SourceGraphic' in2='bgnd' operator='atop'/>
	</filter>
	<filter id='greybox' filterUnits='objectBoundingBox' x='0' y='0' height='1' width='1'>
	  <feFlood flood-color='lightgrey' flood-opacity='1' result='grey'/>
	  <feComposite in='SourceGraphic' in2='grey' operator='atop'/>
	</filter>
</defs>
<g fill="none" color="white" stroke="currentColor" stroke-width="1.00" stroke-linecap="butt" stroke-linejoin="miter">
</g>
<g fill="none" color="black" stroke="currentColor" stroke-width="1.00" stroke-linecap="butt" stroke-linejoin="miter">
	<path stroke='black'  d='M87.1,703.4 L96.1,703.4 M1255.0,703.4 L1246.0,703.4  '/>	<g transform="translate(78.8,707.3)" stroke="none" fill="black" font-family="Arial" font-size="12.00"  text-anchor="end">
		<text><tspan font-family="Arial" > 304.761</tspan></text>
	</g>
</g>
<g fill="none" color="black" stroke="currentColor" stroke-width="1.00" stroke-linecap="butt" stroke-linejoin="miter">
	<path stroke='black'  d='M87.1,386.8 L96.1,386.8 M1255.0,386.8 L1246.0,386.8  '/>	<g transform="translate(78.8,390.7)" stroke="none" fill="black" font-family="Arial" font-size="12.00"  text-anchor="end">
		<text><tspan font-family="Arial" > 305.53</tspan></text>
	</g>
</g>
<g fill="none" color="black" stroke="currentColor" stroke-width="1.00" stroke-linecap="butt" stroke-linejoin="miter">
	<path stroke='black'  d='M87.1,54.1 L96.1,54.1 M1255.0,54.1 L1246.0,54.1  '/>	<g transform="translate(78.8,58.0)" stroke="none" fill="black" font-family="Arial" font-size="12.00"  text-anchor="end">
		<text><tspan font-family="Arial" > 306.338</tspan></text>
	</g>
</g>
<g fill="none" color="black" stroke="currentColor" stroke-width="1.00" stroke-linecap="butt" stroke-linejoin="miter">
</g>
<g fill="none" color="black" stroke="currentColor" stroke-width="1.00" stroke-linecap="butt" stroke-linejoin="miter">
	<path stroke='black'  d='M87.1,54.1 L87.1,703.4 L1255.0,703.4 L1255.0,54.1 L87.1,54.1 Z  '/></g>
<g fill="none" color="black" stroke="currentColor" stroke-width="1.00" stroke-linecap="butt" stroke-linejoin="miter">
	<g transform="translate(671.0,31.0)" stroke="none" fill="black" font-family="Arial" font-size="12.00"  text-anchor="middle">
		<text><tspan font-family="Arial" >Material 42, 2 components</tspan></text>
	</g>
</g>
	<g id="gnuplot_plot_1" ><title>log(likelihood)</title>
<g fill="none" color="black" stroke="currentColor" stroke-width="1.00" stroke-linecap="butt" stroke-linejoin="miter">
	<g transform="translate(1187.9,76.0)" stroke="none" fill="black" font-family="Arial" font-size="12.00"  text-anchor="end">
		<text><tspan font-family="Arial" >log(likelihood)</tspan></text>
	</g>
</g>
<g fill="none" color="black" stroke="currentColor" stroke-width="1.00" stroke-linecap="butt" stroke-linejoin="miter">
	<g stroke='none' shape-rendering='crispEdges'>
		<polygon fill = 'rgb(148,   0, 211)' fill-opacity = '0.100000' points = '1196.2,76.6 1238.4,76.6 1238.4,67.6 1196.2,67.6 '/>
	</g>
	<path stroke='rgb(148,   0, 211)'  d='M1196.2,76.6 L1238.4,76.6 L1238.4,67.6 L1196.2,67.6 L1196.2,76.6 Z  '/></g>
<g fill="none" color="black" stroke="currentColor" stroke-width="1.00" stroke-linecap="butt" stroke-linejoin="miter">
	<g stroke='none' shape-rendering='crispEdges'>
		<polygon fill = 'rgb(148,   0, 211)' fill-opacity = '0.100000' points = '87.1,136.0 96.8,176.8 106.6,249.3 116.3,448.1 126.0,239.4 135.8,493.8 145.5,222.1 155.2,608.7 165.0,549.0 174.7,305.3 184.4,304.8 194.2,367.4 203.9,381.8 213.6,193.3 223.4,210.1 233.1,633.8
242.8,372.8 252.6,307.7 262.3,121.6 272.0,296.6 281.8,414.0 291.5,365.0 301.2,524.7 310.9,222.5 320.7,528.4 330.4,455.9 340.1,474.5 349.9,446.5 359.6,348.5 369.3,155.0 379.1,374.8 388.8,651.1
398.5,353.0 408.3,469.5 418.0,336.1 427.7,609.5 437.5,460.5 447.2,425.5 456.9,354.7 466.7,298.3 476.4,265.7 486.1,449.4 495.9,461.3 505.6,426.3 515.3,376.9 525.1,480.2 534.8,481.9 544.5,370.7
554.3,394.6 564.0,421.8 573.7,467.5 583.5,703.4 593.2,419.7 602.9,481.1 612.7,453.5 622.4,412.3 632.1,241.8 641.9,600.1 651.6,366.6 661.3,279.3 671.1,570.8 680.8,509.1 690.5,102.3 700.2,432.5
710.0,438.7 719.7,422.6 729.4,307.3 739.2,336.1 748.9,442.4 758.6,366.6 768.4,269.8 778.1,66.5 787.8,415.6 797.6,532.9 807.3,506.6 817.0,212.6 826.8,431.7 836.5,423.8 846.2,390.5 856.0,471.6
865.7,307.3 875.4,236.5 885.2,583.6 894.9,360.8 904.6,301.6 914.4,459.7 924.1,480.7 933.8,223.3 943.6,358.8 953.3,280.1 963.0,296.6 972.8,156.2 982.5,503.7 992.2,360.0 1002.0,345.6 1011.7,607.5
1021.4,427.1 1031.2,359.2 1040.9,108.4 1050.6,453.1 1060.4,506.6 1070.1,261.6 1079.8,450.2 1089.5,444.0 1099.3,435.8 1109.0,343.1 1118.7,312.3 1128.5,336.1 1138.2,430.8 1147.9,54.1 1157.7,588.1 1167.4,283.8
1177.1,437.4 1186.9,595.5 1196.6,411.1 1206.3,518.9 1216.1,369.9 1225.8,609.5 1235.5,423.8 1245.3,237.7 1255.0,454.7 1255.0,703.4 87.1,703.4 '/>
	</g>
	<path stroke='rgb(148,   0, 211)'  d='M87.1,136.0 L96.8,176.8 L106.6,249.3 L116.3,448.1 L126.0,239.4 L135.8,493.8 L145.5,222.1 L155.2,608.7
		L165.0,549.0 L174.7,305.3 L184.4,304.8 L194.2,367.4 L203.9,381.8 L213.6,193.3 L223.4,210.1 L233.1,633.8
		L242.8,372.8 L252.6,307.7 L262.3,121.6 L272.0,296.6 L281.8,414.0 L291.5,365.0 L301.2,524.7 L310.9,222.5
		L320.7,528.4 L330.4,455.9 L340.1,474.5 L349.9,446.5 L359.6,348.5 L369.3,155.0 L379.1,374.8 L388.8,651.1
		L398.5,353.0 L408.3,469.5 L418.0,336.1 L427.7,609.5 L437.5,460.5 L447.2,425.5 L456.9,354.7 L466.7,298.3
		L476.4,265.7 L486.1,449.4 L495.9,461.3 L505.6,426.3 L515.3,376.9 L525.1,480.2 L534.8,481.9 L544.5,370.7
		L554.3,394.6 L564.0,421.8 L573.7,467.5 L583.5,703.4 L593.2,419.7 L602.9,481.1 L612.7,453.5 L622.4,412.3
		L632.1,241.8 L641.9,600.1 L651.6,366.6 L661.3,279.3 L671.1,570.8 L680.8,509.1 L690.5,102.3 L700.2,432.5
		L710.0,438.7 L719.7,422.6 L729.4,307.3 L739.2,336.1 L748.9,442.4 L758.6,366.6 L768.4,269.8 L778.1,66.5
		L787.8,415.6 L797.6,532.9 L807.3,506.6 L817.0,212.6 L826.8,431.7 L836.5,423.8 L846.2,390.5 L856.0,471.6
		L865.7,307.3 L875.4,236.5 L885.2,583.6 L894.9,360.8 L904.6,301.6 L914.4,459.7 L924.1,480.7 L933.8,223.3
		L943.6,358.8 L953.3,280.1 L963.0,296.6 L972.8,156.2 L982.5,503.7 L992.2,360.0 L1002.0,345.6 L1011.7,607.5
		L1021.4,427.1 L1031.2,359.2 L1040.9,108.4 L1050.6,453.1 L1060.4,506.6 L1070.1,261.6 L1079.8,450.2 L1089.5,444.0
		L1099.3,435.8 L1109.0,343.1 L1118.7,312.3 L1128.5,336.1 L1138.2,430.8 L1147.9,54.1 L1157.7,588.1 L1167.4,283.8
		L1177.1,437.4 L1186.9,595.5 L1196.6,411.1 L1206.3,518.9 L1216.1,369.9 L1225.8,609.5 L1235.5,423.8 L1245.3,237.7
		L1255.0,454.7  '/></g>
	</g>
	<g id="gnuplot_plot_2" ><title>trendline (m=-0.000616,b=305.566830)</title>
<g fill="none" color="black" stroke="currentColor" stroke-width="1.00" stroke-linecap="butt" stroke-linejoin="miter">
	<g transform="translate(1187.9,94.0)" stroke="none" fill="black" font-family="Arial" font-size="12.00"  text-anchor="end">
		<text><tspan font-family="Arial" >trendline (m=-0.000616,b=305.566830)</tspan></text>
	</g>
</g>
<g fill="none" color="black" stroke="currentColor" stroke-width="1.00" stroke-linecap="butt" stroke-linejoin="miter">
	<path stroke='black'  d='M1196.2,90.1 L1238.4,90.1 M87.1,371.6 L98.9,371.9 L110.7,372.2 L122.5,372.5 L134.3,372.8 L146.1,373.2
		L157.9,373.5 L169.7,373.8 L181.5,374.1 L193.3,374.4 L205.1,374.7 L216.9,375.0 L228.7,375.3 L240.5,375.6
		L252.3,375.9 L264.1,376.2 L275.9,376.5 L287.6,376.8 L299.4,377.1 L311.2,377.5 L323.0,377.8 L334.8,378.1
		L346.6,378.4 L358.4,378.7 L370.2,379.0 L382.0,379.3 L393.8,379.6 L405.6,379.9 L417.4,380.2 L429.2,380.5
		L441.0,380.8 L452.8,381.1 L464.6,381.4 L476.4,381.8 L488.2,382.1 L500.0,382.4 L511.8,382.7 L523.6,383.0
		L535.4,383.3 L547.2,383.6 L559.0,383.9 L570.8,384.2 L582.6,384.5 L594.4,384.8 L606.2,385.1 L618.0,385.4
		L629.8,385.7 L641.6,386.1 L653.4,386.4 L665.2,386.7 L676.9,387.0 L688.7,387.3 L700.5,387.6 L712.3,387.9
		L724.1,388.2 L735.9,388.5 L747.7,388.8 L759.5,389.1 L771.3,389.4 L783.1,389.7 L794.9,390.0 L806.7,390.4
		L818.5,390.7 L830.3,391.0 L842.1,391.3 L853.9,391.6 L865.7,391.9 L877.5,392.2 L889.3,392.5 L901.1,392.8
		L912.9,393.1 L924.7,393.4 L936.5,393.7 L948.3,394.0 L960.1,394.4 L971.9,394.7 L983.7,395.0 L995.5,395.3
		L1007.3,395.6 L1019.1,395.9 L1030.9,396.2 L1042.7,396.5 L1054.5,396.8 L1066.2,397.1 L1078.0,397.4 L1089.8,397.7
		L1101.6,398.0 L1113.4,398.3 L1125.2,398.7 L1137.0,399.0 L1148.8,399.3 L1160.6,399.6 L1172.4,399.9 L1184.2,400.2
		L1196.0,400.5 L1207.8,400.8 L1219.6,401.1 L1231.4,401.4 L1243.2,401.7 L1255.0,402.0  '/></g>
	</g>
<g fill="none" color="white" stroke="black" stroke-width="2.00" stroke-linecap="butt" stroke-linejoin="miter">
</g>
<g fill="none" color="black" stroke="currentColor" stroke-width="2.00" stroke-linecap="butt" stroke-linejoin="miter">
</g>
<g fill="none" color="black" stroke="black" stroke-width="1.00" stroke-linecap="butt" stroke-linejoin="miter">
</g>
<g fill="none" color="black" stroke="currentColor" stroke-width="1.00" stroke-linecap="butt" stroke-linejoin="miter">
	<path stroke='black'  d='M87.1,54.1 L87.1,703.4 L1255.0,703.4 L1255.0,54.1 L87.1,54.1 Z  '/></g>
<g fill="none" color="black" stroke="currentColor" stroke-width="1.00" stroke-linecap="butt" stroke-linejoin="miter">
</g>
</g>
</svg>

