<?xml version="1.0" encoding="utf-8"  standalone="no"?>
<svg 
 width="1280" height="720"
 viewBox="0 0 1280 720"
 xmlns="http://www.w3.org/2000/svg"
 xmlns:xlink="http://www.w3.org/1999/xlink"
>

<title>Gnuplot</title>
<desc>Produced by GNUPLOT 5.0 patchlevel 6 </desc>

<g id="gnuplot_canvas">

<rect x="0" y="0" width="1280" height="720" fill="none"/>
<defs>

	<circle id='gpDot' r='0.5' stroke-width='0.5'/>
	<path id='gpPt0' stroke-width='0.222' stroke='currentColor' d='M-1,0 h2 M0,-1 v2'/>
	<path id='gpPt1' stroke-width='0.222' stroke='currentColor' d='M-1,-1 L1,1 M1,-1 L-1,1'/>
	<path id='gpPt2' stroke-width='0.222' stroke='currentColor' d='M-1,0 L1,0 M0,-1 L0,1 M-1,-1 L1,1 M-1,1 L1,-1'/>
	<rect id='gpPt3' stroke-width='0.222' stroke='currentColor' x='-1' y='-1' width='2' height='2'/>
	<rect id='gpPt4' stroke-width='0.222' stroke='currentColor' fill='currentColor' x='-1' y='-1' width='2' height='2'/>
	<circle id='gpPt5' stroke-width='0.222' stroke='currentColor' cx='0' cy='0' r='1'/>
	<use xlink:href='#gpPt5' id='gpPt6' fill='currentColor' stroke='none'/>
	<path id='gpPt7' stroke-width='0.222' stroke='currentColor' d='M0,-1.33 L-1.33,0.67 L1.33,0.67 z'/>
	<use xlink:href='#gpPt7' id='gpPt8' fill='currentColor' stroke='none'/>
	<use xlink:href='#gpPt7' id='gpPt9' stroke='currentColor' transform='rotate(180)'/>
	<use xlink:href='#gpPt9' id='gpPt10' fill='currentColor' stroke='none'/>
	<use xlink:href='#gpPt3' id='gpPt11' stroke='currentColor' transform='rotate(45)'/>
	<use xlink:href='#gpPt11' id='gpPt12' fill='currentColor' stroke='none'/>
	<path id='gpPt13' stroke-width='0.222' stroke='currentColor' d='M0,1.330 L1.265,0.411 L0.782,-1.067 L-0.782,-1.076 L-1.265,0.411 z'/>
	<use xlink:href='#gpPt13' id='gpPt14' fill='currentColor' stroke='none'/>
	<filter id='textbox' filterUnits='objectBoundingBox' x='0' y='0' height='1' width='1'>
	  <feFlood flood-color='white' flood-opacity='1' result='bgnd'/>
	  <feComposite in='SourceGraphic' in2='bgnd' operator='atop'/>
	</filter>
	<filter id='greybox' filterUnits='objectBoundingBox' x='0' y='0' height='1' width='1'>
	  <feFlood flood-color='lightgrey' flood-opacity='1' result='grey'/>
	  <feComposite in='SourceGraphic' in2='grey' operator='atop'/>
	</filter>
</defs>
<g fill="none" color="white" stroke="currentColor" stroke-width="1.00" stroke-linecap="butt" stroke-linejoin="miter">
</g>
<g fill="none" color="black" stroke="currentColor" stroke-width="1.00" stroke-linecap="butt" stroke-linejoin="miter">
	<path stroke='black'  d='M87.1,703.4 L96.1,703.4 M1255.0,703.4 L1246.0,703.4  '/>	<g transform="translate(78.8,707.3)" stroke="none" fill="black" font-family="Arial" font-size="12.00"  text-anchor="end">
		<text><tspan font-family="Arial" >-116.536</tspan></text>
	</g>
</g>
<g fill="none" color="black" stroke="currentColor" stroke-width="1.00" stroke-linecap="butt" stroke-linejoin="miter">
	<path stroke='black'  d='M87.1,434.6 L96.1,434.6 M1255.0,434.6 L1246.0,434.6  '/>	<g transform="translate(78.8,438.5)" stroke="none" fill="black" font-family="Arial" font-size="12.00"  text-anchor="end">
		<text><tspan font-family="Arial" >-115.982</tspan></text>
	</g>
</g>
<g fill="none" color="black" stroke="currentColor" stroke-width="1.00" stroke-linecap="butt" stroke-linejoin="miter">
	<path stroke='black'  d='M87.1,54.1 L96.1,54.1 M1255.0,54.1 L1246.0,54.1  '/>	<g transform="translate(78.8,58.0)" stroke="none" fill="black" font-family="Arial" font-size="12.00"  text-anchor="end">
		<text><tspan font-family="Arial" >-115.197</tspan></text>
	</g>
</g>
<g fill="none" color="black" stroke="currentColor" stroke-width="1.00" stroke-linecap="butt" stroke-linejoin="miter">
</g>
<g fill="none" color="black" stroke="currentColor" stroke-width="1.00" stroke-linecap="butt" stroke-linejoin="miter">
	<path stroke='black'  d='M87.1,54.1 L87.1,703.4 L1255.0,703.4 L1255.0,54.1 L87.1,54.1 Z  '/></g>
<g fill="none" color="black" stroke="currentColor" stroke-width="1.00" stroke-linecap="butt" stroke-linejoin="miter">
	<g transform="translate(671.0,31.0)" stroke="none" fill="black" font-family="Arial" font-size="12.00"  text-anchor="middle">
		<text><tspan font-family="Arial" >Material 32, 2 components</tspan></text>
	</g>
</g>
	<g id="gnuplot_plot_1" ><title>log(likelihood)</title>
<g fill="none" color="black" stroke="currentColor" stroke-width="1.00" stroke-linecap="butt" stroke-linejoin="miter">
	<g transform="translate(1187.9,76.0)" stroke="none" fill="black" font-family="Arial" font-size="12.00"  text-anchor="end">
		<text><tspan font-family="Arial" >log(likelihood)</tspan></text>
	</g>
</g>
<g fill="none" color="black" stroke="currentColor" stroke-width="1.00" stroke-linecap="butt" stroke-linejoin="miter">
	<g stroke='none' shape-rendering='crispEdges'>
		<polygon fill = 'rgb(148,   0, 211)' fill-opacity = '0.100000' points = '1196.2,76.6 1238.4,76.6 1238.4,67.6 1196.2,67.6 '/>
	</g>
	<path stroke='rgb(148,   0, 211)'  d='M1196.2,76.6 L1238.4,76.6 L1238.4,67.6 L1196.2,67.6 L1196.2,76.6 Z  '/></g>
<g fill="none" color="black" stroke="currentColor" stroke-width="1.00" stroke-linecap="butt" stroke-linejoin="miter">
	<g stroke='none' shape-rendering='crispEdges'>
		<polygon fill = 'rgb(148,   0, 211)' fill-opacity = '0.100000' points = '87.1,107.0 96.8,385.8 106.6,131.7 116.3,432.3 126.0,338.7 135.8,389.2 145.5,639.9 155.2,387.2 165.0,529.8 174.7,684.0 184.4,217.5 194.2,273.8 203.9,470.6 213.6,583.6 223.4,154.5 233.1,369.3
242.8,300.4 252.6,326.6 262.3,289.3 272.0,319.8 281.8,608.8 291.5,511.9 301.2,541.4 310.9,268.4 320.7,54.1 330.4,382.9 340.1,166.1 349.9,612.2 359.6,387.2 369.3,316.9 379.1,373.7 388.8,90.0
398.5,275.2 408.3,395.0 418.0,380.4 427.7,604.0 437.5,412.9 447.2,310.1 456.9,252.4 466.7,434.3 476.4,651.5 486.1,376.6 495.9,457.1 505.6,502.6 515.3,427.5 525.1,478.4 534.8,325.7 544.5,457.1
554.3,521.1 564.0,344.1 573.7,515.3 583.5,561.3 593.2,595.7 602.9,363.0 612.7,200.5 622.4,361.1 632.1,270.9 641.9,406.6 651.6,299.5 661.3,298.0 671.1,492.9 680.8,100.2 690.5,583.1 700.2,370.7
710.0,246.1 719.7,651.0 729.4,579.7 739.2,624.8 748.9,476.0 758.6,440.6 768.4,491.0 778.1,442.5 787.8,477.4 797.6,232.5 807.3,703.4 817.0,223.3 826.8,447.9 836.5,690.8 846.2,335.4 856.0,387.2
865.7,592.8 875.4,542.4 885.2,586.1 894.9,406.6 904.6,454.2 914.4,432.8 924.1,558.9 933.8,513.3 943.6,425.5 953.3,620.5 963.0,663.6 972.8,449.8 982.5,530.3 992.2,381.4 1002.0,342.1 1011.7,492.5
1021.4,509.9 1031.2,365.9 1040.9,598.2 1050.6,496.3 1060.4,639.4 1070.1,695.2 1079.8,273.3 1089.5,464.8 1099.3,612.7 1109.0,305.3 1118.7,514.8 1128.5,290.3 1138.2,426.0 1147.9,509.9 1157.7,573.0 1167.4,387.7
1177.1,589.9 1186.9,431.8 1196.6,580.2 1206.3,557.0 1216.1,494.4 1225.8,492.0 1235.5,472.6 1245.3,663.2 1255.0,530.8 1255.0,703.4 87.1,703.4 '/>
	</g>
	<path stroke='rgb(148,   0, 211)'  d='M87.1,107.0 L96.8,385.8 L106.6,131.7 L116.3,432.3 L126.0,338.7 L135.8,389.2 L145.5,639.9 L155.2,387.2
		L165.0,529.8 L174.7,684.0 L184.4,217.5 L194.2,273.8 L203.9,470.6 L213.6,583.6 L223.4,154.5 L233.1,369.3
		L242.8,300.4 L252.6,326.6 L262.3,289.3 L272.0,319.8 L281.8,608.8 L291.5,511.9 L301.2,541.4 L310.9,268.4
		L320.7,54.1 L330.4,382.9 L340.1,166.1 L349.9,612.2 L359.6,387.2 L369.3,316.9 L379.1,373.7 L388.8,90.0
		L398.5,275.2 L408.3,395.0 L418.0,380.4 L427.7,604.0 L437.5,412.9 L447.2,310.1 L456.9,252.4 L466.7,434.3
		L476.4,651.5 L486.1,376.6 L495.9,457.1 L505.6,502.6 L515.3,427.5 L525.1,478.4 L534.8,325.7 L544.5,457.1
		L554.3,521.1 L564.0,344.1 L573.7,515.3 L583.5,561.3 L593.2,595.7 L602.9,363.0 L612.7,200.5 L622.4,361.1
		L632.1,270.9 L641.9,406.6 L651.6,299.5 L661.3,298.0 L671.1,492.9 L680.8,100.2 L690.5,583.1 L700.2,370.7
		L710.0,246.1 L719.7,651.0 L729.4,579.7 L739.2,624.8 L748.9,476.0 L758.6,440.6 L768.4,491.0 L778.1,442.5
		L787.8,477.4 L797.6,232.5 L807.3,703.4 L817.0,223.3 L826.8,447.9 L836.5,690.8 L846.2,335.4 L856.0,387.2
		L865.7,592.8 L875.4,542.4 L885.2,586.1 L894.9,406.6 L904.6,454.2 L914.4,432.8 L924.1,558.9 L933.8,513.3
		L943.6,425.5 L953.3,620.5 L963.0,663.6 L972.8,449.8 L982.5,530.3 L992.2,381.4 L1002.0,342.1 L1011.7,492.5
		L1021.4,509.9 L1031.2,365.9 L1040.9,598.2 L1050.6,496.3 L1060.4,639.4 L1070.1,695.2 L1079.8,273.3 L1089.5,464.8
		L1099.3,612.7 L1109.0,305.3 L1118.7,514.8 L1128.5,290.3 L1138.2,426.0 L1147.9,509.9 L1157.7,573.0 L1167.4,387.7
		L1177.1,589.9 L1186.9,431.8 L1196.6,580.2 L1206.3,557.0 L1216.1,494.4 L1225.8,492.0 L1235.5,472.6 L1245.3,663.2
		L1255.0,530.8  '/></g>
	</g>
	<g id="gnuplot_plot_2" ><title>trendline (m=-0.002973,b=-115.803286)</title>
<g fill="none" color="black" stroke="currentColor" stroke-width="1.00" stroke-linecap="butt" stroke-linejoin="miter">
	<g transform="translate(1187.9,94.0)" stroke="none" fill="black" font-family="Arial" font-size="12.00"  text-anchor="end">
		<text><tspan font-family="Arial" >trendline (m=-0.002973,b=-115.803286)</tspan></text>
	</g>
</g>
<g fill="none" color="black" stroke="currentColor" stroke-width="1.00" stroke-linecap="butt" stroke-linejoin="miter">
	<path stroke='black'  d='M1196.2,90.1 L1238.4,90.1 M87.1,348.1 L98.9,349.8 L110.7,351.6 L122.5,353.3 L134.3,355.1 L146.1,356.8
		L157.9,358.6 L169.7,360.3 L181.5,362.1 L193.3,363.8 L205.1,365.6 L216.9,367.3 L228.7,369.1 L240.5,370.8
		L252.3,372.6 L264.1,374.3 L275.9,376.1 L287.6,377.8 L299.4,379.6 L311.2,381.3 L323.0,383.0 L334.8,384.8
		L346.6,386.5 L358.4,388.3 L370.2,390.0 L382.0,391.8 L393.8,393.5 L405.6,395.3 L417.4,397.0 L429.2,398.8
		L441.0,400.5 L452.8,402.3 L464.6,404.0 L476.4,405.8 L488.2,407.5 L500.0,409.3 L511.8,411.0 L523.6,412.8
		L535.4,414.5 L547.2,416.3 L559.0,418.0 L570.8,419.7 L582.6,421.5 L594.4,423.2 L606.2,425.0 L618.0,426.7
		L629.8,428.5 L641.6,430.2 L653.4,432.0 L665.2,433.7 L676.9,435.5 L688.7,437.2 L700.5,439.0 L712.3,440.7
		L724.1,442.5 L735.9,444.2 L747.7,446.0 L759.5,447.7 L771.3,449.5 L783.1,451.2 L794.9,453.0 L806.7,454.7
		L818.5,456.4 L830.3,458.2 L842.1,459.9 L853.9,461.7 L865.7,463.4 L877.5,465.2 L889.3,466.9 L901.1,468.7
		L912.9,470.4 L924.7,472.2 L936.5,473.9 L948.3,475.7 L960.1,477.4 L971.9,479.2 L983.7,480.9 L995.5,482.7
		L1007.3,484.4 L1019.1,486.2 L1030.9,487.9 L1042.7,489.6 L1054.5,491.4 L1066.2,493.1 L1078.0,494.9 L1089.8,496.6
		L1101.6,498.4 L1113.4,500.1 L1125.2,501.9 L1137.0,503.6 L1148.8,505.4 L1160.6,507.1 L1172.4,508.9 L1184.2,510.6
		L1196.0,512.4 L1207.8,514.1 L1219.6,515.9 L1231.4,517.6 L1243.2,519.4 L1255.0,521.1  '/></g>
	</g>
<g fill="none" color="white" stroke="black" stroke-width="2.00" stroke-linecap="butt" stroke-linejoin="miter">
</g>
<g fill="none" color="black" stroke="currentColor" stroke-width="2.00" stroke-linecap="butt" stroke-linejoin="miter">
</g>
<g fill="none" color="black" stroke="black" stroke-width="1.00" stroke-linecap="butt" stroke-linejoin="miter">
</g>
<g fill="none" color="black" stroke="currentColor" stroke-width="1.00" stroke-linecap="butt" stroke-linejoin="miter">
	<path stroke='black'  d='M87.1,54.1 L87.1,703.4 L1255.0,703.4 L1255.0,54.1 L87.1,54.1 Z  '/></g>
<g fill="none" color="black" stroke="currentColor" stroke-width="1.00" stroke-linecap="butt" stroke-linejoin="miter">
</g>
</g>
</svg>

