<?xml version="1.0" encoding="utf-8"  standalone="no"?>
<svg 
 width="1280" height="720"
 viewBox="0 0 1280 720"
 xmlns="http://www.w3.org/2000/svg"
 xmlns:xlink="http://www.w3.org/1999/xlink"
>

<title>Gnuplot</title>
<desc>Produced by GNUPLOT 5.2 patchlevel 2 </desc>

<g id="gnuplot_canvas">

<rect x="0" y="0" width="1280" height="720" fill="none"/>
<defs>

	<circle id='gpDot' r='0.5' stroke-width='0.5'/>
	<path id='gpPt0' stroke-width='0.222' stroke='currentColor' d='M-1,0 h2 M0,-1 v2'/>
	<path id='gpPt1' stroke-width='0.222' stroke='currentColor' d='M-1,-1 L1,1 M1,-1 L-1,1'/>
	<path id='gpPt2' stroke-width='0.222' stroke='currentColor' d='M-1,0 L1,0 M0,-1 L0,1 M-1,-1 L1,1 M-1,1 L1,-1'/>
	<rect id='gpPt3' stroke-width='0.222' stroke='currentColor' x='-1' y='-1' width='2' height='2'/>
	<rect id='gpPt4' stroke-width='0.222' stroke='currentColor' fill='currentColor' x='-1' y='-1' width='2' height='2'/>
	<circle id='gpPt5' stroke-width='0.222' stroke='currentColor' cx='0' cy='0' r='1'/>
	<use xlink:href='#gpPt5' id='gpPt6' fill='currentColor' stroke='none'/>
	<path id='gpPt7' stroke-width='0.222' stroke='currentColor' d='M0,-1.33 L-1.33,0.67 L1.33,0.67 z'/>
	<use xlink:href='#gpPt7' id='gpPt8' fill='currentColor' stroke='none'/>
	<use xlink:href='#gpPt7' id='gpPt9' stroke='currentColor' transform='rotate(180)'/>
	<use xlink:href='#gpPt9' id='gpPt10' fill='currentColor' stroke='none'/>
	<use xlink:href='#gpPt3' id='gpPt11' stroke='currentColor' transform='rotate(45)'/>
	<use xlink:href='#gpPt11' id='gpPt12' fill='currentColor' stroke='none'/>
	<path id='gpPt13' stroke-width='0.222' stroke='currentColor' d='M0,1.330 L1.265,0.411 L0.782,-1.067 L-0.782,-1.076 L-1.265,0.411 z'/>
	<use xlink:href='#gpPt13' id='gpPt14' fill='currentColor' stroke='none'/>
	<filter id='textbox' filterUnits='objectBoundingBox' x='0' y='0' height='1' width='1'>
	  <feFlood flood-color='white' flood-opacity='1' result='bgnd'/>
	  <feComposite in='SourceGraphic' in2='bgnd' operator='atop'/>
	</filter>
	<filter id='greybox' filterUnits='objectBoundingBox' x='0' y='0' height='1' width='1'>
	  <feFlood flood-color='lightgrey' flood-opacity='1' result='grey'/>
	  <feComposite in='SourceGraphic' in2='grey' operator='atop'/>
	</filter>
</defs>
<g fill="none" color="white" stroke="currentColor" stroke-width="1.00" stroke-linecap="butt" stroke-linejoin="miter">
</g>
<g fill="none" color="black" stroke="currentColor" stroke-width="1.00" stroke-linecap="butt" stroke-linejoin="miter">
	<path stroke='black'  d='M87.1,703.4 L96.1,703.4 M1255.0,703.4 L1246.0,703.4  '/>	<g transform="translate(78.8,707.3)" stroke="none" fill="black" font-family="Arial" font-size="12.00"  text-anchor="end">
		<text><tspan font-family="Arial" >-118.403</tspan></text>
	</g>
</g>
<g fill="none" color="black" stroke="currentColor" stroke-width="1.00" stroke-linecap="butt" stroke-linejoin="miter">
	<path stroke='black'  d='M87.1,97.9 L96.1,97.9 M1255.0,97.9 L1246.0,97.9  '/>	<g transform="translate(78.8,101.8)" stroke="none" fill="black" font-family="Arial" font-size="12.00"  text-anchor="end">
		<text><tspan font-family="Arial" > 27.9601</tspan></text>
	</g>
</g>
<g fill="none" color="black" stroke="currentColor" stroke-width="1.00" stroke-linecap="butt" stroke-linejoin="miter">
	<path stroke='black'  d='M87.1,54.1 L96.1,54.1 M1255.0,54.1 L1246.0,54.1  '/>	<g transform="translate(78.8,58.0)" stroke="none" fill="black" font-family="Arial" font-size="12.00"  text-anchor="end">
		<text><tspan font-family="Arial" > 38.551</tspan></text>
	</g>
</g>
<g fill="none" color="black" stroke="currentColor" stroke-width="1.00" stroke-linecap="butt" stroke-linejoin="miter">
</g>
<g fill="none" color="black" stroke="currentColor" stroke-width="1.00" stroke-linecap="butt" stroke-linejoin="miter">
	<path stroke='black'  d='M87.1,54.1 L87.1,703.4 L1255.0,703.4 L1255.0,54.1 L87.1,54.1 Z  '/></g>
<g fill="none" color="black" stroke="currentColor" stroke-width="1.00" stroke-linecap="butt" stroke-linejoin="miter">
	<g transform="translate(671.0,31.0)" stroke="none" fill="black" font-family="Arial" font-size="12.00"  text-anchor="middle">
		<text><tspan font-family="Arial" >Material 32, 4 components</tspan></text>
	</g>
</g>
	<g id="gnuplot_plot_1" ><title>log(likelihood)</title>
<g fill="none" color="black" stroke="currentColor" stroke-width="1.00" stroke-linecap="butt" stroke-linejoin="miter">
	<g transform="translate(1187.9,76.0)" stroke="none" fill="black" font-family="Arial" font-size="12.00"  text-anchor="end">
		<text><tspan font-family="Arial" >log(likelihood)</tspan></text>
	</g>
</g>
<g fill="none" color="black" stroke="currentColor" stroke-width="1.00" stroke-linecap="butt" stroke-linejoin="miter">
	<g stroke='none' shape-rendering='crispEdges'>
		<polygon fill = 'rgb(148,   0, 211)' fill-opacity = '0.100000' points = '1196.2,76.6 1238.4,76.6 1238.4,67.6 1196.2,67.6 '/>
	</g>
	<path stroke='rgb(148,   0, 211)'  d='M1196.2,76.6 L1238.4,76.6 L1238.4,67.6 L1196.2,67.6 L1196.2,76.6 Z  '/></g>
<g fill="none" color="black" stroke="currentColor" stroke-width="1.00" stroke-linecap="butt" stroke-linejoin="miter">
	<g stroke='none' shape-rendering='crispEdges'>
		<polygon fill = 'rgb(148,   0, 211)' fill-opacity = '0.100000' points = '87.1,700.5 89.5,696.1 92.0,696.2 94.4,703.4 96.9,701.5 99.3,695.0 101.8,694.4 104.2,692.9 106.6,690.7 109.1,683.1 111.5,691.2 114.0,676.9 116.4,670.5 118.9,665.6 121.3,640.4 123.7,640.6
126.2,637.3 128.6,636.0 131.1,617.8 133.5,600.2 136.0,564.2 138.4,519.8 140.9,508.8 143.3,457.5 145.7,412.2 148.2,377.7 150.6,340.5 153.1,316.4 155.5,308.3 158.0,300.7 160.4,256.1 162.8,224.8
165.3,211.7 167.7,197.7 170.2,190.3 172.6,172.0 175.1,145.2 177.5,128.0 179.9,120.9 182.4,126.5 184.8,131.4 187.3,115.0 189.7,120.5 192.2,107.5 194.6,108.7 197.0,103.7 199.5,92.0 201.9,75.3
204.4,85.6 206.8,85.6 209.3,78.0 211.7,81.5 214.2,83.4 216.6,75.3 219.0,75.9 221.5,64.8 223.9,72.5 226.4,67.4 228.8,70.8 231.3,72.8 233.7,67.6 236.1,64.6 238.6,68.7 241.0,65.0
243.5,67.1 245.9,70.5 248.4,72.0 250.8,67.2 253.2,66.7 255.7,69.5 258.1,70.3 260.6,67.6 263.0,65.4 265.5,66.0 267.9,62.7 270.3,66.4 272.8,64.4 275.2,64.2 277.7,64.2 280.1,63.2
282.6,65.0 285.0,67.0 287.5,65.0 289.9,64.1 292.3,65.1 294.8,63.5 297.2,68.0 299.7,58.8 302.1,60.7 304.6,62.5 307.0,60.2 309.4,66.3 311.9,60.9 314.3,62.8 316.8,63.8 319.2,65.8
321.7,63.4 324.1,62.7 326.5,60.9 329.0,59.2 331.4,62.0 333.9,59.0 336.3,61.1 338.8,61.1 341.2,60.3 343.6,57.8 346.1,56.8 348.5,60.3 351.0,61.8 353.4,64.1 355.9,62.8 358.3,60.0
360.8,62.2 363.2,61.4 365.6,59.4 368.1,60.8 370.5,60.5 373.0,63.9 375.4,61.8 377.9,61.7 380.3,62.3 382.7,56.5 385.2,57.6 387.6,63.8 390.1,59.0 392.5,61.1 395.0,62.8 397.4,62.0
399.8,62.0 402.3,58.9 404.7,59.3 407.2,59.4 409.6,62.7 412.1,59.4 414.5,61.3 416.9,65.9 419.4,62.3 421.8,63.0 424.3,64.0 426.7,60.0 429.2,61.6 431.6,64.7 434.0,64.8 436.5,61.1
438.9,60.2 441.4,60.9 443.8,65.0 446.3,59.1 448.7,62.3 451.2,63.4 453.6,60.1 456.0,59.6 458.5,65.3 460.9,61.7 463.4,62.3 465.8,63.9 468.3,59.3 470.7,65.6 473.1,64.0 475.6,62.1
478.0,62.4 480.5,61.3 482.9,62.5 485.4,61.1 487.8,65.0 490.2,65.1 492.7,62.4 495.1,64.3 497.6,60.5 500.0,62.7 502.5,62.4 504.9,61.9 507.3,60.9 509.8,61.2 512.2,64.6 514.7,65.1
517.1,64.7 519.6,62.5 522.0,61.8 524.5,62.5 526.9,61.8 529.3,62.4 531.8,63.5 534.2,66.7 536.7,62.4 539.1,64.3 541.6,62.0 544.0,63.7 546.4,61.3 548.9,60.5 551.3,60.9 553.8,61.5
556.2,58.8 558.7,63.3 561.1,65.3 563.5,62.1 566.0,61.1 568.4,62.0 570.9,56.9 573.3,60.7 575.8,61.9 578.2,61.5 580.6,62.3 583.1,61.8 585.5,60.9 588.0,60.0 590.4,60.0 592.9,60.9
595.3,57.3 597.8,57.9 600.2,58.1 602.6,58.1 605.1,59.2 607.5,65.1 610.0,59.9 612.4,57.8 614.9,58.5 617.3,59.2 619.7,57.6 622.2,58.3 624.6,58.3 627.1,60.9 629.5,63.2 632.0,64.8
634.4,64.8 636.8,61.8 639.3,59.5 641.7,62.0 644.2,59.5 646.6,57.6 649.1,57.2 651.5,57.6 653.9,57.4 656.4,59.5 658.8,60.8 661.3,63.8 663.7,64.3 666.2,61.3 668.6,64.7 671.1,64.3
673.5,64.1 675.9,60.1 678.4,62.1 680.8,64.8 683.3,56.4 685.7,57.2 688.2,64.8 690.6,57.4 693.0,62.6 695.5,62.7 697.9,59.5 700.4,61.0 702.8,61.3 705.3,64.0 707.7,61.2 710.1,59.9
712.6,58.3 715.0,58.5 717.5,62.9 719.9,61.7 722.4,59.0 724.8,60.5 727.2,61.7 729.7,63.1 732.1,60.8 734.6,62.0 737.0,63.1 739.5,64.2 741.9,65.6 744.3,62.6 746.8,60.2 749.2,66.1
751.7,61.9 754.1,65.5 756.6,58.6 759.0,67.3 761.5,56.7 763.9,60.5 766.3,57.2 768.8,58.5 771.2,54.8 773.7,63.4 776.1,63.1 778.6,58.0 781.0,59.5 783.4,59.0 785.9,61.4 788.3,56.7
790.8,60.1 793.2,55.5 795.7,61.4 798.1,62.8 800.5,62.2 803.0,61.9 805.4,61.4 807.9,61.6 810.3,61.4 812.8,64.7 815.2,63.6 817.6,63.3 820.1,65.9 822.5,61.7 825.0,65.0 827.4,62.2
829.9,59.9 832.3,60.3 834.8,54.1 837.2,58.9 839.6,61.0 842.1,62.2 844.5,57.8 847.0,62.1 849.4,58.8 851.9,61.1 854.3,64.8 856.7,60.0 859.2,62.4 861.6,64.0 864.1,64.4 866.5,68.1
869.0,64.4 871.4,61.4 873.8,63.7 876.3,59.8 878.7,55.8 881.2,58.8 883.6,59.2 886.1,60.0 888.5,59.6 890.9,62.0 893.4,64.8 895.8,60.9 898.3,59.7 900.7,62.9 903.2,60.1 905.6,58.8
908.1,60.9 910.5,60.3 912.9,60.7 915.4,58.9 917.8,61.4 920.3,60.0 922.7,61.6 925.2,63.2 927.6,58.5 930.0,63.5 932.5,61.5 934.9,59.8 937.4,57.6 939.8,59.3 942.3,56.0 944.7,58.9
947.1,58.9 949.6,60.4 952.0,62.3 954.5,59.5 956.9,58.9 959.4,63.4 961.8,61.8 964.2,60.7 966.7,59.3 969.1,61.0 971.6,59.6 974.0,57.3 976.5,57.5 978.9,64.0 981.3,63.7 983.8,62.0
986.2,61.1 988.7,56.4 991.1,62.7 993.6,58.8 996.0,65.3 998.5,63.6 1000.9,63.6 1003.3,66.8 1005.8,62.6 1008.2,66.6 1010.7,57.7 1013.1,60.5 1015.6,60.0 1018.0,58.2 1020.4,58.2 1022.9,62.0
1025.3,63.4 1027.8,62.4 1030.2,63.9 1032.7,61.3 1035.1,59.0 1037.5,59.0 1040.0,60.8 1042.4,61.4 1044.9,60.7 1047.3,62.1 1049.8,62.1 1052.2,57.5 1054.6,64.5 1057.1,62.3 1059.5,63.6 1062.0,62.5
1064.4,62.5 1066.9,63.6 1069.3,65.5 1071.8,62.3 1074.2,58.4 1076.6,63.8 1079.1,60.8 1081.5,65.2 1084.0,66.2 1086.4,61.8 1088.9,63.0 1091.3,64.8 1093.7,59.3 1096.2,62.4 1098.6,63.4 1101.1,60.3
1103.5,61.7 1106.0,61.5 1108.4,58.0 1110.8,60.7 1113.3,58.0 1115.7,62.4 1118.2,60.5 1120.6,60.9 1123.1,60.9 1125.5,60.1 1127.9,61.7 1130.4,60.6 1132.8,59.1 1135.3,59.4 1137.7,55.3 1140.2,60.0
1142.6,60.2 1145.1,62.5 1147.5,65.0 1149.9,62.2 1152.4,61.6 1154.8,58.8 1157.3,63.1 1159.7,62.1 1162.2,61.7 1164.6,61.3 1167.0,61.5 1169.5,60.3 1171.9,57.9 1174.4,58.6 1176.8,57.4 1179.3,57.0
1181.7,65.0 1184.1,63.0 1186.6,62.9 1189.0,59.9 1191.5,61.6 1193.9,61.6 1196.4,62.8 1198.8,61.6 1201.2,61.2 1203.7,61.2 1206.1,59.3 1208.6,61.9 1211.0,59.4 1213.5,58.8 1215.9,57.3 1218.4,59.2
1220.8,59.2 1223.2,62.0 1225.7,62.0 1228.1,57.0 1230.6,61.8 1233.0,60.1 1235.5,59.4 1237.9,61.8 1240.3,66.1 1242.8,59.2 1245.2,64.7 1247.7,64.6 1250.1,62.3 1252.6,64.8 1255.0,60.9 1255.0,703.4
87.1,703.4 '/>
	</g>
</g>
	</g>
	<g id="gnuplot_plot_2" ><title>trendline (m=0.103720,b=3.171108)</title>
<g fill="none" color="black" stroke="currentColor" stroke-width="1.00" stroke-linecap="butt" stroke-linejoin="miter">
	<g transform="translate(1187.9,94.0)" stroke="none" fill="black" font-family="Arial" font-size="12.00"  text-anchor="end">
		<text><tspan font-family="Arial" >trendline (m=0.103720,b=3.171108)</tspan></text>
	</g>
</g>
<g fill="none" color="black" stroke="currentColor" stroke-width="1.00" stroke-linecap="butt" stroke-linejoin="miter">
	<path stroke='black'  d='M1196.2,90.1 L1238.4,90.1 M87.1,200.5 L98.9,198.4 L110.7,196.3 L122.5,194.2 L134.3,192.2 L146.1,190.1
		L157.9,188.0 L169.7,186.0 L181.5,183.9 L193.3,181.8 L205.1,179.7 L216.9,177.7 L228.7,175.6 L240.5,173.5
		L252.3,171.5 L264.1,169.4 L275.9,167.3 L287.6,165.2 L299.4,163.2 L311.2,161.1 L323.0,159.0 L334.8,157.0
		L346.6,154.9 L358.4,152.8 L370.2,150.7 L382.0,148.7 L393.8,146.6 L405.6,144.5 L417.4,142.5 L429.2,140.4
		L441.0,138.3 L452.8,136.2 L464.6,134.2 L476.4,132.1 L488.2,130.0 L500.0,128.0 L511.8,125.9 L523.6,123.8
		L535.4,121.7 L547.2,119.7 L559.0,117.6 L570.8,115.5 L582.6,113.5 L594.4,111.4 L606.2,109.3 L618.0,107.2
		L629.8,105.2 L641.6,103.1 L653.4,101.0 L665.2,98.9 L676.9,96.9 L688.7,94.8 L700.5,92.7 L712.3,90.7
		L724.1,88.6 L735.9,86.5 L747.7,84.4 L759.5,82.4 L771.3,80.3 L783.1,78.2 L794.9,76.2 L806.7,74.1
		L818.5,72.0 L830.3,69.9 L842.1,67.9 L853.9,65.8 L865.7,63.7 L877.5,61.7 L889.3,59.6 L901.1,57.5
		L912.9,55.4 L920.5,54.1  '/></g>
	</g>
<g fill="none" color="white" stroke="black" stroke-width="2.00" stroke-linecap="butt" stroke-linejoin="miter">
</g>
<g fill="none" color="black" stroke="currentColor" stroke-width="2.00" stroke-linecap="butt" stroke-linejoin="miter">
</g>
<g fill="none" color="black" stroke="black" stroke-width="1.00" stroke-linecap="butt" stroke-linejoin="miter">
</g>
<g fill="none" color="black" stroke="currentColor" stroke-width="1.00" stroke-linecap="butt" stroke-linejoin="miter">
	<path stroke='black'  d='M87.1,54.1 L87.1,703.4 L1255.0,703.4 L1255.0,54.1 L87.1,54.1 Z  '/></g>
<g fill="none" color="black" stroke="currentColor" stroke-width="1.00" stroke-linecap="butt" stroke-linejoin="miter">
</g>
</g>
</svg>

