<?xml version="1.0" encoding="utf-8"  standalone="no"?>
<svg 
 width="1280" height="720"
 viewBox="0 0 1280 720"
 xmlns="http://www.w3.org/2000/svg"
 xmlns:xlink="http://www.w3.org/1999/xlink"
>

<title>Gnuplot</title>
<desc>Produced by GNUPLOT 5.0 patchlevel 6 </desc>

<g id="gnuplot_canvas">

<rect x="0" y="0" width="1280" height="720" fill="none"/>
<defs>

	<circle id='gpDot' r='0.5' stroke-width='0.5'/>
	<path id='gpPt0' stroke-width='0.222' stroke='currentColor' d='M-1,0 h2 M0,-1 v2'/>
	<path id='gpPt1' stroke-width='0.222' stroke='currentColor' d='M-1,-1 L1,1 M1,-1 L-1,1'/>
	<path id='gpPt2' stroke-width='0.222' stroke='currentColor' d='M-1,0 L1,0 M0,-1 L0,1 M-1,-1 L1,1 M-1,1 L1,-1'/>
	<rect id='gpPt3' stroke-width='0.222' stroke='currentColor' x='-1' y='-1' width='2' height='2'/>
	<rect id='gpPt4' stroke-width='0.222' stroke='currentColor' fill='currentColor' x='-1' y='-1' width='2' height='2'/>
	<circle id='gpPt5' stroke-width='0.222' stroke='currentColor' cx='0' cy='0' r='1'/>
	<use xlink:href='#gpPt5' id='gpPt6' fill='currentColor' stroke='none'/>
	<path id='gpPt7' stroke-width='0.222' stroke='currentColor' d='M0,-1.33 L-1.33,0.67 L1.33,0.67 z'/>
	<use xlink:href='#gpPt7' id='gpPt8' fill='currentColor' stroke='none'/>
	<use xlink:href='#gpPt7' id='gpPt9' stroke='currentColor' transform='rotate(180)'/>
	<use xlink:href='#gpPt9' id='gpPt10' fill='currentColor' stroke='none'/>
	<use xlink:href='#gpPt3' id='gpPt11' stroke='currentColor' transform='rotate(45)'/>
	<use xlink:href='#gpPt11' id='gpPt12' fill='currentColor' stroke='none'/>
	<path id='gpPt13' stroke-width='0.222' stroke='currentColor' d='M0,1.330 L1.265,0.411 L0.782,-1.067 L-0.782,-1.076 L-1.265,0.411 z'/>
	<use xlink:href='#gpPt13' id='gpPt14' fill='currentColor' stroke='none'/>
	<filter id='textbox' filterUnits='objectBoundingBox' x='0' y='0' height='1' width='1'>
	  <feFlood flood-color='white' flood-opacity='1' result='bgnd'/>
	  <feComposite in='SourceGraphic' in2='bgnd' operator='atop'/>
	</filter>
	<filter id='greybox' filterUnits='objectBoundingBox' x='0' y='0' height='1' width='1'>
	  <feFlood flood-color='lightgrey' flood-opacity='1' result='grey'/>
	  <feComposite in='SourceGraphic' in2='grey' operator='atop'/>
	</filter>
</defs>
<g fill="none" color="white" stroke="currentColor" stroke-width="1.00" stroke-linecap="butt" stroke-linejoin="miter">
</g>
<g fill="none" color="black" stroke="currentColor" stroke-width="1.00" stroke-linecap="butt" stroke-linejoin="miter">
	<path stroke='black'  d='M87.1,703.4 L96.1,703.4 M1255.0,703.4 L1246.0,703.4  '/>	<g transform="translate(78.8,707.3)" stroke="none" fill="black" font-family="Arial" font-size="12.00"  text-anchor="end">
		<text><tspan font-family="Arial" > 178.893</tspan></text>
	</g>
</g>
<g fill="none" color="black" stroke="currentColor" stroke-width="1.00" stroke-linecap="butt" stroke-linejoin="miter">
	<path stroke='black'  d='M87.1,407.3 L96.1,407.3 M1255.0,407.3 L1246.0,407.3  '/>	<g transform="translate(78.8,411.2)" stroke="none" fill="black" font-family="Arial" font-size="12.00"  text-anchor="end">
		<text><tspan font-family="Arial" > 179.658</tspan></text>
	</g>
</g>
<g fill="none" color="black" stroke="currentColor" stroke-width="1.00" stroke-linecap="butt" stroke-linejoin="miter">
	<path stroke='black'  d='M87.1,54.1 L96.1,54.1 M1255.0,54.1 L1246.0,54.1  '/>	<g transform="translate(78.8,58.0)" stroke="none" fill="black" font-family="Arial" font-size="12.00"  text-anchor="end">
		<text><tspan font-family="Arial" > 180.57</tspan></text>
	</g>
</g>
<g fill="none" color="black" stroke="currentColor" stroke-width="1.00" stroke-linecap="butt" stroke-linejoin="miter">
</g>
<g fill="none" color="black" stroke="currentColor" stroke-width="1.00" stroke-linecap="butt" stroke-linejoin="miter">
	<path stroke='black'  d='M87.1,54.1 L87.1,703.4 L1255.0,703.4 L1255.0,54.1 L87.1,54.1 Z  '/></g>
<g fill="none" color="black" stroke="currentColor" stroke-width="1.00" stroke-linecap="butt" stroke-linejoin="miter">
	<g transform="translate(671.0,31.0)" stroke="none" fill="black" font-family="Arial" font-size="12.00"  text-anchor="middle">
		<text><tspan font-family="Arial" >Material 47, 2 components</tspan></text>
	</g>
</g>
	<g id="gnuplot_plot_1" ><title>log(likelihood)</title>
<g fill="none" color="black" stroke="currentColor" stroke-width="1.00" stroke-linecap="butt" stroke-linejoin="miter">
	<g transform="translate(1187.9,76.0)" stroke="none" fill="black" font-family="Arial" font-size="12.00"  text-anchor="end">
		<text><tspan font-family="Arial" >log(likelihood)</tspan></text>
	</g>
</g>
<g fill="none" color="black" stroke="currentColor" stroke-width="1.00" stroke-linecap="butt" stroke-linejoin="miter">
	<g stroke='none' shape-rendering='crispEdges'>
		<polygon fill = 'rgb(148,   0, 211)' fill-opacity = '0.100000' points = '1196.2,76.6 1238.4,76.6 1238.4,67.6 1196.2,67.6 '/>
	</g>
	<path stroke='rgb(148,   0, 211)'  d='M1196.2,76.6 L1238.4,76.6 L1238.4,67.6 L1196.2,67.6 L1196.2,76.6 Z  '/></g>
<g fill="none" color="black" stroke="currentColor" stroke-width="1.00" stroke-linecap="butt" stroke-linejoin="miter">
	<g stroke='none' shape-rendering='crispEdges'>
		<polygon fill = 'rgb(148,   0, 211)' fill-opacity = '0.100000' points = '87.1,54.1 96.8,127.7 106.6,407.2 116.3,269.0 126.0,395.2 135.8,325.1 145.5,386.3 155.2,628.7 165.0,579.1 174.7,208.2 184.4,426.2 194.2,454.8 203.9,602.0 213.6,477.7 223.4,72.7 233.1,529.2
242.8,307.7 252.6,578.7 262.3,332.5 272.0,329.4 281.8,246.9 291.5,440.5 301.2,423.1 310.9,326.3 320.7,540.4 330.4,121.9 340.1,382.0 349.9,270.9 359.6,145.5 369.3,502.5 379.1,89.3 388.8,559.4
398.5,449.0 408.3,262.8 418.0,368.9 427.7,299.6 437.5,497.0 447.2,653.5 456.9,377.8 466.7,304.2 476.4,332.9 486.1,559.0 495.9,527.2 505.6,358.0 515.3,435.5 525.1,587.2 534.8,475.4 544.5,379.3
554.3,328.6 564.0,591.9 573.7,400.6 583.5,671.3 593.2,639.5 602.9,272.1 612.7,378.6 622.4,507.1 632.1,323.6 641.9,464.1 651.6,479.2 661.3,401.0 671.1,389.4 680.8,268.6 690.5,538.5 700.2,324.0
710.0,458.3 719.7,383.2 729.4,401.4 739.2,518.3 748.9,528.4 758.6,124.2 768.4,418.8 778.1,325.5 787.8,433.5 797.6,393.3 807.3,428.9 817.0,226.4 826.8,425.4 836.5,472.3 846.2,319.7 856.0,377.8
865.7,513.3 875.4,308.5 885.2,511.7 894.9,174.9 904.6,358.4 914.4,402.6 924.1,382.4 933.8,352.2 943.6,479.6 953.3,478.4 963.0,407.2 972.8,488.5 982.5,703.4 992.2,456.0 1002.0,574.1 1011.7,287.2
1021.4,451.7 1031.2,497.4 1040.9,305.4 1050.6,410.7 1060.4,589.6 1070.1,423.5 1079.8,657.7 1089.5,418.0 1099.3,197.7 1109.0,437.4 1118.7,361.5 1128.5,273.2 1138.2,416.1 1147.9,389.4 1157.7,201.2 1167.4,632.2
1177.1,512.1 1186.9,452.1 1196.6,485.8 1206.3,405.3 1216.1,506.3 1225.8,531.9 1235.5,388.6 1245.3,408.8 1255.0,433.5 1255.0,703.4 87.1,703.4 '/>
	</g>
	<path stroke='rgb(148,   0, 211)'  d='M87.1,54.1 L96.8,127.7 L106.6,407.2 L116.3,269.0 L126.0,395.2 L135.8,325.1 L145.5,386.3 L155.2,628.7
		L165.0,579.1 L174.7,208.2 L184.4,426.2 L194.2,454.8 L203.9,602.0 L213.6,477.7 L223.4,72.7 L233.1,529.2
		L242.8,307.7 L252.6,578.7 L262.3,332.5 L272.0,329.4 L281.8,246.9 L291.5,440.5 L301.2,423.1 L310.9,326.3
		L320.7,540.4 L330.4,121.9 L340.1,382.0 L349.9,270.9 L359.6,145.5 L369.3,502.5 L379.1,89.3 L388.8,559.4
		L398.5,449.0 L408.3,262.8 L418.0,368.9 L427.7,299.6 L437.5,497.0 L447.2,653.5 L456.9,377.8 L466.7,304.2
		L476.4,332.9 L486.1,559.0 L495.9,527.2 L505.6,358.0 L515.3,435.5 L525.1,587.2 L534.8,475.4 L544.5,379.3
		L554.3,328.6 L564.0,591.9 L573.7,400.6 L583.5,671.3 L593.2,639.5 L602.9,272.1 L612.7,378.6 L622.4,507.1
		L632.1,323.6 L641.9,464.1 L651.6,479.2 L661.3,401.0 L671.1,389.4 L680.8,268.6 L690.5,538.5 L700.2,324.0
		L710.0,458.3 L719.7,383.2 L729.4,401.4 L739.2,518.3 L748.9,528.4 L758.6,124.2 L768.4,418.8 L778.1,325.5
		L787.8,433.5 L797.6,393.3 L807.3,428.9 L817.0,226.4 L826.8,425.4 L836.5,472.3 L846.2,319.7 L856.0,377.8
		L865.7,513.3 L875.4,308.5 L885.2,511.7 L894.9,174.9 L904.6,358.4 L914.4,402.6 L924.1,382.4 L933.8,352.2
		L943.6,479.6 L953.3,478.4 L963.0,407.2 L972.8,488.5 L982.5,703.4 L992.2,456.0 L1002.0,574.1 L1011.7,287.2
		L1021.4,451.7 L1031.2,497.4 L1040.9,305.4 L1050.6,410.7 L1060.4,589.6 L1070.1,423.5 L1079.8,657.7 L1089.5,418.0
		L1099.3,197.7 L1109.0,437.4 L1118.7,361.5 L1128.5,273.2 L1138.2,416.1 L1147.9,389.4 L1157.7,201.2 L1167.4,632.2
		L1177.1,512.1 L1186.9,452.1 L1196.6,485.8 L1206.3,405.3 L1216.1,506.3 L1225.8,531.9 L1235.5,388.6 L1245.3,408.8
		L1255.0,433.5  '/></g>
	</g>
	<g id="gnuplot_plot_2" ><title>trendline (m=-0.001671,b=179.757955)</title>
<g fill="none" color="black" stroke="currentColor" stroke-width="1.00" stroke-linecap="butt" stroke-linejoin="miter">
	<g transform="translate(1187.9,94.0)" stroke="none" fill="black" font-family="Arial" font-size="12.00"  text-anchor="end">
		<text><tspan font-family="Arial" >trendline (m=-0.001671,b=179.757955)</tspan></text>
	</g>
</g>
<g fill="none" color="black" stroke="currentColor" stroke-width="1.00" stroke-linecap="butt" stroke-linejoin="miter">
	<path stroke='black'  d='M1196.2,90.1 L1238.4,90.1 M87.1,368.5 L98.9,369.3 L110.7,370.1 L122.5,370.9 L134.3,371.6 L146.1,372.4
		L157.9,373.2 L169.7,374.0 L181.5,374.8 L193.3,375.6 L205.1,376.3 L216.9,377.1 L228.7,377.9 L240.5,378.7
		L252.3,379.5 L264.1,380.3 L275.9,381.1 L287.6,381.8 L299.4,382.6 L311.2,383.4 L323.0,384.2 L334.8,385.0
		L346.6,385.8 L358.4,386.5 L370.2,387.3 L382.0,388.1 L393.8,388.9 L405.6,389.7 L417.4,390.5 L429.2,391.2
		L441.0,392.0 L452.8,392.8 L464.6,393.6 L476.4,394.4 L488.2,395.2 L500.0,396.0 L511.8,396.7 L523.6,397.5
		L535.4,398.3 L547.2,399.1 L559.0,399.9 L570.8,400.7 L582.6,401.4 L594.4,402.2 L606.2,403.0 L618.0,403.8
		L629.8,404.6 L641.6,405.4 L653.4,406.1 L665.2,406.9 L676.9,407.7 L688.7,408.5 L700.5,409.3 L712.3,410.1
		L724.1,410.9 L735.9,411.6 L747.7,412.4 L759.5,413.2 L771.3,414.0 L783.1,414.8 L794.9,415.6 L806.7,416.3
		L818.5,417.1 L830.3,417.9 L842.1,418.7 L853.9,419.5 L865.7,420.3 L877.5,421.0 L889.3,421.8 L901.1,422.6
		L912.9,423.4 L924.7,424.2 L936.5,425.0 L948.3,425.8 L960.1,426.5 L971.9,427.3 L983.7,428.1 L995.5,428.9
		L1007.3,429.7 L1019.1,430.5 L1030.9,431.2 L1042.7,432.0 L1054.5,432.8 L1066.2,433.6 L1078.0,434.4 L1089.8,435.2
		L1101.6,436.0 L1113.4,436.7 L1125.2,437.5 L1137.0,438.3 L1148.8,439.1 L1160.6,439.9 L1172.4,440.7 L1184.2,441.4
		L1196.0,442.2 L1207.8,443.0 L1219.6,443.8 L1231.4,444.6 L1243.2,445.4 L1255.0,446.1  '/></g>
	</g>
<g fill="none" color="white" stroke="black" stroke-width="2.00" stroke-linecap="butt" stroke-linejoin="miter">
</g>
<g fill="none" color="black" stroke="currentColor" stroke-width="2.00" stroke-linecap="butt" stroke-linejoin="miter">
</g>
<g fill="none" color="black" stroke="black" stroke-width="1.00" stroke-linecap="butt" stroke-linejoin="miter">
</g>
<g fill="none" color="black" stroke="currentColor" stroke-width="1.00" stroke-linecap="butt" stroke-linejoin="miter">
	<path stroke='black'  d='M87.1,54.1 L87.1,703.4 L1255.0,703.4 L1255.0,54.1 L87.1,54.1 Z  '/></g>
<g fill="none" color="black" stroke="currentColor" stroke-width="1.00" stroke-linecap="butt" stroke-linejoin="miter">
</g>
</g>
</svg>

