<?xml version="1.0" encoding="utf-8"  standalone="no"?>
<svg 
 width="1280" height="720"
 viewBox="0 0 1280 720"
 xmlns="http://www.w3.org/2000/svg"
 xmlns:xlink="http://www.w3.org/1999/xlink"
>

<title>Gnuplot</title>
<desc>Produced by GNUPLOT 5.0 patchlevel 6 </desc>

<g id="gnuplot_canvas">

<rect x="0" y="0" width="1280" height="720" fill="none"/>
<defs>

	<circle id='gpDot' r='0.5' stroke-width='0.5'/>
	<path id='gpPt0' stroke-width='0.222' stroke='currentColor' d='M-1,0 h2 M0,-1 v2'/>
	<path id='gpPt1' stroke-width='0.222' stroke='currentColor' d='M-1,-1 L1,1 M1,-1 L-1,1'/>
	<path id='gpPt2' stroke-width='0.222' stroke='currentColor' d='M-1,0 L1,0 M0,-1 L0,1 M-1,-1 L1,1 M-1,1 L1,-1'/>
	<rect id='gpPt3' stroke-width='0.222' stroke='currentColor' x='-1' y='-1' width='2' height='2'/>
	<rect id='gpPt4' stroke-width='0.222' stroke='currentColor' fill='currentColor' x='-1' y='-1' width='2' height='2'/>
	<circle id='gpPt5' stroke-width='0.222' stroke='currentColor' cx='0' cy='0' r='1'/>
	<use xlink:href='#gpPt5' id='gpPt6' fill='currentColor' stroke='none'/>
	<path id='gpPt7' stroke-width='0.222' stroke='currentColor' d='M0,-1.33 L-1.33,0.67 L1.33,0.67 z'/>
	<use xlink:href='#gpPt7' id='gpPt8' fill='currentColor' stroke='none'/>
	<use xlink:href='#gpPt7' id='gpPt9' stroke='currentColor' transform='rotate(180)'/>
	<use xlink:href='#gpPt9' id='gpPt10' fill='currentColor' stroke='none'/>
	<use xlink:href='#gpPt3' id='gpPt11' stroke='currentColor' transform='rotate(45)'/>
	<use xlink:href='#gpPt11' id='gpPt12' fill='currentColor' stroke='none'/>
	<path id='gpPt13' stroke-width='0.222' stroke='currentColor' d='M0,1.330 L1.265,0.411 L0.782,-1.067 L-0.782,-1.076 L-1.265,0.411 z'/>
	<use xlink:href='#gpPt13' id='gpPt14' fill='currentColor' stroke='none'/>
	<filter id='textbox' filterUnits='objectBoundingBox' x='0' y='0' height='1' width='1'>
	  <feFlood flood-color='white' flood-opacity='1' result='bgnd'/>
	  <feComposite in='SourceGraphic' in2='bgnd' operator='atop'/>
	</filter>
	<filter id='greybox' filterUnits='objectBoundingBox' x='0' y='0' height='1' width='1'>
	  <feFlood flood-color='lightgrey' flood-opacity='1' result='grey'/>
	  <feComposite in='SourceGraphic' in2='grey' operator='atop'/>
	</filter>
</defs>
<g fill="none" color="white" stroke="currentColor" stroke-width="1.00" stroke-linecap="butt" stroke-linejoin="miter">
</g>
<g fill="none" color="black" stroke="currentColor" stroke-width="1.00" stroke-linecap="butt" stroke-linejoin="miter">
	<path stroke='black'  d='M87.1,703.4 L96.1,703.4 M1255.0,703.4 L1246.0,703.4  '/>	<g transform="translate(78.8,707.3)" stroke="none" fill="black" font-family="Arial" font-size="12.00"  text-anchor="end">
		<text><tspan font-family="Arial" > 951.027</tspan></text>
	</g>
</g>
<g fill="none" color="black" stroke="currentColor" stroke-width="1.00" stroke-linecap="butt" stroke-linejoin="miter">
	<path stroke='black'  d='M87.1,97.7 L96.1,97.7 M1255.0,97.7 L1246.0,97.7  '/>	<g transform="translate(78.8,101.6)" stroke="none" fill="black" font-family="Arial" font-size="12.00"  text-anchor="end">
		<text><tspan font-family="Arial" > 1265.39</tspan></text>
	</g>
</g>
<g fill="none" color="black" stroke="currentColor" stroke-width="1.00" stroke-linecap="butt" stroke-linejoin="miter">
	<path stroke='black'  d='M87.1,54.1 L96.1,54.1 M1255.0,54.1 L1246.0,54.1  '/>	<g transform="translate(78.8,58.0)" stroke="none" fill="black" font-family="Arial" font-size="12.00"  text-anchor="end">
		<text><tspan font-family="Arial" > 1288.03</tspan></text>
	</g>
</g>
<g fill="none" color="black" stroke="currentColor" stroke-width="1.00" stroke-linecap="butt" stroke-linejoin="miter">
</g>
<g fill="none" color="black" stroke="currentColor" stroke-width="1.00" stroke-linecap="butt" stroke-linejoin="miter">
	<path stroke='black'  d='M87.1,54.1 L87.1,703.4 L1255.0,703.4 L1255.0,54.1 L87.1,54.1 Z  '/></g>
<g fill="none" color="black" stroke="currentColor" stroke-width="1.00" stroke-linecap="butt" stroke-linejoin="miter">
	<g transform="translate(671.0,31.0)" stroke="none" fill="black" font-family="Arial" font-size="12.00"  text-anchor="middle">
		<text><tspan font-family="Arial" >Material 40, 8 components</tspan></text>
	</g>
</g>
	<g id="gnuplot_plot_1" ><title>log(likelihood)</title>
<g fill="none" color="black" stroke="currentColor" stroke-width="1.00" stroke-linecap="butt" stroke-linejoin="miter">
	<g transform="translate(1187.9,76.0)" stroke="none" fill="black" font-family="Arial" font-size="12.00"  text-anchor="end">
		<text><tspan font-family="Arial" >log(likelihood)</tspan></text>
	</g>
</g>
<g fill="none" color="black" stroke="currentColor" stroke-width="1.00" stroke-linecap="butt" stroke-linejoin="miter">
	<g stroke='none' shape-rendering='crispEdges'>
		<polygon fill = 'rgb(148,   0, 211)' fill-opacity = '0.100000' points = '1196.2,76.6 1238.4,76.6 1238.4,67.6 1196.2,67.6 '/>
	</g>
	<path stroke='rgb(148,   0, 211)'  d='M1196.2,76.6 L1238.4,76.6 L1238.4,67.6 L1196.2,67.6 L1196.2,76.6 Z  '/></g>
<g fill="none" color="black" stroke="currentColor" stroke-width="1.00" stroke-linecap="butt" stroke-linejoin="miter">
	<g stroke='none' shape-rendering='crispEdges'>
		<polygon fill = 'rgb(148,   0, 211)' fill-opacity = '0.100000' points = '87.1,700.7 87.7,701.9 88.3,703.2 88.9,703.4 89.5,693.7 90.2,698.6 90.8,693.1 91.4,696.3 92.0,692.6 92.6,683.8 93.2,678.4 93.8,656.0 94.4,629.7 95.0,617.6 95.7,561.0 96.3,541.1
96.9,526.2 97.5,507.2 98.1,495.3 98.7,466.0 99.3,449.8 99.9,418.8 100.5,412.0 101.1,394.6 101.8,375.2 102.4,367.7 103.0,354.4 103.6,339.6 104.2,302.1 104.8,296.7 105.4,286.6 106.0,279.0
106.6,264.2 107.3,244.5 107.9,235.5 108.5,230.9 109.1,220.5 109.7,212.3 110.3,214.3 110.9,180.6 111.5,183.7 112.1,188.4 112.8,175.3 113.4,182.3 114.0,164.2 114.6,166.0 115.2,166.6 115.8,166.0
116.4,160.2 117.0,161.0 117.6,161.1 118.3,155.3 118.9,155.6 119.5,149.5 120.1,150.3 120.7,144.8 121.3,150.8 121.9,143.2 122.5,146.8 123.1,147.0 123.7,147.7 124.4,145.5 125.0,142.3 125.6,145.6
126.2,140.3 126.8,138.1 127.4,139.8 128.0,138.6 128.6,139.8 129.2,141.0 129.9,137.4 130.5,137.4 131.1,134.9 131.7,137.7 132.3,137.1 132.9,135.1 133.5,130.6 134.1,128.3 134.7,135.6 135.4,130.4
136.0,133.4 136.6,131.6 137.2,131.5 137.8,133.0 138.4,131.0 139.0,130.7 139.6,126.9 140.2,127.8 140.9,126.5 141.5,129.6 142.1,125.2 142.7,121.1 143.3,125.8 143.9,119.5 144.5,123.9 145.1,127.3
145.7,129.1 146.4,126.8 147.0,127.5 147.6,123.8 148.2,125.6 148.8,128.4 149.4,124.9 150.0,124.1 150.6,120.0 151.2,123.1 151.8,125.4 152.5,121.5 153.1,126.0 153.7,124.7 154.3,124.9 154.9,121.9
155.5,123.4 156.1,124.4 156.7,124.4 157.3,119.3 158.0,120.9 158.6,125.1 159.2,123.0 159.8,121.8 160.4,121.2 161.0,117.7 161.6,124.9 162.2,122.9 162.8,120.2 163.5,123.6 164.1,122.3 164.7,122.0
165.3,121.7 165.9,124.5 166.5,121.8 167.1,122.1 167.7,117.5 168.3,123.8 169.0,122.8 169.6,122.0 170.2,121.1 170.8,119.8 171.4,119.7 172.0,118.3 172.6,115.6 173.2,115.4 173.8,122.1 174.4,119.2
175.1,116.5 175.7,118.6 176.3,118.7 176.9,118.7 177.5,122.1 178.1,121.6 178.7,121.1 179.3,118.4 179.9,117.6 180.6,121.1 181.2,119.5 181.8,120.7 182.4,117.9 183.0,117.0 183.6,115.1 184.2,117.4
184.8,121.5 185.4,118.8 186.1,120.4 186.7,115.2 187.3,117.1 187.9,116.5 188.5,118.3 189.1,120.1 189.7,113.7 190.3,113.3 190.9,112.7 191.6,117.1 192.2,119.8 192.8,116.8 193.4,120.3 194.0,118.6
194.6,116.8 195.2,117.9 195.8,118.3 196.4,119.4 197.0,117.6 197.7,121.0 198.3,117.5 198.9,118.0 199.5,115.0 200.1,119.4 200.7,117.2 201.3,119.0 201.9,118.8 202.5,117.6 203.2,117.6 203.8,118.5
204.4,119.0 205.0,117.1 205.6,118.0 206.2,112.4 206.8,112.5 207.4,113.7 208.0,112.1 208.7,113.9 209.3,113.8 209.9,116.2 210.5,118.0 211.1,114.5 211.7,119.3 212.3,117.9 212.9,119.9 213.5,117.2
214.2,113.3 214.8,115.6 215.4,114.6 216.0,114.4 216.6,120.0 217.2,114.7 217.8,111.0 218.4,110.2 219.0,110.2 219.6,115.7 220.3,109.9 220.9,109.9 221.5,113.4 222.1,113.4 222.7,114.6 223.3,118.7
223.9,110.9 224.5,112.0 225.1,115.9 225.8,117.8 226.4,113.1 227.0,112.9 227.6,117.1 228.2,118.3 228.8,111.1 229.4,112.1 230.0,112.1 230.6,113.1 231.3,113.6 231.9,113.7 232.5,116.4 233.1,114.9
233.7,108.9 234.3,110.7 234.9,113.2 235.5,113.6 236.1,103.9 236.8,114.8 237.4,116.1 238.0,113.0 238.6,114.0 239.2,116.1 239.8,110.6 240.4,114.0 241.0,115.5 241.6,116.4 242.2,113.7 242.9,111.1
243.5,113.9 244.1,115.7 244.7,113.1 245.3,110.9 245.9,113.8 246.5,115.9 247.1,115.5 247.7,110.4 248.4,115.1 249.0,113.5 249.6,113.4 250.2,113.8 250.8,113.0 251.4,112.2 252.0,108.9 252.6,108.2
253.2,112.2 253.9,111.0 254.5,112.6 255.1,109.5 255.7,112.3 256.3,112.3 256.9,110.8 257.5,110.3 258.1,108.8 258.7,109.5 259.4,113.1 260.0,113.5 260.6,112.4 261.2,113.6 261.8,112.9 262.4,110.6
263.0,112.1 263.6,111.5 264.2,109.7 264.9,109.0 265.5,111.5 266.1,112.9 266.7,107.0 267.3,106.6 267.9,110.2 268.5,103.6 269.1,103.6 269.7,113.2 270.3,109.2 271.0,111.4 271.6,109.0 272.2,108.9
272.8,110.8 273.4,112.7 274.0,112.1 274.6,111.5 275.2,107.1 275.8,105.1 276.5,106.2 277.1,106.2 277.7,109.8 278.3,106.5 278.9,111.6 279.5,109.3 280.1,110.2 280.7,107.9 281.3,108.3 282.0,110.4
282.6,109.0 283.2,105.9 283.8,105.4 284.4,103.4 285.0,103.6 285.6,105.4 286.2,106.8 286.8,109.4 287.5,107.6 288.1,107.9 288.7,105.4 289.3,109.4 289.9,100.3 290.5,101.4 291.1,102.6 291.7,102.9
292.3,106.0 292.9,106.0 293.6,107.8 294.2,106.3 294.8,107.3 295.4,101.8 296.0,102.4 296.6,103.5 297.2,110.1 297.8,99.2 298.4,102.1 299.1,105.6 299.7,105.6 300.3,106.7 300.9,108.5 301.5,108.5
302.1,102.5 302.7,106.1 303.3,107.1 303.9,105.7 304.6,104.9 305.2,105.6 305.8,104.6 306.4,106.6 307.0,106.0 307.6,106.1 308.2,106.1 308.8,110.7 309.4,109.0 310.1,107.6 310.7,106.7 311.3,106.5
311.9,105.5 312.5,106.5 313.1,107.5 313.7,105.1 314.3,106.3 314.9,105.0 315.5,109.9 316.2,107.2 316.8,107.3 317.4,107.3 318.0,102.9 318.6,104.5 319.2,104.7 319.8,106.6 320.4,105.5 321.0,105.4
321.7,107.5 322.3,106.1 322.9,109.0 323.5,106.0 324.1,106.9 324.7,103.3 325.3,103.6 325.9,103.5 326.5,108.2 327.2,107.2 327.8,108.6 328.4,105.4 329.0,108.7 329.6,107.0 330.2,104.5 330.8,106.3
331.4,106.3 332.0,105.8 332.7,110.1 333.3,103.7 333.9,103.5 334.5,105.0 335.1,108.8 335.7,108.7 336.3,109.0 336.9,105.8 337.5,108.1 338.1,108.1 338.8,108.4 339.4,104.2 340.0,104.0 340.6,107.1
341.2,106.1 341.8,106.8 342.4,104.4 343.0,104.3 343.6,107.2 344.3,105.4 344.9,105.0 345.5,108.6 346.1,106.3 346.7,105.7 347.3,103.4 347.9,107.2 348.5,107.2 349.1,102.5 349.8,106.9 350.4,104.2
351.0,107.5 351.6,107.2 352.2,107.2 352.8,103.7 353.4,104.5 354.0,102.1 354.6,101.6 355.3,105.2 355.9,103.1 356.5,104.3 357.1,103.4 357.7,102.3 358.3,103.8 358.9,102.7 359.5,104.9 360.1,103.6
360.8,106.8 361.4,103.6 362.0,104.3 362.6,106.3 363.2,106.7 363.8,104.9 364.4,103.5 365.0,106.2 365.6,107.7 366.2,107.6 366.9,107.6 367.5,108.6 368.1,103.4 368.7,104.5 369.3,102.5 369.9,104.7
370.5,100.5 371.1,104.2 371.7,106.2 372.4,102.7 373.0,101.6 373.6,100.2 374.2,99.7 374.8,101.5 375.4,104.2 376.0,103.1 376.6,105.3 377.2,102.6 377.9,102.4 378.5,100.1 379.1,100.8 379.7,105.1
380.3,100.0 380.9,99.9 381.5,101.9 382.1,101.1 382.7,107.7 383.4,107.8 384.0,105.4 384.6,102.5 385.2,104.5 385.8,99.3 386.4,99.2 387.0,100.3 387.6,105.9 388.2,103.9 388.8,102.0 389.5,104.6
390.1,104.6 390.7,104.8 391.3,99.2 391.9,101.3 392.5,103.1 393.1,102.1 393.7,101.2 394.3,101.2 395.0,103.5 395.6,103.3 396.2,105.5 396.8,97.2 397.4,101.8 398.0,104.5 398.6,104.3 399.2,103.6
399.8,104.7 400.5,104.0 401.1,106.9 401.7,101.3 402.3,103.8 402.9,104.9 403.5,107.0 404.1,104.0 404.7,104.0 405.3,104.7 406.0,103.1 406.6,102.4 407.2,102.4 407.8,102.2 408.4,101.6 409.0,103.7
409.6,103.7 410.2,103.7 410.8,104.5 411.4,106.3 412.1,107.4 412.7,106.0 413.3,107.8 413.9,107.4 414.5,103.9 415.1,102.1 415.7,104.3 416.3,102.7 416.9,104.1 417.6,104.1 418.2,103.6 418.8,105.4
419.4,104.5 420.0,102.8 420.6,102.7 421.2,101.9 421.8,95.1 422.4,96.2 423.1,101.3 423.7,102.2 424.3,100.1 424.9,99.5 425.5,99.5 426.1,108.1 426.7,101.0 427.3,102.0 427.9,101.8 428.6,103.5
429.2,103.6 429.8,101.2 430.4,98.3 431.0,98.8 431.6,108.0 432.2,107.2 432.8,104.9 433.4,104.5 434.0,100.4 434.7,103.2 435.3,103.3 435.9,103.3 436.5,103.8 437.1,100.7 437.7,104.0 438.3,103.3
438.9,98.9 439.5,100.9 440.2,96.3 440.8,96.9 441.4,99.4 442.0,97.9 442.6,101.2 443.2,101.7 443.8,103.4 444.4,101.7 445.0,97.4 445.7,96.7 446.3,98.8 446.9,99.5 447.5,101.8 448.1,98.2
448.7,98.7 449.3,100.8 449.9,98.9 450.5,98.9 451.2,97.2 451.8,95.6 452.4,95.0 453.0,95.6 453.6,94.1 454.2,95.6 454.8,96.3 455.4,96.3 456.0,95.6 456.6,95.1 457.3,93.7 457.9,93.7
458.5,98.9 459.1,94.0 459.7,94.0 460.3,94.0 460.9,93.4 461.5,94.7 462.1,93.0 462.8,93.2 463.4,98.9 464.0,98.9 464.6,99.4 465.2,99.4 465.8,99.8 466.4,99.3 467.0,99.3 467.6,100.1
468.3,99.4 468.9,98.4 469.5,101.8 470.1,102.2 470.7,94.3 471.3,97.9 471.9,102.1 472.5,103.4 473.1,101.3 473.8,100.6 474.4,99.0 475.0,99.0 475.6,99.0 476.2,99.0 476.8,101.2 477.4,97.9
478.0,97.9 478.6,97.9 479.3,97.7 479.9,98.3 480.5,98.1 481.1,96.7 481.7,96.8 482.3,99.0 482.9,98.3 483.5,98.3 484.1,98.3 484.7,97.5 485.4,94.9 486.0,94.9 486.6,94.3 487.2,94.3
487.8,94.9 488.4,97.6 489.0,96.0 489.6,96.0 490.2,96.0 490.9,93.7 491.5,93.8 492.1,97.3 492.7,94.6 493.3,94.8 493.9,93.1 494.5,93.1 495.1,95.3 495.7,94.4 496.4,97.6 497.0,97.4
497.6,97.4 498.2,98.9 498.8,97.4 499.4,97.4 500.0,97.2 500.6,101.0 501.2,101.0 501.9,96.2 502.5,96.2 503.1,92.4 503.7,94.0 504.3,92.8 504.9,92.0 505.5,90.1 506.1,90.4 506.7,93.3
507.3,93.1 508.0,92.9 508.6,95.5 509.2,93.0 509.8,97.0 510.4,97.8 511.0,96.2 511.6,96.2 512.2,98.5 512.8,91.3 513.5,98.1 514.1,98.1 514.7,96.2 515.3,97.3 515.9,98.4 516.5,98.0
517.1,98.6 517.7,98.6 518.3,95.3 519.0,95.2 519.6,93.0 520.2,95.0 520.8,94.0 521.4,95.3 522.0,95.8 522.6,93.1 523.2,93.9 523.8,93.9 524.5,97.4 525.1,96.4 525.7,96.4 526.3,95.3
526.9,98.6 527.5,98.6 528.1,99.2 528.7,100.9 529.3,99.6 529.9,97.5 530.6,97.5 531.2,93.0 531.8,94.9 532.4,94.9 533.0,93.8 533.6,95.5 534.2,96.2 534.8,96.2 535.4,96.1 536.1,96.4
536.7,95.2 537.3,98.8 537.9,85.9 538.5,87.4 539.1,85.9 539.7,95.3 540.3,90.3 540.9,89.3 541.6,89.3 542.2,91.3 542.8,93.5 543.4,97.2 544.0,95.3 544.6,94.2 545.2,95.1 545.8,96.6
546.4,96.9 547.1,96.9 547.7,94.6 548.3,99.3 548.9,99.5 549.5,99.4 550.1,97.6 550.7,90.8 551.3,91.4 551.9,92.7 552.5,92.2 553.2,92.5 553.8,94.7 554.4,94.5 555.0,92.6 555.6,93.1
556.2,93.1 556.8,94.7 557.4,95.1 558.0,91.4 558.7,89.1 559.3,89.1 559.9,89.2 560.5,88.1 561.1,88.4 561.7,88.4 562.3,88.4 562.9,88.4 563.5,93.6 564.2,96.4 564.8,99.6 565.4,92.4
566.0,92.8 566.6,89.7 567.2,86.8 567.8,86.9 568.4,95.1 569.0,95.5 569.7,98.5 570.3,97.2 570.9,95.8 571.5,95.2 572.1,95.2 572.7,93.4 573.3,96.4 573.9,96.6 574.5,96.6 575.2,97.2
575.8,95.5 576.4,93.0 577.0,93.0 577.6,93.0 578.2,94.5 578.8,94.5 579.4,93.9 580.0,93.9 580.6,92.1 581.3,92.5 581.9,92.5 582.5,91.4 583.1,90.9 583.7,91.1 584.3,91.6 584.9,91.6
585.5,91.2 586.1,90.5 586.8,91.4 587.4,92.4 588.0,92.4 588.6,96.3 589.2,96.3 589.8,92.3 590.4,91.9 591.0,89.1 591.6,89.1 592.3,91.0 592.9,89.1 593.5,92.5 594.1,93.1 594.7,92.3
595.3,92.8 595.9,90.8 596.5,90.6 597.1,91.8 597.8,94.8 598.4,94.8 599.0,94.0 599.6,95.5 600.2,99.2 600.8,94.5 601.4,94.4 602.0,95.7 602.6,96.5 603.2,94.3 603.9,94.4 604.5,93.8
605.1,89.0 605.7,93.0 606.3,93.2 606.9,93.0 607.5,93.0 608.1,93.0 608.7,93.5 609.4,95.2 610.0,93.3 610.6,92.4 611.2,90.5 611.8,90.4 612.4,89.6 613.0,92.0 613.6,94.5 614.2,95.8
614.9,95.8 615.5,95.8 616.1,93.6 616.7,96.2 617.3,95.5 617.9,88.3 618.5,90.9 619.1,90.8 619.7,88.8 620.4,94.1 621.0,95.8 621.6,94.0 622.2,91.0 622.8,90.3 623.4,94.4 624.0,95.3
624.6,95.8 625.2,90.9 625.8,90.9 626.5,92.8 627.1,90.5 627.7,90.5 628.3,94.2 628.9,92.9 629.5,90.4 630.1,86.9 630.7,86.1 631.3,93.7 632.0,93.7 632.6,94.8 633.2,92.8 633.8,96.9
634.4,89.8 635.0,89.8 635.6,95.8 636.2,94.1 636.8,94.8 637.5,87.5 638.1,89.3 638.7,89.6 639.3,91.7 639.9,92.3 640.5,90.6 641.1,92.7 641.7,94.4 642.3,87.0 643.0,86.7 643.6,87.6
644.2,90.6 644.8,92.2 645.4,87.7 646.0,86.6 646.6,93.6 647.2,92.6 647.8,92.6 648.4,92.6 649.1,92.6 649.7,92.5 650.3,95.7 650.9,95.7 651.5,92.6 652.1,92.4 652.7,87.0 653.3,87.0
653.9,86.8 654.6,85.7 655.2,89.6 655.8,86.5 656.4,87.1 657.0,85.8 657.6,87.5 658.2,86.4 658.8,85.6 659.4,85.6 660.1,85.3 660.7,85.6 661.3,94.5 661.9,95.1 662.5,92.0 663.1,92.0
663.7,92.6 664.3,92.9 664.9,90.5 665.6,90.5 666.2,92.8 666.8,91.1 667.4,93.8 668.0,88.1 668.6,88.2 669.2,88.2 669.8,90.8 670.4,91.4 671.1,97.0 671.7,87.8 672.3,84.4 672.9,86.3
673.5,93.2 674.1,85.4 674.7,93.9 675.3,93.9 675.9,91.6 676.5,91.9 677.2,90.8 677.8,89.3 678.4,89.3 679.0,89.4 679.6,88.0 680.2,88.0 680.8,87.7 681.4,84.2 682.0,88.1 682.7,90.4
683.3,94.8 683.9,94.5 684.5,92.0 685.1,90.3 685.7,93.5 686.3,93.5 686.9,93.1 687.5,86.4 688.2,90.2 688.8,90.2 689.4,92.1 690.0,89.7 690.6,89.7 691.2,89.7 691.8,89.7 692.4,89.7
693.0,89.7 693.7,89.6 694.3,92.1 694.9,89.5 695.5,87.2 696.1,87.2 696.7,87.4 697.3,85.5 697.9,86.5 698.5,86.3 699.1,86.7 699.8,90.4 700.4,84.6 701.0,85.0 701.6,89.4 702.2,86.9
702.8,85.8 703.4,86.9 704.0,89.5 704.6,88.9 705.3,86.8 705.9,91.3 706.5,92.4 707.1,88.4 707.7,88.4 708.3,90.5 708.9,89.9 709.5,89.6 710.1,89.3 710.8,89.5 711.4,90.0 712.0,86.8
712.6,86.5 713.2,87.3 713.8,91.0 714.4,89.1 715.0,89.3 715.6,87.2 716.3,85.7 716.9,85.4 717.5,85.8 718.1,85.8 718.7,85.8 719.3,85.8 719.9,86.0 720.5,86.0 721.1,86.0 721.7,83.3
722.4,83.3 723.0,85.1 723.6,85.1 724.2,85.1 724.8,79.8 725.4,83.0 726.0,80.4 726.6,80.4 727.2,84.4 727.9,84.4 728.5,82.4 729.1,82.4 729.7,82.4 730.3,82.1 730.9,82.1 731.5,82.1
732.1,83.9 732.7,85.4 733.4,82.6 734.0,82.6 734.6,82.6 735.2,82.6 735.8,82.6 736.4,82.6 737.0,82.6 737.6,82.6 738.2,82.6 738.9,83.1 739.5,83.1 740.1,83.7 740.7,83.7 741.3,83.7
741.9,87.9 742.5,88.0 743.1,86.2 743.7,86.3 744.3,85.4 745.0,85.4 745.6,86.7 746.2,86.2 746.8,87.2 747.4,83.3 748.0,83.9 748.6,84.5 749.2,88.5 749.8,88.5 750.5,89.4 751.1,88.8
751.7,88.8 752.3,82.9 752.9,88.4 753.5,86.3 754.1,85.8 754.7,85.8 755.3,85.8 756.0,83.9 756.6,84.2 757.2,84.2 757.8,84.4 758.4,84.8 759.0,85.9 759.6,85.9 760.2,85.9 760.8,87.5
761.5,88.3 762.1,88.3 762.7,86.1 763.3,89.6 763.9,87.1 764.5,84.3 765.1,85.9 765.7,91.7 766.3,88.5 766.9,88.2 767.6,88.2 768.2,91.6 768.8,86.1 769.4,86.1 770.0,88.6 770.6,87.1
771.2,84.4 771.8,84.4 772.4,83.5 773.1,85.4 773.7,85.7 774.3,85.7 774.9,85.7 775.5,84.4 776.1,89.2 776.7,89.2 777.3,88.5 777.9,85.7 778.6,88.5 779.2,86.6 779.8,86.9 780.4,83.0
781.0,83.0 781.6,83.0 782.2,85.0 782.8,83.9 783.4,82.3 784.1,82.3 784.7,82.4 785.3,82.2 785.9,82.8 786.5,82.8 787.1,83.5 787.7,88.4 788.3,87.5 788.9,84.5 789.6,85.7 790.2,86.8
790.8,87.5 791.4,87.5 792.0,85.9 792.6,85.3 793.2,84.3 793.8,85.3 794.4,85.5 795.0,79.9 795.7,77.7 796.3,77.2 796.9,77.4 797.5,77.4 798.1,78.2 798.7,78.2 799.3,79.9 799.9,78.5
800.5,81.5 801.2,81.5 801.8,77.8 802.4,80.3 803.0,80.3 803.6,80.3 804.2,80.3 804.8,80.3 805.4,83.4 806.0,83.4 806.7,78.7 807.3,79.1 807.9,79.1 808.5,81.6 809.1,79.9 809.7,78.9
810.3,78.8 810.9,78.8 811.5,78.8 812.2,78.8 812.8,81.5 813.4,80.5 814.0,80.5 814.6,83.8 815.2,82.1 815.8,81.7 816.4,80.4 817.0,80.4 817.6,81.8 818.3,80.0 818.9,77.3 819.5,77.1
820.1,80.1 820.7,80.1 821.3,79.5 821.9,79.5 822.5,80.3 823.1,79.2 823.8,79.1 824.4,79.1 825.0,79.1 825.6,79.1 826.2,79.2 826.8,79.0 827.4,78.8 828.0,77.9 828.6,77.9 829.3,77.9
829.9,78.5 830.5,78.5 831.1,78.5 831.7,78.5 832.3,78.8 832.9,79.9 833.5,76.5 834.1,76.9 834.8,76.5 835.4,76.5 836.0,75.7 836.6,75.7 837.2,76.0 837.8,76.1 838.4,76.1 839.0,79.4
839.6,80.0 840.2,80.0 840.9,80.0 841.5,79.1 842.1,79.1 842.7,77.3 843.3,77.3 843.9,82.3 844.5,82.2 845.1,77.7 845.7,79.6 846.4,79.6 847.0,80.7 847.6,78.7 848.2,78.7 848.8,78.7
849.4,79.3 850.0,79.5 850.6,72.9 851.2,72.9 851.9,78.7 852.5,78.0 853.1,77.2 853.7,77.2 854.3,79.7 854.9,79.5 855.5,79.6 856.1,78.5 856.7,76.8 857.4,80.6 858.0,80.6 858.6,77.4
859.2,77.4 859.8,77.4 860.4,78.6 861.0,80.3 861.6,80.3 862.2,80.0 862.8,80.6 863.5,80.6 864.1,79.3 864.7,78.0 865.3,78.7 865.9,78.7 866.5,78.7 867.1,78.7 867.7,78.7 868.3,78.9
869.0,78.9 869.6,78.5 870.2,78.5 870.8,78.5 871.4,77.6 872.0,77.6 872.6,80.3 873.2,81.2 873.8,76.8 874.5,77.5 875.1,77.5 875.7,77.6 876.3,78.4 876.9,78.6 877.5,76.4 878.1,76.4
878.7,76.4 879.3,75.0 880.0,74.9 880.6,79.1 881.2,76.7 881.8,78.2 882.4,78.4 883.0,80.4 883.6,76.7 884.2,81.5 884.8,76.2 885.5,75.7 886.1,75.9 886.7,76.7 887.3,77.8 887.9,77.8
888.5,78.2 889.1,80.9 889.7,78.3 890.3,79.0 890.9,80.9 891.6,80.2 892.2,78.3 892.8,84.0 893.4,82.0 894.0,80.4 894.6,81.3 895.2,81.3 895.8,81.7 896.4,81.5 897.1,82.5 897.7,82.8
898.3,81.1 898.9,81.0 899.5,81.0 900.1,81.0 900.7,76.3 901.3,81.6 901.9,76.7 902.6,76.2 903.2,83.6 903.8,75.4 904.4,77.8 905.0,77.8 905.6,78.3 906.2,77.7 906.8,78.0 907.4,75.7
908.1,74.5 908.7,75.9 909.3,75.4 909.9,78.7 910.5,75.9 911.1,74.4 911.7,79.4 912.3,79.7 912.9,78.0 913.5,75.8 914.2,80.3 914.8,80.5 915.4,79.3 916.0,79.6 916.6,76.6 917.2,79.7
917.8,75.0 918.4,79.8 919.0,80.4 919.7,80.4 920.3,77.9 920.9,80.6 921.5,80.7 922.1,81.1 922.7,72.4 923.3,72.4 923.9,72.4 924.5,71.1 925.2,71.1 925.8,71.2 926.4,71.2 927.0,73.2
927.6,79.1 928.2,75.2 928.8,75.2 929.4,75.2 930.0,74.0 930.7,74.5 931.3,74.5 931.9,69.5 932.5,75.6 933.1,75.6 933.7,75.9 934.3,75.9 934.9,78.3 935.5,77.5 936.1,76.1 936.8,77.4
937.4,77.4 938.0,73.3 938.6,75.5 939.2,77.0 939.8,78.2 940.4,76.5 941.0,79.1 941.6,75.6 942.3,75.3 942.9,78.3 943.5,75.7 944.1,75.7 944.7,77.3 945.3,77.3 945.9,77.8 946.5,77.8
947.1,79.0 947.8,79.0 948.4,74.3 949.0,73.6 949.6,73.7 950.2,74.5 950.8,74.6 951.4,79.1 952.0,75.5 952.6,75.5 953.3,75.5 953.9,75.3 954.5,71.9 955.1,75.5 955.7,75.5 956.3,79.1
956.9,79.1 957.5,77.4 958.1,71.4 958.7,71.6 959.4,71.7 960.0,71.7 960.6,72.3 961.2,77.6 961.8,76.1 962.4,78.5 963.0,74.1 963.6,74.5 964.2,74.7 964.9,74.2 965.5,75.2 966.1,76.6
966.7,76.2 967.3,78.5 967.9,78.5 968.5,78.5 969.1,78.5 969.7,71.4 970.4,71.2 971.0,73.1 971.6,70.3 972.2,70.3 972.8,73.6 973.4,73.8 974.0,73.8 974.6,73.6 975.2,73.6 975.9,74.1
976.5,74.1 977.1,75.9 977.7,77.6 978.3,68.3 978.9,72.9 979.5,72.9 980.1,71.8 980.7,77.4 981.3,76.1 982.0,75.9 982.6,75.6 983.2,76.5 983.8,77.7 984.4,75.3 985.0,73.3 985.6,78.1
986.2,73.9 986.8,74.7 987.5,70.7 988.1,76.8 988.7,74.2 989.3,78.4 989.9,76.3 990.5,76.4 991.1,77.9 991.7,73.3 992.3,67.4 993.0,67.4 993.6,68.1 994.2,73.1 994.8,73.2 995.4,69.7
996.0,78.4 996.6,75.7 997.2,72.8 997.8,77.7 998.5,77.7 999.1,74.8 999.7,76.5 1000.3,75.3 1000.9,74.7 1001.5,69.7 1002.1,75.6 1002.7,75.6 1003.3,75.6 1004.0,76.8 1004.6,76.8 1005.2,76.8
1005.8,76.8 1006.4,77.5 1007.0,79.2 1007.6,79.5 1008.2,79.4 1008.8,79.4 1009.4,73.3 1010.1,73.3 1010.7,75.1 1011.3,75.1 1011.9,74.4 1012.5,74.0 1013.1,73.9 1013.7,73.9 1014.3,70.7 1014.9,71.7
1015.6,70.3 1016.2,69.8 1016.8,70.5 1017.4,71.5 1018.0,67.9 1018.6,67.9 1019.2,68.2 1019.8,70.8 1020.4,70.7 1021.1,71.9 1021.7,71.1 1022.3,71.1 1022.9,68.1 1023.5,73.9 1024.1,75.4 1024.7,75.2
1025.3,74.8 1025.9,75.3 1026.6,76.3 1027.2,77.4 1027.8,73.6 1028.4,71.8 1029.0,73.6 1029.6,75.3 1030.2,75.3 1030.8,75.1 1031.4,72.8 1032.0,73.1 1032.7,73.1 1033.3,73.1 1033.9,71.2 1034.5,71.2
1035.1,71.2 1035.7,71.5 1036.3,71.5 1036.9,71.9 1037.5,71.9 1038.2,72.9 1038.8,72.9 1039.4,72.9 1040.0,71.9 1040.6,71.9 1041.2,71.9 1041.8,72.9 1042.4,72.1 1043.0,71.7 1043.7,71.7 1044.3,71.7
1044.9,71.5 1045.5,71.7 1046.1,68.3 1046.7,68.3 1047.3,68.3 1047.9,69.7 1048.5,69.9 1049.2,69.2 1049.8,69.4 1050.4,69.4 1051.0,68.2 1051.6,68.2 1052.2,73.9 1052.8,73.9 1053.4,73.1 1054.0,70.6
1054.6,68.9 1055.3,68.7 1055.9,70.1 1056.5,72.6 1057.1,67.8 1057.7,65.6 1058.3,73.4 1058.9,73.4 1059.5,72.9 1060.1,73.4 1060.8,73.4 1061.4,76.4 1062.0,72.3 1062.6,72.3 1063.2,72.7 1063.8,75.4
1064.4,75.4 1065.0,74.4 1065.6,74.6 1066.3,74.6 1066.9,71.4 1067.5,74.0 1068.1,71.6 1068.7,70.4 1069.3,70.5 1069.9,73.2 1070.5,73.2 1071.1,69.5 1071.8,73.0 1072.4,74.0 1073.0,70.2 1073.6,70.2
1074.2,67.9 1074.8,67.5 1075.4,64.7 1076.0,71.8 1076.6,71.8 1077.2,73.7 1077.9,73.7 1078.5,72.5 1079.1,72.0 1079.7,74.0 1080.3,73.7 1080.9,73.3 1081.5,70.8 1082.1,73.3 1082.7,73.3 1083.4,75.2
1084.0,72.6 1084.6,69.0 1085.2,70.8 1085.8,70.1 1086.4,69.4 1087.0,69.2 1087.6,72.3 1088.2,72.3 1088.9,72.3 1089.5,73.6 1090.1,73.0 1090.7,71.8 1091.3,71.8 1091.9,75.0 1092.5,70.9 1093.1,68.9
1093.7,70.2 1094.4,70.2 1095.0,70.2 1095.6,70.2 1096.2,69.7 1096.8,69.7 1097.4,69.7 1098.0,66.3 1098.6,66.9 1099.2,67.0 1099.9,65.9 1100.5,65.9 1101.1,65.2 1101.7,67.6 1102.3,67.6 1102.9,67.6
1103.5,67.6 1104.1,67.5 1104.7,70.0 1105.3,69.5 1106.0,69.5 1106.6,67.2 1107.2,69.9 1107.8,69.9 1108.4,69.9 1109.0,69.8 1109.6,69.8 1110.2,69.7 1110.8,69.7 1111.5,69.6 1112.1,69.8 1112.7,70.2
1113.3,70.2 1113.9,70.2 1114.5,71.4 1115.1,68.2 1115.7,71.0 1116.3,71.0 1117.0,73.1 1117.6,73.5 1118.2,72.1 1118.8,69.9 1119.4,73.2 1120.0,70.2 1120.6,71.0 1121.2,69.5 1121.8,73.3 1122.5,70.1
1123.1,68.9 1123.7,68.9 1124.3,68.9 1124.9,70.4 1125.5,71.7 1126.1,71.2 1126.7,68.9 1127.3,68.8 1127.9,71.4 1128.6,71.4 1129.2,68.1 1129.8,66.0 1130.4,65.9 1131.0,66.5 1131.6,66.5 1132.2,68.9
1132.8,61.7 1133.4,68.2 1134.1,66.8 1134.7,66.6 1135.3,66.6 1135.9,66.6 1136.5,65.6 1137.1,65.6 1137.7,65.8 1138.3,65.8 1138.9,65.4 1139.6,65.4 1140.2,63.1 1140.8,61.8 1141.4,61.8 1142.0,61.8
1142.6,61.8 1143.2,58.0 1143.8,58.0 1144.4,58.0 1145.1,56.4 1145.7,57.3 1146.3,57.3 1146.9,57.4 1147.5,57.4 1148.1,55.2 1148.7,55.2 1149.3,54.1 1149.9,54.1 1150.5,56.2 1151.2,62.5 1151.8,62.6
1152.4,63.9 1153.0,63.9 1153.6,63.8 1154.2,61.8 1154.8,61.8 1155.4,61.5 1156.0,61.5 1156.7,61.5 1157.3,61.3 1157.9,61.3 1158.5,63.4 1159.1,57.0 1159.7,59.1 1160.3,61.3 1160.9,59.1 1161.5,57.8
1162.2,57.8 1162.8,57.8 1163.4,63.1 1164.0,63.1 1164.6,63.1 1165.2,65.7 1165.8,65.7 1166.4,65.7 1167.0,64.6 1167.7,67.4 1168.3,66.6 1168.9,65.2 1169.5,66.6 1170.1,67.7 1170.7,67.3 1171.3,67.5
1171.9,65.6 1172.5,66.7 1173.1,66.6 1173.8,66.0 1174.4,64.5 1175.0,63.8 1175.6,64.0 1176.2,64.7 1176.8,64.7 1177.4,64.4 1178.0,67.2 1178.6,69.3 1179.3,70.1 1179.9,67.5 1180.5,67.0 1181.1,67.1
1181.7,67.2 1182.3,67.2 1182.9,67.0 1183.5,70.0 1184.1,66.5 1184.8,66.5 1185.4,66.5 1186.0,66.5 1186.6,66.5 1187.2,66.5 1187.8,66.5 1188.4,66.5 1189.0,66.2 1189.6,66.2 1190.3,67.2 1190.9,66.1
1191.5,67.3 1192.1,64.6 1192.7,64.6 1193.3,64.6 1193.9,68.3 1194.5,58.4 1195.1,63.3 1195.7,64.7 1196.4,61.9 1197.0,61.9 1197.6,64.0 1198.2,64.0 1198.8,64.0 1199.4,67.0 1200.0,66.0 1200.6,62.8
1201.2,57.9 1201.9,58.9 1202.5,58.1 1203.1,57.8 1203.7,57.8 1204.3,57.9 1204.9,59.2 1205.5,59.2 1206.1,60.9 1206.7,59.8 1207.4,59.7 1208.0,59.7 1208.6,59.7 1209.2,57.7 1209.8,57.7 1210.4,57.7
1211.0,57.5 1211.6,64.6 1212.2,64.3 1212.9,64.3 1213.5,63.7 1214.1,63.7 1214.7,63.7 1215.3,65.7 1215.9,65.6 1216.5,64.8 1217.1,62.3 1217.7,62.3 1218.4,62.3 1219.0,61.9 1219.6,61.9 1220.2,58.7
1220.8,58.7 1221.4,58.7 1222.0,65.8 1222.6,64.2 1223.2,65.7 1223.8,65.7 1224.5,65.9 1225.1,65.4 1225.7,65.4 1226.3,66.3 1226.9,58.8 1227.5,58.8 1228.1,58.8 1228.7,58.3 1229.3,63.1 1230.0,63.1
1230.6,60.5 1231.2,65.2 1231.8,64.2 1232.4,61.0 1233.0,61.0 1233.6,61.0 1234.2,62.9 1234.8,60.7 1235.5,60.7 1236.1,61.0 1236.7,63.7 1237.3,63.7 1237.9,63.7 1238.5,62.6 1239.1,61.0 1239.7,59.9
1240.3,60.5 1241.0,57.9 1241.6,61.7 1242.2,59.2 1242.8,57.4 1243.4,57.4 1244.0,57.4 1244.6,57.4 1245.2,57.4 1245.8,57.4 1246.4,59.7 1247.1,62.4 1247.7,58.8 1248.3,60.7 1248.9,59.7 1249.5,58.2
1250.1,56.5 1250.7,61.7 1251.3,59.4 1251.9,59.1 1252.6,59.1 1253.2,63.7 1253.8,65.8 1254.4,65.8 1255.0,60.7 1255.0,703.4 87.1,703.4 '/>
	</g>
	<path stroke='rgb(148,   0, 211)'  d='M87.1,700.7 L87.7,701.9 L88.3,703.2 L88.9,703.4 L89.5,693.7 L90.2,698.6 L90.8,693.1 L91.4,696.3
		L92.0,692.6 L92.6,683.8 L93.2,678.4 L93.8,656.0 L94.4,629.7 L95.0,617.6 L95.7,561.0 L96.3,541.1
		L96.9,526.2 L97.5,507.2 L98.1,495.3 L98.7,466.0 L99.3,449.8 L99.9,418.8 L100.5,412.0 L101.1,394.6
		L101.8,375.2 L102.4,367.7 L103.0,354.4 L103.6,339.6 L104.2,302.1 L104.8,296.7 L105.4,286.6 L106.0,279.0
		L106.6,264.2 L107.3,244.5 L107.9,235.5 L108.5,230.9 L109.1,220.5 L109.7,212.3 L110.3,214.3 L110.9,180.6
		L111.5,183.7 L112.1,188.4 L112.8,175.3 L113.4,182.3 L114.0,164.2 L114.6,166.0 L115.2,166.6 L115.8,166.0
		L116.4,160.2 L117.0,161.0 L117.6,161.1 L118.3,155.3 L118.9,155.6 L119.5,149.5 L120.1,150.3 L120.7,144.8
		L121.3,150.8 L121.9,143.2 L122.5,146.8 L123.1,147.0 L123.7,147.7 L124.4,145.5 L125.0,142.3 L125.6,145.6
		L126.2,140.3 L126.8,138.1 L127.4,139.8 L128.0,138.6 L128.6,139.8 L129.2,141.0 L129.9,137.4 L130.5,137.4
		L131.1,134.9 L131.7,137.7 L132.3,137.1 L132.9,135.1 L133.5,130.6 L134.1,128.3 L134.7,135.6 L135.4,130.4
		L136.0,133.4 L136.6,131.6 L137.2,131.5 L137.8,133.0 L138.4,131.0 L139.0,130.7 L139.6,126.9 L140.2,127.8
		L140.9,126.5 L141.5,129.6 L142.1,125.2 L142.7,121.1 L143.3,125.8 L143.9,119.5 L144.5,123.9 L145.1,127.3
		L145.7,129.1 L146.4,126.8 L147.0,127.5 L147.6,123.8 L148.2,125.6 L148.8,128.4 L149.4,124.9 L150.0,124.1
		L150.6,120.0 L151.2,123.1 L151.8,125.4 L152.5,121.5 L153.1,126.0 L153.7,124.7 L154.3,124.9 L154.9,121.9
		L155.5,123.4 L156.1,124.4 L156.7,124.4 L157.3,119.3 L158.0,120.9 L158.6,125.1 L159.2,123.0 L159.8,121.8
		L160.4,121.2 L161.0,117.7 L161.6,124.9 L162.2,122.9 L162.8,120.2 L163.5,123.6 L164.1,122.3 L164.7,122.0
		L165.3,121.7 L165.9,124.5 L166.5,121.8 L167.1,122.1 L167.7,117.5 L168.3,123.8 L169.0,122.8 L169.6,122.0
		L170.2,121.1 L170.8,119.8 L171.4,119.7 L172.0,118.3 L172.6,115.6 L173.2,115.4 L173.8,122.1 L174.4,119.2
		L175.1,116.5 L175.7,118.6 L176.3,118.7 L176.9,118.7 L177.5,122.1 L178.1,121.6 L178.7,121.1 L179.3,118.4
		L179.9,117.6 L180.6,121.1 L181.2,119.5 L181.8,120.7 L182.4,117.9 L183.0,117.0 L183.6,115.1 L184.2,117.4
		L184.8,121.5 L185.4,118.8 L186.1,120.4 L186.7,115.2 L187.3,117.1 L187.9,116.5 L188.5,118.3 L189.1,120.1
		L189.7,113.7 L190.3,113.3 L190.9,112.7 L191.6,117.1 L192.2,119.8 L192.8,116.8 L193.4,120.3 L194.0,118.6
		L194.6,116.8 L195.2,117.9 L195.8,118.3 L196.4,119.4 L197.0,117.6 L197.7,121.0 L198.3,117.5 L198.9,118.0
		L199.5,115.0 L200.1,119.4 L200.7,117.2 L201.3,119.0 L201.9,118.8 L202.5,117.6 L203.2,117.6 L203.8,118.5
		L204.4,119.0 L205.0,117.1 L205.6,118.0 L206.2,112.4 L206.8,112.5 L207.4,113.7 L208.0,112.1 L208.7,113.9
		L209.3,113.8 L209.9,116.2 L210.5,118.0 L211.1,114.5 L211.7,119.3 L212.3,117.9 L212.9,119.9 L213.5,117.2
		L214.2,113.3 L214.8,115.6 L215.4,114.6 L216.0,114.4 L216.6,120.0 L217.2,114.7 L217.8,111.0 L218.4,110.2
		L219.0,110.2 L219.6,115.7 L220.3,109.9 L220.9,109.9 L221.5,113.4 L222.1,113.4 L222.7,114.6 L223.3,118.7
		L223.9,110.9 L224.5,112.0 L225.1,115.9 L225.8,117.8 L226.4,113.1 L227.0,112.9 L227.6,117.1 L228.2,118.3
		L228.8,111.1 L229.4,112.1 L230.0,112.1 L230.6,113.1 L231.3,113.6 L231.9,113.7 L232.5,116.4 L233.1,114.9
		L233.7,108.9 L234.3,110.7 L234.9,113.2 L235.5,113.6 L236.1,103.9 L236.8,114.8 L237.4,116.1 L238.0,113.0
		L238.6,114.0 L239.2,116.1 L239.8,110.6 L240.4,114.0 L241.0,115.5 L241.6,116.4 L242.2,113.7 L242.9,111.1
		L243.5,113.9 L244.1,115.7 L244.7,113.1 L245.3,110.9 L245.9,113.8 L246.5,115.9 L247.1,115.5 L247.7,110.4
		L248.4,115.1 L249.0,113.5 L249.6,113.4 L250.2,113.8 L250.8,113.0 L251.4,112.2 L252.0,108.9 L252.6,108.2
		L253.2,112.2 L253.9,111.0 L254.5,112.6 L255.1,109.5 L255.7,112.3 L256.3,112.3 L256.9,110.8 L257.5,110.3
		L258.1,108.8 L258.7,109.5 L259.4,113.1 L260.0,113.5 L260.6,112.4 L261.2,113.6 L261.8,112.9 L262.4,110.6
		L263.0,112.1 L263.6,111.5 L264.2,109.7 L264.9,109.0 L265.5,111.5 L266.1,112.9 L266.7,107.0 L267.3,106.6
		L267.9,110.2 L268.5,103.6 L269.1,103.6 L269.7,113.2 L270.3,109.2 L271.0,111.4 L271.6,109.0 L272.2,108.9
		L272.8,110.8 L273.4,112.7 L274.0,112.1 L274.6,111.5 L275.2,107.1 L275.8,105.1 L276.5,106.2 L277.1,106.2
		L277.7,109.8 L278.3,106.5 L278.9,111.6 L279.5,109.3 L280.1,110.2 L280.7,107.9 L281.3,108.3 L282.0,110.4
		L282.6,109.0 L283.2,105.9 L283.8,105.4 L284.4,103.4 L285.0,103.6 L285.6,105.4 L286.2,106.8 L286.8,109.4
		L287.5,107.6 L288.1,107.9 L288.7,105.4 L289.3,109.4 L289.9,100.3 L290.5,101.4 L291.1,102.6 L291.7,102.9
		L292.3,106.0 L292.9,106.0 L293.6,107.8 L294.2,106.3 L294.8,107.3 L295.4,101.8 L296.0,102.4 L296.6,103.5
		L297.2,110.1 L297.8,99.2 L298.4,102.1 L299.1,105.6 L299.7,105.6 L300.3,106.7 L300.9,108.5 L301.5,108.5
		L302.1,102.5 L302.7,106.1 L303.3,107.1 L303.9,105.7 L304.6,104.9 L305.2,105.6 L305.8,104.6 L306.4,106.6
		L307.0,106.0 L307.6,106.1 L308.2,106.1 L308.8,110.7 L309.4,109.0 L310.1,107.6 L310.7,106.7 L311.3,106.5
		L311.9,105.5 L312.5,106.5 L313.1,107.5 L313.7,105.1 L314.3,106.3 L314.9,105.0 L315.5,109.9 L316.2,107.2
		L316.8,107.3 L317.4,107.3 L318.0,102.9 L318.6,104.5 L319.2,104.7 L319.8,106.6 L320.4,105.5 L321.0,105.4
		L321.7,107.5 L322.3,106.1 L322.9,109.0 L323.5,106.0 L324.1,106.9 L324.7,103.3 L325.3,103.6 L325.9,103.5
		L326.5,108.2 L327.2,107.2 L327.8,108.6 L328.4,105.4 L329.0,108.7 L329.6,107.0 L330.2,104.5 L330.8,106.3
		L331.4,106.3 L332.0,105.8 L332.7,110.1 L333.3,103.7 L333.9,103.5 L334.5,105.0 L335.1,108.8 L335.7,108.7
		L336.3,109.0 L336.9,105.8 L337.5,108.1 L338.1,108.1 L338.8,108.4 L339.4,104.2 L340.0,104.0 L340.6,107.1
		L341.2,106.1 L341.8,106.8 L342.4,104.4 L343.0,104.3 L343.6,107.2 L344.3,105.4 L344.9,105.0 L345.5,108.6
		L346.1,106.3 L346.7,105.7 L347.3,103.4 L347.9,107.2 L348.5,107.2 L349.1,102.5 L349.8,106.9 L350.4,104.2
		L351.0,107.5 L351.6,107.2 L352.2,107.2 L352.8,103.7 L353.4,104.5 L354.0,102.1 L354.6,101.6 L355.3,105.2
		L355.9,103.1 L356.5,104.3 L357.1,103.4 L357.7,102.3 L358.3,103.8 L358.9,102.7 L359.5,104.9 L360.1,103.6
		L360.8,106.8 L361.4,103.6 L362.0,104.3 L362.6,106.3 L363.2,106.7 L363.8,104.9 L364.4,103.5 L365.0,106.2
		L365.6,107.7 L366.2,107.6 L366.9,107.6 L367.5,108.6 L368.1,103.4 L368.7,104.5 L369.3,102.5 L369.9,104.7
		L370.5,100.5 L371.1,104.2 L371.7,106.2 L372.4,102.7 L373.0,101.6 L373.6,100.2 L374.2,99.7 L374.8,101.5
		L375.4,104.2 L376.0,103.1 L376.6,105.3 L377.2,102.6 L377.9,102.4 L378.5,100.1 L379.1,100.8 L379.7,105.1
		L380.3,100.0 L380.9,99.9 L381.5,101.9 L382.1,101.1 L382.7,107.7 L383.4,107.8 L384.0,105.4 L384.6,102.5
		L385.2,104.5 L385.8,99.3 L386.4,99.2 L387.0,100.3 L387.6,105.9 L388.2,103.9 L388.8,102.0 L389.5,104.6
		L390.1,104.6 L390.7,104.8 L391.3,99.2 L391.9,101.3 L392.5,103.1 L393.1,102.1 L393.7,101.2 L394.3,101.2
		L395.0,103.5 L395.6,103.3 L396.2,105.5 L396.8,97.2 L397.4,101.8 L398.0,104.5 L398.6,104.3 L399.2,103.6
		L399.8,104.7 L400.5,104.0 L401.1,106.9 L401.7,101.3 L402.3,103.8 L402.9,104.9 L403.5,107.0 L404.1,104.0
		L404.7,104.0 L405.3,104.7 L406.0,103.1 L406.6,102.4 L407.2,102.4 L407.8,102.2 L408.4,101.6 L409.0,103.7
		L409.6,103.7 L410.2,103.7 L410.8,104.5 L411.4,106.3 L412.1,107.4 L412.7,106.0 L413.3,107.8 L413.9,107.4
		L414.5,103.9 L415.1,102.1 L415.7,104.3 L416.3,102.7 L416.9,104.1 L417.6,104.1 L418.2,103.6 L418.8,105.4
		L419.4,104.5 L420.0,102.8 L420.6,102.7 L421.2,101.9 L421.8,95.1 L422.4,96.2 L423.1,101.3 L423.7,102.2
		L424.3,100.1 L424.9,99.5 L425.5,99.5 L426.1,108.1 L426.7,101.0 L427.3,102.0 L427.9,101.8 L428.6,103.5
		L429.2,103.6 L429.8,101.2 L430.4,98.3 L431.0,98.8 L431.6,108.0 L432.2,107.2 L432.8,104.9 L433.4,104.5
		L434.0,100.4 L434.7,103.2 L435.3,103.3 L435.9,103.3 L436.5,103.8 L437.1,100.7 L437.7,104.0 L438.3,103.3
		L438.9,98.9 L439.5,100.9 L440.2,96.3 L440.8,96.9 L441.4,99.4 L442.0,97.9 L442.6,101.2 L443.2,101.7
		L443.8,103.4 L444.4,101.7 L445.0,97.4 L445.7,96.7 L446.3,98.8 L446.9,99.5 L447.5,101.8 L448.1,98.2
		L448.7,98.7 L449.3,100.8 L449.9,98.9 L450.5,98.9 L451.2,97.2 L451.8,95.6 L452.4,95.0 L453.0,95.6
		L453.6,94.1 L454.2,95.6 L454.8,96.3 L455.4,96.3 L456.0,95.6 L456.6,95.1 L457.3,93.7 L457.9,93.7
		L458.5,98.9 L459.1,94.0 L459.7,94.0 L460.3,94.0 L460.9,93.4 L461.5,94.7 L462.1,93.0 L462.8,93.2
		L463.4,98.9 L464.0,98.9 L464.6,99.4 L465.2,99.4 L465.8,99.8 L466.4,99.3 L467.0,99.3 L467.6,100.1
		L468.3,99.4 L468.9,98.4 L469.5,101.8 L470.1,102.2 L470.7,94.3 L471.3,97.9 L471.9,102.1 L472.5,103.4
		L473.1,101.3 L473.8,100.6 L474.4,99.0 L475.0,99.0 L475.6,99.0 L476.2,99.0 L476.8,101.2 L477.4,97.9
		L478.0,97.9 L478.6,97.9 L479.3,97.7 L479.9,98.3 L480.5,98.1 L481.1,96.7 L481.7,96.8 L482.3,99.0
		L482.9,98.3 L483.5,98.3 L484.1,98.3 L484.7,97.5 L485.4,94.9 L486.0,94.9 L486.6,94.3 L487.2,94.3
		L487.8,94.9 L488.4,97.6 L489.0,96.0 L489.6,96.0 L490.2,96.0 L490.9,93.7 L491.5,93.8 L492.1,97.3
		L492.7,94.6 L493.3,94.8 L493.9,93.1 L494.5,93.1 L495.1,95.3 L495.7,94.4 L496.4,97.6 L497.0,97.4
		L497.6,97.4 L498.2,98.9 L498.8,97.4 L499.4,97.4 L500.0,97.2 L500.6,101.0 L501.2,101.0 L501.9,96.2
		L502.5,96.2 L503.1,92.4 L503.7,94.0 L504.3,92.8 L504.9,92.0 L505.5,90.1 L506.1,90.4 L506.7,93.3
		L507.3,93.1 L508.0,92.9 L508.6,95.5 L509.2,93.0 L509.8,97.0 L510.4,97.8 L511.0,96.2 L511.6,96.2
		L512.2,98.5 L512.8,91.3 L513.5,98.1 L514.1,98.1 L514.7,96.2 L515.3,97.3 L515.9,98.4 L516.5,98.0
		L517.1,98.6 L517.7,98.6 L518.3,95.3 L519.0,95.2 L519.6,93.0 L520.2,95.0 L520.8,94.0 L521.4,95.3
		L522.0,95.8 L522.6,93.1 L523.2,93.9 L523.8,93.9 L524.5,97.4 L525.1,96.4 L525.7,96.4 L526.3,95.3
		L526.9,98.6 L527.5,98.6 L528.1,99.2 L528.7,100.9 L529.3,99.6 L529.9,97.5 L530.6,97.5 L531.2,93.0
		L531.8,94.9 L532.4,94.9 L533.0,93.8 L533.6,95.5 L534.2,96.2 L534.8,96.2 L535.4,96.1 L536.1,96.4
		L536.7,95.2 L537.3,98.8 L537.9,85.9 L538.5,87.4 L539.1,85.9 L539.7,95.3 L540.3,90.3 L540.9,89.3
		L541.6,89.3 L542.2,91.3 L542.8,93.5 L543.4,97.2 L544.0,95.3 L544.6,94.2 L545.2,95.1 L545.8,96.6
		L546.4,96.9 L547.1,96.9 L547.7,94.6 L548.3,99.3 L548.9,99.5 L549.5,99.4 L550.1,97.6 L550.7,90.8
		L551.3,91.4 L551.9,92.7 L552.5,92.2 L553.2,92.5 L553.8,94.7 L554.4,94.5 L555.0,92.6 L555.6,93.1
		L556.2,93.1 L556.8,94.7 L557.4,95.1 L558.0,91.4 L558.7,89.1 L559.3,89.1 L559.9,89.2 L560.5,88.1
		L561.1,88.4 L561.7,88.4 L562.3,88.4 L562.9,88.4 L563.5,93.6 L564.2,96.4 L564.8,99.6 L565.4,92.4
		L566.0,92.8 L566.6,89.7 L567.2,86.8 L567.8,86.9 L568.4,95.1 L569.0,95.5 L569.7,98.5 L570.3,97.2
		L570.9,95.8 L571.5,95.2 L572.1,95.2 L572.7,93.4 L573.3,96.4 L573.9,96.6 L574.5,96.6 L575.2,97.2
		L575.8,95.5 L576.4,93.0 L577.0,93.0 L577.6,93.0 L578.2,94.5 L578.8,94.5 L579.4,93.9 L580.0,93.9
		L580.6,92.1 L581.3,92.5 L581.9,92.5 L582.5,91.4 L583.1,90.9 L583.7,91.1 L584.3,91.6 L584.9,91.6
		L585.5,91.2 L586.1,90.5 L586.8,91.4 L587.4,92.4 L588.0,92.4 L588.6,96.3 L589.2,96.3 L589.8,92.3
		L590.4,91.9 L591.0,89.1 L591.6,89.1 L592.3,91.0 L592.9,89.1 L593.5,92.5 L594.1,93.1 L594.7,92.3
		L595.3,92.8 L595.9,90.8 L596.5,90.6 L597.1,91.8 L597.8,94.8 L598.4,94.8 L599.0,94.0 L599.6,95.5
		L600.2,99.2 L600.8,94.5 L601.4,94.4 L602.0,95.7 L602.6,96.5 L603.2,94.3 L603.9,94.4 L604.5,93.8
		L605.1,89.0 L605.7,93.0 L606.3,93.2 L606.9,93.0 L607.5,93.0 L608.1,93.0 L608.7,93.5 L609.4,95.2
		L610.0,93.3 L610.6,92.4 L611.2,90.5 L611.8,90.4 L612.4,89.6 L613.0,92.0 L613.6,94.5 L614.2,95.8
		L614.9,95.8 L615.5,95.8 L616.1,93.6 L616.7,96.2 L617.3,95.5 L617.9,88.3 L618.5,90.9 L619.1,90.8
		L619.7,88.8 L620.4,94.1 L621.0,95.8 L621.6,94.0 L622.2,91.0 L622.8,90.3 L623.4,94.4 L624.0,95.3
		L624.6,95.8 L625.2,90.9 L625.8,90.9 L626.5,92.8 L627.1,90.5 L627.7,90.5 L628.3,94.2 L628.9,92.9
		L629.5,90.4 L630.1,86.9 L630.7,86.1 L631.3,93.7 L632.0,93.7 L632.6,94.8 L633.2,92.8 L633.8,96.9
		L634.4,89.8 L635.0,89.8 L635.6,95.8 L636.2,94.1 L636.8,94.8 L637.5,87.5 L638.1,89.3 L638.7,89.6
		L639.3,91.7 L639.9,92.3 L640.5,90.6 L641.1,92.7 L641.7,94.4 L642.3,87.0 L643.0,86.7 L643.6,87.6
		L644.2,90.6 L644.8,92.2 L645.4,87.7 L646.0,86.6 L646.6,93.6 L647.2,92.6 L647.8,92.6 L648.4,92.6
		L649.1,92.6 L649.7,92.5 L650.3,95.7 L650.9,95.7 L651.5,92.6 L652.1,92.4 L652.7,87.0 L653.3,87.0
		L653.9,86.8 L654.6,85.7 L655.2,89.6 L655.8,86.5 L656.4,87.1 L657.0,85.8 L657.6,87.5 L658.2,86.4
		L658.8,85.6 L659.4,85.6 L660.1,85.3 L660.7,85.6 L661.3,94.5 L661.9,95.1 L662.5,92.0 L663.1,92.0
		L663.7,92.6 L664.3,92.9 L664.9,90.5 L665.6,90.5 L666.2,92.8 L666.8,91.1 L667.4,93.8 L668.0,88.1
		L668.6,88.2 L669.2,88.2 L669.8,90.8 L670.4,91.4 L671.1,97.0 L671.7,87.8 L672.3,84.4 L672.9,86.3
		L673.5,93.2 L674.1,85.4 L674.7,93.9 L675.3,93.9 L675.9,91.6 L676.5,91.9 L677.2,90.8 L677.8,89.3
		L678.4,89.3 L679.0,89.4 L679.6,88.0 L680.2,88.0 L680.8,87.7 L681.4,84.2 L682.0,88.1 L682.7,90.4
		L683.3,94.8 L683.9,94.5 L684.5,92.0 L685.1,90.3 L685.7,93.5 L686.3,93.5 L686.9,93.1 L687.5,86.4
		L688.2,90.2 L688.8,90.2 L689.4,92.1 L690.0,89.7 L690.6,89.7 L691.2,89.7 L691.8,89.7 L692.4,89.7
		L693.0,89.7 L693.7,89.6 L694.3,92.1 L694.9,89.5 L695.5,87.2 L696.1,87.2 L696.7,87.4 L697.3,85.5
		L697.9,86.5 L698.5,86.3 L699.1,86.7 L699.8,90.4 L700.4,84.6 L701.0,85.0 L701.6,89.4 L702.2,86.9
		L702.8,85.8 L703.4,86.9 L704.0,89.5 L704.6,88.9 L705.3,86.8 L705.9,91.3 L706.5,92.4 L707.1,88.4
		L707.7,88.4 L708.3,90.5 L708.9,89.9 L709.5,89.6 L710.1,89.3 L710.8,89.5 L711.4,90.0 L712.0,86.8
		L712.6,86.5 L713.2,87.3 L713.8,91.0 L714.4,89.1 L715.0,89.3 L715.6,87.2 L716.3,85.7 L716.9,85.4
		L717.5,85.8 L718.1,85.8 L718.7,85.8 L719.3,85.8 L719.9,86.0 L720.5,86.0 L721.1,86.0 L721.7,83.3
		L722.4,83.3 L723.0,85.1 L723.6,85.1 L724.2,85.1 L724.8,79.8 L725.4,83.0 L726.0,80.4 L726.6,80.4
		L727.2,84.4 L727.9,84.4 L728.5,82.4 L729.1,82.4 L729.7,82.4 L730.3,82.1 L730.9,82.1 L731.5,82.1
		L732.1,83.9 L732.7,85.4 L733.4,82.6 L734.0,82.6 L734.6,82.6 L735.2,82.6 L735.8,82.6 L736.4,82.6
		L737.0,82.6 L737.6,82.6 L738.2,82.6 L738.9,83.1 L739.5,83.1 L740.1,83.7 L740.7,83.7 L741.3,83.7
		L741.9,87.9 L742.5,88.0 L743.1,86.2 L743.7,86.3 L744.3,85.4 L745.0,85.4 L745.6,86.7 L746.2,86.2
		L746.8,87.2 L747.4,83.3 L748.0,83.9 L748.6,84.5 L749.2,88.5 L749.8,88.5 L750.5,89.4 L751.1,88.8
		L751.7,88.8 L752.3,82.9 L752.9,88.4 L753.5,86.3 L754.1,85.8 L754.7,85.8 L755.3,85.8 L756.0,83.9
		L756.6,84.2 L757.2,84.2 L757.8,84.4 L758.4,84.8 L759.0,85.9 L759.6,85.9 L760.2,85.9 L760.8,87.5
		L761.5,88.3 L762.1,88.3 L762.7,86.1 L763.3,89.6 L763.9,87.1 L764.5,84.3 L765.1,85.9 L765.7,91.7
		L766.3,88.5 L766.9,88.2 L767.6,88.2 L768.2,91.6 L768.8,86.1 L769.4,86.1 L770.0,88.6 L770.6,87.1
		L771.2,84.4 L771.8,84.4 L772.4,83.5 L773.1,85.4 L773.7,85.7 L774.3,85.7 L774.9,85.7 L775.5,84.4
		L776.1,89.2 L776.7,89.2 L777.3,88.5 L777.9,85.7 L778.6,88.5 L779.2,86.6 L779.8,86.9 L780.4,83.0
		L781.0,83.0 L781.6,83.0 L782.2,85.0 L782.8,83.9 L783.4,82.3 L784.1,82.3 L784.7,82.4 L785.3,82.2
		L785.9,82.8 L786.5,82.8 L787.1,83.5 L787.7,88.4 L788.3,87.5 L788.9,84.5 L789.6,85.7 L790.2,86.8
		L790.8,87.5 L791.4,87.5 L792.0,85.9 L792.6,85.3 L793.2,84.3 L793.8,85.3 L794.4,85.5 L795.0,79.9
		L795.7,77.7 L796.3,77.2 L796.9,77.4 L797.5,77.4 L798.1,78.2 L798.7,78.2 L799.3,79.9 L799.9,78.5
		L800.5,81.5 L801.2,81.5 L801.8,77.8 L802.4,80.3 L803.0,80.3 L803.6,80.3 L804.2,80.3 L804.8,80.3
		L805.4,83.4 L806.0,83.4 L806.7,78.7 L807.3,79.1 L807.9,79.1 L808.5,81.6 L809.1,79.9 L809.7,78.9
		L810.3,78.8 L810.9,78.8 L811.5,78.8 L812.2,78.8 L812.8,81.5 L813.4,80.5 L814.0,80.5 L814.6,83.8
		L815.2,82.1 L815.8,81.7 L816.4,80.4 L817.0,80.4 L817.6,81.8 L818.3,80.0 L818.9,77.3 L819.5,77.1
		L820.1,80.1 L820.7,80.1 L821.3,79.5 L821.9,79.5 L822.5,80.3 L823.1,79.2 L823.8,79.1 L824.4,79.1
		L825.0,79.1 L825.6,79.1 L826.2,79.2 L826.8,79.0 L827.4,78.8 L828.0,77.9 L828.6,77.9 L829.3,77.9
		L829.9,78.5 L830.5,78.5 L831.1,78.5 L831.7,78.5 L832.3,78.8 L832.9,79.9 L833.5,76.5 L834.1,76.9
		L834.8,76.5 L835.4,76.5 L836.0,75.7 L836.6,75.7 L837.2,76.0 L837.8,76.1 L838.4,76.1 L839.0,79.4
		L839.6,80.0 L840.2,80.0 L840.9,80.0 L841.5,79.1 L842.1,79.1 L842.7,77.3 L843.3,77.3 L843.9,82.3
		L844.5,82.2 L845.1,77.7 L845.7,79.6 L846.4,79.6 L847.0,80.7 L847.6,78.7 L848.2,78.7 L848.8,78.7
		L849.4,79.3 L850.0,79.5 L850.6,72.9 L851.2,72.9 L851.9,78.7 L852.5,78.0 L853.1,77.2 L853.7,77.2
		L854.3,79.7 L854.9,79.5 L855.5,79.6 L856.1,78.5 L856.7,76.8 L857.4,80.6 L858.0,80.6 L858.6,77.4
		L859.2,77.4 L859.8,77.4 L860.4,78.6 L861.0,80.3 L861.6,80.3 L862.2,80.0 L862.8,80.6 L863.5,80.6
		L864.1,79.3 L864.7,78.0 L865.3,78.7 L865.9,78.7 L866.5,78.7 L867.1,78.7 L867.7,78.7 L868.3,78.9
		L869.0,78.9 L869.6,78.5 L870.2,78.5 L870.8,78.5 L871.4,77.6 L872.0,77.6 L872.6,80.3 L873.2,81.2
		L873.8,76.8 L874.5,77.5 L875.1,77.5 L875.7,77.6 L876.3,78.4 L876.9,78.6 L877.5,76.4 L878.1,76.4
		L878.7,76.4 L879.3,75.0 L880.0,74.9 L880.6,79.1 L881.2,76.7 L881.8,78.2 L882.4,78.4 L883.0,80.4
		L883.6,76.7 L884.2,81.5 L884.8,76.2 L885.5,75.7 L886.1,75.9 L886.7,76.7 L887.3,77.8 L887.9,77.8
		L888.5,78.2 L889.1,80.9 L889.7,78.3 L890.3,79.0 L890.9,80.9 L891.6,80.2 L892.2,78.3 L892.8,84.0
		L893.4,82.0 L894.0,80.4 L894.6,81.3 L895.2,81.3 L895.8,81.7 L896.4,81.5 L897.1,82.5 L897.7,82.8
		L898.3,81.1 L898.9,81.0 L899.5,81.0 L900.1,81.0 L900.7,76.3 L901.3,81.6 L901.9,76.7 L902.6,76.2
		L903.2,83.6 L903.8,75.4 L904.4,77.8 L905.0,77.8 L905.6,78.3 L906.2,77.7 L906.8,78.0 L907.4,75.7
		L908.1,74.5 L908.7,75.9 L909.3,75.4 L909.9,78.7 L910.5,75.9 L911.1,74.4 L911.7,79.4 L912.3,79.7
		L912.9,78.0 L913.5,75.8 L914.2,80.3 L914.8,80.5 L915.4,79.3 L916.0,79.6 L916.6,76.6 L917.2,79.7
		L917.8,75.0 L918.4,79.8 L919.0,80.4 L919.7,80.4 L920.3,77.9 L920.9,80.6 L921.5,80.7 L922.1,81.1
		L922.7,72.4 L923.3,72.4 L923.9,72.4 L924.5,71.1 L925.2,71.1 L925.8,71.2 L926.4,71.2 L927.0,73.2
		L927.6,79.1 L928.2,75.2 L928.8,75.2 L929.4,75.2 L930.0,74.0 L930.7,74.5 L931.3,74.5 L931.9,69.5
		L932.5,75.6 L933.1,75.6 L933.7,75.9 L934.3,75.9 L934.9,78.3 L935.5,77.5 L936.1,76.1 L936.8,77.4
		L937.4,77.4 L938.0,73.3 L938.6,75.5 L939.2,77.0 L939.8,78.2 L940.4,76.5 L941.0,79.1 L941.6,75.6
		L942.3,75.3 L942.9,78.3 L943.5,75.7 L944.1,75.7 L944.7,77.3 L945.3,77.3 L945.9,77.8 L946.5,77.8
		L947.1,79.0 L947.8,79.0 L948.4,74.3 L949.0,73.6 L949.6,73.7 L950.2,74.5 L950.8,74.6 L951.4,79.1
		L952.0,75.5 L952.6,75.5 L953.3,75.5 L953.9,75.3 L954.5,71.9 L955.1,75.5 L955.7,75.5 L956.3,79.1
		L956.9,79.1 L957.5,77.4 L958.1,71.4 L958.7,71.6 L959.4,71.7 L960.0,71.7 L960.6,72.3 L961.2,77.6
		L961.8,76.1 L962.4,78.5 L963.0,74.1 L963.6,74.5 L964.2,74.7 L964.9,74.2 L965.5,75.2 L966.1,76.6
		L966.7,76.2 L967.3,78.5 L967.9,78.5 L968.5,78.5 L969.1,78.5 L969.7,71.4 L970.4,71.2 L971.0,73.1
		L971.6,70.3 L972.2,70.3 L972.8,73.6 L973.4,73.8 L974.0,73.8 L974.6,73.6 L975.2,73.6 L975.9,74.1
		L976.5,74.1 L977.1,75.9 L977.7,77.6 L978.3,68.3 L978.9,72.9 L979.5,72.9 L980.1,71.8 L980.7,77.4
		L981.3,76.1 L982.0,75.9 L982.6,75.6 L983.2,76.5 L983.8,77.7 L984.4,75.3 L985.0,73.3 L985.6,78.1
		L986.2,73.9 L986.8,74.7 L987.5,70.7 L988.1,76.8 L988.7,74.2 L989.3,78.4 L989.9,76.3 L990.5,76.4
		L991.1,77.9 L991.7,73.3 L992.3,67.4 L993.0,67.4 L993.6,68.1 L994.2,73.1 L994.8,73.2 L995.4,69.7
		L996.0,78.4 L996.6,75.7 L997.2,72.8 L997.8,77.7 L998.5,77.7 L999.1,74.8 L999.7,76.5 L1000.3,75.3
		L1000.9,74.7 L1001.5,69.7 L1002.1,75.6 L1002.7,75.6 L1003.3,75.6 L1004.0,76.8 L1004.6,76.8 L1005.2,76.8
		L1005.8,76.8 L1006.4,77.5 L1007.0,79.2 L1007.6,79.5 L1008.2,79.4 L1008.8,79.4 L1009.4,73.3 L1010.1,73.3
		L1010.7,75.1 L1011.3,75.1 L1011.9,74.4 L1012.5,74.0 L1013.1,73.9 L1013.7,73.9 L1014.3,70.7 L1014.9,71.7
		L1015.6,70.3 L1016.2,69.8 L1016.8,70.5 L1017.4,71.5 L1018.0,67.9 L1018.6,67.9 L1019.2,68.2 L1019.8,70.8
		L1020.4,70.7 L1021.1,71.9 L1021.7,71.1 L1022.3,71.1 L1022.9,68.1 L1023.5,73.9 L1024.1,75.4 L1024.7,75.2
		L1025.3,74.8 L1025.9,75.3 L1026.6,76.3 L1027.2,77.4 L1027.8,73.6 L1028.4,71.8 L1029.0,73.6 L1029.6,75.3
		L1030.2,75.3 L1030.8,75.1 L1031.4,72.8 L1032.0,73.1 L1032.7,73.1 L1033.3,73.1 L1033.9,71.2 L1034.5,71.2
		L1035.1,71.2 L1035.7,71.5 L1036.3,71.5 L1036.9,71.9 L1037.5,71.9 L1038.2,72.9 L1038.8,72.9 L1039.4,72.9
		L1040.0,71.9 L1040.6,71.9 L1041.2,71.9 L1041.8,72.9 L1042.4,72.1 L1043.0,71.7 L1043.7,71.7 L1044.3,71.7
		L1044.9,71.5 L1045.5,71.7 L1046.1,68.3 L1046.7,68.3 L1047.3,68.3 L1047.9,69.7 L1048.5,69.9 L1049.2,69.2
		L1049.8,69.4 L1050.4,69.4 L1051.0,68.2 L1051.6,68.2 L1052.2,73.9 L1052.8,73.9 L1053.4,73.1 L1054.0,70.6
		L1054.6,68.9 L1055.3,68.7 L1055.9,70.1 L1056.5,72.6 L1057.1,67.8 L1057.7,65.6 L1058.3,73.4 L1058.9,73.4
		L1059.5,72.9 L1060.1,73.4 L1060.8,73.4 L1061.4,76.4 L1062.0,72.3 L1062.6,72.3 L1063.2,72.7 L1063.8,75.4
		L1064.4,75.4 L1065.0,74.4 L1065.6,74.6 L1066.3,74.6 L1066.9,71.4 L1067.5,74.0 L1068.1,71.6 L1068.7,70.4
		L1069.3,70.5 L1069.9,73.2 L1070.5,73.2 L1071.1,69.5 L1071.8,73.0 L1072.4,74.0 L1073.0,70.2 L1073.6,70.2
		L1074.2,67.9 L1074.8,67.5 L1075.4,64.7 L1076.0,71.8 L1076.6,71.8 L1077.2,73.7 L1077.9,73.7 L1078.5,72.5
		L1079.1,72.0 L1079.7,74.0 L1080.3,73.7 L1080.9,73.3 L1081.5,70.8 L1082.1,73.3 L1082.7,73.3 L1083.4,75.2
		L1084.0,72.6 L1084.6,69.0 L1085.2,70.8 L1085.8,70.1 L1086.4,69.4 L1087.0,69.2 L1087.6,72.3 L1088.2,72.3
		L1088.9,72.3 L1089.5,73.6 L1090.1,73.0 L1090.7,71.8 L1091.3,71.8 L1091.9,75.0 L1092.5,70.9 L1093.1,68.9
		L1093.7,70.2 L1094.4,70.2 L1095.0,70.2 L1095.6,70.2 L1096.2,69.7 L1096.8,69.7 L1097.4,69.7 L1098.0,66.3
		L1098.6,66.9 L1099.2,67.0 L1099.9,65.9 L1100.5,65.9 L1101.1,65.2 L1101.7,67.6 L1102.3,67.6 L1102.9,67.6
		L1103.5,67.6 L1104.1,67.5 L1104.7,70.0 L1105.3,69.5 L1106.0,69.5 L1106.6,67.2 L1107.2,69.9 L1107.8,69.9
		L1108.4,69.9 L1109.0,69.8 L1109.6,69.8 L1110.2,69.7 L1110.8,69.7 L1111.5,69.6 L1112.1,69.8 L1112.7,70.2
		L1113.3,70.2 L1113.9,70.2 L1114.5,71.4 L1115.1,68.2 L1115.7,71.0 L1116.3,71.0 L1117.0,73.1 L1117.6,73.5
		L1118.2,72.1 L1118.8,69.9 L1119.4,73.2 L1120.0,70.2 L1120.6,71.0 L1121.2,69.5 L1121.8,73.3 L1122.5,70.1
		L1123.1,68.9 L1123.7,68.9 L1124.3,68.9 L1124.9,70.4 L1125.5,71.7 L1126.1,71.2 L1126.7,68.9 L1127.3,68.8
		L1127.9,71.4 L1128.6,71.4 L1129.2,68.1 L1129.8,66.0 L1130.4,65.9 L1131.0,66.5 L1131.6,66.5 L1132.2,68.9
		L1132.8,61.7 L1133.4,68.2 L1134.1,66.8 L1134.7,66.6 L1135.3,66.6 L1135.9,66.6 L1136.5,65.6 L1137.1,65.6
		L1137.7,65.8 L1138.3,65.8 L1138.9,65.4 L1139.6,65.4 L1140.2,63.1 L1140.8,61.8 L1141.4,61.8 L1142.0,61.8
		L1142.6,61.8 L1143.2,58.0 L1143.8,58.0 L1144.4,58.0 L1145.1,56.4 L1145.7,57.3 L1146.3,57.3 L1146.9,57.4
		L1147.5,57.4 L1148.1,55.2 L1148.7,55.2 L1149.3,54.1 L1149.9,54.1 L1150.5,56.2 L1151.2,62.5 L1151.8,62.6
		L1152.4,63.9 L1153.0,63.9 L1153.6,63.8 L1154.2,61.8 L1154.8,61.8 L1155.4,61.5 L1156.0,61.5 L1156.7,61.5
		L1157.3,61.3 L1157.9,61.3 L1158.5,63.4 L1159.1,57.0 L1159.7,59.1 L1160.3,61.3 L1160.9,59.1 L1161.5,57.8
		L1162.2,57.8 L1162.8,57.8 L1163.4,63.1 L1164.0,63.1 L1164.6,63.1 L1165.2,65.7 L1165.8,65.7 L1166.4,65.7
		L1167.0,64.6 L1167.7,67.4 L1168.3,66.6 L1168.9,65.2 L1169.5,66.6 L1170.1,67.7 L1170.7,67.3 L1171.3,67.5
		L1171.9,65.6 L1172.5,66.7 L1173.1,66.6 L1173.8,66.0 L1174.4,64.5 L1175.0,63.8 L1175.6,64.0 L1176.2,64.7
		L1176.8,64.7 L1177.4,64.4 L1178.0,67.2 L1178.6,69.3 L1179.3,70.1 L1179.9,67.5 L1180.5,67.0 L1181.1,67.1
		L1181.7,67.2 L1182.3,67.2 L1182.9,67.0 L1183.5,70.0 L1184.1,66.5 L1184.8,66.5 L1185.4,66.5 L1186.0,66.5
		L1186.6,66.5 L1187.2,66.5 L1187.8,66.5 L1188.4,66.5 L1189.0,66.2 L1189.6,66.2 L1190.3,67.2 L1190.9,66.1
		L1191.5,67.3 L1192.1,64.6 L1192.7,64.6 L1193.3,64.6 L1193.9,68.3 L1194.5,58.4 L1195.1,63.3 L1195.7,64.7
		L1196.4,61.9 L1197.0,61.9 L1197.6,64.0 L1198.2,64.0 L1198.8,64.0 L1199.4,67.0 L1200.0,66.0 L1200.6,62.8
		L1201.2,57.9 L1201.9,58.9 L1202.5,58.1 L1203.1,57.8 L1203.7,57.8 L1204.3,57.9 L1204.9,59.2 L1205.5,59.2
		L1206.1,60.9 L1206.7,59.8 L1207.4,59.7 L1208.0,59.7 L1208.6,59.7 L1209.2,57.7 L1209.8,57.7 L1210.4,57.7
		L1211.0,57.5 L1211.6,64.6 L1212.2,64.3 L1212.9,64.3 L1213.5,63.7 L1214.1,63.7 L1214.7,63.7 L1215.3,65.7
		L1215.9,65.6 L1216.5,64.8 L1217.1,62.3 L1217.7,62.3 L1218.4,62.3 L1219.0,61.9 L1219.6,61.9 L1220.2,58.7
		L1220.8,58.7 L1221.4,58.7 L1222.0,65.8 L1222.6,64.2 L1223.2,65.7 L1223.8,65.7 L1224.5,65.9 L1225.1,65.4
		L1225.7,65.4 L1226.3,66.3 L1226.9,58.8 L1227.5,58.8 L1228.1,58.8 L1228.7,58.3 L1229.3,63.1 L1230.0,63.1
		L1230.6,60.5 L1231.2,65.2 L1231.8,64.2 L1232.4,61.0 L1233.0,61.0 L1233.6,61.0 L1234.2,62.9 L1234.8,60.7
		L1235.5,60.7 L1236.1,61.0 L1236.7,63.7 L1237.3,63.7 L1237.9,63.7 L1238.5,62.6 L1239.1,61.0 L1239.7,59.9
		L1240.3,60.5 L1241.0,57.9 L1241.6,61.7 L1242.2,59.2 L1242.8,57.4 L1243.4,57.4 L1244.0,57.4 L1244.6,57.4
		L1245.2,57.4 L1245.8,57.4 L1246.4,59.7 L1247.1,62.4 L1247.7,58.8 L1248.3,60.7 L1248.9,59.7 L1249.5,58.2
		L1250.1,56.5 L1250.7,61.7 L1251.3,59.4 L1251.9,59.1 L1252.6,59.1 L1253.2,63.7 L1253.8,65.8 L1254.4,65.8
		L1255.0,60.7  '/></g>
	</g>
	<g id="gnuplot_plot_2" ><title>trendline (m=0.029090,b=1237.576367)</title>
<g fill="none" color="black" stroke="currentColor" stroke-width="1.00" stroke-linecap="butt" stroke-linejoin="miter">
	<g transform="translate(1187.9,94.0)" stroke="none" fill="black" font-family="Arial" font-size="12.00"  text-anchor="end">
		<text><tspan font-family="Arial" >trendline (m=0.029090,b=1237.576367)</tspan></text>
	</g>
</g>
<g fill="none" color="black" stroke="currentColor" stroke-width="1.00" stroke-linecap="butt" stroke-linejoin="miter">
	<path stroke='black'  d='M1196.2,90.1 L1238.4,90.1 M87.1,151.3 L98.9,150.2 L110.7,149.1 L122.5,148.1 L134.3,147.0 L146.1,145.9
		L157.9,144.8 L169.7,143.7 L181.5,142.7 L193.3,141.6 L205.1,140.5 L216.9,139.4 L228.7,138.3 L240.5,137.2
		L252.3,136.2 L264.1,135.1 L275.9,134.0 L287.6,132.9 L299.4,131.8 L311.2,130.7 L323.0,129.7 L334.8,128.6
		L346.6,127.5 L358.4,126.4 L370.2,125.3 L382.0,124.2 L393.8,123.2 L405.6,122.1 L417.4,121.0 L429.2,119.9
		L441.0,118.8 L452.8,117.8 L464.6,116.7 L476.4,115.6 L488.2,114.5 L500.0,113.4 L511.8,112.3 L523.6,111.3
		L535.4,110.2 L547.2,109.1 L559.0,108.0 L570.8,106.9 L582.6,105.8 L594.4,104.8 L606.2,103.7 L618.0,102.6
		L629.8,101.5 L641.6,100.4 L653.4,99.4 L665.2,98.3 L676.9,97.2 L688.7,96.1 L700.5,95.0 L712.3,93.9
		L724.1,92.9 L735.9,91.8 L747.7,90.7 L759.5,89.6 L771.3,88.5 L783.1,87.4 L794.9,86.4 L806.7,85.3
		L818.5,84.2 L830.3,83.1 L842.1,82.0 L853.9,81.0 L865.7,79.9 L877.5,78.8 L889.3,77.7 L901.1,76.6
		L912.9,75.5 L924.7,74.5 L936.5,73.4 L948.3,72.3 L960.1,71.2 L971.9,70.1 L983.7,69.0 L995.5,68.0
		L1007.3,66.9 L1019.1,65.8 L1030.9,64.7 L1042.7,63.6 L1054.5,62.5 L1066.2,61.5 L1078.0,60.4 L1089.8,59.3
		L1101.6,58.2 L1113.4,57.1 L1125.2,56.1 L1137.0,55.0 L1146.5,54.1  '/></g>
	</g>
<g fill="none" color="white" stroke="black" stroke-width="2.00" stroke-linecap="butt" stroke-linejoin="miter">
</g>
<g fill="none" color="black" stroke="currentColor" stroke-width="2.00" stroke-linecap="butt" stroke-linejoin="miter">
</g>
<g fill="none" color="black" stroke="black" stroke-width="1.00" stroke-linecap="butt" stroke-linejoin="miter">
</g>
<g fill="none" color="black" stroke="currentColor" stroke-width="1.00" stroke-linecap="butt" stroke-linejoin="miter">
	<path stroke='black'  d='M87.1,54.1 L87.1,703.4 L1255.0,703.4 L1255.0,54.1 L87.1,54.1 Z  '/></g>
<g fill="none" color="black" stroke="currentColor" stroke-width="1.00" stroke-linecap="butt" stroke-linejoin="miter">
</g>
</g>
</svg>

