<?xml version="1.0" encoding="utf-8"  standalone="no"?>
<svg 
 width="1280" height="720"
 viewBox="0 0 1280 720"
 xmlns="http://www.w3.org/2000/svg"
 xmlns:xlink="http://www.w3.org/1999/xlink"
>

<title>Gnuplot</title>
<desc>Produced by GNUPLOT 5.0 patchlevel 6 </desc>

<g id="gnuplot_canvas">

<rect x="0" y="0" width="1280" height="720" fill="none"/>
<defs>

	<circle id='gpDot' r='0.5' stroke-width='0.5'/>
	<path id='gpPt0' stroke-width='0.222' stroke='currentColor' d='M-1,0 h2 M0,-1 v2'/>
	<path id='gpPt1' stroke-width='0.222' stroke='currentColor' d='M-1,-1 L1,1 M1,-1 L-1,1'/>
	<path id='gpPt2' stroke-width='0.222' stroke='currentColor' d='M-1,0 L1,0 M0,-1 L0,1 M-1,-1 L1,1 M-1,1 L1,-1'/>
	<rect id='gpPt3' stroke-width='0.222' stroke='currentColor' x='-1' y='-1' width='2' height='2'/>
	<rect id='gpPt4' stroke-width='0.222' stroke='currentColor' fill='currentColor' x='-1' y='-1' width='2' height='2'/>
	<circle id='gpPt5' stroke-width='0.222' stroke='currentColor' cx='0' cy='0' r='1'/>
	<use xlink:href='#gpPt5' id='gpPt6' fill='currentColor' stroke='none'/>
	<path id='gpPt7' stroke-width='0.222' stroke='currentColor' d='M0,-1.33 L-1.33,0.67 L1.33,0.67 z'/>
	<use xlink:href='#gpPt7' id='gpPt8' fill='currentColor' stroke='none'/>
	<use xlink:href='#gpPt7' id='gpPt9' stroke='currentColor' transform='rotate(180)'/>
	<use xlink:href='#gpPt9' id='gpPt10' fill='currentColor' stroke='none'/>
	<use xlink:href='#gpPt3' id='gpPt11' stroke='currentColor' transform='rotate(45)'/>
	<use xlink:href='#gpPt11' id='gpPt12' fill='currentColor' stroke='none'/>
	<path id='gpPt13' stroke-width='0.222' stroke='currentColor' d='M0,1.330 L1.265,0.411 L0.782,-1.067 L-0.782,-1.076 L-1.265,0.411 z'/>
	<use xlink:href='#gpPt13' id='gpPt14' fill='currentColor' stroke='none'/>
	<filter id='textbox' filterUnits='objectBoundingBox' x='0' y='0' height='1' width='1'>
	  <feFlood flood-color='white' flood-opacity='1' result='bgnd'/>
	  <feComposite in='SourceGraphic' in2='bgnd' operator='atop'/>
	</filter>
	<filter id='greybox' filterUnits='objectBoundingBox' x='0' y='0' height='1' width='1'>
	  <feFlood flood-color='lightgrey' flood-opacity='1' result='grey'/>
	  <feComposite in='SourceGraphic' in2='grey' operator='atop'/>
	</filter>
</defs>
<g fill="none" color="white" stroke="currentColor" stroke-width="1.00" stroke-linecap="butt" stroke-linejoin="miter">
</g>
<g fill="none" color="black" stroke="currentColor" stroke-width="1.00" stroke-linecap="butt" stroke-linejoin="miter">
	<path stroke='black'  d='M87.1,703.4 L96.1,703.4 M1255.0,703.4 L1246.0,703.4  '/>	<g transform="translate(78.8,707.3)" stroke="none" fill="black" font-family="Arial" font-size="12.00"  text-anchor="end">
		<text><tspan font-family="Arial" > 276.472</tspan></text>
	</g>
</g>
<g fill="none" color="black" stroke="currentColor" stroke-width="1.00" stroke-linecap="butt" stroke-linejoin="miter">
	<path stroke='black'  d='M87.1,374.4 L96.1,374.4 M1255.0,374.4 L1246.0,374.4  '/>	<g transform="translate(78.8,378.3)" stroke="none" fill="black" font-family="Arial" font-size="12.00"  text-anchor="end">
		<text><tspan font-family="Arial" > 277.181</tspan></text>
	</g>
</g>
<g fill="none" color="black" stroke="currentColor" stroke-width="1.00" stroke-linecap="butt" stroke-linejoin="miter">
	<path stroke='black'  d='M87.1,54.1 L96.1,54.1 M1255.0,54.1 L1246.0,54.1  '/>	<g transform="translate(78.8,58.0)" stroke="none" fill="black" font-family="Arial" font-size="12.00"  text-anchor="end">
		<text><tspan font-family="Arial" > 277.871</tspan></text>
	</g>
</g>
<g fill="none" color="black" stroke="currentColor" stroke-width="1.00" stroke-linecap="butt" stroke-linejoin="miter">
</g>
<g fill="none" color="black" stroke="currentColor" stroke-width="1.00" stroke-linecap="butt" stroke-linejoin="miter">
	<path stroke='black'  d='M87.1,54.1 L87.1,703.4 L1255.0,703.4 L1255.0,54.1 L87.1,54.1 Z  '/></g>
<g fill="none" color="black" stroke="currentColor" stroke-width="1.00" stroke-linecap="butt" stroke-linejoin="miter">
	<g transform="translate(671.0,31.0)" stroke="none" fill="black" font-family="Arial" font-size="12.00"  text-anchor="middle">
		<text><tspan font-family="Arial" >Material 25, 2 components</tspan></text>
	</g>
</g>
	<g id="gnuplot_plot_1" ><title>log(likelihood)</title>
<g fill="none" color="black" stroke="currentColor" stroke-width="1.00" stroke-linecap="butt" stroke-linejoin="miter">
	<g transform="translate(1187.9,76.0)" stroke="none" fill="black" font-family="Arial" font-size="12.00"  text-anchor="end">
		<text><tspan font-family="Arial" >log(likelihood)</tspan></text>
	</g>
</g>
<g fill="none" color="black" stroke="currentColor" stroke-width="1.00" stroke-linecap="butt" stroke-linejoin="miter">
	<g stroke='none' shape-rendering='crispEdges'>
		<polygon fill = 'rgb(148,   0, 211)' fill-opacity = '0.100000' points = '1196.2,76.6 1238.4,76.6 1238.4,67.6 1196.2,67.6 '/>
	</g>
	<path stroke='rgb(148,   0, 211)'  d='M1196.2,76.6 L1238.4,76.6 L1238.4,67.6 L1196.2,67.6 L1196.2,76.6 Z  '/></g>
<g fill="none" color="black" stroke="currentColor" stroke-width="1.00" stroke-linecap="butt" stroke-linejoin="miter">
	<g stroke='none' shape-rendering='crispEdges'>
		<polygon fill = 'rgb(148,   0, 211)' fill-opacity = '0.100000' points = '87.1,86.1 96.8,273.6 106.6,568.8 116.3,361.8 126.0,463.0 135.8,458.8 145.5,516.4 155.2,319.6 165.0,327.5 174.7,387.3 184.4,168.7 194.2,360.0 203.9,495.9 213.6,212.8 223.4,392.9 233.1,238.8
242.8,605.9 252.6,469.0 262.3,264.8 272.0,157.1 281.8,398.0 291.5,68.5 301.2,176.2 310.9,206.8 320.7,431.0 330.4,241.6 340.1,497.3 349.9,324.7 359.6,409.1 369.3,495.9 379.1,383.6 388.8,250.0
398.5,180.3 408.3,421.7 418.0,313.5 427.7,274.6 437.5,245.8 447.2,345.6 456.9,233.2 466.7,263.9 476.4,484.3 486.1,222.6 495.9,537.7 505.6,422.6 515.3,398.9 525.1,445.8 534.8,379.0 544.5,386.4
554.3,483.9 564.0,535.4 573.7,478.3 583.5,388.3 593.2,631.9 602.9,668.6 612.7,520.1 622.4,334.0 632.1,418.4 641.9,507.1 651.6,402.7 661.3,431.9 671.1,119.5 680.8,120.0 690.5,333.0 700.2,577.2
710.0,405.0 719.7,340.0 729.4,176.6 739.2,566.9 748.9,296.8 758.6,383.6 768.4,282.0 778.1,295.0 787.8,419.8 797.6,313.5 807.3,545.6 817.0,615.2 826.8,205.4 836.5,560.5 846.2,357.2 856.0,367.8
865.7,352.5 875.4,65.2 885.2,54.1 894.9,328.9 904.6,428.2 914.4,310.3 924.1,487.1 933.8,366.0 943.6,279.2 953.3,528.0 963.0,357.6 972.8,356.2 982.5,538.6 992.2,250.0 1002.0,392.0 1011.7,306.6
1021.4,411.9 1031.2,703.4 1040.9,646.8 1050.6,93.5 1060.4,235.6 1070.1,537.7 1079.8,419.8 1089.5,471.8 1099.3,192.4 1109.0,296.4 1118.7,366.5 1128.5,353.9 1138.2,194.7 1147.9,284.8 1157.7,359.0 1167.4,448.6
1177.1,468.6 1186.9,556.3 1196.6,285.2 1206.3,547.5 1216.1,689.0 1225.8,289.4 1235.5,344.6 1245.3,393.4 1255.0,658.4 1255.0,703.4 87.1,703.4 '/>
	</g>
	<path stroke='rgb(148,   0, 211)'  d='M87.1,86.1 L96.8,273.6 L106.6,568.8 L116.3,361.8 L126.0,463.0 L135.8,458.8 L145.5,516.4 L155.2,319.6
		L165.0,327.5 L174.7,387.3 L184.4,168.7 L194.2,360.0 L203.9,495.9 L213.6,212.8 L223.4,392.9 L233.1,238.8
		L242.8,605.9 L252.6,469.0 L262.3,264.8 L272.0,157.1 L281.8,398.0 L291.5,68.5 L301.2,176.2 L310.9,206.8
		L320.7,431.0 L330.4,241.6 L340.1,497.3 L349.9,324.7 L359.6,409.1 L369.3,495.9 L379.1,383.6 L388.8,250.0
		L398.5,180.3 L408.3,421.7 L418.0,313.5 L427.7,274.6 L437.5,245.8 L447.2,345.6 L456.9,233.2 L466.7,263.9
		L476.4,484.3 L486.1,222.6 L495.9,537.7 L505.6,422.6 L515.3,398.9 L525.1,445.8 L534.8,379.0 L544.5,386.4
		L554.3,483.9 L564.0,535.4 L573.7,478.3 L583.5,388.3 L593.2,631.9 L602.9,668.6 L612.7,520.1 L622.4,334.0
		L632.1,418.4 L641.9,507.1 L651.6,402.7 L661.3,431.9 L671.1,119.5 L680.8,120.0 L690.5,333.0 L700.2,577.2
		L710.0,405.0 L719.7,340.0 L729.4,176.6 L739.2,566.9 L748.9,296.8 L758.6,383.6 L768.4,282.0 L778.1,295.0
		L787.8,419.8 L797.6,313.5 L807.3,545.6 L817.0,615.2 L826.8,205.4 L836.5,560.5 L846.2,357.2 L856.0,367.8
		L865.7,352.5 L875.4,65.2 L885.2,54.1 L894.9,328.9 L904.6,428.2 L914.4,310.3 L924.1,487.1 L933.8,366.0
		L943.6,279.2 L953.3,528.0 L963.0,357.6 L972.8,356.2 L982.5,538.6 L992.2,250.0 L1002.0,392.0 L1011.7,306.6
		L1021.4,411.9 L1031.2,703.4 L1040.9,646.8 L1050.6,93.5 L1060.4,235.6 L1070.1,537.7 L1079.8,419.8 L1089.5,471.8
		L1099.3,192.4 L1109.0,296.4 L1118.7,366.5 L1128.5,353.9 L1138.2,194.7 L1147.9,284.8 L1157.7,359.0 L1167.4,448.6
		L1177.1,468.6 L1186.9,556.3 L1196.6,285.2 L1206.3,547.5 L1216.1,689.0 L1225.8,289.4 L1235.5,344.6 L1245.3,393.4
		L1255.0,658.4  '/></g>
	</g>
	<g id="gnuplot_plot_2" ><title>trendline (m=-0.001176,b=277.251511)</title>
<g fill="none" color="black" stroke="currentColor" stroke-width="1.00" stroke-linecap="butt" stroke-linejoin="miter">
	<g transform="translate(1187.9,94.0)" stroke="none" fill="black" font-family="Arial" font-size="12.00"  text-anchor="end">
		<text><tspan font-family="Arial" >trendline (m=-0.001176,b=277.251511)</tspan></text>
	</g>
</g>
<g fill="none" color="black" stroke="currentColor" stroke-width="1.00" stroke-linecap="butt" stroke-linejoin="miter">
	<path stroke='black'  d='M1196.2,90.1 L1238.4,90.1 M87.1,341.6 L98.9,342.3 L110.7,342.9 L122.5,343.6 L134.3,344.3 L146.1,344.9
		L157.9,345.6 L169.7,346.2 L181.5,346.9 L193.3,347.6 L205.1,348.2 L216.9,348.9 L228.7,349.6 L240.5,350.2
		L252.3,350.9 L264.1,351.5 L275.9,352.2 L287.6,352.9 L299.4,353.5 L311.2,354.2 L323.0,354.8 L334.8,355.5
		L346.6,356.2 L358.4,356.8 L370.2,357.5 L382.0,358.2 L393.8,358.8 L405.6,359.5 L417.4,360.1 L429.2,360.8
		L441.0,361.5 L452.8,362.1 L464.6,362.8 L476.4,363.5 L488.2,364.1 L500.0,364.8 L511.8,365.4 L523.6,366.1
		L535.4,366.8 L547.2,367.4 L559.0,368.1 L570.8,368.7 L582.6,369.4 L594.4,370.1 L606.2,370.7 L618.0,371.4
		L629.8,372.1 L641.6,372.7 L653.4,373.4 L665.2,374.0 L676.9,374.7 L688.7,375.4 L700.5,376.0 L712.3,376.7
		L724.1,377.3 L735.9,378.0 L747.7,378.7 L759.5,379.3 L771.3,380.0 L783.1,380.7 L794.9,381.3 L806.7,382.0
		L818.5,382.6 L830.3,383.3 L842.1,384.0 L853.9,384.6 L865.7,385.3 L877.5,385.9 L889.3,386.6 L901.1,387.3
		L912.9,387.9 L924.7,388.6 L936.5,389.3 L948.3,389.9 L960.1,390.6 L971.9,391.2 L983.7,391.9 L995.5,392.6
		L1007.3,393.2 L1019.1,393.9 L1030.9,394.5 L1042.7,395.2 L1054.5,395.9 L1066.2,396.5 L1078.0,397.2 L1089.8,397.9
		L1101.6,398.5 L1113.4,399.2 L1125.2,399.8 L1137.0,400.5 L1148.8,401.2 L1160.6,401.8 L1172.4,402.5 L1184.2,403.2
		L1196.0,403.8 L1207.8,404.5 L1219.6,405.1 L1231.4,405.8 L1243.2,406.5 L1255.0,407.1  '/></g>
	</g>
<g fill="none" color="white" stroke="black" stroke-width="2.00" stroke-linecap="butt" stroke-linejoin="miter">
</g>
<g fill="none" color="black" stroke="currentColor" stroke-width="2.00" stroke-linecap="butt" stroke-linejoin="miter">
</g>
<g fill="none" color="black" stroke="black" stroke-width="1.00" stroke-linecap="butt" stroke-linejoin="miter">
</g>
<g fill="none" color="black" stroke="currentColor" stroke-width="1.00" stroke-linecap="butt" stroke-linejoin="miter">
	<path stroke='black'  d='M87.1,54.1 L87.1,703.4 L1255.0,703.4 L1255.0,54.1 L87.1,54.1 Z  '/></g>
<g fill="none" color="black" stroke="currentColor" stroke-width="1.00" stroke-linecap="butt" stroke-linejoin="miter">
</g>
</g>
</svg>

