<?xml version="1.0" encoding="utf-8"  standalone="no"?>
<svg 
 width="1280" height="720"
 viewBox="0 0 1280 720"
 xmlns="http://www.w3.org/2000/svg"
 xmlns:xlink="http://www.w3.org/1999/xlink"
>

<title>Gnuplot</title>
<desc>Produced by GNUPLOT 5.2 patchlevel 2 </desc>

<g id="gnuplot_canvas">

<rect x="0" y="0" width="1280" height="720" fill="none"/>
<defs>

	<circle id='gpDot' r='0.5' stroke-width='0.5'/>
	<path id='gpPt0' stroke-width='0.222' stroke='currentColor' d='M-1,0 h2 M0,-1 v2'/>
	<path id='gpPt1' stroke-width='0.222' stroke='currentColor' d='M-1,-1 L1,1 M1,-1 L-1,1'/>
	<path id='gpPt2' stroke-width='0.222' stroke='currentColor' d='M-1,0 L1,0 M0,-1 L0,1 M-1,-1 L1,1 M-1,1 L1,-1'/>
	<rect id='gpPt3' stroke-width='0.222' stroke='currentColor' x='-1' y='-1' width='2' height='2'/>
	<rect id='gpPt4' stroke-width='0.222' stroke='currentColor' fill='currentColor' x='-1' y='-1' width='2' height='2'/>
	<circle id='gpPt5' stroke-width='0.222' stroke='currentColor' cx='0' cy='0' r='1'/>
	<use xlink:href='#gpPt5' id='gpPt6' fill='currentColor' stroke='none'/>
	<path id='gpPt7' stroke-width='0.222' stroke='currentColor' d='M0,-1.33 L-1.33,0.67 L1.33,0.67 z'/>
	<use xlink:href='#gpPt7' id='gpPt8' fill='currentColor' stroke='none'/>
	<use xlink:href='#gpPt7' id='gpPt9' stroke='currentColor' transform='rotate(180)'/>
	<use xlink:href='#gpPt9' id='gpPt10' fill='currentColor' stroke='none'/>
	<use xlink:href='#gpPt3' id='gpPt11' stroke='currentColor' transform='rotate(45)'/>
	<use xlink:href='#gpPt11' id='gpPt12' fill='currentColor' stroke='none'/>
	<path id='gpPt13' stroke-width='0.222' stroke='currentColor' d='M0,1.330 L1.265,0.411 L0.782,-1.067 L-0.782,-1.076 L-1.265,0.411 z'/>
	<use xlink:href='#gpPt13' id='gpPt14' fill='currentColor' stroke='none'/>
	<filter id='textbox' filterUnits='objectBoundingBox' x='0' y='0' height='1' width='1'>
	  <feFlood flood-color='white' flood-opacity='1' result='bgnd'/>
	  <feComposite in='SourceGraphic' in2='bgnd' operator='atop'/>
	</filter>
	<filter id='greybox' filterUnits='objectBoundingBox' x='0' y='0' height='1' width='1'>
	  <feFlood flood-color='lightgrey' flood-opacity='1' result='grey'/>
	  <feComposite in='SourceGraphic' in2='grey' operator='atop'/>
	</filter>
</defs>
<g fill="none" color="white" stroke="currentColor" stroke-width="1.00" stroke-linecap="butt" stroke-linejoin="miter">
</g>
<g fill="none" color="black" stroke="currentColor" stroke-width="1.00" stroke-linecap="butt" stroke-linejoin="miter">
	<path stroke='black'  d='M87.1,703.4 L96.1,703.4 M1255.0,703.4 L1246.0,703.4  '/>	<g transform="translate(78.8,707.3)" stroke="none" fill="black" font-family="Arial" font-size="12.00"  text-anchor="end">
		<text><tspan font-family="Arial" > 314.523</tspan></text>
	</g>
</g>
<g fill="none" color="black" stroke="currentColor" stroke-width="1.00" stroke-linecap="butt" stroke-linejoin="miter">
	<path stroke='black'  d='M87.1,311.4 L96.1,311.4 M1255.0,311.4 L1246.0,311.4  '/>	<g transform="translate(78.8,315.3)" stroke="none" fill="black" font-family="Arial" font-size="12.00"  text-anchor="end">
		<text><tspan font-family="Arial" > 315.627</tspan></text>
	</g>
</g>
<g fill="none" color="black" stroke="currentColor" stroke-width="1.00" stroke-linecap="butt" stroke-linejoin="miter">
	<path stroke='black'  d='M87.1,54.1 L96.1,54.1 M1255.0,54.1 L1246.0,54.1  '/>	<g transform="translate(78.8,58.0)" stroke="none" fill="black" font-family="Arial" font-size="12.00"  text-anchor="end">
		<text><tspan font-family="Arial" > 316.352</tspan></text>
	</g>
</g>
<g fill="none" color="black" stroke="currentColor" stroke-width="1.00" stroke-linecap="butt" stroke-linejoin="miter">
</g>
<g fill="none" color="black" stroke="currentColor" stroke-width="1.00" stroke-linecap="butt" stroke-linejoin="miter">
	<path stroke='black'  d='M87.1,54.1 L87.1,703.4 L1255.0,703.4 L1255.0,54.1 L87.1,54.1 Z  '/></g>
<g fill="none" color="black" stroke="currentColor" stroke-width="1.00" stroke-linecap="butt" stroke-linejoin="miter">
	<g transform="translate(671.0,31.0)" stroke="none" fill="black" font-family="Arial" font-size="12.00"  text-anchor="middle">
		<text><tspan font-family="Arial" >Material 23, 2 components</tspan></text>
	</g>
</g>
	<g id="gnuplot_plot_1" ><title>log(likelihood)</title>
<g fill="none" color="black" stroke="currentColor" stroke-width="1.00" stroke-linecap="butt" stroke-linejoin="miter">
	<g transform="translate(1187.9,76.0)" stroke="none" fill="black" font-family="Arial" font-size="12.00"  text-anchor="end">
		<text><tspan font-family="Arial" >log(likelihood)</tspan></text>
	</g>
</g>
<g fill="none" color="black" stroke="currentColor" stroke-width="1.00" stroke-linecap="butt" stroke-linejoin="miter">
	<g stroke='none' shape-rendering='crispEdges'>
		<polygon fill = 'rgb(148,   0, 211)' fill-opacity = '0.100000' points = '1196.2,76.6 1238.4,76.6 1238.4,67.6 1196.2,67.6 '/>
	</g>
	<path stroke='rgb(148,   0, 211)'  d='M1196.2,76.6 L1238.4,76.6 L1238.4,67.6 L1196.2,67.6 L1196.2,76.6 Z  '/></g>
<g fill="none" color="black" stroke="currentColor" stroke-width="1.00" stroke-linecap="butt" stroke-linejoin="miter">
	<g stroke='none' shape-rendering='crispEdges'>
		<polygon fill = 'rgb(148,   0, 211)' fill-opacity = '0.100000' points = '87.1,202.8 96.8,426.9 106.6,198.9 116.3,418.7 126.0,308.3 135.8,276.3 145.5,142.1 155.2,335.3 165.0,519.5 174.7,319.3 184.4,147.1 194.2,397.0 203.9,298.0 213.6,469.5 223.4,290.5 233.1,286.3
242.8,145.0 252.6,389.6 262.3,476.9 272.0,317.9 281.8,280.6 291.5,248.3 301.2,305.8 310.9,243.0 320.7,329.9 330.4,459.9 340.1,305.8 349.9,449.9 359.6,274.6 369.3,208.9 379.1,267.1 388.8,294.1
398.5,157.8 408.3,305.4 418.0,252.2 427.7,333.8 437.5,183.0 447.2,135.0 456.9,247.2 466.7,323.2 476.4,270.3 486.1,428.3 495.9,218.8 505.6,272.4 515.3,382.5 525.1,372.2 534.8,293.4 544.5,703.4
554.3,205.3 564.0,520.2 573.7,245.1 583.5,286.6 593.2,177.3 602.9,422.6 612.7,242.3 622.4,377.5 632.1,188.3 641.9,426.5 651.6,303.3 661.3,295.1 671.1,312.9 680.8,520.9 690.5,311.5 700.2,179.4
710.0,158.1 719.7,380.3 729.4,481.9 739.2,325.0 748.9,447.8 758.6,458.1 768.4,241.5 778.1,188.6 787.8,109.5 797.6,220.6 807.3,170.5 817.0,337.7 826.8,353.7 836.5,217.4 846.2,147.8 856.0,380.0
865.7,214.6 875.4,385.0 885.2,323.9 894.9,54.1 904.6,285.9 914.4,454.9 924.1,380.7 933.8,301.9 943.6,356.6 953.3,188.3 963.0,440.7 972.8,363.7 982.5,247.2 992.2,255.4 1002.0,305.8 1011.7,299.1
1021.4,294.1 1031.2,326.4 1040.9,343.1 1050.6,333.5 1060.4,154.2 1070.1,215.3 1079.8,394.2 1089.5,334.6 1099.3,342.0 1109.0,273.8 1118.7,377.5 1128.5,400.6 1138.2,344.8 1147.9,413.7 1157.7,401.3 1167.4,385.3
1177.1,427.2 1186.9,482.6 1196.6,143.9 1206.3,372.9 1216.1,78.6 1225.8,202.8 1235.5,427.6 1245.3,418.0 1255.0,382.1 1255.0,703.4 87.1,703.4 '/>
	</g>
</g>
	</g>
	<g id="gnuplot_plot_2" ><title>trendline (m=-0.000409,b=315.651900)</title>
<g fill="none" color="black" stroke="currentColor" stroke-width="1.00" stroke-linecap="butt" stroke-linejoin="miter">
	<g transform="translate(1187.9,94.0)" stroke="none" fill="black" font-family="Arial" font-size="12.00"  text-anchor="end">
		<text><tspan font-family="Arial" >trendline (m=-0.000409,b=315.651900)</tspan></text>
	</g>
</g>
<g fill="none" color="black" stroke="currentColor" stroke-width="1.00" stroke-linecap="butt" stroke-linejoin="miter">
	<path stroke='black'  d='M1196.2,90.1 L1238.4,90.1 M87.1,302.6 L98.9,302.8 L110.7,303.0 L122.5,303.2 L134.3,303.3 L146.1,303.5
		L157.9,303.7 L169.7,303.9 L181.5,304.0 L193.3,304.2 L205.1,304.4 L216.9,304.6 L228.7,304.8 L240.5,304.9
		L252.3,305.1 L264.1,305.3 L275.9,305.5 L287.6,305.6 L299.4,305.8 L311.2,306.0 L323.0,306.2 L334.8,306.3
		L346.6,306.5 L358.4,306.7 L370.2,306.9 L382.0,307.0 L393.8,307.2 L405.6,307.4 L417.4,307.6 L429.2,307.7
		L441.0,307.9 L452.8,308.1 L464.6,308.3 L476.4,308.4 L488.2,308.6 L500.0,308.8 L511.8,309.0 L523.6,309.2
		L535.4,309.3 L547.2,309.5 L559.0,309.7 L570.8,309.9 L582.6,310.0 L594.4,310.2 L606.2,310.4 L618.0,310.6
		L629.8,310.7 L641.6,310.9 L653.4,311.1 L665.2,311.3 L676.9,311.4 L688.7,311.6 L700.5,311.8 L712.3,312.0
		L724.1,312.1 L735.9,312.3 L747.7,312.5 L759.5,312.7 L771.3,312.9 L783.1,313.0 L794.9,313.2 L806.7,313.4
		L818.5,313.6 L830.3,313.7 L842.1,313.9 L853.9,314.1 L865.7,314.3 L877.5,314.4 L889.3,314.6 L901.1,314.8
		L912.9,315.0 L924.7,315.1 L936.5,315.3 L948.3,315.5 L960.1,315.7 L971.9,315.8 L983.7,316.0 L995.5,316.2
		L1007.3,316.4 L1019.1,316.5 L1030.9,316.7 L1042.7,316.9 L1054.5,317.1 L1066.2,317.3 L1078.0,317.4 L1089.8,317.6
		L1101.6,317.8 L1113.4,318.0 L1125.2,318.1 L1137.0,318.3 L1148.8,318.5 L1160.6,318.7 L1172.4,318.8 L1184.2,319.0
		L1196.0,319.2 L1207.8,319.4 L1219.6,319.5 L1231.4,319.7 L1243.2,319.9 L1255.0,320.1  '/></g>
	</g>
<g fill="none" color="white" stroke="black" stroke-width="2.00" stroke-linecap="butt" stroke-linejoin="miter">
</g>
<g fill="none" color="black" stroke="currentColor" stroke-width="2.00" stroke-linecap="butt" stroke-linejoin="miter">
</g>
<g fill="none" color="black" stroke="black" stroke-width="1.00" stroke-linecap="butt" stroke-linejoin="miter">
</g>
<g fill="none" color="black" stroke="currentColor" stroke-width="1.00" stroke-linecap="butt" stroke-linejoin="miter">
	<path stroke='black'  d='M87.1,54.1 L87.1,703.4 L1255.0,703.4 L1255.0,54.1 L87.1,54.1 Z  '/></g>
<g fill="none" color="black" stroke="currentColor" stroke-width="1.00" stroke-linecap="butt" stroke-linejoin="miter">
</g>
</g>
</svg>

