<?xml version="1.0" encoding="utf-8"  standalone="no"?>
<svg 
 width="1280" height="720"
 viewBox="0 0 1280 720"
 xmlns="http://www.w3.org/2000/svg"
 xmlns:xlink="http://www.w3.org/1999/xlink"
>

<title>Gnuplot</title>
<desc>Produced by GNUPLOT 5.2 patchlevel 2 </desc>

<g id="gnuplot_canvas">

<rect x="0" y="0" width="1280" height="720" fill="none"/>
<defs>

	<circle id='gpDot' r='0.5' stroke-width='0.5'/>
	<path id='gpPt0' stroke-width='0.222' stroke='currentColor' d='M-1,0 h2 M0,-1 v2'/>
	<path id='gpPt1' stroke-width='0.222' stroke='currentColor' d='M-1,-1 L1,1 M1,-1 L-1,1'/>
	<path id='gpPt2' stroke-width='0.222' stroke='currentColor' d='M-1,0 L1,0 M0,-1 L0,1 M-1,-1 L1,1 M-1,1 L1,-1'/>
	<rect id='gpPt3' stroke-width='0.222' stroke='currentColor' x='-1' y='-1' width='2' height='2'/>
	<rect id='gpPt4' stroke-width='0.222' stroke='currentColor' fill='currentColor' x='-1' y='-1' width='2' height='2'/>
	<circle id='gpPt5' stroke-width='0.222' stroke='currentColor' cx='0' cy='0' r='1'/>
	<use xlink:href='#gpPt5' id='gpPt6' fill='currentColor' stroke='none'/>
	<path id='gpPt7' stroke-width='0.222' stroke='currentColor' d='M0,-1.33 L-1.33,0.67 L1.33,0.67 z'/>
	<use xlink:href='#gpPt7' id='gpPt8' fill='currentColor' stroke='none'/>
	<use xlink:href='#gpPt7' id='gpPt9' stroke='currentColor' transform='rotate(180)'/>
	<use xlink:href='#gpPt9' id='gpPt10' fill='currentColor' stroke='none'/>
	<use xlink:href='#gpPt3' id='gpPt11' stroke='currentColor' transform='rotate(45)'/>
	<use xlink:href='#gpPt11' id='gpPt12' fill='currentColor' stroke='none'/>
	<path id='gpPt13' stroke-width='0.222' stroke='currentColor' d='M0,1.330 L1.265,0.411 L0.782,-1.067 L-0.782,-1.076 L-1.265,0.411 z'/>
	<use xlink:href='#gpPt13' id='gpPt14' fill='currentColor' stroke='none'/>
	<filter id='textbox' filterUnits='objectBoundingBox' x='0' y='0' height='1' width='1'>
	  <feFlood flood-color='white' flood-opacity='1' result='bgnd'/>
	  <feComposite in='SourceGraphic' in2='bgnd' operator='atop'/>
	</filter>
	<filter id='greybox' filterUnits='objectBoundingBox' x='0' y='0' height='1' width='1'>
	  <feFlood flood-color='lightgrey' flood-opacity='1' result='grey'/>
	  <feComposite in='SourceGraphic' in2='grey' operator='atop'/>
	</filter>
</defs>
<g fill="none" color="white" stroke="currentColor" stroke-width="1.00" stroke-linecap="butt" stroke-linejoin="miter">
</g>
<g fill="none" color="black" stroke="currentColor" stroke-width="1.00" stroke-linecap="butt" stroke-linejoin="miter">
	<path stroke='black'  d='M87.1,703.4 L96.1,703.4 M1255.0,703.4 L1246.0,703.4  '/>	<g transform="translate(78.8,707.3)" stroke="none" fill="black" font-family="Arial" font-size="12.00"  text-anchor="end">
		<text><tspan font-family="Arial" > 323.281</tspan></text>
	</g>
</g>
<g fill="none" color="black" stroke="currentColor" stroke-width="1.00" stroke-linecap="butt" stroke-linejoin="miter">
	<path stroke='black'  d='M87.1,67.5 L96.1,67.5 M1255.0,67.5 L1246.0,67.5  '/>	<g transform="translate(78.8,71.4)" stroke="none" fill="black" font-family="Arial" font-size="12.00"  text-anchor="end">
		<text><tspan font-family="Arial" > 536.138</tspan></text>
	</g>
</g>
<g fill="none" color="black" stroke="currentColor" stroke-width="1.00" stroke-linecap="butt" stroke-linejoin="miter">
	<path stroke='black'  d='M87.1,54.1 L96.1,54.1 M1255.0,54.1 L1246.0,54.1  '/>	<g transform="translate(78.8,58.0)" stroke="none" fill="black" font-family="Arial" font-size="12.00"  text-anchor="end">
		<text><tspan font-family="Arial" > 540.639</tspan></text>
	</g>
</g>
<g fill="none" color="black" stroke="currentColor" stroke-width="1.00" stroke-linecap="butt" stroke-linejoin="miter">
</g>
<g fill="none" color="black" stroke="currentColor" stroke-width="1.00" stroke-linecap="butt" stroke-linejoin="miter">
	<path stroke='black'  d='M87.1,54.1 L87.1,703.4 L1255.0,703.4 L1255.0,54.1 L87.1,54.1 Z  '/></g>
<g fill="none" color="black" stroke="currentColor" stroke-width="1.00" stroke-linecap="butt" stroke-linejoin="miter">
	<g transform="translate(671.0,31.0)" stroke="none" fill="black" font-family="Arial" font-size="12.00"  text-anchor="middle">
		<text><tspan font-family="Arial" >Material 47, 4 components</tspan></text>
	</g>
</g>
	<g id="gnuplot_plot_1" ><title>log(likelihood)</title>
<g fill="none" color="black" stroke="currentColor" stroke-width="1.00" stroke-linecap="butt" stroke-linejoin="miter">
	<g transform="translate(1187.9,76.0)" stroke="none" fill="black" font-family="Arial" font-size="12.00"  text-anchor="end">
		<text><tspan font-family="Arial" >log(likelihood)</tspan></text>
	</g>
</g>
<g fill="none" color="black" stroke="currentColor" stroke-width="1.00" stroke-linecap="butt" stroke-linejoin="miter">
	<g stroke='none' shape-rendering='crispEdges'>
		<polygon fill = 'rgb(148,   0, 211)' fill-opacity = '0.100000' points = '1196.2,76.6 1238.4,76.6 1238.4,67.6 1196.2,67.6 '/>
	</g>
	<path stroke='rgb(148,   0, 211)'  d='M1196.2,76.6 L1238.4,76.6 L1238.4,67.6 L1196.2,67.6 L1196.2,76.6 Z  '/></g>
<g fill="none" color="black" stroke="currentColor" stroke-width="1.00" stroke-linecap="butt" stroke-linejoin="miter">
	<g stroke='none' shape-rendering='crispEdges'>
		<polygon fill = 'rgb(148,   0, 211)' fill-opacity = '0.100000' points = '87.1,703.4 89.5,626.6 92.0,607.1 94.4,557.4 96.9,468.5 99.3,436.6 101.8,345.2 104.2,263.1 106.6,217.3 109.1,189.2 111.5,152.0 114.0,122.0 116.4,121.9 118.9,101.1 121.3,96.5 123.7,82.5
126.2,77.5 128.6,70.4 131.1,72.8 133.5,71.0 136.0,65.5 138.4,62.1 140.9,63.5 143.3,61.9 145.7,62.2 148.2,61.6 150.6,63.1 153.1,63.4 155.5,60.2 158.0,58.7 160.4,58.6 162.8,60.7
165.3,60.4 167.7,59.3 170.2,59.4 172.6,60.0 175.1,60.8 177.5,57.5 179.9,59.7 182.4,58.3 184.8,56.2 187.3,58.8 189.7,58.2 192.2,56.4 194.6,59.3 197.0,57.7 199.5,60.5 201.9,59.9
204.4,56.6 206.8,57.3 209.3,58.6 211.7,60.6 214.2,58.4 216.6,60.2 219.0,59.4 221.5,62.8 223.9,59.8 226.4,57.6 228.8,59.4 231.3,60.4 233.7,59.3 236.1,59.8 238.6,59.0 241.0,60.0
243.5,59.6 245.9,62.4 248.4,57.0 250.8,56.5 253.2,58.3 255.7,57.6 258.1,57.6 260.6,56.8 263.0,54.8 265.5,55.4 267.9,55.9 270.3,58.8 272.8,57.5 275.2,60.9 277.7,57.3 280.1,56.7
282.6,56.9 285.0,58.2 287.5,61.8 289.9,60.1 292.3,60.2 294.8,60.3 297.2,58.5 299.7,59.4 302.1,61.1 304.6,58.4 307.0,59.4 309.4,55.6 311.9,58.3 314.3,58.7 316.8,62.0 319.2,58.5
321.7,60.4 324.1,57.2 326.5,59.1 329.0,59.3 331.4,59.4 333.9,58.8 336.3,59.0 338.8,59.4 341.2,56.5 343.6,56.9 346.1,56.4 348.5,57.0 351.0,57.0 353.4,57.0 355.9,57.0 358.3,57.0
360.8,59.8 363.2,59.8 365.6,61.8 368.1,58.4 370.5,59.1 373.0,58.5 375.4,59.2 377.9,59.1 380.3,58.6 382.7,58.2 385.2,56.4 387.6,59.6 390.1,58.6 392.5,59.9 395.0,60.8 397.4,61.0
399.8,58.8 402.3,60.6 404.7,60.8 407.2,58.5 409.6,59.0 412.1,58.2 414.5,62.1 416.9,58.6 419.4,61.5 421.8,60.7 424.3,61.4 426.7,59.6 429.2,59.4 431.6,58.9 434.0,60.5 436.5,57.7
438.9,59.6 441.4,60.2 443.8,57.6 446.3,57.4 448.7,58.3 451.2,57.8 453.6,59.5 456.0,57.1 458.5,54.2 460.9,59.1 463.4,59.2 465.8,57.8 468.3,60.6 470.7,59.3 473.1,59.8 475.6,60.8
478.0,58.3 480.5,58.3 482.9,56.8 485.4,58.3 487.8,58.0 490.2,57.3 492.7,58.6 495.1,58.6 497.6,56.7 500.0,59.4 502.5,58.9 504.9,58.1 507.3,57.9 509.8,59.5 512.2,59.1 514.7,57.6
517.1,58.6 519.6,56.6 522.0,58.5 524.5,58.9 526.9,56.0 529.3,56.3 531.8,56.7 534.2,56.5 536.7,55.7 539.1,56.0 541.6,57.6 544.0,60.3 546.4,57.8 548.9,58.8 551.3,58.0 553.8,61.0
556.2,56.7 558.7,60.9 561.1,59.9 563.5,59.1 566.0,57.8 568.4,57.1 570.9,56.7 573.3,58.8 575.8,59.7 578.2,59.4 580.6,59.0 583.1,59.7 585.5,59.6 588.0,58.5 590.4,59.0 592.9,61.1
595.3,58.9 597.8,58.5 600.2,58.0 602.6,59.4 605.1,56.3 607.5,58.9 610.0,60.2 612.4,59.4 614.9,59.3 617.3,58.6 619.7,59.6 622.2,59.5 624.6,56.3 627.1,58.2 629.5,58.4 632.0,58.6
634.4,59.0 636.8,56.3 639.3,59.0 641.7,59.0 644.2,58.5 646.6,58.1 649.1,55.8 651.5,58.2 653.9,57.0 656.4,59.3 658.8,59.2 661.3,60.4 663.7,57.6 666.2,59.8 668.6,59.8 671.1,59.0
673.5,61.5 675.9,58.8 678.4,58.2 680.8,56.1 683.3,61.1 685.7,57.8 688.2,58.8 690.6,59.0 693.0,61.4 695.5,58.2 697.9,61.1 700.4,60.8 702.8,60.7 705.3,59.5 707.7,59.3 710.1,58.3
712.6,57.7 715.0,58.6 717.5,61.7 719.9,58.1 722.4,58.9 724.8,57.8 727.2,60.4 729.7,60.6 732.1,57.3 734.6,60.1 737.0,58.1 739.5,59.1 741.9,58.3 744.3,58.2 746.8,60.1 749.2,60.6
751.7,60.8 754.1,58.5 756.6,57.0 759.0,55.3 761.5,59.1 763.9,56.9 766.3,61.9 768.8,58.4 771.2,59.8 773.7,60.6 776.1,59.6 778.6,58.9 781.0,60.1 783.4,58.2 785.9,59.0 788.3,56.8
790.8,61.5 793.2,58.3 795.7,61.0 798.1,59.3 800.5,58.9 803.0,60.6 805.4,58.2 807.9,55.8 810.3,59.9 812.8,61.6 815.2,61.0 817.6,59.6 820.1,58.6 822.5,59.0 825.0,58.9 827.4,62.1
829.9,60.9 832.3,59.3 834.8,59.6 837.2,61.1 839.6,57.9 842.1,57.3 844.5,58.8 847.0,58.5 849.4,57.8 851.9,57.2 854.3,58.6 856.7,61.2 859.2,59.0 861.6,59.2 864.1,59.4 866.5,58.7
869.0,57.9 871.4,58.1 873.8,57.1 876.3,58.8 878.7,59.9 881.2,58.5 883.6,59.1 886.1,57.9 888.5,59.5 890.9,60.0 893.4,60.1 895.8,58.7 898.3,56.8 900.7,59.2 903.2,55.6 905.6,56.8
908.1,58.2 910.5,56.9 912.9,58.3 915.4,55.0 917.8,55.0 920.3,54.9 922.7,54.1 925.2,56.3 927.6,58.3 930.0,57.5 932.5,56.3 934.9,58.5 937.4,59.1 939.8,58.5 942.3,58.4 944.7,57.3
947.1,56.9 949.6,59.9 952.0,57.6 954.5,59.5 956.9,59.5 959.4,58.6 961.8,59.0 964.2,58.7 966.7,60.5 969.1,59.7 971.6,58.5 974.0,60.4 976.5,59.8 978.9,59.0 981.3,59.1 983.8,61.1
986.2,59.4 988.7,57.4 991.1,61.2 993.6,59.0 996.0,59.0 998.5,59.3 1000.9,59.5 1003.3,58.1 1005.8,57.9 1008.2,59.8 1010.7,57.3 1013.1,57.7 1015.6,58.1 1018.0,58.4 1020.4,58.9 1022.9,59.0
1025.3,60.4 1027.8,58.3 1030.2,60.0 1032.7,59.0 1035.1,58.5 1037.5,58.6 1040.0,58.6 1042.4,60.3 1044.9,58.9 1047.3,59.0 1049.8,58.8 1052.2,58.2 1054.6,58.3 1057.1,58.9 1059.5,57.7 1062.0,59.8
1064.4,56.6 1066.9,62.3 1069.3,62.4 1071.8,60.3 1074.2,60.7 1076.6,61.2 1079.1,57.7 1081.5,58.7 1084.0,57.2 1086.4,57.6 1088.9,58.3 1091.3,58.9 1093.7,58.7 1096.2,58.7 1098.6,58.7 1101.1,58.8
1103.5,58.6 1106.0,57.5 1108.4,57.4 1110.8,61.1 1113.3,58.6 1115.7,58.8 1118.2,58.1 1120.6,59.2 1123.1,59.6 1125.5,60.9 1127.9,58.0 1130.4,59.9 1132.8,57.2 1135.3,58.4 1137.7,59.1 1140.2,57.8
1142.6,60.6 1145.1,57.9 1147.5,58.9 1149.9,60.6 1152.4,60.6 1154.8,57.3 1157.3,58.6 1159.7,59.3 1162.2,59.5 1164.6,59.0 1167.0,58.8 1169.5,58.1 1171.9,56.5 1174.4,60.0 1176.8,58.0 1179.3,57.3
1181.7,57.6 1184.1,58.6 1186.6,57.5 1189.0,57.4 1191.5,57.1 1193.9,56.0 1196.4,56.4 1198.8,56.2 1201.2,55.6 1203.7,54.1 1206.1,55.0 1208.6,56.1 1211.0,57.6 1213.5,57.4 1215.9,57.4 1218.4,56.4
1220.8,58.0 1223.2,59.5 1225.7,59.9 1228.1,58.3 1230.6,59.4 1233.0,62.3 1235.5,58.9 1237.9,56.9 1240.3,58.9 1242.8,56.5 1245.2,56.6 1247.7,59.3 1250.1,57.2 1252.6,59.9 1255.0,57.6 1255.0,703.4
87.1,703.4 '/>
	</g>
</g>
	</g>
	<g id="gnuplot_plot_2" ><title>trendline (m=0.036667,b=527.374136)</title>
<g fill="none" color="black" stroke="currentColor" stroke-width="1.00" stroke-linecap="butt" stroke-linejoin="miter">
	<g transform="translate(1187.9,94.0)" stroke="none" fill="black" font-family="Arial" font-size="12.00"  text-anchor="end">
		<text><tspan font-family="Arial" >trendline (m=0.036667,b=527.374136)</tspan></text>
	</g>
</g>
<g fill="none" color="black" stroke="currentColor" stroke-width="1.00" stroke-linecap="butt" stroke-linejoin="miter">
	<path stroke='black'  d='M1196.2,90.1 L1238.4,90.1 M87.1,93.7 L98.9,93.2 L110.7,92.7 L122.5,92.1 L134.3,91.6 L146.1,91.1
		L157.9,90.6 L169.7,90.0 L181.5,89.5 L193.3,89.0 L205.1,88.4 L216.9,87.9 L228.7,87.4 L240.5,86.9
		L252.3,86.3 L264.1,85.8 L275.9,85.3 L287.6,84.7 L299.4,84.2 L311.2,83.7 L323.0,83.1 L334.8,82.6
		L346.6,82.1 L358.4,81.6 L370.2,81.0 L382.0,80.5 L393.8,80.0 L405.6,79.4 L417.4,78.9 L429.2,78.4
		L441.0,77.9 L452.8,77.3 L464.6,76.8 L476.4,76.3 L488.2,75.7 L500.0,75.2 L511.8,74.7 L523.6,74.2
		L535.4,73.6 L547.2,73.1 L559.0,72.6 L570.8,72.0 L582.6,71.5 L594.4,71.0 L606.2,70.5 L618.0,69.9
		L629.8,69.4 L641.6,68.9 L653.4,68.3 L665.2,67.8 L676.9,67.3 L688.7,66.8 L700.5,66.2 L712.3,65.7
		L724.1,65.2 L735.9,64.6 L747.7,64.1 L759.5,63.6 L771.3,63.1 L783.1,62.5 L794.9,62.0 L806.7,61.5
		L818.5,60.9 L830.3,60.4 L842.1,59.9 L853.9,59.3 L865.7,58.8 L877.5,58.3 L889.3,57.8 L901.1,57.2
		L912.9,56.7 L924.7,56.2 L936.5,55.6 L948.3,55.1 L960.1,54.6 L971.0,54.1  '/></g>
	</g>
<g fill="none" color="white" stroke="black" stroke-width="2.00" stroke-linecap="butt" stroke-linejoin="miter">
</g>
<g fill="none" color="black" stroke="currentColor" stroke-width="2.00" stroke-linecap="butt" stroke-linejoin="miter">
</g>
<g fill="none" color="black" stroke="black" stroke-width="1.00" stroke-linecap="butt" stroke-linejoin="miter">
</g>
<g fill="none" color="black" stroke="currentColor" stroke-width="1.00" stroke-linecap="butt" stroke-linejoin="miter">
	<path stroke='black'  d='M87.1,54.1 L87.1,703.4 L1255.0,703.4 L1255.0,54.1 L87.1,54.1 Z  '/></g>
<g fill="none" color="black" stroke="currentColor" stroke-width="1.00" stroke-linecap="butt" stroke-linejoin="miter">
</g>
</g>
</svg>

