<?xml version="1.0" encoding="utf-8"  standalone="no"?>
<svg 
 width="1280" height="720"
 viewBox="0 0 1280 720"
 xmlns="http://www.w3.org/2000/svg"
 xmlns:xlink="http://www.w3.org/1999/xlink"
>

<title>Gnuplot</title>
<desc>Produced by GNUPLOT 5.0 patchlevel 6 </desc>

<g id="gnuplot_canvas">

<rect x="0" y="0" width="1280" height="720" fill="none"/>
<defs>

	<circle id='gpDot' r='0.5' stroke-width='0.5'/>
	<path id='gpPt0' stroke-width='0.222' stroke='currentColor' d='M-1,0 h2 M0,-1 v2'/>
	<path id='gpPt1' stroke-width='0.222' stroke='currentColor' d='M-1,-1 L1,1 M1,-1 L-1,1'/>
	<path id='gpPt2' stroke-width='0.222' stroke='currentColor' d='M-1,0 L1,0 M0,-1 L0,1 M-1,-1 L1,1 M-1,1 L1,-1'/>
	<rect id='gpPt3' stroke-width='0.222' stroke='currentColor' x='-1' y='-1' width='2' height='2'/>
	<rect id='gpPt4' stroke-width='0.222' stroke='currentColor' fill='currentColor' x='-1' y='-1' width='2' height='2'/>
	<circle id='gpPt5' stroke-width='0.222' stroke='currentColor' cx='0' cy='0' r='1'/>
	<use xlink:href='#gpPt5' id='gpPt6' fill='currentColor' stroke='none'/>
	<path id='gpPt7' stroke-width='0.222' stroke='currentColor' d='M0,-1.33 L-1.33,0.67 L1.33,0.67 z'/>
	<use xlink:href='#gpPt7' id='gpPt8' fill='currentColor' stroke='none'/>
	<use xlink:href='#gpPt7' id='gpPt9' stroke='currentColor' transform='rotate(180)'/>
	<use xlink:href='#gpPt9' id='gpPt10' fill='currentColor' stroke='none'/>
	<use xlink:href='#gpPt3' id='gpPt11' stroke='currentColor' transform='rotate(45)'/>
	<use xlink:href='#gpPt11' id='gpPt12' fill='currentColor' stroke='none'/>
	<path id='gpPt13' stroke-width='0.222' stroke='currentColor' d='M0,1.330 L1.265,0.411 L0.782,-1.067 L-0.782,-1.076 L-1.265,0.411 z'/>
	<use xlink:href='#gpPt13' id='gpPt14' fill='currentColor' stroke='none'/>
	<filter id='textbox' filterUnits='objectBoundingBox' x='0' y='0' height='1' width='1'>
	  <feFlood flood-color='white' flood-opacity='1' result='bgnd'/>
	  <feComposite in='SourceGraphic' in2='bgnd' operator='atop'/>
	</filter>
	<filter id='greybox' filterUnits='objectBoundingBox' x='0' y='0' height='1' width='1'>
	  <feFlood flood-color='lightgrey' flood-opacity='1' result='grey'/>
	  <feComposite in='SourceGraphic' in2='grey' operator='atop'/>
	</filter>
</defs>
<g fill="none" color="white" stroke="currentColor" stroke-width="1.00" stroke-linecap="butt" stroke-linejoin="miter">
</g>
<g fill="none" color="black" stroke="currentColor" stroke-width="1.00" stroke-linecap="butt" stroke-linejoin="miter">
	<path stroke='black'  d='M87.1,703.4 L96.1,703.4 M1255.0,703.4 L1246.0,703.4  '/>	<g transform="translate(78.8,707.3)" stroke="none" fill="black" font-family="Arial" font-size="12.00"  text-anchor="end">
		<text><tspan font-family="Arial" > 182.674</tspan></text>
	</g>
</g>
<g fill="none" color="black" stroke="currentColor" stroke-width="1.00" stroke-linecap="butt" stroke-linejoin="miter">
	<path stroke='black'  d='M87.1,393.7 L96.1,393.7 M1255.0,393.7 L1246.0,393.7  '/>	<g transform="translate(78.8,397.6)" stroke="none" fill="black" font-family="Arial" font-size="12.00"  text-anchor="end">
		<text><tspan font-family="Arial" > 183.372</tspan></text>
	</g>
</g>
<g fill="none" color="black" stroke="currentColor" stroke-width="1.00" stroke-linecap="butt" stroke-linejoin="miter">
	<path stroke='black'  d='M87.1,54.1 L96.1,54.1 M1255.0,54.1 L1246.0,54.1  '/>	<g transform="translate(78.8,58.0)" stroke="none" fill="black" font-family="Arial" font-size="12.00"  text-anchor="end">
		<text><tspan font-family="Arial" > 184.137</tspan></text>
	</g>
</g>
<g fill="none" color="black" stroke="currentColor" stroke-width="1.00" stroke-linecap="butt" stroke-linejoin="miter">
</g>
<g fill="none" color="black" stroke="currentColor" stroke-width="1.00" stroke-linecap="butt" stroke-linejoin="miter">
	<path stroke='black'  d='M87.1,54.1 L87.1,703.4 L1255.0,703.4 L1255.0,54.1 L87.1,54.1 Z  '/></g>
<g fill="none" color="black" stroke="currentColor" stroke-width="1.00" stroke-linecap="butt" stroke-linejoin="miter">
	<g transform="translate(671.0,31.0)" stroke="none" fill="black" font-family="Arial" font-size="12.00"  text-anchor="middle">
		<text><tspan font-family="Arial" >Material 43, 2 components</tspan></text>
	</g>
</g>
	<g id="gnuplot_plot_1" ><title>log(likelihood)</title>
<g fill="none" color="black" stroke="currentColor" stroke-width="1.00" stroke-linecap="butt" stroke-linejoin="miter">
	<g transform="translate(1187.9,76.0)" stroke="none" fill="black" font-family="Arial" font-size="12.00"  text-anchor="end">
		<text><tspan font-family="Arial" >log(likelihood)</tspan></text>
	</g>
</g>
<g fill="none" color="black" stroke="currentColor" stroke-width="1.00" stroke-linecap="butt" stroke-linejoin="miter">
	<g stroke='none' shape-rendering='crispEdges'>
		<polygon fill = 'rgb(148,   0, 211)' fill-opacity = '0.100000' points = '1196.2,76.6 1238.4,76.6 1238.4,67.6 1196.2,67.6 '/>
	</g>
	<path stroke='rgb(148,   0, 211)'  d='M1196.2,76.6 L1238.4,76.6 L1238.4,67.6 L1196.2,67.6 L1196.2,76.6 Z  '/></g>
<g fill="none" color="black" stroke="currentColor" stroke-width="1.00" stroke-linecap="butt" stroke-linejoin="miter">
	<g stroke='none' shape-rendering='crispEdges'>
		<polygon fill = 'rgb(148,   0, 211)' fill-opacity = '0.100000' points = '87.1,369.7 96.8,191.2 106.6,303.1 116.3,355.9 126.0,416.7 135.8,614.2 145.5,265.4 155.2,410.5 165.0,468.2 174.7,221.9 184.4,489.0 194.2,469.1 203.9,185.9 213.6,327.0 223.4,364.3 233.1,545.0
242.8,485.0 252.6,364.3 262.3,281.3 272.0,448.2 281.8,632.4 291.5,533.9 301.2,399.4 310.9,575.1 320.7,260.5 330.4,297.3 340.1,201.4 349.9,353.2 359.6,503.2 369.3,364.8 379.1,301.3 388.8,293.8
398.5,365.2 408.3,398.9 418.0,270.7 427.7,570.3 437.5,363.0 447.2,292.0 456.9,611.5 466.7,451.3 476.4,592.4 486.1,582.7 495.9,397.2 505.6,270.7 515.3,558.7 525.1,262.2 534.8,276.5 544.5,594.7
554.3,703.4 564.0,446.0 573.7,256.5 583.5,221.9 593.2,253.8 602.9,385.6 612.7,54.1 622.4,534.3 632.1,551.2 641.9,183.7 651.6,375.9 661.3,665.2 671.1,481.5 680.8,521.0 690.5,348.3 700.2,393.6
710.0,308.4 719.7,286.7 729.4,477.5 739.2,496.1 748.9,275.6 758.6,311.1 768.4,516.6 778.1,405.6 787.8,534.8 797.6,427.3 807.3,337.7 817.0,255.6 826.8,511.7 836.5,605.8 846.2,341.2 856.0,256.0
865.7,538.3 875.4,466.8 885.2,547.6 894.9,478.4 904.6,439.3 914.4,411.8 924.1,677.2 933.8,488.2 943.6,448.2 953.3,432.7 963.0,154.0 972.8,209.0 982.5,471.7 992.2,444.7 1002.0,379.0 1011.7,550.3
1021.4,173.5 1031.2,478.4 1040.9,394.5 1050.6,259.6 1060.4,495.7 1070.1,344.8 1079.8,291.1 1089.5,361.7 1099.3,177.5 1109.0,234.3 1118.7,76.3 1128.5,557.8 1138.2,398.1 1147.9,354.1 1157.7,430.0 1167.4,437.6
1177.1,322.2 1186.9,303.1 1196.6,489.9 1206.3,296.4 1216.1,280.9 1225.8,316.0 1235.5,209.4 1245.3,543.2 1255.0,406.9 1255.0,703.4 87.1,703.4 '/>
	</g>
	<path stroke='rgb(148,   0, 211)'  d='M87.1,369.7 L96.8,191.2 L106.6,303.1 L116.3,355.9 L126.0,416.7 L135.8,614.2 L145.5,265.4 L155.2,410.5
		L165.0,468.2 L174.7,221.9 L184.4,489.0 L194.2,469.1 L203.9,185.9 L213.6,327.0 L223.4,364.3 L233.1,545.0
		L242.8,485.0 L252.6,364.3 L262.3,281.3 L272.0,448.2 L281.8,632.4 L291.5,533.9 L301.2,399.4 L310.9,575.1
		L320.7,260.5 L330.4,297.3 L340.1,201.4 L349.9,353.2 L359.6,503.2 L369.3,364.8 L379.1,301.3 L388.8,293.8
		L398.5,365.2 L408.3,398.9 L418.0,270.7 L427.7,570.3 L437.5,363.0 L447.2,292.0 L456.9,611.5 L466.7,451.3
		L476.4,592.4 L486.1,582.7 L495.9,397.2 L505.6,270.7 L515.3,558.7 L525.1,262.2 L534.8,276.5 L544.5,594.7
		L554.3,703.4 L564.0,446.0 L573.7,256.5 L583.5,221.9 L593.2,253.8 L602.9,385.6 L612.7,54.1 L622.4,534.3
		L632.1,551.2 L641.9,183.7 L651.6,375.9 L661.3,665.2 L671.1,481.5 L680.8,521.0 L690.5,348.3 L700.2,393.6
		L710.0,308.4 L719.7,286.7 L729.4,477.5 L739.2,496.1 L748.9,275.6 L758.6,311.1 L768.4,516.6 L778.1,405.6
		L787.8,534.8 L797.6,427.3 L807.3,337.7 L817.0,255.6 L826.8,511.7 L836.5,605.8 L846.2,341.2 L856.0,256.0
		L865.7,538.3 L875.4,466.8 L885.2,547.6 L894.9,478.4 L904.6,439.3 L914.4,411.8 L924.1,677.2 L933.8,488.2
		L943.6,448.2 L953.3,432.7 L963.0,154.0 L972.8,209.0 L982.5,471.7 L992.2,444.7 L1002.0,379.0 L1011.7,550.3
		L1021.4,173.5 L1031.2,478.4 L1040.9,394.5 L1050.6,259.6 L1060.4,495.7 L1070.1,344.8 L1079.8,291.1 L1089.5,361.7
		L1099.3,177.5 L1109.0,234.3 L1118.7,76.3 L1128.5,557.8 L1138.2,398.1 L1147.9,354.1 L1157.7,430.0 L1167.4,437.6
		L1177.1,322.2 L1186.9,303.1 L1196.6,489.9 L1206.3,296.4 L1216.1,280.9 L1225.8,316.0 L1235.5,209.4 L1245.3,543.2
		L1255.0,406.9  '/></g>
	</g>
	<g id="gnuplot_plot_2" ><title>trendline (m=0.000448,b=183.344836)</title>
<g fill="none" color="black" stroke="currentColor" stroke-width="1.00" stroke-linecap="butt" stroke-linejoin="miter">
	<g transform="translate(1187.9,94.0)" stroke="none" fill="black" font-family="Arial" font-size="12.00"  text-anchor="end">
		<text><tspan font-family="Arial" >trendline (m=0.000448,b=183.344836)</tspan></text>
	</g>
</g>
<g fill="none" color="black" stroke="currentColor" stroke-width="1.00" stroke-linecap="butt" stroke-linejoin="miter">
	<path stroke='black'  d='M1196.2,90.1 L1238.4,90.1 M87.1,405.7 L98.9,405.4 L110.7,405.2 L122.5,405.0 L134.3,404.7 L146.1,404.5
		L157.9,404.2 L169.7,404.0 L181.5,403.7 L193.3,403.5 L205.1,403.3 L216.9,403.0 L228.7,402.8 L240.5,402.5
		L252.3,402.3 L264.1,402.1 L275.9,401.8 L287.6,401.6 L299.4,401.3 L311.2,401.1 L323.0,400.9 L334.8,400.6
		L346.6,400.4 L358.4,400.1 L370.2,399.9 L382.0,399.7 L393.8,399.4 L405.6,399.2 L417.4,398.9 L429.2,398.7
		L441.0,398.4 L452.8,398.2 L464.6,398.0 L476.4,397.7 L488.2,397.5 L500.0,397.2 L511.8,397.0 L523.6,396.8
		L535.4,396.5 L547.2,396.3 L559.0,396.0 L570.8,395.8 L582.6,395.6 L594.4,395.3 L606.2,395.1 L618.0,394.8
		L629.8,394.6 L641.6,394.4 L653.4,394.1 L665.2,393.9 L676.9,393.6 L688.7,393.4 L700.5,393.1 L712.3,392.9
		L724.1,392.7 L735.9,392.4 L747.7,392.2 L759.5,391.9 L771.3,391.7 L783.1,391.5 L794.9,391.2 L806.7,391.0
		L818.5,390.7 L830.3,390.5 L842.1,390.3 L853.9,390.0 L865.7,389.8 L877.5,389.5 L889.3,389.3 L901.1,389.1
		L912.9,388.8 L924.7,388.6 L936.5,388.3 L948.3,388.1 L960.1,387.8 L971.9,387.6 L983.7,387.4 L995.5,387.1
		L1007.3,386.9 L1019.1,386.6 L1030.9,386.4 L1042.7,386.2 L1054.5,385.9 L1066.2,385.7 L1078.0,385.4 L1089.8,385.2
		L1101.6,385.0 L1113.4,384.7 L1125.2,384.5 L1137.0,384.2 L1148.8,384.0 L1160.6,383.8 L1172.4,383.5 L1184.2,383.3
		L1196.0,383.0 L1207.8,382.8 L1219.6,382.5 L1231.4,382.3 L1243.2,382.1 L1255.0,381.8  '/></g>
	</g>
<g fill="none" color="white" stroke="black" stroke-width="2.00" stroke-linecap="butt" stroke-linejoin="miter">
</g>
<g fill="none" color="black" stroke="currentColor" stroke-width="2.00" stroke-linecap="butt" stroke-linejoin="miter">
</g>
<g fill="none" color="black" stroke="black" stroke-width="1.00" stroke-linecap="butt" stroke-linejoin="miter">
</g>
<g fill="none" color="black" stroke="currentColor" stroke-width="1.00" stroke-linecap="butt" stroke-linejoin="miter">
	<path stroke='black'  d='M87.1,54.1 L87.1,703.4 L1255.0,703.4 L1255.0,54.1 L87.1,54.1 Z  '/></g>
<g fill="none" color="black" stroke="currentColor" stroke-width="1.00" stroke-linecap="butt" stroke-linejoin="miter">
</g>
</g>
</svg>

