<?xml version="1.0" encoding="utf-8"  standalone="no"?>
<svg 
 width="1280" height="720"
 viewBox="0 0 1280 720"
 xmlns="http://www.w3.org/2000/svg"
 xmlns:xlink="http://www.w3.org/1999/xlink"
>

<title>Gnuplot</title>
<desc>Produced by GNUPLOT 5.2 patchlevel 2 </desc>

<g id="gnuplot_canvas">

<rect x="0" y="0" width="1280" height="720" fill="none"/>
<defs>

	<circle id='gpDot' r='0.5' stroke-width='0.5'/>
	<path id='gpPt0' stroke-width='0.222' stroke='currentColor' d='M-1,0 h2 M0,-1 v2'/>
	<path id='gpPt1' stroke-width='0.222' stroke='currentColor' d='M-1,-1 L1,1 M1,-1 L-1,1'/>
	<path id='gpPt2' stroke-width='0.222' stroke='currentColor' d='M-1,0 L1,0 M0,-1 L0,1 M-1,-1 L1,1 M-1,1 L1,-1'/>
	<rect id='gpPt3' stroke-width='0.222' stroke='currentColor' x='-1' y='-1' width='2' height='2'/>
	<rect id='gpPt4' stroke-width='0.222' stroke='currentColor' fill='currentColor' x='-1' y='-1' width='2' height='2'/>
	<circle id='gpPt5' stroke-width='0.222' stroke='currentColor' cx='0' cy='0' r='1'/>
	<use xlink:href='#gpPt5' id='gpPt6' fill='currentColor' stroke='none'/>
	<path id='gpPt7' stroke-width='0.222' stroke='currentColor' d='M0,-1.33 L-1.33,0.67 L1.33,0.67 z'/>
	<use xlink:href='#gpPt7' id='gpPt8' fill='currentColor' stroke='none'/>
	<use xlink:href='#gpPt7' id='gpPt9' stroke='currentColor' transform='rotate(180)'/>
	<use xlink:href='#gpPt9' id='gpPt10' fill='currentColor' stroke='none'/>
	<use xlink:href='#gpPt3' id='gpPt11' stroke='currentColor' transform='rotate(45)'/>
	<use xlink:href='#gpPt11' id='gpPt12' fill='currentColor' stroke='none'/>
	<path id='gpPt13' stroke-width='0.222' stroke='currentColor' d='M0,1.330 L1.265,0.411 L0.782,-1.067 L-0.782,-1.076 L-1.265,0.411 z'/>
	<use xlink:href='#gpPt13' id='gpPt14' fill='currentColor' stroke='none'/>
	<filter id='textbox' filterUnits='objectBoundingBox' x='0' y='0' height='1' width='1'>
	  <feFlood flood-color='white' flood-opacity='1' result='bgnd'/>
	  <feComposite in='SourceGraphic' in2='bgnd' operator='atop'/>
	</filter>
	<filter id='greybox' filterUnits='objectBoundingBox' x='0' y='0' height='1' width='1'>
	  <feFlood flood-color='lightgrey' flood-opacity='1' result='grey'/>
	  <feComposite in='SourceGraphic' in2='grey' operator='atop'/>
	</filter>
</defs>
<g fill="none" color="white" stroke="currentColor" stroke-width="1.00" stroke-linecap="butt" stroke-linejoin="miter">
</g>
<g fill="none" color="black" stroke="currentColor" stroke-width="1.00" stroke-linecap="butt" stroke-linejoin="miter">
	<path stroke='black'  d='M87.1,703.4 L96.1,703.4 M1255.0,703.4 L1246.0,703.4  '/>	<g transform="translate(78.8,707.3)" stroke="none" fill="black" font-family="Arial" font-size="12.00"  text-anchor="end">
		<text><tspan font-family="Arial" > 74.024</tspan></text>
	</g>
</g>
<g fill="none" color="black" stroke="currentColor" stroke-width="1.00" stroke-linecap="butt" stroke-linejoin="miter">
	<path stroke='black'  d='M87.1,96.4 L96.1,96.4 M1255.0,96.4 L1246.0,96.4  '/>	<g transform="translate(78.8,100.3)" stroke="none" fill="black" font-family="Arial" font-size="12.00"  text-anchor="end">
		<text><tspan font-family="Arial" > 152.174</tspan></text>
	</g>
</g>
<g fill="none" color="black" stroke="currentColor" stroke-width="1.00" stroke-linecap="butt" stroke-linejoin="miter">
	<path stroke='black'  d='M87.1,54.1 L96.1,54.1 M1255.0,54.1 L1246.0,54.1  '/>	<g transform="translate(78.8,58.0)" stroke="none" fill="black" font-family="Arial" font-size="12.00"  text-anchor="end">
		<text><tspan font-family="Arial" > 157.623</tspan></text>
	</g>
</g>
<g fill="none" color="black" stroke="currentColor" stroke-width="1.00" stroke-linecap="butt" stroke-linejoin="miter">
</g>
<g fill="none" color="black" stroke="currentColor" stroke-width="1.00" stroke-linecap="butt" stroke-linejoin="miter">
	<path stroke='black'  d='M87.1,54.1 L87.1,703.4 L1255.0,703.4 L1255.0,54.1 L87.1,54.1 Z  '/></g>
<g fill="none" color="black" stroke="currentColor" stroke-width="1.00" stroke-linecap="butt" stroke-linejoin="miter">
	<g transform="translate(671.0,31.0)" stroke="none" fill="black" font-family="Arial" font-size="12.00"  text-anchor="middle">
		<text><tspan font-family="Arial" >Material 56, 8 components</tspan></text>
	</g>
</g>
	<g id="gnuplot_plot_1" ><title>log(likelihood)</title>
<g fill="none" color="black" stroke="currentColor" stroke-width="1.00" stroke-linecap="butt" stroke-linejoin="miter">
	<g transform="translate(1187.9,76.0)" stroke="none" fill="black" font-family="Arial" font-size="12.00"  text-anchor="end">
		<text><tspan font-family="Arial" >log(likelihood)</tspan></text>
	</g>
</g>
<g fill="none" color="black" stroke="currentColor" stroke-width="1.00" stroke-linecap="butt" stroke-linejoin="miter">
	<g stroke='none' shape-rendering='crispEdges'>
		<polygon fill = 'rgb(148,   0, 211)' fill-opacity = '0.100000' points = '1196.2,76.6 1238.4,76.6 1238.4,67.6 1196.2,67.6 '/>
	</g>
	<path stroke='rgb(148,   0, 211)'  d='M1196.2,76.6 L1238.4,76.6 L1238.4,67.6 L1196.2,67.6 L1196.2,76.6 Z  '/></g>
<g fill="none" color="black" stroke="currentColor" stroke-width="1.00" stroke-linecap="butt" stroke-linejoin="miter">
	<g stroke='none' shape-rendering='crispEdges'>
		<polygon fill = 'rgb(148,   0, 211)' fill-opacity = '0.100000' points = '87.1,702.1 87.5,703.4 87.9,703.1 88.3,702.2 88.7,703.4 89.1,642.9 89.6,627.6 90.0,576.2 90.4,478.8 90.8,429.0 91.2,399.1 91.6,385.8 92.0,366.0 92.4,362.9 92.8,352.8 93.2,332.8
93.7,337.7 94.1,363.6 94.5,342.5 94.9,356.9 95.3,343.5 95.7,343.5 96.1,322.2 96.5,330.9 96.9,338.6 97.3,336.8 97.8,312.7 98.2,322.0 98.6,312.5 99.0,321.8 99.4,315.8 99.8,317.1
100.2,304.6 100.6,311.9 101.0,294.0 101.4,296.2 101.8,296.0 102.3,298.0 102.7,297.7 103.1,292.8 103.5,289.9 103.9,267.8 104.3,290.9 104.7,294.2 105.1,294.3 105.5,301.0 105.9,310.6 106.4,307.1
106.8,271.1 107.2,295.0 107.6,296.6 108.0,281.3 108.4,274.0 108.8,272.7 109.2,272.2 109.6,285.5 110.0,257.7 110.4,257.5 110.9,257.8 111.3,259.5 111.7,267.9 112.1,265.3 112.5,266.7 112.9,246.4
113.3,268.2 113.7,250.1 114.1,244.0 114.5,247.8 115.0,247.8 115.4,244.3 115.8,242.3 116.2,250.0 116.6,253.5 117.0,256.7 117.4,256.8 117.8,244.7 118.2,243.6 118.6,243.6 119.1,242.3 119.5,244.6
119.9,245.7 120.3,226.9 120.7,226.0 121.1,237.6 121.5,240.4 121.9,233.7 122.3,239.5 122.7,239.3 123.1,239.2 123.6,232.2 124.0,217.8 124.4,217.7 124.8,217.7 125.2,230.9 125.6,232.6 126.0,234.5
126.4,242.1 126.8,249.7 127.2,245.3 127.7,229.4 128.1,227.5 128.5,234.8 128.9,236.8 129.3,236.8 129.7,232.2 130.1,231.3 130.5,231.6 130.9,237.0 131.3,236.5 131.8,213.9 132.2,227.0 132.6,218.6
133.0,231.2 133.4,240.8 133.8,234.0 134.2,217.4 134.6,223.8 135.0,216.8 135.4,205.2 135.8,222.0 136.3,226.9 136.7,218.2 137.1,189.1 137.5,222.8 137.9,217.6 138.3,221.1 138.7,221.2 139.1,211.4
139.5,197.2 139.9,214.1 140.4,207.0 140.8,213.2 141.2,203.1 141.6,201.2 142.0,205.6 142.4,206.9 142.8,206.5 143.2,208.9 143.6,191.9 144.0,201.6 144.5,191.5 144.9,194.8 145.3,188.5 145.7,191.1
146.1,172.0 146.5,166.0 146.9,178.7 147.3,178.7 147.7,177.2 148.1,178.6 148.5,182.0 149.0,182.0 149.4,174.1 149.8,180.9 150.2,179.6 150.6,179.6 151.0,181.3 151.4,179.5 151.8,179.1 152.2,174.0
152.6,160.1 153.1,160.1 153.5,165.2 153.9,166.1 154.3,167.6 154.7,171.8 155.1,174.0 155.5,174.0 155.9,171.0 156.3,171.0 156.7,166.3 157.1,165.7 157.6,186.7 158.0,185.1 158.4,178.7 158.8,160.1
159.2,165.4 159.6,156.6 160.0,135.1 160.4,157.4 160.8,174.7 161.2,159.4 161.7,144.9 162.1,144.9 162.5,129.3 162.9,126.1 163.3,127.5 163.7,129.3 164.1,131.3 164.5,136.0 164.9,128.2 165.3,130.7
165.8,130.7 166.2,144.1 166.6,144.1 167.0,155.1 167.4,134.9 167.8,147.4 168.2,138.5 168.6,138.5 169.0,132.1 169.4,128.4 169.8,144.2 170.3,142.8 170.7,135.6 171.1,127.9 171.5,132.5 171.9,132.5
172.3,131.9 172.7,134.6 173.1,127.8 173.5,134.3 173.9,139.5 174.4,141.5 174.8,134.8 175.2,138.8 175.6,121.2 176.0,128.2 176.4,126.6 176.8,131.1 177.2,117.8 177.6,122.3 178.0,125.2 178.5,123.6
178.9,123.6 179.3,130.6 179.7,125.2 180.1,140.8 180.5,131.6 180.9,136.6 181.3,115.9 181.7,114.7 182.1,127.9 182.5,123.7 183.0,116.2 183.4,133.5 183.8,131.1 184.2,117.7 184.6,117.0 185.0,112.6
185.4,106.7 185.8,114.7 186.2,117.0 186.6,118.3 187.1,122.0 187.5,115.3 187.9,100.8 188.3,107.0 188.7,96.6 189.1,107.9 189.5,95.3 189.9,96.1 190.3,113.3 190.7,103.4 191.2,105.7 191.6,106.8
192.0,106.3 192.4,88.1 192.8,105.5 193.2,100.7 193.6,98.4 194.0,106.5 194.4,109.3 194.8,103.6 195.2,101.1 195.7,105.6 196.1,100.0 196.5,104.8 196.9,95.8 197.3,99.6 197.7,107.6 198.1,103.2
198.5,95.9 198.9,97.3 199.3,99.2 199.8,94.9 200.2,100.4 200.6,104.7 201.0,103.2 201.4,102.7 201.8,93.7 202.2,94.7 202.6,91.2 203.0,94.7 203.4,95.3 203.8,94.9 204.3,101.0 204.7,101.2
205.1,88.6 205.5,88.0 205.9,93.3 206.3,104.9 206.7,95.8 207.1,88.5 207.5,93.1 207.9,81.7 208.4,72.5 208.8,78.8 209.2,78.8 209.6,78.7 210.0,79.0 210.4,91.2 210.8,84.2 211.2,99.0
211.6,91.0 212.0,97.0 212.5,83.3 212.9,79.0 213.3,89.7 213.7,81.8 214.1,78.7 214.5,87.9 214.9,89.6 215.3,86.8 215.7,91.3 216.1,91.3 216.5,91.3 217.0,91.3 217.4,91.3 217.8,87.5
218.2,80.1 218.6,84.5 219.0,82.5 219.4,82.4 219.8,96.2 220.2,96.9 220.6,84.8 221.1,94.0 221.5,90.7 221.9,93.3 222.3,87.9 222.7,87.7 223.1,94.0 223.5,90.7 223.9,87.0 224.3,99.7
224.7,87.2 225.2,88.5 225.6,94.3 226.0,88.5 226.4,80.2 226.8,84.1 227.2,90.2 227.6,90.2 228.0,90.0 228.4,82.3 228.8,90.3 229.2,83.6 229.7,93.3 230.1,94.4 230.5,94.2 230.9,87.2
231.3,94.2 231.7,93.2 232.1,89.4 232.5,94.8 232.9,91.5 233.3,89.7 233.8,92.7 234.2,73.2 234.6,84.4 235.0,84.6 235.4,84.6 235.8,87.7 236.2,96.3 236.6,85.4 237.0,87.8 237.4,86.4
237.8,91.9 238.3,96.9 238.7,73.0 239.1,86.6 239.5,86.0 239.9,83.3 240.3,78.0 240.7,82.2 241.1,91.0 241.5,90.5 241.9,79.7 242.4,80.1 242.8,85.6 243.2,85.6 243.6,85.2 244.0,71.9
244.4,83.5 244.8,78.7 245.2,80.5 245.6,82.1 246.0,82.3 246.5,84.0 246.9,89.6 247.3,92.3 247.7,83.3 248.1,82.2 248.5,82.7 248.9,94.5 249.3,82.7 249.7,94.5 250.1,88.4 250.5,82.6
251.0,88.0 251.4,83.1 251.8,85.4 252.2,95.3 252.6,91.0 253.0,94.9 253.4,88.0 253.8,89.4 254.2,89.8 254.6,89.8 255.1,85.0 255.5,80.4 255.9,79.6 256.3,79.1 256.7,80.8 257.1,82.8
257.5,80.1 257.9,81.2 258.3,75.1 258.7,81.1 259.2,83.2 259.6,84.6 260.0,84.3 260.4,87.1 260.8,84.6 261.2,88.0 261.6,87.9 262.0,82.7 262.4,85.3 262.8,83.4 263.2,83.4 263.7,85.4
264.1,93.4 264.5,94.1 264.9,91.6 265.3,85.9 265.7,88.7 266.1,89.5 266.5,84.7 266.9,82.5 267.3,78.6 267.8,83.0 268.2,93.3 268.6,85.3 269.0,86.9 269.4,94.3 269.8,88.7 270.2,91.0
270.6,95.9 271.0,89.8 271.4,82.0 271.9,92.9 272.3,91.0 272.7,95.7 273.1,82.0 273.5,97.7 273.9,92.3 274.3,94.8 274.7,94.0 275.1,81.6 275.5,84.6 275.9,88.6 276.4,91.8 276.8,92.6
277.2,91.4 277.6,86.4 278.0,85.5 278.4,89.7 278.8,93.4 279.2,91.9 279.6,95.3 280.0,80.1 280.5,90.3 280.9,86.2 281.3,90.1 281.7,93.6 282.1,89.6 282.5,80.7 282.9,87.1 283.3,87.1
283.7,87.4 284.1,88.6 284.5,89.6 285.0,91.5 285.4,90.4 285.8,92.6 286.2,85.2 286.6,87.6 287.0,93.3 287.4,83.2 287.8,82.8 288.2,85.6 288.6,83.1 289.1,90.7 289.5,64.5 289.9,85.4
290.3,79.9 290.7,68.3 291.1,85.6 291.5,84.4 291.9,88.8 292.3,84.9 292.7,87.8 293.2,90.0 293.6,90.7 294.0,72.7 294.4,75.0 294.8,75.0 295.2,71.3 295.6,75.9 296.0,76.9 296.4,65.1
296.8,65.5 297.2,63.4 297.7,65.4 298.1,61.4 298.5,73.0 298.9,65.2 299.3,67.2 299.7,60.5 300.1,68.7 300.5,67.1 300.9,61.9 301.3,74.9 301.8,76.1 302.2,71.3 302.6,75.9 303.0,76.0
303.4,68.6 303.8,79.3 304.2,75.5 304.6,76.8 305.0,73.3 305.4,79.3 305.9,77.0 306.3,80.5 306.7,67.1 307.1,76.7 307.5,75.1 307.9,83.0 308.3,71.6 308.7,67.1 309.1,83.9 309.5,79.2
309.9,85.7 310.4,85.7 310.8,75.5 311.2,85.6 311.6,82.2 312.0,76.3 312.4,72.4 312.8,85.1 313.2,83.4 313.6,93.3 314.0,92.2 314.5,82.9 314.9,81.8 315.3,85.8 315.7,100.8 316.1,73.9
316.5,79.5 316.9,79.5 317.3,75.2 317.7,83.8 318.1,89.6 318.5,86.6 319.0,83.8 319.4,86.7 319.8,86.2 320.2,85.8 320.6,82.9 321.0,86.8 321.4,85.1 321.8,91.5 322.2,88.6 322.6,91.5
323.1,88.3 323.5,90.1 323.9,90.7 324.3,80.4 324.7,80.1 325.1,81.6 325.5,79.2 325.9,90.5 326.3,82.2 326.7,87.0 327.2,95.2 327.6,86.9 328.0,91.3 328.4,85.8 328.8,87.9 329.2,87.6
329.6,90.7 330.0,88.4 330.4,77.0 330.8,86.0 331.2,81.2 331.7,85.6 332.1,85.4 332.5,84.6 332.9,83.7 333.3,80.4 333.7,78.2 334.1,87.0 334.5,90.8 334.9,80.7 335.3,76.9 335.8,68.7
336.2,73.4 336.6,87.8 337.0,84.0 337.4,85.8 337.8,86.1 338.2,80.1 338.6,88.3 339.0,95.3 339.4,87.8 339.9,88.5 340.3,91.4 340.7,86.7 341.1,92.3 341.5,74.5 341.9,74.4 342.3,82.5
342.7,81.6 343.1,81.6 343.5,79.3 343.9,78.2 344.4,82.6 344.8,83.3 345.2,80.2 345.6,80.1 346.0,83.2 346.4,83.9 346.8,85.0 347.2,86.3 347.6,80.5 348.0,87.5 348.5,86.8 348.9,83.7
349.3,85.5 349.7,85.8 350.1,89.9 350.5,85.0 350.9,84.5 351.3,86.7 351.7,87.1 352.1,87.7 352.6,83.4 353.0,73.4 353.4,78.9 353.8,81.9 354.2,79.6 354.6,85.5 355.0,85.2 355.4,75.8
355.8,71.9 356.2,84.6 356.6,84.6 357.1,79.0 357.5,81.7 357.9,83.3 358.3,83.3 358.7,93.6 359.1,85.9 359.5,88.0 359.9,72.7 360.3,79.4 360.7,76.7 361.2,80.8 361.6,85.2 362.0,78.2
362.4,88.3 362.8,73.6 363.2,90.0 363.6,85.5 364.0,86.1 364.4,76.7 364.8,70.8 365.2,86.7 365.7,88.3 366.1,78.6 366.5,82.2 366.9,82.4 367.3,81.7 367.7,77.7 368.1,80.5 368.5,69.9
368.9,69.9 369.3,70.6 369.8,69.0 370.2,80.8 370.6,81.1 371.0,86.3 371.4,82.0 371.8,82.0 372.2,85.8 372.6,78.4 373.0,78.4 373.4,88.3 373.9,77.3 374.3,82.6 374.7,78.3 375.1,82.6
375.5,75.6 375.9,80.5 376.3,73.4 376.7,75.2 377.1,72.9 377.5,76.2 377.9,76.2 378.4,76.2 378.8,78.0 379.2,81.7 379.6,84.0 380.0,83.4 380.4,78.2 380.8,76.3 381.2,81.5 381.6,82.0
382.0,82.0 382.5,81.1 382.9,81.3 383.3,80.9 383.7,80.9 384.1,72.5 384.5,81.8 384.9,80.1 385.3,76.3 385.7,72.2 386.1,76.9 386.6,77.0 387.0,69.7 387.4,69.8 387.8,74.4 388.2,74.4
388.6,72.0 389.0,91.5 389.4,84.4 389.8,89.7 390.2,87.8 390.6,85.4 391.1,81.0 391.5,92.9 391.9,85.7 392.3,84.9 392.7,85.3 393.1,92.5 393.5,92.5 393.9,89.7 394.3,91.8 394.7,83.3
395.2,88.1 395.6,89.0 396.0,90.2 396.4,95.8 396.8,88.4 397.2,88.4 397.6,86.7 398.0,79.2 398.4,81.7 398.8,81.9 399.3,86.7 399.7,88.1 400.1,84.5 400.5,91.7 400.9,88.3 401.3,77.3
401.7,82.9 402.1,84.4 402.5,76.5 402.9,86.2 403.3,86.2 403.8,93.2 404.2,98.5 404.6,91.4 405.0,91.6 405.4,82.2 405.8,91.0 406.2,86.7 406.6,95.4 407.0,85.6 407.4,88.6 407.9,88.6
408.3,85.8 408.7,75.3 409.1,81.9 409.5,86.9 409.9,91.9 410.3,93.2 410.7,89.8 411.1,92.8 411.5,81.0 411.9,81.9 412.4,82.4 412.8,86.9 413.2,81.2 413.6,76.9 414.0,81.7 414.4,85.8
414.8,93.5 415.2,91.8 415.6,91.3 416.0,88.0 416.5,83.5 416.9,91.4 417.3,93.5 417.7,86.8 418.1,89.7 418.5,93.9 418.9,91.5 419.3,87.3 419.7,79.6 420.1,82.4 420.6,83.5 421.0,84.9
421.4,83.3 421.8,77.2 422.2,81.2 422.6,84.4 423.0,91.9 423.4,92.3 423.8,85.8 424.2,86.3 424.6,87.9 425.1,80.9 425.5,85.5 425.9,81.2 426.3,88.7 426.7,84.1 427.1,88.3 427.5,84.6
427.9,78.1 428.3,79.5 428.7,83.5 429.2,87.0 429.6,88.7 430.0,85.5 430.4,79.8 430.8,83.3 431.2,75.4 431.6,76.5 432.0,68.0 432.4,77.3 432.8,77.0 433.3,80.7 433.7,71.2 434.1,82.9
434.5,78.7 434.9,82.3 435.3,89.6 435.7,81.0 436.1,84.5 436.5,85.1 436.9,79.0 437.3,78.1 437.8,79.8 438.2,84.7 438.6,84.4 439.0,84.9 439.4,84.7 439.8,93.7 440.2,89.4 440.6,90.8
441.0,86.6 441.4,83.8 441.9,91.1 442.3,82.3 442.7,88.5 443.1,87.0 443.5,90.8 443.9,81.7 444.3,84.6 444.7,92.9 445.1,80.2 445.5,91.4 445.9,91.7 446.4,82.5 446.8,82.8 447.2,84.8
447.6,85.1 448.0,91.9 448.4,82.6 448.8,86.1 449.2,79.5 449.6,85.9 450.0,86.7 450.5,91.6 450.9,87.8 451.3,93.1 451.7,84.2 452.1,87.0 452.5,82.2 452.9,88.9 453.3,96.8 453.7,93.5
454.1,91.6 454.6,87.0 455.0,77.2 455.4,91.9 455.8,64.7 456.2,74.0 456.6,70.7 457.0,74.6 457.4,71.5 457.8,85.0 458.2,82.3 458.6,80.3 459.1,77.2 459.5,69.7 459.9,87.6 460.3,85.9
460.7,92.2 461.1,89.4 461.5,91.2 461.9,88.2 462.3,86.0 462.7,82.2 463.2,91.2 463.6,83.2 464.0,87.8 464.4,85.8 464.8,87.5 465.2,94.7 465.6,85.2 466.0,83.5 466.4,85.9 466.8,84.5
467.3,80.9 467.7,82.5 468.1,82.8 468.5,77.4 468.9,86.9 469.3,79.8 469.7,84.0 470.1,82.3 470.5,82.2 470.9,81.7 471.3,69.6 471.8,69.6 472.2,69.8 472.6,70.6 473.0,70.6 473.4,75.9
473.8,75.9 474.2,75.8 474.6,76.4 475.0,73.7 475.4,82.3 475.9,84.9 476.3,77.4 476.7,75.8 477.1,83.3 477.5,85.5 477.9,88.9 478.3,89.6 478.7,90.5 479.1,85.3 479.5,83.3 480.0,85.9
480.4,81.9 480.8,80.9 481.2,80.9 481.6,82.5 482.0,82.5 482.4,82.5 482.8,76.5 483.2,78.3 483.6,78.2 484.0,75.3 484.5,69.9 484.9,88.7 485.3,81.6 485.7,84.6 486.1,83.7 486.5,86.3
486.9,84.2 487.3,86.1 487.7,87.1 488.1,81.7 488.6,83.3 489.0,72.9 489.4,64.6 489.8,85.2 490.2,80.6 490.6,85.7 491.0,87.6 491.4,88.8 491.8,84.3 492.2,83.8 492.6,90.6 493.1,92.2
493.5,89.7 493.9,82.5 494.3,92.7 494.7,91.9 495.1,90.9 495.5,92.1 495.9,86.8 496.3,88.7 496.7,70.1 497.2,75.6 497.6,92.6 498.0,94.3 498.4,93.4 498.8,84.1 499.2,85.7 499.6,85.7
500.0,87.8 500.4,83.8 500.8,89.0 501.3,83.8 501.7,89.6 502.1,89.1 502.5,89.1 502.9,86.5 503.3,90.0 503.7,85.2 504.1,89.1 504.5,85.7 504.9,84.1 505.3,94.8 505.8,89.2 506.2,85.3
506.6,91.3 507.0,93.3 507.4,89.9 507.8,94.5 508.2,97.7 508.6,97.4 509.0,96.9 509.4,89.5 509.9,93.6 510.3,92.7 510.7,90.8 511.1,84.8 511.5,93.2 511.9,90.0 512.3,92.6 512.7,85.9
513.1,93.7 513.5,81.4 514.0,84.7 514.4,79.7 514.8,77.1 515.2,79.6 515.6,79.9 516.0,79.2 516.4,83.1 516.8,79.6 517.2,89.0 517.6,89.0 518.0,70.8 518.5,88.3 518.9,88.3 519.3,88.2
519.7,88.2 520.1,82.5 520.5,87.9 520.9,94.4 521.3,98.0 521.7,85.2 522.1,85.2 522.6,72.8 523.0,86.4 523.4,85.7 523.8,84.0 524.2,85.0 524.6,74.2 525.0,74.0 525.4,72.8 525.8,72.7
526.2,75.5 526.6,73.6 527.1,77.1 527.5,76.8 527.9,76.7 528.3,72.6 528.7,72.6 529.1,73.0 529.5,73.6 529.9,85.6 530.3,82.0 530.7,83.0 531.2,85.8 531.6,75.2 532.0,79.5 532.4,87.1
532.8,83.8 533.2,81.6 533.6,88.9 534.0,89.5 534.4,73.0 534.8,92.4 535.3,93.1 535.7,82.3 536.1,91.0 536.5,84.8 536.9,77.4 537.3,83.6 537.7,89.8 538.1,90.1 538.5,81.8 538.9,77.3
539.3,72.5 539.8,73.7 540.2,88.5 540.6,82.9 541.0,82.9 541.4,83.1 541.8,89.4 542.2,83.6 542.6,89.4 543.0,88.3 543.4,94.7 543.9,85.1 544.3,89.0 544.7,91.1 545.1,88.3 545.5,85.6
545.9,89.2 546.3,89.2 546.7,72.3 547.1,84.4 547.5,85.3 548.0,91.5 548.4,81.3 548.8,88.8 549.2,90.0 549.6,78.2 550.0,82.4 550.4,82.4 550.8,77.1 551.2,86.3 551.6,69.8 552.0,73.2
552.5,73.2 552.9,73.2 553.3,76.9 553.7,90.6 554.1,77.1 554.5,94.5 554.9,93.3 555.3,75.7 555.7,74.5 556.1,74.5 556.6,74.8 557.0,67.7 557.4,69.2 557.8,71.7 558.2,84.0 558.6,83.8
559.0,85.2 559.4,82.3 559.8,85.6 560.2,74.1 560.7,79.2 561.1,77.0 561.5,76.5 561.9,78.4 562.3,79.0 562.7,88.1 563.1,80.9 563.5,83.0 563.9,82.5 564.3,82.2 564.7,81.1 565.2,88.0
565.6,74.1 566.0,82.7 566.4,81.3 566.8,78.9 567.2,81.1 567.6,81.3 568.0,84.2 568.4,84.3 568.8,84.9 569.3,78.8 569.7,78.0 570.1,83.8 570.5,77.4 570.9,85.9 571.3,91.0 571.7,89.3
572.1,75.6 572.5,80.1 572.9,79.5 573.3,76.2 573.8,80.2 574.2,80.2 574.6,79.9 575.0,81.4 575.4,81.0 575.8,87.2 576.2,91.9 576.6,89.9 577.0,88.6 577.4,84.2 577.9,82.7 578.3,82.9
578.7,96.5 579.1,97.1 579.5,96.4 579.9,89.8 580.3,89.8 580.7,78.8 581.1,90.2 581.5,87.8 582.0,88.3 582.4,87.8 582.8,90.5 583.2,87.5 583.6,82.1 584.0,91.3 584.4,86.7 584.8,84.1
585.2,77.3 585.6,86.2 586.0,93.5 586.5,95.4 586.9,94.8 587.3,80.7 587.7,87.7 588.1,92.7 588.5,78.2 588.9,86.4 589.3,94.8 589.7,91.9 590.1,92.3 590.6,89.7 591.0,88.5 591.4,88.2
591.8,88.9 592.2,89.6 592.6,92.8 593.0,92.8 593.4,91.0 593.8,96.8 594.2,89.3 594.7,90.0 595.1,89.3 595.5,87.7 595.9,88.1 596.3,81.8 596.7,81.2 597.1,81.9 597.5,81.9 597.9,81.9
598.3,81.9 598.7,81.2 599.2,80.1 599.6,78.3 600.0,84.2 600.4,85.1 600.8,81.9 601.2,86.2 601.6,86.2 602.0,80.3 602.4,80.3 602.8,77.1 603.3,80.6 603.7,76.8 604.1,76.9 604.5,77.8
604.9,77.8 605.3,77.8 605.7,77.8 606.1,76.6 606.5,74.7 606.9,73.8 607.4,76.3 607.8,75.8 608.2,75.8 608.6,89.6 609.0,79.0 609.4,93.0 609.8,89.7 610.2,89.7 610.6,90.6 611.0,90.4
611.4,90.2 611.9,87.6 612.3,85.1 612.7,84.6 613.1,82.5 613.5,86.5 613.9,85.0 614.3,85.2 614.7,83.6 615.1,85.5 615.5,85.4 616.0,85.3 616.4,85.2 616.8,89.8 617.2,89.8 617.6,92.0
618.0,89.7 618.4,91.1 618.8,91.3 619.2,81.3 619.6,91.2 620.0,94.3 620.5,94.4 620.9,88.4 621.3,88.6 621.7,80.7 622.1,85.6 622.5,87.2 622.9,86.9 623.3,89.0 623.7,85.0 624.1,92.6
624.6,87.3 625.0,87.8 625.4,87.8 625.8,88.6 626.2,84.5 626.6,91.7 627.0,91.2 627.4,88.3 627.8,92.5 628.2,90.6 628.7,90.4 629.1,78.4 629.5,78.0 629.9,85.0 630.3,85.0 630.7,85.5
631.1,87.8 631.5,94.4 631.9,92.2 632.3,86.3 632.7,94.1 633.2,95.6 633.6,97.3 634.0,94.6 634.4,94.3 634.8,84.6 635.2,88.2 635.6,99.7 636.0,95.3 636.4,88.2 636.8,94.5 637.3,94.9
637.7,95.4 638.1,99.4 638.5,93.3 638.9,89.0 639.3,89.4 639.7,94.2 640.1,91.2 640.5,91.3 640.9,83.3 641.4,86.9 641.8,90.4 642.2,92.2 642.6,92.4 643.0,94.8 643.4,94.1 643.8,94.3
644.2,86.4 644.6,88.0 645.0,80.0 645.4,82.7 645.9,89.5 646.3,79.2 646.7,90.5 647.1,97.9 647.5,87.7 647.9,84.1 648.3,83.3 648.7,80.9 649.1,87.9 649.5,76.2 650.0,88.4 650.4,79.2
650.8,92.8 651.2,78.1 651.6,87.0 652.0,74.4 652.4,75.6 652.8,82.6 653.2,86.9 653.6,87.2 654.0,82.6 654.5,84.5 654.9,87.0 655.3,88.2 655.7,82.8 656.1,93.5 656.5,88.8 656.9,97.8
657.3,77.0 657.7,75.2 658.1,82.3 658.6,84.7 659.0,88.1 659.4,96.0 659.8,87.7 660.2,88.3 660.6,94.9 661.0,81.3 661.4,89.6 661.8,98.8 662.2,91.3 662.7,90.1 663.1,97.3 663.5,86.5
663.9,94.2 664.3,92.3 664.7,91.6 665.1,92.6 665.5,89.0 665.9,88.9 666.3,88.0 666.7,85.9 667.2,88.7 667.6,85.3 668.0,89.3 668.4,89.6 668.8,93.5 669.2,93.0 669.6,88.0 670.0,100.2
670.4,89.7 670.8,82.6 671.3,81.0 671.7,90.2 672.1,101.7 672.5,84.4 672.9,95.3 673.3,89.1 673.7,93.1 674.1,95.5 674.5,80.0 674.9,88.4 675.4,87.9 675.8,75.6 676.2,76.2 676.6,76.6
677.0,76.6 677.4,89.1 677.8,87.8 678.2,78.5 678.6,83.5 679.0,87.6 679.4,87.2 679.9,90.1 680.3,81.0 680.7,81.3 681.1,80.3 681.5,91.9 681.9,93.1 682.3,95.2 682.7,83.3 683.1,85.6
683.5,87.5 684.0,84.7 684.4,84.4 684.8,83.2 685.2,82.8 685.6,82.1 686.0,83.8 686.4,82.2 686.8,79.2 687.2,77.7 687.6,69.4 688.1,85.4 688.5,77.3 688.9,76.8 689.3,76.2 689.7,75.6
690.1,76.3 690.5,76.2 690.9,76.2 691.3,67.7 691.7,76.2 692.1,74.9 692.6,73.7 693.0,76.3 693.4,75.9 693.8,74.8 694.2,75.8 694.6,80.4 695.0,73.5 695.4,79.5 695.8,77.5 696.2,80.9
696.7,80.9 697.1,74.2 697.5,67.0 697.9,71.0 698.3,71.0 698.7,62.6 699.1,63.2 699.5,64.3 699.9,64.4 700.3,64.4 700.7,63.9 701.2,69.1 701.6,71.5 702.0,71.9 702.4,71.9 702.8,73.1
703.2,73.1 703.6,81.4 704.0,78.1 704.4,88.9 704.8,85.1 705.3,89.2 705.7,84.9 706.1,87.1 706.5,83.8 706.9,80.5 707.3,86.4 707.7,81.5 708.1,81.0 708.5,92.5 708.9,83.0 709.4,81.0
709.8,83.0 710.2,81.4 710.6,85.1 711.0,83.9 711.4,82.1 711.8,86.6 712.2,86.3 712.6,90.3 713.0,85.7 713.4,86.6 713.9,85.3 714.3,81.3 714.7,79.9 715.1,79.9 715.5,81.1 715.9,84.7
716.3,81.3 716.7,83.3 717.1,93.3 717.5,87.7 718.0,78.7 718.4,91.4 718.8,92.4 719.2,82.6 719.6,85.6 720.0,80.7 720.4,90.8 720.8,87.8 721.2,80.3 721.6,82.6 722.1,81.0 722.5,84.1
722.9,83.5 723.3,83.5 723.7,80.6 724.1,91.4 724.5,87.2 724.9,84.1 725.3,82.6 725.7,79.0 726.1,77.8 726.6,95.4 727.0,90.4 727.4,85.6 727.8,90.7 728.2,90.6 728.6,84.3 729.0,91.6
729.4,82.4 729.8,80.6 730.2,90.3 730.7,80.7 731.1,74.8 731.5,87.7 731.9,87.7 732.3,83.7 732.7,84.1 733.1,90.7 733.5,83.7 733.9,81.2 734.3,80.9 734.7,95.9 735.2,87.2 735.6,87.2
736.0,81.7 736.4,92.0 736.8,86.4 737.2,86.4 737.6,79.1 738.0,85.0 738.4,86.5 738.8,80.9 739.3,92.2 739.7,83.6 740.1,84.0 740.5,81.0 740.9,69.6 741.3,81.0 741.7,84.2 742.1,80.8
742.5,79.9 742.9,79.3 743.4,80.5 743.8,91.5 744.2,87.0 744.6,87.2 745.0,83.8 745.4,79.6 745.8,80.4 746.2,80.8 746.6,93.4 747.0,92.8 747.4,87.6 747.9,88.2 748.3,83.6 748.7,88.0
749.1,91.3 749.5,83.6 749.9,83.9 750.3,83.0 750.7,90.7 751.1,90.7 751.5,87.7 752.0,94.3 752.4,91.8 752.8,85.5 753.2,91.8 753.6,79.8 754.0,86.9 754.4,78.0 754.8,79.1 755.2,85.7
755.6,90.0 756.1,87.9 756.5,89.4 756.9,84.5 757.3,87.3 757.7,86.1 758.1,85.1 758.5,87.6 758.9,87.9 759.3,82.5 759.7,78.7 760.1,86.5 760.6,85.3 761.0,80.7 761.4,83.1 761.8,81.2
762.2,77.5 762.6,78.6 763.0,94.9 763.4,93.6 763.8,92.4 764.2,80.9 764.7,94.3 765.1,84.1 765.5,94.1 765.9,95.6 766.3,86.1 766.7,76.1 767.1,82.5 767.5,86.0 767.9,84.6 768.3,85.2
768.8,83.2 769.2,83.0 769.6,85.8 770.0,77.4 770.4,81.3 770.8,68.4 771.2,74.5 771.6,75.2 772.0,77.4 772.4,77.4 772.8,77.5 773.3,76.2 773.7,75.7 774.1,75.1 774.5,77.9 774.9,80.6
775.3,77.4 775.7,77.6 776.1,79.5 776.5,86.5 776.9,81.9 777.4,79.0 777.8,85.9 778.2,87.3 778.6,86.9 779.0,88.0 779.4,88.5 779.8,89.4 780.2,90.7 780.6,81.5 781.0,83.0 781.4,91.0
781.9,90.5 782.3,77.0 782.7,78.5 783.1,90.0 783.5,90.7 783.9,78.5 784.3,83.5 784.7,70.2 785.1,70.2 785.5,72.0 786.0,78.5 786.4,77.1 786.8,82.0 787.2,74.4 787.6,82.8 788.0,83.2
788.4,72.8 788.8,77.8 789.2,80.9 789.6,82.0 790.1,83.3 790.5,83.3 790.9,83.3 791.3,83.3 791.7,83.6 792.1,82.5 792.5,83.9 792.9,85.5 793.3,69.5 793.7,91.9 794.1,82.5 794.6,79.6
795.0,81.5 795.4,88.0 795.8,88.2 796.2,95.7 796.6,87.9 797.0,78.7 797.4,86.2 797.8,75.6 798.2,75.6 798.7,76.0 799.1,76.6 799.5,69.6 799.9,72.4 800.3,64.3 800.7,63.2 801.1,67.1
801.5,69.7 801.9,74.7 802.3,76.2 802.8,72.3 803.2,72.3 803.6,58.6 804.0,62.2 804.4,64.4 804.8,63.5 805.2,60.6 805.6,60.8 806.0,54.1 806.4,59.5 806.8,59.5 807.3,59.5 807.7,59.4
808.1,63.3 808.5,62.3 808.9,64.9 809.3,65.6 809.7,65.6 810.1,66.9 810.5,66.9 810.9,63.0 811.4,58.9 811.8,61.5 812.2,61.6 812.6,61.6 813.0,74.6 813.4,74.6 813.8,82.3 814.2,86.1
814.6,77.1 815.0,84.8 815.5,83.2 815.9,83.2 816.3,76.9 816.7,75.2 817.1,92.6 817.5,74.3 817.9,89.4 818.3,79.8 818.7,83.6 819.1,79.5 819.5,82.0 820.0,73.3 820.4,73.7 820.8,78.8
821.2,72.9 821.6,71.2 822.0,71.9 822.4,71.9 822.8,71.7 823.2,69.5 823.6,65.8 824.1,65.2 824.5,69.2 824.9,69.2 825.3,68.3 825.7,60.5 826.1,60.5 826.5,66.7 826.9,69.6 827.3,69.6
827.7,69.7 828.1,69.7 828.6,61.2 829.0,63.2 829.4,63.6 829.8,63.4 830.2,63.6 830.6,63.6 831.0,70.0 831.4,65.7 831.8,72.9 832.2,75.6 832.7,77.3 833.1,80.2 833.5,80.1 833.9,78.5
834.3,74.5 834.7,73.2 835.1,78.6 835.5,76.1 835.9,75.0 836.3,84.1 836.8,80.2 837.2,87.2 837.6,80.6 838.0,83.5 838.4,82.1 838.8,82.5 839.2,78.4 839.6,77.1 840.0,80.8 840.4,80.9
840.8,82.7 841.3,85.7 841.7,80.4 842.1,80.4 842.5,80.4 842.9,70.6 843.3,70.0 843.7,73.3 844.1,71.6 844.5,72.5 844.9,80.3 845.4,80.3 845.8,80.3 846.2,80.2 846.6,80.2 847.0,81.0
847.4,90.3 847.8,90.1 848.2,79.1 848.6,90.0 849.0,84.1 849.5,88.0 849.9,90.7 850.3,82.4 850.7,84.7 851.1,90.1 851.5,74.1 851.9,75.3 852.3,75.3 852.7,75.2 853.1,79.6 853.5,79.1
854.0,73.8 854.4,73.5 854.8,80.0 855.2,89.5 855.6,83.6 856.0,95.2 856.4,93.3 856.8,86.1 857.2,89.7 857.6,91.6 858.1,87.3 858.5,93.4 858.9,89.6 859.3,87.5 859.7,87.5 860.1,89.5
860.5,86.1 860.9,86.8 861.3,89.9 861.7,85.8 862.1,82.8 862.6,83.4 863.0,84.0 863.4,81.1 863.8,81.2 864.2,84.8 864.6,84.8 865.0,87.7 865.4,82.9 865.8,73.6 866.2,77.6 866.7,84.8
867.1,84.8 867.5,86.7 867.9,82.5 868.3,82.7 868.7,75.7 869.1,79.3 869.5,80.4 869.9,86.8 870.3,79.8 870.8,84.9 871.2,87.7 871.6,82.5 872.0,89.1 872.4,91.0 872.8,85.6 873.2,74.4
873.6,87.4 874.0,87.4 874.4,87.4 874.8,89.0 875.3,81.5 875.7,84.0 876.1,84.0 876.5,79.1 876.9,73.6 877.3,77.2 877.7,89.1 878.1,92.3 878.5,84.2 878.9,81.2 879.4,90.8 879.8,87.1
880.2,88.4 880.6,81.2 881.0,89.7 881.4,91.3 881.8,88.7 882.2,90.2 882.6,73.1 883.0,74.5 883.5,73.6 883.9,93.6 884.3,84.1 884.7,83.6 885.1,83.6 885.5,95.5 885.9,94.0 886.3,76.5
886.7,79.6 887.1,91.6 887.5,83.0 888.0,92.1 888.4,87.3 888.8,77.9 889.2,106.3 889.6,91.1 890.0,88.3 890.4,93.2 890.8,89.0 891.2,86.5 891.6,92.9 892.1,92.9 892.5,76.6 892.9,91.2
893.3,98.7 893.7,97.1 894.1,94.4 894.5,85.9 894.9,93.4 895.3,95.1 895.7,87.4 896.2,89.5 896.6,88.7 897.0,94.3 897.4,97.9 897.8,86.5 898.2,76.8 898.6,78.7 899.0,74.7 899.4,83.9
899.8,89.6 900.2,91.7 900.7,92.4 901.1,87.3 901.5,85.4 901.9,86.6 902.3,93.3 902.7,87.5 903.1,82.3 903.5,96.6 903.9,93.2 904.3,95.0 904.8,83.0 905.2,90.5 905.6,96.3 906.0,97.3
906.4,95.8 906.8,88.9 907.2,87.4 907.6,82.6 908.0,90.6 908.4,91.7 908.8,83.5 909.3,86.8 909.7,89.4 910.1,85.8 910.5,90.4 910.9,93.2 911.3,93.8 911.7,83.5 912.1,85.9 912.5,96.2
912.9,88.1 913.4,85.2 913.8,90.8 914.2,74.6 914.6,89.5 915.0,92.7 915.4,85.5 915.8,90.6 916.2,79.3 916.6,84.1 917.0,86.8 917.5,80.4 917.9,81.4 918.3,79.0 918.7,78.6 919.1,79.2
919.5,88.3 919.9,87.2 920.3,84.8 920.7,82.6 921.1,90.8 921.5,85.3 922.0,78.6 922.4,88.6 922.8,92.3 923.2,83.7 923.6,86.8 924.0,96.6 924.4,93.9 924.8,100.5 925.2,89.3 925.6,85.2
926.1,88.0 926.5,97.9 926.9,89.6 927.3,79.3 927.7,86.4 928.1,92.0 928.5,94.4 928.9,87.6 929.3,88.9 929.7,87.9 930.2,79.9 930.6,79.8 931.0,76.3 931.4,94.9 931.8,95.4 932.2,102.8
932.6,90.3 933.0,85.9 933.4,84.5 933.8,87.9 934.2,90.0 934.7,97.4 935.1,90.3 935.5,86.5 935.9,86.5 936.3,86.5 936.7,83.6 937.1,89.9 937.5,80.0 937.9,80.0 938.3,91.8 938.8,97.1
939.2,84.1 939.6,91.6 940.0,81.4 940.4,94.3 940.8,88.7 941.2,78.1 941.6,83.4 942.0,81.9 942.4,75.8 942.8,80.7 943.3,88.5 943.7,92.7 944.1,89.2 944.5,89.9 944.9,87.0 945.3,92.9
945.7,86.0 946.1,94.9 946.5,88.1 946.9,91.1 947.4,97.7 947.8,89.4 948.2,82.6 948.6,77.0 949.0,85.9 949.4,84.2 949.8,87.6 950.2,82.5 950.6,88.3 951.0,87.1 951.5,87.2 951.9,86.5
952.3,82.4 952.7,83.1 953.1,86.7 953.5,86.6 953.9,81.3 954.3,90.4 954.7,91.4 955.1,94.4 955.5,84.4 956.0,84.4 956.4,85.8 956.8,79.1 957.2,85.9 957.6,85.0 958.0,86.5 958.4,87.3
958.8,78.8 959.2,86.3 959.6,77.4 960.1,93.6 960.5,80.4 960.9,88.8 961.3,88.0 961.7,87.9 962.1,73.9 962.5,88.9 962.9,87.0 963.3,88.9 963.7,87.3 964.2,86.6 964.6,81.2 965.0,86.5
965.4,86.5 965.8,81.1 966.2,87.6 966.6,76.3 967.0,98.5 967.4,89.6 967.8,92.1 968.2,83.3 968.7,92.5 969.1,92.3 969.5,91.3 969.9,78.6 970.3,91.7 970.7,91.8 971.1,93.5 971.5,73.9
971.9,74.8 972.3,81.5 972.8,81.5 973.2,89.5 973.6,90.9 974.0,92.5 974.4,84.9 974.8,85.1 975.2,75.4 975.6,86.3 976.0,81.0 976.4,83.3 976.9,62.6 977.3,72.1 977.7,72.1 978.1,67.4
978.5,67.9 978.9,65.0 979.3,73.2 979.7,70.9 980.1,69.6 980.5,71.7 980.9,76.7 981.4,82.2 981.8,84.5 982.2,86.0 982.6,83.4 983.0,81.0 983.4,84.5 983.8,80.9 984.2,77.3 984.6,88.4
985.0,84.8 985.5,77.3 985.9,77.1 986.3,84.2 986.7,80.2 987.1,76.5 987.5,88.3 987.9,81.1 988.3,88.3 988.7,80.5 989.1,77.5 989.5,82.7 990.0,81.1 990.4,85.5 990.8,83.8 991.2,82.8
991.6,82.1 992.0,84.3 992.4,84.0 992.8,83.6 993.2,82.8 993.6,82.1 994.1,82.8 994.5,84.9 994.9,84.3 995.3,84.5 995.7,76.5 996.1,82.6 996.5,82.7 996.9,78.0 997.3,79.1 997.7,81.2
998.2,76.8 998.6,78.1 999.0,78.6 999.4,89.4 999.8,86.3 1000.2,89.1 1000.6,87.9 1001.0,69.0 1001.4,69.0 1001.8,69.0 1002.2,85.4 1002.7,89.3 1003.1,83.9 1003.5,81.8 1003.9,85.6 1004.3,85.6
1004.7,83.1 1005.1,90.5 1005.5,87.8 1005.9,84.8 1006.3,87.3 1006.8,85.2 1007.2,89.7 1007.6,94.2 1008.0,88.2 1008.4,85.3 1008.8,80.1 1009.2,80.5 1009.6,79.6 1010.0,92.0 1010.4,93.5 1010.9,93.5
1011.3,92.0 1011.7,91.0 1012.1,79.0 1012.5,80.3 1012.9,84.7 1013.3,72.4 1013.7,80.7 1014.1,90.8 1014.5,89.7 1014.9,88.8 1015.4,73.8 1015.8,77.1 1016.2,88.1 1016.6,85.7 1017.0,85.5 1017.4,87.2
1017.8,85.3 1018.2,82.1 1018.6,84.9 1019.0,80.8 1019.5,81.2 1019.9,87.9 1020.3,80.8 1020.7,87.9 1021.1,81.3 1021.5,88.0 1021.9,87.3 1022.3,92.5 1022.7,87.4 1023.1,92.2 1023.6,91.9 1024.0,84.6
1024.4,93.3 1024.8,93.8 1025.2,89.0 1025.6,89.3 1026.0,92.6 1026.4,74.3 1026.8,77.3 1027.2,79.6 1027.6,86.3 1028.1,84.9 1028.5,89.7 1028.9,80.6 1029.3,90.8 1029.7,86.6 1030.1,86.0 1030.5,73.6
1030.9,78.0 1031.3,83.0 1031.7,80.6 1032.2,82.4 1032.6,82.1 1033.0,83.1 1033.4,88.5 1033.8,88.5 1034.2,83.2 1034.6,78.5 1035.0,83.2 1035.4,82.6 1035.8,77.0 1036.2,81.2 1036.7,77.8 1037.1,81.0
1037.5,81.4 1037.9,84.6 1038.3,83.5 1038.7,83.6 1039.1,75.8 1039.5,76.5 1039.9,86.6 1040.3,72.3 1040.8,75.4 1041.2,76.6 1041.6,74.6 1042.0,82.3 1042.4,76.4 1042.8,86.8 1043.2,79.5 1043.6,85.1
1044.0,83.0 1044.4,81.0 1044.9,72.5 1045.3,76.6 1045.7,75.0 1046.1,82.7 1046.5,86.0 1046.9,86.7 1047.3,76.5 1047.7,80.4 1048.1,91.1 1048.5,95.4 1048.9,90.3 1049.4,86.9 1049.8,94.2 1050.2,91.0
1050.6,89.4 1051.0,88.5 1051.4,86.2 1051.8,82.3 1052.2,87.7 1052.6,79.5 1053.0,82.8 1053.5,83.9 1053.9,82.0 1054.3,96.0 1054.7,90.4 1055.1,85.7 1055.5,90.5 1055.9,79.9 1056.3,84.6 1056.7,89.9
1057.1,90.6 1057.6,93.5 1058.0,91.6 1058.4,84.5 1058.8,91.2 1059.2,81.4 1059.6,79.1 1060.0,75.1 1060.4,76.3 1060.8,83.2 1061.2,97.1 1061.6,89.0 1062.1,86.5 1062.5,88.9 1062.9,79.5 1063.3,83.9
1063.7,86.7 1064.1,81.2 1064.5,83.0 1064.9,81.6 1065.3,75.8 1065.7,78.0 1066.2,80.5 1066.6,81.1 1067.0,79.2 1067.4,83.2 1067.8,78.6 1068.2,81.9 1068.6,83.0 1069.0,83.0 1069.4,80.9 1069.8,99.9
1070.2,88.9 1070.7,92.4 1071.1,83.2 1071.5,84.4 1071.9,87.2 1072.3,87.8 1072.7,87.8 1073.1,85.6 1073.5,81.1 1073.9,79.1 1074.3,86.9 1074.8,85.1 1075.2,91.3 1075.6,85.3 1076.0,93.9 1076.4,85.5
1076.8,87.5 1077.2,82.2 1077.6,81.6 1078.0,95.1 1078.4,77.3 1078.9,87.9 1079.3,80.3 1079.7,91.1 1080.1,75.5 1080.5,86.5 1080.9,90.5 1081.3,89.4 1081.7,84.6 1082.1,92.4 1082.5,92.7 1082.9,91.6
1083.4,81.6 1083.8,88.8 1084.2,88.1 1084.6,85.6 1085.0,81.0 1085.4,87.0 1085.8,87.0 1086.2,85.4 1086.6,87.0 1087.0,68.8 1087.5,87.3 1087.9,87.3 1088.3,80.1 1088.7,84.7 1089.1,88.8 1089.5,79.4
1089.9,82.8 1090.3,78.9 1090.7,76.3 1091.1,76.8 1091.6,76.8 1092.0,76.3 1092.4,78.6 1092.8,78.6 1093.2,76.1 1093.6,82.3 1094.0,83.7 1094.4,82.9 1094.8,81.6 1095.2,83.1 1095.6,83.1 1096.1,82.5
1096.5,77.0 1096.9,91.2 1097.3,80.8 1097.7,88.2 1098.1,85.6 1098.5,86.6 1098.9,83.3 1099.3,90.8 1099.7,81.5 1100.2,79.9 1100.6,83.0 1101.0,78.0 1101.4,79.0 1101.8,78.8 1102.2,79.1 1102.6,79.1
1103.0,91.3 1103.4,93.0 1103.8,93.9 1104.3,86.1 1104.7,97.1 1105.1,91.5 1105.5,79.9 1105.9,89.2 1106.3,93.7 1106.7,85.6 1107.1,86.9 1107.5,80.9 1107.9,83.5 1108.3,83.4 1108.8,85.4 1109.2,90.0
1109.6,83.6 1110.0,91.2 1110.4,83.5 1110.8,84.2 1111.2,89.8 1111.6,87.0 1112.0,96.5 1112.4,87.5 1112.9,91.1 1113.3,89.9 1113.7,86.8 1114.1,83.1 1114.5,93.3 1114.9,83.8 1115.3,94.4 1115.7,92.4
1116.1,88.6 1116.5,92.1 1116.9,82.5 1117.4,89.6 1117.8,77.1 1118.2,87.4 1118.6,84.4 1119.0,86.4 1119.4,90.2 1119.8,85.0 1120.2,86.5 1120.6,79.9 1121.0,93.8 1121.5,82.6 1121.9,88.0 1122.3,88.1
1122.7,88.9 1123.1,91.8 1123.5,90.0 1123.9,80.1 1124.3,88.6 1124.7,88.6 1125.1,95.4 1125.6,90.3 1126.0,93.3 1126.4,93.4 1126.8,89.8 1127.2,98.8 1127.6,95.7 1128.0,80.9 1128.4,94.1 1128.8,96.7
1129.2,93.6 1129.6,85.7 1130.1,85.7 1130.5,84.3 1130.9,83.7 1131.3,80.8 1131.7,79.5 1132.1,79.3 1132.5,88.2 1132.9,88.6 1133.3,85.9 1133.7,94.8 1134.2,91.6 1134.6,93.9 1135.0,90.9 1135.4,90.6
1135.8,85.8 1136.2,93.1 1136.6,89.6 1137.0,85.5 1137.4,85.6 1137.8,69.0 1138.3,82.7 1138.7,83.7 1139.1,88.6 1139.5,76.9 1139.9,90.7 1140.3,91.7 1140.7,89.0 1141.1,92.1 1141.5,81.7 1141.9,80.9
1142.3,79.3 1142.8,85.1 1143.2,83.9 1143.6,84.4 1144.0,85.5 1144.4,77.1 1144.8,81.7 1145.2,82.0 1145.6,82.9 1146.0,78.5 1146.4,78.3 1146.9,85.3 1147.3,78.6 1147.7,79.6 1148.1,81.4 1148.5,83.5
1148.9,83.8 1149.3,84.7 1149.7,78.0 1150.1,83.3 1150.5,83.3 1150.9,84.5 1151.4,79.6 1151.8,84.8 1152.2,78.3 1152.6,85.0 1153.0,84.7 1153.4,88.0 1153.8,88.0 1154.2,92.8 1154.6,92.7 1155.0,92.2
1155.5,95.1 1155.9,85.5 1156.3,90.0 1156.7,88.9 1157.1,93.3 1157.5,89.0 1157.9,85.0 1158.3,80.3 1158.7,80.2 1159.1,81.4 1159.6,79.9 1160.0,85.5 1160.4,87.9 1160.8,85.4 1161.2,83.9 1161.6,83.9
1162.0,84.6 1162.4,84.6 1162.8,85.1 1163.2,81.3 1163.6,86.2 1164.1,86.5 1164.5,75.7 1164.9,86.3 1165.3,83.1 1165.7,85.8 1166.1,89.5 1166.5,92.9 1166.9,89.3 1167.3,85.6 1167.7,88.4 1168.2,77.5
1168.6,80.5 1169.0,80.5 1169.4,78.5 1169.8,88.2 1170.2,88.7 1170.6,82.6 1171.0,88.8 1171.4,87.6 1171.8,87.6 1172.3,92.8 1172.7,80.6 1173.1,81.0 1173.5,86.7 1173.9,90.5 1174.3,88.9 1174.7,98.4
1175.1,85.9 1175.5,88.1 1175.9,92.3 1176.3,86.8 1176.8,92.9 1177.2,91.1 1177.6,94.6 1178.0,80.9 1178.4,89.4 1178.8,89.0 1179.2,88.0 1179.6,83.0 1180.0,82.7 1180.4,89.1 1180.9,85.0 1181.3,85.1
1181.7,88.8 1182.1,86.4 1182.5,85.6 1182.9,85.9 1183.3,80.5 1183.7,83.4 1184.1,79.3 1184.5,88.2 1185.0,89.0 1185.4,77.9 1185.8,83.4 1186.2,76.5 1186.6,84.8 1187.0,85.9 1187.4,82.1 1187.8,82.0
1188.2,90.9 1188.6,91.7 1189.0,90.4 1189.5,97.4 1189.9,94.2 1190.3,89.2 1190.7,101.6 1191.1,79.7 1191.5,82.8 1191.9,93.3 1192.3,101.4 1192.7,99.7 1193.1,82.0 1193.6,84.9 1194.0,84.5 1194.4,84.9
1194.8,87.9 1195.2,88.6 1195.6,84.3 1196.0,82.0 1196.4,90.8 1196.8,88.0 1197.2,87.9 1197.6,93.8 1198.1,88.8 1198.5,88.1 1198.9,78.4 1199.3,87.7 1199.7,90.6 1200.1,90.6 1200.5,90.6 1200.9,88.6
1201.3,90.5 1201.7,87.8 1202.2,86.5 1202.6,83.0 1203.0,74.3 1203.4,81.1 1203.8,82.1 1204.2,78.5 1204.6,81.4 1205.0,89.4 1205.4,83.7 1205.8,90.0 1206.3,82.9 1206.7,81.6 1207.1,81.5 1207.5,77.3
1207.9,93.3 1208.3,88.8 1208.7,92.3 1209.1,90.0 1209.5,82.3 1209.9,84.8 1210.3,92.7 1210.8,93.0 1211.2,88.8 1211.6,85.6 1212.0,87.9 1212.4,73.0 1212.8,84.0 1213.2,78.8 1213.6,75.4 1214.0,87.2
1214.4,89.1 1214.9,94.1 1215.3,86.6 1215.7,78.3 1216.1,80.9 1216.5,87.1 1216.9,82.2 1217.3,85.3 1217.7,87.2 1218.1,82.7 1218.5,84.1 1219.0,79.7 1219.4,81.5 1219.8,78.9 1220.2,82.4 1220.6,67.5
1221.0,78.2 1221.4,84.7 1221.8,81.0 1222.2,81.9 1222.6,81.1 1223.0,81.8 1223.5,83.6 1223.9,83.2 1224.3,92.0 1224.7,72.1 1225.1,76.3 1225.5,80.5 1225.9,78.9 1226.3,77.1 1226.7,73.0 1227.1,79.8
1227.6,79.0 1228.0,79.0 1228.4,82.7 1228.8,81.9 1229.2,80.7 1229.6,74.8 1230.0,81.9 1230.4,82.9 1230.8,82.1 1231.2,77.8 1231.7,72.5 1232.1,71.9 1232.5,73.3 1232.9,72.8 1233.3,78.0 1233.7,80.2
1234.1,72.4 1234.5,81.9 1234.9,70.9 1235.3,75.7 1235.7,76.6 1236.2,78.6 1236.6,86.9 1237.0,81.5 1237.4,83.1 1237.8,79.7 1238.2,85.1 1238.6,76.0 1239.0,72.5 1239.4,73.0 1239.8,65.2 1240.3,73.8
1240.7,73.8 1241.1,70.6 1241.5,69.8 1241.9,72.8 1242.3,70.7 1242.7,70.7 1243.1,70.7 1243.5,72.4 1243.9,73.5 1244.3,75.3 1244.8,74.5 1245.2,75.7 1245.6,73.2 1246.0,80.3 1246.4,82.7 1246.8,78.8
1247.2,80.1 1247.6,75.9 1248.0,71.2 1248.4,68.2 1248.9,69.5 1249.3,69.7 1249.7,72.5 1250.1,72.5 1250.5,72.5 1250.9,71.7 1251.3,66.4 1251.7,73.4 1252.1,73.5 1252.5,76.7 1253.0,73.1 1253.4,73.1
1253.8,73.1 1254.2,73.1 1254.6,69.3 1255.0,74.8 1255.0,703.4 87.1,703.4 '/>
	</g>
</g>
	</g>
	<g id="gnuplot_plot_2" ><title>trendline (m=0.003251,b=147.536901)</title>
<g fill="none" color="black" stroke="currentColor" stroke-width="1.00" stroke-linecap="butt" stroke-linejoin="miter">
	<g transform="translate(1187.9,94.0)" stroke="none" fill="black" font-family="Arial" font-size="12.00"  text-anchor="end">
		<text><tspan font-family="Arial" >trendline (m=0.003251,b=147.536901)</tspan></text>
	</g>
</g>
<g fill="none" color="black" stroke="currentColor" stroke-width="1.00" stroke-linecap="butt" stroke-linejoin="miter">
	<path stroke='black'  d='M1196.2,90.1 L1238.4,90.1 M87.1,132.4 L98.9,131.7 L110.7,131.0 L122.5,130.3 L134.3,129.5 L146.1,128.8
		L157.9,128.1 L169.7,127.3 L181.5,126.6 L193.3,125.9 L205.1,125.2 L216.9,124.4 L228.7,123.7 L240.5,123.0
		L252.3,122.3 L264.1,121.5 L275.9,120.8 L287.6,120.1 L299.4,119.3 L311.2,118.6 L323.0,117.9 L334.8,117.2
		L346.6,116.4 L358.4,115.7 L370.2,115.0 L382.0,114.3 L393.8,113.5 L405.6,112.8 L417.4,112.1 L429.2,111.3
		L441.0,110.6 L452.8,109.9 L464.6,109.2 L476.4,108.4 L488.2,107.7 L500.0,107.0 L511.8,106.3 L523.6,105.5
		L535.4,104.8 L547.2,104.1 L559.0,103.3 L570.8,102.6 L582.6,101.9 L594.4,101.2 L606.2,100.4 L618.0,99.7
		L629.8,99.0 L641.6,98.3 L653.4,97.5 L665.2,96.8 L676.9,96.1 L688.7,95.3 L700.5,94.6 L712.3,93.9
		L724.1,93.2 L735.9,92.4 L747.7,91.7 L759.5,91.0 L771.3,90.3 L783.1,89.5 L794.9,88.8 L806.7,88.1
		L818.5,87.3 L830.3,86.6 L842.1,85.9 L853.9,85.2 L865.7,84.4 L877.5,83.7 L889.3,83.0 L901.1,82.3
		L912.9,81.5 L924.7,80.8 L936.5,80.1 L948.3,79.3 L960.1,78.6 L971.9,77.9 L983.7,77.2 L995.5,76.4
		L1007.3,75.7 L1019.1,75.0 L1030.9,74.3 L1042.7,73.5 L1054.5,72.8 L1066.2,72.1 L1078.0,71.3 L1089.8,70.6
		L1101.6,69.9 L1113.4,69.2 L1125.2,68.4 L1137.0,67.7 L1148.8,67.0 L1160.6,66.3 L1172.4,65.5 L1184.2,64.8
		L1196.0,64.1 L1207.8,63.3 L1219.6,62.6 L1231.4,61.9 L1243.2,61.2 L1255.0,60.4  '/></g>
	</g>
<g fill="none" color="white" stroke="black" stroke-width="2.00" stroke-linecap="butt" stroke-linejoin="miter">
</g>
<g fill="none" color="black" stroke="currentColor" stroke-width="2.00" stroke-linecap="butt" stroke-linejoin="miter">
</g>
<g fill="none" color="black" stroke="black" stroke-width="1.00" stroke-linecap="butt" stroke-linejoin="miter">
</g>
<g fill="none" color="black" stroke="currentColor" stroke-width="1.00" stroke-linecap="butt" stroke-linejoin="miter">
	<path stroke='black'  d='M87.1,54.1 L87.1,703.4 L1255.0,703.4 L1255.0,54.1 L87.1,54.1 Z  '/></g>
<g fill="none" color="black" stroke="currentColor" stroke-width="1.00" stroke-linecap="butt" stroke-linejoin="miter">
</g>
</g>
</svg>

