<?xml version="1.0" encoding="utf-8"  standalone="no"?>
<svg 
 width="1280" height="720"
 viewBox="0 0 1280 720"
 xmlns="http://www.w3.org/2000/svg"
 xmlns:xlink="http://www.w3.org/1999/xlink"
>

<title>Gnuplot</title>
<desc>Produced by GNUPLOT 5.2 patchlevel 2 </desc>

<g id="gnuplot_canvas">

<rect x="0" y="0" width="1280" height="720" fill="none"/>
<defs>

	<circle id='gpDot' r='0.5' stroke-width='0.5'/>
	<path id='gpPt0' stroke-width='0.222' stroke='currentColor' d='M-1,0 h2 M0,-1 v2'/>
	<path id='gpPt1' stroke-width='0.222' stroke='currentColor' d='M-1,-1 L1,1 M1,-1 L-1,1'/>
	<path id='gpPt2' stroke-width='0.222' stroke='currentColor' d='M-1,0 L1,0 M0,-1 L0,1 M-1,-1 L1,1 M-1,1 L1,-1'/>
	<rect id='gpPt3' stroke-width='0.222' stroke='currentColor' x='-1' y='-1' width='2' height='2'/>
	<rect id='gpPt4' stroke-width='0.222' stroke='currentColor' fill='currentColor' x='-1' y='-1' width='2' height='2'/>
	<circle id='gpPt5' stroke-width='0.222' stroke='currentColor' cx='0' cy='0' r='1'/>
	<use xlink:href='#gpPt5' id='gpPt6' fill='currentColor' stroke='none'/>
	<path id='gpPt7' stroke-width='0.222' stroke='currentColor' d='M0,-1.33 L-1.33,0.67 L1.33,0.67 z'/>
	<use xlink:href='#gpPt7' id='gpPt8' fill='currentColor' stroke='none'/>
	<use xlink:href='#gpPt7' id='gpPt9' stroke='currentColor' transform='rotate(180)'/>
	<use xlink:href='#gpPt9' id='gpPt10' fill='currentColor' stroke='none'/>
	<use xlink:href='#gpPt3' id='gpPt11' stroke='currentColor' transform='rotate(45)'/>
	<use xlink:href='#gpPt11' id='gpPt12' fill='currentColor' stroke='none'/>
	<path id='gpPt13' stroke-width='0.222' stroke='currentColor' d='M0,1.330 L1.265,0.411 L0.782,-1.067 L-0.782,-1.076 L-1.265,0.411 z'/>
	<use xlink:href='#gpPt13' id='gpPt14' fill='currentColor' stroke='none'/>
	<filter id='textbox' filterUnits='objectBoundingBox' x='0' y='0' height='1' width='1'>
	  <feFlood flood-color='white' flood-opacity='1' result='bgnd'/>
	  <feComposite in='SourceGraphic' in2='bgnd' operator='atop'/>
	</filter>
	<filter id='greybox' filterUnits='objectBoundingBox' x='0' y='0' height='1' width='1'>
	  <feFlood flood-color='lightgrey' flood-opacity='1' result='grey'/>
	  <feComposite in='SourceGraphic' in2='grey' operator='atop'/>
	</filter>
</defs>
<g fill="none" color="white" stroke="currentColor" stroke-width="1.00" stroke-linecap="butt" stroke-linejoin="miter">
</g>
<g fill="none" color="black" stroke="currentColor" stroke-width="1.00" stroke-linecap="butt" stroke-linejoin="miter">
	<path stroke='black'  d='M87.1,703.4 L96.1,703.4 M1255.0,703.4 L1246.0,703.4  '/>	<g transform="translate(78.8,707.3)" stroke="none" fill="black" font-family="Arial" font-size="12.00"  text-anchor="end">
		<text><tspan font-family="Arial" > 289.857</tspan></text>
	</g>
</g>
<g fill="none" color="black" stroke="currentColor" stroke-width="1.00" stroke-linecap="butt" stroke-linejoin="miter">
	<path stroke='black'  d='M87.1,138.5 L96.1,138.5 M1255.0,138.5 L1246.0,138.5  '/>	<g transform="translate(78.8,142.4)" stroke="none" fill="black" font-family="Arial" font-size="12.00"  text-anchor="end">
		<text><tspan font-family="Arial" > 568.329</tspan></text>
	</g>
</g>
<g fill="none" color="black" stroke="currentColor" stroke-width="1.00" stroke-linecap="butt" stroke-linejoin="miter">
	<path stroke='black'  d='M87.1,54.1 L96.1,54.1 M1255.0,54.1 L1246.0,54.1  '/>	<g transform="translate(78.8,58.0)" stroke="none" fill="black" font-family="Arial" font-size="12.00"  text-anchor="end">
		<text><tspan font-family="Arial" > 609.95</tspan></text>
	</g>
</g>
<g fill="none" color="black" stroke="currentColor" stroke-width="1.00" stroke-linecap="butt" stroke-linejoin="miter">
</g>
<g fill="none" color="black" stroke="currentColor" stroke-width="1.00" stroke-linecap="butt" stroke-linejoin="miter">
	<path stroke='black'  d='M87.1,54.1 L87.1,703.4 L1255.0,703.4 L1255.0,54.1 L87.1,54.1 Z  '/></g>
<g fill="none" color="black" stroke="currentColor" stroke-width="1.00" stroke-linecap="butt" stroke-linejoin="miter">
	<g transform="translate(671.0,31.0)" stroke="none" fill="black" font-family="Arial" font-size="12.00"  text-anchor="middle">
		<text><tspan font-family="Arial" >Material 22, 4 components</tspan></text>
	</g>
</g>
	<g id="gnuplot_plot_1" ><title>log(likelihood)</title>
<g fill="none" color="black" stroke="currentColor" stroke-width="1.00" stroke-linecap="butt" stroke-linejoin="miter">
	<g transform="translate(1187.9,76.0)" stroke="none" fill="black" font-family="Arial" font-size="12.00"  text-anchor="end">
		<text><tspan font-family="Arial" >log(likelihood)</tspan></text>
	</g>
</g>
<g fill="none" color="black" stroke="currentColor" stroke-width="1.00" stroke-linecap="butt" stroke-linejoin="miter">
	<g stroke='none' shape-rendering='crispEdges'>
		<polygon fill = 'rgb(148,   0, 211)' fill-opacity = '0.100000' points = '1196.2,76.6 1238.4,76.6 1238.4,67.6 1196.2,67.6 '/>
	</g>
	<path stroke='rgb(148,   0, 211)'  d='M1196.2,76.6 L1238.4,76.6 L1238.4,67.6 L1196.2,67.6 L1196.2,76.6 Z  '/></g>
<g fill="none" color="black" stroke="currentColor" stroke-width="1.00" stroke-linecap="butt" stroke-linejoin="miter">
	<g stroke='none' shape-rendering='crispEdges'>
		<polygon fill = 'rgb(148,   0, 211)' fill-opacity = '0.100000' points = '87.1,703.4 89.5,692.1 92.0,673.2 94.4,663.9 96.9,653.4 99.3,644.7 101.8,647.1 104.2,643.8 106.6,641.9 109.1,640.4 111.5,635.0 114.0,636.6 116.4,636.6 118.9,635.9 121.3,633.4 123.7,634.6
126.2,630.6 128.6,633.6 131.1,631.1 133.5,627.6 136.0,629.9 138.4,630.5 140.9,631.2 143.3,631.7 145.7,631.9 148.2,629.4 150.6,629.8 153.1,628.8 155.5,626.6 158.0,630.0 160.4,629.5 162.8,628.8
165.3,625.3 167.7,628.2 170.2,627.5 172.6,627.0 175.1,628.3 177.5,623.7 179.9,625.5 182.4,625.5 184.8,624.9 187.3,620.6 189.7,617.9 192.2,615.8 194.6,618.6 197.0,618.6 199.5,615.0 201.9,615.3
204.4,611.4 206.8,605.0 209.3,600.7 211.7,586.2 214.2,582.2 216.6,568.4 219.0,550.1 221.5,547.0 223.9,483.8 226.4,445.3 228.8,429.2 231.3,429.2 233.7,403.1 236.1,376.2 238.6,365.4 241.0,344.6
243.5,328.4 245.9,306.0 248.4,284.3 250.8,278.7 253.2,270.4 255.7,261.5 258.1,246.0 260.6,233.4 263.0,230.8 265.5,222.3 267.9,208.7 270.3,196.7 272.8,192.5 275.2,171.5 277.7,172.3 280.1,166.9
282.6,158.4 285.0,149.7 287.5,144.8 289.9,132.2 292.3,123.3 294.8,96.5 297.2,98.9 299.7,93.5 302.1,86.7 304.6,75.8 307.0,75.8 309.4,70.7 311.9,69.1 314.3,67.5 316.8,68.8 319.2,65.6
321.7,67.8 324.1,67.4 326.5,66.0 329.0,63.0 331.4,63.6 333.9,65.3 336.3,61.3 338.8,63.8 341.2,63.5 343.6,64.5 346.1,64.2 348.5,61.1 351.0,63.4 353.4,64.3 355.9,60.7 358.3,64.5
360.8,60.3 363.2,61.3 365.6,62.9 368.1,57.7 370.5,58.8 373.0,60.2 375.4,60.2 377.9,60.0 380.3,61.0 382.7,59.4 385.2,57.6 387.6,58.9 390.1,59.6 392.5,58.8 395.0,58.1 397.4,60.0
399.8,59.4 402.3,59.2 404.7,56.7 407.2,61.1 409.6,57.6 412.1,58.8 414.5,57.4 416.9,59.7 419.4,59.2 421.8,56.0 424.3,55.3 426.7,55.9 429.2,54.1 431.6,58.8 434.0,59.5 436.5,59.6
438.9,57.9 441.4,61.0 443.8,60.0 446.3,60.1 448.7,60.2 451.2,59.5 453.6,60.9 456.0,56.9 458.5,61.0 460.9,60.4 463.4,60.2 465.8,57.9 468.3,58.6 470.7,59.0 473.1,58.8 475.6,59.8
478.0,60.1 480.5,57.2 482.9,59.0 485.4,59.4 487.8,58.5 490.2,59.9 492.7,57.3 495.1,59.7 497.6,59.5 500.0,60.0 502.5,58.5 504.9,59.6 507.3,61.3 509.8,59.8 512.2,60.0 514.7,60.5
517.1,57.9 519.6,59.4 522.0,59.2 524.5,58.7 526.9,59.2 529.3,56.9 531.8,57.8 534.2,60.1 536.7,58.8 539.1,59.7 541.6,58.5 544.0,60.9 546.4,58.9 548.9,58.0 551.3,57.5 553.8,59.9
556.2,58.0 558.7,58.7 561.1,58.3 563.5,58.2 566.0,58.7 568.4,59.2 570.9,59.8 573.3,61.0 575.8,59.6 578.2,60.0 580.6,61.4 583.1,58.4 585.5,61.0 588.0,58.0 590.4,60.7 592.9,59.2
595.3,61.4 597.8,59.9 600.2,60.4 602.6,58.6 605.1,59.1 607.5,57.7 610.0,57.5 612.4,59.4 614.9,56.3 617.3,59.0 619.7,59.1 622.2,58.3 624.6,58.1 627.1,58.0 629.5,56.9 632.0,56.7
634.4,60.7 636.8,58.9 639.3,60.3 641.7,60.8 644.2,60.4 646.6,58.8 649.1,59.9 651.5,60.6 653.9,59.4 656.4,59.0 658.8,58.6 661.3,58.6 663.7,59.1 666.2,58.6 668.6,58.4 671.1,60.3
673.5,59.1 675.9,60.7 678.4,58.4 680.8,60.8 683.3,57.4 685.7,60.5 688.2,60.5 690.6,59.3 693.0,57.3 695.5,59.0 697.9,58.4 700.4,59.3 702.8,58.4 705.3,59.8 707.7,59.6 710.1,60.8
712.6,59.5 715.0,58.4 717.5,58.4 719.9,58.7 722.4,61.0 724.8,60.3 727.2,60.2 729.7,55.5 732.1,59.8 734.6,58.2 737.0,59.5 739.5,58.2 741.9,57.2 744.3,60.0 746.8,58.6 749.2,58.8
751.7,57.3 754.1,57.9 756.6,60.1 759.0,56.3 761.5,57.7 763.9,59.3 766.3,58.7 768.8,58.8 771.2,58.7 773.7,58.6 776.1,58.9 778.6,60.0 781.0,58.6 783.4,59.5 785.9,59.7 788.3,58.2
790.8,57.6 793.2,61.0 795.7,61.0 798.1,61.0 800.5,57.9 803.0,60.1 805.4,60.1 807.9,56.7 810.3,58.0 812.8,58.1 815.2,60.1 817.6,58.6 820.1,58.8 822.5,57.0 825.0,57.1 827.4,58.1
829.9,58.7 832.3,59.7 834.8,57.2 837.2,58.5 839.6,57.2 842.1,59.4 844.5,58.5 847.0,58.5 849.4,58.9 851.9,59.4 854.3,57.9 856.7,60.0 859.2,58.9 861.6,58.0 864.1,59.6 866.5,59.6
869.0,60.2 871.4,58.9 873.8,56.7 876.3,60.5 878.7,59.4 881.2,58.9 883.6,60.0 886.1,59.3 888.5,59.5 890.9,60.2 893.4,57.3 895.8,59.8 898.3,57.4 900.7,57.7 903.2,57.3 905.6,59.7
908.1,59.7 910.5,57.3 912.9,55.1 915.4,57.0 917.8,57.6 920.3,57.7 922.7,58.2 925.2,59.1 927.6,61.0 930.0,57.2 932.5,58.2 934.9,57.6 937.4,60.0 939.8,61.7 942.3,58.0 944.7,59.2
947.1,59.6 949.6,56.6 952.0,60.5 954.5,58.6 956.9,56.7 959.4,59.8 961.8,58.2 964.2,59.8 966.7,60.6 969.1,56.4 971.6,57.6 974.0,59.1 976.5,58.4 978.9,59.4 981.3,57.5 983.8,59.9
986.2,57.1 988.7,58.6 991.1,58.6 993.6,57.8 996.0,58.5 998.5,58.9 1000.9,59.0 1003.3,57.4 1005.8,59.2 1008.2,59.3 1010.7,58.2 1013.1,58.8 1015.6,55.4 1018.0,59.1 1020.4,58.0 1022.9,57.5
1025.3,58.3 1027.8,58.3 1030.2,58.5 1032.7,57.9 1035.1,61.1 1037.5,59.1 1040.0,58.8 1042.4,57.4 1044.9,59.1 1047.3,59.6 1049.8,58.4 1052.2,59.5 1054.6,60.2 1057.1,58.2 1059.5,58.2 1062.0,58.6
1064.4,58.4 1066.9,56.9 1069.3,58.5 1071.8,57.3 1074.2,59.0 1076.6,57.8 1079.1,59.7 1081.5,61.1 1084.0,60.2 1086.4,60.7 1088.9,59.5 1091.3,58.4 1093.7,59.6 1096.2,57.8 1098.6,58.1 1101.1,58.1
1103.5,61.1 1106.0,56.8 1108.4,57.5 1110.8,59.5 1113.3,57.4 1115.7,57.7 1118.2,56.6 1120.6,58.9 1123.1,57.8 1125.5,58.8 1127.9,59.3 1130.4,59.3 1132.8,58.9 1135.3,57.5 1137.7,57.2 1140.2,56.6
1142.6,56.6 1145.1,56.2 1147.5,56.2 1149.9,56.5 1152.4,56.6 1154.8,58.0 1157.3,59.5 1159.7,58.3 1162.2,57.6 1164.6,59.0 1167.0,60.8 1169.5,57.2 1171.9,57.3 1174.4,58.9 1176.8,58.2 1179.3,57.2
1181.7,60.3 1184.1,58.7 1186.6,58.6 1189.0,58.9 1191.5,59.9 1193.9,57.5 1196.4,58.9 1198.8,60.4 1201.2,59.2 1203.7,59.6 1206.1,58.0 1208.6,57.4 1211.0,60.4 1213.5,58.5 1215.9,60.0 1218.4,59.0
1220.8,57.1 1223.2,61.5 1225.7,60.1 1228.1,60.2 1230.6,58.3 1233.0,60.7 1235.5,60.5 1237.9,61.1 1240.3,60.1 1242.8,57.7 1245.2,59.2 1247.7,60.4 1250.1,59.3 1252.6,58.6 1255.0,58.3 1255.0,703.4
87.1,703.4 '/>
	</g>
</g>
	</g>
	<g id="gnuplot_plot_2" ><title>trendline (m=0.422334,b=467.390625)</title>
<g fill="none" color="black" stroke="currentColor" stroke-width="1.00" stroke-linecap="butt" stroke-linejoin="miter">
	<g transform="translate(1187.9,94.0)" stroke="none" fill="black" font-family="Arial" font-size="12.00"  text-anchor="end">
		<text><tspan font-family="Arial" >trendline (m=0.422334,b=467.390625)</tspan></text>
	</g>
</g>
<g fill="none" color="black" stroke="currentColor" stroke-width="1.00" stroke-linecap="butt" stroke-linejoin="miter">
	<path stroke='black'  d='M1196.2,90.1 L1238.4,90.1 M87.1,343.3 L98.9,339.1 L110.7,335.0 L122.5,330.9 L134.3,326.7 L146.1,322.6
		L157.9,318.5 L169.7,314.3 L181.5,310.2 L193.3,306.1 L205.1,301.9 L216.9,297.8 L228.7,293.6 L240.5,289.5
		L252.3,285.4 L264.1,281.2 L275.9,277.1 L287.6,273.0 L299.4,268.8 L311.2,264.7 L323.0,260.6 L334.8,256.4
		L346.6,252.3 L358.4,248.1 L370.2,244.0 L382.0,239.9 L393.8,235.7 L405.6,231.6 L417.4,227.5 L429.2,223.3
		L441.0,219.2 L452.8,215.1 L464.6,210.9 L476.4,206.8 L488.2,202.6 L500.0,198.5 L511.8,194.4 L523.6,190.2
		L535.4,186.1 L547.2,182.0 L559.0,177.8 L570.8,173.7 L582.6,169.6 L594.4,165.4 L606.2,161.3 L618.0,157.1
		L629.8,153.0 L641.6,148.9 L653.4,144.7 L665.2,140.6 L676.9,136.5 L688.7,132.3 L700.5,128.2 L712.3,124.1
		L724.1,119.9 L735.9,115.8 L747.7,111.6 L759.5,107.5 L771.3,103.4 L783.1,99.2 L794.9,95.1 L806.7,91.0
		L818.5,86.8 L830.3,82.7 L842.1,78.6 L853.9,74.4 L865.7,70.3 L877.5,66.1 L889.3,62.0 L901.1,57.9
		L911.8,54.1  '/></g>
	</g>
<g fill="none" color="white" stroke="black" stroke-width="2.00" stroke-linecap="butt" stroke-linejoin="miter">
</g>
<g fill="none" color="black" stroke="currentColor" stroke-width="2.00" stroke-linecap="butt" stroke-linejoin="miter">
</g>
<g fill="none" color="black" stroke="black" stroke-width="1.00" stroke-linecap="butt" stroke-linejoin="miter">
</g>
<g fill="none" color="black" stroke="currentColor" stroke-width="1.00" stroke-linecap="butt" stroke-linejoin="miter">
	<path stroke='black'  d='M87.1,54.1 L87.1,703.4 L1255.0,703.4 L1255.0,54.1 L87.1,54.1 Z  '/></g>
<g fill="none" color="black" stroke="currentColor" stroke-width="1.00" stroke-linecap="butt" stroke-linejoin="miter">
</g>
</g>
</svg>

