<?xml version="1.0" encoding="utf-8"  standalone="no"?>
<svg 
 width="1280" height="720"
 viewBox="0 0 1280 720"
 xmlns="http://www.w3.org/2000/svg"
 xmlns:xlink="http://www.w3.org/1999/xlink"
>

<title>Gnuplot</title>
<desc>Produced by GNUPLOT 5.2 patchlevel 2 </desc>

<g id="gnuplot_canvas">

<rect x="0" y="0" width="1280" height="720" fill="none"/>
<defs>

	<circle id='gpDot' r='0.5' stroke-width='0.5'/>
	<path id='gpPt0' stroke-width='0.222' stroke='currentColor' d='M-1,0 h2 M0,-1 v2'/>
	<path id='gpPt1' stroke-width='0.222' stroke='currentColor' d='M-1,-1 L1,1 M1,-1 L-1,1'/>
	<path id='gpPt2' stroke-width='0.222' stroke='currentColor' d='M-1,0 L1,0 M0,-1 L0,1 M-1,-1 L1,1 M-1,1 L1,-1'/>
	<rect id='gpPt3' stroke-width='0.222' stroke='currentColor' x='-1' y='-1' width='2' height='2'/>
	<rect id='gpPt4' stroke-width='0.222' stroke='currentColor' fill='currentColor' x='-1' y='-1' width='2' height='2'/>
	<circle id='gpPt5' stroke-width='0.222' stroke='currentColor' cx='0' cy='0' r='1'/>
	<use xlink:href='#gpPt5' id='gpPt6' fill='currentColor' stroke='none'/>
	<path id='gpPt7' stroke-width='0.222' stroke='currentColor' d='M0,-1.33 L-1.33,0.67 L1.33,0.67 z'/>
	<use xlink:href='#gpPt7' id='gpPt8' fill='currentColor' stroke='none'/>
	<use xlink:href='#gpPt7' id='gpPt9' stroke='currentColor' transform='rotate(180)'/>
	<use xlink:href='#gpPt9' id='gpPt10' fill='currentColor' stroke='none'/>
	<use xlink:href='#gpPt3' id='gpPt11' stroke='currentColor' transform='rotate(45)'/>
	<use xlink:href='#gpPt11' id='gpPt12' fill='currentColor' stroke='none'/>
	<path id='gpPt13' stroke-width='0.222' stroke='currentColor' d='M0,1.330 L1.265,0.411 L0.782,-1.067 L-0.782,-1.076 L-1.265,0.411 z'/>
	<use xlink:href='#gpPt13' id='gpPt14' fill='currentColor' stroke='none'/>
	<filter id='textbox' filterUnits='objectBoundingBox' x='0' y='0' height='1' width='1'>
	  <feFlood flood-color='white' flood-opacity='1' result='bgnd'/>
	  <feComposite in='SourceGraphic' in2='bgnd' operator='atop'/>
	</filter>
	<filter id='greybox' filterUnits='objectBoundingBox' x='0' y='0' height='1' width='1'>
	  <feFlood flood-color='lightgrey' flood-opacity='1' result='grey'/>
	  <feComposite in='SourceGraphic' in2='grey' operator='atop'/>
	</filter>
</defs>
<g fill="none" color="white" stroke="currentColor" stroke-width="1.00" stroke-linecap="butt" stroke-linejoin="miter">
</g>
<g fill="none" color="black" stroke="currentColor" stroke-width="1.00" stroke-linecap="butt" stroke-linejoin="miter">
	<path stroke='black'  d='M87.1,703.4 L96.1,703.4 M1255.0,703.4 L1246.0,703.4  '/>	<g transform="translate(78.8,707.3)" stroke="none" fill="black" font-family="Arial" font-size="12.00"  text-anchor="end">
		<text><tspan font-family="Arial" >-116.73</tspan></text>
	</g>
</g>
<g fill="none" color="black" stroke="currentColor" stroke-width="1.00" stroke-linecap="butt" stroke-linejoin="miter">
	<path stroke='black'  d='M87.1,390.2 L96.1,390.2 M1255.0,390.2 L1246.0,390.2  '/>	<g transform="translate(78.8,394.1)" stroke="none" fill="black" font-family="Arial" font-size="12.00"  text-anchor="end">
		<text><tspan font-family="Arial" >-115.999</tspan></text>
	</g>
</g>
<g fill="none" color="black" stroke="currentColor" stroke-width="1.00" stroke-linecap="butt" stroke-linejoin="miter">
	<path stroke='black'  d='M87.1,54.1 L96.1,54.1 M1255.0,54.1 L1246.0,54.1  '/>	<g transform="translate(78.8,58.0)" stroke="none" fill="black" font-family="Arial" font-size="12.00"  text-anchor="end">
		<text><tspan font-family="Arial" >-115.215</tspan></text>
	</g>
</g>
<g fill="none" color="black" stroke="currentColor" stroke-width="1.00" stroke-linecap="butt" stroke-linejoin="miter">
</g>
<g fill="none" color="black" stroke="currentColor" stroke-width="1.00" stroke-linecap="butt" stroke-linejoin="miter">
	<path stroke='black'  d='M87.1,54.1 L87.1,703.4 L1255.0,703.4 L1255.0,54.1 L87.1,54.1 Z  '/></g>
<g fill="none" color="black" stroke="currentColor" stroke-width="1.00" stroke-linecap="butt" stroke-linejoin="miter">
	<g transform="translate(671.0,31.0)" stroke="none" fill="black" font-family="Arial" font-size="12.00"  text-anchor="middle">
		<text><tspan font-family="Arial" >Material 51, 2 components</tspan></text>
	</g>
</g>
	<g id="gnuplot_plot_1" ><title>log(likelihood)</title>
<g fill="none" color="black" stroke="currentColor" stroke-width="1.00" stroke-linecap="butt" stroke-linejoin="miter">
	<g transform="translate(1187.9,76.0)" stroke="none" fill="black" font-family="Arial" font-size="12.00"  text-anchor="end">
		<text><tspan font-family="Arial" >log(likelihood)</tspan></text>
	</g>
</g>
<g fill="none" color="black" stroke="currentColor" stroke-width="1.00" stroke-linecap="butt" stroke-linejoin="miter">
	<g stroke='none' shape-rendering='crispEdges'>
		<polygon fill = 'rgb(148,   0, 211)' fill-opacity = '0.100000' points = '1196.2,76.6 1238.4,76.6 1238.4,67.6 1196.2,67.6 '/>
	</g>
	<path stroke='rgb(148,   0, 211)'  d='M1196.2,76.6 L1238.4,76.6 L1238.4,67.6 L1196.2,67.6 L1196.2,76.6 Z  '/></g>
<g fill="none" color="black" stroke="currentColor" stroke-width="1.00" stroke-linecap="butt" stroke-linejoin="miter">
	<g stroke='none' shape-rendering='crispEdges'>
		<polygon fill = 'rgb(148,   0, 211)' fill-opacity = '0.100000' points = '87.1,103.4 96.8,395.7 106.6,283.4 116.3,607.8 126.0,461.7 135.8,533.7 145.5,188.2 155.2,476.7 165.0,482.3 174.7,323.7 184.4,679.0 194.2,54.1 203.9,190.0 213.6,448.8 223.4,374.2 233.1,300.5
242.8,374.7 252.6,360.5 262.3,361.8 272.0,571.8 281.8,363.1 291.5,437.3 301.2,440.7 310.9,469.0 320.7,493.4 330.4,596.7 340.1,598.0 349.9,207.5 359.6,459.1 369.3,387.1 379.1,266.7 388.8,593.7
398.5,371.2 408.3,412.0 418.0,465.5 427.7,218.2 437.5,512.3 447.2,512.7 456.9,310.0 466.7,305.7 476.4,691.4 486.1,503.7 495.9,377.2 505.6,300.5 515.3,450.5 525.1,98.7 534.8,270.1 544.5,568.8
554.3,450.1 564.0,114.1 573.7,483.1 583.5,321.5 593.2,573.5 602.9,319.4 612.7,628.0 622.4,337.0 632.1,255.5 641.9,223.0 651.6,358.0 661.3,515.7 671.1,510.1 680.8,419.3 690.5,299.2 700.2,601.0
710.0,639.1 719.7,315.1 729.4,230.7 739.2,379.0 748.9,271.4 758.6,133.4 768.4,318.5 778.1,465.5 787.8,463.0 797.6,226.4 807.3,197.7 817.0,430.8 826.8,318.5 836.5,469.4 846.2,526.0 856.0,499.4
865.7,301.4 875.4,366.1 885.2,356.7 894.9,389.3 904.6,243.1 914.4,326.2 924.1,408.1 933.8,502.8 943.6,478.8 953.3,395.7 963.0,344.2 972.8,225.1 982.5,238.4 992.2,703.4 1002.0,363.5 1011.7,546.1
1021.4,564.1 1031.2,374.7 1040.9,329.7 1050.6,281.2 1060.4,217.8 1070.1,427.0 1079.8,511.0 1089.5,335.2 1099.3,238.8 1109.0,337.4 1118.7,479.3 1128.5,128.2 1138.2,526.8 1147.9,369.5 1157.7,542.3 1167.4,271.0
1177.1,622.8 1186.9,465.1 1196.6,448.4 1206.3,477.5 1216.1,386.7 1225.8,477.5 1235.5,130.0 1245.3,198.5 1255.0,341.2 1255.0,703.4 87.1,703.4 '/>
	</g>
</g>
	</g>
	<g id="gnuplot_plot_2" ><title>trendline (m=0.000411,b=-116.023902)</title>
<g fill="none" color="black" stroke="currentColor" stroke-width="1.00" stroke-linecap="butt" stroke-linejoin="miter">
	<g transform="translate(1187.9,94.0)" stroke="none" fill="black" font-family="Arial" font-size="12.00"  text-anchor="end">
		<text><tspan font-family="Arial" >trendline (m=0.000411,b=-116.023902)</tspan></text>
	</g>
</g>
<g fill="none" color="black" stroke="currentColor" stroke-width="1.00" stroke-linecap="butt" stroke-linejoin="miter">
	<path stroke='black'  d='M1196.2,90.1 L1238.4,90.1 M87.1,400.8 L98.9,400.6 L110.7,400.4 L122.5,400.1 L134.3,399.9 L146.1,399.7
		L157.9,399.5 L169.7,399.3 L181.5,399.1 L193.3,398.9 L205.1,398.6 L216.9,398.4 L228.7,398.2 L240.5,398.0
		L252.3,397.8 L264.1,397.6 L275.9,397.4 L287.6,397.2 L299.4,396.9 L311.2,396.7 L323.0,396.5 L334.8,396.3
		L346.6,396.1 L358.4,395.9 L370.2,395.7 L382.0,395.4 L393.8,395.2 L405.6,395.0 L417.4,394.8 L429.2,394.6
		L441.0,394.4 L452.8,394.2 L464.6,393.9 L476.4,393.7 L488.2,393.5 L500.0,393.3 L511.8,393.1 L523.6,392.9
		L535.4,392.7 L547.2,392.5 L559.0,392.2 L570.8,392.0 L582.6,391.8 L594.4,391.6 L606.2,391.4 L618.0,391.2
		L629.8,391.0 L641.6,390.7 L653.4,390.5 L665.2,390.3 L676.9,390.1 L688.7,389.9 L700.5,389.7 L712.3,389.5
		L724.1,389.3 L735.9,389.0 L747.7,388.8 L759.5,388.6 L771.3,388.4 L783.1,388.2 L794.9,388.0 L806.7,387.8
		L818.5,387.5 L830.3,387.3 L842.1,387.1 L853.9,386.9 L865.7,386.7 L877.5,386.5 L889.3,386.3 L901.1,386.1
		L912.9,385.8 L924.7,385.6 L936.5,385.4 L948.3,385.2 L960.1,385.0 L971.9,384.8 L983.7,384.6 L995.5,384.3
		L1007.3,384.1 L1019.1,383.9 L1030.9,383.7 L1042.7,383.5 L1054.5,383.3 L1066.2,383.1 L1078.0,382.8 L1089.8,382.6
		L1101.6,382.4 L1113.4,382.2 L1125.2,382.0 L1137.0,381.8 L1148.8,381.6 L1160.6,381.4 L1172.4,381.1 L1184.2,380.9
		L1196.0,380.7 L1207.8,380.5 L1219.6,380.3 L1231.4,380.1 L1243.2,379.9 L1255.0,379.6  '/></g>
	</g>
<g fill="none" color="white" stroke="black" stroke-width="2.00" stroke-linecap="butt" stroke-linejoin="miter">
</g>
<g fill="none" color="black" stroke="currentColor" stroke-width="2.00" stroke-linecap="butt" stroke-linejoin="miter">
</g>
<g fill="none" color="black" stroke="black" stroke-width="1.00" stroke-linecap="butt" stroke-linejoin="miter">
</g>
<g fill="none" color="black" stroke="currentColor" stroke-width="1.00" stroke-linecap="butt" stroke-linejoin="miter">
	<path stroke='black'  d='M87.1,54.1 L87.1,703.4 L1255.0,703.4 L1255.0,54.1 L87.1,54.1 Z  '/></g>
<g fill="none" color="black" stroke="currentColor" stroke-width="1.00" stroke-linecap="butt" stroke-linejoin="miter">
</g>
</g>
</svg>

