<?xml version="1.0" encoding="utf-8"  standalone="no"?>
<svg 
 width="1280" height="720"
 viewBox="0 0 1280 720"
 xmlns="http://www.w3.org/2000/svg"
 xmlns:xlink="http://www.w3.org/1999/xlink"
>

<title>Gnuplot</title>
<desc>Produced by GNUPLOT 5.0 patchlevel 6 </desc>

<g id="gnuplot_canvas">

<rect x="0" y="0" width="1280" height="720" fill="none"/>
<defs>

	<circle id='gpDot' r='0.5' stroke-width='0.5'/>
	<path id='gpPt0' stroke-width='0.222' stroke='currentColor' d='M-1,0 h2 M0,-1 v2'/>
	<path id='gpPt1' stroke-width='0.222' stroke='currentColor' d='M-1,-1 L1,1 M1,-1 L-1,1'/>
	<path id='gpPt2' stroke-width='0.222' stroke='currentColor' d='M-1,0 L1,0 M0,-1 L0,1 M-1,-1 L1,1 M-1,1 L1,-1'/>
	<rect id='gpPt3' stroke-width='0.222' stroke='currentColor' x='-1' y='-1' width='2' height='2'/>
	<rect id='gpPt4' stroke-width='0.222' stroke='currentColor' fill='currentColor' x='-1' y='-1' width='2' height='2'/>
	<circle id='gpPt5' stroke-width='0.222' stroke='currentColor' cx='0' cy='0' r='1'/>
	<use xlink:href='#gpPt5' id='gpPt6' fill='currentColor' stroke='none'/>
	<path id='gpPt7' stroke-width='0.222' stroke='currentColor' d='M0,-1.33 L-1.33,0.67 L1.33,0.67 z'/>
	<use xlink:href='#gpPt7' id='gpPt8' fill='currentColor' stroke='none'/>
	<use xlink:href='#gpPt7' id='gpPt9' stroke='currentColor' transform='rotate(180)'/>
	<use xlink:href='#gpPt9' id='gpPt10' fill='currentColor' stroke='none'/>
	<use xlink:href='#gpPt3' id='gpPt11' stroke='currentColor' transform='rotate(45)'/>
	<use xlink:href='#gpPt11' id='gpPt12' fill='currentColor' stroke='none'/>
	<path id='gpPt13' stroke-width='0.222' stroke='currentColor' d='M0,1.330 L1.265,0.411 L0.782,-1.067 L-0.782,-1.076 L-1.265,0.411 z'/>
	<use xlink:href='#gpPt13' id='gpPt14' fill='currentColor' stroke='none'/>
	<filter id='textbox' filterUnits='objectBoundingBox' x='0' y='0' height='1' width='1'>
	  <feFlood flood-color='white' flood-opacity='1' result='bgnd'/>
	  <feComposite in='SourceGraphic' in2='bgnd' operator='atop'/>
	</filter>
	<filter id='greybox' filterUnits='objectBoundingBox' x='0' y='0' height='1' width='1'>
	  <feFlood flood-color='lightgrey' flood-opacity='1' result='grey'/>
	  <feComposite in='SourceGraphic' in2='grey' operator='atop'/>
	</filter>
</defs>
<g fill="none" color="white" stroke="currentColor" stroke-width="1.00" stroke-linecap="butt" stroke-linejoin="miter">
</g>
<g fill="none" color="black" stroke="currentColor" stroke-width="1.00" stroke-linecap="butt" stroke-linejoin="miter">
	<path stroke='black'  d='M87.1,703.4 L96.1,703.4 M1255.0,703.4 L1246.0,703.4  '/>	<g transform="translate(78.8,707.3)" stroke="none" fill="black" font-family="Arial" font-size="12.00"  text-anchor="end">
		<text><tspan font-family="Arial" > 319.542</tspan></text>
	</g>
</g>
<g fill="none" color="black" stroke="currentColor" stroke-width="1.00" stroke-linecap="butt" stroke-linejoin="miter">
	<path stroke='black'  d='M87.1,349.8 L96.1,349.8 M1255.0,349.8 L1246.0,349.8  '/>	<g transform="translate(78.8,353.7)" stroke="none" fill="black" font-family="Arial" font-size="12.00"  text-anchor="end">
		<text><tspan font-family="Arial" > 320.366</tspan></text>
	</g>
</g>
<g fill="none" color="black" stroke="currentColor" stroke-width="1.00" stroke-linecap="butt" stroke-linejoin="miter">
	<path stroke='black'  d='M87.1,54.1 L96.1,54.1 M1255.0,54.1 L1246.0,54.1  '/>	<g transform="translate(78.8,58.0)" stroke="none" fill="black" font-family="Arial" font-size="12.00"  text-anchor="end">
		<text><tspan font-family="Arial" > 321.056</tspan></text>
	</g>
</g>
<g fill="none" color="black" stroke="currentColor" stroke-width="1.00" stroke-linecap="butt" stroke-linejoin="miter">
</g>
<g fill="none" color="black" stroke="currentColor" stroke-width="1.00" stroke-linecap="butt" stroke-linejoin="miter">
	<path stroke='black'  d='M87.1,54.1 L87.1,703.4 L1255.0,703.4 L1255.0,54.1 L87.1,54.1 Z  '/></g>
<g fill="none" color="black" stroke="currentColor" stroke-width="1.00" stroke-linecap="butt" stroke-linejoin="miter">
	<g transform="translate(671.0,31.0)" stroke="none" fill="black" font-family="Arial" font-size="12.00"  text-anchor="middle">
		<text><tspan font-family="Arial" >Material 22, 2 components</tspan></text>
	</g>
</g>
	<g id="gnuplot_plot_1" ><title>log(likelihood)</title>
<g fill="none" color="black" stroke="currentColor" stroke-width="1.00" stroke-linecap="butt" stroke-linejoin="miter">
	<g transform="translate(1187.9,76.0)" stroke="none" fill="black" font-family="Arial" font-size="12.00"  text-anchor="end">
		<text><tspan font-family="Arial" >log(likelihood)</tspan></text>
	</g>
</g>
<g fill="none" color="black" stroke="currentColor" stroke-width="1.00" stroke-linecap="butt" stroke-linejoin="miter">
	<g stroke='none' shape-rendering='crispEdges'>
		<polygon fill = 'rgb(148,   0, 211)' fill-opacity = '0.100000' points = '1196.2,76.6 1238.4,76.6 1238.4,67.6 1196.2,67.6 '/>
	</g>
	<path stroke='rgb(148,   0, 211)'  d='M1196.2,76.6 L1238.4,76.6 L1238.4,67.6 L1196.2,67.6 L1196.2,76.6 Z  '/></g>
<g fill="none" color="black" stroke="currentColor" stroke-width="1.00" stroke-linecap="butt" stroke-linejoin="miter">
	<g stroke='none' shape-rendering='crispEdges'>
		<polygon fill = 'rgb(148,   0, 211)' fill-opacity = '0.100000' points = '87.1,106.9 96.8,224.4 106.6,221.4 116.3,434.5 126.0,681.1 135.8,578.6 145.5,250.1 155.2,462.8 165.0,187.9 174.7,335.4 184.4,190.0 194.2,495.4 203.9,277.1 213.6,224.8 223.4,325.6 233.1,114.1
242.8,259.5 252.6,294.3 262.3,491.1 272.0,396.8 281.8,161.7 291.5,606.9 301.2,395.5 310.9,437.1 320.7,428.5 330.4,189.2 340.1,188.8 349.9,241.9 359.6,515.6 369.3,86.7 379.1,428.9 388.8,377.9
398.5,402.3 408.3,423.8 418.0,250.1 427.7,362.9 437.5,370.2 447.2,230.8 456.9,555.4 466.7,543.4 476.4,587.6 486.1,516.8 495.9,141.2 505.6,326.0 515.3,220.9 525.1,465.8 534.8,651.9 544.5,323.0
554.3,54.1 564.0,606.5 573.7,512.6 583.5,438.8 593.2,167.7 602.9,462.4 612.7,178.0 622.4,320.9 632.1,368.0 641.9,311.4 651.6,339.7 661.3,60.5 671.1,335.0 680.8,230.8 690.5,121.9 700.2,401.9
710.0,503.1 719.7,464.1 729.4,374.5 739.2,100.0 748.9,243.2 758.6,286.5 768.4,576.0 778.1,367.2 787.8,328.6 797.6,420.3 807.3,184.9 817.0,191.8 826.8,407.9 836.5,543.4 846.2,469.2 856.0,154.5
865.7,317.4 875.4,289.5 885.2,349.6 894.9,225.2 904.6,433.2 914.4,359.9 924.1,206.8 933.8,322.1 943.6,509.6 953.3,429.8 963.0,279.7 972.8,504.0 982.5,457.2 992.2,336.7 1002.0,249.2 1011.7,402.8
1021.4,519.4 1031.2,108.6 1040.9,587.6 1050.6,249.7 1060.4,400.2 1070.1,429.4 1079.8,78.1 1089.5,281.4 1099.3,335.0 1109.0,410.5 1118.7,242.4 1128.5,347.4 1138.2,356.4 1147.9,425.5 1157.7,266.4 1167.4,327.3
1177.1,511.3 1186.9,402.8 1196.6,455.1 1206.3,703.4 1216.1,370.6 1225.8,363.3 1235.5,502.3 1245.3,94.4 1255.0,382.6 1255.0,703.4 87.1,703.4 '/>
	</g>
	<path stroke='rgb(148,   0, 211)'  d='M87.1,106.9 L96.8,224.4 L106.6,221.4 L116.3,434.5 L126.0,681.1 L135.8,578.6 L145.5,250.1 L155.2,462.8
		L165.0,187.9 L174.7,335.4 L184.4,190.0 L194.2,495.4 L203.9,277.1 L213.6,224.8 L223.4,325.6 L233.1,114.1
		L242.8,259.5 L252.6,294.3 L262.3,491.1 L272.0,396.8 L281.8,161.7 L291.5,606.9 L301.2,395.5 L310.9,437.1
		L320.7,428.5 L330.4,189.2 L340.1,188.8 L349.9,241.9 L359.6,515.6 L369.3,86.7 L379.1,428.9 L388.8,377.9
		L398.5,402.3 L408.3,423.8 L418.0,250.1 L427.7,362.9 L437.5,370.2 L447.2,230.8 L456.9,555.4 L466.7,543.4
		L476.4,587.6 L486.1,516.8 L495.9,141.2 L505.6,326.0 L515.3,220.9 L525.1,465.8 L534.8,651.9 L544.5,323.0
		L554.3,54.1 L564.0,606.5 L573.7,512.6 L583.5,438.8 L593.2,167.7 L602.9,462.4 L612.7,178.0 L622.4,320.9
		L632.1,368.0 L641.9,311.4 L651.6,339.7 L661.3,60.5 L671.1,335.0 L680.8,230.8 L690.5,121.9 L700.2,401.9
		L710.0,503.1 L719.7,464.1 L729.4,374.5 L739.2,100.0 L748.9,243.2 L758.6,286.5 L768.4,576.0 L778.1,367.2
		L787.8,328.6 L797.6,420.3 L807.3,184.9 L817.0,191.8 L826.8,407.9 L836.5,543.4 L846.2,469.2 L856.0,154.5
		L865.7,317.4 L875.4,289.5 L885.2,349.6 L894.9,225.2 L904.6,433.2 L914.4,359.9 L924.1,206.8 L933.8,322.1
		L943.6,509.6 L953.3,429.8 L963.0,279.7 L972.8,504.0 L982.5,457.2 L992.2,336.7 L1002.0,249.2 L1011.7,402.8
		L1021.4,519.4 L1031.2,108.6 L1040.9,587.6 L1050.6,249.7 L1060.4,400.2 L1070.1,429.4 L1079.8,78.1 L1089.5,281.4
		L1099.3,335.0 L1109.0,410.5 L1118.7,242.4 L1128.5,347.4 L1138.2,356.4 L1147.9,425.5 L1157.7,266.4 L1167.4,327.3
		L1177.1,511.3 L1186.9,402.8 L1196.6,455.1 L1206.3,703.4 L1216.1,370.6 L1225.8,363.3 L1235.5,502.3 L1245.3,94.4
		L1255.0,382.6  '/></g>
	</g>
	<g id="gnuplot_plot_2" ><title>trendline (m=-0.000597,b=320.402236)</title>
<g fill="none" color="black" stroke="currentColor" stroke-width="1.00" stroke-linecap="butt" stroke-linejoin="miter">
	<g transform="translate(1187.9,94.0)" stroke="none" fill="black" font-family="Arial" font-size="12.00"  text-anchor="end">
		<text><tspan font-family="Arial" >trendline (m=-0.000597,b=320.402236)</tspan></text>
	</g>
</g>
<g fill="none" color="black" stroke="currentColor" stroke-width="1.00" stroke-linecap="butt" stroke-linejoin="miter">
	<path stroke='black'  d='M1196.2,90.1 L1238.4,90.1 M87.1,334.5 L98.9,334.8 L110.7,335.1 L122.5,335.4 L134.3,335.7 L146.1,336.0
		L157.9,336.3 L169.7,336.7 L181.5,337.0 L193.3,337.3 L205.1,337.6 L216.9,337.9 L228.7,338.2 L240.5,338.5
		L252.3,338.8 L264.1,339.1 L275.9,339.4 L287.6,339.8 L299.4,340.1 L311.2,340.4 L323.0,340.7 L334.8,341.0
		L346.6,341.3 L358.4,341.6 L370.2,341.9 L382.0,342.2 L393.8,342.6 L405.6,342.9 L417.4,343.2 L429.2,343.5
		L441.0,343.8 L452.8,344.1 L464.6,344.4 L476.4,344.7 L488.2,345.0 L500.0,345.3 L511.8,345.7 L523.6,346.0
		L535.4,346.3 L547.2,346.6 L559.0,346.9 L570.8,347.2 L582.6,347.5 L594.4,347.8 L606.2,348.1 L618.0,348.5
		L629.8,348.8 L641.6,349.1 L653.4,349.4 L665.2,349.7 L676.9,350.0 L688.7,350.3 L700.5,350.6 L712.3,350.9
		L724.1,351.2 L735.9,351.6 L747.7,351.9 L759.5,352.2 L771.3,352.5 L783.1,352.8 L794.9,353.1 L806.7,353.4
		L818.5,353.7 L830.3,354.0 L842.1,354.4 L853.9,354.7 L865.7,355.0 L877.5,355.3 L889.3,355.6 L901.1,355.9
		L912.9,356.2 L924.7,356.5 L936.5,356.8 L948.3,357.1 L960.1,357.5 L971.9,357.8 L983.7,358.1 L995.5,358.4
		L1007.3,358.7 L1019.1,359.0 L1030.9,359.3 L1042.7,359.6 L1054.5,359.9 L1066.2,360.3 L1078.0,360.6 L1089.8,360.9
		L1101.6,361.2 L1113.4,361.5 L1125.2,361.8 L1137.0,362.1 L1148.8,362.4 L1160.6,362.7 L1172.4,363.0 L1184.2,363.4
		L1196.0,363.7 L1207.8,364.0 L1219.6,364.3 L1231.4,364.6 L1243.2,364.9 L1255.0,365.2  '/></g>
	</g>
<g fill="none" color="white" stroke="black" stroke-width="2.00" stroke-linecap="butt" stroke-linejoin="miter">
</g>
<g fill="none" color="black" stroke="currentColor" stroke-width="2.00" stroke-linecap="butt" stroke-linejoin="miter">
</g>
<g fill="none" color="black" stroke="black" stroke-width="1.00" stroke-linecap="butt" stroke-linejoin="miter">
</g>
<g fill="none" color="black" stroke="currentColor" stroke-width="1.00" stroke-linecap="butt" stroke-linejoin="miter">
	<path stroke='black'  d='M87.1,54.1 L87.1,703.4 L1255.0,703.4 L1255.0,54.1 L87.1,54.1 Z  '/></g>
<g fill="none" color="black" stroke="currentColor" stroke-width="1.00" stroke-linecap="butt" stroke-linejoin="miter">
</g>
</g>
</svg>

