<?xml version="1.0" encoding="utf-8"  standalone="no"?>
<svg 
 width="1280" height="720"
 viewBox="0 0 1280 720"
 xmlns="http://www.w3.org/2000/svg"
 xmlns:xlink="http://www.w3.org/1999/xlink"
>

<title>Gnuplot</title>
<desc>Produced by GNUPLOT 5.0 patchlevel 6 </desc>

<g id="gnuplot_canvas">

<rect x="0" y="0" width="1280" height="720" fill="none"/>
<defs>

	<circle id='gpDot' r='0.5' stroke-width='0.5'/>
	<path id='gpPt0' stroke-width='0.222' stroke='currentColor' d='M-1,0 h2 M0,-1 v2'/>
	<path id='gpPt1' stroke-width='0.222' stroke='currentColor' d='M-1,-1 L1,1 M1,-1 L-1,1'/>
	<path id='gpPt2' stroke-width='0.222' stroke='currentColor' d='M-1,0 L1,0 M0,-1 L0,1 M-1,-1 L1,1 M-1,1 L1,-1'/>
	<rect id='gpPt3' stroke-width='0.222' stroke='currentColor' x='-1' y='-1' width='2' height='2'/>
	<rect id='gpPt4' stroke-width='0.222' stroke='currentColor' fill='currentColor' x='-1' y='-1' width='2' height='2'/>
	<circle id='gpPt5' stroke-width='0.222' stroke='currentColor' cx='0' cy='0' r='1'/>
	<use xlink:href='#gpPt5' id='gpPt6' fill='currentColor' stroke='none'/>
	<path id='gpPt7' stroke-width='0.222' stroke='currentColor' d='M0,-1.33 L-1.33,0.67 L1.33,0.67 z'/>
	<use xlink:href='#gpPt7' id='gpPt8' fill='currentColor' stroke='none'/>
	<use xlink:href='#gpPt7' id='gpPt9' stroke='currentColor' transform='rotate(180)'/>
	<use xlink:href='#gpPt9' id='gpPt10' fill='currentColor' stroke='none'/>
	<use xlink:href='#gpPt3' id='gpPt11' stroke='currentColor' transform='rotate(45)'/>
	<use xlink:href='#gpPt11' id='gpPt12' fill='currentColor' stroke='none'/>
	<path id='gpPt13' stroke-width='0.222' stroke='currentColor' d='M0,1.330 L1.265,0.411 L0.782,-1.067 L-0.782,-1.076 L-1.265,0.411 z'/>
	<use xlink:href='#gpPt13' id='gpPt14' fill='currentColor' stroke='none'/>
	<filter id='textbox' filterUnits='objectBoundingBox' x='0' y='0' height='1' width='1'>
	  <feFlood flood-color='white' flood-opacity='1' result='bgnd'/>
	  <feComposite in='SourceGraphic' in2='bgnd' operator='atop'/>
	</filter>
	<filter id='greybox' filterUnits='objectBoundingBox' x='0' y='0' height='1' width='1'>
	  <feFlood flood-color='lightgrey' flood-opacity='1' result='grey'/>
	  <feComposite in='SourceGraphic' in2='grey' operator='atop'/>
	</filter>
</defs>
<g fill="none" color="white" stroke="currentColor" stroke-width="1.00" stroke-linecap="butt" stroke-linejoin="miter">
</g>
<g fill="none" color="black" stroke="currentColor" stroke-width="1.00" stroke-linecap="butt" stroke-linejoin="miter">
	<path stroke='black'  d='M87.1,703.4 L96.1,703.4 M1255.0,703.4 L1246.0,703.4  '/>	<g transform="translate(78.8,707.3)" stroke="none" fill="black" font-family="Arial" font-size="12.00"  text-anchor="end">
		<text><tspan font-family="Arial" >-6713.68</tspan></text>
	</g>
</g>
<g fill="none" color="black" stroke="currentColor" stroke-width="1.00" stroke-linecap="butt" stroke-linejoin="miter">
	<path stroke='black'  d='M87.1,87.8 L96.1,87.8 M1255.0,87.8 L1246.0,87.8  '/>	<g transform="translate(78.8,91.7)" stroke="none" fill="black" font-family="Arial" font-size="12.00"  text-anchor="end">
		<text><tspan font-family="Arial" >-2640.52</tspan></text>
	</g>
</g>
<g fill="none" color="black" stroke="currentColor" stroke-width="1.00" stroke-linecap="butt" stroke-linejoin="miter">
	<path stroke='black'  d='M87.1,54.1 L96.1,54.1 M1255.0,54.1 L1246.0,54.1  '/>	<g transform="translate(78.8,58.0)" stroke="none" fill="black" font-family="Arial" font-size="12.00"  text-anchor="end">
		<text><tspan font-family="Arial" >-2417.87</tspan></text>
	</g>
</g>
<g fill="none" color="black" stroke="currentColor" stroke-width="1.00" stroke-linecap="butt" stroke-linejoin="miter">
</g>
<g fill="none" color="black" stroke="currentColor" stroke-width="1.00" stroke-linecap="butt" stroke-linejoin="miter">
	<path stroke='black'  d='M87.1,54.1 L87.1,703.4 L1255.0,703.4 L1255.0,54.1 L87.1,54.1 Z  '/></g>
<g fill="none" color="black" stroke="currentColor" stroke-width="1.00" stroke-linecap="butt" stroke-linejoin="miter">
	<g transform="translate(671.0,31.0)" stroke="none" fill="black" font-family="Arial" font-size="12.00"  text-anchor="middle">
		<text><tspan font-family="Arial" >Material 104, 2 components</tspan></text>
	</g>
</g>
	<g id="gnuplot_plot_1" ><title>log(likelihood)</title>
<g fill="none" color="black" stroke="currentColor" stroke-width="1.00" stroke-linecap="butt" stroke-linejoin="miter">
	<g transform="translate(1187.9,76.0)" stroke="none" fill="black" font-family="Arial" font-size="12.00"  text-anchor="end">
		<text><tspan font-family="Arial" >log(likelihood)</tspan></text>
	</g>
</g>
<g fill="none" color="black" stroke="currentColor" stroke-width="1.00" stroke-linecap="butt" stroke-linejoin="miter">
	<g stroke='none' shape-rendering='crispEdges'>
		<polygon fill = 'rgb(148,   0, 211)' fill-opacity = '0.100000' points = '1196.2,76.6 1238.4,76.6 1238.4,67.6 1196.2,67.6 '/>
	</g>
	<path stroke='rgb(148,   0, 211)'  d='M1196.2,76.6 L1238.4,76.6 L1238.4,67.6 L1196.2,67.6 L1196.2,76.6 Z  '/></g>
<g fill="none" color="black" stroke="currentColor" stroke-width="1.00" stroke-linecap="butt" stroke-linejoin="miter">
	<g stroke='none' shape-rendering='crispEdges'>
		<polygon fill = 'rgb(148,   0, 211)' fill-opacity = '0.100000' points = '87.1,703.4 94.8,599.0 102.6,571.2 110.3,507.5 118.0,432.6 125.8,365.0 133.5,299.2 141.2,204.5 149.0,141.1 156.7,116.1 164.4,112.5 172.2,107.7 179.9,106.2 187.6,105.5 195.4,105.4 203.1,105.5
210.9,105.4 218.6,105.5 226.3,105.4 234.1,105.4 241.8,105.5 249.5,105.5 257.3,105.4 265.0,105.4 272.7,105.5 280.5,105.5 288.2,105.4 295.9,105.5 303.7,105.5 311.4,105.5 319.1,105.4 326.9,105.4
334.6,105.4 342.3,105.4 350.1,105.5 357.8,105.4 365.5,105.4 373.3,105.5 381.0,105.5 388.7,105.4 396.5,105.4 404.2,105.3 411.9,104.2 419.7,98.9 427.4,79.0 435.1,66.5 442.9,58.9 450.6,55.5
458.4,54.4 466.1,54.3 473.8,54.3 481.6,54.2 489.3,54.1 497.0,54.2 504.8,54.3 512.5,54.3 520.2,54.2 528.0,54.2 535.7,54.3 543.4,54.2 551.2,54.2 558.9,54.2 566.6,54.3 574.4,54.3
582.1,54.2 589.8,54.2 597.6,54.2 605.3,54.3 613.0,54.1 620.8,54.2 628.5,54.3 636.2,54.2 644.0,54.1 651.7,54.1 659.4,54.1 667.2,54.2 674.9,54.2 682.7,54.3 690.4,54.2 698.1,54.3
705.9,54.3 713.6,54.3 721.3,54.2 729.1,54.2 736.8,54.2 744.5,54.2 752.3,54.2 760.0,54.1 767.7,54.2 775.5,54.3 783.2,54.2 790.9,54.2 798.7,54.2 806.4,54.2 814.1,54.3 821.9,54.2
829.6,54.2 837.3,54.2 845.1,54.3 852.8,54.2 860.5,54.3 868.3,54.2 876.0,54.2 883.7,54.2 891.5,54.1 899.2,54.2 907.0,54.2 914.7,54.2 922.4,54.1 930.2,54.3 937.9,54.2 945.6,54.2
953.4,54.1 961.1,54.3 968.8,54.2 976.6,54.2 984.3,54.2 992.0,54.1 999.8,54.2 1007.5,54.1 1015.2,54.3 1023.0,54.2 1030.7,54.2 1038.4,54.2 1046.2,54.2 1053.9,54.2 1061.6,54.2 1069.4,54.2
1077.1,54.2 1084.8,54.2 1092.6,54.3 1100.3,54.2 1108.0,54.2 1115.8,54.2 1123.5,54.1 1131.2,54.2 1139.0,54.2 1146.7,54.2 1154.5,54.2 1162.2,54.2 1169.9,54.1 1177.7,54.2 1185.4,54.2 1193.1,54.3
1200.9,54.2 1208.6,54.2 1216.3,54.1 1224.1,54.2 1231.8,54.2 1239.5,54.2 1247.3,54.2 1255.0,54.2 1255.0,703.4 87.1,703.4 '/>
	</g>
	<path stroke='rgb(148,   0, 211)'  d='M87.1,703.4 L94.8,599.0 L102.6,571.2 L110.3,507.5 L118.0,432.6 L125.8,365.0 L133.5,299.2 L141.2,204.5
		L149.0,141.1 L156.7,116.1 L164.4,112.5 L172.2,107.7 L179.9,106.2 L187.6,105.5 L195.4,105.4 L203.1,105.5
		L210.9,105.4 L218.6,105.5 L226.3,105.4 L234.1,105.4 L241.8,105.5 L249.5,105.5 L257.3,105.4 L265.0,105.4
		L272.7,105.5 L280.5,105.5 L288.2,105.4 L295.9,105.5 L303.7,105.5 L311.4,105.5 L319.1,105.4 L326.9,105.4
		L334.6,105.4 L342.3,105.4 L350.1,105.5 L357.8,105.4 L365.5,105.4 L373.3,105.5 L381.0,105.5 L388.7,105.4
		L396.5,105.4 L404.2,105.3 L411.9,104.2 L419.7,98.9 L427.4,79.0 L435.1,66.5 L442.9,58.9 L450.6,55.5
		L458.4,54.4 L466.1,54.3 L473.8,54.3 L481.6,54.2 L489.3,54.1 L497.0,54.2 L504.8,54.3 L512.5,54.3
		L520.2,54.2 L528.0,54.2 L535.7,54.3 L543.4,54.2 L551.2,54.2 L558.9,54.2 L566.6,54.3 L574.4,54.3
		L582.1,54.2 L589.8,54.2 L597.6,54.2 L605.3,54.3 L613.0,54.1 L620.8,54.2 L628.5,54.3 L636.2,54.2
		L644.0,54.1 L651.7,54.1 L659.4,54.1 L667.2,54.2 L674.9,54.2 L682.7,54.3 L690.4,54.2 L698.1,54.3
		L705.9,54.3 L713.6,54.3 L721.3,54.2 L729.1,54.2 L736.8,54.2 L744.5,54.2 L752.3,54.2 L760.0,54.1
		L767.7,54.2 L775.5,54.3 L783.2,54.2 L790.9,54.2 L798.7,54.2 L806.4,54.2 L814.1,54.3 L821.9,54.2
		L829.6,54.2 L837.3,54.2 L845.1,54.3 L852.8,54.2 L860.5,54.3 L868.3,54.2 L876.0,54.2 L883.7,54.2
		L891.5,54.1 L899.2,54.2 L907.0,54.2 L914.7,54.2 L922.4,54.1 L930.2,54.3 L937.9,54.2 L945.6,54.2
		L953.4,54.1 L961.1,54.3 L968.8,54.2 L976.6,54.2 L984.3,54.2 L992.0,54.1 L999.8,54.2 L1007.5,54.1
		L1015.2,54.3 L1023.0,54.2 L1030.7,54.2 L1038.4,54.2 L1046.2,54.2 L1053.9,54.2 L1061.6,54.2 L1069.4,54.2
		L1077.1,54.2 L1084.8,54.2 L1092.6,54.3 L1100.3,54.2 L1108.0,54.2 L1115.8,54.2 L1123.5,54.1 L1131.2,54.2
		L1139.0,54.2 L1146.7,54.2 L1154.5,54.2 L1162.2,54.2 L1169.9,54.1 L1177.7,54.2 L1185.4,54.2 L1193.1,54.3
		L1200.9,54.2 L1208.6,54.2 L1216.3,54.1 L1224.1,54.2 L1231.8,54.2 L1239.5,54.2 L1247.3,54.2 L1255.0,54.2
		 '/></g>
	</g>
	<g id="gnuplot_plot_2" ><title>trendline (m=7.548120,b=-3214.178120)</title>
<g fill="none" color="black" stroke="currentColor" stroke-width="1.00" stroke-linecap="butt" stroke-linejoin="miter">
	<g transform="translate(1187.9,94.0)" stroke="none" fill="black" font-family="Arial" font-size="12.00"  text-anchor="end">
		<text><tspan font-family="Arial" >trendline (m=7.548120,b=-3214.178120)</tspan></text>
	</g>
</g>
<g fill="none" color="black" stroke="currentColor" stroke-width="1.00" stroke-linecap="butt" stroke-linejoin="miter">
	<path stroke='black'  d='M1196.2,90.1 L1238.4,90.1 M87.1,174.5 L98.9,172.7 L110.7,171.0 L122.5,169.2 L134.3,167.5 L146.1,165.8
		L157.9,164.0 L169.7,162.3 L181.5,160.5 L193.3,158.8 L205.1,157.1 L216.9,155.3 L228.7,153.6 L240.5,151.8
		L252.3,150.1 L264.1,148.4 L275.9,146.6 L287.6,144.9 L299.4,143.1 L311.2,141.4 L323.0,139.7 L334.8,137.9
		L346.6,136.2 L358.4,134.4 L370.2,132.7 L382.0,131.0 L393.8,129.2 L405.6,127.5 L417.4,125.7 L429.2,124.0
		L441.0,122.3 L452.8,120.5 L464.6,118.8 L476.4,117.0 L488.2,115.3 L500.0,113.6 L511.8,111.8 L523.6,110.1
		L535.4,108.3 L547.2,106.6 L559.0,104.9 L570.8,103.1 L582.6,101.4 L594.4,99.6 L606.2,97.9 L618.0,96.2
		L629.8,94.4 L641.6,92.7 L653.4,90.9 L665.2,89.2 L676.9,87.5 L688.7,85.7 L700.5,84.0 L712.3,82.2
		L724.1,80.5 L735.9,78.8 L747.7,77.0 L759.5,75.3 L771.3,73.5 L783.1,71.8 L794.9,70.1 L806.7,68.3
		L818.5,66.6 L830.3,64.8 L842.1,63.1 L853.9,61.4 L865.7,59.6 L877.5,57.9 L889.3,56.1 L901.1,54.4
		L903.1,54.1  '/></g>
	</g>
<g fill="none" color="white" stroke="black" stroke-width="2.00" stroke-linecap="butt" stroke-linejoin="miter">
</g>
<g fill="none" color="black" stroke="currentColor" stroke-width="2.00" stroke-linecap="butt" stroke-linejoin="miter">
</g>
<g fill="none" color="black" stroke="black" stroke-width="1.00" stroke-linecap="butt" stroke-linejoin="miter">
</g>
<g fill="none" color="black" stroke="currentColor" stroke-width="1.00" stroke-linecap="butt" stroke-linejoin="miter">
	<path stroke='black'  d='M87.1,54.1 L87.1,703.4 L1255.0,703.4 L1255.0,54.1 L87.1,54.1 Z  '/></g>
<g fill="none" color="black" stroke="currentColor" stroke-width="1.00" stroke-linecap="butt" stroke-linejoin="miter">
</g>
</g>
</svg>

