<?xml version="1.0" encoding="utf-8"  standalone="no"?>
<svg 
 width="1280" height="720"
 viewBox="0 0 1280 720"
 xmlns="http://www.w3.org/2000/svg"
 xmlns:xlink="http://www.w3.org/1999/xlink"
>

<title>Gnuplot</title>
<desc>Produced by GNUPLOT 5.0 patchlevel 6 </desc>

<g id="gnuplot_canvas">

<rect x="0" y="0" width="1280" height="720" fill="none"/>
<defs>

	<circle id='gpDot' r='0.5' stroke-width='0.5'/>
	<path id='gpPt0' stroke-width='0.222' stroke='currentColor' d='M-1,0 h2 M0,-1 v2'/>
	<path id='gpPt1' stroke-width='0.222' stroke='currentColor' d='M-1,-1 L1,1 M1,-1 L-1,1'/>
	<path id='gpPt2' stroke-width='0.222' stroke='currentColor' d='M-1,0 L1,0 M0,-1 L0,1 M-1,-1 L1,1 M-1,1 L1,-1'/>
	<rect id='gpPt3' stroke-width='0.222' stroke='currentColor' x='-1' y='-1' width='2' height='2'/>
	<rect id='gpPt4' stroke-width='0.222' stroke='currentColor' fill='currentColor' x='-1' y='-1' width='2' height='2'/>
	<circle id='gpPt5' stroke-width='0.222' stroke='currentColor' cx='0' cy='0' r='1'/>
	<use xlink:href='#gpPt5' id='gpPt6' fill='currentColor' stroke='none'/>
	<path id='gpPt7' stroke-width='0.222' stroke='currentColor' d='M0,-1.33 L-1.33,0.67 L1.33,0.67 z'/>
	<use xlink:href='#gpPt7' id='gpPt8' fill='currentColor' stroke='none'/>
	<use xlink:href='#gpPt7' id='gpPt9' stroke='currentColor' transform='rotate(180)'/>
	<use xlink:href='#gpPt9' id='gpPt10' fill='currentColor' stroke='none'/>
	<use xlink:href='#gpPt3' id='gpPt11' stroke='currentColor' transform='rotate(45)'/>
	<use xlink:href='#gpPt11' id='gpPt12' fill='currentColor' stroke='none'/>
	<path id='gpPt13' stroke-width='0.222' stroke='currentColor' d='M0,1.330 L1.265,0.411 L0.782,-1.067 L-0.782,-1.076 L-1.265,0.411 z'/>
	<use xlink:href='#gpPt13' id='gpPt14' fill='currentColor' stroke='none'/>
	<filter id='textbox' filterUnits='objectBoundingBox' x='0' y='0' height='1' width='1'>
	  <feFlood flood-color='white' flood-opacity='1' result='bgnd'/>
	  <feComposite in='SourceGraphic' in2='bgnd' operator='atop'/>
	</filter>
	<filter id='greybox' filterUnits='objectBoundingBox' x='0' y='0' height='1' width='1'>
	  <feFlood flood-color='lightgrey' flood-opacity='1' result='grey'/>
	  <feComposite in='SourceGraphic' in2='grey' operator='atop'/>
	</filter>
</defs>
<g fill="none" color="white" stroke="currentColor" stroke-width="1.00" stroke-linecap="butt" stroke-linejoin="miter">
</g>
<g fill="none" color="black" stroke="currentColor" stroke-width="1.00" stroke-linecap="butt" stroke-linejoin="miter">
	<path stroke='black'  d='M87.1,703.4 L96.1,703.4 M1255.0,703.4 L1246.0,703.4  '/>	<g transform="translate(78.8,707.3)" stroke="none" fill="black" font-family="Arial" font-size="12.00"  text-anchor="end">
		<text><tspan font-family="Arial" > 290.539</tspan></text>
	</g>
</g>
<g fill="none" color="black" stroke="currentColor" stroke-width="1.00" stroke-linecap="butt" stroke-linejoin="miter">
	<path stroke='black'  d='M87.1,188.2 L96.1,188.2 M1255.0,188.2 L1246.0,188.2  '/>	<g transform="translate(78.8,192.1)" stroke="none" fill="black" font-family="Arial" font-size="12.00"  text-anchor="end">
		<text><tspan font-family="Arial" > 756.747</tspan></text>
	</g>
</g>
<g fill="none" color="black" stroke="currentColor" stroke-width="1.00" stroke-linecap="butt" stroke-linejoin="miter">
	<path stroke='black'  d='M87.1,54.1 L96.1,54.1 M1255.0,54.1 L1246.0,54.1  '/>	<g transform="translate(78.8,58.0)" stroke="none" fill="black" font-family="Arial" font-size="12.00"  text-anchor="end">
		<text><tspan font-family="Arial" > 878.127</tspan></text>
	</g>
</g>
<g fill="none" color="black" stroke="currentColor" stroke-width="1.00" stroke-linecap="butt" stroke-linejoin="miter">
</g>
<g fill="none" color="black" stroke="currentColor" stroke-width="1.00" stroke-linecap="butt" stroke-linejoin="miter">
	<path stroke='black'  d='M87.1,54.1 L87.1,703.4 L1255.0,703.4 L1255.0,54.1 L87.1,54.1 Z  '/></g>
<g fill="none" color="black" stroke="currentColor" stroke-width="1.00" stroke-linecap="butt" stroke-linejoin="miter">
	<g transform="translate(671.0,31.0)" stroke="none" fill="black" font-family="Arial" font-size="12.00"  text-anchor="middle">
		<text><tspan font-family="Arial" >Material 22, 4 components</tspan></text>
	</g>
</g>
	<g id="gnuplot_plot_1" ><title>log(likelihood)</title>
<g fill="none" color="black" stroke="currentColor" stroke-width="1.00" stroke-linecap="butt" stroke-linejoin="miter">
	<g transform="translate(1187.9,76.0)" stroke="none" fill="black" font-family="Arial" font-size="12.00"  text-anchor="end">
		<text><tspan font-family="Arial" >log(likelihood)</tspan></text>
	</g>
</g>
<g fill="none" color="black" stroke="currentColor" stroke-width="1.00" stroke-linecap="butt" stroke-linejoin="miter">
	<g stroke='none' shape-rendering='crispEdges'>
		<polygon fill = 'rgb(148,   0, 211)' fill-opacity = '0.100000' points = '1196.2,76.6 1238.4,76.6 1238.4,67.6 1196.2,67.6 '/>
	</g>
	<path stroke='rgb(148,   0, 211)'  d='M1196.2,76.6 L1238.4,76.6 L1238.4,67.6 L1196.2,67.6 L1196.2,76.6 Z  '/></g>
<g fill="none" color="black" stroke="currentColor" stroke-width="1.00" stroke-linecap="butt" stroke-linejoin="miter">
	<g stroke='none' shape-rendering='crispEdges'>
		<polygon fill = 'rgb(148,   0, 211)' fill-opacity = '0.100000' points = '87.1,703.4 89.5,695.2 92.0,680.1 94.4,673.7 96.9,669.5 99.3,668.8 101.8,667.1 104.2,666.6 106.6,665.6 109.1,666.9 111.5,667.5 114.0,666.8 116.4,666.8 118.9,666.4 121.3,666.4 123.7,663.0
126.2,665.5 128.6,661.4 131.1,663.1 133.5,663.5 136.0,663.8 138.4,664.8 140.9,661.7 143.3,662.9 145.7,662.5 148.2,659.6 150.6,659.8 153.1,661.0 155.5,659.1 158.0,659.0 160.4,654.5 162.8,655.8
165.3,654.3 167.7,651.8 170.2,652.8 172.6,651.7 175.1,646.8 177.5,639.5 179.9,641.5 182.4,640.2 184.8,631.0 187.3,628.8 189.7,619.0 192.2,617.8 194.6,605.2 197.0,588.7 199.5,585.2 201.9,566.0
204.4,548.8 206.8,525.8 209.3,528.5 211.7,507.1 214.2,500.6 216.6,469.9 219.0,464.7 221.5,444.8 223.9,439.5 226.4,435.1 228.8,423.7 231.3,419.2 233.7,415.3 236.1,408.6 238.6,396.4 241.0,397.3
243.5,395.0 245.9,387.6 248.4,380.1 250.8,376.1 253.2,371.6 255.7,366.1 258.1,364.9 260.6,362.8 263.0,359.7 265.5,361.4 267.9,360.8 270.3,360.3 272.8,359.1 275.2,358.7 277.7,356.5 280.1,356.5
282.6,354.9 285.0,355.3 287.5,353.9 289.9,352.8 292.3,350.8 294.8,351.4 297.2,347.9 299.7,346.9 302.1,336.6 304.6,335.5 307.0,328.8 309.4,318.2 311.9,322.7 314.3,308.4 316.8,305.3 319.2,311.6
321.7,299.0 324.1,297.5 326.5,299.0 329.0,297.2 331.4,294.0 333.9,288.2 336.3,287.9 338.8,285.3 341.2,281.5 343.6,280.0 346.1,279.8 348.5,278.7 351.0,277.8 353.4,272.2 355.9,267.6 358.3,265.9
360.8,262.2 363.2,266.6 365.6,263.3 368.1,261.8 370.5,260.0 373.0,263.2 375.4,255.9 377.9,245.0 380.3,247.2 382.7,248.8 385.2,242.6 387.6,241.8 390.1,237.9 392.5,233.1 395.0,222.4 397.4,222.3
399.8,221.5 402.3,220.0 404.7,220.4 407.2,219.0 409.6,224.6 412.1,219.1 414.5,218.4 416.9,216.0 419.4,214.7 421.8,213.9 424.3,215.0 426.7,204.1 429.2,206.0 431.6,204.5 434.0,200.2 436.5,199.9
438.9,197.0 441.4,189.9 443.8,189.0 446.3,188.2 448.7,182.5 451.2,179.2 453.6,175.5 456.0,173.2 458.5,174.7 460.9,172.1 463.4,172.0 465.8,169.0 468.3,169.0 470.7,166.7 473.1,163.9 475.6,164.0
478.0,163.4 480.5,162.4 482.9,160.0 485.4,159.5 487.8,158.7 490.2,153.7 492.7,151.2 495.1,152.8 497.6,152.3 500.0,148.8 502.5,148.1 504.9,145.9 507.3,147.4 509.8,144.0 512.2,140.8 514.7,140.4
517.1,138.2 519.6,136.9 522.0,135.3 524.5,135.3 526.9,132.8 529.3,134.9 531.8,132.9 534.2,131.1 536.7,129.3 539.1,129.2 541.6,128.3 544.0,123.9 546.4,123.6 548.9,125.2 551.3,124.9 553.8,121.2
556.2,120.7 558.7,122.8 561.1,120.9 563.5,119.6 566.0,117.6 568.4,116.9 570.9,118.5 573.3,118.6 575.8,118.6 578.2,115.8 580.6,114.6 583.1,116.3 585.5,116.2 588.0,112.5 590.4,109.2 592.9,111.9
595.3,110.4 597.8,111.9 600.2,112.0 602.6,110.0 605.1,108.9 607.5,107.1 610.0,107.1 612.4,106.5 614.9,107.1 617.3,104.3 619.7,105.2 622.2,104.5 624.6,104.1 627.1,106.8 629.5,106.0 632.0,101.4
634.4,101.4 636.8,102.1 639.3,101.4 641.7,101.2 644.2,102.3 646.6,102.3 649.1,103.8 651.5,99.3 653.9,100.4 656.4,99.0 658.8,98.8 661.3,96.8 663.7,95.1 666.2,94.5 668.6,94.9 671.1,95.0
673.5,92.7 675.9,92.9 678.4,91.2 680.8,91.8 683.3,94.6 685.7,94.4 688.2,90.7 690.6,89.1 693.0,91.8 695.5,88.3 697.9,88.4 700.4,90.3 702.8,88.0 705.3,88.3 707.7,88.2 710.1,87.4
712.6,89.2 715.0,86.8 717.5,88.4 719.9,87.3 722.4,87.6 724.8,85.5 727.2,86.3 729.7,85.7 732.1,85.7 734.6,84.0 737.0,83.6 739.5,84.5 741.9,84.5 744.3,82.0 746.8,84.9 749.2,83.7
751.7,82.9 754.1,84.0 756.6,85.5 759.0,82.2 761.5,79.6 763.9,81.4 766.3,80.8 768.8,79.2 771.2,79.4 773.7,80.1 776.1,80.3 778.6,81.1 781.0,79.8 783.4,80.0 785.9,80.3 788.3,80.0
790.8,79.2 793.2,78.2 795.7,80.7 798.1,80.5 800.5,78.7 803.0,80.6 805.4,79.1 807.9,78.9 810.3,77.5 812.8,76.8 815.2,76.7 817.6,77.0 820.1,77.5 822.5,74.7 825.0,76.3 827.4,75.6
829.9,74.5 832.3,74.9 834.8,73.3 837.2,75.8 839.6,71.9 842.1,74.5 844.5,74.3 847.0,73.0 849.4,71.9 851.9,68.5 854.3,70.7 856.7,71.0 859.2,67.7 861.6,65.6 864.1,67.6 866.5,63.3
869.0,65.0 871.4,63.3 873.8,65.8 876.3,63.0 878.7,62.6 881.2,64.7 883.6,64.5 886.1,66.2 888.5,63.7 890.9,64.9 893.4,62.2 895.8,65.0 898.3,62.8 900.7,61.4 903.2,63.6 905.6,63.0
908.1,62.1 910.5,62.0 912.9,61.5 915.4,62.7 917.8,64.4 920.3,60.5 922.7,62.3 925.2,60.2 927.6,63.3 930.0,60.3 932.5,62.3 934.9,61.0 937.4,60.6 939.8,60.7 942.3,61.8 944.7,62.7
947.1,62.1 949.6,61.1 952.0,60.5 954.5,59.3 956.9,61.8 959.4,60.3 961.8,60.4 964.2,62.2 966.7,60.1 969.1,60.0 971.6,60.8 974.0,60.4 976.5,57.7 978.9,60.5 981.3,59.7 983.8,59.2
986.2,60.0 988.7,60.0 991.1,60.0 993.6,58.0 996.0,59.5 998.5,57.7 1000.9,57.9 1003.3,58.7 1005.8,55.7 1008.2,58.1 1010.7,58.0 1013.1,57.3 1015.6,57.5 1018.0,57.7 1020.4,56.4 1022.9,56.3
1025.3,58.1 1027.8,55.6 1030.2,57.8 1032.7,57.8 1035.1,58.5 1037.5,58.5 1040.0,59.0 1042.4,57.2 1044.9,58.4 1047.3,57.8 1049.8,55.7 1052.2,56.4 1054.6,57.1 1057.1,58.8 1059.5,56.9 1062.0,57.2
1064.4,55.6 1066.9,57.6 1069.3,57.7 1071.8,59.1 1074.2,58.4 1076.6,58.1 1079.1,58.0 1081.5,55.7 1084.0,59.2 1086.4,56.7 1088.9,56.7 1091.3,56.6 1093.7,57.8 1096.2,54.1 1098.6,57.3 1101.1,54.5
1103.5,54.9 1106.0,58.7 1108.4,58.4 1110.8,57.1 1113.3,58.2 1115.7,57.6 1118.2,56.3 1120.6,54.7 1123.1,57.9 1125.5,55.6 1127.9,56.9 1130.4,56.9 1132.8,56.6 1135.3,59.1 1137.7,56.9 1140.2,55.3
1142.6,56.3 1145.1,56.7 1147.5,56.9 1149.9,55.4 1152.4,55.3 1154.8,54.4 1157.3,56.4 1159.7,56.7 1162.2,54.6 1164.6,55.3 1167.0,55.3 1169.5,56.4 1171.9,54.7 1174.4,54.6 1176.8,56.3 1179.3,56.7
1181.7,55.8 1184.1,56.0 1186.6,54.8 1189.0,55.5 1191.5,57.2 1193.9,55.5 1196.4,56.5 1198.8,54.8 1201.2,56.9 1203.7,56.5 1206.1,56.2 1208.6,56.4 1211.0,56.1 1213.5,54.6 1215.9,55.5 1218.4,54.3
1220.8,54.7 1223.2,56.5 1225.7,54.4 1228.1,57.1 1230.6,54.9 1233.0,54.4 1235.5,55.7 1237.9,56.0 1240.3,55.8 1242.8,55.5 1245.2,55.3 1247.7,55.3 1250.1,55.5 1252.6,57.7 1255.0,57.7 1255.0,703.4
87.1,703.4 '/>
	</g>
	<path stroke='rgb(148,   0, 211)'  d='M87.1,703.4 L89.5,695.2 L92.0,680.1 L94.4,673.7 L96.9,669.5 L99.3,668.8 L101.8,667.1 L104.2,666.6
		L106.6,665.6 L109.1,666.9 L111.5,667.5 L114.0,666.8 L116.4,666.8 L118.9,666.4 L121.3,666.4 L123.7,663.0
		L126.2,665.5 L128.6,661.4 L131.1,663.1 L133.5,663.5 L136.0,663.8 L138.4,664.8 L140.9,661.7 L143.3,662.9
		L145.7,662.5 L148.2,659.6 L150.6,659.8 L153.1,661.0 L155.5,659.1 L158.0,659.0 L160.4,654.5 L162.8,655.8
		L165.3,654.3 L167.7,651.8 L170.2,652.8 L172.6,651.7 L175.1,646.8 L177.5,639.5 L179.9,641.5 L182.4,640.2
		L184.8,631.0 L187.3,628.8 L189.7,619.0 L192.2,617.8 L194.6,605.2 L197.0,588.7 L199.5,585.2 L201.9,566.0
		L204.4,548.8 L206.8,525.8 L209.3,528.5 L211.7,507.1 L214.2,500.6 L216.6,469.9 L219.0,464.7 L221.5,444.8
		L223.9,439.5 L226.4,435.1 L228.8,423.7 L231.3,419.2 L233.7,415.3 L236.1,408.6 L238.6,396.4 L241.0,397.3
		L243.5,395.0 L245.9,387.6 L248.4,380.1 L250.8,376.1 L253.2,371.6 L255.7,366.1 L258.1,364.9 L260.6,362.8
		L263.0,359.7 L265.5,361.4 L267.9,360.8 L270.3,360.3 L272.8,359.1 L275.2,358.7 L277.7,356.5 L280.1,356.5
		L282.6,354.9 L285.0,355.3 L287.5,353.9 L289.9,352.8 L292.3,350.8 L294.8,351.4 L297.2,347.9 L299.7,346.9
		L302.1,336.6 L304.6,335.5 L307.0,328.8 L309.4,318.2 L311.9,322.7 L314.3,308.4 L316.8,305.3 L319.2,311.6
		L321.7,299.0 L324.1,297.5 L326.5,299.0 L329.0,297.2 L331.4,294.0 L333.9,288.2 L336.3,287.9 L338.8,285.3
		L341.2,281.5 L343.6,280.0 L346.1,279.8 L348.5,278.7 L351.0,277.8 L353.4,272.2 L355.9,267.6 L358.3,265.9
		L360.8,262.2 L363.2,266.6 L365.6,263.3 L368.1,261.8 L370.5,260.0 L373.0,263.2 L375.4,255.9 L377.9,245.0
		L380.3,247.2 L382.7,248.8 L385.2,242.6 L387.6,241.8 L390.1,237.9 L392.5,233.1 L395.0,222.4 L397.4,222.3
		L399.8,221.5 L402.3,220.0 L404.7,220.4 L407.2,219.0 L409.6,224.6 L412.1,219.1 L414.5,218.4 L416.9,216.0
		L419.4,214.7 L421.8,213.9 L424.3,215.0 L426.7,204.1 L429.2,206.0 L431.6,204.5 L434.0,200.2 L436.5,199.9
		L438.9,197.0 L441.4,189.9 L443.8,189.0 L446.3,188.2 L448.7,182.5 L451.2,179.2 L453.6,175.5 L456.0,173.2
		L458.5,174.7 L460.9,172.1 L463.4,172.0 L465.8,169.0 L468.3,169.0 L470.7,166.7 L473.1,163.9 L475.6,164.0
		L478.0,163.4 L480.5,162.4 L482.9,160.0 L485.4,159.5 L487.8,158.7 L490.2,153.7 L492.7,151.2 L495.1,152.8
		L497.6,152.3 L500.0,148.8 L502.5,148.1 L504.9,145.9 L507.3,147.4 L509.8,144.0 L512.2,140.8 L514.7,140.4
		L517.1,138.2 L519.6,136.9 L522.0,135.3 L524.5,135.3 L526.9,132.8 L529.3,134.9 L531.8,132.9 L534.2,131.1
		L536.7,129.3 L539.1,129.2 L541.6,128.3 L544.0,123.9 L546.4,123.6 L548.9,125.2 L551.3,124.9 L553.8,121.2
		L556.2,120.7 L558.7,122.8 L561.1,120.9 L563.5,119.6 L566.0,117.6 L568.4,116.9 L570.9,118.5 L573.3,118.6
		L575.8,118.6 L578.2,115.8 L580.6,114.6 L583.1,116.3 L585.5,116.2 L588.0,112.5 L590.4,109.2 L592.9,111.9
		L595.3,110.4 L597.8,111.9 L600.2,112.0 L602.6,110.0 L605.1,108.9 L607.5,107.1 L610.0,107.1 L612.4,106.5
		L614.9,107.1 L617.3,104.3 L619.7,105.2 L622.2,104.5 L624.6,104.1 L627.1,106.8 L629.5,106.0 L632.0,101.4
		L634.4,101.4 L636.8,102.1 L639.3,101.4 L641.7,101.2 L644.2,102.3 L646.6,102.3 L649.1,103.8 L651.5,99.3
		L653.9,100.4 L656.4,99.0 L658.8,98.8 L661.3,96.8 L663.7,95.1 L666.2,94.5 L668.6,94.9 L671.1,95.0
		L673.5,92.7 L675.9,92.9 L678.4,91.2 L680.8,91.8 L683.3,94.6 L685.7,94.4 L688.2,90.7 L690.6,89.1
		L693.0,91.8 L695.5,88.3 L697.9,88.4 L700.4,90.3 L702.8,88.0 L705.3,88.3 L707.7,88.2 L710.1,87.4
		L712.6,89.2 L715.0,86.8 L717.5,88.4 L719.9,87.3 L722.4,87.6 L724.8,85.5 L727.2,86.3 L729.7,85.7
		L732.1,85.7 L734.6,84.0 L737.0,83.6 L739.5,84.5 L741.9,84.5 L744.3,82.0 L746.8,84.9 L749.2,83.7
		L751.7,82.9 L754.1,84.0 L756.6,85.5 L759.0,82.2 L761.5,79.6 L763.9,81.4 L766.3,80.8 L768.8,79.2
		L771.2,79.4 L773.7,80.1 L776.1,80.3 L778.6,81.1 L781.0,79.8 L783.4,80.0 L785.9,80.3 L788.3,80.0
		L790.8,79.2 L793.2,78.2 L795.7,80.7 L798.1,80.5 L800.5,78.7 L803.0,80.6 L805.4,79.1 L807.9,78.9
		L810.3,77.5 L812.8,76.8 L815.2,76.7 L817.6,77.0 L820.1,77.5 L822.5,74.7 L825.0,76.3 L827.4,75.6
		L829.9,74.5 L832.3,74.9 L834.8,73.3 L837.2,75.8 L839.6,71.9 L842.1,74.5 L844.5,74.3 L847.0,73.0
		L849.4,71.9 L851.9,68.5 L854.3,70.7 L856.7,71.0 L859.2,67.7 L861.6,65.6 L864.1,67.6 L866.5,63.3
		L869.0,65.0 L871.4,63.3 L873.8,65.8 L876.3,63.0 L878.7,62.6 L881.2,64.7 L883.6,64.5 L886.1,66.2
		L888.5,63.7 L890.9,64.9 L893.4,62.2 L895.8,65.0 L898.3,62.8 L900.7,61.4 L903.2,63.6 L905.6,63.0
		L908.1,62.1 L910.5,62.0 L912.9,61.5 L915.4,62.7 L917.8,64.4 L920.3,60.5 L922.7,62.3 L925.2,60.2
		L927.6,63.3 L930.0,60.3 L932.5,62.3 L934.9,61.0 L937.4,60.6 L939.8,60.7 L942.3,61.8 L944.7,62.7
		L947.1,62.1 L949.6,61.1 L952.0,60.5 L954.5,59.3 L956.9,61.8 L959.4,60.3 L961.8,60.4 L964.2,62.2
		L966.7,60.1 L969.1,60.0 L971.6,60.8 L974.0,60.4 L976.5,57.7 L978.9,60.5 L981.3,59.7 L983.8,59.2
		L986.2,60.0 L988.7,60.0 L991.1,60.0 L993.6,58.0 L996.0,59.5 L998.5,57.7 L1000.9,57.9 L1003.3,58.7
		L1005.8,55.7 L1008.2,58.1 L1010.7,58.0 L1013.1,57.3 L1015.6,57.5 L1018.0,57.7 L1020.4,56.4 L1022.9,56.3
		L1025.3,58.1 L1027.8,55.6 L1030.2,57.8 L1032.7,57.8 L1035.1,58.5 L1037.5,58.5 L1040.0,59.0 L1042.4,57.2
		L1044.9,58.4 L1047.3,57.8 L1049.8,55.7 L1052.2,56.4 L1054.6,57.1 L1057.1,58.8 L1059.5,56.9 L1062.0,57.2
		L1064.4,55.6 L1066.9,57.6 L1069.3,57.7 L1071.8,59.1 L1074.2,58.4 L1076.6,58.1 L1079.1,58.0 L1081.5,55.7
		L1084.0,59.2 L1086.4,56.7 L1088.9,56.7 L1091.3,56.6 L1093.7,57.8 L1096.2,54.1 L1098.6,57.3 L1101.1,54.5
		L1103.5,54.9 L1106.0,58.7 L1108.4,58.4 L1110.8,57.1 L1113.3,58.2 L1115.7,57.6 L1118.2,56.3 L1120.6,54.7
		L1123.1,57.9 L1125.5,55.6 L1127.9,56.9 L1130.4,56.9 L1132.8,56.6 L1135.3,59.1 L1137.7,56.9 L1140.2,55.3
		L1142.6,56.3 L1145.1,56.7 L1147.5,56.9 L1149.9,55.4 L1152.4,55.3 L1154.8,54.4 L1157.3,56.4 L1159.7,56.7
		L1162.2,54.6 L1164.6,55.3 L1167.0,55.3 L1169.5,56.4 L1171.9,54.7 L1174.4,54.6 L1176.8,56.3 L1179.3,56.7
		L1181.7,55.8 L1184.1,56.0 L1186.6,54.8 L1189.0,55.5 L1191.5,57.2 L1193.9,55.5 L1196.4,56.5 L1198.8,54.8
		L1201.2,56.9 L1203.7,56.5 L1206.1,56.2 L1208.6,56.4 L1211.0,56.1 L1213.5,54.6 L1215.9,55.5 L1218.4,54.3
		L1220.8,54.7 L1223.2,56.5 L1225.7,54.4 L1228.1,57.1 L1230.6,54.9 L1233.0,54.4 L1235.5,55.7 L1237.9,56.0
		L1240.3,55.8 L1242.8,55.5 L1245.2,55.3 L1247.7,55.3 L1250.1,55.5 L1252.6,57.7 L1255.0,57.7  '/></g>
	</g>
	<g id="gnuplot_plot_2" ><title>trendline (m=1.019362,b=513.119712)</title>
<g fill="none" color="black" stroke="currentColor" stroke-width="1.00" stroke-linecap="butt" stroke-linejoin="miter">
	<g transform="translate(1187.9,94.0)" stroke="none" fill="black" font-family="Arial" font-size="12.00"  text-anchor="end">
		<text><tspan font-family="Arial" >trendline (m=1.019362,b=513.119712)</tspan></text>
	</g>
</g>
<g fill="none" color="black" stroke="currentColor" stroke-width="1.00" stroke-linecap="butt" stroke-linejoin="miter">
	<path stroke='black'  d='M1196.2,90.1 L1238.4,90.1 M87.1,457.4 L98.9,452.0 L110.7,446.6 L122.5,441.1 L134.3,435.7 L146.1,430.2
		L157.9,424.8 L169.7,419.4 L181.5,413.9 L193.3,408.5 L205.1,403.1 L216.9,397.6 L228.7,392.2 L240.5,386.7
		L252.3,381.3 L264.1,375.9 L275.9,370.4 L287.6,365.0 L299.4,359.5 L311.2,354.1 L323.0,348.7 L334.8,343.2
		L346.6,337.8 L358.4,332.4 L370.2,326.9 L382.0,321.5 L393.8,316.0 L405.6,310.6 L417.4,305.2 L429.2,299.7
		L441.0,294.3 L452.8,288.8 L464.6,283.4 L476.4,278.0 L488.2,272.5 L500.0,267.1 L511.8,261.6 L523.6,256.2
		L535.4,250.8 L547.2,245.3 L559.0,239.9 L570.8,234.5 L582.6,229.0 L594.4,223.6 L606.2,218.1 L618.0,212.7
		L629.8,207.3 L641.6,201.8 L653.4,196.4 L665.2,190.9 L676.9,185.5 L688.7,180.1 L700.5,174.6 L712.3,169.2
		L724.1,163.8 L735.9,158.3 L747.7,152.9 L759.5,147.4 L771.3,142.0 L783.1,136.6 L794.9,131.1 L806.7,125.7
		L818.5,120.2 L830.3,114.8 L842.1,109.4 L853.9,103.9 L865.7,98.5 L877.5,93.1 L889.3,87.6 L901.1,82.2
		L912.9,76.7 L924.7,71.3 L936.5,65.9 L948.3,60.4 L960.1,55.0 L962.0,54.1  '/></g>
	</g>
<g fill="none" color="white" stroke="black" stroke-width="2.00" stroke-linecap="butt" stroke-linejoin="miter">
</g>
<g fill="none" color="black" stroke="currentColor" stroke-width="2.00" stroke-linecap="butt" stroke-linejoin="miter">
</g>
<g fill="none" color="black" stroke="black" stroke-width="1.00" stroke-linecap="butt" stroke-linejoin="miter">
</g>
<g fill="none" color="black" stroke="currentColor" stroke-width="1.00" stroke-linecap="butt" stroke-linejoin="miter">
	<path stroke='black'  d='M87.1,54.1 L87.1,703.4 L1255.0,703.4 L1255.0,54.1 L87.1,54.1 Z  '/></g>
<g fill="none" color="black" stroke="currentColor" stroke-width="1.00" stroke-linecap="butt" stroke-linejoin="miter">
</g>
</g>
</svg>

