<?xml version="1.0" encoding="utf-8"  standalone="no"?>
<svg 
 width="1280" height="720"
 viewBox="0 0 1280 720"
 xmlns="http://www.w3.org/2000/svg"
 xmlns:xlink="http://www.w3.org/1999/xlink"
>

<title>Gnuplot</title>
<desc>Produced by GNUPLOT 5.0 patchlevel 6 </desc>

<g id="gnuplot_canvas">

<rect x="0" y="0" width="1280" height="720" fill="none"/>
<defs>

	<circle id='gpDot' r='0.5' stroke-width='0.5'/>
	<path id='gpPt0' stroke-width='0.222' stroke='currentColor' d='M-1,0 h2 M0,-1 v2'/>
	<path id='gpPt1' stroke-width='0.222' stroke='currentColor' d='M-1,-1 L1,1 M1,-1 L-1,1'/>
	<path id='gpPt2' stroke-width='0.222' stroke='currentColor' d='M-1,0 L1,0 M0,-1 L0,1 M-1,-1 L1,1 M-1,1 L1,-1'/>
	<rect id='gpPt3' stroke-width='0.222' stroke='currentColor' x='-1' y='-1' width='2' height='2'/>
	<rect id='gpPt4' stroke-width='0.222' stroke='currentColor' fill='currentColor' x='-1' y='-1' width='2' height='2'/>
	<circle id='gpPt5' stroke-width='0.222' stroke='currentColor' cx='0' cy='0' r='1'/>
	<use xlink:href='#gpPt5' id='gpPt6' fill='currentColor' stroke='none'/>
	<path id='gpPt7' stroke-width='0.222' stroke='currentColor' d='M0,-1.33 L-1.33,0.67 L1.33,0.67 z'/>
	<use xlink:href='#gpPt7' id='gpPt8' fill='currentColor' stroke='none'/>
	<use xlink:href='#gpPt7' id='gpPt9' stroke='currentColor' transform='rotate(180)'/>
	<use xlink:href='#gpPt9' id='gpPt10' fill='currentColor' stroke='none'/>
	<use xlink:href='#gpPt3' id='gpPt11' stroke='currentColor' transform='rotate(45)'/>
	<use xlink:href='#gpPt11' id='gpPt12' fill='currentColor' stroke='none'/>
	<path id='gpPt13' stroke-width='0.222' stroke='currentColor' d='M0,1.330 L1.265,0.411 L0.782,-1.067 L-0.782,-1.076 L-1.265,0.411 z'/>
	<use xlink:href='#gpPt13' id='gpPt14' fill='currentColor' stroke='none'/>
	<filter id='textbox' filterUnits='objectBoundingBox' x='0' y='0' height='1' width='1'>
	  <feFlood flood-color='white' flood-opacity='1' result='bgnd'/>
	  <feComposite in='SourceGraphic' in2='bgnd' operator='atop'/>
	</filter>
	<filter id='greybox' filterUnits='objectBoundingBox' x='0' y='0' height='1' width='1'>
	  <feFlood flood-color='lightgrey' flood-opacity='1' result='grey'/>
	  <feComposite in='SourceGraphic' in2='grey' operator='atop'/>
	</filter>
</defs>
<g fill="none" color="white" stroke="currentColor" stroke-width="1.00" stroke-linecap="butt" stroke-linejoin="miter">
</g>
<g fill="none" color="black" stroke="currentColor" stroke-width="1.00" stroke-linecap="butt" stroke-linejoin="miter">
	<path stroke='black'  d='M87.1,703.4 L96.1,703.4 M1255.0,703.4 L1246.0,703.4  '/>	<g transform="translate(78.8,707.3)" stroke="none" fill="black" font-family="Arial" font-size="12.00"  text-anchor="end">
		<text><tspan font-family="Arial" >-71.37</tspan></text>
	</g>
</g>
<g fill="none" color="black" stroke="currentColor" stroke-width="1.00" stroke-linecap="butt" stroke-linejoin="miter">
	<path stroke='black'  d='M87.1,80.8 L96.1,80.8 M1255.0,80.8 L1246.0,80.8  '/>	<g transform="translate(78.8,84.7)" stroke="none" fill="black" font-family="Arial" font-size="12.00"  text-anchor="end">
		<text><tspan font-family="Arial" > 179.701</tspan></text>
	</g>
</g>
<g fill="none" color="black" stroke="currentColor" stroke-width="1.00" stroke-linecap="butt" stroke-linejoin="miter">
	<path stroke='black'  d='M87.1,54.1 L96.1,54.1 M1255.0,54.1 L1246.0,54.1  '/>	<g transform="translate(78.8,58.0)" stroke="none" fill="black" font-family="Arial" font-size="12.00"  text-anchor="end">
		<text><tspan font-family="Arial" > 190.461</tspan></text>
	</g>
</g>
<g fill="none" color="black" stroke="currentColor" stroke-width="1.00" stroke-linecap="butt" stroke-linejoin="miter">
</g>
<g fill="none" color="black" stroke="currentColor" stroke-width="1.00" stroke-linecap="butt" stroke-linejoin="miter">
	<path stroke='black'  d='M87.1,54.1 L87.1,703.4 L1255.0,703.4 L1255.0,54.1 L87.1,54.1 Z  '/></g>
<g fill="none" color="black" stroke="currentColor" stroke-width="1.00" stroke-linecap="butt" stroke-linejoin="miter">
	<g transform="translate(671.0,31.0)" stroke="none" fill="black" font-family="Arial" font-size="12.00"  text-anchor="middle">
		<text><tspan font-family="Arial" >Material 34, 4 components</tspan></text>
	</g>
</g>
	<g id="gnuplot_plot_1" ><title>log(likelihood)</title>
<g fill="none" color="black" stroke="currentColor" stroke-width="1.00" stroke-linecap="butt" stroke-linejoin="miter">
	<g transform="translate(1187.9,76.0)" stroke="none" fill="black" font-family="Arial" font-size="12.00"  text-anchor="end">
		<text><tspan font-family="Arial" >log(likelihood)</tspan></text>
	</g>
</g>
<g fill="none" color="black" stroke="currentColor" stroke-width="1.00" stroke-linecap="butt" stroke-linejoin="miter">
	<g stroke='none' shape-rendering='crispEdges'>
		<polygon fill = 'rgb(148,   0, 211)' fill-opacity = '0.100000' points = '1196.2,76.6 1238.4,76.6 1238.4,67.6 1196.2,67.6 '/>
	</g>
	<path stroke='rgb(148,   0, 211)'  d='M1196.2,76.6 L1238.4,76.6 L1238.4,67.6 L1196.2,67.6 L1196.2,76.6 Z  '/></g>
<g fill="none" color="black" stroke="currentColor" stroke-width="1.00" stroke-linecap="butt" stroke-linejoin="miter">
	<g stroke='none' shape-rendering='crispEdges'>
		<polygon fill = 'rgb(148,   0, 211)' fill-opacity = '0.100000' points = '87.1,703.4 89.5,677.0 92.0,662.5 94.4,653.4 96.9,638.2 99.3,624.6 101.8,623.8 104.2,598.0 106.6,558.2 109.1,540.8 111.5,504.1 114.0,482.8 116.4,440.7 118.9,390.5 121.3,338.1 123.7,312.6
126.2,292.1 128.6,256.2 131.1,229.3 133.5,214.1 136.0,191.7 138.4,178.2 140.9,151.6 143.3,136.5 145.7,125.3 148.2,120.7 150.6,112.3 153.1,108.8 155.5,96.4 158.0,91.1 160.4,89.9 162.8,88.2
165.3,84.3 167.7,82.3 170.2,79.1 172.6,78.3 175.1,74.9 177.5,76.1 179.9,72.1 182.4,75.0 184.8,72.7 187.3,71.3 189.7,67.4 192.2,67.3 194.6,68.9 197.0,69.3 199.5,68.8 201.9,65.3
204.4,68.6 206.8,68.1 209.3,69.6 211.7,68.0 214.2,68.6 216.6,70.6 219.0,69.2 221.5,68.9 223.9,70.8 226.4,68.6 228.8,69.4 231.3,69.1 233.7,70.9 236.1,69.3 238.6,66.5 241.0,66.4
243.5,70.1 245.9,69.0 248.4,68.7 250.8,68.1 253.2,69.8 255.7,67.9 258.1,63.6 260.6,63.8 263.0,71.0 265.5,65.0 267.9,66.6 270.3,67.6 272.8,65.0 275.2,69.7 277.7,69.0 280.1,68.2
282.6,66.0 285.0,69.3 287.5,67.5 289.9,65.5 292.3,66.0 294.8,69.3 297.2,65.1 299.7,67.2 302.1,64.2 304.6,65.8 307.0,65.0 309.4,66.1 311.9,66.4 314.3,66.4 316.8,66.4 319.2,67.0
321.7,67.5 324.1,63.5 326.5,65.4 329.0,67.3 331.4,66.3 333.9,68.7 336.3,63.5 338.8,66.0 341.2,64.3 343.6,65.9 346.1,63.8 348.5,65.9 351.0,63.3 353.4,63.2 355.9,59.8 358.3,64.4
360.8,66.6 363.2,65.9 365.6,65.5 368.1,63.0 370.5,61.5 373.0,66.7 375.4,62.5 377.9,61.8 380.3,65.3 382.7,65.9 385.2,66.7 387.6,63.7 390.1,63.5 392.5,63.3 395.0,64.1 397.4,64.3
399.8,64.7 402.3,61.6 404.7,62.0 407.2,62.2 409.6,68.8 412.1,63.4 414.5,65.8 416.9,60.4 419.4,62.5 421.8,62.0 424.3,62.5 426.7,62.8 429.2,63.9 431.6,60.5 434.0,61.4 436.5,61.8
438.9,59.8 441.4,66.9 443.8,63.6 446.3,60.1 448.7,62.7 451.2,62.4 453.6,63.7 456.0,63.7 458.5,63.4 460.9,62.4 463.4,64.1 465.8,65.6 468.3,62.8 470.7,64.8 473.1,61.0 475.6,62.3
478.0,62.7 480.5,61.8 482.9,61.7 485.4,61.8 487.8,62.2 490.2,64.0 492.7,64.4 495.1,61.9 497.6,61.2 500.0,61.8 502.5,63.8 504.9,61.4 507.3,63.9 509.8,63.3 512.2,59.8 514.7,58.0
517.1,60.4 519.6,60.4 522.0,63.8 524.5,64.5 526.9,64.6 529.3,60.4 531.8,61.6 534.2,59.6 536.7,61.6 539.1,57.8 541.6,61.9 544.0,60.2 546.4,58.5 548.9,63.7 551.3,61.7 553.8,60.9
556.2,63.5 558.7,59.4 561.1,61.4 563.5,59.8 566.0,58.8 568.4,64.0 570.9,62.3 573.3,58.4 575.8,63.8 578.2,61.4 580.6,62.8 583.1,63.4 585.5,62.5 588.0,61.1 590.4,58.7 592.9,59.8
595.3,59.1 597.8,63.2 600.2,60.6 602.6,59.8 605.1,60.7 607.5,61.3 610.0,59.1 612.4,60.0 614.9,64.3 617.3,61.3 619.7,62.9 622.2,55.8 624.6,58.9 627.1,60.7 629.5,58.9 632.0,58.2
634.4,61.8 636.8,59.6 639.3,60.1 641.7,63.5 644.2,58.3 646.6,63.0 649.1,62.1 651.5,60.0 653.9,60.0 656.4,61.3 658.8,58.0 661.3,62.2 663.7,60.4 666.2,60.7 668.6,62.0 671.1,61.7
673.5,60.7 675.9,59.2 678.4,59.1 680.8,61.1 683.3,60.3 685.7,60.9 688.2,58.8 690.6,58.4 693.0,60.0 695.5,61.0 697.9,59.1 700.4,60.4 702.8,59.2 705.3,56.9 707.7,59.9 710.1,58.7
712.6,60.4 715.0,58.2 717.5,61.9 719.9,60.4 722.4,58.0 724.8,61.0 727.2,60.3 729.7,60.9 732.1,59.6 734.6,58.5 737.0,62.4 739.5,58.5 741.9,62.3 744.3,60.5 746.8,57.5 749.2,59.6
751.7,59.0 754.1,61.7 756.6,57.3 759.0,59.6 761.5,59.3 763.9,59.6 766.3,57.9 768.8,61.7 771.2,58.7 773.7,57.4 776.1,60.3 778.6,60.6 781.0,59.9 783.4,56.5 785.9,60.1 788.3,57.7
790.8,58.4 793.2,56.9 795.7,59.8 798.1,59.2 800.5,57.6 803.0,62.1 805.4,58.6 807.9,55.4 810.3,60.1 812.8,59.4 815.2,61.7 817.6,60.2 820.1,60.5 822.5,62.1 825.0,58.0 827.4,58.9
829.9,62.1 832.3,61.2 834.8,59.5 837.2,59.3 839.6,60.8 842.1,58.3 844.5,59.6 847.0,60.0 849.4,57.1 851.9,58.9 854.3,56.6 856.7,59.7 859.2,58.5 861.6,58.4 864.1,57.4 866.5,58.0
869.0,58.9 871.4,60.4 873.8,57.3 876.3,55.2 878.7,56.5 881.2,59.1 883.6,57.0 886.1,58.2 888.5,59.8 890.9,58.7 893.4,57.3 895.8,61.8 898.3,61.0 900.7,57.0 903.2,57.1 905.6,58.4
908.1,58.0 910.5,61.1 912.9,61.0 915.4,56.6 917.8,59.0 920.3,59.1 922.7,59.0 925.2,58.8 927.6,58.5 930.0,59.3 932.5,58.1 934.9,59.7 937.4,58.5 939.8,59.8 942.3,58.3 944.7,57.1
947.1,59.4 949.6,55.5 952.0,60.1 954.5,59.5 956.9,58.0 959.4,59.9 961.8,59.4 964.2,57.5 966.7,56.9 969.1,56.4 971.6,56.2 974.0,54.3 976.5,59.5 978.9,57.1 981.3,59.1 983.8,60.2
986.2,60.6 988.7,60.4 991.1,60.3 993.6,57.2 996.0,59.1 998.5,57.1 1000.9,59.5 1003.3,54.1 1005.8,56.5 1008.2,59.5 1010.7,59.5 1013.1,56.3 1015.6,60.9 1018.0,57.2 1020.4,58.6 1022.9,59.7
1025.3,60.5 1027.8,58.3 1030.2,58.5 1032.7,60.6 1035.1,56.3 1037.5,56.1 1040.0,58.4 1042.4,60.2 1044.9,60.3 1047.3,62.0 1049.8,59.0 1052.2,59.6 1054.6,59.5 1057.1,58.3 1059.5,56.8 1062.0,58.1
1064.4,59.6 1066.9,57.9 1069.3,59.8 1071.8,57.9 1074.2,58.1 1076.6,58.7 1079.1,57.6 1081.5,55.1 1084.0,56.9 1086.4,60.2 1088.9,57.0 1091.3,58.4 1093.7,58.7 1096.2,58.3 1098.6,55.3 1101.1,54.1
1103.5,61.6 1106.0,58.8 1108.4,58.9 1110.8,62.2 1113.3,58.9 1115.7,59.1 1118.2,60.9 1120.6,56.3 1123.1,57.9 1125.5,59.0 1127.9,57.8 1130.4,59.5 1132.8,59.9 1135.3,58.2 1137.7,56.7 1140.2,56.0
1142.6,58.1 1145.1,59.0 1147.5,60.7 1149.9,60.7 1152.4,58.5 1154.8,57.3 1157.3,59.1 1159.7,58.3 1162.2,57.7 1164.6,57.2 1167.0,61.4 1169.5,60.4 1171.9,57.6 1174.4,61.4 1176.8,59.3 1179.3,54.5
1181.7,60.0 1184.1,59.4 1186.6,57.8 1189.0,59.3 1191.5,61.8 1193.9,58.3 1196.4,56.2 1198.8,61.1 1201.2,56.9 1203.7,60.7 1206.1,56.4 1208.6,59.6 1211.0,56.2 1213.5,57.8 1215.9,56.6 1218.4,60.2
1220.8,59.1 1223.2,57.4 1225.7,58.6 1228.1,58.6 1230.6,58.7 1233.0,58.6 1235.5,57.0 1237.9,58.2 1240.3,59.5 1242.8,56.6 1245.2,60.3 1247.7,57.9 1250.1,58.4 1252.6,60.7 1255.0,58.8 1255.0,703.4
87.1,703.4 '/>
	</g>
	<path stroke='rgb(148,   0, 211)'  d='M87.1,703.4 L89.5,677.0 L92.0,662.5 L94.4,653.4 L96.9,638.2 L99.3,624.6 L101.8,623.8 L104.2,598.0
		L106.6,558.2 L109.1,540.8 L111.5,504.1 L114.0,482.8 L116.4,440.7 L118.9,390.5 L121.3,338.1 L123.7,312.6
		L126.2,292.1 L128.6,256.2 L131.1,229.3 L133.5,214.1 L136.0,191.7 L138.4,178.2 L140.9,151.6 L143.3,136.5
		L145.7,125.3 L148.2,120.7 L150.6,112.3 L153.1,108.8 L155.5,96.4 L158.0,91.1 L160.4,89.9 L162.8,88.2
		L165.3,84.3 L167.7,82.3 L170.2,79.1 L172.6,78.3 L175.1,74.9 L177.5,76.1 L179.9,72.1 L182.4,75.0
		L184.8,72.7 L187.3,71.3 L189.7,67.4 L192.2,67.3 L194.6,68.9 L197.0,69.3 L199.5,68.8 L201.9,65.3
		L204.4,68.6 L206.8,68.1 L209.3,69.6 L211.7,68.0 L214.2,68.6 L216.6,70.6 L219.0,69.2 L221.5,68.9
		L223.9,70.8 L226.4,68.6 L228.8,69.4 L231.3,69.1 L233.7,70.9 L236.1,69.3 L238.6,66.5 L241.0,66.4
		L243.5,70.1 L245.9,69.0 L248.4,68.7 L250.8,68.1 L253.2,69.8 L255.7,67.9 L258.1,63.6 L260.6,63.8
		L263.0,71.0 L265.5,65.0 L267.9,66.6 L270.3,67.6 L272.8,65.0 L275.2,69.7 L277.7,69.0 L280.1,68.2
		L282.6,66.0 L285.0,69.3 L287.5,67.5 L289.9,65.5 L292.3,66.0 L294.8,69.3 L297.2,65.1 L299.7,67.2
		L302.1,64.2 L304.6,65.8 L307.0,65.0 L309.4,66.1 L311.9,66.4 L314.3,66.4 L316.8,66.4 L319.2,67.0
		L321.7,67.5 L324.1,63.5 L326.5,65.4 L329.0,67.3 L331.4,66.3 L333.9,68.7 L336.3,63.5 L338.8,66.0
		L341.2,64.3 L343.6,65.9 L346.1,63.8 L348.5,65.9 L351.0,63.3 L353.4,63.2 L355.9,59.8 L358.3,64.4
		L360.8,66.6 L363.2,65.9 L365.6,65.5 L368.1,63.0 L370.5,61.5 L373.0,66.7 L375.4,62.5 L377.9,61.8
		L380.3,65.3 L382.7,65.9 L385.2,66.7 L387.6,63.7 L390.1,63.5 L392.5,63.3 L395.0,64.1 L397.4,64.3
		L399.8,64.7 L402.3,61.6 L404.7,62.0 L407.2,62.2 L409.6,68.8 L412.1,63.4 L414.5,65.8 L416.9,60.4
		L419.4,62.5 L421.8,62.0 L424.3,62.5 L426.7,62.8 L429.2,63.9 L431.6,60.5 L434.0,61.4 L436.5,61.8
		L438.9,59.8 L441.4,66.9 L443.8,63.6 L446.3,60.1 L448.7,62.7 L451.2,62.4 L453.6,63.7 L456.0,63.7
		L458.5,63.4 L460.9,62.4 L463.4,64.1 L465.8,65.6 L468.3,62.8 L470.7,64.8 L473.1,61.0 L475.6,62.3
		L478.0,62.7 L480.5,61.8 L482.9,61.7 L485.4,61.8 L487.8,62.2 L490.2,64.0 L492.7,64.4 L495.1,61.9
		L497.6,61.2 L500.0,61.8 L502.5,63.8 L504.9,61.4 L507.3,63.9 L509.8,63.3 L512.2,59.8 L514.7,58.0
		L517.1,60.4 L519.6,60.4 L522.0,63.8 L524.5,64.5 L526.9,64.6 L529.3,60.4 L531.8,61.6 L534.2,59.6
		L536.7,61.6 L539.1,57.8 L541.6,61.9 L544.0,60.2 L546.4,58.5 L548.9,63.7 L551.3,61.7 L553.8,60.9
		L556.2,63.5 L558.7,59.4 L561.1,61.4 L563.5,59.8 L566.0,58.8 L568.4,64.0 L570.9,62.3 L573.3,58.4
		L575.8,63.8 L578.2,61.4 L580.6,62.8 L583.1,63.4 L585.5,62.5 L588.0,61.1 L590.4,58.7 L592.9,59.8
		L595.3,59.1 L597.8,63.2 L600.2,60.6 L602.6,59.8 L605.1,60.7 L607.5,61.3 L610.0,59.1 L612.4,60.0
		L614.9,64.3 L617.3,61.3 L619.7,62.9 L622.2,55.8 L624.6,58.9 L627.1,60.7 L629.5,58.9 L632.0,58.2
		L634.4,61.8 L636.8,59.6 L639.3,60.1 L641.7,63.5 L644.2,58.3 L646.6,63.0 L649.1,62.1 L651.5,60.0
		L653.9,60.0 L656.4,61.3 L658.8,58.0 L661.3,62.2 L663.7,60.4 L666.2,60.7 L668.6,62.0 L671.1,61.7
		L673.5,60.7 L675.9,59.2 L678.4,59.1 L680.8,61.1 L683.3,60.3 L685.7,60.9 L688.2,58.8 L690.6,58.4
		L693.0,60.0 L695.5,61.0 L697.9,59.1 L700.4,60.4 L702.8,59.2 L705.3,56.9 L707.7,59.9 L710.1,58.7
		L712.6,60.4 L715.0,58.2 L717.5,61.9 L719.9,60.4 L722.4,58.0 L724.8,61.0 L727.2,60.3 L729.7,60.9
		L732.1,59.6 L734.6,58.5 L737.0,62.4 L739.5,58.5 L741.9,62.3 L744.3,60.5 L746.8,57.5 L749.2,59.6
		L751.7,59.0 L754.1,61.7 L756.6,57.3 L759.0,59.6 L761.5,59.3 L763.9,59.6 L766.3,57.9 L768.8,61.7
		L771.2,58.7 L773.7,57.4 L776.1,60.3 L778.6,60.6 L781.0,59.9 L783.4,56.5 L785.9,60.1 L788.3,57.7
		L790.8,58.4 L793.2,56.9 L795.7,59.8 L798.1,59.2 L800.5,57.6 L803.0,62.1 L805.4,58.6 L807.9,55.4
		L810.3,60.1 L812.8,59.4 L815.2,61.7 L817.6,60.2 L820.1,60.5 L822.5,62.1 L825.0,58.0 L827.4,58.9
		L829.9,62.1 L832.3,61.2 L834.8,59.5 L837.2,59.3 L839.6,60.8 L842.1,58.3 L844.5,59.6 L847.0,60.0
		L849.4,57.1 L851.9,58.9 L854.3,56.6 L856.7,59.7 L859.2,58.5 L861.6,58.4 L864.1,57.4 L866.5,58.0
		L869.0,58.9 L871.4,60.4 L873.8,57.3 L876.3,55.2 L878.7,56.5 L881.2,59.1 L883.6,57.0 L886.1,58.2
		L888.5,59.8 L890.9,58.7 L893.4,57.3 L895.8,61.8 L898.3,61.0 L900.7,57.0 L903.2,57.1 L905.6,58.4
		L908.1,58.0 L910.5,61.1 L912.9,61.0 L915.4,56.6 L917.8,59.0 L920.3,59.1 L922.7,59.0 L925.2,58.8
		L927.6,58.5 L930.0,59.3 L932.5,58.1 L934.9,59.7 L937.4,58.5 L939.8,59.8 L942.3,58.3 L944.7,57.1
		L947.1,59.4 L949.6,55.5 L952.0,60.1 L954.5,59.5 L956.9,58.0 L959.4,59.9 L961.8,59.4 L964.2,57.5
		L966.7,56.9 L969.1,56.4 L971.6,56.2 L974.0,54.3 L976.5,59.5 L978.9,57.1 L981.3,59.1 L983.8,60.2
		L986.2,60.6 L988.7,60.4 L991.1,60.3 L993.6,57.2 L996.0,59.1 L998.5,57.1 L1000.9,59.5 L1003.3,54.1
		L1005.8,56.5 L1008.2,59.5 L1010.7,59.5 L1013.1,56.3 L1015.6,60.9 L1018.0,57.2 L1020.4,58.6 L1022.9,59.7
		L1025.3,60.5 L1027.8,58.3 L1030.2,58.5 L1032.7,60.6 L1035.1,56.3 L1037.5,56.1 L1040.0,58.4 L1042.4,60.2
		L1044.9,60.3 L1047.3,62.0 L1049.8,59.0 L1052.2,59.6 L1054.6,59.5 L1057.1,58.3 L1059.5,56.8 L1062.0,58.1
		L1064.4,59.6 L1066.9,57.9 L1069.3,59.8 L1071.8,57.9 L1074.2,58.1 L1076.6,58.7 L1079.1,57.6 L1081.5,55.1
		L1084.0,56.9 L1086.4,60.2 L1088.9,57.0 L1091.3,58.4 L1093.7,58.7 L1096.2,58.3 L1098.6,55.3 L1101.1,54.1
		L1103.5,61.6 L1106.0,58.8 L1108.4,58.9 L1110.8,62.2 L1113.3,58.9 L1115.7,59.1 L1118.2,60.9 L1120.6,56.3
		L1123.1,57.9 L1125.5,59.0 L1127.9,57.8 L1130.4,59.5 L1132.8,59.9 L1135.3,58.2 L1137.7,56.7 L1140.2,56.0
		L1142.6,58.1 L1145.1,59.0 L1147.5,60.7 L1149.9,60.7 L1152.4,58.5 L1154.8,57.3 L1157.3,59.1 L1159.7,58.3
		L1162.2,57.7 L1164.6,57.2 L1167.0,61.4 L1169.5,60.4 L1171.9,57.6 L1174.4,61.4 L1176.8,59.3 L1179.3,54.5
		L1181.7,60.0 L1184.1,59.4 L1186.6,57.8 L1189.0,59.3 L1191.5,61.8 L1193.9,58.3 L1196.4,56.2 L1198.8,61.1
		L1201.2,56.9 L1203.7,60.7 L1206.1,56.4 L1208.6,59.6 L1211.0,56.2 L1213.5,57.8 L1215.9,56.6 L1218.4,60.2
		L1220.8,59.1 L1223.2,57.4 L1225.7,58.6 L1228.1,58.6 L1230.6,58.7 L1233.0,58.6 L1235.5,57.0 L1237.9,58.2
		L1240.3,59.5 L1242.8,56.6 L1245.2,60.3 L1247.7,57.9 L1250.1,58.4 L1252.6,60.7 L1255.0,58.8  '/></g>
	</g>
	<g id="gnuplot_plot_2" ><title>trendline (m=0.102236,b=155.266108)</title>
<g fill="none" color="black" stroke="currentColor" stroke-width="1.00" stroke-linecap="butt" stroke-linejoin="miter">
	<g transform="translate(1187.9,94.0)" stroke="none" fill="black" font-family="Arial" font-size="12.00"  text-anchor="end">
		<text><tspan font-family="Arial" >trendline (m=0.102236,b=155.266108)</tspan></text>
	</g>
</g>
<g fill="none" color="black" stroke="currentColor" stroke-width="1.00" stroke-linecap="butt" stroke-linejoin="miter">
	<path stroke='black'  d='M1196.2,90.1 L1238.4,90.1 M87.1,141.4 L98.9,140.2 L110.7,138.9 L122.5,137.7 L134.3,136.5 L146.1,135.3
		L157.9,134.0 L169.7,132.8 L181.5,131.6 L193.3,130.4 L205.1,129.1 L216.9,127.9 L228.7,126.7 L240.5,125.5
		L252.3,124.2 L264.1,123.0 L275.9,121.8 L287.6,120.6 L299.4,119.3 L311.2,118.1 L323.0,116.9 L334.8,115.7
		L346.6,114.4 L358.4,113.2 L370.2,112.0 L382.0,110.8 L393.8,109.6 L405.6,108.3 L417.4,107.1 L429.2,105.9
		L441.0,104.7 L452.8,103.4 L464.6,102.2 L476.4,101.0 L488.2,99.8 L500.0,98.5 L511.8,97.3 L523.6,96.1
		L535.4,94.9 L547.2,93.6 L559.0,92.4 L570.8,91.2 L582.6,90.0 L594.4,88.7 L606.2,87.5 L618.0,86.3
		L629.8,85.1 L641.6,83.8 L653.4,82.6 L665.2,81.4 L676.9,80.2 L688.7,78.9 L700.5,77.7 L712.3,76.5
		L724.1,75.3 L735.9,74.1 L747.7,72.8 L759.5,71.6 L771.3,70.4 L783.1,69.2 L794.9,67.9 L806.7,66.7
		L818.5,65.5 L830.3,64.3 L842.1,63.0 L853.9,61.8 L865.7,60.6 L877.5,59.4 L889.3,58.1 L901.1,56.9
		L912.9,55.7 L924.7,54.5 L928.2,54.1  '/></g>
	</g>
<g fill="none" color="white" stroke="black" stroke-width="2.00" stroke-linecap="butt" stroke-linejoin="miter">
</g>
<g fill="none" color="black" stroke="currentColor" stroke-width="2.00" stroke-linecap="butt" stroke-linejoin="miter">
</g>
<g fill="none" color="black" stroke="black" stroke-width="1.00" stroke-linecap="butt" stroke-linejoin="miter">
</g>
<g fill="none" color="black" stroke="currentColor" stroke-width="1.00" stroke-linecap="butt" stroke-linejoin="miter">
	<path stroke='black'  d='M87.1,54.1 L87.1,703.4 L1255.0,703.4 L1255.0,54.1 L87.1,54.1 Z  '/></g>
<g fill="none" color="black" stroke="currentColor" stroke-width="1.00" stroke-linecap="butt" stroke-linejoin="miter">
</g>
</g>
</svg>

