<?xml version="1.0" encoding="utf-8"  standalone="no"?>
<svg 
 width="1280" height="720"
 viewBox="0 0 1280 720"
 xmlns="http://www.w3.org/2000/svg"
 xmlns:xlink="http://www.w3.org/1999/xlink"
>

<title>Gnuplot</title>
<desc>Produced by GNUPLOT 5.0 patchlevel 6 </desc>

<g id="gnuplot_canvas">

<rect x="0" y="0" width="1280" height="720" fill="none"/>
<defs>

	<circle id='gpDot' r='0.5' stroke-width='0.5'/>
	<path id='gpPt0' stroke-width='0.222' stroke='currentColor' d='M-1,0 h2 M0,-1 v2'/>
	<path id='gpPt1' stroke-width='0.222' stroke='currentColor' d='M-1,-1 L1,1 M1,-1 L-1,1'/>
	<path id='gpPt2' stroke-width='0.222' stroke='currentColor' d='M-1,0 L1,0 M0,-1 L0,1 M-1,-1 L1,1 M-1,1 L1,-1'/>
	<rect id='gpPt3' stroke-width='0.222' stroke='currentColor' x='-1' y='-1' width='2' height='2'/>
	<rect id='gpPt4' stroke-width='0.222' stroke='currentColor' fill='currentColor' x='-1' y='-1' width='2' height='2'/>
	<circle id='gpPt5' stroke-width='0.222' stroke='currentColor' cx='0' cy='0' r='1'/>
	<use xlink:href='#gpPt5' id='gpPt6' fill='currentColor' stroke='none'/>
	<path id='gpPt7' stroke-width='0.222' stroke='currentColor' d='M0,-1.33 L-1.33,0.67 L1.33,0.67 z'/>
	<use xlink:href='#gpPt7' id='gpPt8' fill='currentColor' stroke='none'/>
	<use xlink:href='#gpPt7' id='gpPt9' stroke='currentColor' transform='rotate(180)'/>
	<use xlink:href='#gpPt9' id='gpPt10' fill='currentColor' stroke='none'/>
	<use xlink:href='#gpPt3' id='gpPt11' stroke='currentColor' transform='rotate(45)'/>
	<use xlink:href='#gpPt11' id='gpPt12' fill='currentColor' stroke='none'/>
	<path id='gpPt13' stroke-width='0.222' stroke='currentColor' d='M0,1.330 L1.265,0.411 L0.782,-1.067 L-0.782,-1.076 L-1.265,0.411 z'/>
	<use xlink:href='#gpPt13' id='gpPt14' fill='currentColor' stroke='none'/>
	<filter id='textbox' filterUnits='objectBoundingBox' x='0' y='0' height='1' width='1'>
	  <feFlood flood-color='white' flood-opacity='1' result='bgnd'/>
	  <feComposite in='SourceGraphic' in2='bgnd' operator='atop'/>
	</filter>
	<filter id='greybox' filterUnits='objectBoundingBox' x='0' y='0' height='1' width='1'>
	  <feFlood flood-color='lightgrey' flood-opacity='1' result='grey'/>
	  <feComposite in='SourceGraphic' in2='grey' operator='atop'/>
	</filter>
</defs>
<g fill="none" color="white" stroke="currentColor" stroke-width="1.00" stroke-linecap="butt" stroke-linejoin="miter">
</g>
<g fill="none" color="black" stroke="currentColor" stroke-width="1.00" stroke-linecap="butt" stroke-linejoin="miter">
	<path stroke='black'  d='M78.8,703.4 L87.8,703.4 M1255.0,703.4 L1246.0,703.4  '/>	<g transform="translate(70.5,707.3)" stroke="none" fill="black" font-family="Arial" font-size="12.00"  text-anchor="end">
		<text><tspan font-family="Arial" >-64.494</tspan></text>
	</g>
</g>
<g fill="none" color="black" stroke="currentColor" stroke-width="1.00" stroke-linecap="butt" stroke-linejoin="miter">
	<path stroke='black'  d='M78.8,376.7 L87.8,376.7 M1255.0,376.7 L1246.0,376.7  '/>	<g transform="translate(70.5,380.6)" stroke="none" fill="black" font-family="Arial" font-size="12.00"  text-anchor="end">
		<text><tspan font-family="Arial" >-63.716</tspan></text>
	</g>
</g>
<g fill="none" color="black" stroke="currentColor" stroke-width="1.00" stroke-linecap="butt" stroke-linejoin="miter">
	<path stroke='black'  d='M78.8,54.1 L87.8,54.1 M1255.0,54.1 L1246.0,54.1  '/>	<g transform="translate(70.5,58.0)" stroke="none" fill="black" font-family="Arial" font-size="12.00"  text-anchor="end">
		<text><tspan font-family="Arial" >-62.948</tspan></text>
	</g>
</g>
<g fill="none" color="black" stroke="currentColor" stroke-width="1.00" stroke-linecap="butt" stroke-linejoin="miter">
</g>
<g fill="none" color="black" stroke="currentColor" stroke-width="1.00" stroke-linecap="butt" stroke-linejoin="miter">
	<path stroke='black'  d='M78.8,54.1 L78.8,703.4 L1255.0,703.4 L1255.0,54.1 L78.8,54.1 Z  '/></g>
<g fill="none" color="black" stroke="currentColor" stroke-width="1.00" stroke-linecap="butt" stroke-linejoin="miter">
	<g transform="translate(666.9,31.0)" stroke="none" fill="black" font-family="Arial" font-size="12.00"  text-anchor="middle">
		<text><tspan font-family="Arial" >Material 56, 2 components</tspan></text>
	</g>
</g>
	<g id="gnuplot_plot_1" ><title>log(likelihood)</title>
<g fill="none" color="black" stroke="currentColor" stroke-width="1.00" stroke-linecap="butt" stroke-linejoin="miter">
	<g transform="translate(1187.9,76.0)" stroke="none" fill="black" font-family="Arial" font-size="12.00"  text-anchor="end">
		<text><tspan font-family="Arial" >log(likelihood)</tspan></text>
	</g>
</g>
<g fill="none" color="black" stroke="currentColor" stroke-width="1.00" stroke-linecap="butt" stroke-linejoin="miter">
	<g stroke='none' shape-rendering='crispEdges'>
		<polygon fill = 'rgb(148,   0, 211)' fill-opacity = '0.100000' points = '1196.2,76.6 1238.4,76.6 1238.4,67.6 1196.2,67.6 '/>
	</g>
	<path stroke='rgb(148,   0, 211)'  d='M1196.2,76.6 L1238.4,76.6 L1238.4,67.6 L1196.2,67.6 L1196.2,76.6 Z  '/></g>
<g fill="none" color="black" stroke="currentColor" stroke-width="1.00" stroke-linecap="butt" stroke-linejoin="miter">
	<g stroke='none' shape-rendering='crispEdges'>
		<polygon fill = 'rgb(148,   0, 211)' fill-opacity = '0.100000' points = '78.8,277.5 85.4,501.8 91.9,260.3 98.5,538.8 105.1,582.4 111.7,296.0 118.2,249.8 124.8,179.3 131.4,370.8 137.9,365.7 144.5,435.4 151.1,508.5 157.7,561.9 164.2,497.2 170.8,385.0 177.4,316.6
183.9,198.6 190.5,284.7 197.1,463.2 203.6,391.8 210.2,448.0 216.8,218.3 223.4,283.0 229.9,277.5 236.5,364.5 243.1,438.0 249.6,563.1 256.2,643.3 262.8,369.1 269.4,236.4 275.9,433.8 282.5,517.8
289.1,196.9 295.6,178.8 302.2,515.7 308.8,422.8 315.4,514.4 321.9,388.0 328.5,389.2 335.1,442.6 341.6,367.8 348.2,152.0 354.8,419.9 361.4,563.1 367.9,390.1 374.5,356.9 381.1,158.3 387.6,343.9
394.2,396.4 400.8,442.2 407.3,444.7 413.9,364.5 420.5,273.8 427.1,295.6 433.6,480.0 440.2,334.2 446.8,313.2 453.3,295.6 459.9,401.0 466.5,216.2 473.1,482.1 479.6,334.7 486.2,483.7 492.8,422.4
499.3,320.8 505.9,292.7 512.5,640.0 519.1,208.7 525.6,624.0 532.2,321.2 538.8,464.0 545.3,453.5 551.9,138.9 558.5,430.8 565.1,247.3 571.6,444.3 578.2,242.7 584.8,320.8 591.3,372.5 597.9,329.6
604.5,313.2 611.0,233.4 617.6,509.4 624.2,350.6 630.8,246.0 637.3,239.3 643.9,186.8 650.5,363.6 657.0,251.5 663.6,345.2 670.2,287.2 676.8,246.9 683.3,550.9 689.9,298.1 696.5,469.9 703.0,581.2
709.6,428.7 716.2,335.5 722.8,503.9 729.3,338.4 735.9,320.8 742.5,317.9 749.0,212.0 755.6,511.5 762.2,364.9 768.7,574.5 775.3,466.9 781.9,314.5 788.5,289.3 795.0,372.5 801.6,478.7 808.2,219.6
814.7,435.0 821.3,575.3 827.9,365.3 834.5,377.1 841.0,182.2 847.6,466.1 854.2,415.3 860.7,420.3 867.3,344.3 873.9,378.7 880.5,462.7 887.0,589.2 893.6,526.2 900.2,421.6 906.7,142.7 913.3,258.2
919.9,560.2 926.5,270.0 933.0,290.6 939.6,54.1 946.2,274.2 952.7,317.0 959.3,188.1 965.9,521.5 972.4,149.9 979.0,646.3 985.6,375.4 992.2,472.8 998.7,498.0 1005.3,166.2 1011.9,516.9 1018.4,683.2
1025.0,203.6 1031.6,351.5 1038.2,526.6 1044.7,355.2 1051.3,537.9 1057.9,376.7 1064.4,435.4 1071.0,506.0 1077.6,443.8 1084.2,404.8 1090.7,249.0 1097.3,555.1 1103.9,362.4 1110.4,382.9 1117.0,477.9 1123.6,422.8
1130.2,367.0 1136.7,415.7 1143.3,447.6 1149.9,448.0 1156.4,174.2 1163.0,233.9 1169.6,298.1 1176.1,283.0 1182.7,249.4 1189.3,703.4 1195.9,413.2 1202.4,247.7 1209.0,311.1 1215.6,288.9 1222.1,417.8 1228.7,264.5
1235.3,544.6 1241.9,294.3 1248.4,490.5 1255.0,354.8 1255.0,703.4 78.8,703.4 '/>
	</g>
	<path stroke='rgb(148,   0, 211)'  d='M78.8,277.5 L85.4,501.8 L91.9,260.3 L98.5,538.8 L105.1,582.4 L111.7,296.0 L118.2,249.8 L124.8,179.3
		L131.4,370.8 L137.9,365.7 L144.5,435.4 L151.1,508.5 L157.7,561.9 L164.2,497.2 L170.8,385.0 L177.4,316.6
		L183.9,198.6 L190.5,284.7 L197.1,463.2 L203.6,391.8 L210.2,448.0 L216.8,218.3 L223.4,283.0 L229.9,277.5
		L236.5,364.5 L243.1,438.0 L249.6,563.1 L256.2,643.3 L262.8,369.1 L269.4,236.4 L275.9,433.8 L282.5,517.8
		L289.1,196.9 L295.6,178.8 L302.2,515.7 L308.8,422.8 L315.4,514.4 L321.9,388.0 L328.5,389.2 L335.1,442.6
		L341.6,367.8 L348.2,152.0 L354.8,419.9 L361.4,563.1 L367.9,390.1 L374.5,356.9 L381.1,158.3 L387.6,343.9
		L394.2,396.4 L400.8,442.2 L407.3,444.7 L413.9,364.5 L420.5,273.8 L427.1,295.6 L433.6,480.0 L440.2,334.2
		L446.8,313.2 L453.3,295.6 L459.9,401.0 L466.5,216.2 L473.1,482.1 L479.6,334.7 L486.2,483.7 L492.8,422.4
		L499.3,320.8 L505.9,292.7 L512.5,640.0 L519.1,208.7 L525.6,624.0 L532.2,321.2 L538.8,464.0 L545.3,453.5
		L551.9,138.9 L558.5,430.8 L565.1,247.3 L571.6,444.3 L578.2,242.7 L584.8,320.8 L591.3,372.5 L597.9,329.6
		L604.5,313.2 L611.0,233.4 L617.6,509.4 L624.2,350.6 L630.8,246.0 L637.3,239.3 L643.9,186.8 L650.5,363.6
		L657.0,251.5 L663.6,345.2 L670.2,287.2 L676.8,246.9 L683.3,550.9 L689.9,298.1 L696.5,469.9 L703.0,581.2
		L709.6,428.7 L716.2,335.5 L722.8,503.9 L729.3,338.4 L735.9,320.8 L742.5,317.9 L749.0,212.0 L755.6,511.5
		L762.2,364.9 L768.7,574.5 L775.3,466.9 L781.9,314.5 L788.5,289.3 L795.0,372.5 L801.6,478.7 L808.2,219.6
		L814.7,435.0 L821.3,575.3 L827.9,365.3 L834.5,377.1 L841.0,182.2 L847.6,466.1 L854.2,415.3 L860.7,420.3
		L867.3,344.3 L873.9,378.7 L880.5,462.7 L887.0,589.2 L893.6,526.2 L900.2,421.6 L906.7,142.7 L913.3,258.2
		L919.9,560.2 L926.5,270.0 L933.0,290.6 L939.6,54.1 L946.2,274.2 L952.7,317.0 L959.3,188.1 L965.9,521.5
		L972.4,149.9 L979.0,646.3 L985.6,375.4 L992.2,472.8 L998.7,498.0 L1005.3,166.2 L1011.9,516.9 L1018.4,683.2
		L1025.0,203.6 L1031.6,351.5 L1038.2,526.6 L1044.7,355.2 L1051.3,537.9 L1057.9,376.7 L1064.4,435.4 L1071.0,506.0
		L1077.6,443.8 L1084.2,404.8 L1090.7,249.0 L1097.3,555.1 L1103.9,362.4 L1110.4,382.9 L1117.0,477.9 L1123.6,422.8
		L1130.2,367.0 L1136.7,415.7 L1143.3,447.6 L1149.9,448.0 L1156.4,174.2 L1163.0,233.9 L1169.6,298.1 L1176.1,283.0
		L1182.7,249.4 L1189.3,703.4 L1195.9,413.2 L1202.4,247.7 L1209.0,311.1 L1215.6,288.9 L1222.1,417.8 L1228.7,264.5
		L1235.3,544.6 L1241.9,294.3 L1248.4,490.5 L1255.0,354.8  '/></g>
	</g>
	<g id="gnuplot_plot_2" ><title>trendline (m=-0.000088,b=-63.708098)</title>
<g fill="none" color="black" stroke="currentColor" stroke-width="1.00" stroke-linecap="butt" stroke-linejoin="miter">
	<g transform="translate(1187.9,94.0)" stroke="none" fill="black" font-family="Arial" font-size="12.00"  text-anchor="end">
		<text><tspan font-family="Arial" >trendline (m=-0.000088,b=-63.708098)</tspan></text>
	</g>
</g>
<g fill="none" color="black" stroke="currentColor" stroke-width="1.00" stroke-linecap="butt" stroke-linejoin="miter">
	<path stroke='black'  d='M1196.2,90.1 L1238.4,90.1 M78.8,373.3 L90.7,373.4 L102.6,373.5 L114.4,373.5 L126.3,373.6 L138.2,373.7
		L150.1,373.7 L162.0,373.8 L173.8,373.9 L185.7,373.9 L197.6,374.0 L209.5,374.1 L221.4,374.1 L233.3,374.2
		L245.1,374.3 L257.0,374.3 L268.9,374.4 L280.8,374.5 L292.7,374.5 L304.5,374.6 L316.4,374.7 L328.3,374.7
		L340.2,374.8 L352.1,374.9 L363.9,374.9 L375.8,375.0 L387.7,375.1 L399.6,375.1 L411.5,375.2 L423.3,375.3
		L435.2,375.3 L447.1,375.4 L459.0,375.5 L470.9,375.5 L482.7,375.6 L494.6,375.7 L506.5,375.7 L518.4,375.8
		L530.3,375.9 L542.2,375.9 L554.0,376.0 L565.9,376.1 L577.8,376.1 L589.7,376.2 L601.6,376.3 L613.4,376.4
		L625.3,376.4 L637.2,376.5 L649.1,376.6 L661.0,376.6 L672.8,376.7 L684.7,376.8 L696.6,376.8 L708.5,376.9
		L720.4,377.0 L732.2,377.0 L744.1,377.1 L756.0,377.2 L767.9,377.2 L779.8,377.3 L791.6,377.4 L803.5,377.4
		L815.4,377.5 L827.3,377.6 L839.2,377.6 L851.1,377.7 L862.9,377.8 L874.8,377.8 L886.7,377.9 L898.6,378.0
		L910.5,378.0 L922.3,378.1 L934.2,378.2 L946.1,378.2 L958.0,378.3 L969.9,378.4 L981.7,378.4 L993.6,378.5
		L1005.5,378.6 L1017.4,378.6 L1029.3,378.7 L1041.1,378.8 L1053.0,378.8 L1064.9,378.9 L1076.8,379.0 L1088.7,379.0
		L1100.5,379.1 L1112.4,379.2 L1124.3,379.2 L1136.2,379.3 L1148.1,379.4 L1160.0,379.4 L1171.8,379.5 L1183.7,379.6
		L1195.6,379.6 L1207.5,379.7 L1219.4,379.8 L1231.2,379.8 L1243.1,379.9 L1255.0,380.0  '/></g>
	</g>
<g fill="none" color="white" stroke="black" stroke-width="2.00" stroke-linecap="butt" stroke-linejoin="miter">
</g>
<g fill="none" color="black" stroke="currentColor" stroke-width="2.00" stroke-linecap="butt" stroke-linejoin="miter">
</g>
<g fill="none" color="black" stroke="black" stroke-width="1.00" stroke-linecap="butt" stroke-linejoin="miter">
</g>
<g fill="none" color="black" stroke="currentColor" stroke-width="1.00" stroke-linecap="butt" stroke-linejoin="miter">
	<path stroke='black'  d='M78.8,54.1 L78.8,703.4 L1255.0,703.4 L1255.0,54.1 L78.8,54.1 Z  '/></g>
<g fill="none" color="black" stroke="currentColor" stroke-width="1.00" stroke-linecap="butt" stroke-linejoin="miter">
</g>
</g>
</svg>

