<?xml version="1.0" encoding="utf-8"  standalone="no"?>
<svg 
 width="1280" height="720"
 viewBox="0 0 1280 720"
 xmlns="http://www.w3.org/2000/svg"
 xmlns:xlink="http://www.w3.org/1999/xlink"
>

<title>Gnuplot</title>
<desc>Produced by GNUPLOT 5.0 patchlevel 6 </desc>

<g id="gnuplot_canvas">

<rect x="0" y="0" width="1280" height="720" fill="none"/>
<defs>

	<circle id='gpDot' r='0.5' stroke-width='0.5'/>
	<path id='gpPt0' stroke-width='0.222' stroke='currentColor' d='M-1,0 h2 M0,-1 v2'/>
	<path id='gpPt1' stroke-width='0.222' stroke='currentColor' d='M-1,-1 L1,1 M1,-1 L-1,1'/>
	<path id='gpPt2' stroke-width='0.222' stroke='currentColor' d='M-1,0 L1,0 M0,-1 L0,1 M-1,-1 L1,1 M-1,1 L1,-1'/>
	<rect id='gpPt3' stroke-width='0.222' stroke='currentColor' x='-1' y='-1' width='2' height='2'/>
	<rect id='gpPt4' stroke-width='0.222' stroke='currentColor' fill='currentColor' x='-1' y='-1' width='2' height='2'/>
	<circle id='gpPt5' stroke-width='0.222' stroke='currentColor' cx='0' cy='0' r='1'/>
	<use xlink:href='#gpPt5' id='gpPt6' fill='currentColor' stroke='none'/>
	<path id='gpPt7' stroke-width='0.222' stroke='currentColor' d='M0,-1.33 L-1.33,0.67 L1.33,0.67 z'/>
	<use xlink:href='#gpPt7' id='gpPt8' fill='currentColor' stroke='none'/>
	<use xlink:href='#gpPt7' id='gpPt9' stroke='currentColor' transform='rotate(180)'/>
	<use xlink:href='#gpPt9' id='gpPt10' fill='currentColor' stroke='none'/>
	<use xlink:href='#gpPt3' id='gpPt11' stroke='currentColor' transform='rotate(45)'/>
	<use xlink:href='#gpPt11' id='gpPt12' fill='currentColor' stroke='none'/>
	<path id='gpPt13' stroke-width='0.222' stroke='currentColor' d='M0,1.330 L1.265,0.411 L0.782,-1.067 L-0.782,-1.076 L-1.265,0.411 z'/>
	<use xlink:href='#gpPt13' id='gpPt14' fill='currentColor' stroke='none'/>
	<filter id='textbox' filterUnits='objectBoundingBox' x='0' y='0' height='1' width='1'>
	  <feFlood flood-color='white' flood-opacity='1' result='bgnd'/>
	  <feComposite in='SourceGraphic' in2='bgnd' operator='atop'/>
	</filter>
	<filter id='greybox' filterUnits='objectBoundingBox' x='0' y='0' height='1' width='1'>
	  <feFlood flood-color='lightgrey' flood-opacity='1' result='grey'/>
	  <feComposite in='SourceGraphic' in2='grey' operator='atop'/>
	</filter>
</defs>
<g fill="none" color="white" stroke="currentColor" stroke-width="1.00" stroke-linecap="butt" stroke-linejoin="miter">
</g>
<g fill="none" color="black" stroke="currentColor" stroke-width="1.00" stroke-linecap="butt" stroke-linejoin="miter">
	<path stroke='black'  d='M87.1,703.4 L96.1,703.4 M1255.0,703.4 L1246.0,703.4  '/>	<g transform="translate(78.8,707.3)" stroke="none" fill="black" font-family="Arial" font-size="12.00"  text-anchor="end">
		<text><tspan font-family="Arial" >-135.874</tspan></text>
	</g>
</g>
<g fill="none" color="black" stroke="currentColor" stroke-width="1.00" stroke-linecap="butt" stroke-linejoin="miter">
	<path stroke='black'  d='M87.1,408.5 L96.1,408.5 M1255.0,408.5 L1246.0,408.5  '/>	<g transform="translate(78.8,412.4)" stroke="none" fill="black" font-family="Arial" font-size="12.00"  text-anchor="end">
		<text><tspan font-family="Arial" >-135.194</tspan></text>
	</g>
</g>
<g fill="none" color="black" stroke="currentColor" stroke-width="1.00" stroke-linecap="butt" stroke-linejoin="miter">
	<path stroke='black'  d='M87.1,54.1 L96.1,54.1 M1255.0,54.1 L1246.0,54.1  '/>	<g transform="translate(78.8,58.0)" stroke="none" fill="black" font-family="Arial" font-size="12.00"  text-anchor="end">
		<text><tspan font-family="Arial" >-134.378</tspan></text>
	</g>
</g>
<g fill="none" color="black" stroke="currentColor" stroke-width="1.00" stroke-linecap="butt" stroke-linejoin="miter">
</g>
<g fill="none" color="black" stroke="currentColor" stroke-width="1.00" stroke-linecap="butt" stroke-linejoin="miter">
	<path stroke='black'  d='M87.1,54.1 L87.1,703.4 L1255.0,703.4 L1255.0,54.1 L87.1,54.1 Z  '/></g>
<g fill="none" color="black" stroke="currentColor" stroke-width="1.00" stroke-linecap="butt" stroke-linejoin="miter">
	<g transform="translate(671.0,31.0)" stroke="none" fill="black" font-family="Arial" font-size="12.00"  text-anchor="middle">
		<text><tspan font-family="Arial" >Material 53, 2 components</tspan></text>
	</g>
</g>
	<g id="gnuplot_plot_1" ><title>log(likelihood)</title>
<g fill="none" color="black" stroke="currentColor" stroke-width="1.00" stroke-linecap="butt" stroke-linejoin="miter">
	<g transform="translate(1187.9,76.0)" stroke="none" fill="black" font-family="Arial" font-size="12.00"  text-anchor="end">
		<text><tspan font-family="Arial" >log(likelihood)</tspan></text>
	</g>
</g>
<g fill="none" color="black" stroke="currentColor" stroke-width="1.00" stroke-linecap="butt" stroke-linejoin="miter">
	<g stroke='none' shape-rendering='crispEdges'>
		<polygon fill = 'rgb(148,   0, 211)' fill-opacity = '0.100000' points = '1196.2,76.6 1238.4,76.6 1238.4,67.6 1196.2,67.6 '/>
	</g>
	<path stroke='rgb(148,   0, 211)'  d='M1196.2,76.6 L1238.4,76.6 L1238.4,67.6 L1196.2,67.6 L1196.2,76.6 Z  '/></g>
<g fill="none" color="black" stroke="currentColor" stroke-width="1.00" stroke-linecap="butt" stroke-linejoin="miter">
	<g stroke='none' shape-rendering='crispEdges'>
		<polygon fill = 'rgb(148,   0, 211)' fill-opacity = '0.100000' points = '87.1,118.3 96.8,316.7 106.6,215.6 116.3,278.1 126.0,158.3 135.8,439.5 145.5,316.7 155.2,378.3 165.0,657.0 174.7,703.4 184.4,163.5 194.2,379.6 203.9,475.5 213.6,319.7 223.4,389.6 233.1,286.7
242.8,456.0 252.6,314.5 262.3,481.2 272.0,213.4 281.8,524.1 291.5,432.1 301.2,347.9 310.9,333.2 320.7,330.6 330.4,270.7 340.1,494.6 349.9,398.3 359.6,526.8 369.3,363.6 379.1,54.1 388.8,555.4
398.5,459.5 408.3,664.3 418.0,337.5 427.7,255.9 437.5,575.4 447.2,381.8 456.9,203.8 466.7,423.0 476.4,481.6 486.1,405.7 495.9,424.3 505.6,334.5 515.3,319.7 525.1,136.6 534.8,476.8 544.5,234.2
554.3,440.4 564.0,608.3 573.7,338.0 583.5,397.8 593.2,678.7 602.9,429.1 612.7,315.4 622.4,525.9 632.1,474.2 641.9,173.5 651.6,271.1 661.3,236.8 671.1,665.2 680.8,502.0 690.5,440.4 700.2,324.9
710.0,591.0 719.7,564.1 729.4,375.3 739.2,509.0 748.9,314.1 758.6,442.6 768.4,552.8 778.1,169.1 787.8,202.1 797.6,155.7 807.3,206.0 817.0,557.1 826.8,436.9 836.5,569.3 846.2,472.1 856.0,445.2
865.7,617.5 875.4,592.7 885.2,681.7 894.9,516.8 904.6,448.2 914.4,330.6 924.1,357.9 933.8,450.4 943.6,592.7 953.3,578.0 963.0,327.5 972.8,465.6 982.5,449.5 992.2,587.1 1002.0,148.7 1011.7,481.2
1021.4,432.6 1031.2,541.5 1040.9,478.1 1050.6,273.3 1060.4,387.9 1070.1,617.0 1079.8,505.9 1089.5,367.5 1099.3,158.3 1109.0,417.4 1118.7,330.6 1128.5,359.2 1138.2,323.2 1147.9,413.9 1157.7,538.5 1167.4,388.7
1177.1,445.6 1186.9,367.0 1196.6,383.1 1206.3,308.9 1216.1,672.2 1225.8,547.2 1235.5,372.7 1245.3,282.0 1255.0,693.9 1255.0,703.4 87.1,703.4 '/>
	</g>
	<path stroke='rgb(148,   0, 211)'  d='M87.1,118.3 L96.8,316.7 L106.6,215.6 L116.3,278.1 L126.0,158.3 L135.8,439.5 L145.5,316.7 L155.2,378.3
		L165.0,657.0 L174.7,703.4 L184.4,163.5 L194.2,379.6 L203.9,475.5 L213.6,319.7 L223.4,389.6 L233.1,286.7
		L242.8,456.0 L252.6,314.5 L262.3,481.2 L272.0,213.4 L281.8,524.1 L291.5,432.1 L301.2,347.9 L310.9,333.2
		L320.7,330.6 L330.4,270.7 L340.1,494.6 L349.9,398.3 L359.6,526.8 L369.3,363.6 L379.1,54.1 L388.8,555.4
		L398.5,459.5 L408.3,664.3 L418.0,337.5 L427.7,255.9 L437.5,575.4 L447.2,381.8 L456.9,203.8 L466.7,423.0
		L476.4,481.6 L486.1,405.7 L495.9,424.3 L505.6,334.5 L515.3,319.7 L525.1,136.6 L534.8,476.8 L544.5,234.2
		L554.3,440.4 L564.0,608.3 L573.7,338.0 L583.5,397.8 L593.2,678.7 L602.9,429.1 L612.7,315.4 L622.4,525.9
		L632.1,474.2 L641.9,173.5 L651.6,271.1 L661.3,236.8 L671.1,665.2 L680.8,502.0 L690.5,440.4 L700.2,324.9
		L710.0,591.0 L719.7,564.1 L729.4,375.3 L739.2,509.0 L748.9,314.1 L758.6,442.6 L768.4,552.8 L778.1,169.1
		L787.8,202.1 L797.6,155.7 L807.3,206.0 L817.0,557.1 L826.8,436.9 L836.5,569.3 L846.2,472.1 L856.0,445.2
		L865.7,617.5 L875.4,592.7 L885.2,681.7 L894.9,516.8 L904.6,448.2 L914.4,330.6 L924.1,357.9 L933.8,450.4
		L943.6,592.7 L953.3,578.0 L963.0,327.5 L972.8,465.6 L982.5,449.5 L992.2,587.1 L1002.0,148.7 L1011.7,481.2
		L1021.4,432.6 L1031.2,541.5 L1040.9,478.1 L1050.6,273.3 L1060.4,387.9 L1070.1,617.0 L1079.8,505.9 L1089.5,367.5
		L1099.3,158.3 L1109.0,417.4 L1118.7,330.6 L1128.5,359.2 L1138.2,323.2 L1147.9,413.9 L1157.7,538.5 L1167.4,388.7
		L1177.1,445.6 L1186.9,367.0 L1196.6,383.1 L1206.3,308.9 L1216.1,672.2 L1225.8,547.2 L1235.5,372.7 L1245.3,282.0
		L1255.0,693.9  '/></g>
	</g>
	<g id="gnuplot_plot_2" ><title>trendline (m=-0.001813,b=-135.085640)</title>
<g fill="none" color="black" stroke="currentColor" stroke-width="1.00" stroke-linecap="butt" stroke-linejoin="miter">
	<g transform="translate(1187.9,94.0)" stroke="none" fill="black" font-family="Arial" font-size="12.00"  text-anchor="end">
		<text><tspan font-family="Arial" >trendline (m=-0.001813,b=-135.085640)</tspan></text>
	</g>
</g>
<g fill="none" color="black" stroke="currentColor" stroke-width="1.00" stroke-linecap="butt" stroke-linejoin="miter">
	<path stroke='black'  d='M1196.2,90.1 L1238.4,90.1 M87.1,361.2 L98.9,362.2 L110.7,363.1 L122.5,364.1 L134.3,365.0 L146.1,366.0
		L157.9,367.0 L169.7,367.9 L181.5,368.9 L193.3,369.8 L205.1,370.8 L216.9,371.7 L228.7,372.7 L240.5,373.6
		L252.3,374.6 L264.1,375.5 L275.9,376.5 L287.6,377.5 L299.4,378.4 L311.2,379.4 L323.0,380.3 L334.8,381.3
		L346.6,382.2 L358.4,383.2 L370.2,384.1 L382.0,385.1 L393.8,386.0 L405.6,387.0 L417.4,387.9 L429.2,388.9
		L441.0,389.9 L452.8,390.8 L464.6,391.8 L476.4,392.7 L488.2,393.7 L500.0,394.6 L511.8,395.6 L523.6,396.5
		L535.4,397.5 L547.2,398.4 L559.0,399.4 L570.8,400.3 L582.6,401.3 L594.4,402.3 L606.2,403.2 L618.0,404.2
		L629.8,405.1 L641.6,406.1 L653.4,407.0 L665.2,408.0 L676.9,408.9 L688.7,409.9 L700.5,410.8 L712.3,411.8
		L724.1,412.8 L735.9,413.7 L747.7,414.7 L759.5,415.6 L771.3,416.6 L783.1,417.5 L794.9,418.5 L806.7,419.4
		L818.5,420.4 L830.3,421.3 L842.1,422.3 L853.9,423.2 L865.7,424.2 L877.5,425.2 L889.3,426.1 L901.1,427.1
		L912.9,428.0 L924.7,429.0 L936.5,429.9 L948.3,430.9 L960.1,431.8 L971.9,432.8 L983.7,433.7 L995.5,434.7
		L1007.3,435.6 L1019.1,436.6 L1030.9,437.6 L1042.7,438.5 L1054.5,439.5 L1066.2,440.4 L1078.0,441.4 L1089.8,442.3
		L1101.6,443.3 L1113.4,444.2 L1125.2,445.2 L1137.0,446.1 L1148.8,447.1 L1160.6,448.0 L1172.4,449.0 L1184.2,450.0
		L1196.0,450.9 L1207.8,451.9 L1219.6,452.8 L1231.4,453.8 L1243.2,454.7 L1255.0,455.7  '/></g>
	</g>
<g fill="none" color="white" stroke="black" stroke-width="2.00" stroke-linecap="butt" stroke-linejoin="miter">
</g>
<g fill="none" color="black" stroke="currentColor" stroke-width="2.00" stroke-linecap="butt" stroke-linejoin="miter">
</g>
<g fill="none" color="black" stroke="black" stroke-width="1.00" stroke-linecap="butt" stroke-linejoin="miter">
</g>
<g fill="none" color="black" stroke="currentColor" stroke-width="1.00" stroke-linecap="butt" stroke-linejoin="miter">
	<path stroke='black'  d='M87.1,54.1 L87.1,703.4 L1255.0,703.4 L1255.0,54.1 L87.1,54.1 Z  '/></g>
<g fill="none" color="black" stroke="currentColor" stroke-width="1.00" stroke-linecap="butt" stroke-linejoin="miter">
</g>
</g>
</svg>

