<?xml version="1.0" encoding="utf-8"  standalone="no"?>
<svg 
 width="1280" height="720"
 viewBox="0 0 1280 720"
 xmlns="http://www.w3.org/2000/svg"
 xmlns:xlink="http://www.w3.org/1999/xlink"
>

<title>Gnuplot</title>
<desc>Produced by GNUPLOT 5.0 patchlevel 6 </desc>

<g id="gnuplot_canvas">

<rect x="0" y="0" width="1280" height="720" fill="none"/>
<defs>

	<circle id='gpDot' r='0.5' stroke-width='0.5'/>
	<path id='gpPt0' stroke-width='0.222' stroke='currentColor' d='M-1,0 h2 M0,-1 v2'/>
	<path id='gpPt1' stroke-width='0.222' stroke='currentColor' d='M-1,-1 L1,1 M1,-1 L-1,1'/>
	<path id='gpPt2' stroke-width='0.222' stroke='currentColor' d='M-1,0 L1,0 M0,-1 L0,1 M-1,-1 L1,1 M-1,1 L1,-1'/>
	<rect id='gpPt3' stroke-width='0.222' stroke='currentColor' x='-1' y='-1' width='2' height='2'/>
	<rect id='gpPt4' stroke-width='0.222' stroke='currentColor' fill='currentColor' x='-1' y='-1' width='2' height='2'/>
	<circle id='gpPt5' stroke-width='0.222' stroke='currentColor' cx='0' cy='0' r='1'/>
	<use xlink:href='#gpPt5' id='gpPt6' fill='currentColor' stroke='none'/>
	<path id='gpPt7' stroke-width='0.222' stroke='currentColor' d='M0,-1.33 L-1.33,0.67 L1.33,0.67 z'/>
	<use xlink:href='#gpPt7' id='gpPt8' fill='currentColor' stroke='none'/>
	<use xlink:href='#gpPt7' id='gpPt9' stroke='currentColor' transform='rotate(180)'/>
	<use xlink:href='#gpPt9' id='gpPt10' fill='currentColor' stroke='none'/>
	<use xlink:href='#gpPt3' id='gpPt11' stroke='currentColor' transform='rotate(45)'/>
	<use xlink:href='#gpPt11' id='gpPt12' fill='currentColor' stroke='none'/>
	<path id='gpPt13' stroke-width='0.222' stroke='currentColor' d='M0,1.330 L1.265,0.411 L0.782,-1.067 L-0.782,-1.076 L-1.265,0.411 z'/>
	<use xlink:href='#gpPt13' id='gpPt14' fill='currentColor' stroke='none'/>
	<filter id='textbox' filterUnits='objectBoundingBox' x='0' y='0' height='1' width='1'>
	  <feFlood flood-color='white' flood-opacity='1' result='bgnd'/>
	  <feComposite in='SourceGraphic' in2='bgnd' operator='atop'/>
	</filter>
	<filter id='greybox' filterUnits='objectBoundingBox' x='0' y='0' height='1' width='1'>
	  <feFlood flood-color='lightgrey' flood-opacity='1' result='grey'/>
	  <feComposite in='SourceGraphic' in2='grey' operator='atop'/>
	</filter>
</defs>
<g fill="none" color="white" stroke="currentColor" stroke-width="1.00" stroke-linecap="butt" stroke-linejoin="miter">
</g>
<g fill="none" color="black" stroke="currentColor" stroke-width="1.00" stroke-linecap="butt" stroke-linejoin="miter">
	<path stroke='black'  d='M87.1,703.4 L96.1,703.4 M1255.0,703.4 L1246.0,703.4  '/>	<g transform="translate(78.8,707.3)" stroke="none" fill="black" font-family="Arial" font-size="12.00"  text-anchor="end">
		<text><tspan font-family="Arial" >-741.225</tspan></text>
	</g>
</g>
<g fill="none" color="black" stroke="currentColor" stroke-width="1.00" stroke-linecap="butt" stroke-linejoin="miter">
	<path stroke='black'  d='M87.1,58.7 L96.1,58.7 M1255.0,58.7 L1246.0,58.7  '/>	<g transform="translate(78.8,62.6)" stroke="none" fill="black" font-family="Arial" font-size="12.00"  text-anchor="end">
		<text><tspan font-family="Arial" > 3174.02</tspan></text>
	</g>
</g>
<g fill="none" color="black" stroke="currentColor" stroke-width="1.00" stroke-linecap="butt" stroke-linejoin="miter">
	<path stroke='black'  d='M87.1,54.1 L96.1,54.1 M1255.0,54.1 L1246.0,54.1  '/>	<g transform="translate(78.8,58.0)" stroke="none" fill="black" font-family="Arial" font-size="12.00"  text-anchor="end">
		<text><tspan font-family="Arial" > 3202.1</tspan></text>
	</g>
</g>
<g fill="none" color="black" stroke="currentColor" stroke-width="1.00" stroke-linecap="butt" stroke-linejoin="miter">
</g>
<g fill="none" color="black" stroke="currentColor" stroke-width="1.00" stroke-linecap="butt" stroke-linejoin="miter">
	<path stroke='black'  d='M87.1,54.1 L87.1,703.4 L1255.0,703.4 L1255.0,54.1 L87.1,54.1 Z  '/></g>
<g fill="none" color="black" stroke="currentColor" stroke-width="1.00" stroke-linecap="butt" stroke-linejoin="miter">
	<g transform="translate(671.0,31.0)" stroke="none" fill="black" font-family="Arial" font-size="12.00"  text-anchor="middle">
		<text><tspan font-family="Arial" >Material 62, 2 functions</tspan></text>
	</g>
</g>
	<g id="gnuplot_plot_1" ><title>log(likelihood)</title>
<g fill="none" color="black" stroke="currentColor" stroke-width="1.00" stroke-linecap="butt" stroke-linejoin="miter">
	<g transform="translate(1187.9,76.0)" stroke="none" fill="black" font-family="Arial" font-size="12.00"  text-anchor="end">
		<text><tspan font-family="Arial" >log(likelihood)</tspan></text>
	</g>
</g>
<g fill="none" color="black" stroke="currentColor" stroke-width="1.00" stroke-linecap="butt" stroke-linejoin="miter">
	<g stroke='none' shape-rendering='crispEdges'>
		<polygon fill = 'rgb(148,   0, 211)' fill-opacity = '0.100000' points = '1196.2,76.6 1238.4,76.6 1238.4,67.6 1196.2,67.6 '/>
	</g>
	<path stroke='rgb(148,   0, 211)'  d='M1196.2,76.6 L1238.4,76.6 L1238.4,67.6 L1196.2,67.6 L1196.2,76.6 Z  '/></g>
<g fill="none" color="black" stroke="currentColor" stroke-width="1.00" stroke-linecap="butt" stroke-linejoin="miter">
	<g stroke='none' shape-rendering='crispEdges'>
		<polygon fill = 'rgb(148,   0, 211)' fill-opacity = '0.100000' points = '87.1,703.4 90.1,474.4 93.1,335.4 96.2,252.7 99.2,178.2 102.2,103.5 105.2,77.7 108.2,61.8 111.2,55.1 114.3,54.4 117.3,54.3 120.3,54.3 123.3,54.2 126.3,54.2 129.3,54.2 132.4,54.2
135.4,54.3 138.4,54.3 141.4,54.1 144.4,54.2 147.5,54.2 150.5,54.2 153.5,54.2 156.5,54.2 159.5,54.2 162.5,54.2 165.6,54.2 168.6,54.2 171.6,54.1 174.6,54.2 177.6,54.2 180.7,54.3
183.7,54.2 186.7,54.1 189.7,54.3 192.7,54.3 195.7,54.2 198.8,54.3 201.8,54.2 204.8,54.1 207.8,54.2 210.8,54.2 213.8,54.2 216.9,54.2 219.9,54.3 222.9,54.2 225.9,54.3 228.9,54.2
232.0,54.2 235.0,54.2 238.0,54.3 241.0,54.2 244.0,54.3 247.0,54.2 250.1,54.2 253.1,54.3 256.1,54.3 259.1,54.2 262.1,54.2 265.2,54.3 268.2,54.3 271.2,54.2 274.2,54.2 277.2,54.3
280.2,54.3 283.3,54.2 286.3,54.2 289.3,54.3 292.3,54.3 295.3,54.1 298.3,54.2 301.4,54.3 304.4,54.2 307.4,54.3 310.4,54.2 313.4,54.2 316.5,54.2 319.5,54.2 322.5,54.3 325.5,54.2
328.5,54.2 331.5,54.3 334.6,54.3 337.6,54.2 340.6,54.3 343.6,54.3 346.6,54.2 349.7,54.2 352.7,54.3 355.7,54.2 358.7,54.3 361.7,54.2 364.7,54.2 367.8,54.2 370.8,54.2 373.8,54.2
376.8,54.2 379.8,54.3 382.8,54.3 385.9,54.2 388.9,54.2 391.9,54.1 394.9,54.2 397.9,54.3 401.0,54.2 404.0,54.3 407.0,54.2 410.0,54.2 413.0,54.4 416.0,54.1 419.1,54.3 422.1,54.2
425.1,54.3 428.1,54.2 431.1,54.2 434.2,54.3 437.2,54.2 440.2,54.3 443.2,54.2 446.2,54.2 449.2,54.2 452.3,54.3 455.3,54.3 458.3,54.2 461.3,54.2 464.3,54.3 467.3,54.1 470.4,54.2
473.4,54.2 476.4,54.2 479.4,54.2 482.4,54.3 485.5,54.3 488.5,54.3 491.5,54.3 494.5,54.2 497.5,54.2 500.5,54.3 503.6,54.3 506.6,54.3 509.6,54.2 512.6,54.2 515.6,54.2 518.6,54.2
521.7,54.3 524.7,54.2 527.7,54.3 530.7,54.3 533.7,54.2 536.8,54.2 539.8,54.2 542.8,54.2 545.8,54.2 548.8,54.1 551.8,54.2 554.9,54.3 557.9,54.2 560.9,54.2 563.9,54.2 566.9,54.3
570.0,54.2 573.0,54.3 576.0,54.2 579.0,54.2 582.0,54.2 585.0,54.3 588.1,54.2 591.1,54.3 594.1,54.2 597.1,54.3 600.1,54.3 603.1,54.2 606.2,54.3 609.2,54.3 612.2,54.2 615.2,54.3
618.2,54.3 621.3,54.2 624.3,54.3 627.3,54.3 630.3,54.2 633.3,54.3 636.3,54.2 639.4,54.2 642.4,54.3 645.4,54.2 648.4,54.2 651.4,54.3 654.5,54.2 657.5,54.1 660.5,54.1 663.5,54.3
666.5,54.2 669.5,54.3 672.6,54.3 675.6,54.3 678.6,54.3 681.6,54.2 684.6,54.3 687.6,54.2 690.7,54.2 693.7,54.3 696.7,54.2 699.7,54.4 702.7,54.3 705.8,54.3 708.8,54.3 711.8,54.2
714.8,54.2 717.8,54.2 720.8,54.4 723.9,54.3 726.9,54.2 729.9,54.2 732.9,54.2 735.9,54.3 739.0,54.2 742.0,54.2 745.0,54.3 748.0,54.2 751.0,54.3 754.0,54.3 757.1,54.3 760.1,54.2
763.1,54.2 766.1,54.2 769.1,54.3 772.1,54.3 775.2,54.2 778.2,54.2 781.2,54.2 784.2,54.3 787.2,54.2 790.3,54.2 793.3,54.3 796.3,54.2 799.3,54.3 802.3,54.3 805.3,54.2 808.4,54.3
811.4,54.3 814.4,54.2 817.4,54.2 820.4,54.2 823.5,54.3 826.5,54.2 829.5,54.3 832.5,54.2 835.5,54.3 838.5,54.3 841.6,54.3 844.6,54.2 847.6,54.3 850.6,54.3 853.6,54.2 856.6,54.3
859.7,54.3 862.7,54.3 865.7,54.1 868.7,54.1 871.7,54.3 874.8,54.2 877.8,54.2 880.8,54.2 883.8,54.3 886.8,54.2 889.8,54.2 892.9,54.3 895.9,54.3 898.9,54.3 901.9,54.3 904.9,54.2
907.9,54.2 911.0,54.2 914.0,54.3 917.0,54.2 920.0,54.2 923.0,54.2 926.1,54.2 929.1,54.3 932.1,54.2 935.1,54.2 938.1,54.2 941.1,54.2 944.2,54.2 947.2,54.2 950.2,54.2 953.2,54.3
956.2,54.3 959.3,54.3 962.3,54.1 965.3,54.2 968.3,54.3 971.3,54.2 974.3,54.2 977.4,54.2 980.4,54.3 983.4,54.2 986.4,54.2 989.4,54.3 992.4,54.2 995.5,54.3 998.5,54.2 1001.5,54.2
1004.5,54.2 1007.5,54.2 1010.6,54.2 1013.6,54.2 1016.6,54.3 1019.6,54.3 1022.6,54.3 1025.6,54.3 1028.7,54.2 1031.7,54.3 1034.7,54.3 1037.7,54.3 1040.7,54.2 1043.8,54.2 1046.8,54.4 1049.8,54.2
1052.8,54.3 1055.8,54.2 1058.8,54.2 1061.9,54.3 1064.9,54.2 1067.9,54.2 1070.9,54.2 1073.9,54.3 1076.9,54.2 1080.0,54.2 1083.0,54.2 1086.0,54.2 1089.0,54.2 1092.0,54.2 1095.1,54.3 1098.1,54.2
1101.1,54.2 1104.1,54.3 1107.1,54.2 1110.1,54.1 1113.2,54.3 1116.2,54.1 1119.2,54.2 1122.2,54.2 1125.2,54.2 1128.3,54.2 1131.3,54.2 1134.3,54.2 1137.3,54.3 1140.3,54.3 1143.3,54.3 1146.4,54.3
1149.4,54.3 1152.4,54.3 1155.4,54.2 1158.4,54.2 1161.4,54.2 1164.5,54.2 1167.5,54.3 1170.5,54.3 1173.5,54.2 1176.5,54.3 1179.6,54.2 1182.6,54.2 1185.6,54.2 1188.6,54.2 1191.6,54.2 1194.6,54.2
1197.7,54.3 1200.7,54.3 1203.7,54.2 1206.7,54.2 1209.7,54.2 1212.8,54.3 1215.8,54.2 1218.8,54.2 1221.8,54.2 1224.8,54.2 1227.8,54.2 1230.9,54.2 1233.9,54.2 1236.9,54.2 1239.9,54.2 1242.9,54.2
1245.9,54.2 1249.0,54.3 1252.0,54.3 1255.0,54.2 1255.0,703.4 87.1,703.4 '/>
	</g>
	<path stroke='rgb(148,   0, 211)'  d='M87.1,703.4 L90.1,474.4 L93.1,335.4 L96.2,252.7 L99.2,178.2 L102.2,103.5 L105.2,77.7 L108.2,61.8
		L111.2,55.1 L114.3,54.4 L117.3,54.3 L120.3,54.3 L123.3,54.2 L126.3,54.2 L129.3,54.2 L132.4,54.2
		L135.4,54.3 L138.4,54.3 L141.4,54.1 L144.4,54.2 L147.5,54.2 L150.5,54.2 L153.5,54.2 L156.5,54.2
		L159.5,54.2 L162.5,54.2 L165.6,54.2 L168.6,54.2 L171.6,54.1 L174.6,54.2 L177.6,54.2 L180.7,54.3
		L183.7,54.2 L186.7,54.1 L189.7,54.3 L192.7,54.3 L195.7,54.2 L198.8,54.3 L201.8,54.2 L204.8,54.1
		L207.8,54.2 L210.8,54.2 L213.8,54.2 L216.9,54.2 L219.9,54.3 L222.9,54.2 L225.9,54.3 L228.9,54.2
		L232.0,54.2 L235.0,54.2 L238.0,54.3 L241.0,54.2 L244.0,54.3 L247.0,54.2 L250.1,54.2 L253.1,54.3
		L256.1,54.3 L259.1,54.2 L262.1,54.2 L265.2,54.3 L268.2,54.3 L271.2,54.2 L274.2,54.2 L277.2,54.3
		L280.2,54.3 L283.3,54.2 L286.3,54.2 L289.3,54.3 L292.3,54.3 L295.3,54.1 L298.3,54.2 L301.4,54.3
		L304.4,54.2 L307.4,54.3 L310.4,54.2 L313.4,54.2 L316.5,54.2 L319.5,54.2 L322.5,54.3 L325.5,54.2
		L328.5,54.2 L331.5,54.3 L334.6,54.3 L337.6,54.2 L340.6,54.3 L343.6,54.3 L346.6,54.2 L349.7,54.2
		L352.7,54.3 L355.7,54.2 L358.7,54.3 L361.7,54.2 L364.7,54.2 L367.8,54.2 L370.8,54.2 L373.8,54.2
		L376.8,54.2 L379.8,54.3 L382.8,54.3 L385.9,54.2 L388.9,54.2 L391.9,54.1 L394.9,54.2 L397.9,54.3
		L401.0,54.2 L404.0,54.3 L407.0,54.2 L410.0,54.2 L413.0,54.4 L416.0,54.1 L419.1,54.3 L422.1,54.2
		L425.1,54.3 L428.1,54.2 L431.1,54.2 L434.2,54.3 L437.2,54.2 L440.2,54.3 L443.2,54.2 L446.2,54.2
		L449.2,54.2 L452.3,54.3 L455.3,54.3 L458.3,54.2 L461.3,54.2 L464.3,54.3 L467.3,54.1 L470.4,54.2
		L473.4,54.2 L476.4,54.2 L479.4,54.2 L482.4,54.3 L485.5,54.3 L488.5,54.3 L491.5,54.3 L494.5,54.2
		L497.5,54.2 L500.5,54.3 L503.6,54.3 L506.6,54.3 L509.6,54.2 L512.6,54.2 L515.6,54.2 L518.6,54.2
		L521.7,54.3 L524.7,54.2 L527.7,54.3 L530.7,54.3 L533.7,54.2 L536.8,54.2 L539.8,54.2 L542.8,54.2
		L545.8,54.2 L548.8,54.1 L551.8,54.2 L554.9,54.3 L557.9,54.2 L560.9,54.2 L563.9,54.2 L566.9,54.3
		L570.0,54.2 L573.0,54.3 L576.0,54.2 L579.0,54.2 L582.0,54.2 L585.0,54.3 L588.1,54.2 L591.1,54.3
		L594.1,54.2 L597.1,54.3 L600.1,54.3 L603.1,54.2 L606.2,54.3 L609.2,54.3 L612.2,54.2 L615.2,54.3
		L618.2,54.3 L621.3,54.2 L624.3,54.3 L627.3,54.3 L630.3,54.2 L633.3,54.3 L636.3,54.2 L639.4,54.2
		L642.4,54.3 L645.4,54.2 L648.4,54.2 L651.4,54.3 L654.5,54.2 L657.5,54.1 L660.5,54.1 L663.5,54.3
		L666.5,54.2 L669.5,54.3 L672.6,54.3 L675.6,54.3 L678.6,54.3 L681.6,54.2 L684.6,54.3 L687.6,54.2
		L690.7,54.2 L693.7,54.3 L696.7,54.2 L699.7,54.4 L702.7,54.3 L705.8,54.3 L708.8,54.3 L711.8,54.2
		L714.8,54.2 L717.8,54.2 L720.8,54.4 L723.9,54.3 L726.9,54.2 L729.9,54.2 L732.9,54.2 L735.9,54.3
		L739.0,54.2 L742.0,54.2 L745.0,54.3 L748.0,54.2 L751.0,54.3 L754.0,54.3 L757.1,54.3 L760.1,54.2
		L763.1,54.2 L766.1,54.2 L769.1,54.3 L772.1,54.3 L775.2,54.2 L778.2,54.2 L781.2,54.2 L784.2,54.3
		L787.2,54.2 L790.3,54.2 L793.3,54.3 L796.3,54.2 L799.3,54.3 L802.3,54.3 L805.3,54.2 L808.4,54.3
		L811.4,54.3 L814.4,54.2 L817.4,54.2 L820.4,54.2 L823.5,54.3 L826.5,54.2 L829.5,54.3 L832.5,54.2
		L835.5,54.3 L838.5,54.3 L841.6,54.3 L844.6,54.2 L847.6,54.3 L850.6,54.3 L853.6,54.2 L856.6,54.3
		L859.7,54.3 L862.7,54.3 L865.7,54.1 L868.7,54.1 L871.7,54.3 L874.8,54.2 L877.8,54.2 L880.8,54.2
		L883.8,54.3 L886.8,54.2 L889.8,54.2 L892.9,54.3 L895.9,54.3 L898.9,54.3 L901.9,54.3 L904.9,54.2
		L907.9,54.2 L911.0,54.2 L914.0,54.3 L917.0,54.2 L920.0,54.2 L923.0,54.2 L926.1,54.2 L929.1,54.3
		L932.1,54.2 L935.1,54.2 L938.1,54.2 L941.1,54.2 L944.2,54.2 L947.2,54.2 L950.2,54.2 L953.2,54.3
		L956.2,54.3 L959.3,54.3 L962.3,54.1 L965.3,54.2 L968.3,54.3 L971.3,54.2 L974.3,54.2 L977.4,54.2
		L980.4,54.3 L983.4,54.2 L986.4,54.2 L989.4,54.3 L992.4,54.2 L995.5,54.3 L998.5,54.2 L1001.5,54.2
		L1004.5,54.2 L1007.5,54.2 L1010.6,54.2 L1013.6,54.2 L1016.6,54.3 L1019.6,54.3 L1022.6,54.3 L1025.6,54.3
		L1028.7,54.2 L1031.7,54.3 L1034.7,54.3 L1037.7,54.3 L1040.7,54.2 L1043.8,54.2 L1046.8,54.4 L1049.8,54.2
		L1052.8,54.3 L1055.8,54.2 L1058.8,54.2 L1061.9,54.3 L1064.9,54.2 L1067.9,54.2 L1070.9,54.2 L1073.9,54.3
		L1076.9,54.2 L1080.0,54.2 L1083.0,54.2 L1086.0,54.2 L1089.0,54.2 L1092.0,54.2 L1095.1,54.3 L1098.1,54.2
		L1101.1,54.2 L1104.1,54.3 L1107.1,54.2 L1110.1,54.1 L1113.2,54.3 L1116.2,54.1 L1119.2,54.2 L1122.2,54.2
		L1125.2,54.2 L1128.3,54.2 L1131.3,54.2 L1134.3,54.2 L1137.3,54.3 L1140.3,54.3 L1143.3,54.3 L1146.4,54.3
		L1149.4,54.3 L1152.4,54.3 L1155.4,54.2 L1158.4,54.2 L1161.4,54.2 L1164.5,54.2 L1167.5,54.3 L1170.5,54.3
		L1173.5,54.2 L1176.5,54.3 L1179.6,54.2 L1182.6,54.2 L1185.6,54.2 L1188.6,54.2 L1191.6,54.2 L1194.6,54.2
		L1197.7,54.3 L1200.7,54.3 L1203.7,54.2 L1206.7,54.2 L1209.7,54.2 L1212.8,54.3 L1215.8,54.2 L1218.8,54.2
		L1221.8,54.2 L1224.8,54.2 L1227.8,54.2 L1230.9,54.2 L1233.9,54.2 L1236.9,54.2 L1239.9,54.2 L1242.9,54.2
		L1245.9,54.2 L1249.0,54.3 L1252.0,54.3 L1255.0,54.2  '/></g>
	</g>
	<g id="gnuplot_plot_2" ><title>trendline (m=0.420338,b=3092.475841)</title>
<g fill="none" color="black" stroke="currentColor" stroke-width="1.00" stroke-linecap="butt" stroke-linejoin="miter">
	<g transform="translate(1187.9,94.0)" stroke="none" fill="black" font-family="Arial" font-size="12.00"  text-anchor="end">
		<text><tspan font-family="Arial" >trendline (m=0.420338,b=3092.475841)</tspan></text>
	</g>
</g>
<g fill="none" color="black" stroke="currentColor" stroke-width="1.00" stroke-linecap="butt" stroke-linejoin="miter">
	<path stroke='black'  d='M1196.2,90.1 L1238.4,90.1 M87.1,72.2 L98.9,71.9 L110.7,71.6 L122.5,71.3 L134.3,71.1 L146.1,70.8
		L157.9,70.5 L169.7,70.3 L181.5,70.0 L193.3,69.7 L205.1,69.4 L216.9,69.2 L228.7,68.9 L240.5,68.6
		L252.3,68.4 L264.1,68.1 L275.9,67.8 L287.6,67.6 L299.4,67.3 L311.2,67.0 L323.0,66.7 L334.8,66.5
		L346.6,66.2 L358.4,65.9 L370.2,65.7 L382.0,65.4 L393.8,65.1 L405.6,64.8 L417.4,64.6 L429.2,64.3
		L441.0,64.0 L452.8,63.8 L464.6,63.5 L476.4,63.2 L488.2,63.0 L500.0,62.7 L511.8,62.4 L523.6,62.1
		L535.4,61.9 L547.2,61.6 L559.0,61.3 L570.8,61.1 L582.6,60.8 L594.4,60.5 L606.2,60.2 L618.0,60.0
		L629.8,59.7 L641.6,59.4 L653.4,59.2 L665.2,58.9 L676.9,58.6 L688.7,58.4 L700.5,58.1 L712.3,57.8
		L724.1,57.5 L735.9,57.3 L747.7,57.0 L759.5,56.7 L771.3,56.5 L783.1,56.2 L794.9,55.9 L806.7,55.6
		L818.5,55.4 L830.3,55.1 L842.1,54.8 L853.9,54.6 L865.7,54.3 L874.1,54.1  '/></g>
	</g>
<g fill="none" color="white" stroke="black" stroke-width="2.00" stroke-linecap="butt" stroke-linejoin="miter">
</g>
<g fill="none" color="black" stroke="currentColor" stroke-width="2.00" stroke-linecap="butt" stroke-linejoin="miter">
</g>
<g fill="none" color="black" stroke="black" stroke-width="1.00" stroke-linecap="butt" stroke-linejoin="miter">
</g>
<g fill="none" color="black" stroke="currentColor" stroke-width="1.00" stroke-linecap="butt" stroke-linejoin="miter">
	<path stroke='black'  d='M87.1,54.1 L87.1,703.4 L1255.0,703.4 L1255.0,54.1 L87.1,54.1 Z  '/></g>
<g fill="none" color="black" stroke="currentColor" stroke-width="1.00" stroke-linecap="butt" stroke-linejoin="miter">
</g>
</g>
</svg>

