<?xml version="1.0" encoding="utf-8"  standalone="no"?>
<svg 
 width="1280" height="720"
 viewBox="0 0 1280 720"
 xmlns="http://www.w3.org/2000/svg"
 xmlns:xlink="http://www.w3.org/1999/xlink"
>

<title>Gnuplot</title>
<desc>Produced by GNUPLOT 5.2 patchlevel 2 </desc>

<g id="gnuplot_canvas">

<rect x="0" y="0" width="1280" height="720" fill="none"/>
<defs>

	<circle id='gpDot' r='0.5' stroke-width='0.5'/>
	<path id='gpPt0' stroke-width='0.222' stroke='currentColor' d='M-1,0 h2 M0,-1 v2'/>
	<path id='gpPt1' stroke-width='0.222' stroke='currentColor' d='M-1,-1 L1,1 M1,-1 L-1,1'/>
	<path id='gpPt2' stroke-width='0.222' stroke='currentColor' d='M-1,0 L1,0 M0,-1 L0,1 M-1,-1 L1,1 M-1,1 L1,-1'/>
	<rect id='gpPt3' stroke-width='0.222' stroke='currentColor' x='-1' y='-1' width='2' height='2'/>
	<rect id='gpPt4' stroke-width='0.222' stroke='currentColor' fill='currentColor' x='-1' y='-1' width='2' height='2'/>
	<circle id='gpPt5' stroke-width='0.222' stroke='currentColor' cx='0' cy='0' r='1'/>
	<use xlink:href='#gpPt5' id='gpPt6' fill='currentColor' stroke='none'/>
	<path id='gpPt7' stroke-width='0.222' stroke='currentColor' d='M0,-1.33 L-1.33,0.67 L1.33,0.67 z'/>
	<use xlink:href='#gpPt7' id='gpPt8' fill='currentColor' stroke='none'/>
	<use xlink:href='#gpPt7' id='gpPt9' stroke='currentColor' transform='rotate(180)'/>
	<use xlink:href='#gpPt9' id='gpPt10' fill='currentColor' stroke='none'/>
	<use xlink:href='#gpPt3' id='gpPt11' stroke='currentColor' transform='rotate(45)'/>
	<use xlink:href='#gpPt11' id='gpPt12' fill='currentColor' stroke='none'/>
	<path id='gpPt13' stroke-width='0.222' stroke='currentColor' d='M0,1.330 L1.265,0.411 L0.782,-1.067 L-0.782,-1.076 L-1.265,0.411 z'/>
	<use xlink:href='#gpPt13' id='gpPt14' fill='currentColor' stroke='none'/>
	<filter id='textbox' filterUnits='objectBoundingBox' x='0' y='0' height='1' width='1'>
	  <feFlood flood-color='white' flood-opacity='1' result='bgnd'/>
	  <feComposite in='SourceGraphic' in2='bgnd' operator='atop'/>
	</filter>
	<filter id='greybox' filterUnits='objectBoundingBox' x='0' y='0' height='1' width='1'>
	  <feFlood flood-color='lightgrey' flood-opacity='1' result='grey'/>
	  <feComposite in='SourceGraphic' in2='grey' operator='atop'/>
	</filter>
</defs>
<g fill="none" color="white" stroke="currentColor" stroke-width="1.00" stroke-linecap="butt" stroke-linejoin="miter">
</g>
<g fill="none" color="black" stroke="currentColor" stroke-width="1.00" stroke-linecap="butt" stroke-linejoin="miter">
	<path stroke='black'  d='M87.1,703.4 L96.1,703.4 M1255.0,703.4 L1246.0,703.4  '/>	<g transform="translate(78.8,707.3)" stroke="none" fill="black" font-family="Arial" font-size="12.00"  text-anchor="end">
		<text><tspan font-family="Arial" > 304.848</tspan></text>
	</g>
</g>
<g fill="none" color="black" stroke="currentColor" stroke-width="1.00" stroke-linecap="butt" stroke-linejoin="miter">
	<path stroke='black'  d='M87.1,405.7 L96.1,405.7 M1255.0,405.7 L1246.0,405.7  '/>	<g transform="translate(78.8,409.6)" stroke="none" fill="black" font-family="Arial" font-size="12.00"  text-anchor="end">
		<text><tspan font-family="Arial" > 305.527</tspan></text>
	</g>
</g>
<g fill="none" color="black" stroke="currentColor" stroke-width="1.00" stroke-linecap="butt" stroke-linejoin="miter">
	<path stroke='black'  d='M87.1,54.1 L96.1,54.1 M1255.0,54.1 L1246.0,54.1  '/>	<g transform="translate(78.8,58.0)" stroke="none" fill="black" font-family="Arial" font-size="12.00"  text-anchor="end">
		<text><tspan font-family="Arial" > 306.328</tspan></text>
	</g>
</g>
<g fill="none" color="black" stroke="currentColor" stroke-width="1.00" stroke-linecap="butt" stroke-linejoin="miter">
</g>
<g fill="none" color="black" stroke="currentColor" stroke-width="1.00" stroke-linecap="butt" stroke-linejoin="miter">
	<path stroke='black'  d='M87.1,54.1 L87.1,703.4 L1255.0,703.4 L1255.0,54.1 L87.1,54.1 Z  '/></g>
<g fill="none" color="black" stroke="currentColor" stroke-width="1.00" stroke-linecap="butt" stroke-linejoin="miter">
	<g transform="translate(671.0,31.0)" stroke="none" fill="black" font-family="Arial" font-size="12.00"  text-anchor="middle">
		<text><tspan font-family="Arial" >Material 42, 2 components</tspan></text>
	</g>
</g>
	<g id="gnuplot_plot_1" ><title>log(likelihood)</title>
<g fill="none" color="black" stroke="currentColor" stroke-width="1.00" stroke-linecap="butt" stroke-linejoin="miter">
	<g transform="translate(1187.9,76.0)" stroke="none" fill="black" font-family="Arial" font-size="12.00"  text-anchor="end">
		<text><tspan font-family="Arial" >log(likelihood)</tspan></text>
	</g>
</g>
<g fill="none" color="black" stroke="currentColor" stroke-width="1.00" stroke-linecap="butt" stroke-linejoin="miter">
	<g stroke='none' shape-rendering='crispEdges'>
		<polygon fill = 'rgb(148,   0, 211)' fill-opacity = '0.100000' points = '1196.2,76.6 1238.4,76.6 1238.4,67.6 1196.2,67.6 '/>
	</g>
	<path stroke='rgb(148,   0, 211)'  d='M1196.2,76.6 L1238.4,76.6 L1238.4,67.6 L1196.2,67.6 L1196.2,76.6 Z  '/></g>
<g fill="none" color="black" stroke="currentColor" stroke-width="1.00" stroke-linecap="butt" stroke-linejoin="miter">
	<g stroke='none' shape-rendering='crispEdges'>
		<polygon fill = 'rgb(148,   0, 211)' fill-opacity = '0.100000' points = '87.1,54.1 96.8,308.6 106.6,381.4 116.3,421.7 126.0,394.5 135.8,282.7 145.5,551.6 155.2,645.9 165.0,508.6 174.7,189.2 184.4,326.5 194.2,266.4 203.9,504.2 213.6,631.5 223.4,238.8 233.1,254.6
242.8,228.7 252.6,384.0 262.3,591.5 272.0,442.4 281.8,370.4 291.5,582.3 301.2,607.8 310.9,277.8 320.7,431.0 330.4,245.8 340.1,498.1 349.9,481.8 359.6,251.5 369.3,455.1 379.1,536.2 388.8,348.5
398.5,505.5 408.3,305.9 418.0,349.8 427.7,534.9 437.5,346.3 447.2,480.5 456.9,703.4 466.7,509.0 476.4,482.3 486.1,517.4 495.9,451.1 505.6,305.5 515.3,379.6 525.1,301.1 534.8,652.9 544.5,388.8
554.3,453.8 564.0,392.8 573.7,368.2 583.5,299.8 593.2,345.0 602.9,402.4 612.7,367.3 622.4,493.7 632.1,339.7 641.9,378.7 651.6,398.1 661.3,234.9 671.1,488.4 680.8,414.7 690.5,255.0 700.2,362.5
710.0,412.1 719.7,274.8 729.4,409.5 739.2,619.6 748.9,355.1 758.6,343.7 768.4,673.6 778.1,279.6 787.8,560.4 797.6,588.5 807.3,432.3 817.0,390.6 826.8,256.3 836.5,690.7 846.2,486.7 856.0,331.4
865.7,440.2 875.4,364.7 885.2,665.2 894.9,318.6 904.6,440.6 914.4,187.9 924.1,543.3 933.8,596.8 943.6,253.7 953.3,538.4 963.0,363.4 972.8,332.2 982.5,279.6 992.2,319.5 1002.0,495.4 1011.7,642.0
1021.4,199.8 1031.2,326.1 1040.9,484.9 1050.6,509.5 1060.4,354.6 1070.1,563.4 1079.8,500.7 1089.5,243.2 1099.3,313.8 1109.0,397.6 1118.7,574.9 1128.5,407.7 1138.2,265.1 1147.9,348.9 1157.7,450.7 1167.4,549.4
1177.1,218.2 1186.9,200.6 1196.6,147.5 1206.3,388.0 1216.1,484.0 1225.8,470.4 1235.5,270.8 1245.3,281.8 1255.0,350.2 1255.0,703.4 87.1,703.4 '/>
	</g>
</g>
	</g>
	<g id="gnuplot_plot_2" ><title>trendline (m=0.000321,b=305.507311)</title>
<g fill="none" color="black" stroke="currentColor" stroke-width="1.00" stroke-linecap="butt" stroke-linejoin="miter">
	<g transform="translate(1187.9,94.0)" stroke="none" fill="black" font-family="Arial" font-size="12.00"  text-anchor="end">
		<text><tspan font-family="Arial" >trendline (m=0.000321,b=305.507311)</tspan></text>
	</g>
</g>
<g fill="none" color="black" stroke="currentColor" stroke-width="1.00" stroke-linecap="butt" stroke-linejoin="miter">
	<path stroke='black'  d='M1196.2,90.1 L1238.4,90.1 M87.1,414.1 L98.9,414.0 L110.7,413.8 L122.5,413.6 L134.3,413.5 L146.1,413.3
		L157.9,413.1 L169.7,413.0 L181.5,412.8 L193.3,412.6 L205.1,412.4 L216.9,412.3 L228.7,412.1 L240.5,411.9
		L252.3,411.8 L264.1,411.6 L275.9,411.4 L287.6,411.3 L299.4,411.1 L311.2,410.9 L323.0,410.7 L334.8,410.6
		L346.6,410.4 L358.4,410.2 L370.2,410.1 L382.0,409.9 L393.8,409.7 L405.6,409.5 L417.4,409.4 L429.2,409.2
		L441.0,409.0 L452.8,408.9 L464.6,408.7 L476.4,408.5 L488.2,408.4 L500.0,408.2 L511.8,408.0 L523.6,407.8
		L535.4,407.7 L547.2,407.5 L559.0,407.3 L570.8,407.2 L582.6,407.0 L594.4,406.8 L606.2,406.6 L618.0,406.5
		L629.8,406.3 L641.6,406.1 L653.4,406.0 L665.2,405.8 L676.9,405.6 L688.7,405.5 L700.5,405.3 L712.3,405.1
		L724.1,404.9 L735.9,404.8 L747.7,404.6 L759.5,404.4 L771.3,404.3 L783.1,404.1 L794.9,403.9 L806.7,403.8
		L818.5,403.6 L830.3,403.4 L842.1,403.2 L853.9,403.1 L865.7,402.9 L877.5,402.7 L889.3,402.6 L901.1,402.4
		L912.9,402.2 L924.7,402.0 L936.5,401.9 L948.3,401.7 L960.1,401.5 L971.9,401.4 L983.7,401.2 L995.5,401.0
		L1007.3,400.9 L1019.1,400.7 L1030.9,400.5 L1042.7,400.3 L1054.5,400.2 L1066.2,400.0 L1078.0,399.8 L1089.8,399.7
		L1101.6,399.5 L1113.4,399.3 L1125.2,399.1 L1137.0,399.0 L1148.8,398.8 L1160.6,398.6 L1172.4,398.5 L1184.2,398.3
		L1196.0,398.1 L1207.8,398.0 L1219.6,397.8 L1231.4,397.6 L1243.2,397.4 L1255.0,397.3  '/></g>
	</g>
<g fill="none" color="white" stroke="black" stroke-width="2.00" stroke-linecap="butt" stroke-linejoin="miter">
</g>
<g fill="none" color="black" stroke="currentColor" stroke-width="2.00" stroke-linecap="butt" stroke-linejoin="miter">
</g>
<g fill="none" color="black" stroke="black" stroke-width="1.00" stroke-linecap="butt" stroke-linejoin="miter">
</g>
<g fill="none" color="black" stroke="currentColor" stroke-width="1.00" stroke-linecap="butt" stroke-linejoin="miter">
	<path stroke='black'  d='M87.1,54.1 L87.1,703.4 L1255.0,703.4 L1255.0,54.1 L87.1,54.1 Z  '/></g>
<g fill="none" color="black" stroke="currentColor" stroke-width="1.00" stroke-linecap="butt" stroke-linejoin="miter">
</g>
</g>
</svg>

