<?xml version="1.0" encoding="utf-8"  standalone="no"?>
<svg 
 width="1280" height="720"
 viewBox="0 0 1280 720"
 xmlns="http://www.w3.org/2000/svg"
 xmlns:xlink="http://www.w3.org/1999/xlink"
>

<title>Gnuplot</title>
<desc>Produced by GNUPLOT 5.0 patchlevel 6 </desc>

<g id="gnuplot_canvas">

<rect x="0" y="0" width="1280" height="720" fill="none"/>
<defs>

	<circle id='gpDot' r='0.5' stroke-width='0.5'/>
	<path id='gpPt0' stroke-width='0.222' stroke='currentColor' d='M-1,0 h2 M0,-1 v2'/>
	<path id='gpPt1' stroke-width='0.222' stroke='currentColor' d='M-1,-1 L1,1 M1,-1 L-1,1'/>
	<path id='gpPt2' stroke-width='0.222' stroke='currentColor' d='M-1,0 L1,0 M0,-1 L0,1 M-1,-1 L1,1 M-1,1 L1,-1'/>
	<rect id='gpPt3' stroke-width='0.222' stroke='currentColor' x='-1' y='-1' width='2' height='2'/>
	<rect id='gpPt4' stroke-width='0.222' stroke='currentColor' fill='currentColor' x='-1' y='-1' width='2' height='2'/>
	<circle id='gpPt5' stroke-width='0.222' stroke='currentColor' cx='0' cy='0' r='1'/>
	<use xlink:href='#gpPt5' id='gpPt6' fill='currentColor' stroke='none'/>
	<path id='gpPt7' stroke-width='0.222' stroke='currentColor' d='M0,-1.33 L-1.33,0.67 L1.33,0.67 z'/>
	<use xlink:href='#gpPt7' id='gpPt8' fill='currentColor' stroke='none'/>
	<use xlink:href='#gpPt7' id='gpPt9' stroke='currentColor' transform='rotate(180)'/>
	<use xlink:href='#gpPt9' id='gpPt10' fill='currentColor' stroke='none'/>
	<use xlink:href='#gpPt3' id='gpPt11' stroke='currentColor' transform='rotate(45)'/>
	<use xlink:href='#gpPt11' id='gpPt12' fill='currentColor' stroke='none'/>
	<path id='gpPt13' stroke-width='0.222' stroke='currentColor' d='M0,1.330 L1.265,0.411 L0.782,-1.067 L-0.782,-1.076 L-1.265,0.411 z'/>
	<use xlink:href='#gpPt13' id='gpPt14' fill='currentColor' stroke='none'/>
	<filter id='textbox' filterUnits='objectBoundingBox' x='0' y='0' height='1' width='1'>
	  <feFlood flood-color='white' flood-opacity='1' result='bgnd'/>
	  <feComposite in='SourceGraphic' in2='bgnd' operator='atop'/>
	</filter>
	<filter id='greybox' filterUnits='objectBoundingBox' x='0' y='0' height='1' width='1'>
	  <feFlood flood-color='lightgrey' flood-opacity='1' result='grey'/>
	  <feComposite in='SourceGraphic' in2='grey' operator='atop'/>
	</filter>
</defs>
<g fill="none" color="white" stroke="currentColor" stroke-width="1.00" stroke-linecap="butt" stroke-linejoin="miter">
</g>
<g fill="none" color="black" stroke="currentColor" stroke-width="1.00" stroke-linecap="butt" stroke-linejoin="miter">
	<path stroke='black'  d='M87.1,703.4 L96.1,703.4 M1255.0,703.4 L1246.0,703.4  '/>	<g transform="translate(78.8,707.3)" stroke="none" fill="black" font-family="Arial" font-size="12.00"  text-anchor="end">
		<text><tspan font-family="Arial" >-317.59</tspan></text>
	</g>
</g>
<g fill="none" color="black" stroke="currentColor" stroke-width="1.00" stroke-linecap="butt" stroke-linejoin="miter">
	<path stroke='black'  d='M87.1,72.7 L96.1,72.7 M1255.0,72.7 L1246.0,72.7  '/>	<g transform="translate(78.8,76.6)" stroke="none" fill="black" font-family="Arial" font-size="12.00"  text-anchor="end">
		<text><tspan font-family="Arial" >-221.959</tspan></text>
	</g>
</g>
<g fill="none" color="black" stroke="currentColor" stroke-width="1.00" stroke-linecap="butt" stroke-linejoin="miter">
	<path stroke='black'  d='M87.1,54.1 L96.1,54.1 M1255.0,54.1 L1246.0,54.1  '/>	<g transform="translate(78.8,58.0)" stroke="none" fill="black" font-family="Arial" font-size="12.00"  text-anchor="end">
		<text><tspan font-family="Arial" >-219.132</tspan></text>
	</g>
</g>
<g fill="none" color="black" stroke="currentColor" stroke-width="1.00" stroke-linecap="butt" stroke-linejoin="miter">
</g>
<g fill="none" color="black" stroke="currentColor" stroke-width="1.00" stroke-linecap="butt" stroke-linejoin="miter">
	<path stroke='black'  d='M87.1,54.1 L87.1,703.4 L1255.0,703.4 L1255.0,54.1 L87.1,54.1 Z  '/></g>
<g fill="none" color="black" stroke="currentColor" stroke-width="1.00" stroke-linecap="butt" stroke-linejoin="miter">
	<g transform="translate(671.0,31.0)" stroke="none" fill="black" font-family="Arial" font-size="12.00"  text-anchor="middle">
		<text><tspan font-family="Arial" >Material 100, 8 components</tspan></text>
	</g>
</g>
	<g id="gnuplot_plot_1" ><title>log(likelihood)</title>
<g fill="none" color="black" stroke="currentColor" stroke-width="1.00" stroke-linecap="butt" stroke-linejoin="miter">
	<g transform="translate(1187.9,76.0)" stroke="none" fill="black" font-family="Arial" font-size="12.00"  text-anchor="end">
		<text><tspan font-family="Arial" >log(likelihood)</tspan></text>
	</g>
</g>
<g fill="none" color="black" stroke="currentColor" stroke-width="1.00" stroke-linecap="butt" stroke-linejoin="miter">
	<g stroke='none' shape-rendering='crispEdges'>
		<polygon fill = 'rgb(148,   0, 211)' fill-opacity = '0.100000' points = '1196.2,76.6 1238.4,76.6 1238.4,67.6 1196.2,67.6 '/>
	</g>
	<path stroke='rgb(148,   0, 211)'  d='M1196.2,76.6 L1238.4,76.6 L1238.4,67.6 L1196.2,67.6 L1196.2,76.6 Z  '/></g>
<g fill="none" color="black" stroke="currentColor" stroke-width="1.00" stroke-linecap="butt" stroke-linejoin="miter">
	<g stroke='none' shape-rendering='crispEdges'>
		<polygon fill = 'rgb(148,   0, 211)' fill-opacity = '0.100000' points = '87.1,703.4 88.3,289.4 89.4,209.9 90.6,214.3 91.8,177.7 92.9,157.3 94.1,137.5 95.3,143.2 96.4,128.0 97.6,124.7 98.8,124.0 99.9,121.7 101.1,111.5 102.3,102.3 103.4,129.6 104.6,126.9
105.8,130.2 106.9,123.3 108.1,107.2 109.3,115.2 110.4,120.0 111.6,117.4 112.8,124.3 113.9,106.6 115.1,106.9 116.3,121.5 117.4,106.5 118.6,111.2 119.8,108.9 120.9,112.1 122.1,113.7 123.3,101.6
124.4,101.9 125.6,100.3 126.8,100.2 127.9,87.9 129.1,95.8 130.3,105.1 131.4,106.0 132.6,107.0 133.8,103.2 134.9,102.6 136.1,95.3 137.3,95.3 138.4,99.0 139.6,93.8 140.8,94.0 141.9,93.5
143.1,97.7 144.3,94.4 145.4,94.7 146.6,98.6 147.8,91.4 148.9,100.4 150.1,97.2 151.3,94.2 152.4,93.3 153.6,93.1 154.8,89.5 155.9,89.7 157.1,92.5 158.3,99.2 159.4,99.2 160.6,100.1
161.8,95.6 162.9,93.7 164.1,93.8 165.3,93.8 166.4,91.5 167.6,85.6 168.8,83.2 169.9,87.9 171.1,88.3 172.3,88.3 173.4,88.3 174.6,86.3 175.8,96.6 176.9,89.3 178.1,96.2 179.3,96.3
180.4,97.7 181.6,92.9 182.8,89.4 183.9,93.1 185.1,87.7 186.3,83.7 187.4,100.0 188.6,81.3 189.8,81.3 190.9,86.3 192.1,86.8 193.3,86.1 194.4,80.5 195.6,79.8 196.8,86.6 197.9,93.6
199.1,91.6 200.3,90.8 201.4,90.8 202.6,91.8 203.8,91.8 204.9,89.9 206.1,81.8 207.3,82.8 208.4,92.0 209.6,90.8 210.8,88.2 211.9,81.7 213.1,80.7 214.3,84.3 215.4,84.7 216.6,84.7
217.8,86.5 218.9,86.5 220.1,84.7 221.3,89.0 222.4,89.0 223.6,87.9 224.8,84.0 225.9,86.8 227.1,84.4 228.3,88.5 229.4,88.5 230.6,84.5 231.8,84.5 232.9,89.4 234.1,85.1 235.3,90.4
236.4,91.8 237.6,91.8 238.8,84.4 239.9,93.4 241.1,90.0 242.3,94.1 243.4,88.8 244.6,87.6 245.8,87.6 246.9,80.8 248.1,88.4 249.3,85.0 250.4,93.8 251.6,91.7 252.8,92.3 253.9,90.0
255.1,90.2 256.3,90.2 257.4,91.5 258.6,86.1 259.8,86.6 260.9,90.4 262.1,93.0 263.3,92.0 264.4,89.8 265.6,89.4 266.8,85.2 267.9,82.4 269.1,79.1 270.3,81.1 271.4,81.2 272.6,81.2
273.8,75.6 274.9,75.6 276.1,76.1 277.3,74.6 278.4,74.6 279.6,74.5 280.8,74.6 281.9,72.6 283.1,65.5 284.3,65.2 285.4,65.2 286.6,65.2 287.8,68.8 288.9,66.9 290.1,70.1 291.3,70.2
292.4,70.9 293.6,69.5 294.8,69.5 295.9,69.5 297.1,69.6 298.3,69.3 299.4,70.1 300.6,70.1 301.8,71.3 302.9,70.2 304.1,70.3 305.3,71.3 306.4,70.7 307.6,70.6 308.8,70.2 309.9,67.7
311.1,67.7 312.3,67.7 313.4,68.2 314.6,68.2 315.8,68.6 316.9,66.9 318.1,66.9 319.3,66.9 320.4,66.9 321.6,67.0 322.8,67.5 323.9,67.5 325.1,69.3 326.3,70.0 327.4,68.3 328.6,68.3
329.8,68.3 330.9,68.4 332.1,66.2 333.3,66.4 334.4,63.8 335.6,63.8 336.8,63.8 337.9,63.8 339.1,63.7 340.3,63.7 341.4,63.8 342.6,63.8 343.8,63.8 344.9,63.8 346.1,63.0 347.3,64.1
348.4,64.1 349.6,64.1 350.8,63.0 351.9,65.3 353.1,66.2 354.3,69.6 355.4,69.6 356.6,68.1 357.8,70.1 358.9,67.3 360.1,69.7 361.3,69.4 362.4,68.9 363.6,71.5 364.8,71.2 365.9,68.5
367.1,68.7 368.3,68.7 369.4,68.7 370.6,67.8 371.8,68.4 372.9,68.4 374.1,72.3 375.3,72.3 376.4,72.9 377.6,72.6 378.8,72.3 380.0,72.2 381.1,72.2 382.3,72.1 383.5,73.2 384.6,72.2
385.8,72.2 387.0,69.8 388.1,70.3 389.3,70.5 390.5,71.3 391.6,71.4 392.8,72.4 394.0,72.4 395.1,71.6 396.3,71.7 397.5,70.3 398.6,68.3 399.8,68.3 401.0,68.4 402.1,68.4 403.3,69.6
404.5,74.1 405.6,74.4 406.8,73.6 408.0,74.4 409.1,74.4 410.3,73.4 411.5,70.5 412.6,69.9 413.8,70.6 415.0,70.2 416.1,70.2 417.3,70.1 418.5,72.0 419.6,72.0 420.8,69.0 422.0,69.7
423.1,68.9 424.3,68.9 425.5,70.9 426.6,73.2 427.8,71.8 429.0,71.1 430.1,71.1 431.3,71.1 432.5,71.5 433.6,70.9 434.8,70.7 436.0,70.7 437.1,73.2 438.3,74.2 439.5,74.1 440.6,74.1
441.8,73.3 443.0,73.3 444.1,63.1 445.3,62.9 446.5,63.8 447.6,65.7 448.8,60.4 450.0,60.4 451.1,67.2 452.3,60.9 453.5,60.9 454.6,74.6 455.8,76.6 457.0,75.9 458.1,76.1 459.3,72.2
460.5,71.7 461.6,68.7 462.8,70.0 464.0,69.1 465.1,69.6 466.3,70.1 467.5,70.1 468.6,72.0 469.8,71.6 471.0,69.2 472.1,69.1 473.3,65.8 474.5,71.3 475.6,71.2 476.8,71.3 478.0,73.7
479.1,73.8 480.3,72.8 481.5,74.9 482.6,72.7 483.8,70.6 485.0,72.5 486.1,72.8 487.3,72.8 488.5,72.5 489.6,72.5 490.8,72.5 492.0,73.3 493.1,73.3 494.3,73.5 495.5,73.5 496.6,67.8
497.8,74.5 499.0,70.7 500.1,70.7 501.3,70.7 502.5,68.6 503.6,71.3 504.8,67.8 506.0,64.6 507.1,63.7 508.3,60.8 509.5,63.4 510.6,67.9 511.8,67.9 513.0,63.6 514.1,72.2 515.3,70.1
516.5,71.2 517.6,72.2 518.8,71.7 520.0,66.2 521.1,66.9 522.3,65.6 523.5,67.4 524.6,64.2 525.8,65.0 527.0,67.9 528.1,68.5 529.3,66.0 530.5,65.9 531.6,65.9 532.8,65.5 534.0,67.8
535.1,63.7 536.3,64.2 537.5,65.6 538.6,55.8 539.8,54.6 541.0,55.5 542.1,55.2 543.3,57.6 544.5,61.7 545.6,64.6 546.8,64.6 548.0,64.6 549.1,61.4 550.3,64.0 551.5,60.4 552.6,58.4
553.8,59.3 555.0,59.2 556.1,60.9 557.3,59.7 558.5,58.9 559.6,60.9 560.8,59.3 562.0,60.4 563.1,59.8 564.3,59.7 565.5,57.9 566.6,59.4 567.8,68.1 569.0,68.1 570.1,62.6 571.3,64.6
572.5,64.3 573.6,68.3 574.8,68.3 576.0,68.3 577.1,64.4 578.3,64.4 579.5,64.5 580.6,64.4 581.8,64.2 583.0,64.2 584.1,62.9 585.3,63.0 586.5,62.2 587.6,56.2 588.8,56.2 590.0,56.2
591.1,55.6 592.3,63.9 593.5,67.0 594.6,67.6 595.8,68.4 597.0,66.8 598.1,58.3 599.3,67.6 600.5,66.5 601.6,68.1 602.8,69.8 604.0,70.2 605.1,70.2 606.3,68.8 607.5,68.4 608.6,65.4
609.8,65.4 611.0,65.3 612.1,64.4 613.3,64.4 614.5,65.2 615.6,65.0 616.8,65.1 618.0,64.8 619.1,65.8 620.3,65.5 621.5,61.2 622.6,62.4 623.8,62.9 625.0,65.5 626.1,65.5 627.3,63.5
628.5,64.7 629.6,66.1 630.8,67.7 632.0,64.1 633.1,64.3 634.3,64.9 635.5,64.9 636.6,64.9 637.8,64.9 639.0,64.4 640.1,65.1 641.3,64.0 642.5,63.0 643.6,63.0 644.8,62.7 646.0,62.3
647.1,62.3 648.3,60.5 649.5,61.8 650.6,61.8 651.8,61.9 653.0,61.9 654.1,62.1 655.3,54.1 656.5,66.7 657.6,68.2 658.8,68.2 660.0,67.9 661.1,67.8 662.3,67.8 663.5,67.8 664.6,72.3
665.8,73.2 667.0,74.0 668.1,74.0 669.3,74.0 670.5,67.9 671.6,69.1 672.8,71.2 674.0,65.4 675.1,65.4 676.3,66.4 677.5,66.4 678.6,66.6 679.8,65.4 681.0,66.0 682.1,65.0 683.3,68.8
684.5,66.2 685.6,66.2 686.8,66.2 688.0,69.4 689.1,68.8 690.3,69.0 691.5,73.1 692.6,73.1 693.8,67.8 695.0,67.8 696.1,67.8 697.3,67.3 698.5,71.3 699.6,68.5 700.8,66.2 702.0,66.2
703.1,74.4 704.3,64.8 705.5,69.7 706.6,66.8 707.8,66.8 709.0,66.1 710.1,68.2 711.3,63.6 712.5,70.4 713.6,69.0 714.8,72.9 716.0,65.4 717.1,63.6 718.3,63.6 719.5,65.5 720.6,64.4
721.8,65.9 723.0,65.4 724.1,65.9 725.3,65.6 726.5,66.8 727.6,65.7 728.8,68.5 730.0,66.9 731.1,67.9 732.3,67.9 733.5,73.7 734.6,76.4 735.8,69.8 737.0,65.9 738.1,71.5 739.3,71.5
740.5,74.3 741.6,71.0 742.8,69.5 744.0,68.8 745.1,69.9 746.3,70.9 747.5,70.9 748.6,67.4 749.8,67.7 751.0,66.8 752.1,66.4 753.3,65.1 754.5,65.1 755.6,61.7 756.8,62.7 758.0,66.4
759.1,66.4 760.3,66.4 761.5,66.4 762.6,65.8 763.8,66.1 765.0,66.1 766.1,66.1 767.3,66.2 768.5,68.6 769.6,69.2 770.8,69.2 772.0,67.3 773.1,68.7 774.3,68.7 775.5,68.7 776.6,68.0
777.8,68.0 779.0,67.9 780.1,67.9 781.3,63.6 782.5,64.6 783.6,70.3 784.8,69.7 786.0,68.5 787.1,68.7 788.3,68.7 789.5,68.1 790.6,70.9 791.8,70.9 793.0,70.9 794.1,70.8 795.3,62.7
796.5,63.2 797.6,64.6 798.8,65.8 800.0,65.8 801.1,65.8 802.3,65.8 803.5,65.8 804.6,65.7 805.8,65.7 807.0,65.7 808.1,66.9 809.3,66.9 810.5,71.9 811.6,71.5 812.8,61.6 814.0,67.0
815.1,67.0 816.3,70.9 817.5,70.5 818.6,65.2 819.8,63.9 821.0,71.8 822.1,71.8 823.3,71.8 824.5,72.6 825.6,74.3 826.8,67.1 828.0,67.2 829.1,63.4 830.3,67.8 831.5,63.2 832.6,74.2
833.8,75.3 835.0,74.8 836.1,66.6 837.3,71.3 838.5,74.4 839.6,72.8 840.8,73.4 842.0,73.0 843.1,70.6 844.3,70.6 845.5,71.3 846.6,71.3 847.8,68.5 849.0,71.8 850.1,66.8 851.3,66.8
852.5,67.1 853.6,65.4 854.8,65.9 856.0,65.9 857.1,65.3 858.3,64.1 859.5,64.5 860.6,62.3 861.8,62.8 863.0,60.6 864.1,63.2 865.3,62.6 866.5,63.5 867.6,63.9 868.8,63.0 870.0,64.7
871.1,67.3 872.3,67.3 873.5,67.3 874.6,63.3 875.8,63.4 877.0,61.7 878.1,67.8 879.3,64.2 880.5,64.2 881.6,62.9 882.8,62.5 884.0,62.5 885.1,62.9 886.3,62.9 887.5,62.4 888.6,59.6
889.8,59.0 891.0,58.0 892.1,57.2 893.3,63.3 894.5,63.3 895.6,63.3 896.8,62.7 898.0,62.6 899.1,59.1 900.3,61.1 901.5,61.6 902.6,61.7 903.8,60.6 905.0,58.8 906.1,58.7 907.3,57.3
908.5,57.4 909.6,57.0 910.8,57.7 912.0,59.0 913.1,61.3 914.3,62.0 915.5,61.9 916.6,60.3 917.8,61.5 919.0,66.5 920.1,64.3 921.3,64.3 922.5,65.8 923.6,64.5 924.8,64.4 926.0,64.4
927.1,62.8 928.3,68.8 929.5,67.5 930.6,67.5 931.8,66.7 933.0,67.3 934.1,68.4 935.3,68.2 936.5,68.2 937.6,68.4 938.8,67.0 940.0,67.2 941.1,67.2 942.3,67.4 943.5,67.4 944.6,69.3
945.8,65.4 947.0,60.5 948.1,60.5 949.3,61.8 950.5,61.5 951.6,65.4 952.8,65.5 954.0,65.7 955.1,68.8 956.3,73.8 957.5,74.4 958.6,74.7 959.8,74.7 961.0,67.6 962.1,65.7 963.3,67.2
964.5,67.1 965.7,69.5 966.8,67.4 968.0,60.6 969.2,59.2 970.3,60.8 971.5,60.8 972.7,69.0 973.8,69.0 975.0,69.0 976.2,69.0 977.3,69.0 978.5,65.0 979.7,65.0 980.8,65.8 982.0,65.6
983.2,65.6 984.3,64.7 985.5,64.6 986.7,64.6 987.8,65.0 989.0,66.0 990.2,65.2 991.3,65.2 992.5,65.2 993.7,65.1 994.8,64.7 996.0,63.4 997.2,65.2 998.3,65.2 999.5,64.0 1000.7,64.4
1001.8,63.6 1003.0,65.0 1004.2,65.0 1005.3,65.9 1006.5,65.9 1007.7,65.4 1008.8,65.4 1010.0,65.4 1011.2,66.1 1012.3,66.0 1013.5,67.3 1014.7,66.8 1015.8,66.2 1017.0,62.0 1018.2,61.6 1019.3,63.8
1020.5,64.1 1021.7,62.2 1022.8,63.8 1024.0,64.8 1025.2,64.4 1026.3,64.5 1027.5,64.5 1028.7,65.8 1029.8,60.4 1031.0,60.4 1032.2,56.4 1033.3,56.5 1034.5,56.5 1035.7,59.6 1036.8,62.4 1038.0,62.4
1039.2,63.2 1040.3,63.6 1041.5,63.6 1042.7,58.8 1043.8,58.8 1045.0,62.7 1046.2,62.8 1047.3,60.8 1048.5,60.2 1049.7,61.0 1050.8,60.9 1052.0,62.8 1053.2,62.5 1054.3,63.1 1055.5,63.3 1056.7,63.2
1057.8,63.5 1059.0,63.5 1060.2,63.5 1061.3,63.3 1062.5,63.7 1063.7,63.7 1064.8,63.7 1066.0,62.1 1067.2,59.3 1068.3,59.3 1069.5,59.3 1070.7,59.7 1071.8,59.7 1073.0,60.5 1074.2,60.5 1075.3,60.5
1076.5,61.5 1077.7,61.7 1078.8,63.0 1080.0,63.0 1081.2,61.0 1082.3,64.1 1083.5,60.1 1084.7,60.1 1085.8,61.3 1087.0,56.6 1088.2,58.5 1089.3,58.9 1090.5,59.8 1091.7,60.8 1092.8,60.0 1094.0,62.1
1095.2,62.8 1096.3,69.7 1097.5,69.9 1098.7,69.6 1099.8,66.6 1101.0,66.6 1102.2,67.5 1103.3,67.2 1104.5,68.9 1105.7,69.9 1106.8,70.4 1108.0,71.6 1109.2,71.2 1110.3,68.6 1111.5,68.6 1112.7,67.8
1113.8,68.6 1115.0,68.7 1116.2,66.2 1117.3,65.8 1118.5,69.6 1119.7,69.5 1120.8,69.6 1122.0,69.6 1123.2,69.6 1124.3,69.6 1125.5,71.7 1126.7,71.7 1127.8,71.7 1129.0,68.3 1130.2,70.4 1131.3,70.4
1132.5,69.7 1133.7,70.5 1134.8,70.1 1136.0,70.9 1137.2,70.9 1138.3,73.7 1139.5,68.9 1140.7,69.4 1141.8,69.5 1143.0,69.5 1144.2,69.5 1145.3,68.4 1146.5,74.1 1147.7,74.1 1148.8,68.6 1150.0,68.1
1151.2,68.2 1152.3,68.1 1153.5,68.1 1154.7,71.0 1155.8,69.3 1157.0,69.4 1158.2,69.4 1159.3,65.6 1160.5,66.6 1161.7,66.6 1162.8,67.7 1164.0,67.7 1165.2,67.7 1166.3,71.8 1167.5,72.0 1168.7,70.4
1169.8,64.1 1171.0,66.4 1172.2,69.1 1173.3,69.0 1174.5,65.8 1175.7,68.1 1176.8,65.4 1178.0,66.0 1179.2,65.5 1180.3,66.1 1181.5,66.0 1182.7,66.1 1183.8,65.9 1185.0,65.7 1186.2,65.9 1187.3,67.0
1188.5,67.0 1189.7,67.0 1190.8,67.0 1192.0,67.0 1193.2,65.9 1194.3,67.0 1195.5,66.0 1196.7,66.5 1197.8,67.0 1199.0,70.0 1200.2,71.1 1201.3,71.1 1202.5,71.2 1203.7,70.6 1204.8,70.4 1206.0,70.0
1207.2,73.7 1208.3,75.5 1209.5,74.0 1210.7,75.6 1211.8,75.2 1213.0,75.2 1214.2,75.2 1215.3,75.2 1216.5,74.4 1217.7,74.4 1218.8,73.4 1220.0,78.2 1221.2,74.6 1222.3,72.8 1223.5,75.0 1224.7,74.4
1225.8,75.8 1227.0,74.0 1228.2,73.7 1229.3,74.0 1230.5,75.7 1231.7,77.1 1232.8,77.1 1234.0,76.8 1235.2,77.5 1236.3,76.7 1237.5,76.4 1238.7,75.8 1239.8,72.1 1241.0,74.0 1242.2,70.6 1243.3,70.9
1244.5,70.1 1245.7,69.7 1246.8,66.6 1248.0,66.6 1249.2,67.1 1250.3,67.3 1251.5,68.3 1252.7,69.1 1253.8,65.5 1255.0,73.6 1255.0,703.4 87.1,703.4 '/>
	</g>
	<path stroke='rgb(148,   0, 211)'  d='M87.1,703.4 L88.3,289.4 L89.4,209.9 L90.6,214.3 L91.8,177.7 L92.9,157.3 L94.1,137.5 L95.3,143.2
		L96.4,128.0 L97.6,124.7 L98.8,124.0 L99.9,121.7 L101.1,111.5 L102.3,102.3 L103.4,129.6 L104.6,126.9
		L105.8,130.2 L106.9,123.3 L108.1,107.2 L109.3,115.2 L110.4,120.0 L111.6,117.4 L112.8,124.3 L113.9,106.6
		L115.1,106.9 L116.3,121.5 L117.4,106.5 L118.6,111.2 L119.8,108.9 L120.9,112.1 L122.1,113.7 L123.3,101.6
		L124.4,101.9 L125.6,100.3 L126.8,100.2 L127.9,87.9 L129.1,95.8 L130.3,105.1 L131.4,106.0 L132.6,107.0
		L133.8,103.2 L134.9,102.6 L136.1,95.3 L137.3,95.3 L138.4,99.0 L139.6,93.8 L140.8,94.0 L141.9,93.5
		L143.1,97.7 L144.3,94.4 L145.4,94.7 L146.6,98.6 L147.8,91.4 L148.9,100.4 L150.1,97.2 L151.3,94.2
		L152.4,93.3 L153.6,93.1 L154.8,89.5 L155.9,89.7 L157.1,92.5 L158.3,99.2 L159.4,99.2 L160.6,100.1
		L161.8,95.6 L162.9,93.7 L164.1,93.8 L165.3,93.8 L166.4,91.5 L167.6,85.6 L168.8,83.2 L169.9,87.9
		L171.1,88.3 L172.3,88.3 L173.4,88.3 L174.6,86.3 L175.8,96.6 L176.9,89.3 L178.1,96.2 L179.3,96.3
		L180.4,97.7 L181.6,92.9 L182.8,89.4 L183.9,93.1 L185.1,87.7 L186.3,83.7 L187.4,100.0 L188.6,81.3
		L189.8,81.3 L190.9,86.3 L192.1,86.8 L193.3,86.1 L194.4,80.5 L195.6,79.8 L196.8,86.6 L197.9,93.6
		L199.1,91.6 L200.3,90.8 L201.4,90.8 L202.6,91.8 L203.8,91.8 L204.9,89.9 L206.1,81.8 L207.3,82.8
		L208.4,92.0 L209.6,90.8 L210.8,88.2 L211.9,81.7 L213.1,80.7 L214.3,84.3 L215.4,84.7 L216.6,84.7
		L217.8,86.5 L218.9,86.5 L220.1,84.7 L221.3,89.0 L222.4,89.0 L223.6,87.9 L224.8,84.0 L225.9,86.8
		L227.1,84.4 L228.3,88.5 L229.4,88.5 L230.6,84.5 L231.8,84.5 L232.9,89.4 L234.1,85.1 L235.3,90.4
		L236.4,91.8 L237.6,91.8 L238.8,84.4 L239.9,93.4 L241.1,90.0 L242.3,94.1 L243.4,88.8 L244.6,87.6
		L245.8,87.6 L246.9,80.8 L248.1,88.4 L249.3,85.0 L250.4,93.8 L251.6,91.7 L252.8,92.3 L253.9,90.0
		L255.1,90.2 L256.3,90.2 L257.4,91.5 L258.6,86.1 L259.8,86.6 L260.9,90.4 L262.1,93.0 L263.3,92.0
		L264.4,89.8 L265.6,89.4 L266.8,85.2 L267.9,82.4 L269.1,79.1 L270.3,81.1 L271.4,81.2 L272.6,81.2
		L273.8,75.6 L274.9,75.6 L276.1,76.1 L277.3,74.6 L278.4,74.6 L279.6,74.5 L280.8,74.6 L281.9,72.6
		L283.1,65.5 L284.3,65.2 L285.4,65.2 L286.6,65.2 L287.8,68.8 L288.9,66.9 L290.1,70.1 L291.3,70.2
		L292.4,70.9 L293.6,69.5 L294.8,69.5 L295.9,69.5 L297.1,69.6 L298.3,69.3 L299.4,70.1 L300.6,70.1
		L301.8,71.3 L302.9,70.2 L304.1,70.3 L305.3,71.3 L306.4,70.7 L307.6,70.6 L308.8,70.2 L309.9,67.7
		L311.1,67.7 L312.3,67.7 L313.4,68.2 L314.6,68.2 L315.8,68.6 L316.9,66.9 L318.1,66.9 L319.3,66.9
		L320.4,66.9 L321.6,67.0 L322.8,67.5 L323.9,67.5 L325.1,69.3 L326.3,70.0 L327.4,68.3 L328.6,68.3
		L329.8,68.3 L330.9,68.4 L332.1,66.2 L333.3,66.4 L334.4,63.8 L335.6,63.8 L336.8,63.8 L337.9,63.8
		L339.1,63.7 L340.3,63.7 L341.4,63.8 L342.6,63.8 L343.8,63.8 L344.9,63.8 L346.1,63.0 L347.3,64.1
		L348.4,64.1 L349.6,64.1 L350.8,63.0 L351.9,65.3 L353.1,66.2 L354.3,69.6 L355.4,69.6 L356.6,68.1
		L357.8,70.1 L358.9,67.3 L360.1,69.7 L361.3,69.4 L362.4,68.9 L363.6,71.5 L364.8,71.2 L365.9,68.5
		L367.1,68.7 L368.3,68.7 L369.4,68.7 L370.6,67.8 L371.8,68.4 L372.9,68.4 L374.1,72.3 L375.3,72.3
		L376.4,72.9 L377.6,72.6 L378.8,72.3 L380.0,72.2 L381.1,72.2 L382.3,72.1 L383.5,73.2 L384.6,72.2
		L385.8,72.2 L387.0,69.8 L388.1,70.3 L389.3,70.5 L390.5,71.3 L391.6,71.4 L392.8,72.4 L394.0,72.4
		L395.1,71.6 L396.3,71.7 L397.5,70.3 L398.6,68.3 L399.8,68.3 L401.0,68.4 L402.1,68.4 L403.3,69.6
		L404.5,74.1 L405.6,74.4 L406.8,73.6 L408.0,74.4 L409.1,74.4 L410.3,73.4 L411.5,70.5 L412.6,69.9
		L413.8,70.6 L415.0,70.2 L416.1,70.2 L417.3,70.1 L418.5,72.0 L419.6,72.0 L420.8,69.0 L422.0,69.7
		L423.1,68.9 L424.3,68.9 L425.5,70.9 L426.6,73.2 L427.8,71.8 L429.0,71.1 L430.1,71.1 L431.3,71.1
		L432.5,71.5 L433.6,70.9 L434.8,70.7 L436.0,70.7 L437.1,73.2 L438.3,74.2 L439.5,74.1 L440.6,74.1
		L441.8,73.3 L443.0,73.3 L444.1,63.1 L445.3,62.9 L446.5,63.8 L447.6,65.7 L448.8,60.4 L450.0,60.4
		L451.1,67.2 L452.3,60.9 L453.5,60.9 L454.6,74.6 L455.8,76.6 L457.0,75.9 L458.1,76.1 L459.3,72.2
		L460.5,71.7 L461.6,68.7 L462.8,70.0 L464.0,69.1 L465.1,69.6 L466.3,70.1 L467.5,70.1 L468.6,72.0
		L469.8,71.6 L471.0,69.2 L472.1,69.1 L473.3,65.8 L474.5,71.3 L475.6,71.2 L476.8,71.3 L478.0,73.7
		L479.1,73.8 L480.3,72.8 L481.5,74.9 L482.6,72.7 L483.8,70.6 L485.0,72.5 L486.1,72.8 L487.3,72.8
		L488.5,72.5 L489.6,72.5 L490.8,72.5 L492.0,73.3 L493.1,73.3 L494.3,73.5 L495.5,73.5 L496.6,67.8
		L497.8,74.5 L499.0,70.7 L500.1,70.7 L501.3,70.7 L502.5,68.6 L503.6,71.3 L504.8,67.8 L506.0,64.6
		L507.1,63.7 L508.3,60.8 L509.5,63.4 L510.6,67.9 L511.8,67.9 L513.0,63.6 L514.1,72.2 L515.3,70.1
		L516.5,71.2 L517.6,72.2 L518.8,71.7 L520.0,66.2 L521.1,66.9 L522.3,65.6 L523.5,67.4 L524.6,64.2
		L525.8,65.0 L527.0,67.9 L528.1,68.5 L529.3,66.0 L530.5,65.9 L531.6,65.9 L532.8,65.5 L534.0,67.8
		L535.1,63.7 L536.3,64.2 L537.5,65.6 L538.6,55.8 L539.8,54.6 L541.0,55.5 L542.1,55.2 L543.3,57.6
		L544.5,61.7 L545.6,64.6 L546.8,64.6 L548.0,64.6 L549.1,61.4 L550.3,64.0 L551.5,60.4 L552.6,58.4
		L553.8,59.3 L555.0,59.2 L556.1,60.9 L557.3,59.7 L558.5,58.9 L559.6,60.9 L560.8,59.3 L562.0,60.4
		L563.1,59.8 L564.3,59.7 L565.5,57.9 L566.6,59.4 L567.8,68.1 L569.0,68.1 L570.1,62.6 L571.3,64.6
		L572.5,64.3 L573.6,68.3 L574.8,68.3 L576.0,68.3 L577.1,64.4 L578.3,64.4 L579.5,64.5 L580.6,64.4
		L581.8,64.2 L583.0,64.2 L584.1,62.9 L585.3,63.0 L586.5,62.2 L587.6,56.2 L588.8,56.2 L590.0,56.2
		L591.1,55.6 L592.3,63.9 L593.5,67.0 L594.6,67.6 L595.8,68.4 L597.0,66.8 L598.1,58.3 L599.3,67.6
		L600.5,66.5 L601.6,68.1 L602.8,69.8 L604.0,70.2 L605.1,70.2 L606.3,68.8 L607.5,68.4 L608.6,65.4
		L609.8,65.4 L611.0,65.3 L612.1,64.4 L613.3,64.4 L614.5,65.2 L615.6,65.0 L616.8,65.1 L618.0,64.8
		L619.1,65.8 L620.3,65.5 L621.5,61.2 L622.6,62.4 L623.8,62.9 L625.0,65.5 L626.1,65.5 L627.3,63.5
		L628.5,64.7 L629.6,66.1 L630.8,67.7 L632.0,64.1 L633.1,64.3 L634.3,64.9 L635.5,64.9 L636.6,64.9
		L637.8,64.9 L639.0,64.4 L640.1,65.1 L641.3,64.0 L642.5,63.0 L643.6,63.0 L644.8,62.7 L646.0,62.3
		L647.1,62.3 L648.3,60.5 L649.5,61.8 L650.6,61.8 L651.8,61.9 L653.0,61.9 L654.1,62.1 L655.3,54.1
		L656.5,66.7 L657.6,68.2 L658.8,68.2 L660.0,67.9 L661.1,67.8 L662.3,67.8 L663.5,67.8 L664.6,72.3
		L665.8,73.2 L667.0,74.0 L668.1,74.0 L669.3,74.0 L670.5,67.9 L671.6,69.1 L672.8,71.2 L674.0,65.4
		L675.1,65.4 L676.3,66.4 L677.5,66.4 L678.6,66.6 L679.8,65.4 L681.0,66.0 L682.1,65.0 L683.3,68.8
		L684.5,66.2 L685.6,66.2 L686.8,66.2 L688.0,69.4 L689.1,68.8 L690.3,69.0 L691.5,73.1 L692.6,73.1
		L693.8,67.8 L695.0,67.8 L696.1,67.8 L697.3,67.3 L698.5,71.3 L699.6,68.5 L700.8,66.2 L702.0,66.2
		L703.1,74.4 L704.3,64.8 L705.5,69.7 L706.6,66.8 L707.8,66.8 L709.0,66.1 L710.1,68.2 L711.3,63.6
		L712.5,70.4 L713.6,69.0 L714.8,72.9 L716.0,65.4 L717.1,63.6 L718.3,63.6 L719.5,65.5 L720.6,64.4
		L721.8,65.9 L723.0,65.4 L724.1,65.9 L725.3,65.6 L726.5,66.8 L727.6,65.7 L728.8,68.5 L730.0,66.9
		L731.1,67.9 L732.3,67.9 L733.5,73.7 L734.6,76.4 L735.8,69.8 L737.0,65.9 L738.1,71.5 L739.3,71.5
		L740.5,74.3 L741.6,71.0 L742.8,69.5 L744.0,68.8 L745.1,69.9 L746.3,70.9 L747.5,70.9 L748.6,67.4
		L749.8,67.7 L751.0,66.8 L752.1,66.4 L753.3,65.1 L754.5,65.1 L755.6,61.7 L756.8,62.7 L758.0,66.4
		L759.1,66.4 L760.3,66.4 L761.5,66.4 L762.6,65.8 L763.8,66.1 L765.0,66.1 L766.1,66.1 L767.3,66.2
		L768.5,68.6 L769.6,69.2 L770.8,69.2 L772.0,67.3 L773.1,68.7 L774.3,68.7 L775.5,68.7 L776.6,68.0
		L777.8,68.0 L779.0,67.9 L780.1,67.9 L781.3,63.6 L782.5,64.6 L783.6,70.3 L784.8,69.7 L786.0,68.5
		L787.1,68.7 L788.3,68.7 L789.5,68.1 L790.6,70.9 L791.8,70.9 L793.0,70.9 L794.1,70.8 L795.3,62.7
		L796.5,63.2 L797.6,64.6 L798.8,65.8 L800.0,65.8 L801.1,65.8 L802.3,65.8 L803.5,65.8 L804.6,65.7
		L805.8,65.7 L807.0,65.7 L808.1,66.9 L809.3,66.9 L810.5,71.9 L811.6,71.5 L812.8,61.6 L814.0,67.0
		L815.1,67.0 L816.3,70.9 L817.5,70.5 L818.6,65.2 L819.8,63.9 L821.0,71.8 L822.1,71.8 L823.3,71.8
		L824.5,72.6 L825.6,74.3 L826.8,67.1 L828.0,67.2 L829.1,63.4 L830.3,67.8 L831.5,63.2 L832.6,74.2
		L833.8,75.3 L835.0,74.8 L836.1,66.6 L837.3,71.3 L838.5,74.4 L839.6,72.8 L840.8,73.4 L842.0,73.0
		L843.1,70.6 L844.3,70.6 L845.5,71.3 L846.6,71.3 L847.8,68.5 L849.0,71.8 L850.1,66.8 L851.3,66.8
		L852.5,67.1 L853.6,65.4 L854.8,65.9 L856.0,65.9 L857.1,65.3 L858.3,64.1 L859.5,64.5 L860.6,62.3
		L861.8,62.8 L863.0,60.6 L864.1,63.2 L865.3,62.6 L866.5,63.5 L867.6,63.9 L868.8,63.0 L870.0,64.7
		L871.1,67.3 L872.3,67.3 L873.5,67.3 L874.6,63.3 L875.8,63.4 L877.0,61.7 L878.1,67.8 L879.3,64.2
		L880.5,64.2 L881.6,62.9 L882.8,62.5 L884.0,62.5 L885.1,62.9 L886.3,62.9 L887.5,62.4 L888.6,59.6
		L889.8,59.0 L891.0,58.0 L892.1,57.2 L893.3,63.3 L894.5,63.3 L895.6,63.3 L896.8,62.7 L898.0,62.6
		L899.1,59.1 L900.3,61.1 L901.5,61.6 L902.6,61.7 L903.8,60.6 L905.0,58.8 L906.1,58.7 L907.3,57.3
		L908.5,57.4 L909.6,57.0 L910.8,57.7 L912.0,59.0 L913.1,61.3 L914.3,62.0 L915.5,61.9 L916.6,60.3
		L917.8,61.5 L919.0,66.5 L920.1,64.3 L921.3,64.3 L922.5,65.8 L923.6,64.5 L924.8,64.4 L926.0,64.4
		L927.1,62.8 L928.3,68.8 L929.5,67.5 L930.6,67.5 L931.8,66.7 L933.0,67.3 L934.1,68.4 L935.3,68.2
		L936.5,68.2 L937.6,68.4 L938.8,67.0 L940.0,67.2 L941.1,67.2 L942.3,67.4 L943.5,67.4 L944.6,69.3
		L945.8,65.4 L947.0,60.5 L948.1,60.5 L949.3,61.8 L950.5,61.5 L951.6,65.4 L952.8,65.5 L954.0,65.7
		L955.1,68.8 L956.3,73.8 L957.5,74.4 L958.6,74.7 L959.8,74.7 L961.0,67.6 L962.1,65.7 L963.3,67.2
		L964.5,67.1 L965.7,69.5 L966.8,67.4 L968.0,60.6 L969.2,59.2 L970.3,60.8 L971.5,60.8 L972.7,69.0
		L973.8,69.0 L975.0,69.0 L976.2,69.0 L977.3,69.0 L978.5,65.0 L979.7,65.0 L980.8,65.8 L982.0,65.6
		L983.2,65.6 L984.3,64.7 L985.5,64.6 L986.7,64.6 L987.8,65.0 L989.0,66.0 L990.2,65.2 L991.3,65.2
		L992.5,65.2 L993.7,65.1 L994.8,64.7 L996.0,63.4 L997.2,65.2 L998.3,65.2 L999.5,64.0 L1000.7,64.4
		L1001.8,63.6 L1003.0,65.0 L1004.2,65.0 L1005.3,65.9 L1006.5,65.9 L1007.7,65.4 L1008.8,65.4 L1010.0,65.4
		L1011.2,66.1 L1012.3,66.0 L1013.5,67.3 L1014.7,66.8 L1015.8,66.2 L1017.0,62.0 L1018.2,61.6 L1019.3,63.8
		L1020.5,64.1 L1021.7,62.2 L1022.8,63.8 L1024.0,64.8 L1025.2,64.4 L1026.3,64.5 L1027.5,64.5 L1028.7,65.8
		L1029.8,60.4 L1031.0,60.4 L1032.2,56.4 L1033.3,56.5 L1034.5,56.5 L1035.7,59.6 L1036.8,62.4 L1038.0,62.4
		L1039.2,63.2 L1040.3,63.6 L1041.5,63.6 L1042.7,58.8 L1043.8,58.8 L1045.0,62.7 L1046.2,62.8 L1047.3,60.8
		L1048.5,60.2 L1049.7,61.0 L1050.8,60.9 L1052.0,62.8 L1053.2,62.5 L1054.3,63.1 L1055.5,63.3 L1056.7,63.2
		L1057.8,63.5 L1059.0,63.5 L1060.2,63.5 L1061.3,63.3 L1062.5,63.7 L1063.7,63.7 L1064.8,63.7 L1066.0,62.1
		L1067.2,59.3 L1068.3,59.3 L1069.5,59.3 L1070.7,59.7 L1071.8,59.7 L1073.0,60.5 L1074.2,60.5 L1075.3,60.5
		L1076.5,61.5 L1077.7,61.7 L1078.8,63.0 L1080.0,63.0 L1081.2,61.0 L1082.3,64.1 L1083.5,60.1 L1084.7,60.1
		L1085.8,61.3 L1087.0,56.6 L1088.2,58.5 L1089.3,58.9 L1090.5,59.8 L1091.7,60.8 L1092.8,60.0 L1094.0,62.1
		L1095.2,62.8 L1096.3,69.7 L1097.5,69.9 L1098.7,69.6 L1099.8,66.6 L1101.0,66.6 L1102.2,67.5 L1103.3,67.2
		L1104.5,68.9 L1105.7,69.9 L1106.8,70.4 L1108.0,71.6 L1109.2,71.2 L1110.3,68.6 L1111.5,68.6 L1112.7,67.8
		L1113.8,68.6 L1115.0,68.7 L1116.2,66.2 L1117.3,65.8 L1118.5,69.6 L1119.7,69.5 L1120.8,69.6 L1122.0,69.6
		L1123.2,69.6 L1124.3,69.6 L1125.5,71.7 L1126.7,71.7 L1127.8,71.7 L1129.0,68.3 L1130.2,70.4 L1131.3,70.4
		L1132.5,69.7 L1133.7,70.5 L1134.8,70.1 L1136.0,70.9 L1137.2,70.9 L1138.3,73.7 L1139.5,68.9 L1140.7,69.4
		L1141.8,69.5 L1143.0,69.5 L1144.2,69.5 L1145.3,68.4 L1146.5,74.1 L1147.7,74.1 L1148.8,68.6 L1150.0,68.1
		L1151.2,68.2 L1152.3,68.1 L1153.5,68.1 L1154.7,71.0 L1155.8,69.3 L1157.0,69.4 L1158.2,69.4 L1159.3,65.6
		L1160.5,66.6 L1161.7,66.6 L1162.8,67.7 L1164.0,67.7 L1165.2,67.7 L1166.3,71.8 L1167.5,72.0 L1168.7,70.4
		L1169.8,64.1 L1171.0,66.4 L1172.2,69.1 L1173.3,69.0 L1174.5,65.8 L1175.7,68.1 L1176.8,65.4 L1178.0,66.0
		L1179.2,65.5 L1180.3,66.1 L1181.5,66.0 L1182.7,66.1 L1183.8,65.9 L1185.0,65.7 L1186.2,65.9 L1187.3,67.0
		L1188.5,67.0 L1189.7,67.0 L1190.8,67.0 L1192.0,67.0 L1193.2,65.9 L1194.3,67.0 L1195.5,66.0 L1196.7,66.5
		L1197.8,67.0 L1199.0,70.0 L1200.2,71.1 L1201.3,71.1 L1202.5,71.2 L1203.7,70.6 L1204.8,70.4 L1206.0,70.0
		L1207.2,73.7 L1208.3,75.5 L1209.5,74.0 L1210.7,75.6 L1211.8,75.2 L1213.0,75.2 L1214.2,75.2 L1215.3,75.2
		L1216.5,74.4 L1217.7,74.4 L1218.8,73.4 L1220.0,78.2 L1221.2,74.6 L1222.3,72.8 L1223.5,75.0 L1224.7,74.4
		L1225.8,75.8 L1227.0,74.0 L1228.2,73.7 L1229.3,74.0 L1230.5,75.7 L1231.7,77.1 L1232.8,77.1 L1234.0,76.8
		L1235.2,77.5 L1236.3,76.7 L1237.5,76.4 L1238.7,75.8 L1239.8,72.1 L1241.0,74.0 L1242.2,70.6 L1243.3,70.9
		L1244.5,70.1 L1245.7,69.7 L1246.8,66.6 L1248.0,66.6 L1249.2,67.1 L1250.3,67.3 L1251.5,68.3 L1252.7,69.1
		L1253.8,65.5 L1255.0,73.6  '/></g>
	</g>
	<g id="gnuplot_plot_2" ><title>trendline (m=0.004757,b=-224.342127)</title>
<g fill="none" color="black" stroke="currentColor" stroke-width="1.00" stroke-linecap="butt" stroke-linejoin="miter">
	<g transform="translate(1187.9,94.0)" stroke="none" fill="black" font-family="Arial" font-size="12.00"  text-anchor="end">
		<text><tspan font-family="Arial" >trendline (m=0.004757,b=-224.342127)</tspan></text>
	</g>
</g>
<g fill="none" color="black" stroke="currentColor" stroke-width="1.00" stroke-linecap="butt" stroke-linejoin="miter">
	<path stroke='black'  d='M1196.2,90.1 L1238.4,90.1 M87.1,88.5 L98.9,88.1 L110.7,87.8 L122.5,87.5 L134.3,87.2 L146.1,86.9
		L157.9,86.6 L169.7,86.2 L181.5,85.9 L193.3,85.6 L205.1,85.3 L216.9,85.0 L228.7,84.7 L240.5,84.3
		L252.3,84.0 L264.1,83.7 L275.9,83.4 L287.6,83.1 L299.4,82.7 L311.2,82.4 L323.0,82.1 L334.8,81.8
		L346.6,81.5 L358.4,81.2 L370.2,80.8 L382.0,80.5 L393.8,80.2 L405.6,79.9 L417.4,79.6 L429.2,79.3
		L441.0,78.9 L452.8,78.6 L464.6,78.3 L476.4,78.0 L488.2,77.7 L500.0,77.4 L511.8,77.0 L523.6,76.7
		L535.4,76.4 L547.2,76.1 L559.0,75.8 L570.8,75.5 L582.6,75.1 L594.4,74.8 L606.2,74.5 L618.0,74.2
		L629.8,73.9 L641.6,73.6 L653.4,73.2 L665.2,72.9 L676.9,72.6 L688.7,72.3 L700.5,72.0 L712.3,71.6
		L724.1,71.3 L735.9,71.0 L747.7,70.7 L759.5,70.4 L771.3,70.1 L783.1,69.7 L794.9,69.4 L806.7,69.1
		L818.5,68.8 L830.3,68.5 L842.1,68.2 L853.9,67.8 L865.7,67.5 L877.5,67.2 L889.3,66.9 L901.1,66.6
		L912.9,66.3 L924.7,65.9 L936.5,65.6 L948.3,65.3 L960.1,65.0 L971.9,64.7 L983.7,64.4 L995.5,64.0
		L1007.3,63.7 L1019.1,63.4 L1030.9,63.1 L1042.7,62.8 L1054.5,62.4 L1066.2,62.1 L1078.0,61.8 L1089.8,61.5
		L1101.6,61.2 L1113.4,60.9 L1125.2,60.5 L1137.0,60.2 L1148.8,59.9 L1160.6,59.6 L1172.4,59.3 L1184.2,59.0
		L1196.0,58.6 L1207.8,58.3 L1219.6,58.0 L1231.4,57.7 L1243.2,57.4 L1255.0,57.1  '/></g>
	</g>
<g fill="none" color="white" stroke="black" stroke-width="2.00" stroke-linecap="butt" stroke-linejoin="miter">
</g>
<g fill="none" color="black" stroke="currentColor" stroke-width="2.00" stroke-linecap="butt" stroke-linejoin="miter">
</g>
<g fill="none" color="black" stroke="black" stroke-width="1.00" stroke-linecap="butt" stroke-linejoin="miter">
</g>
<g fill="none" color="black" stroke="currentColor" stroke-width="1.00" stroke-linecap="butt" stroke-linejoin="miter">
	<path stroke='black'  d='M87.1,54.1 L87.1,703.4 L1255.0,703.4 L1255.0,54.1 L87.1,54.1 Z  '/></g>
<g fill="none" color="black" stroke="currentColor" stroke-width="1.00" stroke-linecap="butt" stroke-linejoin="miter">
</g>
</g>
</svg>

