<?xml version="1.0" encoding="utf-8"  standalone="no"?>
<svg 
 width="1280" height="720"
 viewBox="0 0 1280 720"
 xmlns="http://www.w3.org/2000/svg"
 xmlns:xlink="http://www.w3.org/1999/xlink"
>

<title>Gnuplot</title>
<desc>Produced by GNUPLOT 5.2 patchlevel 2 </desc>

<g id="gnuplot_canvas">

<rect x="0" y="0" width="1280" height="720" fill="none"/>
<defs>

	<circle id='gpDot' r='0.5' stroke-width='0.5'/>
	<path id='gpPt0' stroke-width='0.222' stroke='currentColor' d='M-1,0 h2 M0,-1 v2'/>
	<path id='gpPt1' stroke-width='0.222' stroke='currentColor' d='M-1,-1 L1,1 M1,-1 L-1,1'/>
	<path id='gpPt2' stroke-width='0.222' stroke='currentColor' d='M-1,0 L1,0 M0,-1 L0,1 M-1,-1 L1,1 M-1,1 L1,-1'/>
	<rect id='gpPt3' stroke-width='0.222' stroke='currentColor' x='-1' y='-1' width='2' height='2'/>
	<rect id='gpPt4' stroke-width='0.222' stroke='currentColor' fill='currentColor' x='-1' y='-1' width='2' height='2'/>
	<circle id='gpPt5' stroke-width='0.222' stroke='currentColor' cx='0' cy='0' r='1'/>
	<use xlink:href='#gpPt5' id='gpPt6' fill='currentColor' stroke='none'/>
	<path id='gpPt7' stroke-width='0.222' stroke='currentColor' d='M0,-1.33 L-1.33,0.67 L1.33,0.67 z'/>
	<use xlink:href='#gpPt7' id='gpPt8' fill='currentColor' stroke='none'/>
	<use xlink:href='#gpPt7' id='gpPt9' stroke='currentColor' transform='rotate(180)'/>
	<use xlink:href='#gpPt9' id='gpPt10' fill='currentColor' stroke='none'/>
	<use xlink:href='#gpPt3' id='gpPt11' stroke='currentColor' transform='rotate(45)'/>
	<use xlink:href='#gpPt11' id='gpPt12' fill='currentColor' stroke='none'/>
	<path id='gpPt13' stroke-width='0.222' stroke='currentColor' d='M0,1.330 L1.265,0.411 L0.782,-1.067 L-0.782,-1.076 L-1.265,0.411 z'/>
	<use xlink:href='#gpPt13' id='gpPt14' fill='currentColor' stroke='none'/>
	<filter id='textbox' filterUnits='objectBoundingBox' x='0' y='0' height='1' width='1'>
	  <feFlood flood-color='white' flood-opacity='1' result='bgnd'/>
	  <feComposite in='SourceGraphic' in2='bgnd' operator='atop'/>
	</filter>
	<filter id='greybox' filterUnits='objectBoundingBox' x='0' y='0' height='1' width='1'>
	  <feFlood flood-color='lightgrey' flood-opacity='1' result='grey'/>
	  <feComposite in='SourceGraphic' in2='grey' operator='atop'/>
	</filter>
</defs>
<g fill="none" color="white" stroke="currentColor" stroke-width="1.00" stroke-linecap="butt" stroke-linejoin="miter">
</g>
<g fill="none" color="black" stroke="currentColor" stroke-width="1.00" stroke-linecap="butt" stroke-linejoin="miter">
	<path stroke='black'  d='M87.1,703.4 L96.1,703.4 M1255.0,703.4 L1246.0,703.4  '/>	<g transform="translate(78.8,707.3)" stroke="none" fill="black" font-family="Arial" font-size="12.00"  text-anchor="end">
		<text><tspan font-family="Arial" >-131.682</tspan></text>
	</g>
</g>
<g fill="none" color="black" stroke="currentColor" stroke-width="1.00" stroke-linecap="butt" stroke-linejoin="miter">
	<path stroke='black'  d='M87.1,158.7 L96.1,158.7 M1255.0,158.7 L1246.0,158.7  '/>	<g transform="translate(78.8,162.6)" stroke="none" fill="black" font-family="Arial" font-size="12.00"  text-anchor="end">
		<text><tspan font-family="Arial" >-30.3612</tspan></text>
	</g>
</g>
<g fill="none" color="black" stroke="currentColor" stroke-width="1.00" stroke-linecap="butt" stroke-linejoin="miter">
	<path stroke='black'  d='M87.1,54.1 L96.1,54.1 M1255.0,54.1 L1246.0,54.1  '/>	<g transform="translate(78.8,58.0)" stroke="none" fill="black" font-family="Arial" font-size="12.00"  text-anchor="end">
		<text><tspan font-family="Arial" >-10.902</tspan></text>
	</g>
</g>
<g fill="none" color="black" stroke="currentColor" stroke-width="1.00" stroke-linecap="butt" stroke-linejoin="miter">
</g>
<g fill="none" color="black" stroke="currentColor" stroke-width="1.00" stroke-linecap="butt" stroke-linejoin="miter">
	<path stroke='black'  d='M87.1,54.1 L87.1,703.4 L1255.0,703.4 L1255.0,54.1 L87.1,54.1 Z  '/></g>
<g fill="none" color="black" stroke="currentColor" stroke-width="1.00" stroke-linecap="butt" stroke-linejoin="miter">
	<g transform="translate(671.0,31.0)" stroke="none" fill="black" font-family="Arial" font-size="12.00"  text-anchor="middle">
		<text><tspan font-family="Arial" >Material 31, 4 components</tspan></text>
	</g>
</g>
	<g id="gnuplot_plot_1" ><title>log(likelihood)</title>
<g fill="none" color="black" stroke="currentColor" stroke-width="1.00" stroke-linecap="butt" stroke-linejoin="miter">
	<g transform="translate(1187.9,76.0)" stroke="none" fill="black" font-family="Arial" font-size="12.00"  text-anchor="end">
		<text><tspan font-family="Arial" >log(likelihood)</tspan></text>
	</g>
</g>
<g fill="none" color="black" stroke="currentColor" stroke-width="1.00" stroke-linecap="butt" stroke-linejoin="miter">
	<g stroke='none' shape-rendering='crispEdges'>
		<polygon fill = 'rgb(148,   0, 211)' fill-opacity = '0.100000' points = '1196.2,76.6 1238.4,76.6 1238.4,67.6 1196.2,67.6 '/>
	</g>
	<path stroke='rgb(148,   0, 211)'  d='M1196.2,76.6 L1238.4,76.6 L1238.4,67.6 L1196.2,67.6 L1196.2,76.6 Z  '/></g>
<g fill="none" color="black" stroke="currentColor" stroke-width="1.00" stroke-linecap="butt" stroke-linejoin="miter">
	<g stroke='none' shape-rendering='crispEdges'>
		<polygon fill = 'rgb(148,   0, 211)' fill-opacity = '0.100000' points = '87.1,703.4 89.5,689.2 92.0,689.6 94.4,695.3 96.9,693.1 99.3,696.0 101.8,695.6 104.2,701.4 106.6,696.4 109.1,691.5 111.5,695.4 114.0,693.7 116.4,696.3 118.9,692.3 121.3,694.8 123.7,691.5
126.2,690.4 128.6,690.9 131.1,690.9 133.5,692.1 136.0,695.3 138.4,689.2 140.9,689.2 143.3,676.4 145.7,683.3 148.2,682.8 150.6,679.3 153.1,683.6 155.5,683.6 158.0,677.6 160.4,683.8 162.8,661.4
165.3,654.6 167.7,658.6 170.2,648.5 172.6,644.7 175.1,648.5 177.5,648.0 179.9,644.6 182.4,615.8 184.8,613.2 187.3,594.6 189.7,574.2 192.2,576.2 194.6,568.4 197.0,565.9 199.5,565.9 201.9,569.2
204.4,558.7 206.8,563.2 209.3,550.7 211.7,551.5 214.2,548.9 216.6,541.9 219.0,537.3 221.5,537.2 223.9,529.9 226.4,535.7 228.8,504.1 231.3,504.1 233.7,511.2 236.1,509.1 238.6,492.4 241.0,489.0
243.5,468.8 245.9,469.0 248.4,455.4 250.8,454.2 253.2,437.5 255.7,415.9 258.1,423.0 260.6,424.0 263.0,416.7 265.5,406.3 267.9,413.0 270.3,406.1 272.8,394.0 275.2,387.2 277.7,372.9 280.1,359.8
282.6,348.1 285.0,333.1 287.5,329.4 289.9,294.1 292.3,271.1 294.8,249.1 297.2,238.3 299.7,238.0 302.1,210.9 304.6,214.6 307.0,209.3 309.4,203.9 311.9,166.6 314.3,149.4 316.8,147.7 319.2,157.5
321.7,131.9 324.1,133.8 326.5,131.7 329.0,129.4 331.4,121.3 333.9,125.2 336.3,114.6 338.8,120.9 341.2,111.8 343.6,103.9 346.1,101.0 348.5,105.1 351.0,113.8 353.4,102.1 355.9,105.0 358.3,99.4
360.8,91.7 363.2,93.0 365.6,88.1 368.1,87.3 370.5,97.0 373.0,87.1 375.4,94.0 377.9,82.5 380.3,71.9 382.7,80.2 385.2,72.6 387.6,75.4 390.1,72.6 392.5,72.2 395.0,74.5 397.4,70.8
399.8,73.7 402.3,76.5 404.7,68.9 407.2,79.1 409.6,64.4 412.1,72.4 414.5,68.7 416.9,72.4 419.4,62.4 421.8,72.0 424.3,66.0 426.7,66.6 429.2,70.1 431.6,68.4 434.0,71.6 436.5,64.0
438.9,68.1 441.4,66.5 443.8,65.1 446.3,69.3 448.7,68.3 451.2,64.4 453.6,65.6 456.0,68.0 458.5,66.1 460.9,70.7 463.4,63.2 465.8,63.7 468.3,64.2 470.7,65.8 473.1,69.0 475.6,67.8
478.0,66.5 480.5,63.9 482.9,66.5 485.4,69.8 487.8,66.8 490.2,69.9 492.7,70.0 495.1,69.3 497.6,68.9 500.0,60.9 502.5,65.5 504.9,68.6 507.3,68.6 509.8,63.1 512.2,61.5 514.7,57.7
517.1,64.2 519.6,62.0 522.0,68.1 524.5,61.4 526.9,61.3 529.3,66.1 531.8,56.4 534.2,58.9 536.7,58.9 539.1,58.6 541.6,54.1 544.0,58.9 546.4,59.0 548.9,68.1 551.3,65.4 553.8,60.1
556.2,65.0 558.7,65.2 561.1,64.4 563.5,68.0 566.0,63.3 568.4,68.9 570.9,64.0 573.3,66.9 575.8,61.1 578.2,58.8 580.6,63.3 583.1,63.3 585.5,64.9 588.0,58.1 590.4,64.2 592.9,63.7
595.3,61.7 597.8,54.9 600.2,68.6 602.6,65.0 605.1,62.4 607.5,70.1 610.0,67.6 612.4,61.0 614.9,67.4 617.3,61.5 619.7,60.8 622.2,62.6 624.6,65.4 627.1,61.9 629.5,63.9 632.0,62.3
634.4,64.4 636.8,62.6 639.3,62.1 641.7,62.6 644.2,62.7 646.6,62.7 649.1,60.4 651.5,64.3 653.9,63.2 656.4,60.1 658.8,65.4 661.3,62.7 663.7,61.9 666.2,62.7 668.6,62.7 671.1,57.9
673.5,60.2 675.9,60.1 678.4,63.3 680.8,65.4 683.3,64.6 685.7,64.6 688.2,63.1 690.6,65.9 693.0,63.3 695.5,66.6 697.9,63.2 700.4,60.8 702.8,62.7 705.3,62.5 707.7,63.0 710.1,62.3
712.6,61.4 715.0,61.4 717.5,66.4 719.9,61.5 722.4,62.5 724.8,60.5 727.2,62.3 729.7,63.6 732.1,64.8 734.6,62.8 737.0,63.4 739.5,64.7 741.9,61.7 744.3,62.4 746.8,61.0 749.2,60.9
751.7,61.1 754.1,58.8 756.6,62.8 759.0,60.3 761.5,61.3 763.9,62.9 766.3,60.6 768.8,64.5 771.2,58.8 773.7,61.9 776.1,59.7 778.6,66.6 781.0,63.3 783.4,58.5 785.9,64.5 788.3,61.7
790.8,61.8 793.2,65.0 795.7,63.7 798.1,66.9 800.5,66.9 803.0,65.8 805.4,62.3 807.9,64.8 810.3,66.6 812.8,61.9 815.2,65.9 817.6,62.7 820.1,60.6 822.5,58.6 825.0,61.0 827.4,56.7
829.9,60.2 832.3,59.6 834.8,64.1 837.2,60.5 839.6,61.2 842.1,59.7 844.5,63.1 847.0,58.2 849.4,59.2 851.9,59.6 854.3,61.6 856.7,60.5 859.2,64.1 861.6,62.2 864.1,64.1 866.5,63.1
869.0,61.5 871.4,59.6 873.8,61.9 876.3,65.2 878.7,65.0 881.2,60.5 883.6,62.6 886.1,58.2 888.5,63.3 890.9,65.8 893.4,63.9 895.8,62.9 898.3,58.1 900.7,61.0 903.2,67.5 905.6,61.6
908.1,63.3 910.5,61.8 912.9,66.5 915.4,65.6 917.8,67.7 920.3,64.6 922.7,65.0 925.2,67.2 927.6,63.5 930.0,71.1 932.5,62.3 934.9,60.3 937.4,68.0 939.8,59.8 942.3,55.7 944.7,60.3
947.1,67.2 949.6,62.3 952.0,61.7 954.5,62.9 956.9,65.5 959.4,61.1 961.8,57.6 964.2,62.2 966.7,63.7 969.1,64.3 971.6,56.9 974.0,54.2 976.5,60.7 978.9,64.3 981.3,64.0 983.8,64.2
986.2,60.7 988.7,63.5 991.1,62.7 993.6,60.8 996.0,56.8 998.5,58.8 1000.9,56.8 1003.3,59.2 1005.8,57.1 1008.2,62.5 1010.7,61.5 1013.1,61.3 1015.6,60.4 1018.0,64.9 1020.4,67.9 1022.9,63.9
1025.3,65.6 1027.8,64.0 1030.2,65.2 1032.7,61.8 1035.1,60.0 1037.5,59.2 1040.0,62.3 1042.4,57.1 1044.9,59.9 1047.3,59.6 1049.8,55.3 1052.2,55.4 1054.6,58.6 1057.1,58.0 1059.5,58.4 1062.0,59.1
1064.4,59.3 1066.9,58.6 1069.3,57.0 1071.8,59.6 1074.2,59.6 1076.6,59.5 1079.1,58.3 1081.5,55.2 1084.0,58.1 1086.4,58.1 1088.9,57.3 1091.3,65.9 1093.7,67.2 1096.2,70.3 1098.6,59.9 1101.1,63.7
1103.5,61.5 1106.0,61.2 1108.4,60.5 1110.8,63.5 1113.3,61.5 1115.7,62.9 1118.2,59.5 1120.6,64.1 1123.1,61.2 1125.5,60.9 1127.9,60.1 1130.4,66.7 1132.8,58.1 1135.3,62.4 1137.7,64.3 1140.2,62.7
1142.6,65.7 1145.1,66.5 1147.5,65.3 1149.9,63.0 1152.4,61.8 1154.8,58.8 1157.3,63.3 1159.7,56.2 1162.2,67.1 1164.6,63.1 1167.0,65.1 1169.5,60.0 1171.9,60.3 1174.4,57.8 1176.8,59.5 1179.3,59.4
1181.7,61.5 1184.1,65.4 1186.6,64.6 1189.0,60.9 1191.5,57.7 1193.9,58.0 1196.4,57.2 1198.8,57.2 1201.2,61.0 1203.7,59.8 1206.1,60.6 1208.6,61.1 1211.0,59.6 1213.5,59.0 1215.9,61.3 1218.4,60.4
1220.8,63.6 1223.2,58.4 1225.7,65.0 1228.1,63.8 1230.6,64.7 1233.0,64.9 1235.5,63.4 1237.9,66.3 1240.3,64.3 1242.8,63.1 1245.2,65.4 1247.7,67.0 1250.1,61.6 1252.6,59.8 1255.0,62.0 1255.0,703.4
87.1,703.4 '/>
	</g>
</g>
	</g>
	<g id="gnuplot_plot_2" ><title>trendline (m=0.186712,b=-74.985353)</title>
<g fill="none" color="black" stroke="currentColor" stroke-width="1.00" stroke-linecap="butt" stroke-linejoin="miter">
	<g transform="translate(1187.9,94.0)" stroke="none" fill="black" font-family="Arial" font-size="12.00"  text-anchor="end">
		<text><tspan font-family="Arial" >trendline (m=0.186712,b=-74.985353)</tspan></text>
	</g>
</g>
<g fill="none" color="black" stroke="currentColor" stroke-width="1.00" stroke-linecap="butt" stroke-linejoin="miter">
	<path stroke='black'  d='M1196.2,90.1 L1238.4,90.1 M87.1,398.6 L98.9,393.8 L110.7,388.9 L122.5,384.1 L134.3,379.2 L146.1,374.4
		L157.9,369.5 L169.7,364.7 L181.5,359.8 L193.3,355.0 L205.1,350.1 L216.9,345.3 L228.7,340.4 L240.5,335.6
		L252.3,330.8 L264.1,325.9 L275.9,321.1 L287.6,316.2 L299.4,311.4 L311.2,306.5 L323.0,301.7 L334.8,296.8
		L346.6,292.0 L358.4,287.1 L370.2,282.3 L382.0,277.4 L393.8,272.6 L405.6,267.8 L417.4,262.9 L429.2,258.1
		L441.0,253.2 L452.8,248.4 L464.6,243.5 L476.4,238.7 L488.2,233.8 L500.0,229.0 L511.8,224.1 L523.6,219.3
		L535.4,214.4 L547.2,209.6 L559.0,204.8 L570.8,199.9 L582.6,195.1 L594.4,190.2 L606.2,185.4 L618.0,180.5
		L629.8,175.7 L641.6,170.8 L653.4,166.0 L665.2,161.1 L676.9,156.3 L688.7,151.4 L700.5,146.6 L712.3,141.7
		L724.1,136.9 L735.9,132.1 L747.7,127.2 L759.5,122.4 L771.3,117.5 L783.1,112.7 L794.9,107.8 L806.7,103.0
		L818.5,98.1 L830.3,93.3 L842.1,88.4 L853.9,83.6 L865.7,78.7 L877.5,73.9 L889.3,69.1 L901.1,64.2
		L912.9,59.4 L924.7,54.5 L925.7,54.1  '/></g>
	</g>
<g fill="none" color="white" stroke="black" stroke-width="2.00" stroke-linecap="butt" stroke-linejoin="miter">
</g>
<g fill="none" color="black" stroke="currentColor" stroke-width="2.00" stroke-linecap="butt" stroke-linejoin="miter">
</g>
<g fill="none" color="black" stroke="black" stroke-width="1.00" stroke-linecap="butt" stroke-linejoin="miter">
</g>
<g fill="none" color="black" stroke="currentColor" stroke-width="1.00" stroke-linecap="butt" stroke-linejoin="miter">
	<path stroke='black'  d='M87.1,54.1 L87.1,703.4 L1255.0,703.4 L1255.0,54.1 L87.1,54.1 Z  '/></g>
<g fill="none" color="black" stroke="currentColor" stroke-width="1.00" stroke-linecap="butt" stroke-linejoin="miter">
</g>
</g>
</svg>

