<?xml version="1.0" encoding="utf-8"  standalone="no"?>
<svg 
 width="1280" height="720"
 viewBox="0 0 1280 720"
 xmlns="http://www.w3.org/2000/svg"
 xmlns:xlink="http://www.w3.org/1999/xlink"
>

<title>Gnuplot</title>
<desc>Produced by GNUPLOT 5.0 patchlevel 6 </desc>

<g id="gnuplot_canvas">

<rect x="0" y="0" width="1280" height="720" fill="none"/>
<defs>

	<circle id='gpDot' r='0.5' stroke-width='0.5'/>
	<path id='gpPt0' stroke-width='0.222' stroke='currentColor' d='M-1,0 h2 M0,-1 v2'/>
	<path id='gpPt1' stroke-width='0.222' stroke='currentColor' d='M-1,-1 L1,1 M1,-1 L-1,1'/>
	<path id='gpPt2' stroke-width='0.222' stroke='currentColor' d='M-1,0 L1,0 M0,-1 L0,1 M-1,-1 L1,1 M-1,1 L1,-1'/>
	<rect id='gpPt3' stroke-width='0.222' stroke='currentColor' x='-1' y='-1' width='2' height='2'/>
	<rect id='gpPt4' stroke-width='0.222' stroke='currentColor' fill='currentColor' x='-1' y='-1' width='2' height='2'/>
	<circle id='gpPt5' stroke-width='0.222' stroke='currentColor' cx='0' cy='0' r='1'/>
	<use xlink:href='#gpPt5' id='gpPt6' fill='currentColor' stroke='none'/>
	<path id='gpPt7' stroke-width='0.222' stroke='currentColor' d='M0,-1.33 L-1.33,0.67 L1.33,0.67 z'/>
	<use xlink:href='#gpPt7' id='gpPt8' fill='currentColor' stroke='none'/>
	<use xlink:href='#gpPt7' id='gpPt9' stroke='currentColor' transform='rotate(180)'/>
	<use xlink:href='#gpPt9' id='gpPt10' fill='currentColor' stroke='none'/>
	<use xlink:href='#gpPt3' id='gpPt11' stroke='currentColor' transform='rotate(45)'/>
	<use xlink:href='#gpPt11' id='gpPt12' fill='currentColor' stroke='none'/>
	<path id='gpPt13' stroke-width='0.222' stroke='currentColor' d='M0,1.330 L1.265,0.411 L0.782,-1.067 L-0.782,-1.076 L-1.265,0.411 z'/>
	<use xlink:href='#gpPt13' id='gpPt14' fill='currentColor' stroke='none'/>
	<filter id='textbox' filterUnits='objectBoundingBox' x='0' y='0' height='1' width='1'>
	  <feFlood flood-color='white' flood-opacity='1' result='bgnd'/>
	  <feComposite in='SourceGraphic' in2='bgnd' operator='atop'/>
	</filter>
	<filter id='greybox' filterUnits='objectBoundingBox' x='0' y='0' height='1' width='1'>
	  <feFlood flood-color='lightgrey' flood-opacity='1' result='grey'/>
	  <feComposite in='SourceGraphic' in2='grey' operator='atop'/>
	</filter>
</defs>
<g fill="none" color="white" stroke="currentColor" stroke-width="1.00" stroke-linecap="butt" stroke-linejoin="miter">
</g>
<g fill="none" color="black" stroke="currentColor" stroke-width="1.00" stroke-linecap="butt" stroke-linejoin="miter">
	<path stroke='black'  d='M87.1,679.7 L96.1,679.7 M1255.0,679.7 L1246.0,679.7  '/>	<g transform="translate(78.8,683.6)" stroke="none" fill="black" font-family="Arial" font-size="12.00"  text-anchor="end">
		<text><tspan font-family="Arial" > 0.01222</tspan></text>
	</g>
</g>
<g fill="none" color="black" stroke="currentColor" stroke-width="1.00" stroke-linecap="butt" stroke-linejoin="miter">
	<path stroke='black'  d='M87.1,367.5 L96.1,367.5 M1255.0,367.5 L1246.0,367.5  '/>	<g transform="translate(78.8,371.4)" stroke="none" fill="black" font-family="Arial" font-size="12.00"  text-anchor="end">
		<text><tspan font-family="Arial" > 10.0977</tspan></text>
	</g>
</g>
<g fill="none" color="black" stroke="currentColor" stroke-width="1.00" stroke-linecap="butt" stroke-linejoin="miter">
	<path stroke='black'  d='M87.1,55.2 L96.1,55.2 M1255.0,55.2 L1246.0,55.2  '/>	<g transform="translate(78.8,59.1)" stroke="none" fill="black" font-family="Arial" font-size="12.00"  text-anchor="end">
		<text><tspan font-family="Arial" > 8344</tspan></text>
	</g>
</g>
<g fill="none" color="black" stroke="currentColor" stroke-width="1.00" stroke-linecap="butt" stroke-linejoin="miter">
	<path stroke='black'  d='M87.1,684.0 L87.1,675.0 M87.1,54.1 L87.1,63.1  '/>	<g transform="translate(87.1,705.9)" stroke="none" fill="black" font-family="Arial" font-size="12.00"  text-anchor="middle">
		<text><tspan font-family="Arial" > 0</tspan></text>
	</g>
</g>
<g fill="none" color="black" stroke="currentColor" stroke-width="1.00" stroke-linecap="butt" stroke-linejoin="miter">
	<path stroke='black'  d='M671.1,684.0 L671.1,675.0 M671.1,54.1 L671.1,63.1  '/>	<g transform="translate(671.1,705.9)" stroke="none" fill="black" font-family="Arial" font-size="12.00"  text-anchor="middle">
		<text><tspan font-family="Arial" >pi/2</tspan></text>
	</g>
</g>
<g fill="none" color="black" stroke="currentColor" stroke-width="1.00" stroke-linecap="butt" stroke-linejoin="miter">
	<path stroke='black'  d='M1255.0,684.0 L1255.0,675.0 M1255.0,54.1 L1255.0,63.1  '/>	<g transform="translate(1255.0,705.9)" stroke="none" fill="black" font-family="Arial" font-size="12.00"  text-anchor="middle">
		<text><tspan font-family="Arial" >pi</tspan></text>
	</g>
</g>
<g fill="none" color="black" stroke="currentColor" stroke-width="1.00" stroke-linecap="butt" stroke-linejoin="miter">
</g>
<g fill="none" color="black" stroke="currentColor" stroke-width="1.00" stroke-linecap="butt" stroke-linejoin="miter">
	<path stroke='black'  d='M87.1,54.1 L87.1,684.0 L1255.0,684.0 L1255.0,54.1 L87.1,54.1 Z  '/></g>
<g fill="none" color="black" stroke="currentColor" stroke-width="1.00" stroke-linecap="butt" stroke-linejoin="miter">
	<g transform="translate(671.0,31.0)" stroke="none" fill="black" font-family="Arial" font-size="12.00"  text-anchor="middle">
		<text><tspan font-family="Arial" >Material 35, with 4 components</tspan></text>
	</g>
</g>
	<g id="gnuplot_plot_1" ><title>scattering function</title>
<g fill="none" color="black" stroke="currentColor" stroke-width="1.00" stroke-linecap="butt" stroke-linejoin="miter">
	<g transform="translate(1187.9,76.0)" stroke="none" fill="black" font-family="Arial" font-size="12.00"  text-anchor="end">
		<text><tspan font-family="Arial" >scattering function</tspan></text>
	</g>
</g>
<g fill="none" color="black" stroke="currentColor" stroke-width="1.00" stroke-linecap="butt" stroke-linejoin="miter">
	<use xlink:href='#gpPt5' transform='translate(87.1,81.1) scale(2.25)' color='rgb(255,   0,   0)'/>
	<use xlink:href='#gpPt5' transform='translate(87.7,81.8) scale(2.25)' color='rgb(255,   0,   0)'/>
	<use xlink:href='#gpPt5' transform='translate(88.4,83.8) scale(2.25)' color='rgb(255,   0,   0)'/>
	<use xlink:href='#gpPt5' transform='translate(89.0,87.1) scale(2.25)' color='rgb(255,   0,   0)'/>
	<use xlink:href='#gpPt5' transform='translate(89.7,91.7) scale(2.25)' color='rgb(255,   0,   0)'/>
	<use xlink:href='#gpPt5' transform='translate(90.3,97.5) scale(2.25)' color='rgb(255,   0,   0)'/>
	<use xlink:href='#gpPt5' transform='translate(91.0,104.6) scale(2.25)' color='rgb(255,   0,   0)'/>
	<use xlink:href='#gpPt5' transform='translate(91.6,112.9) scale(2.25)' color='rgb(255,   0,   0)'/>
	<use xlink:href='#gpPt5' transform='translate(92.3,122.4) scale(2.25)' color='rgb(255,   0,   0)'/>
	<use xlink:href='#gpPt5' transform='translate(92.9,133.0) scale(2.25)' color='rgb(255,   0,   0)'/>
	<use xlink:href='#gpPt5' transform='translate(93.6,144.5) scale(2.25)' color='rgb(255,   0,   0)'/>
	<use xlink:href='#gpPt5' transform='translate(94.2,156.8) scale(2.25)' color='rgb(255,   0,   0)'/>
	<use xlink:href='#gpPt5' transform='translate(94.9,169.7) scale(2.25)' color='rgb(255,   0,   0)'/>
	<use xlink:href='#gpPt5' transform='translate(95.5,183.0) scale(2.25)' color='rgb(255,   0,   0)'/>
	<use xlink:href='#gpPt5' transform='translate(96.2,196.3) scale(2.25)' color='rgb(255,   0,   0)'/>
	<use xlink:href='#gpPt5' transform='translate(96.8,209.3) scale(2.25)' color='rgb(255,   0,   0)'/>
	<use xlink:href='#gpPt5' transform='translate(97.5,221.7) scale(2.25)' color='rgb(255,   0,   0)'/>
	<use xlink:href='#gpPt5' transform='translate(98.1,233.1) scale(2.25)' color='rgb(255,   0,   0)'/>
	<use xlink:href='#gpPt5' transform='translate(98.8,243.3) scale(2.25)' color='rgb(255,   0,   0)'/>
	<use xlink:href='#gpPt5' transform='translate(99.4,252.3) scale(2.25)' color='rgb(255,   0,   0)'/>
	<use xlink:href='#gpPt5' transform='translate(100.1,260.3) scale(2.25)' color='rgb(255,   0,   0)'/>
	<use xlink:href='#gpPt5' transform='translate(106.6,310.6) scale(2.25)' color='rgb(255,   0,   0)'/>
	<use xlink:href='#gpPt5' transform='translate(113.1,342.0) scale(2.25)' color='rgb(255,   0,   0)'/>
	<use xlink:href='#gpPt5' transform='translate(119.5,362.3) scale(2.25)' color='rgb(255,   0,   0)'/>
	<use xlink:href='#gpPt5' transform='translate(126.0,374.4) scale(2.25)' color='rgb(255,   0,   0)'/>
	<use xlink:href='#gpPt5' transform='translate(139.0,389.8) scale(2.25)' color='rgb(255,   0,   0)'/>
	<use xlink:href='#gpPt5' transform='translate(152.0,398.8) scale(2.25)' color='rgb(255,   0,   0)'/>
	<use xlink:href='#gpPt5' transform='translate(165.0,404.8) scale(2.25)' color='rgb(255,   0,   0)'/>
	<use xlink:href='#gpPt5' transform='translate(177.9,411.4) scale(2.25)' color='rgb(255,   0,   0)'/>
	<use xlink:href='#gpPt5' transform='translate(190.9,416.2) scale(2.25)' color='rgb(255,   0,   0)'/>
	<use xlink:href='#gpPt5' transform='translate(203.9,420.8) scale(2.25)' color='rgb(255,   0,   0)'/>
	<use xlink:href='#gpPt5' transform='translate(216.9,427.2) scale(2.25)' color='rgb(255,   0,   0)'/>
	<use xlink:href='#gpPt5' transform='translate(229.8,432.2) scale(2.25)' color='rgb(255,   0,   0)'/>
	<use xlink:href='#gpPt5' transform='translate(242.8,437.2) scale(2.25)' color='rgb(255,   0,   0)'/>
	<use xlink:href='#gpPt5' transform='translate(255.8,442.8) scale(2.25)' color='rgb(255,   0,   0)'/>
	<use xlink:href='#gpPt5' transform='translate(268.8,449.8) scale(2.25)' color='rgb(255,   0,   0)'/>
	<use xlink:href='#gpPt5' transform='translate(281.8,455.9) scale(2.25)' color='rgb(255,   0,   0)'/>
	<use xlink:href='#gpPt5' transform='translate(294.7,461.3) scale(2.25)' color='rgb(255,   0,   0)'/>
	<use xlink:href='#gpPt5' transform='translate(307.7,467.7) scale(2.25)' color='rgb(255,   0,   0)'/>
	<use xlink:href='#gpPt5' transform='translate(320.7,471.8) scale(2.25)' color='rgb(255,   0,   0)'/>
	<use xlink:href='#gpPt5' transform='translate(333.7,482.3) scale(2.25)' color='rgb(255,   0,   0)'/>
	<use xlink:href='#gpPt5' transform='translate(346.6,482.9) scale(2.25)' color='rgb(255,   0,   0)'/>
	<use xlink:href='#gpPt5' transform='translate(359.6,496.0) scale(2.25)' color='rgb(255,   0,   0)'/>
	<use xlink:href='#gpPt5' transform='translate(372.6,496.2) scale(2.25)' color='rgb(255,   0,   0)'/>
	<use xlink:href='#gpPt5' transform='translate(385.6,507.3) scale(2.25)' color='rgb(255,   0,   0)'/>
	<use xlink:href='#gpPt5' transform='translate(398.5,515.1) scale(2.25)' color='rgb(255,   0,   0)'/>
	<use xlink:href='#gpPt5' transform='translate(411.5,515.4) scale(2.25)' color='rgb(255,   0,   0)'/>
	<use xlink:href='#gpPt5' transform='translate(424.5,525.2) scale(2.25)' color='rgb(255,   0,   0)'/>
	<use xlink:href='#gpPt5' transform='translate(437.5,538.0) scale(2.25)' color='rgb(255,   0,   0)'/>
	<use xlink:href='#gpPt5' transform='translate(450.4,542.9) scale(2.25)' color='rgb(255,   0,   0)'/>
	<use xlink:href='#gpPt5' transform='translate(463.4,546.6) scale(2.25)' color='rgb(255,   0,   0)'/>
	<use xlink:href='#gpPt5' transform='translate(476.4,552.3) scale(2.25)' color='rgb(255,   0,   0)'/>
	<use xlink:href='#gpPt5' transform='translate(489.4,558.8) scale(2.25)' color='rgb(255,   0,   0)'/>
	<use xlink:href='#gpPt5' transform='translate(502.4,566.4) scale(2.25)' color='rgb(255,   0,   0)'/>
	<use xlink:href='#gpPt5' transform='translate(515.3,576.3) scale(2.25)' color='rgb(255,   0,   0)'/>
	<use xlink:href='#gpPt5' transform='translate(528.3,583.2) scale(2.25)' color='rgb(255,   0,   0)'/>
	<use xlink:href='#gpPt5' transform='translate(541.3,590.6) scale(2.25)' color='rgb(255,   0,   0)'/>
	<use xlink:href='#gpPt5' transform='translate(554.3,599.3) scale(2.25)' color='rgb(255,   0,   0)'/>
	<use xlink:href='#gpPt5' transform='translate(567.2,606.8) scale(2.25)' color='rgb(255,   0,   0)'/>
	<use xlink:href='#gpPt5' transform='translate(580.2,615.5) scale(2.25)' color='rgb(255,   0,   0)'/>
	<use xlink:href='#gpPt5' transform='translate(593.2,624.5) scale(2.25)' color='rgb(255,   0,   0)'/>
	<use xlink:href='#gpPt5' transform='translate(606.2,632.8) scale(2.25)' color='rgb(255,   0,   0)'/>
	<use xlink:href='#gpPt5' transform='translate(619.1,642.7) scale(2.25)' color='rgb(255,   0,   0)'/>
	<use xlink:href='#gpPt5' transform='translate(632.1,644.0) scale(2.25)' color='rgb(255,   0,   0)'/>
	<use xlink:href='#gpPt5' transform='translate(645.1,654.4) scale(2.25)' color='rgb(255,   0,   0)'/>
	<use xlink:href='#gpPt5' transform='translate(658.1,655.2) scale(2.25)' color='rgb(255,   0,   0)'/>
	<use xlink:href='#gpPt5' transform='translate(671.1,661.4) scale(2.25)' color='rgb(255,   0,   0)'/>
	<use xlink:href='#gpPt5' transform='translate(684.0,664.7) scale(2.25)' color='rgb(255,   0,   0)'/>
	<use xlink:href='#gpPt5' transform='translate(697.0,673.2) scale(2.25)' color='rgb(255,   0,   0)'/>
	<use xlink:href='#gpPt5' transform='translate(710.0,668.6) scale(2.25)' color='rgb(255,   0,   0)'/>
	<use xlink:href='#gpPt5' transform='translate(723.0,672.1) scale(2.25)' color='rgb(255,   0,   0)'/>
	<use xlink:href='#gpPt5' transform='translate(735.9,670.9) scale(2.25)' color='rgb(255,   0,   0)'/>
	<use xlink:href='#gpPt5' transform='translate(748.9,668.9) scale(2.25)' color='rgb(255,   0,   0)'/>
	<use xlink:href='#gpPt5' transform='translate(761.9,674.2) scale(2.25)' color='rgb(255,   0,   0)'/>
	<use xlink:href='#gpPt5' transform='translate(774.9,675.3) scale(2.25)' color='rgb(255,   0,   0)'/>
	<use xlink:href='#gpPt5' transform='translate(787.8,676.3) scale(2.25)' color='rgb(255,   0,   0)'/>
	<use xlink:href='#gpPt5' transform='translate(800.8,675.4) scale(2.25)' color='rgb(255,   0,   0)'/>
	<use xlink:href='#gpPt5' transform='translate(813.8,666.6) scale(2.25)' color='rgb(255,   0,   0)'/>
	<use xlink:href='#gpPt5' transform='translate(826.8,672.4) scale(2.25)' color='rgb(255,   0,   0)'/>
	<use xlink:href='#gpPt5' transform='translate(839.7,664.3) scale(2.25)' color='rgb(255,   0,   0)'/>
	<use xlink:href='#gpPt5' transform='translate(852.7,652.1) scale(2.25)' color='rgb(255,   0,   0)'/>
	<use xlink:href='#gpPt5' transform='translate(865.7,641.5) scale(2.25)' color='rgb(255,   0,   0)'/>
	<use xlink:href='#gpPt5' transform='translate(878.7,634.7) scale(2.25)' color='rgb(255,   0,   0)'/>
	<use xlink:href='#gpPt5' transform='translate(891.7,628.7) scale(2.25)' color='rgb(255,   0,   0)'/>
	<use xlink:href='#gpPt5' transform='translate(904.6,632.0) scale(2.25)' color='rgb(255,   0,   0)'/>
	<use xlink:href='#gpPt5' transform='translate(917.6,644.7) scale(2.25)' color='rgb(255,   0,   0)'/>
	<use xlink:href='#gpPt5' transform='translate(930.6,641.1) scale(2.25)' color='rgb(255,   0,   0)'/>
	<use xlink:href='#gpPt5' transform='translate(943.6,632.5) scale(2.25)' color='rgb(255,   0,   0)'/>
	<use xlink:href='#gpPt5' transform='translate(956.5,621.2) scale(2.25)' color='rgb(255,   0,   0)'/>
	<use xlink:href='#gpPt5' transform='translate(969.5,590.8) scale(2.25)' color='rgb(255,   0,   0)'/>
	<use xlink:href='#gpPt5' transform='translate(982.5,568.6) scale(2.25)' color='rgb(255,   0,   0)'/>
	<use xlink:href='#gpPt5' transform='translate(995.5,550.2) scale(2.25)' color='rgb(255,   0,   0)'/>
	<use xlink:href='#gpPt5' transform='translate(1008.4,543.8) scale(2.25)' color='rgb(255,   0,   0)'/>
	<use xlink:href='#gpPt5' transform='translate(1021.4,560.1) scale(2.25)' color='rgb(255,   0,   0)'/>
	<use xlink:href='#gpPt5' transform='translate(1034.4,576.9) scale(2.25)' color='rgb(255,   0,   0)'/>
	<use xlink:href='#gpPt5' transform='translate(1047.4,579.6) scale(2.25)' color='rgb(255,   0,   0)'/>
	<use xlink:href='#gpPt5' transform='translate(1060.3,578.6) scale(2.25)' color='rgb(255,   0,   0)'/>
	<use xlink:href='#gpPt5' transform='translate(1073.3,584.6) scale(2.25)' color='rgb(255,   0,   0)'/>
	<use xlink:href='#gpPt5' transform='translate(1086.3,581.2) scale(2.25)' color='rgb(255,   0,   0)'/>
	<use xlink:href='#gpPt5' transform='translate(1099.3,588.5) scale(2.25)' color='rgb(255,   0,   0)'/>
	<use xlink:href='#gpPt5' transform='translate(1112.3,590.6) scale(2.25)' color='rgb(255,   0,   0)'/>
	<use xlink:href='#gpPt5' transform='translate(1125.2,591.5) scale(2.25)' color='rgb(255,   0,   0)'/>
	<use xlink:href='#gpPt5' transform='translate(1138.2,590.6) scale(2.25)' color='rgb(255,   0,   0)'/>
	<use xlink:href='#gpPt5' transform='translate(1151.2,592.3) scale(2.25)' color='rgb(255,   0,   0)'/>
	<use xlink:href='#gpPt5' transform='translate(1164.2,597.9) scale(2.25)' color='rgb(255,   0,   0)'/>
	<use xlink:href='#gpPt5' transform='translate(1177.1,591.6) scale(2.25)' color='rgb(255,   0,   0)'/>
	<use xlink:href='#gpPt5' transform='translate(1190.1,593.8) scale(2.25)' color='rgb(255,   0,   0)'/>
	<use xlink:href='#gpPt5' transform='translate(1203.1,587.1) scale(2.25)' color='rgb(255,   0,   0)'/>
	<use xlink:href='#gpPt5' transform='translate(1216.1,585.6) scale(2.25)' color='rgb(255,   0,   0)'/>
	<use xlink:href='#gpPt5' transform='translate(1229.0,570.1) scale(2.25)' color='rgb(255,   0,   0)'/>
	<use xlink:href='#gpPt5' transform='translate(1242.0,543.5) scale(2.25)' color='rgb(255,   0,   0)'/>
	<use xlink:href='#gpPt5' transform='translate(1255.0,504.1) scale(2.25)' color='rgb(255,   0,   0)'/>
	<use xlink:href='#gpPt5' transform='translate(1217.3,72.1) scale(2.25)' color='rgb(255,   0,   0)'/>
</g>
	</g>
	<g id="gnuplot_plot_2" ><title>gnuplot_plot_2</title>
<g fill="none" color="black" stroke="currentColor" stroke-width="1.00" stroke-linecap="butt" stroke-linejoin="miter">
	<use xlink:href='#gpPt5' transform='translate(87.1,73.3) scale(2.25)' color='rgb(  0, 100,   0)'/>
	<use xlink:href='#gpPt5' transform='translate(87.7,74.1) scale(2.25)' color='rgb(  0, 100,   0)'/>
	<use xlink:href='#gpPt5' transform='translate(88.4,76.4) scale(2.25)' color='rgb(  0, 100,   0)'/>
	<use xlink:href='#gpPt5' transform='translate(89.0,80.3) scale(2.25)' color='rgb(  0, 100,   0)'/>
	<use xlink:href='#gpPt5' transform='translate(89.7,85.7) scale(2.25)' color='rgb(  0, 100,   0)'/>
	<use xlink:href='#gpPt5' transform='translate(90.3,92.7) scale(2.25)' color='rgb(  0, 100,   0)'/>
	<use xlink:href='#gpPt5' transform='translate(91.0,101.1) scale(2.25)' color='rgb(  0, 100,   0)'/>
	<use xlink:href='#gpPt5' transform='translate(91.6,110.9) scale(2.25)' color='rgb(  0, 100,   0)'/>
	<use xlink:href='#gpPt5' transform='translate(92.3,122.0) scale(2.25)' color='rgb(  0, 100,   0)'/>
	<use xlink:href='#gpPt5' transform='translate(92.9,134.3) scale(2.25)' color='rgb(  0, 100,   0)'/>
	<use xlink:href='#gpPt5' transform='translate(93.6,147.6) scale(2.25)' color='rgb(  0, 100,   0)'/>
	<use xlink:href='#gpPt5' transform='translate(94.2,161.7) scale(2.25)' color='rgb(  0, 100,   0)'/>
	<use xlink:href='#gpPt5' transform='translate(94.9,176.2) scale(2.25)' color='rgb(  0, 100,   0)'/>
	<use xlink:href='#gpPt5' transform='translate(95.5,190.7) scale(2.25)' color='rgb(  0, 100,   0)'/>
	<use xlink:href='#gpPt5' transform='translate(96.2,204.8) scale(2.25)' color='rgb(  0, 100,   0)'/>
	<use xlink:href='#gpPt5' transform='translate(96.8,218.1) scale(2.25)' color='rgb(  0, 100,   0)'/>
	<use xlink:href='#gpPt5' transform='translate(97.5,230.1) scale(2.25)' color='rgb(  0, 100,   0)'/>
	<use xlink:href='#gpPt5' transform='translate(98.1,240.6) scale(2.25)' color='rgb(  0, 100,   0)'/>
	<use xlink:href='#gpPt5' transform='translate(98.8,249.8) scale(2.25)' color='rgb(  0, 100,   0)'/>
	<use xlink:href='#gpPt5' transform='translate(99.4,257.7) scale(2.25)' color='rgb(  0, 100,   0)'/>
	<use xlink:href='#gpPt5' transform='translate(100.1,264.7) scale(2.25)' color='rgb(  0, 100,   0)'/>
	<use xlink:href='#gpPt5' transform='translate(106.6,313.9) scale(2.25)' color='rgb(  0, 100,   0)'/>
	<use xlink:href='#gpPt5' transform='translate(113.1,344.8) scale(2.25)' color='rgb(  0, 100,   0)'/>
	<use xlink:href='#gpPt5' transform='translate(119.5,364.2) scale(2.25)' color='rgb(  0, 100,   0)'/>
	<use xlink:href='#gpPt5' transform='translate(126.0,376.5) scale(2.25)' color='rgb(  0, 100,   0)'/>
	<use xlink:href='#gpPt5' transform='translate(139.0,391.6) scale(2.25)' color='rgb(  0, 100,   0)'/>
	<use xlink:href='#gpPt5' transform='translate(152.0,399.2) scale(2.25)' color='rgb(  0, 100,   0)'/>
	<use xlink:href='#gpPt5' transform='translate(165.0,405.1) scale(2.25)' color='rgb(  0, 100,   0)'/>
	<use xlink:href='#gpPt5' transform='translate(177.9,410.9) scale(2.25)' color='rgb(  0, 100,   0)'/>
	<use xlink:href='#gpPt5' transform='translate(190.9,415.8) scale(2.25)' color='rgb(  0, 100,   0)'/>
	<use xlink:href='#gpPt5' transform='translate(203.9,421.0) scale(2.25)' color='rgb(  0, 100,   0)'/>
	<use xlink:href='#gpPt5' transform='translate(216.9,427.1) scale(2.25)' color='rgb(  0, 100,   0)'/>
	<use xlink:href='#gpPt5' transform='translate(229.8,431.8) scale(2.25)' color='rgb(  0, 100,   0)'/>
	<use xlink:href='#gpPt5' transform='translate(242.8,437.6) scale(2.25)' color='rgb(  0, 100,   0)'/>
	<use xlink:href='#gpPt5' transform='translate(255.8,443.7) scale(2.25)' color='rgb(  0, 100,   0)'/>
	<use xlink:href='#gpPt5' transform='translate(268.8,450.7) scale(2.25)' color='rgb(  0, 100,   0)'/>
	<use xlink:href='#gpPt5' transform='translate(281.8,456.6) scale(2.25)' color='rgb(  0, 100,   0)'/>
	<use xlink:href='#gpPt5' transform='translate(294.7,460.9) scale(2.25)' color='rgb(  0, 100,   0)'/>
	<use xlink:href='#gpPt5' transform='translate(307.7,465.2) scale(2.25)' color='rgb(  0, 100,   0)'/>
	<use xlink:href='#gpPt5' transform='translate(320.7,476.7) scale(2.25)' color='rgb(  0, 100,   0)'/>
	<use xlink:href='#gpPt5' transform='translate(333.7,476.5) scale(2.25)' color='rgb(  0, 100,   0)'/>
	<use xlink:href='#gpPt5' transform='translate(346.6,490.8) scale(2.25)' color='rgb(  0, 100,   0)'/>
	<use xlink:href='#gpPt5' transform='translate(359.6,491.8) scale(2.25)' color='rgb(  0, 100,   0)'/>
	<use xlink:href='#gpPt5' transform='translate(372.6,504.0) scale(2.25)' color='rgb(  0, 100,   0)'/>
	<use xlink:href='#gpPt5' transform='translate(385.6,505.0) scale(2.25)' color='rgb(  0, 100,   0)'/>
	<use xlink:href='#gpPt5' transform='translate(398.5,510.8) scale(2.25)' color='rgb(  0, 100,   0)'/>
	<use xlink:href='#gpPt5' transform='translate(411.5,524.4) scale(2.25)' color='rgb(  0, 100,   0)'/>
	<use xlink:href='#gpPt5' transform='translate(424.5,523.6) scale(2.25)' color='rgb(  0, 100,   0)'/>
	<use xlink:href='#gpPt5' transform='translate(437.5,528.3) scale(2.25)' color='rgb(  0, 100,   0)'/>
	<use xlink:href='#gpPt5' transform='translate(450.4,536.8) scale(2.25)' color='rgb(  0, 100,   0)'/>
	<use xlink:href='#gpPt5' transform='translate(463.4,547.8) scale(2.25)' color='rgb(  0, 100,   0)'/>
	<use xlink:href='#gpPt5' transform='translate(476.4,558.1) scale(2.25)' color='rgb(  0, 100,   0)'/>
	<use xlink:href='#gpPt5' transform='translate(489.4,566.6) scale(2.25)' color='rgb(  0, 100,   0)'/>
	<use xlink:href='#gpPt5' transform='translate(502.4,573.6) scale(2.25)' color='rgb(  0, 100,   0)'/>
	<use xlink:href='#gpPt5' transform='translate(515.3,581.4) scale(2.25)' color='rgb(  0, 100,   0)'/>
	<use xlink:href='#gpPt5' transform='translate(528.3,588.9) scale(2.25)' color='rgb(  0, 100,   0)'/>
	<use xlink:href='#gpPt5' transform='translate(541.3,595.4) scale(2.25)' color='rgb(  0, 100,   0)'/>
	<use xlink:href='#gpPt5' transform='translate(554.3,606.5) scale(2.25)' color='rgb(  0, 100,   0)'/>
	<use xlink:href='#gpPt5' transform='translate(567.2,617.3) scale(2.25)' color='rgb(  0, 100,   0)'/>
	<use xlink:href='#gpPt5' transform='translate(580.2,624.5) scale(2.25)' color='rgb(  0, 100,   0)'/>
	<use xlink:href='#gpPt5' transform='translate(593.2,627.1) scale(2.25)' color='rgb(  0, 100,   0)'/>
	<use xlink:href='#gpPt5' transform='translate(606.2,632.7) scale(2.25)' color='rgb(  0, 100,   0)'/>
	<use xlink:href='#gpPt5' transform='translate(619.1,641.9) scale(2.25)' color='rgb(  0, 100,   0)'/>
	<use xlink:href='#gpPt5' transform='translate(632.1,647.1) scale(2.25)' color='rgb(  0, 100,   0)'/>
	<use xlink:href='#gpPt5' transform='translate(645.1,656.5) scale(2.25)' color='rgb(  0, 100,   0)'/>
	<use xlink:href='#gpPt5' transform='translate(658.1,662.3) scale(2.25)' color='rgb(  0, 100,   0)'/>
	<use xlink:href='#gpPt5' transform='translate(671.1,665.0) scale(2.25)' color='rgb(  0, 100,   0)'/>
	<use xlink:href='#gpPt5' transform='translate(684.0,667.2) scale(2.25)' color='rgb(  0, 100,   0)'/>
	<use xlink:href='#gpPt5' transform='translate(697.0,672.9) scale(2.25)' color='rgb(  0, 100,   0)'/>
	<use xlink:href='#gpPt5' transform='translate(710.0,672.4) scale(2.25)' color='rgb(  0, 100,   0)'/>
	<use xlink:href='#gpPt5' transform='translate(723.0,679.7) scale(2.25)' color='rgb(  0, 100,   0)'/>
	<use xlink:href='#gpPt5' transform='translate(735.9,677.0) scale(2.25)' color='rgb(  0, 100,   0)'/>
	<use xlink:href='#gpPt5' transform='translate(748.9,672.7) scale(2.25)' color='rgb(  0, 100,   0)'/>
	<use xlink:href='#gpPt5' transform='translate(761.9,677.5) scale(2.25)' color='rgb(  0, 100,   0)'/>
	<use xlink:href='#gpPt5' transform='translate(774.9,674.9) scale(2.25)' color='rgb(  0, 100,   0)'/>
	<use xlink:href='#gpPt5' transform='translate(787.8,671.5) scale(2.25)' color='rgb(  0, 100,   0)'/>
	<use xlink:href='#gpPt5' transform='translate(800.8,666.3) scale(2.25)' color='rgb(  0, 100,   0)'/>
	<use xlink:href='#gpPt5' transform='translate(813.8,668.8) scale(2.25)' color='rgb(  0, 100,   0)'/>
	<use xlink:href='#gpPt5' transform='translate(826.8,670.1) scale(2.25)' color='rgb(  0, 100,   0)'/>
	<use xlink:href='#gpPt5' transform='translate(839.7,662.7) scale(2.25)' color='rgb(  0, 100,   0)'/>
	<use xlink:href='#gpPt5' transform='translate(852.7,651.6) scale(2.25)' color='rgb(  0, 100,   0)'/>
	<use xlink:href='#gpPt5' transform='translate(865.7,643.0) scale(2.25)' color='rgb(  0, 100,   0)'/>
	<use xlink:href='#gpPt5' transform='translate(878.7,633.0) scale(2.25)' color='rgb(  0, 100,   0)'/>
	<use xlink:href='#gpPt5' transform='translate(891.7,629.1) scale(2.25)' color='rgb(  0, 100,   0)'/>
	<use xlink:href='#gpPt5' transform='translate(904.6,640.4) scale(2.25)' color='rgb(  0, 100,   0)'/>
	<use xlink:href='#gpPt5' transform='translate(917.6,632.7) scale(2.25)' color='rgb(  0, 100,   0)'/>
	<use xlink:href='#gpPt5' transform='translate(930.6,639.3) scale(2.25)' color='rgb(  0, 100,   0)'/>
	<use xlink:href='#gpPt5' transform='translate(943.6,647.4) scale(2.25)' color='rgb(  0, 100,   0)'/>
	<use xlink:href='#gpPt5' transform='translate(956.5,621.3) scale(2.25)' color='rgb(  0, 100,   0)'/>
	<use xlink:href='#gpPt5' transform='translate(969.5,594.8) scale(2.25)' color='rgb(  0, 100,   0)'/>
	<use xlink:href='#gpPt5' transform='translate(982.5,568.8) scale(2.25)' color='rgb(  0, 100,   0)'/>
	<use xlink:href='#gpPt5' transform='translate(995.5,546.7) scale(2.25)' color='rgb(  0, 100,   0)'/>
	<use xlink:href='#gpPt5' transform='translate(1008.4,542.0) scale(2.25)' color='rgb(  0, 100,   0)'/>
	<use xlink:href='#gpPt5' transform='translate(1021.4,558.1) scale(2.25)' color='rgb(  0, 100,   0)'/>
	<use xlink:href='#gpPt5' transform='translate(1034.4,577.5) scale(2.25)' color='rgb(  0, 100,   0)'/>
	<use xlink:href='#gpPt5' transform='translate(1047.4,580.0) scale(2.25)' color='rgb(  0, 100,   0)'/>
	<use xlink:href='#gpPt5' transform='translate(1060.3,577.5) scale(2.25)' color='rgb(  0, 100,   0)'/>
	<use xlink:href='#gpPt5' transform='translate(1073.3,581.6) scale(2.25)' color='rgb(  0, 100,   0)'/>
	<use xlink:href='#gpPt5' transform='translate(1086.3,584.3) scale(2.25)' color='rgb(  0, 100,   0)'/>
	<use xlink:href='#gpPt5' transform='translate(1099.3,587.5) scale(2.25)' color='rgb(  0, 100,   0)'/>
	<use xlink:href='#gpPt5' transform='translate(1112.3,591.2) scale(2.25)' color='rgb(  0, 100,   0)'/>
	<use xlink:href='#gpPt5' transform='translate(1125.2,591.7) scale(2.25)' color='rgb(  0, 100,   0)'/>
	<use xlink:href='#gpPt5' transform='translate(1138.2,592.8) scale(2.25)' color='rgb(  0, 100,   0)'/>
	<use xlink:href='#gpPt5' transform='translate(1151.2,596.1) scale(2.25)' color='rgb(  0, 100,   0)'/>
	<use xlink:href='#gpPt5' transform='translate(1164.2,596.2) scale(2.25)' color='rgb(  0, 100,   0)'/>
	<use xlink:href='#gpPt5' transform='translate(1177.1,594.3) scale(2.25)' color='rgb(  0, 100,   0)'/>
	<use xlink:href='#gpPt5' transform='translate(1190.1,597.1) scale(2.25)' color='rgb(  0, 100,   0)'/>
	<use xlink:href='#gpPt5' transform='translate(1203.1,591.4) scale(2.25)' color='rgb(  0, 100,   0)'/>
	<use xlink:href='#gpPt5' transform='translate(1216.1,584.6) scale(2.25)' color='rgb(  0, 100,   0)'/>
	<use xlink:href='#gpPt5' transform='translate(1229.0,573.6) scale(2.25)' color='rgb(  0, 100,   0)'/>
	<use xlink:href='#gpPt5' transform='translate(1242.0,547.0) scale(2.25)' color='rgb(  0, 100,   0)'/>
	<use xlink:href='#gpPt5' transform='translate(1255.0,515.7) scale(2.25)' color='rgb(  0, 100,   0)'/>
</g>
	</g>
	<g id="gnuplot_plot_3" ><title>gnuplot_plot_3</title>
<g fill="none" color="black" stroke="currentColor" stroke-width="1.00" stroke-linecap="butt" stroke-linejoin="miter">
	<use xlink:href='#gpPt5' transform='translate(87.1,55.2) scale(2.25)' color='rgb(  0,   0, 255)'/>
	<use xlink:href='#gpPt5' transform='translate(87.7,56.3) scale(2.25)' color='rgb(  0,   0, 255)'/>
	<use xlink:href='#gpPt5' transform='translate(88.4,59.8) scale(2.25)' color='rgb(  0,   0, 255)'/>
	<use xlink:href='#gpPt5' transform='translate(89.0,65.6) scale(2.25)' color='rgb(  0,   0, 255)'/>
	<use xlink:href='#gpPt5' transform='translate(89.7,73.7) scale(2.25)' color='rgb(  0,   0, 255)'/>
	<use xlink:href='#gpPt5' transform='translate(90.3,83.9) scale(2.25)' color='rgb(  0,   0, 255)'/>
	<use xlink:href='#gpPt5' transform='translate(91.0,96.1) scale(2.25)' color='rgb(  0,   0, 255)'/>
	<use xlink:href='#gpPt5' transform='translate(91.6,110.3) scale(2.25)' color='rgb(  0,   0, 255)'/>
	<use xlink:href='#gpPt5' transform='translate(92.3,126.1) scale(2.25)' color='rgb(  0,   0, 255)'/>
	<use xlink:href='#gpPt5' transform='translate(92.9,143.2) scale(2.25)' color='rgb(  0,   0, 255)'/>
	<use xlink:href='#gpPt5' transform='translate(93.6,160.9) scale(2.25)' color='rgb(  0,   0, 255)'/>
	<use xlink:href='#gpPt5' transform='translate(94.2,178.6) scale(2.25)' color='rgb(  0,   0, 255)'/>
	<use xlink:href='#gpPt5' transform='translate(94.9,195.5) scale(2.25)' color='rgb(  0,   0, 255)'/>
	<use xlink:href='#gpPt5' transform='translate(95.5,210.6) scale(2.25)' color='rgb(  0,   0, 255)'/>
	<use xlink:href='#gpPt5' transform='translate(96.2,223.7) scale(2.25)' color='rgb(  0,   0, 255)'/>
	<use xlink:href='#gpPt5' transform='translate(96.8,234.8) scale(2.25)' color='rgb(  0,   0, 255)'/>
	<use xlink:href='#gpPt5' transform='translate(97.5,244.1) scale(2.25)' color='rgb(  0,   0, 255)'/>
	<use xlink:href='#gpPt5' transform='translate(98.1,252.2) scale(2.25)' color='rgb(  0,   0, 255)'/>
	<use xlink:href='#gpPt5' transform='translate(98.8,259.4) scale(2.25)' color='rgb(  0,   0, 255)'/>
	<use xlink:href='#gpPt5' transform='translate(99.4,266.1) scale(2.25)' color='rgb(  0,   0, 255)'/>
	<use xlink:href='#gpPt5' transform='translate(100.1,272.5) scale(2.25)' color='rgb(  0,   0, 255)'/>
	<use xlink:href='#gpPt5' transform='translate(106.6,321.9) scale(2.25)' color='rgb(  0,   0, 255)'/>
	<use xlink:href='#gpPt5' transform='translate(113.1,351.0) scale(2.25)' color='rgb(  0,   0, 255)'/>
	<use xlink:href='#gpPt5' transform='translate(119.5,369.5) scale(2.25)' color='rgb(  0,   0, 255)'/>
	<use xlink:href='#gpPt5' transform='translate(126.0,380.2) scale(2.25)' color='rgb(  0,   0, 255)'/>
	<use xlink:href='#gpPt5' transform='translate(139.0,393.6) scale(2.25)' color='rgb(  0,   0, 255)'/>
	<use xlink:href='#gpPt5' transform='translate(152.0,401.3) scale(2.25)' color='rgb(  0,   0, 255)'/>
	<use xlink:href='#gpPt5' transform='translate(165.0,407.4) scale(2.25)' color='rgb(  0,   0, 255)'/>
	<use xlink:href='#gpPt5' transform='translate(177.9,412.7) scale(2.25)' color='rgb(  0,   0, 255)'/>
	<use xlink:href='#gpPt5' transform='translate(190.9,417.4) scale(2.25)' color='rgb(  0,   0, 255)'/>
	<use xlink:href='#gpPt5' transform='translate(203.9,422.7) scale(2.25)' color='rgb(  0,   0, 255)'/>
	<use xlink:href='#gpPt5' transform='translate(216.9,428.4) scale(2.25)' color='rgb(  0,   0, 255)'/>
	<use xlink:href='#gpPt5' transform='translate(229.8,434.3) scale(2.25)' color='rgb(  0,   0, 255)'/>
	<use xlink:href='#gpPt5' transform='translate(242.8,441.2) scale(2.25)' color='rgb(  0,   0, 255)'/>
	<use xlink:href='#gpPt5' transform='translate(255.8,445.1) scale(2.25)' color='rgb(  0,   0, 255)'/>
	<use xlink:href='#gpPt5' transform='translate(268.8,448.2) scale(2.25)' color='rgb(  0,   0, 255)'/>
	<use xlink:href='#gpPt5' transform='translate(281.8,452.3) scale(2.25)' color='rgb(  0,   0, 255)'/>
	<use xlink:href='#gpPt5' transform='translate(294.7,465.4) scale(2.25)' color='rgb(  0,   0, 255)'/>
	<use xlink:href='#gpPt5' transform='translate(307.7,468.6) scale(2.25)' color='rgb(  0,   0, 255)'/>
	<use xlink:href='#gpPt5' transform='translate(320.7,470.7) scale(2.25)' color='rgb(  0,   0, 255)'/>
	<use xlink:href='#gpPt5' transform='translate(333.7,482.4) scale(2.25)' color='rgb(  0,   0, 255)'/>
	<use xlink:href='#gpPt5' transform='translate(346.6,484.2) scale(2.25)' color='rgb(  0,   0, 255)'/>
	<use xlink:href='#gpPt5' transform='translate(359.6,495.8) scale(2.25)' color='rgb(  0,   0, 255)'/>
	<use xlink:href='#gpPt5' transform='translate(372.6,500.6) scale(2.25)' color='rgb(  0,   0, 255)'/>
	<use xlink:href='#gpPt5' transform='translate(385.6,502.3) scale(2.25)' color='rgb(  0,   0, 255)'/>
	<use xlink:href='#gpPt5' transform='translate(398.5,514.5) scale(2.25)' color='rgb(  0,   0, 255)'/>
	<use xlink:href='#gpPt5' transform='translate(411.5,517.6) scale(2.25)' color='rgb(  0,   0, 255)'/>
	<use xlink:href='#gpPt5' transform='translate(424.5,522.0) scale(2.25)' color='rgb(  0,   0, 255)'/>
	<use xlink:href='#gpPt5' transform='translate(437.5,531.9) scale(2.25)' color='rgb(  0,   0, 255)'/>
	<use xlink:href='#gpPt5' transform='translate(450.4,543.4) scale(2.25)' color='rgb(  0,   0, 255)'/>
	<use xlink:href='#gpPt5' transform='translate(463.4,549.4) scale(2.25)' color='rgb(  0,   0, 255)'/>
	<use xlink:href='#gpPt5' transform='translate(476.4,557.6) scale(2.25)' color='rgb(  0,   0, 255)'/>
	<use xlink:href='#gpPt5' transform='translate(489.4,564.2) scale(2.25)' color='rgb(  0,   0, 255)'/>
	<use xlink:href='#gpPt5' transform='translate(502.4,573.8) scale(2.25)' color='rgb(  0,   0, 255)'/>
	<use xlink:href='#gpPt5' transform='translate(515.3,582.3) scale(2.25)' color='rgb(  0,   0, 255)'/>
	<use xlink:href='#gpPt5' transform='translate(528.3,590.7) scale(2.25)' color='rgb(  0,   0, 255)'/>
	<use xlink:href='#gpPt5' transform='translate(541.3,598.9) scale(2.25)' color='rgb(  0,   0, 255)'/>
	<use xlink:href='#gpPt5' transform='translate(554.3,604.8) scale(2.25)' color='rgb(  0,   0, 255)'/>
	<use xlink:href='#gpPt5' transform='translate(567.2,615.0) scale(2.25)' color='rgb(  0,   0, 255)'/>
	<use xlink:href='#gpPt5' transform='translate(580.2,624.1) scale(2.25)' color='rgb(  0,   0, 255)'/>
	<use xlink:href='#gpPt5' transform='translate(593.2,633.2) scale(2.25)' color='rgb(  0,   0, 255)'/>
	<use xlink:href='#gpPt5' transform='translate(606.2,639.1) scale(2.25)' color='rgb(  0,   0, 255)'/>
	<use xlink:href='#gpPt5' transform='translate(619.1,643.3) scale(2.25)' color='rgb(  0,   0, 255)'/>
	<use xlink:href='#gpPt5' transform='translate(632.1,655.6) scale(2.25)' color='rgb(  0,   0, 255)'/>
	<use xlink:href='#gpPt5' transform='translate(645.1,658.8) scale(2.25)' color='rgb(  0,   0, 255)'/>
	<use xlink:href='#gpPt5' transform='translate(658.1,663.6) scale(2.25)' color='rgb(  0,   0, 255)'/>
	<use xlink:href='#gpPt5' transform='translate(671.1,663.3) scale(2.25)' color='rgb(  0,   0, 255)'/>
	<use xlink:href='#gpPt5' transform='translate(684.0,673.8) scale(2.25)' color='rgb(  0,   0, 255)'/>
	<use xlink:href='#gpPt5' transform='translate(697.0,676.3) scale(2.25)' color='rgb(  0,   0, 255)'/>
	<use xlink:href='#gpPt5' transform='translate(710.0,676.4) scale(2.25)' color='rgb(  0,   0, 255)'/>
	<use xlink:href='#gpPt5' transform='translate(723.0,678.0) scale(2.25)' color='rgb(  0,   0, 255)'/>
	<use xlink:href='#gpPt5' transform='translate(735.9,679.5) scale(2.25)' color='rgb(  0,   0, 255)'/>
	<use xlink:href='#gpPt5' transform='translate(748.9,678.1) scale(2.25)' color='rgb(  0,   0, 255)'/>
	<use xlink:href='#gpPt5' transform='translate(761.9,677.1) scale(2.25)' color='rgb(  0,   0, 255)'/>
	<use xlink:href='#gpPt5' transform='translate(774.9,675.2) scale(2.25)' color='rgb(  0,   0, 255)'/>
	<use xlink:href='#gpPt5' transform='translate(787.8,668.7) scale(2.25)' color='rgb(  0,   0, 255)'/>
	<use xlink:href='#gpPt5' transform='translate(800.8,675.9) scale(2.25)' color='rgb(  0,   0, 255)'/>
	<use xlink:href='#gpPt5' transform='translate(813.8,673.1) scale(2.25)' color='rgb(  0,   0, 255)'/>
	<use xlink:href='#gpPt5' transform='translate(826.8,668.0) scale(2.25)' color='rgb(  0,   0, 255)'/>
	<use xlink:href='#gpPt5' transform='translate(839.7,666.6) scale(2.25)' color='rgb(  0,   0, 255)'/>
	<use xlink:href='#gpPt5' transform='translate(852.7,653.1) scale(2.25)' color='rgb(  0,   0, 255)'/>
	<use xlink:href='#gpPt5' transform='translate(865.7,641.2) scale(2.25)' color='rgb(  0,   0, 255)'/>
	<use xlink:href='#gpPt5' transform='translate(878.7,633.4) scale(2.25)' color='rgb(  0,   0, 255)'/>
	<use xlink:href='#gpPt5' transform='translate(891.7,630.4) scale(2.25)' color='rgb(  0,   0, 255)'/>
	<use xlink:href='#gpPt5' transform='translate(904.6,635.4) scale(2.25)' color='rgb(  0,   0, 255)'/>
	<use xlink:href='#gpPt5' transform='translate(917.6,636.9) scale(2.25)' color='rgb(  0,   0, 255)'/>
	<use xlink:href='#gpPt5' transform='translate(930.6,651.4) scale(2.25)' color='rgb(  0,   0, 255)'/>
	<use xlink:href='#gpPt5' transform='translate(943.6,646.7) scale(2.25)' color='rgb(  0,   0, 255)'/>
	<use xlink:href='#gpPt5' transform='translate(956.5,642.8) scale(2.25)' color='rgb(  0,   0, 255)'/>
	<use xlink:href='#gpPt5' transform='translate(969.5,605.8) scale(2.25)' color='rgb(  0,   0, 255)'/>
	<use xlink:href='#gpPt5' transform='translate(982.5,572.0) scale(2.25)' color='rgb(  0,   0, 255)'/>
	<use xlink:href='#gpPt5' transform='translate(995.5,544.2) scale(2.25)' color='rgb(  0,   0, 255)'/>
	<use xlink:href='#gpPt5' transform='translate(1008.4,539.8) scale(2.25)' color='rgb(  0,   0, 255)'/>
	<use xlink:href='#gpPt5' transform='translate(1021.4,557.8) scale(2.25)' color='rgb(  0,   0, 255)'/>
	<use xlink:href='#gpPt5' transform='translate(1034.4,579.6) scale(2.25)' color='rgb(  0,   0, 255)'/>
	<use xlink:href='#gpPt5' transform='translate(1047.4,575.1) scale(2.25)' color='rgb(  0,   0, 255)'/>
	<use xlink:href='#gpPt5' transform='translate(1060.3,579.5) scale(2.25)' color='rgb(  0,   0, 255)'/>
	<use xlink:href='#gpPt5' transform='translate(1073.3,583.3) scale(2.25)' color='rgb(  0,   0, 255)'/>
	<use xlink:href='#gpPt5' transform='translate(1086.3,587.7) scale(2.25)' color='rgb(  0,   0, 255)'/>
	<use xlink:href='#gpPt5' transform='translate(1099.3,586.5) scale(2.25)' color='rgb(  0,   0, 255)'/>
	<use xlink:href='#gpPt5' transform='translate(1112.3,591.2) scale(2.25)' color='rgb(  0,   0, 255)'/>
	<use xlink:href='#gpPt5' transform='translate(1125.2,597.4) scale(2.25)' color='rgb(  0,   0, 255)'/>
	<use xlink:href='#gpPt5' transform='translate(1138.2,595.5) scale(2.25)' color='rgb(  0,   0, 255)'/>
	<use xlink:href='#gpPt5' transform='translate(1151.2,598.8) scale(2.25)' color='rgb(  0,   0, 255)'/>
	<use xlink:href='#gpPt5' transform='translate(1164.2,594.9) scale(2.25)' color='rgb(  0,   0, 255)'/>
	<use xlink:href='#gpPt5' transform='translate(1177.1,599.1) scale(2.25)' color='rgb(  0,   0, 255)'/>
	<use xlink:href='#gpPt5' transform='translate(1190.1,602.2) scale(2.25)' color='rgb(  0,   0, 255)'/>
	<use xlink:href='#gpPt5' transform='translate(1203.1,601.0) scale(2.25)' color='rgb(  0,   0, 255)'/>
	<use xlink:href='#gpPt5' transform='translate(1216.1,591.8) scale(2.25)' color='rgb(  0,   0, 255)'/>
	<use xlink:href='#gpPt5' transform='translate(1229.0,582.1) scale(2.25)' color='rgb(  0,   0, 255)'/>
	<use xlink:href='#gpPt5' transform='translate(1242.0,559.9) scale(2.25)' color='rgb(  0,   0, 255)'/>
	<use xlink:href='#gpPt5' transform='translate(1255.0,522.1) scale(2.25)' color='rgb(  0,   0, 255)'/>
</g>
	</g>
	<g id="gnuplot_plot_4" ><title>fit</title>
<g fill="none" color="black" stroke="currentColor" stroke-width="1.00" stroke-linecap="butt" stroke-linejoin="miter">
	<g transform="translate(1187.9,94.0)" stroke="none" fill="black" font-family="Arial" font-size="12.00"  text-anchor="end">
		<text><tspan font-family="Arial" >fit</tspan></text>
	</g>
</g>
<g fill="none" color="black" stroke="currentColor" stroke-width="1.00" stroke-linecap="butt" stroke-linejoin="miter">
	<path stroke='rgb(255,   0,   0)'  d='M1196.2,90.1 L1238.4,90.1 M87.1,54.1 L88.2,62.3 L89.4,82.3 L90.5,106.5 L91.7,130.5 L92.8,152.6
		L93.9,172.5 L95.1,190.4 L96.2,206.5 L97.4,221.0 L98.5,234.2 L99.7,246.2 L100.8,257.2 L101.9,267.2
		L103.1,276.5 L104.2,285.1 L105.4,293.0 L106.5,300.4 L107.6,307.2 L108.8,313.6 L109.9,319.4 L111.1,324.9
		L112.2,330.0 L113.4,334.8 L114.5,339.2 L115.6,343.4 L116.8,347.2 L117.9,350.8 L119.1,354.2 L120.2,357.3
		L121.3,360.2 L122.5,362.9 L123.6,365.5 L124.8,367.9 L125.9,370.1 L127.1,372.2 L128.2,374.2 L129.3,376.1
		L130.5,377.8 L131.6,379.4 L132.8,381.0 L133.9,382.4 L135.0,383.8 L136.2,385.1 L137.3,386.3 L138.5,387.5
		L139.6,388.6 L140.8,389.7 L141.9,390.7 L143.0,391.7 L144.2,392.6 L145.3,393.5 L146.5,394.3 L147.6,395.2
		L148.7,396.0 L149.9,396.7 L151.0,397.5 L152.2,398.2 L153.3,398.9 L154.5,399.5 L155.6,400.2 L156.7,400.8
		L157.9,401.4 L159.0,402.0 L160.2,402.6 L161.3,403.2 L162.4,403.8 L163.6,404.4 L164.7,404.9 L165.9,405.4
		L167.0,406.0 L168.2,406.5 L169.3,407.0 L170.4,407.5 L171.6,408.1 L172.7,408.6 L173.9,409.1 L175.0,409.5
		L176.1,410.0 L177.3,410.5 L178.4,411.0 L179.6,411.5 L180.7,412.0 L181.9,412.4 L183.0,412.9 L184.1,413.4
		L185.3,413.9 L186.4,414.3 L187.6,414.8 L188.7,415.3 L189.8,415.7 L191.0,416.2 L192.1,416.7 L193.3,417.1
		L194.4,417.6 L195.6,418.1 L196.7,418.5 L197.8,419.0 L199.0,419.5 L200.1,419.9 L201.3,420.4 L202.4,420.9
		L203.5,421.3 L204.7,421.8 L205.8,422.3 L207.0,422.7 L208.1,423.2 L209.3,423.7 L210.4,424.1 L211.5,424.6
		L212.7,425.1 L213.8,425.5 L215.0,426.0 L216.1,426.5 L217.2,427.0 L218.4,427.4 L219.5,427.9 L220.7,428.4
		L221.8,428.9 L223.0,429.3 L224.1,429.8 L225.2,430.3 L226.4,430.8 L227.5,431.3 L228.7,431.8 L229.8,432.2
		L230.9,432.7 L232.1,433.2 L233.2,433.7 L234.4,434.2 L235.5,434.7 L236.7,435.2 L237.8,435.7 L238.9,436.2
		L240.1,436.7 L241.2,437.1 L242.4,437.6 L243.5,438.1 L244.6,438.6 L245.8,439.1 L246.9,439.6 L248.1,440.1
		L249.2,440.6 L250.4,441.1 L251.5,441.6 L252.6,442.2 L253.8,442.7 L254.9,443.2 L256.1,443.7 L257.2,444.2
		L258.3,444.7 L259.5,445.2 L260.6,445.7 L261.8,446.2 L262.9,446.7 L264.1,447.3 L265.2,447.8 L266.3,448.3
		L267.5,448.8 L268.6,449.3 L269.8,449.8 L270.9,450.4 L272.0,450.9 L273.2,451.4 L274.3,451.9 L275.5,452.4
		L276.6,453.0 L277.8,453.5 L278.9,454.0 L280.0,454.5 L281.2,455.1 L282.3,455.6 L283.5,456.1 L284.6,456.6
		L285.7,457.2 L286.9,457.7 L288.0,458.2 L289.2,458.8 L290.3,459.3 L291.5,459.8 L292.6,460.4 L293.7,460.9
		L294.9,461.4 L296.0,462.0 L297.2,462.5 L298.3,463.0 L299.4,463.6 L300.6,464.1 L301.7,464.6 L302.9,465.2
		L304.0,465.7 L305.2,466.3 L306.3,466.8 L307.4,467.3 L308.6,467.9 L309.7,468.4 L310.9,469.0 L312.0,469.5
		L313.1,470.1 L314.3,470.6 L315.4,471.2 L316.6,471.7 L317.7,472.2 L318.9,472.8 L320.0,473.3 L321.1,473.9
		L322.3,474.4 L323.4,475.0 L324.6,475.5 L325.7,476.1 L326.8,476.6 L328.0,477.2 L329.1,477.7 L330.3,478.3
		L331.4,478.8 L332.6,479.4 L333.7,479.9 L334.8,480.5 L336.0,481.1 L337.1,481.6 L338.3,482.2 L339.4,482.7
		L340.5,483.3 L341.7,483.8 L342.8,484.4 L344.0,484.9 L345.1,485.5 L346.3,486.1 L347.4,486.6 L348.5,487.2
		L349.7,487.7 L350.8,488.3 L352.0,488.9 L353.1,489.4 L354.2,490.0 L355.4,490.5 L356.5,491.1 L357.7,491.7
		L358.8,492.2 L360.0,492.8 L361.1,493.4 L362.2,493.9 L363.4,494.5 L364.5,495.1 L365.7,495.6 L366.8,496.2
		L367.9,496.8 L369.1,497.3 L370.2,497.9 L371.4,498.5 L372.5,499.0 L373.7,499.6 L374.8,500.2 L375.9,500.7
		L377.1,501.3 L378.2,501.9 L379.4,502.4 L380.5,503.0 L381.6,503.6 L382.8,504.2 L383.9,504.7 L385.1,505.3
		L386.2,505.9 L387.4,506.4 L388.5,507.0 L389.6,507.6 L390.8,508.2 L391.9,508.7 L393.1,509.3 L394.2,509.9
		L395.3,510.5 L396.5,511.1 L397.6,511.6 L398.8,512.2 L399.9,512.8 L401.1,513.4 L402.2,513.9 L403.3,514.5
		L404.5,515.1 L405.6,515.7 L406.8,516.3 L407.9,516.8 L409.0,517.4 L410.2,518.0 L411.3,518.6 L412.5,519.2
		L413.6,519.8 L414.8,520.3 L415.9,520.9 L417.0,521.5 L418.2,522.1 L419.3,522.7 L420.5,523.3 L421.6,523.9
		L422.7,524.5 L423.9,525.0 L425.0,525.6 L426.2,526.2 L427.3,526.8 L428.5,527.4 L429.6,528.0 L430.7,528.6
		L431.9,529.2 L433.0,529.8 L434.2,530.4 L435.3,530.9 L436.4,531.5 L437.6,532.1 L438.7,532.7 L439.9,533.3
		L441.0,533.9 L442.2,534.5 L443.3,535.1 L444.4,535.7 L445.6,536.3 L446.7,536.9 L447.9,537.5 L449.0,538.1
		L450.1,538.7 L451.3,539.3 L452.4,539.9 L453.6,540.5 L454.7,541.1 L455.9,541.7 L457.0,542.3 L458.1,542.9
		L459.3,543.5 L460.4,544.1 L461.6,544.7 L462.7,545.3 L463.8,546.0 L465.0,546.6 L466.1,547.2 L467.3,547.8
		L468.4,548.4 L469.6,549.0 L470.7,549.6 L471.8,550.2 L473.0,550.8 L474.1,551.4 L475.3,552.1 L476.4,552.7
		L477.5,553.3 L478.7,553.9 L479.8,554.5 L481.0,555.1 L482.1,555.8 L483.2,556.4 L484.4,557.0 L485.5,557.6
		L486.7,558.2 L487.8,558.9 L489.0,559.5 L490.1,560.1 L491.2,560.7 L492.4,561.4 L493.5,562.0 L494.7,562.6
		L495.8,563.2 L496.9,563.9 L498.1,564.5 L499.2,565.1 L500.4,565.7 L501.5,566.4 L502.7,567.0 L503.8,567.6
		L504.9,568.3 L506.1,568.9 L507.2,569.5 L508.4,570.2 L509.5,570.8 L510.6,571.4 L511.8,572.1 L512.9,572.7
		L514.1,573.4 L515.2,574.0 L516.4,574.6 L517.5,575.3 L518.6,575.9 L519.8,576.6 L520.9,577.2 L522.1,577.9
		L523.2,578.5 L524.3,579.1 L525.5,579.8 L526.6,580.4 L527.8,581.1 L528.9,581.7 L530.1,582.4 L531.2,583.0
		L532.3,583.7 L533.5,584.3 L534.6,585.0 L535.8,585.7 L536.9,586.3 L538.0,587.0 L539.2,587.6 L540.3,588.3
		L541.5,588.9 L542.6,589.6 L543.8,590.3 L544.9,590.9 L546.0,591.6 L547.2,592.3 L548.3,592.9 L549.5,593.6
		L550.6,594.2 L551.7,594.9 L552.9,595.6 L554.0,596.3 L555.2,596.9 L556.3,597.6 L557.5,598.3 L558.6,598.9
		L559.7,599.6 L560.9,600.3 L562.0,601.0 L563.2,601.6 L564.3,602.3 L565.4,603.0 L566.6,603.7 L567.7,604.3
		L568.9,605.0 L570.0,605.7 L571.2,606.4 L572.3,607.1 L573.4,607.7 L574.6,608.4 L575.7,609.1 L576.9,609.8
		L578.0,610.5 L579.1,611.1 L580.3,611.8 L581.4,612.5 L582.6,613.2 L583.7,613.9 L584.9,614.6 L586.0,615.3
		L587.1,616.0 L588.3,616.6 L589.4,617.3 L590.6,618.0 L591.7,618.7 L592.8,619.4 L594.0,620.1 L595.1,620.8
		L596.3,621.5 L597.4,622.2 L598.6,622.9 L599.7,623.5 L600.8,624.2 L602.0,624.9 L603.1,625.6 L604.3,626.3
		L605.4,627.0 L606.5,627.7 L607.7,628.4 L608.8,629.1 L610.0,629.8 L611.1,630.4 L612.3,631.1 L613.4,631.8
		L614.5,632.5 L615.7,633.2 L616.8,633.9 L618.0,634.6 L619.1,635.3 L620.2,635.9 L621.4,636.6 L622.5,637.3
		L623.7,638.0 L624.8,638.7 L626.0,639.3 L627.1,640.0 L628.2,640.7 L629.4,641.4 L630.5,642.0 L631.7,642.7
		L632.8,643.4 L633.9,644.1 L635.1,644.7 L636.2,645.4 L637.4,646.0 L638.5,646.7 L639.7,647.4 L640.8,648.0
		L641.9,648.7 L643.1,649.3 L644.2,650.0 L645.4,650.6 L646.5,651.2 L647.6,651.9 L648.8,652.5 L649.9,653.1
		L651.1,653.7 L652.2,654.4 L653.4,655.0 L654.5,655.6 L655.6,656.2 L656.8,656.8 L657.9,657.4 L659.1,658.0
		L660.2,658.6 L661.3,659.2 L662.5,659.7 L663.6,660.3 L664.8,660.9 L665.9,661.4 L667.1,662.0 L668.2,662.5
		L669.3,663.1 L670.5,663.6 L671.6,664.1 L672.8,664.7 L673.9,665.2 L675.0,665.7 L676.2,666.2 L677.3,666.7
		L678.5,667.2 L679.6,667.6 L680.8,668.1 L681.9,668.6 L683.0,669.0 L684.2,669.5 L685.3,669.9 L686.5,670.3
		L687.6,670.7 L688.7,671.1 L689.9,671.5 L691.0,671.9 L692.2,672.3 L693.3,672.7 L694.5,673.0 L695.6,673.4
		L696.7,673.7 L697.9,674.0 L699.0,674.3 L700.2,674.6 L701.3,674.9 L702.4,675.2 L703.6,675.5 L704.7,675.7
		L705.9,676.0 L707.0,676.2 L708.2,676.5 L709.3,676.7 L710.4,676.9 L711.6,677.1 L712.7,677.2 L713.9,677.4
		L715.0,677.6 L716.1,677.7 L717.3,677.8 L718.4,678.0 L719.6,678.1 L720.7,678.2 L721.9,678.2 L723.0,678.3
		L724.1,678.4 L725.3,678.4 L726.4,678.5 L727.6,678.5 L728.7,678.5 L729.8,678.5 L731.0,678.5 L732.1,678.5
		L733.3,678.5 L734.4,678.4 L735.6,678.4 L736.7,678.3 L737.8,678.3 L739.0,678.2 L740.1,678.1 L741.3,678.0
		L742.4,677.9 L743.5,677.7 L744.7,677.6 L745.8,677.5 L747.0,677.3 L748.1,677.2 L749.3,677.0 L750.4,676.8
		L751.5,676.6 L752.7,676.4 L753.8,676.2 L755.0,676.0 L756.1,675.8 L757.2,675.6 L758.4,675.3 L759.5,675.1
		L760.7,674.8 L761.8,674.6 L763.0,674.3 L764.1,674.1 L765.2,673.8 L766.4,673.5 L767.5,673.2 L768.7,672.9
		L769.8,672.6 L770.9,672.3 L772.1,672.0 L773.2,671.7 L774.4,671.4 L775.5,671.0 L776.7,670.7 L777.8,670.4
		L778.9,670.0 L780.1,669.7 L781.2,669.3 L782.4,669.0 L783.5,668.6 L784.6,668.3 L785.8,667.9 L786.9,667.5
		L788.1,667.1 L789.2,666.8 L790.4,666.4 L791.5,666.0 L792.6,665.6 L793.8,665.2 L794.9,664.9 L796.1,664.5
		L797.2,664.1 L798.3,663.7 L799.5,663.3 L800.6,662.9 L801.8,662.5 L802.9,662.1 L804.1,661.7 L805.2,661.3
		L806.3,660.9 L807.5,660.5 L808.6,660.0 L809.8,659.6 L810.9,659.2 L812.0,658.8 L813.2,658.4 L814.3,658.0
		L815.5,657.6 L816.6,657.2 L817.8,656.7 L818.9,656.3 L820.0,655.9 L821.2,655.5 L822.3,655.1 L823.5,654.6
		L824.6,654.2 L825.7,653.8 L826.9,653.4 L828.0,653.0 L829.2,652.6 L830.3,652.1 L831.5,651.7 L832.6,651.3
		L833.7,650.9 L834.9,650.5 L836.0,650.1 L837.2,649.6 L838.3,649.2 L839.4,648.8 L840.6,648.4 L841.7,648.0
		L842.9,647.6 L844.0,647.1 L845.2,646.7 L846.3,646.3 L847.4,645.9 L848.6,645.5 L849.7,645.1 L850.9,644.7
		L852.0,644.3 L853.1,643.9 L854.3,643.4 L855.4,643.0 L856.6,642.6 L857.7,642.2 L858.9,641.8 L860.0,641.4
		L861.1,641.0 L862.3,640.6 L863.4,640.2 L864.6,639.8 L865.7,639.4 L866.8,639.0 L868.0,638.6 L869.1,638.2
		L870.3,637.8 L871.4,637.4 L872.5,637.0 L873.7,636.7 L874.8,636.3 L876.0,635.9 L877.1,635.5 L878.3,635.1
		L879.4,634.7 L880.5,634.3 L881.7,634.0 L882.8,633.6 L884.0,633.2 L885.1,632.8 L886.2,632.4 L887.4,632.1
		L888.5,631.7 L889.7,631.3 L890.8,630.9 L892.0,630.6 L893.1,630.2 L894.2,629.8 L895.4,629.4 L896.5,629.1
		L897.7,628.7 L898.8,628.3 L899.9,628.0 L901.1,627.6 L902.2,627.3 L903.4,626.9 L904.5,626.5 L905.7,626.2
		L906.8,625.8 L907.9,625.5 L909.1,625.1 L910.2,624.8 L911.4,624.4 L912.5,624.0 L913.6,623.7 L914.8,623.4
		L915.9,623.0 L917.1,622.7 L918.2,622.3 L919.4,622.0 L920.5,621.6 L921.6,621.3 L922.8,620.9 L923.9,620.6
		L925.1,620.3 L926.2,619.9 L927.3,619.6 L928.5,619.3 L929.6,618.9 L930.8,618.6 L931.9,618.3 L933.1,617.9
		L934.2,617.6 L935.3,617.3 L936.5,617.0 L937.6,616.6 L938.8,616.3 L939.9,616.0 L941.0,615.7 L942.2,615.3
		L943.3,615.0 L944.5,614.7 L945.6,614.4 L946.8,614.1 L947.9,613.8 L949.0,613.5 L950.2,613.1 L951.3,612.8
		L952.5,612.5 L953.6,612.2 L954.7,611.9 L955.9,611.6 L957.0,611.3 L958.2,611.0 L959.3,610.7 L960.5,610.4
		L961.6,610.1 L962.7,609.8 L963.9,609.5 L965.0,609.2 L966.2,608.9 L967.3,608.6 L968.4,608.3 L969.6,608.0
		L970.7,607.7 L971.9,607.5 L973.0,607.2 L974.2,606.9 L975.3,606.6 L976.4,606.3 L977.6,606.0 L978.7,605.7
		L979.9,605.5 L981.0,605.2 L982.1,604.9 L983.3,604.6 L984.4,604.3 L985.6,604.1 L986.7,603.8 L987.9,603.5
		L989.0,603.2 L990.1,603.0 L991.3,602.7 L992.4,602.4 L993.6,602.2 L994.7,601.9 L995.8,601.6 L997.0,601.4
		L998.1,601.1 L999.3,600.8 L1000.4,600.6 L1001.6,600.3 L1002.7,600.1 L1003.8,599.8 L1005.0,599.6 L1006.1,599.3
		L1007.3,599.0 L1008.4,598.8 L1009.5,598.5 L1010.7,598.3 L1011.8,598.0 L1013.0,597.8 L1014.1,597.5 L1015.3,597.3
		L1016.4,597.0 L1017.5,596.8 L1018.7,596.6 L1019.8,596.3 L1021.0,596.1 L1022.1,595.8 L1023.2,595.6 L1024.4,595.4
		L1025.5,595.1 L1026.7,594.9 L1027.8,594.6 L1029.0,594.4 L1030.1,594.2 L1031.2,593.9 L1032.4,593.7 L1033.5,593.5
		L1034.7,593.3 L1035.8,593.0 L1036.9,592.8 L1038.1,592.6 L1039.2,592.4 L1040.4,592.1 L1041.5,591.9 L1042.7,591.7
		L1043.8,591.5 L1044.9,591.2 L1046.1,591.0 L1047.2,590.8 L1048.4,590.6 L1049.5,590.4 L1050.6,590.2 L1051.8,590.0
		L1052.9,589.7 L1054.1,589.5 L1055.2,589.3 L1056.4,589.1 L1057.5,588.9 L1058.6,588.7 L1059.8,588.5 L1060.9,588.3
		L1062.1,588.1 L1063.2,587.9 L1064.3,587.7 L1065.5,587.5 L1066.6,587.3 L1067.8,587.1 L1068.9,586.9 L1070.1,586.7
		L1071.2,586.5 L1072.3,586.3 L1073.5,586.1 L1074.6,585.9 L1075.8,585.8 L1076.9,585.6 L1078.0,585.4 L1079.2,585.2
		L1080.3,585.0 L1081.5,584.8 L1082.6,584.6 L1083.8,584.5 L1084.9,584.3 L1086.0,584.1 L1087.2,583.9 L1088.3,583.7
		L1089.5,583.6 L1090.6,583.4 L1091.7,583.2 L1092.9,583.0 L1094.0,582.9 L1095.2,582.7 L1096.3,582.5 L1097.5,582.4
		L1098.6,582.2 L1099.7,582.0 L1100.9,581.9 L1102.0,581.7 L1103.2,581.5 L1104.3,581.4 L1105.4,581.2 L1106.6,581.1
		L1107.7,580.9 L1108.9,580.7 L1110.0,580.6 L1111.2,580.4 L1112.3,580.3 L1113.4,580.1 L1114.6,580.0 L1115.7,579.8
		L1116.9,579.7 L1118.0,579.5 L1119.1,579.4 L1120.3,579.2 L1121.4,579.1 L1122.6,578.9 L1123.7,578.8 L1124.9,578.7
		L1126.0,578.5 L1127.1,578.4 L1128.3,578.2 L1129.4,578.1 L1130.6,578.0 L1131.7,577.8 L1132.8,577.7 L1134.0,577.6
		L1135.1,577.4 L1136.3,577.3 L1137.4,577.2 L1138.6,577.1 L1139.7,576.9 L1140.8,576.8 L1142.0,576.7 L1143.1,576.6
		L1144.3,576.4 L1145.4,576.3 L1146.5,576.2 L1147.7,576.1 L1148.8,576.0 L1150.0,575.8 L1151.1,575.7 L1152.3,575.6
		L1153.4,575.5 L1154.5,575.4 L1155.7,575.3 L1156.8,575.2 L1158.0,575.1 L1159.1,575.0 L1160.2,574.9 L1161.4,574.8
		L1162.5,574.7 L1163.7,574.6 L1164.8,574.5 L1166.0,574.4 L1167.1,574.3 L1168.2,574.2 L1169.4,574.1 L1170.5,574.0
		L1171.7,573.9 L1172.8,573.8 L1173.9,573.7 L1175.1,573.6 L1176.2,573.5 L1177.4,573.4 L1178.5,573.4 L1179.7,573.3
		L1180.8,573.2 L1181.9,573.1 L1183.1,573.0 L1184.2,572.9 L1185.4,572.9 L1186.5,572.8 L1187.6,572.7 L1188.8,572.6
		L1189.9,572.6 L1191.1,572.5 L1192.2,572.4 L1193.4,572.4 L1194.5,572.3 L1195.6,572.2 L1196.8,572.2 L1197.9,572.1
		L1199.1,572.0 L1200.2,572.0 L1201.3,571.9 L1202.5,571.9 L1203.6,571.8 L1204.8,571.7 L1205.9,571.7 L1207.1,571.6
		L1208.2,571.6 L1209.3,571.5 L1210.5,571.5 L1211.6,571.4 L1212.8,571.4 L1213.9,571.3 L1215.0,571.3 L1216.2,571.2
		L1217.3,571.2 L1218.5,571.2 L1219.6,571.1 L1220.8,571.1 L1221.9,571.0 L1223.0,571.0 L1224.2,571.0 L1225.3,570.9
		L1226.5,570.9 L1227.6,570.9 L1228.7,570.8 L1229.9,570.8 L1231.0,570.8 L1232.2,570.8 L1233.3,570.7 L1234.5,570.7
		L1235.6,570.7 L1236.7,570.7 L1237.9,570.6 L1239.0,570.6 L1240.2,570.6 L1241.3,570.6 L1242.4,570.6 L1243.6,570.6
		L1244.7,570.6 L1245.9,570.5 L1247.0,570.5 L1248.2,570.5 L1249.3,570.5 L1250.4,570.5 L1251.6,570.5 L1252.7,570.5
		L1253.9,570.5 L1255.0,570.5  '/></g>
	</g>
	<g id="gnuplot_plot_5" ><title>gnuplot_plot_5</title>
<g fill="none" color="black" stroke="currentColor" stroke-width="1.00" stroke-linecap="butt" stroke-linejoin="miter">
	<path stroke='rgb(  0, 100,   0)'  d='M87.1,57.3 L88.2,65.5 L89.4,85.5 L90.5,109.8 L91.7,133.7 L92.8,155.8 L93.9,175.8 L95.1,193.6
		L96.2,209.7 L97.4,224.2 L98.5,237.3 L99.7,249.3 L100.8,260.3 L101.9,270.3 L103.1,279.6 L104.2,288.1
		L105.4,296.0 L106.5,303.3 L107.6,310.1 L108.8,316.4 L109.9,322.2 L111.1,327.6 L112.2,332.7 L113.4,337.4
		L114.5,341.7 L115.6,345.8 L116.8,349.6 L117.9,353.1 L119.1,356.4 L120.2,359.5 L121.3,362.3 L122.5,365.0
		L123.6,367.5 L124.8,369.8 L125.9,372.0 L127.1,374.1 L128.2,376.0 L129.3,377.8 L130.5,379.5 L131.6,381.1
		L132.8,382.6 L133.9,384.0 L135.0,385.3 L136.2,386.6 L137.3,387.8 L138.5,388.9 L139.6,390.0 L140.8,391.0
		L141.9,392.0 L143.0,392.9 L144.2,393.8 L145.3,394.7 L146.5,395.5 L147.6,396.3 L148.7,397.1 L149.9,397.8
		L151.0,398.5 L152.2,399.2 L153.3,399.9 L154.5,400.6 L155.6,401.2 L156.7,401.8 L157.9,402.4 L159.0,403.0
		L160.2,403.6 L161.3,404.2 L162.4,404.7 L163.6,405.3 L164.7,405.8 L165.9,406.3 L167.0,406.9 L168.2,407.4
		L169.3,407.9 L170.4,408.4 L171.6,408.9 L172.7,409.4 L173.9,409.9 L175.0,410.4 L176.1,410.9 L177.3,411.3
		L178.4,411.8 L179.6,412.3 L180.7,412.8 L181.9,413.2 L183.0,413.7 L184.1,414.2 L185.3,414.7 L186.4,415.1
		L187.6,415.6 L188.7,416.0 L189.8,416.5 L191.0,417.0 L192.1,417.4 L193.3,417.9 L194.4,418.4 L195.6,418.8
		L196.7,419.3 L197.8,419.7 L199.0,420.2 L200.1,420.7 L201.3,421.1 L202.4,421.6 L203.5,422.1 L204.7,422.5
		L205.8,423.0 L207.0,423.5 L208.1,423.9 L209.3,424.4 L210.4,424.9 L211.5,425.3 L212.7,425.8 L213.8,426.3
		L215.0,426.7 L216.1,427.2 L217.2,427.7 L218.4,428.2 L219.5,428.6 L220.7,429.1 L221.8,429.6 L223.0,430.1
		L224.1,430.6 L225.2,431.0 L226.4,431.5 L227.5,432.0 L228.7,432.5 L229.8,433.0 L230.9,433.5 L232.1,433.9
		L233.2,434.4 L234.4,434.9 L235.5,435.4 L236.7,435.9 L237.8,436.4 L238.9,436.9 L240.1,437.4 L241.2,437.9
		L242.4,438.4 L243.5,438.9 L244.6,439.4 L245.8,439.9 L246.9,440.4 L248.1,440.9 L249.2,441.4 L250.4,441.9
		L251.5,442.4 L252.6,442.9 L253.8,443.4 L254.9,443.9 L256.1,444.4 L257.2,444.9 L258.3,445.4 L259.5,446.0
		L260.6,446.5 L261.8,447.0 L262.9,447.5 L264.1,448.0 L265.2,448.5 L266.3,449.0 L267.5,449.6 L268.6,450.1
		L269.8,450.6 L270.9,451.1 L272.0,451.6 L273.2,452.2 L274.3,452.7 L275.5,453.2 L276.6,453.7 L277.8,454.3
		L278.9,454.8 L280.0,455.3 L281.2,455.9 L282.3,456.4 L283.5,456.9 L284.6,457.4 L285.7,458.0 L286.9,458.5
		L288.0,459.0 L289.2,459.6 L290.3,460.1 L291.5,460.6 L292.6,461.2 L293.7,461.7 L294.9,462.2 L296.0,462.8
		L297.2,463.3 L298.3,463.9 L299.4,464.4 L300.6,464.9 L301.7,465.5 L302.9,466.0 L304.0,466.6 L305.2,467.1
		L306.3,467.7 L307.4,468.2 L308.6,468.7 L309.7,469.3 L310.9,469.8 L312.0,470.4 L313.1,470.9 L314.3,471.5
		L315.4,472.0 L316.6,472.6 L317.7,473.1 L318.9,473.7 L320.0,474.2 L321.1,474.8 L322.3,475.3 L323.4,475.9
		L324.6,476.4 L325.7,477.0 L326.8,477.5 L328.0,478.1 L329.1,478.7 L330.3,479.2 L331.4,479.8 L332.6,480.3
		L333.7,480.9 L334.8,481.4 L336.0,482.0 L337.1,482.6 L338.3,483.1 L339.4,483.7 L340.5,484.2 L341.7,484.8
		L342.8,485.4 L344.0,485.9 L345.1,486.5 L346.3,487.0 L347.4,487.6 L348.5,488.2 L349.7,488.7 L350.8,489.3
		L352.0,489.9 L353.1,490.4 L354.2,491.0 L355.4,491.6 L356.5,492.1 L357.7,492.7 L358.8,493.3 L360.0,493.8
		L361.1,494.4 L362.2,495.0 L363.4,495.5 L364.5,496.1 L365.7,496.7 L366.8,497.3 L367.9,497.8 L369.1,498.4
		L370.2,499.0 L371.4,499.5 L372.5,500.1 L373.7,500.7 L374.8,501.3 L375.9,501.8 L377.1,502.4 L378.2,503.0
		L379.4,503.6 L380.5,504.1 L381.6,504.7 L382.8,505.3 L383.9,505.9 L385.1,506.5 L386.2,507.0 L387.4,507.6
		L388.5,508.2 L389.6,508.8 L390.8,509.4 L391.9,509.9 L393.1,510.5 L394.2,511.1 L395.3,511.7 L396.5,512.3
		L397.6,512.9 L398.8,513.4 L399.9,514.0 L401.1,514.6 L402.2,515.2 L403.3,515.8 L404.5,516.4 L405.6,517.0
		L406.8,517.5 L407.9,518.1 L409.0,518.7 L410.2,519.3 L411.3,519.9 L412.5,520.5 L413.6,521.1 L414.8,521.7
		L415.9,522.3 L417.0,522.9 L418.2,523.5 L419.3,524.1 L420.5,524.6 L421.6,525.2 L422.7,525.8 L423.9,526.4
		L425.0,527.0 L426.2,527.6 L427.3,528.2 L428.5,528.8 L429.6,529.4 L430.7,530.0 L431.9,530.6 L433.0,531.2
		L434.2,531.8 L435.3,532.4 L436.4,533.0 L437.6,533.6 L438.7,534.2 L439.9,534.8 L441.0,535.4 L442.2,536.1
		L443.3,536.7 L444.4,537.3 L445.6,537.9 L446.7,538.5 L447.9,539.1 L449.0,539.7 L450.1,540.3 L451.3,540.9
		L452.4,541.5 L453.6,542.1 L454.7,542.8 L455.9,543.4 L457.0,544.0 L458.1,544.6 L459.3,545.2 L460.4,545.8
		L461.6,546.5 L462.7,547.1 L463.8,547.7 L465.0,548.3 L466.1,548.9 L467.3,549.6 L468.4,550.2 L469.6,550.8
		L470.7,551.4 L471.8,552.0 L473.0,552.7 L474.1,553.3 L475.3,553.9 L476.4,554.5 L477.5,555.2 L478.7,555.8
		L479.8,556.4 L481.0,557.1 L482.1,557.7 L483.2,558.3 L484.4,559.0 L485.5,559.6 L486.7,560.2 L487.8,560.9
		L489.0,561.5 L490.1,562.1 L491.2,562.8 L492.4,563.4 L493.5,564.1 L494.7,564.7 L495.8,565.3 L496.9,566.0
		L498.1,566.6 L499.2,567.3 L500.4,567.9 L501.5,568.6 L502.7,569.2 L503.8,569.8 L504.9,570.5 L506.1,571.1
		L507.2,571.8 L508.4,572.5 L509.5,573.1 L510.6,573.8 L511.8,574.4 L512.9,575.1 L514.1,575.7 L515.2,576.4
		L516.4,577.0 L517.5,577.7 L518.6,578.4 L519.8,579.0 L520.9,579.7 L522.1,580.3 L523.2,581.0 L524.3,581.7
		L525.5,582.3 L526.6,583.0 L527.8,583.7 L528.9,584.3 L530.1,585.0 L531.2,585.7 L532.3,586.4 L533.5,587.0
		L534.6,587.7 L535.8,588.4 L536.9,589.1 L538.0,589.7 L539.2,590.4 L540.3,591.1 L541.5,591.8 L542.6,592.5
		L543.8,593.2 L544.9,593.8 L546.0,594.5 L547.2,595.2 L548.3,595.9 L549.5,596.6 L550.6,597.3 L551.7,598.0
		L552.9,598.7 L554.0,599.4 L555.2,600.0 L556.3,600.7 L557.5,601.4 L558.6,602.1 L559.7,602.8 L560.9,603.5
		L562.0,604.2 L563.2,604.9 L564.3,605.6 L565.4,606.3 L566.6,607.1 L567.7,607.8 L568.9,608.5 L570.0,609.2
		L571.2,609.9 L572.3,610.6 L573.4,611.3 L574.6,612.0 L575.7,612.7 L576.9,613.4 L578.0,614.2 L579.1,614.9
		L580.3,615.6 L581.4,616.3 L582.6,617.0 L583.7,617.7 L584.9,618.5 L586.0,619.2 L587.1,619.9 L588.3,620.6
		L589.4,621.3 L590.6,622.1 L591.7,622.8 L592.8,623.5 L594.0,624.2 L595.1,625.0 L596.3,625.7 L597.4,626.4
		L598.6,627.1 L599.7,627.9 L600.8,628.6 L602.0,629.3 L603.1,630.0 L604.3,630.8 L605.4,631.5 L606.5,632.2
		L607.7,633.0 L608.8,633.7 L610.0,634.4 L611.1,635.1 L612.3,635.9 L613.4,636.6 L614.5,637.3 L615.7,638.0
		L616.8,638.8 L618.0,639.5 L619.1,640.2 L620.2,640.9 L621.4,641.7 L622.5,642.4 L623.7,643.1 L624.8,643.8
		L626.0,644.5 L627.1,645.3 L628.2,646.0 L629.4,646.7 L630.5,647.4 L631.7,648.1 L632.8,648.8 L633.9,649.5
		L635.1,650.2 L636.2,650.9 L637.4,651.6 L638.5,652.3 L639.7,653.0 L640.8,653.7 L641.9,654.4 L643.1,655.1
		L644.2,655.8 L645.4,656.4 L646.5,657.1 L647.6,657.8 L648.8,658.5 L649.9,659.1 L651.1,659.8 L652.2,660.4
		L653.4,661.1 L654.5,661.7 L655.6,662.4 L656.8,663.0 L657.9,663.6 L659.1,664.3 L660.2,664.9 L661.3,665.5
		L662.5,666.1 L663.6,666.7 L664.8,667.3 L665.9,667.9 L667.1,668.4 L668.2,669.0 L669.3,669.6 L670.5,670.1
		L671.6,670.7 L672.8,671.2 L673.9,671.7 L675.0,672.3 L676.2,672.8 L677.3,673.3 L678.5,673.8 L679.6,674.3
		L680.8,674.7 L681.9,675.2 L683.0,675.7 L684.2,676.1 L685.3,676.5 L686.5,677.0 L687.6,677.4 L688.7,677.8
		L689.9,678.2 L691.0,678.5 L692.2,678.9 L693.3,679.3 L694.5,679.6 L695.6,679.9 L696.7,680.2 L697.9,680.5
		L699.0,680.8 L700.2,681.1 L701.3,681.4 L702.4,681.6 L703.6,681.9 L704.7,682.1 L705.9,682.3 L707.0,682.5
		L708.2,682.7 L709.3,682.9 L710.4,683.0 L711.6,683.2 L712.7,683.3 L713.9,683.4 L715.0,683.5 L716.1,683.6
		L717.3,683.7 L718.4,683.8 L719.6,683.8 L720.7,683.8 L721.9,683.9 L723.0,683.9 L724.1,683.9 L725.3,683.9
		L726.4,683.8 L727.6,683.8 L728.7,683.7 L729.8,683.7 L731.0,683.6 L732.1,683.5 L733.3,683.4 L734.4,683.3
		L735.6,683.2 L736.7,683.0 L737.8,682.9 L739.0,682.7 L740.1,682.6 L741.3,682.4 L742.4,682.2 L743.5,682.0
		L744.7,681.8 L745.8,681.6 L747.0,681.3 L748.1,681.1 L749.3,680.8 L750.4,680.6 L751.5,680.3 L752.7,680.0
		L753.8,679.8 L755.0,679.5 L756.1,679.2 L757.2,678.9 L758.4,678.6 L759.5,678.2 L760.7,677.9 L761.8,677.6
		L763.0,677.2 L764.1,676.9 L765.2,676.5 L766.4,676.2 L767.5,675.8 L768.7,675.5 L769.8,675.1 L770.9,674.7
		L772.1,674.3 L773.2,673.9 L774.4,673.5 L775.5,673.2 L776.7,672.8 L777.8,672.3 L778.9,671.9 L780.1,671.5
		L781.2,671.1 L782.4,670.7 L783.5,670.3 L784.6,669.9 L785.8,669.4 L786.9,669.0 L788.1,668.6 L789.2,668.1
		L790.4,667.7 L791.5,667.3 L792.6,666.8 L793.8,666.4 L794.9,665.9 L796.1,665.5 L797.2,665.1 L798.3,664.6
		L799.5,664.2 L800.6,663.7 L801.8,663.3 L802.9,662.8 L804.1,662.4 L805.2,661.9 L806.3,661.5 L807.5,661.0
		L808.6,660.5 L809.8,660.1 L810.9,659.6 L812.0,659.2 L813.2,658.7 L814.3,658.3 L815.5,657.8 L816.6,657.4
		L817.8,656.9 L818.9,656.5 L820.0,656.0 L821.2,655.5 L822.3,655.1 L823.5,654.6 L824.6,654.2 L825.7,653.7
		L826.9,653.3 L828.0,652.8 L829.2,652.4 L830.3,651.9 L831.5,651.5 L832.6,651.0 L833.7,650.6 L834.9,650.1
		L836.0,649.7 L837.2,649.3 L838.3,648.8 L839.4,648.4 L840.6,647.9 L841.7,647.5 L842.9,647.0 L844.0,646.6
		L845.2,646.2 L846.3,645.7 L847.4,645.3 L848.6,644.9 L849.7,644.4 L850.9,644.0 L852.0,643.6 L853.1,643.1
		L854.3,642.7 L855.4,642.3 L856.6,641.9 L857.7,641.4 L858.9,641.0 L860.0,640.6 L861.1,640.2 L862.3,639.7
		L863.4,639.3 L864.6,638.9 L865.7,638.5 L866.8,638.1 L868.0,637.7 L869.1,637.3 L870.3,636.8 L871.4,636.4
		L872.5,636.0 L873.7,635.6 L874.8,635.2 L876.0,634.8 L877.1,634.4 L878.3,634.0 L879.4,633.6 L880.5,633.2
		L881.7,632.8 L882.8,632.4 L884.0,632.0 L885.1,631.6 L886.2,631.3 L887.4,630.9 L888.5,630.5 L889.7,630.1
		L890.8,629.7 L892.0,629.3 L893.1,628.9 L894.2,628.6 L895.4,628.2 L896.5,627.8 L897.7,627.4 L898.8,627.0
		L899.9,626.7 L901.1,626.3 L902.2,625.9 L903.4,625.6 L904.5,625.2 L905.7,624.8 L906.8,624.5 L907.9,624.1
		L909.1,623.7 L910.2,623.4 L911.4,623.0 L912.5,622.7 L913.6,622.3 L914.8,621.9 L915.9,621.6 L917.1,621.2
		L918.2,620.9 L919.4,620.5 L920.5,620.2 L921.6,619.8 L922.8,619.5 L923.9,619.1 L925.1,618.8 L926.2,618.5
		L927.3,618.1 L928.5,617.8 L929.6,617.4 L930.8,617.1 L931.9,616.8 L933.1,616.4 L934.2,616.1 L935.3,615.8
		L936.5,615.4 L937.6,615.1 L938.8,614.8 L939.9,614.4 L941.0,614.1 L942.2,613.8 L943.3,613.5 L944.5,613.2
		L945.6,612.8 L946.8,612.5 L947.9,612.2 L949.0,611.9 L950.2,611.6 L951.3,611.3 L952.5,610.9 L953.6,610.6
		L954.7,610.3 L955.9,610.0 L957.0,609.7 L958.2,609.4 L959.3,609.1 L960.5,608.8 L961.6,608.5 L962.7,608.2
		L963.9,607.9 L965.0,607.6 L966.2,607.3 L967.3,607.0 L968.4,606.7 L969.6,606.4 L970.7,606.1 L971.9,605.8
		L973.0,605.5 L974.2,605.2 L975.3,604.9 L976.4,604.7 L977.6,604.4 L978.7,604.1 L979.9,603.8 L981.0,603.5
		L982.1,603.2 L983.3,603.0 L984.4,602.7 L985.6,602.4 L986.7,602.1 L987.9,601.8 L989.0,601.6 L990.1,601.3
		L991.3,601.0 L992.4,600.8 L993.6,600.5 L994.7,600.2 L995.8,599.9 L997.0,599.7 L998.1,599.4 L999.3,599.1
		L1000.4,598.9 L1001.6,598.6 L1002.7,598.4 L1003.8,598.1 L1005.0,597.8 L1006.1,597.6 L1007.3,597.3 L1008.4,597.1
		L1009.5,596.8 L1010.7,596.6 L1011.8,596.3 L1013.0,596.1 L1014.1,595.8 L1015.3,595.6 L1016.4,595.3 L1017.5,595.1
		L1018.7,594.8 L1019.8,594.6 L1021.0,594.3 L1022.1,594.1 L1023.2,593.9 L1024.4,593.6 L1025.5,593.4 L1026.7,593.1
		L1027.8,592.9 L1029.0,592.7 L1030.1,592.4 L1031.2,592.2 L1032.4,592.0 L1033.5,591.7 L1034.7,591.5 L1035.8,591.3
		L1036.9,591.1 L1038.1,590.8 L1039.2,590.6 L1040.4,590.4 L1041.5,590.2 L1042.7,589.9 L1043.8,589.7 L1044.9,589.5
		L1046.1,589.3 L1047.2,589.1 L1048.4,588.8 L1049.5,588.6 L1050.6,588.4 L1051.8,588.2 L1052.9,588.0 L1054.1,587.8
		L1055.2,587.6 L1056.4,587.4 L1057.5,587.2 L1058.6,586.9 L1059.8,586.7 L1060.9,586.5 L1062.1,586.3 L1063.2,586.1
		L1064.3,585.9 L1065.5,585.7 L1066.6,585.5 L1067.8,585.3 L1068.9,585.1 L1070.1,584.9 L1071.2,584.7 L1072.3,584.6
		L1073.5,584.4 L1074.6,584.2 L1075.8,584.0 L1076.9,583.8 L1078.0,583.6 L1079.2,583.4 L1080.3,583.2 L1081.5,583.0
		L1082.6,582.9 L1083.8,582.7 L1084.9,582.5 L1086.0,582.3 L1087.2,582.1 L1088.3,582.0 L1089.5,581.8 L1090.6,581.6
		L1091.7,581.4 L1092.9,581.3 L1094.0,581.1 L1095.2,580.9 L1096.3,580.8 L1097.5,580.6 L1098.6,580.4 L1099.7,580.2
		L1100.9,580.1 L1102.0,579.9 L1103.2,579.8 L1104.3,579.6 L1105.4,579.4 L1106.6,579.3 L1107.7,579.1 L1108.9,579.0
		L1110.0,578.8 L1111.2,578.6 L1112.3,578.5 L1113.4,578.3 L1114.6,578.2 L1115.7,578.0 L1116.9,577.9 L1118.0,577.7
		L1119.1,577.6 L1120.3,577.4 L1121.4,577.3 L1122.6,577.2 L1123.7,577.0 L1124.9,576.9 L1126.0,576.7 L1127.1,576.6
		L1128.3,576.5 L1129.4,576.3 L1130.6,576.2 L1131.7,576.1 L1132.8,575.9 L1134.0,575.8 L1135.1,575.7 L1136.3,575.5
		L1137.4,575.4 L1138.6,575.3 L1139.7,575.1 L1140.8,575.0 L1142.0,574.9 L1143.1,574.8 L1144.3,574.6 L1145.4,574.5
		L1146.5,574.4 L1147.7,574.3 L1148.8,574.2 L1150.0,574.1 L1151.1,573.9 L1152.3,573.8 L1153.4,573.7 L1154.5,573.6
		L1155.7,573.5 L1156.8,573.4 L1158.0,573.3 L1159.1,573.2 L1160.2,573.1 L1161.4,573.0 L1162.5,572.9 L1163.7,572.8
		L1164.8,572.7 L1166.0,572.6 L1167.1,572.5 L1168.2,572.4 L1169.4,572.3 L1170.5,572.2 L1171.7,572.1 L1172.8,572.0
		L1173.9,571.9 L1175.1,571.8 L1176.2,571.7 L1177.4,571.6 L1178.5,571.6 L1179.7,571.5 L1180.8,571.4 L1181.9,571.3
		L1183.1,571.2 L1184.2,571.2 L1185.4,571.1 L1186.5,571.0 L1187.6,570.9 L1188.8,570.8 L1189.9,570.8 L1191.1,570.7
		L1192.2,570.6 L1193.4,570.6 L1194.5,570.5 L1195.6,570.4 L1196.8,570.4 L1197.9,570.3 L1199.1,570.2 L1200.2,570.2
		L1201.3,570.1 L1202.5,570.1 L1203.6,570.0 L1204.8,569.9 L1205.9,569.9 L1207.1,569.8 L1208.2,569.8 L1209.3,569.7
		L1210.5,569.7 L1211.6,569.6 L1212.8,569.6 L1213.9,569.5 L1215.0,569.5 L1216.2,569.4 L1217.3,569.4 L1218.5,569.4
		L1219.6,569.3 L1220.8,569.3 L1221.9,569.2 L1223.0,569.2 L1224.2,569.2 L1225.3,569.1 L1226.5,569.1 L1227.6,569.1
		L1228.7,569.0 L1229.9,569.0 L1231.0,569.0 L1232.2,569.0 L1233.3,568.9 L1234.5,568.9 L1235.6,568.9 L1236.7,568.9
		L1237.9,568.8 L1239.0,568.8 L1240.2,568.8 L1241.3,568.8 L1242.4,568.8 L1243.6,568.8 L1244.7,568.8 L1245.9,568.7
		L1247.0,568.7 L1248.2,568.7 L1249.3,568.7 L1250.4,568.7 L1251.6,568.7 L1252.7,568.7 L1253.9,568.7 L1255.0,568.7
		 '/></g>
	</g>
	<g id="gnuplot_plot_6" ><title>gnuplot_plot_6</title>
<g fill="none" color="black" stroke="currentColor" stroke-width="1.00" stroke-linecap="butt" stroke-linejoin="miter">
	<path stroke='rgb(  0,   0, 255)'  d='M87.1,57.0 L88.2,65.2 L89.4,85.2 L90.5,109.4 L91.7,133.4 L92.8,155.5 L93.9,175.4 L95.1,193.3
		L96.2,209.4 L97.4,223.9 L98.5,237.1 L99.7,249.1 L100.8,260.1 L101.9,270.2 L103.1,279.6 L104.2,288.2
		L105.4,296.1 L106.5,303.5 L107.6,310.4 L108.8,316.8 L109.9,322.7 L111.1,328.2 L112.2,333.4 L113.4,338.2
		L114.5,342.7 L115.6,346.9 L116.8,350.8 L117.9,354.4 L119.1,357.8 L120.2,361.0 L121.3,364.0 L122.5,366.8
		L123.6,369.4 L124.8,371.8 L125.9,374.1 L127.1,376.2 L128.2,378.2 L129.3,380.1 L130.5,381.9 L131.6,383.6
		L132.8,385.2 L133.9,386.7 L135.0,388.1 L136.2,389.4 L137.3,390.7 L138.5,391.9 L139.6,393.0 L140.8,394.1
		L141.9,395.2 L143.0,396.2 L144.2,397.1 L145.3,398.0 L146.5,398.9 L147.6,399.7 L148.7,400.5 L149.9,401.3
		L151.0,402.1 L152.2,402.8 L153.3,403.5 L154.5,404.2 L155.6,404.9 L156.7,405.5 L157.9,406.2 L159.0,406.8
		L160.2,407.4 L161.3,408.0 L162.4,408.6 L163.6,409.1 L164.7,409.7 L165.9,410.3 L167.0,410.8 L168.2,411.3
		L169.3,411.9 L170.4,412.4 L171.6,412.9 L172.7,413.4 L173.9,413.9 L175.0,414.4 L176.1,414.9 L177.3,415.4
		L178.4,415.9 L179.6,416.4 L180.7,416.9 L181.9,417.4 L183.0,417.8 L184.1,418.3 L185.3,418.8 L186.4,419.3
		L187.6,419.7 L188.7,420.2 L189.8,420.7 L191.0,421.2 L192.1,421.6 L193.3,422.1 L194.4,422.6 L195.6,423.0
		L196.7,423.5 L197.8,424.0 L199.0,424.4 L200.1,424.9 L201.3,425.4 L202.4,425.8 L203.5,426.3 L204.7,426.8
		L205.8,427.3 L207.0,427.7 L208.1,428.2 L209.3,428.7 L210.4,429.1 L211.5,429.6 L212.7,430.1 L213.8,430.6
		L215.0,431.0 L216.1,431.5 L217.2,432.0 L218.4,432.5 L219.5,433.0 L220.7,433.4 L221.8,433.9 L223.0,434.4
		L224.1,434.9 L225.2,435.4 L226.4,435.8 L227.5,436.3 L228.7,436.8 L229.8,437.3 L230.9,437.8 L232.1,438.3
		L233.2,438.8 L234.4,439.3 L235.5,439.8 L236.7,440.2 L237.8,440.7 L238.9,441.2 L240.1,441.7 L241.2,442.2
		L242.4,442.7 L243.5,443.2 L244.6,443.7 L245.8,444.2 L246.9,444.7 L248.1,445.2 L249.2,445.7 L250.4,446.2
		L251.5,446.8 L252.6,447.3 L253.8,447.8 L254.9,448.3 L256.1,448.8 L257.2,449.3 L258.3,449.8 L259.5,450.3
		L260.6,450.8 L261.8,451.3 L262.9,451.9 L264.1,452.4 L265.2,452.9 L266.3,453.4 L267.5,453.9 L268.6,454.5
		L269.8,455.0 L270.9,455.5 L272.0,456.0 L273.2,456.5 L274.3,457.1 L275.5,457.6 L276.6,458.1 L277.8,458.6
		L278.9,459.2 L280.0,459.7 L281.2,460.2 L282.3,460.7 L283.5,461.3 L284.6,461.8 L285.7,462.3 L286.9,462.9
		L288.0,463.4 L289.2,463.9 L290.3,464.5 L291.5,465.0 L292.6,465.5 L293.7,466.1 L294.9,466.6 L296.0,467.1
		L297.2,467.7 L298.3,468.2 L299.4,468.8 L300.6,469.3 L301.7,469.8 L302.9,470.4 L304.0,470.9 L305.2,471.5
		L306.3,472.0 L307.4,472.6 L308.6,473.1 L309.7,473.6 L310.9,474.2 L312.0,474.7 L313.1,475.3 L314.3,475.8
		L315.4,476.4 L316.6,476.9 L317.7,477.5 L318.9,478.0 L320.0,478.6 L321.1,479.1 L322.3,479.7 L323.4,480.2
		L324.6,480.8 L325.7,481.3 L326.8,481.9 L328.0,482.4 L329.1,483.0 L330.3,483.5 L331.4,484.1 L332.6,484.7
		L333.7,485.2 L334.8,485.8 L336.0,486.3 L337.1,486.9 L338.3,487.4 L339.4,488.0 L340.5,488.6 L341.7,489.1
		L342.8,489.7 L344.0,490.2 L345.1,490.8 L346.3,491.4 L347.4,491.9 L348.5,492.5 L349.7,493.0 L350.8,493.6
		L352.0,494.2 L353.1,494.7 L354.2,495.3 L355.4,495.9 L356.5,496.4 L357.7,497.0 L358.8,497.6 L360.0,498.1
		L361.1,498.7 L362.2,499.3 L363.4,499.8 L364.5,500.4 L365.7,501.0 L366.8,501.5 L367.9,502.1 L369.1,502.7
		L370.2,503.3 L371.4,503.8 L372.5,504.4 L373.7,505.0 L374.8,505.5 L375.9,506.1 L377.1,506.7 L378.2,507.3
		L379.4,507.8 L380.5,508.4 L381.6,509.0 L382.8,509.6 L383.9,510.1 L385.1,510.7 L386.2,511.3 L387.4,511.9
		L388.5,512.4 L389.6,513.0 L390.8,513.6 L391.9,514.2 L393.1,514.8 L394.2,515.3 L395.3,515.9 L396.5,516.5
		L397.6,517.1 L398.8,517.7 L399.9,518.2 L401.1,518.8 L402.2,519.4 L403.3,520.0 L404.5,520.6 L405.6,521.2
		L406.8,521.8 L407.9,522.3 L409.0,522.9 L410.2,523.5 L411.3,524.1 L412.5,524.7 L413.6,525.3 L414.8,525.9
		L415.9,526.5 L417.0,527.0 L418.2,527.6 L419.3,528.2 L420.5,528.8 L421.6,529.4 L422.7,530.0 L423.9,530.6
		L425.0,531.2 L426.2,531.8 L427.3,532.4 L428.5,533.0 L429.6,533.6 L430.7,534.2 L431.9,534.8 L433.0,535.4
		L434.2,536.0 L435.3,536.6 L436.4,537.1 L437.6,537.7 L438.7,538.3 L439.9,538.9 L441.0,539.6 L442.2,540.2
		L443.3,540.8 L444.4,541.4 L445.6,542.0 L446.7,542.6 L447.9,543.2 L449.0,543.8 L450.1,544.4 L451.3,545.0
		L452.4,545.6 L453.6,546.2 L454.7,546.8 L455.9,547.4 L457.0,548.0 L458.1,548.6 L459.3,549.3 L460.4,549.9
		L461.6,550.5 L462.7,551.1 L463.8,551.7 L465.0,552.3 L466.1,552.9 L467.3,553.5 L468.4,554.2 L469.6,554.8
		L470.7,555.4 L471.8,556.0 L473.0,556.6 L474.1,557.3 L475.3,557.9 L476.4,558.5 L477.5,559.1 L478.7,559.7
		L479.8,560.4 L481.0,561.0 L482.1,561.6 L483.2,562.2 L484.4,562.9 L485.5,563.5 L486.7,564.1 L487.8,564.7
		L489.0,565.4 L490.1,566.0 L491.2,566.6 L492.4,567.3 L493.5,567.9 L494.7,568.5 L495.8,569.2 L496.9,569.8
		L498.1,570.4 L499.2,571.1 L500.4,571.7 L501.5,572.4 L502.7,573.0 L503.8,573.6 L504.9,574.3 L506.1,574.9
		L507.2,575.6 L508.4,576.2 L509.5,576.8 L510.6,577.5 L511.8,578.1 L512.9,578.8 L514.1,579.4 L515.2,580.1
		L516.4,580.7 L517.5,581.4 L518.6,582.0 L519.8,582.7 L520.9,583.3 L522.1,584.0 L523.2,584.6 L524.3,585.3
		L525.5,586.0 L526.6,586.6 L527.8,587.3 L528.9,587.9 L530.1,588.6 L531.2,589.3 L532.3,589.9 L533.5,590.6
		L534.6,591.2 L535.8,591.9 L536.9,592.6 L538.0,593.2 L539.2,593.9 L540.3,594.6 L541.5,595.3 L542.6,595.9
		L543.8,596.6 L544.9,597.3 L546.0,597.9 L547.2,598.6 L548.3,599.3 L549.5,600.0 L550.6,600.6 L551.7,601.3
		L552.9,602.0 L554.0,602.7 L555.2,603.4 L556.3,604.0 L557.5,604.7 L558.6,605.4 L559.7,606.1 L560.9,606.8
		L562.0,607.5 L563.2,608.1 L564.3,608.8 L565.4,609.5 L566.6,610.2 L567.7,610.9 L568.9,611.6 L570.0,612.3
		L571.2,613.0 L572.3,613.7 L573.4,614.4 L574.6,615.0 L575.7,615.7 L576.9,616.4 L578.0,617.1 L579.1,617.8
		L580.3,618.5 L581.4,619.2 L582.6,619.9 L583.7,620.6 L584.9,621.3 L586.0,622.0 L587.1,622.7 L588.3,623.4
		L589.4,624.1 L590.6,624.8 L591.7,625.5 L592.8,626.2 L594.0,626.9 L595.1,627.6 L596.3,628.3 L597.4,629.0
		L598.6,629.7 L599.7,630.4 L600.8,631.2 L602.0,631.9 L603.1,632.6 L604.3,633.3 L605.4,634.0 L606.5,634.7
		L607.7,635.4 L608.8,636.1 L610.0,636.8 L611.1,637.5 L612.3,638.2 L613.4,638.9 L614.5,639.6 L615.7,640.3
		L616.8,641.0 L618.0,641.7 L619.1,642.4 L620.2,643.1 L621.4,643.7 L622.5,644.4 L623.7,645.1 L624.8,645.8
		L626.0,646.5 L627.1,647.2 L628.2,647.9 L629.4,648.6 L630.5,649.2 L631.7,649.9 L632.8,650.6 L633.9,651.3
		L635.1,651.9 L636.2,652.6 L637.4,653.3 L638.5,653.9 L639.7,654.6 L640.8,655.3 L641.9,655.9 L643.1,656.6
		L644.2,657.2 L645.4,657.9 L646.5,658.5 L647.6,659.1 L648.8,659.8 L649.9,660.4 L651.1,661.0 L652.2,661.6
		L653.4,662.3 L654.5,662.9 L655.6,663.5 L656.8,664.1 L657.9,664.7 L659.1,665.3 L660.2,665.8 L661.3,666.4
		L662.5,667.0 L663.6,667.6 L664.8,668.1 L665.9,668.7 L667.1,669.2 L668.2,669.8 L669.3,670.3 L670.5,670.8
		L671.6,671.3 L672.8,671.8 L673.9,672.3 L675.0,672.8 L676.2,673.3 L677.3,673.8 L678.5,674.2 L679.6,674.7
		L680.8,675.1 L681.9,675.6 L683.0,676.0 L684.2,676.4 L685.3,676.8 L686.5,677.2 L687.6,677.6 L688.7,678.0
		L689.9,678.4 L691.0,678.7 L692.2,679.1 L693.3,679.4 L694.5,679.7 L695.6,680.1 L696.7,680.4 L697.9,680.6
		L699.0,680.9 L700.2,681.2 L701.3,681.4 L702.4,681.7 L703.6,681.9 L704.7,682.1 L705.9,682.3 L707.0,682.5
		L708.2,682.7 L709.3,682.9 L710.4,683.1 L711.6,683.2 L712.7,683.3 L713.9,683.5 L715.0,683.6 L716.1,683.7
		L717.3,683.7 L718.4,683.8 L719.6,683.9 L720.7,683.9 L721.9,684.0 L723.0,684.0 L724.1,684.0 L725.3,684.0
		L726.4,684.0 L727.6,684.0 L728.7,683.9 L729.8,683.9 L731.0,683.8 L732.1,683.8 L733.3,683.7 L734.4,683.6
		L735.6,683.5 L736.7,683.4 L737.8,683.3 L739.0,683.1 L740.1,683.0 L741.3,682.8 L742.4,682.7 L743.5,682.5
		L744.7,682.3 L745.8,682.1 L747.0,681.9 L748.1,681.7 L749.3,681.5 L750.4,681.3 L751.5,681.1 L752.7,680.8
		L753.8,680.6 L755.0,680.3 L756.1,680.1 L757.2,679.8 L758.4,679.5 L759.5,679.2 L760.7,678.9 L761.8,678.6
		L763.0,678.3 L764.1,678.0 L765.2,677.7 L766.4,677.4 L767.5,677.1 L768.7,676.7 L769.8,676.4 L770.9,676.1
		L772.1,675.7 L773.2,675.4 L774.4,675.0 L775.5,674.6 L776.7,674.3 L777.8,673.9 L778.9,673.5 L780.1,673.2
		L781.2,672.8 L782.4,672.4 L783.5,672.0 L784.6,671.6 L785.8,671.2 L786.9,670.8 L788.1,670.4 L789.2,670.0
		L790.4,669.6 L791.5,669.2 L792.6,668.8 L793.8,668.4 L794.9,668.0 L796.1,667.6 L797.2,667.2 L798.3,666.8
		L799.5,666.3 L800.6,665.9 L801.8,665.5 L802.9,665.1 L804.1,664.7 L805.2,664.2 L806.3,663.8 L807.5,663.4
		L808.6,663.0 L809.8,662.5 L810.9,662.1 L812.0,661.7 L813.2,661.3 L814.3,660.8 L815.5,660.4 L816.6,660.0
		L817.8,659.5 L818.9,659.1 L820.0,658.7 L821.2,658.3 L822.3,657.8 L823.5,657.4 L824.6,657.0 L825.7,656.5
		L826.9,656.1 L828.0,655.7 L829.2,655.3 L830.3,654.8 L831.5,654.4 L832.6,654.0 L833.7,653.5 L834.9,653.1
		L836.0,652.7 L837.2,652.3 L838.3,651.8 L839.4,651.4 L840.6,651.0 L841.7,650.6 L842.9,650.2 L844.0,649.7
		L845.2,649.3 L846.3,648.9 L847.4,648.5 L848.6,648.1 L849.7,647.7 L850.9,647.2 L852.0,646.8 L853.1,646.4
		L854.3,646.0 L855.4,645.6 L856.6,645.2 L857.7,644.8 L858.9,644.4 L860.0,644.0 L861.1,643.5 L862.3,643.1
		L863.4,642.7 L864.6,642.3 L865.7,641.9 L866.8,641.5 L868.0,641.1 L869.1,640.7 L870.3,640.3 L871.4,639.9
		L872.5,639.6 L873.7,639.2 L874.8,638.8 L876.0,638.4 L877.1,638.0 L878.3,637.6 L879.4,637.2 L880.5,636.8
		L881.7,636.4 L882.8,636.1 L884.0,635.7 L885.1,635.3 L886.2,634.9 L887.4,634.5 L888.5,634.2 L889.7,633.8
		L890.8,633.4 L892.0,633.0 L893.1,632.7 L894.2,632.3 L895.4,631.9 L896.5,631.6 L897.7,631.2 L898.8,630.8
		L899.9,630.5 L901.1,630.1 L902.2,629.7 L903.4,629.4 L904.5,629.0 L905.7,628.7 L906.8,628.3 L907.9,627.9
		L909.1,627.6 L910.2,627.2 L911.4,626.9 L912.5,626.5 L913.6,626.2 L914.8,625.8 L915.9,625.5 L917.1,625.1
		L918.2,624.8 L919.4,624.5 L920.5,624.1 L921.6,623.8 L922.8,623.4 L923.9,623.1 L925.1,622.8 L926.2,622.4
		L927.3,622.1 L928.5,621.8 L929.6,621.4 L930.8,621.1 L931.9,620.8 L933.1,620.4 L934.2,620.1 L935.3,619.8
		L936.5,619.5 L937.6,619.1 L938.8,618.8 L939.9,618.5 L941.0,618.2 L942.2,617.9 L943.3,617.5 L944.5,617.2
		L945.6,616.9 L946.8,616.6 L947.9,616.3 L949.0,616.0 L950.2,615.7 L951.3,615.4 L952.5,615.0 L953.6,614.7
		L954.7,614.4 L955.9,614.1 L957.0,613.8 L958.2,613.5 L959.3,613.2 L960.5,612.9 L961.6,612.6 L962.7,612.3
		L963.9,612.0 L965.0,611.7 L966.2,611.4 L967.3,611.2 L968.4,610.9 L969.6,610.6 L970.7,610.3 L971.9,610.0
		L973.0,609.7 L974.2,609.4 L975.3,609.1 L976.4,608.9 L977.6,608.6 L978.7,608.3 L979.9,608.0 L981.0,607.7
		L982.1,607.5 L983.3,607.2 L984.4,606.9 L985.6,606.6 L986.7,606.4 L987.9,606.1 L989.0,605.8 L990.1,605.5
		L991.3,605.3 L992.4,605.0 L993.6,604.7 L994.7,604.5 L995.8,604.2 L997.0,603.9 L998.1,603.7 L999.3,603.4
		L1000.4,603.2 L1001.6,602.9 L1002.7,602.6 L1003.8,602.4 L1005.0,602.1 L1006.1,601.9 L1007.3,601.6 L1008.4,601.4
		L1009.5,601.1 L1010.7,600.9 L1011.8,600.6 L1013.0,600.4 L1014.1,600.1 L1015.3,599.9 L1016.4,599.6 L1017.5,599.4
		L1018.7,599.2 L1019.8,598.9 L1021.0,598.7 L1022.1,598.4 L1023.2,598.2 L1024.4,598.0 L1025.5,597.7 L1026.7,597.5
		L1027.8,597.3 L1029.0,597.0 L1030.1,596.8 L1031.2,596.6 L1032.4,596.3 L1033.5,596.1 L1034.7,595.9 L1035.8,595.6
		L1036.9,595.4 L1038.1,595.2 L1039.2,595.0 L1040.4,594.7 L1041.5,594.5 L1042.7,594.3 L1043.8,594.1 L1044.9,593.9
		L1046.1,593.7 L1047.2,593.4 L1048.4,593.2 L1049.5,593.0 L1050.6,592.8 L1051.8,592.6 L1052.9,592.4 L1054.1,592.2
		L1055.2,592.0 L1056.4,591.8 L1057.5,591.5 L1058.6,591.3 L1059.8,591.1 L1060.9,590.9 L1062.1,590.7 L1063.2,590.5
		L1064.3,590.3 L1065.5,590.1 L1066.6,589.9 L1067.8,589.7 L1068.9,589.6 L1070.1,589.4 L1071.2,589.2 L1072.3,589.0
		L1073.5,588.8 L1074.6,588.6 L1075.8,588.4 L1076.9,588.2 L1078.0,588.0 L1079.2,587.8 L1080.3,587.7 L1081.5,587.5
		L1082.6,587.3 L1083.8,587.1 L1084.9,586.9 L1086.0,586.8 L1087.2,586.6 L1088.3,586.4 L1089.5,586.2 L1090.6,586.1
		L1091.7,585.9 L1092.9,585.7 L1094.0,585.5 L1095.2,585.4 L1096.3,585.2 L1097.5,585.0 L1098.6,584.9 L1099.7,584.7
		L1100.9,584.5 L1102.0,584.4 L1103.2,584.2 L1104.3,584.0 L1105.4,583.9 L1106.6,583.7 L1107.7,583.6 L1108.9,583.4
		L1110.0,583.3 L1111.2,583.1 L1112.3,583.0 L1113.4,582.8 L1114.6,582.7 L1115.7,582.5 L1116.9,582.4 L1118.0,582.2
		L1119.1,582.1 L1120.3,581.9 L1121.4,581.8 L1122.6,581.6 L1123.7,581.5 L1124.9,581.3 L1126.0,581.2 L1127.1,581.1
		L1128.3,580.9 L1129.4,580.8 L1130.6,580.7 L1131.7,580.5 L1132.8,580.4 L1134.0,580.3 L1135.1,580.1 L1136.3,580.0
		L1137.4,579.9 L1138.6,579.8 L1139.7,579.6 L1140.8,579.5 L1142.0,579.4 L1143.1,579.3 L1144.3,579.1 L1145.4,579.0
		L1146.5,578.9 L1147.7,578.8 L1148.8,578.7 L1150.0,578.6 L1151.1,578.4 L1152.3,578.3 L1153.4,578.2 L1154.5,578.1
		L1155.7,578.0 L1156.8,577.9 L1158.0,577.8 L1159.1,577.7 L1160.2,577.6 L1161.4,577.5 L1162.5,577.4 L1163.7,577.3
		L1164.8,577.2 L1166.0,577.1 L1167.1,577.0 L1168.2,576.9 L1169.4,576.8 L1170.5,576.7 L1171.7,576.6 L1172.8,576.5
		L1173.9,576.4 L1175.1,576.3 L1176.2,576.2 L1177.4,576.2 L1178.5,576.1 L1179.7,576.0 L1180.8,575.9 L1181.9,575.8
		L1183.1,575.7 L1184.2,575.7 L1185.4,575.6 L1186.5,575.5 L1187.6,575.4 L1188.8,575.4 L1189.9,575.3 L1191.1,575.2
		L1192.2,575.1 L1193.4,575.1 L1194.5,575.0 L1195.6,574.9 L1196.8,574.9 L1197.9,574.8 L1199.1,574.8 L1200.2,574.7
		L1201.3,574.6 L1202.5,574.6 L1203.6,574.5 L1204.8,574.5 L1205.9,574.4 L1207.1,574.3 L1208.2,574.3 L1209.3,574.2
		L1210.5,574.2 L1211.6,574.1 L1212.8,574.1 L1213.9,574.1 L1215.0,574.0 L1216.2,574.0 L1217.3,573.9 L1218.5,573.9
		L1219.6,573.8 L1220.8,573.8 L1221.9,573.8 L1223.0,573.7 L1224.2,573.7 L1225.3,573.7 L1226.5,573.6 L1227.6,573.6
		L1228.7,573.6 L1229.9,573.5 L1231.0,573.5 L1232.2,573.5 L1233.3,573.5 L1234.5,573.4 L1235.6,573.4 L1236.7,573.4
		L1237.9,573.4 L1239.0,573.4 L1240.2,573.3 L1241.3,573.3 L1242.4,573.3 L1243.6,573.3 L1244.7,573.3 L1245.9,573.3
		L1247.0,573.3 L1248.2,573.3 L1249.3,573.2 L1250.4,573.2 L1251.6,573.2 L1252.7,573.2 L1253.9,573.2 L1255.0,573.2
		 '/></g>
	</g>
<g fill="none" color="white" stroke="rgb(  0,   0, 255)" stroke-width="2.00" stroke-linecap="butt" stroke-linejoin="miter">
</g>
<g fill="none" color="black" stroke="currentColor" stroke-width="2.00" stroke-linecap="butt" stroke-linejoin="miter">
</g>
<g fill="none" color="black" stroke="black" stroke-width="1.00" stroke-linecap="butt" stroke-linejoin="miter">
</g>
<g fill="none" color="black" stroke="currentColor" stroke-width="1.00" stroke-linecap="butt" stroke-linejoin="miter">
	<path stroke='black'  d='M87.1,54.1 L87.1,684.0 L1255.0,684.0 L1255.0,54.1 L87.1,54.1 Z  '/></g>
<g fill="none" color="black" stroke="currentColor" stroke-width="1.00" stroke-linecap="butt" stroke-linejoin="miter">
</g>
</g>
</svg>

