<?xml version="1.0" encoding="utf-8"  standalone="no"?>
<svg 
 width="1280" height="720"
 viewBox="0 0 1280 720"
 xmlns="http://www.w3.org/2000/svg"
 xmlns:xlink="http://www.w3.org/1999/xlink"
>

<title>Gnuplot</title>
<desc>Produced by GNUPLOT 5.0 patchlevel 6 </desc>

<g id="gnuplot_canvas">

<rect x="0" y="0" width="1280" height="720" fill="none"/>
<defs>

	<circle id='gpDot' r='0.5' stroke-width='0.5'/>
	<path id='gpPt0' stroke-width='0.222' stroke='currentColor' d='M-1,0 h2 M0,-1 v2'/>
	<path id='gpPt1' stroke-width='0.222' stroke='currentColor' d='M-1,-1 L1,1 M1,-1 L-1,1'/>
	<path id='gpPt2' stroke-width='0.222' stroke='currentColor' d='M-1,0 L1,0 M0,-1 L0,1 M-1,-1 L1,1 M-1,1 L1,-1'/>
	<rect id='gpPt3' stroke-width='0.222' stroke='currentColor' x='-1' y='-1' width='2' height='2'/>
	<rect id='gpPt4' stroke-width='0.222' stroke='currentColor' fill='currentColor' x='-1' y='-1' width='2' height='2'/>
	<circle id='gpPt5' stroke-width='0.222' stroke='currentColor' cx='0' cy='0' r='1'/>
	<use xlink:href='#gpPt5' id='gpPt6' fill='currentColor' stroke='none'/>
	<path id='gpPt7' stroke-width='0.222' stroke='currentColor' d='M0,-1.33 L-1.33,0.67 L1.33,0.67 z'/>
	<use xlink:href='#gpPt7' id='gpPt8' fill='currentColor' stroke='none'/>
	<use xlink:href='#gpPt7' id='gpPt9' stroke='currentColor' transform='rotate(180)'/>
	<use xlink:href='#gpPt9' id='gpPt10' fill='currentColor' stroke='none'/>
	<use xlink:href='#gpPt3' id='gpPt11' stroke='currentColor' transform='rotate(45)'/>
	<use xlink:href='#gpPt11' id='gpPt12' fill='currentColor' stroke='none'/>
	<path id='gpPt13' stroke-width='0.222' stroke='currentColor' d='M0,1.330 L1.265,0.411 L0.782,-1.067 L-0.782,-1.076 L-1.265,0.411 z'/>
	<use xlink:href='#gpPt13' id='gpPt14' fill='currentColor' stroke='none'/>
	<filter id='textbox' filterUnits='objectBoundingBox' x='0' y='0' height='1' width='1'>
	  <feFlood flood-color='white' flood-opacity='1' result='bgnd'/>
	  <feComposite in='SourceGraphic' in2='bgnd' operator='atop'/>
	</filter>
	<filter id='greybox' filterUnits='objectBoundingBox' x='0' y='0' height='1' width='1'>
	  <feFlood flood-color='lightgrey' flood-opacity='1' result='grey'/>
	  <feComposite in='SourceGraphic' in2='grey' operator='atop'/>
	</filter>
</defs>
<g fill="none" color="white" stroke="currentColor" stroke-width="1.00" stroke-linecap="butt" stroke-linejoin="miter">
</g>
<g fill="none" color="black" stroke="currentColor" stroke-width="1.00" stroke-linecap="butt" stroke-linejoin="miter">
	<path stroke='black'  d='M78.8,684.0 L87.8,684.0 M1255.0,684.0 L1246.0,684.0  '/>	<g transform="translate(70.5,687.9)" stroke="none" fill="black" font-family="Arial" font-size="12.00"  text-anchor="end">
		<text><tspan font-family="Arial" >0.00007</tspan></text>
	</g>
</g>
<g fill="none" color="black" stroke="currentColor" stroke-width="1.00" stroke-linecap="butt" stroke-linejoin="miter">
	<path stroke='black'  d='M78.8,369.0 L87.8,369.0 M1255.0,369.0 L1246.0,369.0  '/>	<g transform="translate(70.5,372.9)" stroke="none" fill="black" font-family="Arial" font-size="12.00"  text-anchor="end">
		<text><tspan font-family="Arial" >0.00191</tspan></text>
	</g>
</g>
<g fill="none" color="black" stroke="currentColor" stroke-width="1.00" stroke-linecap="butt" stroke-linejoin="miter">
	<path stroke='black'  d='M78.8,54.1 L87.8,54.1 M1255.0,54.1 L1246.0,54.1  '/>	<g transform="translate(70.5,58.0)" stroke="none" fill="black" font-family="Arial" font-size="12.00"  text-anchor="end">
		<text><tspan font-family="Arial" >0.04975</tspan></text>
	</g>
</g>
<g fill="none" color="black" stroke="currentColor" stroke-width="1.00" stroke-linecap="butt" stroke-linejoin="miter">
	<path stroke='black'  d='M78.8,684.0 L78.8,675.0 M78.8,54.1 L78.8,63.1  '/>	<g transform="translate(78.8,705.9)" stroke="none" fill="black" font-family="Arial" font-size="12.00"  text-anchor="middle">
		<text><tspan font-family="Arial" > 0</tspan></text>
	</g>
</g>
<g fill="none" color="black" stroke="currentColor" stroke-width="1.00" stroke-linecap="butt" stroke-linejoin="miter">
	<path stroke='black'  d='M666.9,684.0 L666.9,675.0 M666.9,54.1 L666.9,63.1  '/>	<g transform="translate(666.9,705.9)" stroke="none" fill="black" font-family="Arial" font-size="12.00"  text-anchor="middle">
		<text><tspan font-family="Arial" >pi/2</tspan></text>
	</g>
</g>
<g fill="none" color="black" stroke="currentColor" stroke-width="1.00" stroke-linecap="butt" stroke-linejoin="miter">
	<path stroke='black'  d='M1255.0,684.0 L1255.0,675.0 M1255.0,54.1 L1255.0,63.1  '/>	<g transform="translate(1255.0,705.9)" stroke="none" fill="black" font-family="Arial" font-size="12.00"  text-anchor="middle">
		<text><tspan font-family="Arial" >pi</tspan></text>
	</g>
</g>
<g fill="none" color="black" stroke="currentColor" stroke-width="1.00" stroke-linecap="butt" stroke-linejoin="miter">
</g>
<g fill="none" color="black" stroke="currentColor" stroke-width="1.00" stroke-linecap="butt" stroke-linejoin="miter">
	<path stroke='black'  d='M78.8,54.1 L78.8,684.0 L1255.0,684.0 L1255.0,54.1 L78.8,54.1 Z  '/></g>
<g fill="none" color="black" stroke="currentColor" stroke-width="1.00" stroke-linecap="butt" stroke-linejoin="miter">
	<g transform="translate(666.9,31.0)" stroke="none" fill="black" font-family="Arial" font-size="12.00"  text-anchor="middle">
		<text><tspan font-family="Arial" >Material 48, with 2 components</tspan></text>
	</g>
</g>
	<g id="gnuplot_plot_1" ><title>scattering function</title>
<g fill="none" color="black" stroke="currentColor" stroke-width="1.00" stroke-linecap="butt" stroke-linejoin="miter">
	<g transform="translate(1187.9,76.0)" stroke="none" fill="black" font-family="Arial" font-size="12.00"  text-anchor="end">
		<text><tspan font-family="Arial" >scattering function</tspan></text>
	</g>
</g>
<g fill="none" color="black" stroke="currentColor" stroke-width="1.00" stroke-linecap="butt" stroke-linejoin="miter">
	<use xlink:href='#gpPt5' transform='translate(78.8,98.2) scale(2.25)' color='rgb(255,   0,   0)'/>
	<use xlink:href='#gpPt5' transform='translate(79.5,98.2) scale(2.25)' color='rgb(255,   0,   0)'/>
	<use xlink:href='#gpPt5' transform='translate(80.1,98.3) scale(2.25)' color='rgb(255,   0,   0)'/>
	<use xlink:href='#gpPt5' transform='translate(80.8,98.5) scale(2.25)' color='rgb(255,   0,   0)'/>
	<use xlink:href='#gpPt5' transform='translate(81.4,98.7) scale(2.25)' color='rgb(255,   0,   0)'/>
	<use xlink:href='#gpPt5' transform='translate(82.1,99.0) scale(2.25)' color='rgb(255,   0,   0)'/>
	<use xlink:href='#gpPt5' transform='translate(82.7,99.3) scale(2.25)' color='rgb(255,   0,   0)'/>
	<use xlink:href='#gpPt5' transform='translate(83.4,99.7) scale(2.25)' color='rgb(255,   0,   0)'/>
	<use xlink:href='#gpPt5' transform='translate(84.0,100.1) scale(2.25)' color='rgb(255,   0,   0)'/>
	<use xlink:href='#gpPt5' transform='translate(84.7,100.5) scale(2.25)' color='rgb(255,   0,   0)'/>
	<use xlink:href='#gpPt5' transform='translate(85.3,101.0) scale(2.25)' color='rgb(255,   0,   0)'/>
	<use xlink:href='#gpPt5' transform='translate(86.0,101.5) scale(2.25)' color='rgb(255,   0,   0)'/>
	<use xlink:href='#gpPt5' transform='translate(86.6,102.0) scale(2.25)' color='rgb(255,   0,   0)'/>
	<use xlink:href='#gpPt5' transform='translate(87.3,102.6) scale(2.25)' color='rgb(255,   0,   0)'/>
	<use xlink:href='#gpPt5' transform='translate(87.9,103.2) scale(2.25)' color='rgb(255,   0,   0)'/>
	<use xlink:href='#gpPt5' transform='translate(88.6,103.7) scale(2.25)' color='rgb(255,   0,   0)'/>
	<use xlink:href='#gpPt5' transform='translate(89.3,104.3) scale(2.25)' color='rgb(255,   0,   0)'/>
	<use xlink:href='#gpPt5' transform='translate(89.9,104.9) scale(2.25)' color='rgb(255,   0,   0)'/>
	<use xlink:href='#gpPt5' transform='translate(90.6,105.5) scale(2.25)' color='rgb(255,   0,   0)'/>
	<use xlink:href='#gpPt5' transform='translate(91.2,106.2) scale(2.25)' color='rgb(255,   0,   0)'/>
	<use xlink:href='#gpPt5' transform='translate(91.9,106.8) scale(2.25)' color='rgb(255,   0,   0)'/>
	<use xlink:href='#gpPt5' transform='translate(98.4,113.7) scale(2.25)' color='rgb(255,   0,   0)'/>
	<use xlink:href='#gpPt5' transform='translate(104.9,121.0) scale(2.25)' color='rgb(255,   0,   0)'/>
	<use xlink:href='#gpPt5' transform='translate(111.5,128.5) scale(2.25)' color='rgb(255,   0,   0)'/>
	<use xlink:href='#gpPt5' transform='translate(118.0,136.2) scale(2.25)' color='rgb(255,   0,   0)'/>
	<use xlink:href='#gpPt5' transform='translate(131.1,151.9) scale(2.25)' color='rgb(255,   0,   0)'/>
	<use xlink:href='#gpPt5' transform='translate(144.1,167.5) scale(2.25)' color='rgb(255,   0,   0)'/>
	<use xlink:href='#gpPt5' transform='translate(157.2,183.2) scale(2.25)' color='rgb(255,   0,   0)'/>
	<use xlink:href='#gpPt5' transform='translate(170.3,198.8) scale(2.25)' color='rgb(255,   0,   0)'/>
	<use xlink:href='#gpPt5' transform='translate(183.4,214.5) scale(2.25)' color='rgb(255,   0,   0)'/>
	<use xlink:href='#gpPt5' transform='translate(196.4,230.0) scale(2.25)' color='rgb(255,   0,   0)'/>
	<use xlink:href='#gpPt5' transform='translate(209.5,245.5) scale(2.25)' color='rgb(255,   0,   0)'/>
	<use xlink:href='#gpPt5' transform='translate(222.6,260.9) scale(2.25)' color='rgb(255,   0,   0)'/>
	<use xlink:href='#gpPt5' transform='translate(235.6,276.1) scale(2.25)' color='rgb(255,   0,   0)'/>
	<use xlink:href='#gpPt5' transform='translate(248.7,291.2) scale(2.25)' color='rgb(255,   0,   0)'/>
	<use xlink:href='#gpPt5' transform='translate(261.8,306.2) scale(2.25)' color='rgb(255,   0,   0)'/>
	<use xlink:href='#gpPt5' transform='translate(274.8,321.0) scale(2.25)' color='rgb(255,   0,   0)'/>
	<use xlink:href='#gpPt5' transform='translate(287.9,335.7) scale(2.25)' color='rgb(255,   0,   0)'/>
	<use xlink:href='#gpPt5' transform='translate(301.0,350.1) scale(2.25)' color='rgb(255,   0,   0)'/>
	<use xlink:href='#gpPt5' transform='translate(314.0,364.3) scale(2.25)' color='rgb(255,   0,   0)'/>
	<use xlink:href='#gpPt5' transform='translate(327.1,378.2) scale(2.25)' color='rgb(255,   0,   0)'/>
	<use xlink:href='#gpPt5' transform='translate(340.2,392.0) scale(2.25)' color='rgb(255,   0,   0)'/>
	<use xlink:href='#gpPt5' transform='translate(353.2,405.4) scale(2.25)' color='rgb(255,   0,   0)'/>
	<use xlink:href='#gpPt5' transform='translate(366.3,418.6) scale(2.25)' color='rgb(255,   0,   0)'/>
	<use xlink:href='#gpPt5' transform='translate(379.4,431.5) scale(2.25)' color='rgb(255,   0,   0)'/>
	<use xlink:href='#gpPt5' transform='translate(392.5,444.2) scale(2.25)' color='rgb(255,   0,   0)'/>
	<use xlink:href='#gpPt5' transform='translate(405.5,456.6) scale(2.25)' color='rgb(255,   0,   0)'/>
	<use xlink:href='#gpPt5' transform='translate(418.6,468.7) scale(2.25)' color='rgb(255,   0,   0)'/>
	<use xlink:href='#gpPt5' transform='translate(431.7,480.5) scale(2.25)' color='rgb(255,   0,   0)'/>
	<use xlink:href='#gpPt5' transform='translate(444.7,492.0) scale(2.25)' color='rgb(255,   0,   0)'/>
	<use xlink:href='#gpPt5' transform='translate(457.8,503.3) scale(2.25)' color='rgb(255,   0,   0)'/>
	<use xlink:href='#gpPt5' transform='translate(470.9,514.3) scale(2.25)' color='rgb(255,   0,   0)'/>
	<use xlink:href='#gpPt5' transform='translate(483.9,524.9) scale(2.25)' color='rgb(255,   0,   0)'/>
	<use xlink:href='#gpPt5' transform='translate(497.0,535.2) scale(2.25)' color='rgb(255,   0,   0)'/>
	<use xlink:href='#gpPt5' transform='translate(510.1,545.2) scale(2.25)' color='rgb(255,   0,   0)'/>
	<use xlink:href='#gpPt5' transform='translate(523.1,555.1) scale(2.25)' color='rgb(255,   0,   0)'/>
	<use xlink:href='#gpPt5' transform='translate(536.2,564.5) scale(2.25)' color='rgb(255,   0,   0)'/>
	<use xlink:href='#gpPt5' transform='translate(549.3,573.5) scale(2.25)' color='rgb(255,   0,   0)'/>
	<use xlink:href='#gpPt5' transform='translate(562.3,582.3) scale(2.25)' color='rgb(255,   0,   0)'/>
	<use xlink:href='#gpPt5' transform='translate(575.4,590.8) scale(2.25)' color='rgb(255,   0,   0)'/>
	<use xlink:href='#gpPt5' transform='translate(588.5,598.9) scale(2.25)' color='rgb(255,   0,   0)'/>
	<use xlink:href='#gpPt5' transform='translate(601.6,606.7) scale(2.25)' color='rgb(255,   0,   0)'/>
	<use xlink:href='#gpPt5' transform='translate(614.6,614.2) scale(2.25)' color='rgb(255,   0,   0)'/>
	<use xlink:href='#gpPt5' transform='translate(627.7,621.4) scale(2.25)' color='rgb(255,   0,   0)'/>
	<use xlink:href='#gpPt5' transform='translate(640.8,628.1) scale(2.25)' color='rgb(255,   0,   0)'/>
	<use xlink:href='#gpPt5' transform='translate(653.8,634.4) scale(2.25)' color='rgb(255,   0,   0)'/>
	<use xlink:href='#gpPt5' transform='translate(666.9,640.5) scale(2.25)' color='rgb(255,   0,   0)'/>
	<use xlink:href='#gpPt5' transform='translate(680.0,646.2) scale(2.25)' color='rgb(255,   0,   0)'/>
	<use xlink:href='#gpPt5' transform='translate(693.0,651.5) scale(2.25)' color='rgb(255,   0,   0)'/>
	<use xlink:href='#gpPt5' transform='translate(706.1,656.6) scale(2.25)' color='rgb(255,   0,   0)'/>
	<use xlink:href='#gpPt5' transform='translate(719.2,661.2) scale(2.25)' color='rgb(255,   0,   0)'/>
	<use xlink:href='#gpPt5' transform='translate(732.2,665.2) scale(2.25)' color='rgb(255,   0,   0)'/>
	<use xlink:href='#gpPt5' transform='translate(745.3,668.8) scale(2.25)' color='rgb(255,   0,   0)'/>
	<use xlink:href='#gpPt5' transform='translate(758.4,672.2) scale(2.25)' color='rgb(255,   0,   0)'/>
	<use xlink:href='#gpPt5' transform='translate(771.5,675.3) scale(2.25)' color='rgb(255,   0,   0)'/>
	<use xlink:href='#gpPt5' transform='translate(784.5,677.7) scale(2.25)' color='rgb(255,   0,   0)'/>
	<use xlink:href='#gpPt5' transform='translate(797.6,679.8) scale(2.25)' color='rgb(255,   0,   0)'/>
	<use xlink:href='#gpPt5' transform='translate(810.7,681.6) scale(2.25)' color='rgb(255,   0,   0)'/>
	<use xlink:href='#gpPt5' transform='translate(823.7,682.8) scale(2.25)' color='rgb(255,   0,   0)'/>
	<use xlink:href='#gpPt5' transform='translate(836.8,683.5) scale(2.25)' color='rgb(255,   0,   0)'/>
	<use xlink:href='#gpPt5' transform='translate(849.9,684.0) scale(2.25)' color='rgb(255,   0,   0)'/>
	<use xlink:href='#gpPt5' transform='translate(862.9,684.0) scale(2.25)' color='rgb(255,   0,   0)'/>
	<use xlink:href='#gpPt5' transform='translate(876.0,683.5) scale(2.25)' color='rgb(255,   0,   0)'/>
	<use xlink:href='#gpPt5' transform='translate(889.1,682.5) scale(2.25)' color='rgb(255,   0,   0)'/>
	<use xlink:href='#gpPt5' transform='translate(902.1,681.2) scale(2.25)' color='rgb(255,   0,   0)'/>
	<use xlink:href='#gpPt5' transform='translate(915.2,679.4) scale(2.25)' color='rgb(255,   0,   0)'/>
	<use xlink:href='#gpPt5' transform='translate(928.3,677.0) scale(2.25)' color='rgb(255,   0,   0)'/>
	<use xlink:href='#gpPt5' transform='translate(941.3,674.2) scale(2.25)' color='rgb(255,   0,   0)'/>
	<use xlink:href='#gpPt5' transform='translate(954.4,670.9) scale(2.25)' color='rgb(255,   0,   0)'/>
	<use xlink:href='#gpPt5' transform='translate(967.5,667.4) scale(2.25)' color='rgb(255,   0,   0)'/>
	<use xlink:href='#gpPt5' transform='translate(980.6,663.6) scale(2.25)' color='rgb(255,   0,   0)'/>
	<use xlink:href='#gpPt5' transform='translate(993.6,659.4) scale(2.25)' color='rgb(255,   0,   0)'/>
	<use xlink:href='#gpPt5' transform='translate(1006.7,654.9) scale(2.25)' color='rgb(255,   0,   0)'/>
	<use xlink:href='#gpPt5' transform='translate(1019.8,650.5) scale(2.25)' color='rgb(255,   0,   0)'/>
	<use xlink:href='#gpPt5' transform='translate(1032.8,646.1) scale(2.25)' color='rgb(255,   0,   0)'/>
	<use xlink:href='#gpPt5' transform='translate(1045.9,642.0) scale(2.25)' color='rgb(255,   0,   0)'/>
	<use xlink:href='#gpPt5' transform='translate(1059.0,638.1) scale(2.25)' color='rgb(255,   0,   0)'/>
	<use xlink:href='#gpPt5' transform='translate(1072.0,634.4) scale(2.25)' color='rgb(255,   0,   0)'/>
	<use xlink:href='#gpPt5' transform='translate(1085.1,630.8) scale(2.25)' color='rgb(255,   0,   0)'/>
	<use xlink:href='#gpPt5' transform='translate(1098.2,627.4) scale(2.25)' color='rgb(255,   0,   0)'/>
	<use xlink:href='#gpPt5' transform='translate(1111.2,624.3) scale(2.25)' color='rgb(255,   0,   0)'/>
	<use xlink:href='#gpPt5' transform='translate(1124.3,621.8) scale(2.25)' color='rgb(255,   0,   0)'/>
	<use xlink:href='#gpPt5' transform='translate(1137.4,620.1) scale(2.25)' color='rgb(255,   0,   0)'/>
	<use xlink:href='#gpPt5' transform='translate(1150.4,619.5) scale(2.25)' color='rgb(255,   0,   0)'/>
	<use xlink:href='#gpPt5' transform='translate(1163.5,620.0) scale(2.25)' color='rgb(255,   0,   0)'/>
	<use xlink:href='#gpPt5' transform='translate(1176.6,622.6) scale(2.25)' color='rgb(255,   0,   0)'/>
	<use xlink:href='#gpPt5' transform='translate(1189.7,627.7) scale(2.25)' color='rgb(255,   0,   0)'/>
	<use xlink:href='#gpPt5' transform='translate(1202.7,633.6) scale(2.25)' color='rgb(255,   0,   0)'/>
	<use xlink:href='#gpPt5' transform='translate(1215.8,635.8) scale(2.25)' color='rgb(255,   0,   0)'/>
	<use xlink:href='#gpPt5' transform='translate(1228.9,630.3) scale(2.25)' color='rgb(255,   0,   0)'/>
	<use xlink:href='#gpPt5' transform='translate(1241.9,620.0) scale(2.25)' color='rgb(255,   0,   0)'/>
	<use xlink:href='#gpPt5' transform='translate(1255.0,614.3) scale(2.25)' color='rgb(255,   0,   0)'/>
	<use xlink:href='#gpPt5' transform='translate(1217.3,72.1) scale(2.25)' color='rgb(255,   0,   0)'/>
</g>
	</g>
	<g id="gnuplot_plot_2" ><title>gnuplot_plot_2</title>
<g fill="none" color="black" stroke="currentColor" stroke-width="1.00" stroke-linecap="butt" stroke-linejoin="miter">
	<use xlink:href='#gpPt5' transform='translate(78.8,84.9) scale(2.25)' color='rgb(  0, 100,   0)'/>
	<use xlink:href='#gpPt5' transform='translate(79.5,84.9) scale(2.25)' color='rgb(  0, 100,   0)'/>
	<use xlink:href='#gpPt5' transform='translate(80.1,85.1) scale(2.25)' color='rgb(  0, 100,   0)'/>
	<use xlink:href='#gpPt5' transform='translate(80.8,85.3) scale(2.25)' color='rgb(  0, 100,   0)'/>
	<use xlink:href='#gpPt5' transform='translate(81.4,85.5) scale(2.25)' color='rgb(  0, 100,   0)'/>
	<use xlink:href='#gpPt5' transform='translate(82.1,85.9) scale(2.25)' color='rgb(  0, 100,   0)'/>
	<use xlink:href='#gpPt5' transform='translate(82.7,86.3) scale(2.25)' color='rgb(  0, 100,   0)'/>
	<use xlink:href='#gpPt5' transform='translate(83.4,86.7) scale(2.25)' color='rgb(  0, 100,   0)'/>
	<use xlink:href='#gpPt5' transform='translate(84.0,87.2) scale(2.25)' color='rgb(  0, 100,   0)'/>
	<use xlink:href='#gpPt5' transform='translate(84.7,87.7) scale(2.25)' color='rgb(  0, 100,   0)'/>
	<use xlink:href='#gpPt5' transform='translate(85.3,88.3) scale(2.25)' color='rgb(  0, 100,   0)'/>
	<use xlink:href='#gpPt5' transform='translate(86.0,88.8) scale(2.25)' color='rgb(  0, 100,   0)'/>
	<use xlink:href='#gpPt5' transform='translate(86.6,89.4) scale(2.25)' color='rgb(  0, 100,   0)'/>
	<use xlink:href='#gpPt5' transform='translate(87.3,90.0) scale(2.25)' color='rgb(  0, 100,   0)'/>
	<use xlink:href='#gpPt5' transform='translate(87.9,90.7) scale(2.25)' color='rgb(  0, 100,   0)'/>
	<use xlink:href='#gpPt5' transform='translate(88.6,91.3) scale(2.25)' color='rgb(  0, 100,   0)'/>
	<use xlink:href='#gpPt5' transform='translate(89.3,92.0) scale(2.25)' color='rgb(  0, 100,   0)'/>
	<use xlink:href='#gpPt5' transform='translate(89.9,92.7) scale(2.25)' color='rgb(  0, 100,   0)'/>
	<use xlink:href='#gpPt5' transform='translate(90.6,93.4) scale(2.25)' color='rgb(  0, 100,   0)'/>
	<use xlink:href='#gpPt5' transform='translate(91.2,94.1) scale(2.25)' color='rgb(  0, 100,   0)'/>
	<use xlink:href='#gpPt5' transform='translate(91.9,94.9) scale(2.25)' color='rgb(  0, 100,   0)'/>
	<use xlink:href='#gpPt5' transform='translate(98.4,102.5) scale(2.25)' color='rgb(  0, 100,   0)'/>
	<use xlink:href='#gpPt5' transform='translate(104.9,110.5) scale(2.25)' color='rgb(  0, 100,   0)'/>
	<use xlink:href='#gpPt5' transform='translate(111.5,118.7) scale(2.25)' color='rgb(  0, 100,   0)'/>
	<use xlink:href='#gpPt5' transform='translate(118.0,127.0) scale(2.25)' color='rgb(  0, 100,   0)'/>
	<use xlink:href='#gpPt5' transform='translate(131.1,143.6) scale(2.25)' color='rgb(  0, 100,   0)'/>
	<use xlink:href='#gpPt5' transform='translate(144.1,160.3) scale(2.25)' color='rgb(  0, 100,   0)'/>
	<use xlink:href='#gpPt5' transform='translate(157.2,176.8) scale(2.25)' color='rgb(  0, 100,   0)'/>
	<use xlink:href='#gpPt5' transform='translate(170.3,193.1) scale(2.25)' color='rgb(  0, 100,   0)'/>
	<use xlink:href='#gpPt5' transform='translate(183.4,209.3) scale(2.25)' color='rgb(  0, 100,   0)'/>
	<use xlink:href='#gpPt5' transform='translate(196.4,225.2) scale(2.25)' color='rgb(  0, 100,   0)'/>
	<use xlink:href='#gpPt5' transform='translate(209.5,241.0) scale(2.25)' color='rgb(  0, 100,   0)'/>
	<use xlink:href='#gpPt5' transform='translate(222.6,256.6) scale(2.25)' color='rgb(  0, 100,   0)'/>
	<use xlink:href='#gpPt5' transform='translate(235.6,272.2) scale(2.25)' color='rgb(  0, 100,   0)'/>
	<use xlink:href='#gpPt5' transform='translate(248.7,287.5) scale(2.25)' color='rgb(  0, 100,   0)'/>
	<use xlink:href='#gpPt5' transform='translate(261.8,302.6) scale(2.25)' color='rgb(  0, 100,   0)'/>
	<use xlink:href='#gpPt5' transform='translate(274.8,317.5) scale(2.25)' color='rgb(  0, 100,   0)'/>
	<use xlink:href='#gpPt5' transform='translate(287.9,332.3) scale(2.25)' color='rgb(  0, 100,   0)'/>
	<use xlink:href='#gpPt5' transform='translate(301.0,346.8) scale(2.25)' color='rgb(  0, 100,   0)'/>
	<use xlink:href='#gpPt5' transform='translate(314.0,361.1) scale(2.25)' color='rgb(  0, 100,   0)'/>
	<use xlink:href='#gpPt5' transform='translate(327.1,375.1) scale(2.25)' color='rgb(  0, 100,   0)'/>
	<use xlink:href='#gpPt5' transform='translate(340.2,388.9) scale(2.25)' color='rgb(  0, 100,   0)'/>
	<use xlink:href='#gpPt5' transform='translate(353.2,402.4) scale(2.25)' color='rgb(  0, 100,   0)'/>
	<use xlink:href='#gpPt5' transform='translate(366.3,415.6) scale(2.25)' color='rgb(  0, 100,   0)'/>
	<use xlink:href='#gpPt5' transform='translate(379.4,428.6) scale(2.25)' color='rgb(  0, 100,   0)'/>
	<use xlink:href='#gpPt5' transform='translate(392.5,441.3) scale(2.25)' color='rgb(  0, 100,   0)'/>
	<use xlink:href='#gpPt5' transform='translate(405.5,453.6) scale(2.25)' color='rgb(  0, 100,   0)'/>
	<use xlink:href='#gpPt5' transform='translate(418.6,465.8) scale(2.25)' color='rgb(  0, 100,   0)'/>
	<use xlink:href='#gpPt5' transform='translate(431.7,477.6) scale(2.25)' color='rgb(  0, 100,   0)'/>
	<use xlink:href='#gpPt5' transform='translate(444.7,489.2) scale(2.25)' color='rgb(  0, 100,   0)'/>
	<use xlink:href='#gpPt5' transform='translate(457.8,500.3) scale(2.25)' color='rgb(  0, 100,   0)'/>
	<use xlink:href='#gpPt5' transform='translate(470.9,511.2) scale(2.25)' color='rgb(  0, 100,   0)'/>
	<use xlink:href='#gpPt5' transform='translate(483.9,521.9) scale(2.25)' color='rgb(  0, 100,   0)'/>
	<use xlink:href='#gpPt5' transform='translate(497.0,532.3) scale(2.25)' color='rgb(  0, 100,   0)'/>
	<use xlink:href='#gpPt5' transform='translate(510.1,542.3) scale(2.25)' color='rgb(  0, 100,   0)'/>
	<use xlink:href='#gpPt5' transform='translate(523.1,552.0) scale(2.25)' color='rgb(  0, 100,   0)'/>
	<use xlink:href='#gpPt5' transform='translate(536.2,561.4) scale(2.25)' color='rgb(  0, 100,   0)'/>
	<use xlink:href='#gpPt5' transform='translate(549.3,570.6) scale(2.25)' color='rgb(  0, 100,   0)'/>
	<use xlink:href='#gpPt5' transform='translate(562.3,579.3) scale(2.25)' color='rgb(  0, 100,   0)'/>
	<use xlink:href='#gpPt5' transform='translate(575.4,587.7) scale(2.25)' color='rgb(  0, 100,   0)'/>
	<use xlink:href='#gpPt5' transform='translate(588.5,595.9) scale(2.25)' color='rgb(  0, 100,   0)'/>
	<use xlink:href='#gpPt5' transform='translate(601.6,603.6) scale(2.25)' color='rgb(  0, 100,   0)'/>
	<use xlink:href='#gpPt5' transform='translate(614.6,611.0) scale(2.25)' color='rgb(  0, 100,   0)'/>
	<use xlink:href='#gpPt5' transform='translate(627.7,618.0) scale(2.25)' color='rgb(  0, 100,   0)'/>
	<use xlink:href='#gpPt5' transform='translate(640.8,624.8) scale(2.25)' color='rgb(  0, 100,   0)'/>
	<use xlink:href='#gpPt5' transform='translate(653.8,631.2) scale(2.25)' color='rgb(  0, 100,   0)'/>
	<use xlink:href='#gpPt5' transform='translate(666.9,637.2) scale(2.25)' color='rgb(  0, 100,   0)'/>
	<use xlink:href='#gpPt5' transform='translate(680.0,642.7) scale(2.25)' color='rgb(  0, 100,   0)'/>
	<use xlink:href='#gpPt5' transform='translate(693.0,647.9) scale(2.25)' color='rgb(  0, 100,   0)'/>
	<use xlink:href='#gpPt5' transform='translate(706.1,652.7) scale(2.25)' color='rgb(  0, 100,   0)'/>
	<use xlink:href='#gpPt5' transform='translate(719.2,657.1) scale(2.25)' color='rgb(  0, 100,   0)'/>
	<use xlink:href='#gpPt5' transform='translate(732.2,661.3) scale(2.25)' color='rgb(  0, 100,   0)'/>
	<use xlink:href='#gpPt5' transform='translate(745.3,665.1) scale(2.25)' color='rgb(  0, 100,   0)'/>
	<use xlink:href='#gpPt5' transform='translate(758.4,668.3) scale(2.25)' color='rgb(  0, 100,   0)'/>
	<use xlink:href='#gpPt5' transform='translate(771.5,671.1) scale(2.25)' color='rgb(  0, 100,   0)'/>
	<use xlink:href='#gpPt5' transform='translate(784.5,673.6) scale(2.25)' color='rgb(  0, 100,   0)'/>
	<use xlink:href='#gpPt5' transform='translate(797.6,675.8) scale(2.25)' color='rgb(  0, 100,   0)'/>
	<use xlink:href='#gpPt5' transform='translate(810.7,677.3) scale(2.25)' color='rgb(  0, 100,   0)'/>
	<use xlink:href='#gpPt5' transform='translate(823.7,678.5) scale(2.25)' color='rgb(  0, 100,   0)'/>
	<use xlink:href='#gpPt5' transform='translate(836.8,679.4) scale(2.25)' color='rgb(  0, 100,   0)'/>
	<use xlink:href='#gpPt5' transform='translate(849.9,679.7) scale(2.25)' color='rgb(  0, 100,   0)'/>
	<use xlink:href='#gpPt5' transform='translate(862.9,679.4) scale(2.25)' color='rgb(  0, 100,   0)'/>
	<use xlink:href='#gpPt5' transform='translate(876.0,678.8) scale(2.25)' color='rgb(  0, 100,   0)'/>
	<use xlink:href='#gpPt5' transform='translate(889.1,677.6) scale(2.25)' color='rgb(  0, 100,   0)'/>
	<use xlink:href='#gpPt5' transform='translate(902.1,675.9) scale(2.25)' color='rgb(  0, 100,   0)'/>
	<use xlink:href='#gpPt5' transform='translate(915.2,673.7) scale(2.25)' color='rgb(  0, 100,   0)'/>
	<use xlink:href='#gpPt5' transform='translate(928.3,671.2) scale(2.25)' color='rgb(  0, 100,   0)'/>
	<use xlink:href='#gpPt5' transform='translate(941.3,668.2) scale(2.25)' color='rgb(  0, 100,   0)'/>
	<use xlink:href='#gpPt5' transform='translate(954.4,664.8) scale(2.25)' color='rgb(  0, 100,   0)'/>
	<use xlink:href='#gpPt5' transform='translate(967.5,660.9) scale(2.25)' color='rgb(  0, 100,   0)'/>
	<use xlink:href='#gpPt5' transform='translate(980.6,656.6) scale(2.25)' color='rgb(  0, 100,   0)'/>
	<use xlink:href='#gpPt5' transform='translate(993.6,652.3) scale(2.25)' color='rgb(  0, 100,   0)'/>
	<use xlink:href='#gpPt5' transform='translate(1006.7,647.7) scale(2.25)' color='rgb(  0, 100,   0)'/>
	<use xlink:href='#gpPt5' transform='translate(1019.8,642.9) scale(2.25)' color='rgb(  0, 100,   0)'/>
	<use xlink:href='#gpPt5' transform='translate(1032.8,638.3) scale(2.25)' color='rgb(  0, 100,   0)'/>
	<use xlink:href='#gpPt5' transform='translate(1045.9,634.0) scale(2.25)' color='rgb(  0, 100,   0)'/>
	<use xlink:href='#gpPt5' transform='translate(1059.0,629.8) scale(2.25)' color='rgb(  0, 100,   0)'/>
	<use xlink:href='#gpPt5' transform='translate(1072.0,625.5) scale(2.25)' color='rgb(  0, 100,   0)'/>
	<use xlink:href='#gpPt5' transform='translate(1085.1,621.9) scale(2.25)' color='rgb(  0, 100,   0)'/>
	<use xlink:href='#gpPt5' transform='translate(1098.2,618.8) scale(2.25)' color='rgb(  0, 100,   0)'/>
	<use xlink:href='#gpPt5' transform='translate(1111.2,616.1) scale(2.25)' color='rgb(  0, 100,   0)'/>
	<use xlink:href='#gpPt5' transform='translate(1124.3,613.3) scale(2.25)' color='rgb(  0, 100,   0)'/>
	<use xlink:href='#gpPt5' transform='translate(1137.4,610.9) scale(2.25)' color='rgb(  0, 100,   0)'/>
	<use xlink:href='#gpPt5' transform='translate(1150.4,609.6) scale(2.25)' color='rgb(  0, 100,   0)'/>
	<use xlink:href='#gpPt5' transform='translate(1163.5,610.5) scale(2.25)' color='rgb(  0, 100,   0)'/>
	<use xlink:href='#gpPt5' transform='translate(1176.6,614.2) scale(2.25)' color='rgb(  0, 100,   0)'/>
	<use xlink:href='#gpPt5' transform='translate(1189.7,620.6) scale(2.25)' color='rgb(  0, 100,   0)'/>
	<use xlink:href='#gpPt5' transform='translate(1202.7,627.6) scale(2.25)' color='rgb(  0, 100,   0)'/>
	<use xlink:href='#gpPt5' transform='translate(1215.8,629.6) scale(2.25)' color='rgb(  0, 100,   0)'/>
	<use xlink:href='#gpPt5' transform='translate(1228.9,622.9) scale(2.25)' color='rgb(  0, 100,   0)'/>
	<use xlink:href='#gpPt5' transform='translate(1241.9,611.1) scale(2.25)' color='rgb(  0, 100,   0)'/>
	<use xlink:href='#gpPt5' transform='translate(1255.0,604.5) scale(2.25)' color='rgb(  0, 100,   0)'/>
</g>
	</g>
	<g id="gnuplot_plot_3" ><title>gnuplot_plot_3</title>
<g fill="none" color="black" stroke="currentColor" stroke-width="1.00" stroke-linecap="butt" stroke-linejoin="miter">
	<use xlink:href='#gpPt5' transform='translate(78.8,54.1) scale(2.25)' color='rgb(  0,   0, 255)'/>
	<use xlink:href='#gpPt5' transform='translate(79.5,54.2) scale(2.25)' color='rgb(  0,   0, 255)'/>
	<use xlink:href='#gpPt5' transform='translate(80.1,54.4) scale(2.25)' color='rgb(  0,   0, 255)'/>
	<use xlink:href='#gpPt5' transform='translate(80.8,54.7) scale(2.25)' color='rgb(  0,   0, 255)'/>
	<use xlink:href='#gpPt5' transform='translate(81.4,55.1) scale(2.25)' color='rgb(  0,   0, 255)'/>
	<use xlink:href='#gpPt5' transform='translate(82.1,55.6) scale(2.25)' color='rgb(  0,   0, 255)'/>
	<use xlink:href='#gpPt5' transform='translate(82.7,56.2) scale(2.25)' color='rgb(  0,   0, 255)'/>
	<use xlink:href='#gpPt5' transform='translate(83.4,56.8) scale(2.25)' color='rgb(  0,   0, 255)'/>
	<use xlink:href='#gpPt5' transform='translate(84.0,57.5) scale(2.25)' color='rgb(  0,   0, 255)'/>
	<use xlink:href='#gpPt5' transform='translate(84.7,58.2) scale(2.25)' color='rgb(  0,   0, 255)'/>
	<use xlink:href='#gpPt5' transform='translate(85.3,59.0) scale(2.25)' color='rgb(  0,   0, 255)'/>
	<use xlink:href='#gpPt5' transform='translate(86.0,59.8) scale(2.25)' color='rgb(  0,   0, 255)'/>
	<use xlink:href='#gpPt5' transform='translate(86.6,60.7) scale(2.25)' color='rgb(  0,   0, 255)'/>
	<use xlink:href='#gpPt5' transform='translate(87.3,61.5) scale(2.25)' color='rgb(  0,   0, 255)'/>
	<use xlink:href='#gpPt5' transform='translate(87.9,62.4) scale(2.25)' color='rgb(  0,   0, 255)'/>
	<use xlink:href='#gpPt5' transform='translate(88.6,63.3) scale(2.25)' color='rgb(  0,   0, 255)'/>
	<use xlink:href='#gpPt5' transform='translate(89.3,64.2) scale(2.25)' color='rgb(  0,   0, 255)'/>
	<use xlink:href='#gpPt5' transform='translate(89.9,65.1) scale(2.25)' color='rgb(  0,   0, 255)'/>
	<use xlink:href='#gpPt5' transform='translate(90.6,66.1) scale(2.25)' color='rgb(  0,   0, 255)'/>
	<use xlink:href='#gpPt5' transform='translate(91.2,67.0) scale(2.25)' color='rgb(  0,   0, 255)'/>
	<use xlink:href='#gpPt5' transform='translate(91.9,68.0) scale(2.25)' color='rgb(  0,   0, 255)'/>
	<use xlink:href='#gpPt5' transform='translate(98.4,78.0) scale(2.25)' color='rgb(  0,   0, 255)'/>
	<use xlink:href='#gpPt5' transform='translate(104.9,88.2) scale(2.25)' color='rgb(  0,   0, 255)'/>
	<use xlink:href='#gpPt5' transform='translate(111.5,98.4) scale(2.25)' color='rgb(  0,   0, 255)'/>
	<use xlink:href='#gpPt5' transform='translate(118.0,108.6) scale(2.25)' color='rgb(  0,   0, 255)'/>
	<use xlink:href='#gpPt5' transform='translate(131.1,128.4) scale(2.25)' color='rgb(  0,   0, 255)'/>
	<use xlink:href='#gpPt5' transform='translate(144.1,147.5) scale(2.25)' color='rgb(  0,   0, 255)'/>
	<use xlink:href='#gpPt5' transform='translate(157.2,166.0) scale(2.25)' color='rgb(  0,   0, 255)'/>
	<use xlink:href='#gpPt5' transform='translate(170.3,183.9) scale(2.25)' color='rgb(  0,   0, 255)'/>
	<use xlink:href='#gpPt5' transform='translate(183.4,201.2) scale(2.25)' color='rgb(  0,   0, 255)'/>
	<use xlink:href='#gpPt5' transform='translate(196.4,218.1) scale(2.25)' color='rgb(  0,   0, 255)'/>
	<use xlink:href='#gpPt5' transform='translate(209.5,234.6) scale(2.25)' color='rgb(  0,   0, 255)'/>
	<use xlink:href='#gpPt5' transform='translate(222.6,250.7) scale(2.25)' color='rgb(  0,   0, 255)'/>
	<use xlink:href='#gpPt5' transform='translate(235.6,266.6) scale(2.25)' color='rgb(  0,   0, 255)'/>
	<use xlink:href='#gpPt5' transform='translate(248.7,282.2) scale(2.25)' color='rgb(  0,   0, 255)'/>
	<use xlink:href='#gpPt5' transform='translate(261.8,297.6) scale(2.25)' color='rgb(  0,   0, 255)'/>
	<use xlink:href='#gpPt5' transform='translate(274.8,312.6) scale(2.25)' color='rgb(  0,   0, 255)'/>
	<use xlink:href='#gpPt5' transform='translate(287.9,327.4) scale(2.25)' color='rgb(  0,   0, 255)'/>
	<use xlink:href='#gpPt5' transform='translate(301.0,341.9) scale(2.25)' color='rgb(  0,   0, 255)'/>
	<use xlink:href='#gpPt5' transform='translate(314.0,356.1) scale(2.25)' color='rgb(  0,   0, 255)'/>
	<use xlink:href='#gpPt5' transform='translate(327.1,370.2) scale(2.25)' color='rgb(  0,   0, 255)'/>
	<use xlink:href='#gpPt5' transform='translate(340.2,383.9) scale(2.25)' color='rgb(  0,   0, 255)'/>
	<use xlink:href='#gpPt5' transform='translate(353.2,397.2) scale(2.25)' color='rgb(  0,   0, 255)'/>
	<use xlink:href='#gpPt5' transform='translate(366.3,410.3) scale(2.25)' color='rgb(  0,   0, 255)'/>
	<use xlink:href='#gpPt5' transform='translate(379.4,423.2) scale(2.25)' color='rgb(  0,   0, 255)'/>
	<use xlink:href='#gpPt5' transform='translate(392.5,435.8) scale(2.25)' color='rgb(  0,   0, 255)'/>
	<use xlink:href='#gpPt5' transform='translate(405.5,448.0) scale(2.25)' color='rgb(  0,   0, 255)'/>
	<use xlink:href='#gpPt5' transform='translate(418.6,459.9) scale(2.25)' color='rgb(  0,   0, 255)'/>
	<use xlink:href='#gpPt5' transform='translate(431.7,471.6) scale(2.25)' color='rgb(  0,   0, 255)'/>
	<use xlink:href='#gpPt5' transform='translate(444.7,483.1) scale(2.25)' color='rgb(  0,   0, 255)'/>
	<use xlink:href='#gpPt5' transform='translate(457.8,494.4) scale(2.25)' color='rgb(  0,   0, 255)'/>
	<use xlink:href='#gpPt5' transform='translate(470.9,505.0) scale(2.25)' color='rgb(  0,   0, 255)'/>
	<use xlink:href='#gpPt5' transform='translate(483.9,515.4) scale(2.25)' color='rgb(  0,   0, 255)'/>
	<use xlink:href='#gpPt5' transform='translate(497.0,525.7) scale(2.25)' color='rgb(  0,   0, 255)'/>
	<use xlink:href='#gpPt5' transform='translate(510.1,535.8) scale(2.25)' color='rgb(  0,   0, 255)'/>
	<use xlink:href='#gpPt5' transform='translate(523.1,545.2) scale(2.25)' color='rgb(  0,   0, 255)'/>
	<use xlink:href='#gpPt5' transform='translate(536.2,554.5) scale(2.25)' color='rgb(  0,   0, 255)'/>
	<use xlink:href='#gpPt5' transform='translate(549.3,563.7) scale(2.25)' color='rgb(  0,   0, 255)'/>
	<use xlink:href='#gpPt5' transform='translate(562.3,572.5) scale(2.25)' color='rgb(  0,   0, 255)'/>
	<use xlink:href='#gpPt5' transform='translate(575.4,580.6) scale(2.25)' color='rgb(  0,   0, 255)'/>
	<use xlink:href='#gpPt5' transform='translate(588.5,588.4) scale(2.25)' color='rgb(  0,   0, 255)'/>
	<use xlink:href='#gpPt5' transform='translate(601.6,596.3) scale(2.25)' color='rgb(  0,   0, 255)'/>
	<use xlink:href='#gpPt5' transform='translate(614.6,603.9) scale(2.25)' color='rgb(  0,   0, 255)'/>
	<use xlink:href='#gpPt5' transform='translate(627.7,610.9) scale(2.25)' color='rgb(  0,   0, 255)'/>
	<use xlink:href='#gpPt5' transform='translate(640.8,617.3) scale(2.25)' color='rgb(  0,   0, 255)'/>
	<use xlink:href='#gpPt5' transform='translate(653.8,623.5) scale(2.25)' color='rgb(  0,   0, 255)'/>
	<use xlink:href='#gpPt5' transform='translate(666.9,629.6) scale(2.25)' color='rgb(  0,   0, 255)'/>
	<use xlink:href='#gpPt5' transform='translate(680.0,634.9) scale(2.25)' color='rgb(  0,   0, 255)'/>
	<use xlink:href='#gpPt5' transform='translate(693.0,639.9) scale(2.25)' color='rgb(  0,   0, 255)'/>
	<use xlink:href='#gpPt5' transform='translate(706.1,644.9) scale(2.25)' color='rgb(  0,   0, 255)'/>
	<use xlink:href='#gpPt5' transform='translate(719.2,649.5) scale(2.25)' color='rgb(  0,   0, 255)'/>
	<use xlink:href='#gpPt5' transform='translate(732.2,653.1) scale(2.25)' color='rgb(  0,   0, 255)'/>
	<use xlink:href='#gpPt5' transform='translate(745.3,656.4) scale(2.25)' color='rgb(  0,   0, 255)'/>
	<use xlink:href='#gpPt5' transform='translate(758.4,659.6) scale(2.25)' color='rgb(  0,   0, 255)'/>
	<use xlink:href='#gpPt5' transform='translate(771.5,662.4) scale(2.25)' color='rgb(  0,   0, 255)'/>
	<use xlink:href='#gpPt5' transform='translate(784.5,664.7) scale(2.25)' color='rgb(  0,   0, 255)'/>
	<use xlink:href='#gpPt5' transform='translate(797.6,666.4) scale(2.25)' color='rgb(  0,   0, 255)'/>
	<use xlink:href='#gpPt5' transform='translate(810.7,667.7) scale(2.25)' color='rgb(  0,   0, 255)'/>
	<use xlink:href='#gpPt5' transform='translate(823.7,669.1) scale(2.25)' color='rgb(  0,   0, 255)'/>
	<use xlink:href='#gpPt5' transform='translate(836.8,669.9) scale(2.25)' color='rgb(  0,   0, 255)'/>
	<use xlink:href='#gpPt5' transform='translate(849.9,669.9) scale(2.25)' color='rgb(  0,   0, 255)'/>
	<use xlink:href='#gpPt5' transform='translate(862.9,669.4) scale(2.25)' color='rgb(  0,   0, 255)'/>
	<use xlink:href='#gpPt5' transform='translate(876.0,668.5) scale(2.25)' color='rgb(  0,   0, 255)'/>
	<use xlink:href='#gpPt5' transform='translate(889.1,666.9) scale(2.25)' color='rgb(  0,   0, 255)'/>
	<use xlink:href='#gpPt5' transform='translate(902.1,665.0) scale(2.25)' color='rgb(  0,   0, 255)'/>
	<use xlink:href='#gpPt5' transform='translate(915.2,662.6) scale(2.25)' color='rgb(  0,   0, 255)'/>
	<use xlink:href='#gpPt5' transform='translate(928.3,659.3) scale(2.25)' color='rgb(  0,   0, 255)'/>
	<use xlink:href='#gpPt5' transform='translate(941.3,655.4) scale(2.25)' color='rgb(  0,   0, 255)'/>
	<use xlink:href='#gpPt5' transform='translate(954.4,651.1) scale(2.25)' color='rgb(  0,   0, 255)'/>
	<use xlink:href='#gpPt5' transform='translate(967.5,646.6) scale(2.25)' color='rgb(  0,   0, 255)'/>
	<use xlink:href='#gpPt5' transform='translate(980.6,641.9) scale(2.25)' color='rgb(  0,   0, 255)'/>
	<use xlink:href='#gpPt5' transform='translate(993.6,636.5) scale(2.25)' color='rgb(  0,   0, 255)'/>
	<use xlink:href='#gpPt5' transform='translate(1006.7,630.8) scale(2.25)' color='rgb(  0,   0, 255)'/>
	<use xlink:href='#gpPt5' transform='translate(1019.8,625.3) scale(2.25)' color='rgb(  0,   0, 255)'/>
	<use xlink:href='#gpPt5' transform='translate(1032.8,619.7) scale(2.25)' color='rgb(  0,   0, 255)'/>
	<use xlink:href='#gpPt5' transform='translate(1045.9,614.9) scale(2.25)' color='rgb(  0,   0, 255)'/>
	<use xlink:href='#gpPt5' transform='translate(1059.0,610.4) scale(2.25)' color='rgb(  0,   0, 255)'/>
	<use xlink:href='#gpPt5' transform='translate(1072.0,605.9) scale(2.25)' color='rgb(  0,   0, 255)'/>
	<use xlink:href='#gpPt5' transform='translate(1085.1,601.7) scale(2.25)' color='rgb(  0,   0, 255)'/>
	<use xlink:href='#gpPt5' transform='translate(1098.2,598.1) scale(2.25)' color='rgb(  0,   0, 255)'/>
	<use xlink:href='#gpPt5' transform='translate(1111.2,594.6) scale(2.25)' color='rgb(  0,   0, 255)'/>
	<use xlink:href='#gpPt5' transform='translate(1124.3,591.5) scale(2.25)' color='rgb(  0,   0, 255)'/>
	<use xlink:href='#gpPt5' transform='translate(1137.4,589.1) scale(2.25)' color='rgb(  0,   0, 255)'/>
	<use xlink:href='#gpPt5' transform='translate(1150.4,587.5) scale(2.25)' color='rgb(  0,   0, 255)'/>
	<use xlink:href='#gpPt5' transform='translate(1163.5,587.7) scale(2.25)' color='rgb(  0,   0, 255)'/>
	<use xlink:href='#gpPt5' transform='translate(1176.6,591.0) scale(2.25)' color='rgb(  0,   0, 255)'/>
	<use xlink:href='#gpPt5' transform='translate(1189.7,597.8) scale(2.25)' color='rgb(  0,   0, 255)'/>
	<use xlink:href='#gpPt5' transform='translate(1202.7,606.4) scale(2.25)' color='rgb(  0,   0, 255)'/>
	<use xlink:href='#gpPt5' transform='translate(1215.8,611.0) scale(2.25)' color='rgb(  0,   0, 255)'/>
	<use xlink:href='#gpPt5' transform='translate(1228.9,604.2) scale(2.25)' color='rgb(  0,   0, 255)'/>
	<use xlink:href='#gpPt5' transform='translate(1241.9,588.7) scale(2.25)' color='rgb(  0,   0, 255)'/>
	<use xlink:href='#gpPt5' transform='translate(1255.0,579.5) scale(2.25)' color='rgb(  0,   0, 255)'/>
</g>
	</g>
	<g id="gnuplot_plot_4" ><title>fit</title>
<g fill="none" color="black" stroke="currentColor" stroke-width="1.00" stroke-linecap="butt" stroke-linejoin="miter">
	<g transform="translate(1187.9,94.0)" stroke="none" fill="black" font-family="Arial" font-size="12.00"  text-anchor="end">
		<text><tspan font-family="Arial" >fit</tspan></text>
	</g>
</g>
<g fill="none" color="black" stroke="currentColor" stroke-width="1.00" stroke-linecap="butt" stroke-linejoin="miter">
	<path stroke='rgb(255,   0,   0)'  d='M1196.2,90.1 L1238.4,90.1 M78.8,90.9 L79.9,90.9 L81.1,91.0 L82.2,91.1 L83.4,91.3 L84.5,91.5
		L85.7,91.8 L86.8,92.2 L88.0,92.6 L89.1,93.0 L90.3,93.5 L91.4,94.1 L92.6,94.7 L93.7,95.3
		L94.9,96.0 L96.0,96.8 L97.2,97.6 L98.3,98.4 L99.5,99.3 L100.6,100.2 L101.8,101.2 L102.9,102.2
		L104.1,103.3 L105.2,104.4 L106.4,105.5 L107.5,106.7 L108.7,107.9 L109.8,109.2 L111.0,110.5 L112.1,111.8
		L113.3,113.2 L114.4,114.6 L115.6,116.0 L116.7,117.5 L117.9,118.9 L119.0,120.5 L120.2,122.0 L121.3,123.6
		L122.5,125.2 L123.6,126.8 L124.8,128.4 L125.9,130.1 L127.1,131.8 L128.2,133.5 L129.4,135.2 L130.5,136.9
		L131.7,138.7 L132.8,140.5 L134.0,142.3 L135.1,144.1 L136.3,145.9 L137.4,147.7 L138.6,149.6 L139.7,151.4
		L140.9,153.3 L142.0,155.2 L143.2,157.1 L144.3,159.0 L145.5,160.9 L146.6,162.8 L147.8,164.7 L148.9,166.6
		L150.1,168.6 L151.2,170.5 L152.4,172.5 L153.5,174.4 L154.7,176.4 L155.8,178.3 L157.0,180.3 L158.1,182.2
		L159.3,184.2 L160.4,186.1 L161.6,188.1 L162.7,190.1 L163.9,192.0 L165.0,194.0 L166.2,195.9 L167.3,197.9
		L168.5,199.8 L169.6,201.8 L170.8,203.7 L171.9,205.7 L173.1,207.6 L174.2,209.6 L175.4,211.5 L176.5,213.5
		L177.7,215.4 L178.8,217.3 L180.0,219.3 L181.1,221.2 L182.3,223.1 L183.4,225.0 L184.6,226.9 L185.7,228.8
		L186.9,230.7 L188.0,232.6 L189.2,234.5 L190.3,236.4 L191.5,238.3 L192.6,240.1 L193.8,242.0 L194.9,243.8
		L196.1,245.7 L197.2,247.5 L198.4,249.4 L199.5,251.2 L200.7,253.1 L201.8,254.9 L203.0,256.7 L204.1,258.5
		L205.3,260.3 L206.4,262.1 L207.6,263.9 L208.7,265.7 L209.9,267.4 L211.0,269.2 L212.2,271.0 L213.3,272.7
		L214.5,274.5 L215.6,276.2 L216.8,278.0 L217.9,279.7 L219.1,281.4 L220.2,283.1 L221.4,284.8 L222.5,286.5
		L223.7,288.2 L224.8,289.9 L226.0,291.6 L227.1,293.2 L228.3,294.9 L229.4,296.6 L230.6,298.2 L231.7,299.9
		L232.9,301.5 L234.0,303.1 L235.2,304.8 L236.3,306.4 L237.5,308.0 L238.6,309.6 L239.8,311.2 L240.9,312.8
		L242.1,314.3 L243.2,315.9 L244.4,317.5 L245.5,319.1 L246.7,320.6 L247.8,322.2 L249.0,323.7 L250.1,325.2
		L251.3,326.8 L252.4,328.3 L253.6,329.8 L254.7,331.3 L255.9,332.8 L257.0,334.3 L258.2,335.8 L259.3,337.3
		L260.5,338.7 L261.6,340.2 L262.8,341.7 L263.9,343.1 L265.1,344.6 L266.2,346.0 L267.4,347.5 L268.5,348.9
		L269.7,350.3 L270.8,351.7 L272.0,353.2 L273.1,354.6 L274.3,356.0 L275.4,357.4 L276.6,358.7 L277.7,360.1
		L278.9,361.5 L280.0,362.9 L281.2,364.2 L282.3,365.6 L283.5,366.9 L284.6,368.3 L285.8,369.6 L286.9,371.0
		L288.1,372.3 L289.2,373.6 L290.4,374.9 L291.5,376.3 L292.7,377.6 L293.8,378.9 L295.0,380.2 L296.1,381.5
		L297.3,382.7 L298.4,384.0 L299.6,385.3 L300.7,386.6 L301.9,387.8 L303.0,389.1 L304.2,390.3 L305.3,391.6
		L306.5,392.8 L307.6,394.1 L308.8,395.3 L309.9,396.5 L311.1,397.8 L312.2,399.0 L313.4,400.2 L314.5,401.4
		L315.6,402.6 L316.8,403.8 L317.9,405.0 L319.1,406.2 L320.2,407.3 L321.4,408.5 L322.5,409.7 L323.7,410.9
		L324.8,412.0 L326.0,413.2 L327.1,414.3 L328.3,415.5 L329.4,416.6 L330.6,417.8 L331.7,418.9 L332.9,420.0
		L334.0,421.2 L335.2,422.3 L336.3,423.4 L337.5,424.5 L338.6,425.6 L339.8,426.7 L340.9,427.8 L342.1,428.9
		L343.2,430.0 L344.4,431.1 L345.5,432.2 L346.7,433.3 L347.8,434.3 L349.0,435.4 L350.1,436.5 L351.3,437.5
		L352.4,438.6 L353.6,439.6 L354.7,440.7 L355.9,441.7 L357.0,442.8 L358.2,443.8 L359.3,444.8 L360.5,445.9
		L361.6,446.9 L362.8,447.9 L363.9,448.9 L365.1,449.9 L366.2,450.9 L367.4,452.0 L368.5,453.0 L369.7,454.0
		L370.8,454.9 L372.0,455.9 L373.1,456.9 L374.3,457.9 L375.4,458.9 L376.6,459.9 L377.7,460.8 L378.9,461.8
		L380.0,462.8 L381.2,463.7 L382.3,464.7 L383.5,465.6 L384.6,466.6 L385.8,467.5 L386.9,468.5 L388.1,469.4
		L389.2,470.3 L390.4,471.3 L391.5,472.2 L392.7,473.1 L393.8,474.0 L395.0,475.0 L396.1,475.9 L397.3,476.8
		L398.4,477.7 L399.6,478.6 L400.7,479.5 L401.9,480.4 L403.0,481.3 L404.2,482.2 L405.3,483.1 L406.5,484.0
		L407.6,484.8 L408.8,485.7 L409.9,486.6 L411.1,487.5 L412.2,488.3 L413.4,489.2 L414.5,490.1 L415.7,490.9
		L416.8,491.8 L418.0,492.6 L419.1,493.5 L420.3,494.3 L421.4,495.2 L422.6,496.0 L423.7,496.9 L424.9,497.7
		L426.0,498.5 L427.2,499.3 L428.3,500.2 L429.5,501.0 L430.6,501.8 L431.8,502.6 L432.9,503.5 L434.1,504.3
		L435.2,505.1 L436.4,505.9 L437.5,506.7 L438.7,507.5 L439.8,508.3 L441.0,509.1 L442.1,509.9 L443.3,510.7
		L444.4,511.4 L445.6,512.2 L446.7,513.0 L447.9,513.8 L449.0,514.6 L450.2,515.3 L451.3,516.1 L452.5,516.9
		L453.6,517.6 L454.8,518.4 L455.9,519.2 L457.1,519.9 L458.2,520.7 L459.4,521.4 L460.5,522.2 L461.7,522.9
		L462.8,523.7 L464.0,524.4 L465.1,525.1 L466.3,525.9 L467.4,526.6 L468.6,527.3 L469.7,528.1 L470.9,528.8
		L472.0,529.5 L473.2,530.2 L474.3,531.0 L475.5,531.7 L476.6,532.4 L477.8,533.1 L478.9,533.8 L480.1,534.5
		L481.2,535.2 L482.4,535.9 L483.5,536.6 L484.7,537.3 L485.8,538.0 L487.0,538.7 L488.1,539.4 L489.3,540.1
		L490.4,540.8 L491.6,541.5 L492.7,542.1 L493.9,542.8 L495.0,543.5 L496.2,544.2 L497.3,544.8 L498.5,545.5
		L499.6,546.2 L500.8,546.8 L501.9,547.5 L503.1,548.2 L504.2,548.8 L505.4,549.5 L506.5,550.1 L507.7,550.8
		L508.8,551.4 L510.0,552.1 L511.1,552.7 L512.3,553.4 L513.4,554.0 L514.6,554.7 L515.7,555.3 L516.9,555.9
		L518.0,556.6 L519.2,557.2 L520.3,557.8 L521.5,558.4 L522.6,559.1 L523.8,559.7 L524.9,560.3 L526.1,560.9
		L527.2,561.5 L528.4,562.1 L529.5,562.8 L530.7,563.4 L531.8,564.0 L533.0,564.6 L534.1,565.2 L535.3,565.8
		L536.4,566.4 L537.6,567.0 L538.7,567.6 L539.9,568.2 L541.0,568.8 L542.2,569.4 L543.3,569.9 L544.5,570.5
		L545.6,571.1 L546.8,571.7 L547.9,572.3 L549.1,572.8 L550.2,573.4 L551.3,574.0 L552.5,574.6 L553.6,575.1
		L554.8,575.7 L555.9,576.3 L557.1,576.8 L558.2,577.4 L559.4,578.0 L560.5,578.5 L561.7,579.1 L562.8,579.6
		L564.0,580.2 L565.1,580.7 L566.3,581.3 L567.4,581.8 L568.6,582.4 L569.7,582.9 L570.9,583.5 L572.0,584.0
		L573.2,584.5 L574.3,585.1 L575.5,585.6 L576.6,586.1 L577.8,586.7 L578.9,587.2 L580.1,587.7 L581.2,588.2
		L582.4,588.8 L583.5,589.3 L584.7,589.8 L585.8,590.3 L587.0,590.8 L588.1,591.4 L589.3,591.9 L590.4,592.4
		L591.6,592.9 L592.7,593.4 L593.9,593.9 L595.0,594.4 L596.2,594.9 L597.3,595.4 L598.5,595.9 L599.6,596.4
		L600.8,596.9 L601.9,597.4 L603.1,597.9 L604.2,598.4 L605.4,598.9 L606.5,599.4 L607.7,599.8 L608.8,600.3
		L610.0,600.8 L611.1,601.3 L612.3,601.8 L613.4,602.2 L614.6,602.7 L615.7,603.2 L616.9,603.7 L618.0,604.1
		L619.2,604.6 L620.3,605.1 L621.5,605.5 L622.6,606.0 L623.8,606.5 L624.9,606.9 L626.1,607.4 L627.2,607.8
		L628.4,608.3 L629.5,608.7 L630.7,609.2 L631.8,609.6 L633.0,610.1 L634.1,610.5 L635.3,611.0 L636.4,611.4
		L637.6,611.9 L638.7,612.3 L639.9,612.8 L641.0,613.2 L642.2,613.6 L643.3,614.1 L644.5,614.5 L645.6,614.9
		L646.8,615.4 L647.9,615.8 L649.1,616.2 L650.2,616.6 L651.4,617.1 L652.5,617.5 L653.7,617.9 L654.8,618.3
		L656.0,618.7 L657.1,619.1 L658.3,619.6 L659.4,620.0 L660.6,620.4 L661.7,620.8 L662.9,621.2 L664.0,621.6
		L665.2,622.0 L666.3,622.4 L667.5,622.8 L668.6,623.2 L669.8,623.6 L670.9,624.0 L672.1,624.4 L673.2,624.8
		L674.4,625.2 L675.5,625.6 L676.7,626.0 L677.8,626.4 L679.0,626.7 L680.1,627.1 L681.3,627.5 L682.4,627.9
		L683.6,628.3 L684.7,628.6 L685.9,629.0 L687.0,629.4 L688.2,629.8 L689.3,630.1 L690.5,630.5 L691.6,630.9
		L692.8,631.2 L693.9,631.6 L695.1,632.0 L696.2,632.3 L697.4,632.7 L698.5,633.1 L699.7,633.4 L700.8,633.8
		L702.0,634.1 L703.1,634.5 L704.3,634.8 L705.4,635.2 L706.6,635.5 L707.7,635.9 L708.9,636.2 L710.0,636.6
		L711.2,636.9 L712.3,637.3 L713.5,637.6 L714.6,637.9 L715.8,638.3 L716.9,638.6 L718.1,638.9 L719.2,639.3
		L720.4,639.6 L721.5,639.9 L722.7,640.3 L723.8,640.6 L725.0,640.9 L726.1,641.2 L727.3,641.5 L728.4,641.9
		L729.6,642.2 L730.7,642.5 L731.9,642.8 L733.0,643.1 L734.2,643.4 L735.3,643.8 L736.5,644.1 L737.6,644.4
		L738.8,644.7 L739.9,645.0 L741.1,645.3 L742.2,645.6 L743.4,645.9 L744.5,646.2 L745.7,646.5 L746.8,646.8
		L748.0,647.1 L749.1,647.4 L750.3,647.7 L751.4,647.9 L752.6,648.2 L753.7,648.5 L754.9,648.8 L756.0,649.1
		L757.2,649.4 L758.3,649.6 L759.5,649.9 L760.6,650.2 L761.8,650.5 L762.9,650.8 L764.1,651.0 L765.2,651.3
		L766.4,651.6 L767.5,651.8 L768.7,652.1 L769.8,652.4 L771.0,652.6 L772.1,652.9 L773.3,653.1 L774.4,653.4
		L775.6,653.7 L776.7,653.9 L777.9,654.2 L779.0,654.4 L780.2,654.7 L781.3,654.9 L782.5,655.2 L783.6,655.4
		L784.7,655.7 L785.9,655.9 L787.0,656.1 L788.2,656.4 L789.3,656.6 L790.5,656.8 L791.6,657.1 L792.8,657.3
		L793.9,657.5 L795.1,657.8 L796.2,658.0 L797.4,658.2 L798.5,658.5 L799.7,658.7 L800.8,658.9 L802.0,659.1
		L803.1,659.3 L804.3,659.5 L805.4,659.8 L806.6,660.0 L807.7,660.2 L808.9,660.4 L810.0,660.6 L811.2,660.8
		L812.3,661.0 L813.5,661.2 L814.6,661.4 L815.8,661.6 L816.9,661.8 L818.1,662.0 L819.2,662.2 L820.4,662.4
		L821.5,662.6 L822.7,662.8 L823.8,663.0 L825.0,663.2 L826.1,663.3 L827.3,663.5 L828.4,663.7 L829.6,663.9
		L830.7,664.1 L831.9,664.2 L833.0,664.4 L834.2,664.6 L835.3,664.7 L836.5,664.9 L837.6,665.1 L838.8,665.2
		L839.9,665.4 L841.1,665.6 L842.2,665.7 L843.4,665.9 L844.5,666.0 L845.7,666.2 L846.8,666.4 L848.0,666.5
		L849.1,666.7 L850.3,666.8 L851.4,666.9 L852.6,667.1 L853.7,667.2 L854.9,667.4 L856.0,667.5 L857.2,667.6
		L858.3,667.8 L859.5,667.9 L860.6,668.0 L861.8,668.2 L862.9,668.3 L864.1,668.4 L865.2,668.5 L866.4,668.7
		L867.5,668.8 L868.7,668.9 L869.8,669.0 L871.0,669.1 L872.1,669.2 L873.3,669.3 L874.4,669.5 L875.6,669.6
		L876.7,669.7 L877.9,669.8 L879.0,669.9 L880.2,670.0 L881.3,670.1 L882.5,670.1 L883.6,670.2 L884.8,670.3
		L885.9,670.4 L887.1,670.5 L888.2,670.6 L889.4,670.7 L890.5,670.7 L891.7,670.8 L892.8,670.9 L894.0,671.0
		L895.1,671.0 L896.3,671.1 L897.4,671.2 L898.6,671.2 L899.7,671.3 L900.9,671.4 L902.0,671.4 L903.2,671.5
		L904.3,671.5 L905.5,671.6 L906.6,671.6 L907.8,671.7 L908.9,671.7 L910.1,671.8 L911.2,671.8 L912.4,671.8
		L913.5,671.9 L914.7,671.9 L915.8,672.0 L917.0,672.0 L918.1,672.0 L919.3,672.0 L920.4,672.1 L921.6,672.1
		L922.7,672.1 L923.9,672.1 L925.0,672.1 L926.2,672.1 L927.3,672.2 L928.5,672.2 L929.6,672.2 L930.8,672.2
		L931.9,672.2 L933.1,672.2 L934.2,672.2 L935.4,672.2 L936.5,672.1 L937.7,672.1 L938.8,672.1 L940.0,672.1
		L941.1,672.1 L942.3,672.1 L943.4,672.0 L944.6,672.0 L945.7,672.0 L946.9,672.0 L948.0,671.9 L949.2,671.9
		L950.3,671.9 L951.5,671.8 L952.6,671.8 L953.8,671.7 L954.9,671.7 L956.1,671.6 L957.2,671.6 L958.4,671.5
		L959.5,671.5 L960.7,671.4 L961.8,671.3 L963.0,671.3 L964.1,671.2 L965.3,671.1 L966.4,671.1 L967.6,671.0
		L968.7,670.9 L969.9,670.8 L971.0,670.8 L972.2,670.7 L973.3,670.6 L974.5,670.5 L975.6,670.4 L976.8,670.3
		L977.9,670.2 L979.1,670.1 L980.2,670.0 L981.4,669.9 L982.5,669.8 L983.7,669.7 L984.8,669.6 L986.0,669.4
		L987.1,669.3 L988.3,669.2 L989.4,669.1 L990.6,668.9 L991.7,668.8 L992.9,668.7 L994.0,668.6 L995.2,668.4
		L996.3,668.3 L997.5,668.1 L998.6,668.0 L999.8,667.8 L1000.9,667.7 L1002.1,667.5 L1003.2,667.4 L1004.4,667.2
		L1005.5,667.1 L1006.7,666.9 L1007.8,666.7 L1009.0,666.6 L1010.1,666.4 L1011.3,666.2 L1012.4,666.0 L1013.6,665.8
		L1014.7,665.7 L1015.9,665.5 L1017.0,665.3 L1018.2,665.1 L1019.3,664.9 L1020.4,664.7 L1021.6,664.5 L1022.7,664.3
		L1023.9,664.1 L1025.0,663.9 L1026.2,663.7 L1027.3,663.5 L1028.5,663.2 L1029.6,663.0 L1030.8,662.8 L1031.9,662.6
		L1033.1,662.4 L1034.2,662.1 L1035.4,661.9 L1036.5,661.7 L1037.7,661.4 L1038.8,661.2 L1040.0,660.9 L1041.1,660.7
		L1042.3,660.5 L1043.4,660.2 L1044.6,660.0 L1045.7,659.7 L1046.9,659.4 L1048.0,659.2 L1049.2,658.9 L1050.3,658.7
		L1051.5,658.4 L1052.6,658.1 L1053.8,657.8 L1054.9,657.6 L1056.1,657.3 L1057.2,657.0 L1058.4,656.7 L1059.5,656.4
		L1060.7,656.2 L1061.8,655.9 L1063.0,655.6 L1064.1,655.3 L1065.3,655.0 L1066.4,654.7 L1067.6,654.4 L1068.7,654.1
		L1069.9,653.8 L1071.0,653.5 L1072.2,653.2 L1073.3,652.9 L1074.5,652.5 L1075.6,652.2 L1076.8,651.9 L1077.9,651.6
		L1079.1,651.3 L1080.2,650.9 L1081.4,650.6 L1082.5,650.3 L1083.7,650.0 L1084.8,649.6 L1086.0,649.3 L1087.1,649.0
		L1088.3,648.6 L1089.4,648.3 L1090.6,647.9 L1091.7,647.6 L1092.9,647.3 L1094.0,646.9 L1095.2,646.6 L1096.3,646.2
		L1097.5,645.9 L1098.6,645.5 L1099.8,645.2 L1100.9,644.8 L1102.1,644.5 L1103.2,644.1 L1104.4,643.7 L1105.5,643.4
		L1106.7,643.0 L1107.8,642.7 L1109.0,642.3 L1110.1,641.9 L1111.3,641.6 L1112.4,641.2 L1113.6,640.8 L1114.7,640.5
		L1115.9,640.1 L1117.0,639.7 L1118.2,639.4 L1119.3,639.0 L1120.5,638.6 L1121.6,638.3 L1122.8,637.9 L1123.9,637.5
		L1125.1,637.1 L1126.2,636.8 L1127.4,636.4 L1128.5,636.0 L1129.7,635.6 L1130.8,635.3 L1132.0,634.9 L1133.1,634.5
		L1134.3,634.2 L1135.4,633.8 L1136.6,633.4 L1137.7,633.0 L1138.9,632.7 L1140.0,632.3 L1141.2,631.9 L1142.3,631.5
		L1143.5,631.2 L1144.6,630.8 L1145.8,630.4 L1146.9,630.1 L1148.1,629.7 L1149.2,629.3 L1150.4,629.0 L1151.5,628.6
		L1152.7,628.2 L1153.8,627.9 L1155.0,627.5 L1156.1,627.2 L1157.3,626.8 L1158.4,626.4 L1159.6,626.1 L1160.7,625.7
		L1161.9,625.4 L1163.0,625.0 L1164.2,624.7 L1165.3,624.3 L1166.5,624.0 L1167.6,623.7 L1168.8,623.3 L1169.9,623.0
		L1171.1,622.6 L1172.2,622.3 L1173.4,622.0 L1174.5,621.6 L1175.7,621.3 L1176.8,621.0 L1178.0,620.7 L1179.1,620.4
		L1180.3,620.0 L1181.4,619.7 L1182.6,619.4 L1183.7,619.1 L1184.9,618.8 L1186.0,618.5 L1187.2,618.2 L1188.3,617.9
		L1189.5,617.6 L1190.6,617.4 L1191.8,617.1 L1192.9,616.8 L1194.1,616.5 L1195.2,616.2 L1196.4,616.0 L1197.5,615.7
		L1198.7,615.5 L1199.8,615.2 L1201.0,614.9 L1202.1,614.7 L1203.3,614.5 L1204.4,614.2 L1205.6,614.0 L1206.7,613.8
		L1207.9,613.5 L1209.0,613.3 L1210.2,613.1 L1211.3,612.9 L1212.5,612.7 L1213.6,612.5 L1214.8,612.3 L1215.9,612.1
		L1217.1,611.9 L1218.2,611.7 L1219.4,611.5 L1220.5,611.4 L1221.7,611.2 L1222.8,611.0 L1224.0,610.9 L1225.1,610.7
		L1226.3,610.6 L1227.4,610.5 L1228.6,610.3 L1229.7,610.2 L1230.9,610.1 L1232.0,609.9 L1233.2,609.8 L1234.3,609.7
		L1235.5,609.6 L1236.6,609.5 L1237.8,609.4 L1238.9,609.4 L1240.1,609.3 L1241.2,609.2 L1242.4,609.1 L1243.5,609.1
		L1244.7,609.0 L1245.8,609.0 L1247.0,608.9 L1248.1,608.9 L1249.3,608.9 L1250.4,608.8 L1251.6,608.8 L1252.7,608.8
		L1253.9,608.8 L1255.0,608.8  '/></g>
	</g>
	<g id="gnuplot_plot_5" ><title>gnuplot_plot_5</title>
<g fill="none" color="black" stroke="currentColor" stroke-width="1.00" stroke-linecap="butt" stroke-linejoin="miter">
	<path stroke='rgb(  0, 100,   0)'  d='M78.8,83.2 L79.9,83.2 L81.1,83.3 L82.2,83.4 L83.4,83.6 L84.5,83.8 L85.7,84.1 L86.8,84.5
		L88.0,84.9 L89.1,85.3 L90.3,85.8 L91.4,86.4 L92.6,87.0 L93.7,87.6 L94.9,88.3 L96.0,89.1
		L97.2,89.9 L98.3,90.7 L99.5,91.6 L100.6,92.5 L101.8,93.5 L102.9,94.5 L104.1,95.6 L105.2,96.7
		L106.4,97.8 L107.5,99.0 L108.7,100.2 L109.8,101.5 L111.0,102.8 L112.1,104.1 L113.3,105.5 L114.4,106.9
		L115.6,108.3 L116.7,109.8 L117.9,111.2 L119.0,112.8 L120.2,114.3 L121.3,115.9 L122.5,117.5 L123.6,119.1
		L124.8,120.7 L125.9,122.4 L127.1,124.1 L128.2,125.8 L129.4,127.5 L130.5,129.2 L131.7,131.0 L132.8,132.8
		L134.0,134.6 L135.1,136.4 L136.3,138.2 L137.4,140.0 L138.6,141.9 L139.7,143.7 L140.9,145.6 L142.0,147.5
		L143.2,149.4 L144.3,151.3 L145.5,153.2 L146.6,155.1 L147.8,157.0 L148.9,158.9 L150.1,160.9 L151.2,162.8
		L152.4,164.8 L153.5,166.7 L154.7,168.6 L155.8,170.6 L157.0,172.6 L158.1,174.5 L159.3,176.5 L160.4,178.4
		L161.6,180.4 L162.7,182.3 L163.9,184.3 L165.0,186.3 L166.2,188.2 L167.3,190.2 L168.5,192.1 L169.6,194.1
		L170.8,196.0 L171.9,198.0 L173.1,199.9 L174.2,201.9 L175.4,203.8 L176.5,205.8 L177.7,207.7 L178.8,209.6
		L180.0,211.5 L181.1,213.5 L182.3,215.4 L183.4,217.3 L184.6,219.2 L185.7,221.1 L186.9,223.0 L188.0,224.9
		L189.2,226.8 L190.3,228.7 L191.5,230.5 L192.6,232.4 L193.8,234.3 L194.9,236.1 L196.1,238.0 L197.2,239.8
		L198.4,241.7 L199.5,243.5 L200.7,245.3 L201.8,247.2 L203.0,249.0 L204.1,250.8 L205.3,252.6 L206.4,254.4
		L207.6,256.2 L208.7,258.0 L209.9,259.7 L211.0,261.5 L212.2,263.3 L213.3,265.0 L214.5,266.8 L215.6,268.5
		L216.8,270.2 L217.9,272.0 L219.1,273.7 L220.2,275.4 L221.4,277.1 L222.5,278.8 L223.7,280.5 L224.8,282.2
		L226.0,283.9 L227.1,285.5 L228.3,287.2 L229.4,288.9 L230.6,290.5 L231.7,292.2 L232.9,293.8 L234.0,295.4
		L235.2,297.0 L236.3,298.7 L237.5,300.3 L238.6,301.9 L239.8,303.5 L240.9,305.1 L242.1,306.6 L243.2,308.2
		L244.4,309.8 L245.5,311.3 L246.7,312.9 L247.8,314.4 L249.0,316.0 L250.1,317.5 L251.3,319.0 L252.4,320.6
		L253.6,322.1 L254.7,323.6 L255.9,325.1 L257.0,326.6 L258.2,328.1 L259.3,329.6 L260.5,331.0 L261.6,332.5
		L262.8,334.0 L263.9,335.4 L265.1,336.9 L266.2,338.3 L267.4,339.8 L268.5,341.2 L269.7,342.6 L270.8,344.0
		L272.0,345.4 L273.1,346.8 L274.3,348.2 L275.4,349.6 L276.6,351.0 L277.7,352.4 L278.9,353.8 L280.0,355.2
		L281.2,356.5 L282.3,357.9 L283.5,359.2 L284.6,360.6 L285.8,361.9 L286.9,363.3 L288.1,364.6 L289.2,365.9
		L290.4,367.2 L291.5,368.5 L292.7,369.9 L293.8,371.2 L295.0,372.5 L296.1,373.7 L297.3,375.0 L298.4,376.3
		L299.6,377.6 L300.7,378.9 L301.9,380.1 L303.0,381.4 L304.2,382.6 L305.3,383.9 L306.5,385.1 L307.6,386.4
		L308.8,387.6 L309.9,388.8 L311.1,390.0 L312.2,391.3 L313.4,392.5 L314.5,393.7 L315.6,394.9 L316.8,396.1
		L317.9,397.3 L319.1,398.5 L320.2,399.6 L321.4,400.8 L322.5,402.0 L323.7,403.2 L324.8,404.3 L326.0,405.5
		L327.1,406.6 L328.3,407.8 L329.4,408.9 L330.6,410.1 L331.7,411.2 L332.9,412.3 L334.0,413.5 L335.2,414.6
		L336.3,415.7 L337.5,416.8 L338.6,417.9 L339.8,419.0 L340.9,420.1 L342.1,421.2 L343.2,422.3 L344.4,423.4
		L345.5,424.5 L346.7,425.5 L347.8,426.6 L349.0,427.7 L350.1,428.8 L351.3,429.8 L352.4,430.9 L353.6,431.9
		L354.7,433.0 L355.9,434.0 L357.0,435.1 L358.2,436.1 L359.3,437.1 L360.5,438.2 L361.6,439.2 L362.8,440.2
		L363.9,441.2 L365.1,442.2 L366.2,443.2 L367.4,444.2 L368.5,445.2 L369.7,446.2 L370.8,447.2 L372.0,448.2
		L373.1,449.2 L374.3,450.2 L375.4,451.2 L376.6,452.1 L377.7,453.1 L378.9,454.1 L380.0,455.0 L381.2,456.0
		L382.3,457.0 L383.5,457.9 L384.6,458.9 L385.8,459.8 L386.9,460.7 L388.1,461.7 L389.2,462.6 L390.4,463.6
		L391.5,464.5 L392.7,465.4 L393.8,466.3 L395.0,467.2 L396.1,468.2 L397.3,469.1 L398.4,470.0 L399.6,470.9
		L400.7,471.8 L401.9,472.7 L403.0,473.6 L404.2,474.5 L405.3,475.4 L406.5,476.2 L407.6,477.1 L408.8,478.0
		L409.9,478.9 L411.1,479.7 L412.2,480.6 L413.4,481.5 L414.5,482.3 L415.7,483.2 L416.8,484.1 L418.0,484.9
		L419.1,485.8 L420.3,486.6 L421.4,487.5 L422.6,488.3 L423.7,489.1 L424.9,490.0 L426.0,490.8 L427.2,491.6
		L428.3,492.5 L429.5,493.3 L430.6,494.1 L431.8,494.9 L432.9,495.7 L434.1,496.5 L435.2,497.3 L436.4,498.2
		L437.5,499.0 L438.7,499.8 L439.8,500.6 L441.0,501.4 L442.1,502.1 L443.3,502.9 L444.4,503.7 L445.6,504.5
		L446.7,505.3 L447.9,506.1 L449.0,506.8 L450.2,507.6 L451.3,508.4 L452.5,509.1 L453.6,509.9 L454.8,510.7
		L455.9,511.4 L457.1,512.2 L458.2,512.9 L459.4,513.7 L460.5,514.4 L461.7,515.2 L462.8,515.9 L464.0,516.7
		L465.1,517.4 L466.3,518.2 L467.4,518.9 L468.6,519.6 L469.7,520.3 L470.9,521.1 L472.0,521.8 L473.2,522.5
		L474.3,523.2 L475.5,524.0 L476.6,524.7 L477.8,525.4 L478.9,526.1 L480.1,526.8 L481.2,527.5 L482.4,528.2
		L483.5,528.9 L484.7,529.6 L485.8,530.3 L487.0,531.0 L488.1,531.7 L489.3,532.4 L490.4,533.0 L491.6,533.7
		L492.7,534.4 L493.9,535.1 L495.0,535.8 L496.2,536.4 L497.3,537.1 L498.5,537.8 L499.6,538.4 L500.8,539.1
		L501.9,539.8 L503.1,540.4 L504.2,541.1 L505.4,541.7 L506.5,542.4 L507.7,543.1 L508.8,543.7 L510.0,544.3
		L511.1,545.0 L512.3,545.6 L513.4,546.3 L514.6,546.9 L515.7,547.6 L516.9,548.2 L518.0,548.8 L519.2,549.4
		L520.3,550.1 L521.5,550.7 L522.6,551.3 L523.8,551.9 L524.9,552.6 L526.1,553.2 L527.2,553.8 L528.4,554.4
		L529.5,555.0 L530.7,555.6 L531.8,556.2 L533.0,556.8 L534.1,557.4 L535.3,558.0 L536.4,558.6 L537.6,559.2
		L538.7,559.8 L539.9,560.4 L541.0,561.0 L542.2,561.6 L543.3,562.2 L544.5,562.8 L545.6,563.4 L546.8,563.9
		L547.9,564.5 L549.1,565.1 L550.2,565.7 L551.3,566.2 L552.5,566.8 L553.6,567.4 L554.8,568.0 L555.9,568.5
		L557.1,569.1 L558.2,569.6 L559.4,570.2 L560.5,570.8 L561.7,571.3 L562.8,571.9 L564.0,572.4 L565.1,573.0
		L566.3,573.5 L567.4,574.1 L568.6,574.6 L569.7,575.2 L570.9,575.7 L572.0,576.2 L573.2,576.8 L574.3,577.3
		L575.5,577.9 L576.6,578.4 L577.8,578.9 L578.9,579.4 L580.1,580.0 L581.2,580.5 L582.4,581.0 L583.5,581.5
		L584.7,582.1 L585.8,582.6 L587.0,583.1 L588.1,583.6 L589.3,584.1 L590.4,584.6 L591.6,585.1 L592.7,585.6
		L593.9,586.1 L595.0,586.7 L596.2,587.2 L597.3,587.7 L598.5,588.2 L599.6,588.6 L600.8,589.1 L601.9,589.6
		L603.1,590.1 L604.2,590.6 L605.4,591.1 L606.5,591.6 L607.7,592.1 L608.8,592.6 L610.0,593.0 L611.1,593.5
		L612.3,594.0 L613.4,594.5 L614.6,595.0 L615.7,595.4 L616.9,595.9 L618.0,596.4 L619.2,596.8 L620.3,597.3
		L621.5,597.8 L622.6,598.2 L623.8,598.7 L624.9,599.1 L626.1,599.6 L627.2,600.1 L628.4,600.5 L629.5,601.0
		L630.7,601.4 L631.8,601.9 L633.0,602.3 L634.1,602.8 L635.3,603.2 L636.4,603.7 L637.6,604.1 L638.7,604.5
		L639.9,605.0 L641.0,605.4 L642.2,605.8 L643.3,606.3 L644.5,606.7 L645.6,607.1 L646.8,607.6 L647.9,608.0
		L649.1,608.4 L650.2,608.8 L651.4,609.3 L652.5,609.7 L653.7,610.1 L654.8,610.5 L656.0,610.9 L657.1,611.4
		L658.3,611.8 L659.4,612.2 L660.6,612.6 L661.7,613.0 L662.9,613.4 L664.0,613.8 L665.2,614.2 L666.3,614.6
		L667.5,615.0 L668.6,615.4 L669.8,615.8 L670.9,616.2 L672.1,616.6 L673.2,617.0 L674.4,617.4 L675.5,617.8
		L676.7,618.2 L677.8,618.5 L679.0,618.9 L680.1,619.3 L681.3,619.7 L682.4,620.1 L683.6,620.5 L684.7,620.8
		L685.9,621.2 L687.0,621.6 L688.2,622.0 L689.3,622.3 L690.5,622.7 L691.6,623.1 L692.8,623.4 L693.9,623.8
		L695.1,624.2 L696.2,624.5 L697.4,624.9 L698.5,625.2 L699.7,625.6 L700.8,626.0 L702.0,626.3 L703.1,626.7
		L704.3,627.0 L705.4,627.4 L706.6,627.7 L707.7,628.1 L708.9,628.4 L710.0,628.7 L711.2,629.1 L712.3,629.4
		L713.5,629.8 L714.6,630.1 L715.8,630.4 L716.9,630.8 L718.1,631.1 L719.2,631.4 L720.4,631.8 L721.5,632.1
		L722.7,632.4 L723.8,632.7 L725.0,633.1 L726.1,633.4 L727.3,633.7 L728.4,634.0 L729.6,634.3 L730.7,634.7
		L731.9,635.0 L733.0,635.3 L734.2,635.6 L735.3,635.9 L736.5,636.2 L737.6,636.5 L738.8,636.8 L739.9,637.1
		L741.1,637.4 L742.2,637.7 L743.4,638.0 L744.5,638.3 L745.7,638.6 L746.8,638.9 L748.0,639.2 L749.1,639.5
		L750.3,639.8 L751.4,640.1 L752.6,640.4 L753.7,640.6 L754.9,640.9 L756.0,641.2 L757.2,641.5 L758.3,641.8
		L759.5,642.0 L760.6,642.3 L761.8,642.6 L762.9,642.9 L764.1,643.1 L765.2,643.4 L766.4,643.7 L767.5,643.9
		L768.7,644.2 L769.8,644.5 L771.0,644.7 L772.1,645.0 L773.3,645.2 L774.4,645.5 L775.6,645.8 L776.7,646.0
		L777.9,646.3 L779.0,646.5 L780.2,646.8 L781.3,647.0 L782.5,647.3 L783.6,647.5 L784.7,647.7 L785.9,648.0
		L787.0,648.2 L788.2,648.5 L789.3,648.7 L790.5,648.9 L791.6,649.2 L792.8,649.4 L793.9,649.6 L795.1,649.9
		L796.2,650.1 L797.4,650.3 L798.5,650.5 L799.7,650.7 L800.8,651.0 L802.0,651.2 L803.1,651.4 L804.3,651.6
		L805.4,651.8 L806.6,652.0 L807.7,652.2 L808.9,652.5 L810.0,652.7 L811.2,652.9 L812.3,653.1 L813.5,653.3
		L814.6,653.5 L815.8,653.7 L816.9,653.9 L818.1,654.1 L819.2,654.2 L820.4,654.4 L821.5,654.6 L822.7,654.8
		L823.8,655.0 L825.0,655.2 L826.1,655.4 L827.3,655.5 L828.4,655.7 L829.6,655.9 L830.7,656.1 L831.9,656.3
		L833.0,656.4 L834.2,656.6 L835.3,656.8 L836.5,656.9 L837.6,657.1 L838.8,657.3 L839.9,657.4 L841.1,657.6
		L842.2,657.7 L843.4,657.9 L844.5,658.0 L845.7,658.2 L846.8,658.3 L848.0,658.5 L849.1,658.6 L850.3,658.8
		L851.4,658.9 L852.6,659.1 L853.7,659.2 L854.9,659.3 L856.0,659.5 L857.2,659.6 L858.3,659.7 L859.5,659.9
		L860.6,660.0 L861.8,660.1 L862.9,660.2 L864.1,660.4 L865.2,660.5 L866.4,660.6 L867.5,660.7 L868.7,660.8
		L869.8,661.0 L871.0,661.1 L872.1,661.2 L873.3,661.3 L874.4,661.4 L875.6,661.5 L876.7,661.6 L877.9,661.7
		L879.0,661.8 L880.2,661.9 L881.3,662.0 L882.5,662.1 L883.6,662.1 L884.8,662.2 L885.9,662.3 L887.1,662.4
		L888.2,662.5 L889.4,662.6 L890.5,662.6 L891.7,662.7 L892.8,662.8 L894.0,662.9 L895.1,662.9 L896.3,663.0
		L897.4,663.0 L898.6,663.1 L899.7,663.2 L900.9,663.2 L902.0,663.3 L903.2,663.3 L904.3,663.4 L905.5,663.4
		L906.6,663.5 L907.8,663.5 L908.9,663.6 L910.1,663.6 L911.2,663.6 L912.4,663.7 L913.5,663.7 L914.7,663.7
		L915.8,663.8 L917.0,663.8 L918.1,663.8 L919.3,663.9 L920.4,663.9 L921.6,663.9 L922.7,663.9 L923.9,663.9
		L925.0,663.9 L926.2,663.9 L927.3,663.9 L928.5,663.9 L929.6,663.9 L930.8,663.9 L931.9,663.9 L933.1,663.9
		L934.2,663.9 L935.4,663.9 L936.5,663.9 L937.7,663.9 L938.8,663.9 L940.0,663.9 L941.1,663.8 L942.3,663.8
		L943.4,663.8 L944.6,663.8 L945.7,663.7 L946.9,663.7 L948.0,663.7 L949.2,663.6 L950.3,663.6 L951.5,663.5
		L952.6,663.5 L953.8,663.4 L954.9,663.4 L956.1,663.3 L957.2,663.3 L958.4,663.2 L959.5,663.2 L960.7,663.1
		L961.8,663.0 L963.0,663.0 L964.1,662.9 L965.3,662.8 L966.4,662.7 L967.6,662.7 L968.7,662.6 L969.9,662.5
		L971.0,662.4 L972.2,662.3 L973.3,662.2 L974.5,662.1 L975.6,662.0 L976.8,661.9 L977.9,661.8 L979.1,661.7
		L980.2,661.6 L981.4,661.5 L982.5,661.4 L983.7,661.3 L984.8,661.2 L986.0,661.0 L987.1,660.9 L988.3,660.8
		L989.4,660.7 L990.6,660.5 L991.7,660.4 L992.9,660.3 L994.0,660.1 L995.2,660.0 L996.3,659.8 L997.5,659.7
		L998.6,659.5 L999.8,659.4 L1000.9,659.2 L1002.1,659.1 L1003.2,658.9 L1004.4,658.7 L1005.5,658.6 L1006.7,658.4
		L1007.8,658.2 L1009.0,658.1 L1010.1,657.9 L1011.3,657.7 L1012.4,657.5 L1013.6,657.3 L1014.7,657.1 L1015.9,656.9
		L1017.0,656.8 L1018.2,656.6 L1019.3,656.4 L1020.4,656.2 L1021.6,656.0 L1022.7,655.7 L1023.9,655.5 L1025.0,655.3
		L1026.2,655.1 L1027.3,654.9 L1028.5,654.7 L1029.6,654.4 L1030.8,654.2 L1031.9,654.0 L1033.1,653.8 L1034.2,653.5
		L1035.4,653.3 L1036.5,653.1 L1037.7,652.8 L1038.8,652.6 L1040.0,652.3 L1041.1,652.1 L1042.3,651.8 L1043.4,651.6
		L1044.6,651.3 L1045.7,651.0 L1046.9,650.8 L1048.0,650.5 L1049.2,650.3 L1050.3,650.0 L1051.5,649.7 L1052.6,649.4
		L1053.8,649.2 L1054.9,648.9 L1056.1,648.6 L1057.2,648.3 L1058.4,648.0 L1059.5,647.7 L1060.7,647.4 L1061.8,647.2
		L1063.0,646.9 L1064.1,646.6 L1065.3,646.3 L1066.4,646.0 L1067.6,645.6 L1068.7,645.3 L1069.9,645.0 L1071.0,644.7
		L1072.2,644.4 L1073.3,644.1 L1074.5,643.8 L1075.6,643.4 L1076.8,643.1 L1077.9,642.8 L1079.1,642.5 L1080.2,642.1
		L1081.4,641.8 L1082.5,641.5 L1083.7,641.1 L1084.8,640.8 L1086.0,640.5 L1087.1,640.1 L1088.3,639.8 L1089.4,639.4
		L1090.6,639.1 L1091.7,638.8 L1092.9,638.4 L1094.0,638.1 L1095.2,637.7 L1096.3,637.4 L1097.5,637.0 L1098.6,636.6
		L1099.8,636.3 L1100.9,635.9 L1102.1,635.6 L1103.2,635.2 L1104.4,634.8 L1105.5,634.5 L1106.7,634.1 L1107.8,633.7
		L1109.0,633.4 L1110.1,633.0 L1111.3,632.6 L1112.4,632.3 L1113.6,631.9 L1114.7,631.5 L1115.9,631.2 L1117.0,630.8
		L1118.2,630.4 L1119.3,630.0 L1120.5,629.7 L1121.6,629.3 L1122.8,628.9 L1123.9,628.5 L1125.1,628.2 L1126.2,627.8
		L1127.4,627.4 L1128.5,627.0 L1129.7,626.6 L1130.8,626.3 L1132.0,625.9 L1133.1,625.5 L1134.3,625.1 L1135.4,624.8
		L1136.6,624.4 L1137.7,624.0 L1138.9,623.6 L1140.0,623.3 L1141.2,622.9 L1142.3,622.5 L1143.5,622.1 L1144.6,621.8
		L1145.8,621.4 L1146.9,621.0 L1148.1,620.6 L1149.2,620.3 L1150.4,619.9 L1151.5,619.5 L1152.7,619.2 L1153.8,618.8
		L1155.0,618.4 L1156.1,618.1 L1157.3,617.7 L1158.4,617.3 L1159.6,617.0 L1160.7,616.6 L1161.9,616.3 L1163.0,615.9
		L1164.2,615.6 L1165.3,615.2 L1166.5,614.9 L1167.6,614.5 L1168.8,614.2 L1169.9,613.8 L1171.1,613.5 L1172.2,613.2
		L1173.4,612.8 L1174.5,612.5 L1175.7,612.2 L1176.8,611.9 L1178.0,611.5 L1179.1,611.2 L1180.3,610.9 L1181.4,610.6
		L1182.6,610.3 L1183.7,610.0 L1184.9,609.7 L1186.0,609.4 L1187.2,609.1 L1188.3,608.8 L1189.5,608.5 L1190.6,608.2
		L1191.8,607.9 L1192.9,607.6 L1194.1,607.3 L1195.2,607.1 L1196.4,606.8 L1197.5,606.5 L1198.7,606.3 L1199.8,606.0
		L1201.0,605.8 L1202.1,605.5 L1203.3,605.3 L1204.4,605.0 L1205.6,604.8 L1206.7,604.6 L1207.9,604.3 L1209.0,604.1
		L1210.2,603.9 L1211.3,603.7 L1212.5,603.5 L1213.6,603.3 L1214.8,603.1 L1215.9,602.9 L1217.1,602.7 L1218.2,602.5
		L1219.4,602.3 L1220.5,602.1 L1221.7,602.0 L1222.8,601.8 L1224.0,601.7 L1225.1,601.5 L1226.3,601.4 L1227.4,601.2
		L1228.6,601.1 L1229.7,601.0 L1230.9,600.8 L1232.0,600.7 L1233.2,600.6 L1234.3,600.5 L1235.5,600.4 L1236.6,600.3
		L1237.8,600.2 L1238.9,600.1 L1240.1,600.0 L1241.2,600.0 L1242.4,599.9 L1243.5,599.8 L1244.7,599.8 L1245.8,599.7
		L1247.0,599.7 L1248.1,599.6 L1249.3,599.6 L1250.4,599.6 L1251.6,599.6 L1252.7,599.5 L1253.9,599.5 L1255.0,599.5
		 '/></g>
	</g>
	<g id="gnuplot_plot_6" ><title>gnuplot_plot_6</title>
<g fill="none" color="black" stroke="currentColor" stroke-width="1.00" stroke-linecap="butt" stroke-linejoin="miter">
	<path stroke='rgb(  0,   0, 255)'  d='M78.8,70.2 L79.9,70.2 L81.1,70.3 L82.2,70.4 L83.4,70.6 L84.5,70.9 L85.7,71.2 L86.8,71.5
		L88.0,71.9 L89.1,72.4 L90.3,72.9 L91.4,73.4 L92.6,74.0 L93.7,74.7 L94.9,75.4 L96.0,76.1
		L97.2,76.9 L98.3,77.8 L99.5,78.6 L100.6,79.6 L101.8,80.6 L102.9,81.6 L104.1,82.6 L105.2,83.7
		L106.4,84.9 L107.5,86.1 L108.7,87.3 L109.8,88.5 L111.0,89.8 L112.1,91.2 L113.3,92.5 L114.4,93.9
		L115.6,95.4 L116.7,96.8 L117.9,98.3 L119.0,99.8 L120.2,101.3 L121.3,102.9 L122.5,104.5 L123.6,106.1
		L124.8,107.8 L125.9,109.4 L127.1,111.1 L128.2,112.8 L129.4,114.5 L130.5,116.3 L131.7,118.1 L132.8,119.8
		L134.0,121.6 L135.1,123.4 L136.3,125.2 L137.4,127.1 L138.6,128.9 L139.7,130.8 L140.9,132.7 L142.0,134.5
		L143.2,136.4 L144.3,138.3 L145.5,140.2 L146.6,142.1 L147.8,144.1 L148.9,146.0 L150.1,147.9 L151.2,149.9
		L152.4,151.8 L153.5,153.7 L154.7,155.7 L155.8,157.6 L157.0,159.6 L158.1,161.6 L159.3,163.5 L160.4,165.5
		L161.6,167.4 L162.7,169.4 L163.9,171.4 L165.0,173.3 L166.2,175.3 L167.3,177.2 L168.5,179.2 L169.6,181.1
		L170.8,183.1 L171.9,185.0 L173.1,187.0 L174.2,188.9 L175.4,190.9 L176.5,192.8 L177.7,194.7 L178.8,196.7
		L180.0,198.6 L181.1,200.5 L182.3,202.4 L183.4,204.3 L184.6,206.3 L185.7,208.2 L186.9,210.1 L188.0,211.9
		L189.2,213.8 L190.3,215.7 L191.5,217.6 L192.6,219.5 L193.8,221.3 L194.9,223.2 L196.1,225.0 L197.2,226.9
		L198.4,228.7 L199.5,230.6 L200.7,232.4 L201.8,234.2 L203.0,236.0 L204.1,237.8 L205.3,239.6 L206.4,241.4
		L207.6,243.2 L208.7,245.0 L209.9,246.8 L211.0,248.6 L212.2,250.3 L213.3,252.1 L214.5,253.8 L215.6,255.6
		L216.8,257.3 L217.9,259.0 L219.1,260.7 L220.2,262.5 L221.4,264.2 L222.5,265.9 L223.7,267.6 L224.8,269.2
		L226.0,270.9 L227.1,272.6 L228.3,274.3 L229.4,275.9 L230.6,277.6 L231.7,279.2 L232.9,280.8 L234.0,282.5
		L235.2,284.1 L236.3,285.7 L237.5,287.3 L238.6,288.9 L239.8,290.5 L240.9,292.1 L242.1,293.7 L243.2,295.3
		L244.4,296.8 L245.5,298.4 L246.7,299.9 L247.8,301.5 L249.0,303.0 L250.1,304.6 L251.3,306.1 L252.4,307.6
		L253.6,309.1 L254.7,310.6 L255.9,312.1 L257.0,313.6 L258.2,315.1 L259.3,316.6 L260.5,318.1 L261.6,319.6
		L262.8,321.0 L263.9,322.5 L265.1,323.9 L266.2,325.4 L267.4,326.8 L268.5,328.2 L269.7,329.7 L270.8,331.1
		L272.0,332.5 L273.1,333.9 L274.3,335.3 L275.4,336.7 L276.6,338.1 L277.7,339.5 L278.9,340.8 L280.0,342.2
		L281.2,343.6 L282.3,344.9 L283.5,346.3 L284.6,347.6 L285.8,349.0 L286.9,350.3 L288.1,351.6 L289.2,353.0
		L290.4,354.3 L291.5,355.6 L292.7,356.9 L293.8,358.2 L295.0,359.5 L296.1,360.8 L297.3,362.1 L298.4,363.4
		L299.6,364.6 L300.7,365.9 L301.9,367.2 L303.0,368.4 L304.2,369.7 L305.3,370.9 L306.5,372.2 L307.6,373.4
		L308.8,374.6 L309.9,375.9 L311.1,377.1 L312.2,378.3 L313.4,379.5 L314.5,380.7 L315.6,381.9 L316.8,383.1
		L317.9,384.3 L319.1,385.5 L320.2,386.7 L321.4,387.9 L322.5,389.0 L323.7,390.2 L324.8,391.4 L326.0,392.5
		L327.1,393.7 L328.3,394.8 L329.4,396.0 L330.6,397.1 L331.7,398.2 L332.9,399.4 L334.0,400.5 L335.2,401.6
		L336.3,402.7 L337.5,403.8 L338.6,404.9 L339.8,406.1 L340.9,407.2 L342.1,408.2 L343.2,409.3 L344.4,410.4
		L345.5,411.5 L346.7,412.6 L347.8,413.7 L349.0,414.7 L350.1,415.8 L351.3,416.8 L352.4,417.9 L353.6,419.0
		L354.7,420.0 L355.9,421.0 L357.0,422.1 L358.2,423.1 L359.3,424.2 L360.5,425.2 L361.6,426.2 L362.8,427.2
		L363.9,428.2 L365.1,429.3 L366.2,430.3 L367.4,431.3 L368.5,432.3 L369.7,433.3 L370.8,434.3 L372.0,435.2
		L373.1,436.2 L374.3,437.2 L375.4,438.2 L376.6,439.2 L377.7,440.1 L378.9,441.1 L380.0,442.1 L381.2,443.0
		L382.3,444.0 L383.5,444.9 L384.6,445.9 L385.8,446.8 L386.9,447.8 L388.1,448.7 L389.2,449.6 L390.4,450.6
		L391.5,451.5 L392.7,452.4 L393.8,453.3 L395.0,454.3 L396.1,455.2 L397.3,456.1 L398.4,457.0 L399.6,457.9
		L400.7,458.8 L401.9,459.7 L403.0,460.6 L404.2,461.5 L405.3,462.4 L406.5,463.3 L407.6,464.1 L408.8,465.0
		L409.9,465.9 L411.1,466.8 L412.2,467.6 L413.4,468.5 L414.5,469.4 L415.7,470.2 L416.8,471.1 L418.0,471.9
		L419.1,472.8 L420.3,473.6 L421.4,474.5 L422.6,475.3 L423.7,476.1 L424.9,477.0 L426.0,477.8 L427.2,478.6
		L428.3,479.5 L429.5,480.3 L430.6,481.1 L431.8,481.9 L432.9,482.7 L434.1,483.6 L435.2,484.4 L436.4,485.2
		L437.5,486.0 L438.7,486.8 L439.8,487.6 L441.0,488.4 L442.1,489.1 L443.3,489.9 L444.4,490.7 L445.6,491.5
		L446.7,492.3 L447.9,493.1 L449.0,493.8 L450.2,494.6 L451.3,495.4 L452.5,496.1 L453.6,496.9 L454.8,497.7
		L455.9,498.4 L457.1,499.2 L458.2,499.9 L459.4,500.7 L460.5,501.4 L461.7,502.2 L462.8,502.9 L464.0,503.7
		L465.1,504.4 L466.3,505.1 L467.4,505.9 L468.6,506.6 L469.7,507.3 L470.9,508.1 L472.0,508.8 L473.2,509.5
		L474.3,510.2 L475.5,510.9 L476.6,511.7 L477.8,512.4 L478.9,513.1 L480.1,513.8 L481.2,514.5 L482.4,515.2
		L483.5,515.9 L484.7,516.6 L485.8,517.3 L487.0,518.0 L488.1,518.7 L489.3,519.3 L490.4,520.0 L491.6,520.7
		L492.7,521.4 L493.9,522.1 L495.0,522.7 L496.2,523.4 L497.3,524.1 L498.5,524.8 L499.6,525.4 L500.8,526.1
		L501.9,526.7 L503.1,527.4 L504.2,528.1 L505.4,528.7 L506.5,529.4 L507.7,530.0 L508.8,530.7 L510.0,531.3
		L511.1,532.0 L512.3,532.6 L513.4,533.2 L514.6,533.9 L515.7,534.5 L516.9,535.1 L518.0,535.8 L519.2,536.4
		L520.3,537.0 L521.5,537.7 L522.6,538.3 L523.8,538.9 L524.9,539.5 L526.1,540.1 L527.2,540.8 L528.4,541.4
		L529.5,542.0 L530.7,542.6 L531.8,543.2 L533.0,543.8 L534.1,544.4 L535.3,545.0 L536.4,545.6 L537.6,546.2
		L538.7,546.8 L539.9,547.4 L541.0,548.0 L542.2,548.6 L543.3,549.1 L544.5,549.7 L545.6,550.3 L546.8,550.9
		L547.9,551.5 L549.1,552.0 L550.2,552.6 L551.3,553.2 L552.5,553.8 L553.6,554.3 L554.8,554.9 L555.9,555.5
		L557.1,556.0 L558.2,556.6 L559.4,557.1 L560.5,557.7 L561.7,558.2 L562.8,558.8 L564.0,559.4 L565.1,559.9
		L566.3,560.4 L567.4,561.0 L568.6,561.5 L569.7,562.1 L570.9,562.6 L572.0,563.2 L573.2,563.7 L574.3,564.2
		L575.5,564.8 L576.6,565.3 L577.8,565.8 L578.9,566.3 L580.1,566.9 L581.2,567.4 L582.4,567.9 L583.5,568.4
		L584.7,569.0 L585.8,569.5 L587.0,570.0 L588.1,570.5 L589.3,571.0 L590.4,571.5 L591.6,572.0 L592.7,572.5
		L593.9,573.0 L595.0,573.5 L596.2,574.0 L597.3,574.5 L598.5,575.0 L599.6,575.5 L600.8,576.0 L601.9,576.5
		L603.1,577.0 L604.2,577.5 L605.4,578.0 L606.5,578.5 L607.7,579.0 L608.8,579.4 L610.0,579.9 L611.1,580.4
		L612.3,580.9 L613.4,581.3 L614.6,581.8 L615.7,582.3 L616.9,582.8 L618.0,583.2 L619.2,583.7 L620.3,584.2
		L621.5,584.6 L622.6,585.1 L623.8,585.5 L624.9,586.0 L626.1,586.5 L627.2,586.9 L628.4,587.4 L629.5,587.8
		L630.7,588.3 L631.8,588.7 L633.0,589.2 L634.1,589.6 L635.3,590.0 L636.4,590.5 L637.6,590.9 L638.7,591.4
		L639.9,591.8 L641.0,592.2 L642.2,592.7 L643.3,593.1 L644.5,593.5 L645.6,594.0 L646.8,594.4 L647.9,594.8
		L649.1,595.2 L650.2,595.7 L651.4,596.1 L652.5,596.5 L653.7,596.9 L654.8,597.3 L656.0,597.7 L657.1,598.2
		L658.3,598.6 L659.4,599.0 L660.6,599.4 L661.7,599.8 L662.9,600.2 L664.0,600.6 L665.2,601.0 L666.3,601.4
		L667.5,601.8 L668.6,602.2 L669.8,602.6 L670.9,603.0 L672.1,603.4 L673.2,603.8 L674.4,604.1 L675.5,604.5
		L676.7,604.9 L677.8,605.3 L679.0,605.7 L680.1,606.1 L681.3,606.4 L682.4,606.8 L683.6,607.2 L684.7,607.6
		L685.9,607.9 L687.0,608.3 L688.2,608.7 L689.3,609.1 L690.5,609.4 L691.6,609.8 L692.8,610.2 L693.9,610.5
		L695.1,610.9 L696.2,611.2 L697.4,611.6 L698.5,611.9 L699.7,612.3 L700.8,612.7 L702.0,613.0 L703.1,613.4
		L704.3,613.7 L705.4,614.0 L706.6,614.4 L707.7,614.7 L708.9,615.1 L710.0,615.4 L711.2,615.8 L712.3,616.1
		L713.5,616.4 L714.6,616.8 L715.8,617.1 L716.9,617.4 L718.1,617.8 L719.2,618.1 L720.4,618.4 L721.5,618.7
		L722.7,619.1 L723.8,619.4 L725.0,619.7 L726.1,620.0 L727.3,620.3 L728.4,620.7 L729.6,621.0 L730.7,621.3
		L731.9,621.6 L733.0,621.9 L734.2,622.2 L735.3,622.5 L736.5,622.8 L737.6,623.1 L738.8,623.4 L739.9,623.7
		L741.1,624.0 L742.2,624.3 L743.4,624.6 L744.5,624.9 L745.7,625.2 L746.8,625.5 L748.0,625.8 L749.1,626.1
		L750.3,626.3 L751.4,626.6 L752.6,626.9 L753.7,627.2 L754.9,627.5 L756.0,627.8 L757.2,628.0 L758.3,628.3
		L759.5,628.6 L760.6,628.8 L761.8,629.1 L762.9,629.4 L764.1,629.7 L765.2,629.9 L766.4,630.2 L767.5,630.4
		L768.7,630.7 L769.8,631.0 L771.0,631.2 L772.1,631.5 L773.3,631.7 L774.4,632.0 L775.6,632.2 L776.7,632.5
		L777.9,632.7 L779.0,633.0 L780.2,633.2 L781.3,633.5 L782.5,633.7 L783.6,633.9 L784.7,634.2 L785.9,634.4
		L787.0,634.6 L788.2,634.9 L789.3,635.1 L790.5,635.3 L791.6,635.6 L792.8,635.8 L793.9,636.0 L795.1,636.2
		L796.2,636.5 L797.4,636.7 L798.5,636.9 L799.7,637.1 L800.8,637.3 L802.0,637.5 L803.1,637.7 L804.3,638.0
		L805.4,638.2 L806.6,638.4 L807.7,638.6 L808.9,638.8 L810.0,639.0 L811.2,639.2 L812.3,639.4 L813.5,639.6
		L814.6,639.8 L815.8,640.0 L816.9,640.1 L818.1,640.3 L819.2,640.5 L820.4,640.7 L821.5,640.9 L822.7,641.1
		L823.8,641.2 L825.0,641.4 L826.1,641.6 L827.3,641.8 L828.4,641.9 L829.6,642.1 L830.7,642.3 L831.9,642.5
		L833.0,642.6 L834.2,642.8 L835.3,642.9 L836.5,643.1 L837.6,643.3 L838.8,643.4 L839.9,643.6 L841.1,643.7
		L842.2,643.9 L843.4,644.0 L844.5,644.2 L845.7,644.3 L846.8,644.5 L848.0,644.6 L849.1,644.7 L850.3,644.9
		L851.4,645.0 L852.6,645.1 L853.7,645.3 L854.9,645.4 L856.0,645.5 L857.2,645.7 L858.3,645.8 L859.5,645.9
		L860.6,646.0 L861.8,646.1 L862.9,646.3 L864.1,646.4 L865.2,646.5 L866.4,646.6 L867.5,646.7 L868.7,646.8
		L869.8,646.9 L871.0,647.0 L872.1,647.1 L873.3,647.2 L874.4,647.3 L875.6,647.4 L876.7,647.5 L877.9,647.6
		L879.0,647.7 L880.2,647.8 L881.3,647.9 L882.5,647.9 L883.6,648.0 L884.8,648.1 L885.9,648.2 L887.1,648.2
		L888.2,648.3 L889.4,648.4 L890.5,648.5 L891.7,648.5 L892.8,648.6 L894.0,648.6 L895.1,648.7 L896.3,648.8
		L897.4,648.8 L898.6,648.9 L899.7,648.9 L900.9,649.0 L902.0,649.0 L903.2,649.1 L904.3,649.1 L905.5,649.1
		L906.6,649.2 L907.8,649.2 L908.9,649.2 L910.1,649.3 L911.2,649.3 L912.4,649.3 L913.5,649.4 L914.7,649.4
		L915.8,649.4 L917.0,649.4 L918.1,649.4 L919.3,649.4 L920.4,649.4 L921.6,649.5 L922.7,649.5 L923.9,649.5
		L925.0,649.5 L926.2,649.5 L927.3,649.5 L928.5,649.4 L929.6,649.4 L930.8,649.4 L931.9,649.4 L933.1,649.4
		L934.2,649.4 L935.4,649.4 L936.5,649.3 L937.7,649.3 L938.8,649.3 L940.0,649.2 L941.1,649.2 L942.3,649.2
		L943.4,649.1 L944.6,649.1 L945.7,649.1 L946.9,649.0 L948.0,649.0 L949.2,648.9 L950.3,648.9 L951.5,648.8
		L952.6,648.7 L953.8,648.7 L954.9,648.6 L956.1,648.6 L957.2,648.5 L958.4,648.4 L959.5,648.3 L960.7,648.3
		L961.8,648.2 L963.0,648.1 L964.1,648.0 L965.3,647.9 L966.4,647.9 L967.6,647.8 L968.7,647.7 L969.9,647.6
		L971.0,647.5 L972.2,647.4 L973.3,647.3 L974.5,647.2 L975.6,647.0 L976.8,646.9 L977.9,646.8 L979.1,646.7
		L980.2,646.6 L981.4,646.5 L982.5,646.3 L983.7,646.2 L984.8,646.1 L986.0,645.9 L987.1,645.8 L988.3,645.7
		L989.4,645.5 L990.6,645.4 L991.7,645.2 L992.9,645.1 L994.0,644.9 L995.2,644.8 L996.3,644.6 L997.5,644.4
		L998.6,644.3 L999.8,644.1 L1000.9,643.9 L1002.1,643.8 L1003.2,643.6 L1004.4,643.4 L1005.5,643.2 L1006.7,643.1
		L1007.8,642.9 L1009.0,642.7 L1010.1,642.5 L1011.3,642.3 L1012.4,642.1 L1013.6,641.9 L1014.7,641.7 L1015.9,641.5
		L1017.0,641.3 L1018.2,641.1 L1019.3,640.9 L1020.4,640.6 L1021.6,640.4 L1022.7,640.2 L1023.9,640.0 L1025.0,639.7
		L1026.2,639.5 L1027.3,639.3 L1028.5,639.1 L1029.6,638.8 L1030.8,638.6 L1031.9,638.3 L1033.1,638.1 L1034.2,637.8
		L1035.4,637.6 L1036.5,637.3 L1037.7,637.1 L1038.8,636.8 L1040.0,636.6 L1041.1,636.3 L1042.3,636.0 L1043.4,635.8
		L1044.6,635.5 L1045.7,635.2 L1046.9,634.9 L1048.0,634.7 L1049.2,634.4 L1050.3,634.1 L1051.5,633.8 L1052.6,633.5
		L1053.8,633.2 L1054.9,632.9 L1056.1,632.6 L1057.2,632.3 L1058.4,632.0 L1059.5,631.7 L1060.7,631.4 L1061.8,631.1
		L1063.0,630.8 L1064.1,630.5 L1065.3,630.2 L1066.4,629.8 L1067.6,629.5 L1068.7,629.2 L1069.9,628.9 L1071.0,628.6
		L1072.2,628.2 L1073.3,627.9 L1074.5,627.6 L1075.6,627.2 L1076.8,626.9 L1077.9,626.5 L1079.1,626.2 L1080.2,625.9
		L1081.4,625.5 L1082.5,625.2 L1083.7,624.8 L1084.8,624.5 L1086.0,624.1 L1087.1,623.8 L1088.3,623.4 L1089.4,623.1
		L1090.6,622.7 L1091.7,622.3 L1092.9,622.0 L1094.0,621.6 L1095.2,621.2 L1096.3,620.9 L1097.5,620.5 L1098.6,620.1
		L1099.8,619.8 L1100.9,619.4 L1102.1,619.0 L1103.2,618.6 L1104.4,618.3 L1105.5,617.9 L1106.7,617.5 L1107.8,617.1
		L1109.0,616.7 L1110.1,616.4 L1111.3,616.0 L1112.4,615.6 L1113.6,615.2 L1114.7,614.8 L1115.9,614.4 L1117.0,614.1
		L1118.2,613.7 L1119.3,613.3 L1120.5,612.9 L1121.6,612.5 L1122.8,612.1 L1123.9,611.7 L1125.1,611.3 L1126.2,611.0
		L1127.4,610.6 L1128.5,610.2 L1129.7,609.8 L1130.8,609.4 L1132.0,609.0 L1133.1,608.6 L1134.3,608.2 L1135.4,607.8
		L1136.6,607.4 L1137.7,607.1 L1138.9,606.7 L1140.0,606.3 L1141.2,605.9 L1142.3,605.5 L1143.5,605.1 L1144.6,604.7
		L1145.8,604.4 L1146.9,604.0 L1148.1,603.6 L1149.2,603.2 L1150.4,602.8 L1151.5,602.4 L1152.7,602.1 L1153.8,601.7
		L1155.0,601.3 L1156.1,600.9 L1157.3,600.6 L1158.4,600.2 L1159.6,599.8 L1160.7,599.5 L1161.9,599.1 L1163.0,598.7
		L1164.2,598.4 L1165.3,598.0 L1166.5,597.7 L1167.6,597.3 L1168.8,597.0 L1169.9,596.6 L1171.1,596.3 L1172.2,595.9
		L1173.4,595.6 L1174.5,595.2 L1175.7,594.9 L1176.8,594.6 L1178.0,594.2 L1179.1,593.9 L1180.3,593.6 L1181.4,593.2
		L1182.6,592.9 L1183.7,592.6 L1184.9,592.3 L1186.0,592.0 L1187.2,591.7 L1188.3,591.4 L1189.5,591.1 L1190.6,590.8
		L1191.8,590.5 L1192.9,590.2 L1194.1,589.9 L1195.2,589.6 L1196.4,589.4 L1197.5,589.1 L1198.7,588.8 L1199.8,588.6
		L1201.0,588.3 L1202.1,588.0 L1203.3,587.8 L1204.4,587.6 L1205.6,587.3 L1206.7,587.1 L1207.9,586.8 L1209.0,586.6
		L1210.2,586.4 L1211.3,586.2 L1212.5,586.0 L1213.6,585.8 L1214.8,585.6 L1215.9,585.4 L1217.1,585.2 L1218.2,585.0
		L1219.4,584.8 L1220.5,584.6 L1221.7,584.4 L1222.8,584.3 L1224.0,584.1 L1225.1,584.0 L1226.3,583.8 L1227.4,583.7
		L1228.6,583.5 L1229.7,583.4 L1230.9,583.3 L1232.0,583.1 L1233.2,583.0 L1234.3,582.9 L1235.5,582.8 L1236.6,582.7
		L1237.8,582.6 L1238.9,582.5 L1240.1,582.5 L1241.2,582.4 L1242.4,582.3 L1243.5,582.2 L1244.7,582.2 L1245.8,582.1
		L1247.0,582.1 L1248.1,582.1 L1249.3,582.0 L1250.4,582.0 L1251.6,582.0 L1252.7,582.0 L1253.9,581.9 L1255.0,581.9
		 '/></g>
	</g>
<g fill="none" color="white" stroke="rgb(  0,   0, 255)" stroke-width="2.00" stroke-linecap="butt" stroke-linejoin="miter">
</g>
<g fill="none" color="black" stroke="currentColor" stroke-width="2.00" stroke-linecap="butt" stroke-linejoin="miter">
</g>
<g fill="none" color="black" stroke="black" stroke-width="1.00" stroke-linecap="butt" stroke-linejoin="miter">
</g>
<g fill="none" color="black" stroke="currentColor" stroke-width="1.00" stroke-linecap="butt" stroke-linejoin="miter">
	<path stroke='black'  d='M78.8,54.1 L78.8,684.0 L1255.0,684.0 L1255.0,54.1 L78.8,54.1 Z  '/></g>
<g fill="none" color="black" stroke="currentColor" stroke-width="1.00" stroke-linecap="butt" stroke-linejoin="miter">
</g>
</g>
</svg>

