<?xml version="1.0" encoding="utf-8"  standalone="no"?>
<svg 
 width="1280" height="720"
 viewBox="0 0 1280 720"
 xmlns="http://www.w3.org/2000/svg"
 xmlns:xlink="http://www.w3.org/1999/xlink"
>

<title>Gnuplot</title>
<desc>Produced by GNUPLOT 5.0 patchlevel 6 </desc>

<g id="gnuplot_canvas">

<rect x="0" y="0" width="1280" height="720" fill="none"/>
<defs>

	<circle id='gpDot' r='0.5' stroke-width='0.5'/>
	<path id='gpPt0' stroke-width='0.222' stroke='currentColor' d='M-1,0 h2 M0,-1 v2'/>
	<path id='gpPt1' stroke-width='0.222' stroke='currentColor' d='M-1,-1 L1,1 M1,-1 L-1,1'/>
	<path id='gpPt2' stroke-width='0.222' stroke='currentColor' d='M-1,0 L1,0 M0,-1 L0,1 M-1,-1 L1,1 M-1,1 L1,-1'/>
	<rect id='gpPt3' stroke-width='0.222' stroke='currentColor' x='-1' y='-1' width='2' height='2'/>
	<rect id='gpPt4' stroke-width='0.222' stroke='currentColor' fill='currentColor' x='-1' y='-1' width='2' height='2'/>
	<circle id='gpPt5' stroke-width='0.222' stroke='currentColor' cx='0' cy='0' r='1'/>
	<use xlink:href='#gpPt5' id='gpPt6' fill='currentColor' stroke='none'/>
	<path id='gpPt7' stroke-width='0.222' stroke='currentColor' d='M0,-1.33 L-1.33,0.67 L1.33,0.67 z'/>
	<use xlink:href='#gpPt7' id='gpPt8' fill='currentColor' stroke='none'/>
	<use xlink:href='#gpPt7' id='gpPt9' stroke='currentColor' transform='rotate(180)'/>
	<use xlink:href='#gpPt9' id='gpPt10' fill='currentColor' stroke='none'/>
	<use xlink:href='#gpPt3' id='gpPt11' stroke='currentColor' transform='rotate(45)'/>
	<use xlink:href='#gpPt11' id='gpPt12' fill='currentColor' stroke='none'/>
	<path id='gpPt13' stroke-width='0.222' stroke='currentColor' d='M0,1.330 L1.265,0.411 L0.782,-1.067 L-0.782,-1.076 L-1.265,0.411 z'/>
	<use xlink:href='#gpPt13' id='gpPt14' fill='currentColor' stroke='none'/>
	<filter id='textbox' filterUnits='objectBoundingBox' x='0' y='0' height='1' width='1'>
	  <feFlood flood-color='white' flood-opacity='1' result='bgnd'/>
	  <feComposite in='SourceGraphic' in2='bgnd' operator='atop'/>
	</filter>
	<filter id='greybox' filterUnits='objectBoundingBox' x='0' y='0' height='1' width='1'>
	  <feFlood flood-color='lightgrey' flood-opacity='1' result='grey'/>
	  <feComposite in='SourceGraphic' in2='grey' operator='atop'/>
	</filter>
</defs>
<g fill="none" color="white" stroke="currentColor" stroke-width="1.00" stroke-linecap="butt" stroke-linejoin="miter">
</g>
<g fill="none" color="black" stroke="currentColor" stroke-width="1.00" stroke-linecap="butt" stroke-linejoin="miter">
	<path stroke='black'  d='M103.7,671.6 L112.7,671.6 M1255.0,671.6 L1246.0,671.6  '/>	<g transform="translate(95.4,675.5)" stroke="none" fill="black" font-family="Arial" font-size="12.00"  text-anchor="end">
		<text><tspan font-family="Arial" > 0.0002326</tspan></text>
	</g>
</g>
<g fill="none" color="black" stroke="currentColor" stroke-width="1.00" stroke-linecap="butt" stroke-linejoin="miter">
	<path stroke='black'  d='M103.7,362.9 L112.7,362.9 M1255.0,362.9 L1246.0,362.9  '/>	<g transform="translate(95.4,366.8)" stroke="none" fill="black" font-family="Arial" font-size="12.00"  text-anchor="end">
		<text><tspan font-family="Arial" > 0.0079643</tspan></text>
	</g>
</g>
<g fill="none" color="black" stroke="currentColor" stroke-width="1.00" stroke-linecap="butt" stroke-linejoin="miter">
	<path stroke='black'  d='M103.7,54.1 L112.7,54.1 M1255.0,54.1 L1246.0,54.1  '/>	<g transform="translate(95.4,58.0)" stroke="none" fill="black" font-family="Arial" font-size="12.00"  text-anchor="end">
		<text><tspan font-family="Arial" > 0.2727</tspan></text>
	</g>
</g>
<g fill="none" color="black" stroke="currentColor" stroke-width="1.00" stroke-linecap="butt" stroke-linejoin="miter">
	<path stroke='black'  d='M103.7,684.0 L103.7,675.0 M103.7,54.1 L103.7,63.1  '/>	<g transform="translate(103.7,705.9)" stroke="none" fill="black" font-family="Arial" font-size="12.00"  text-anchor="middle">
		<text><tspan font-family="Arial" > 0</tspan></text>
	</g>
</g>
<g fill="none" color="black" stroke="currentColor" stroke-width="1.00" stroke-linecap="butt" stroke-linejoin="miter">
	<path stroke='black'  d='M679.4,684.0 L679.4,675.0 M679.4,54.1 L679.4,63.1  '/>	<g transform="translate(679.4,705.9)" stroke="none" fill="black" font-family="Arial" font-size="12.00"  text-anchor="middle">
		<text><tspan font-family="Arial" >pi/2</tspan></text>
	</g>
</g>
<g fill="none" color="black" stroke="currentColor" stroke-width="1.00" stroke-linecap="butt" stroke-linejoin="miter">
	<path stroke='black'  d='M1255.0,684.0 L1255.0,675.0 M1255.0,54.1 L1255.0,63.1  '/>	<g transform="translate(1255.0,705.9)" stroke="none" fill="black" font-family="Arial" font-size="12.00"  text-anchor="middle">
		<text><tspan font-family="Arial" >pi</tspan></text>
	</g>
</g>
<g fill="none" color="black" stroke="currentColor" stroke-width="1.00" stroke-linecap="butt" stroke-linejoin="miter">
</g>
<g fill="none" color="black" stroke="currentColor" stroke-width="1.00" stroke-linecap="butt" stroke-linejoin="miter">
	<path stroke='black'  d='M103.7,54.1 L103.7,684.0 L1255.0,684.0 L1255.0,54.1 L103.7,54.1 Z  '/></g>
<g fill="none" color="black" stroke="currentColor" stroke-width="1.00" stroke-linecap="butt" stroke-linejoin="miter">
	<g transform="translate(679.3,31.0)" stroke="none" fill="black" font-family="Arial" font-size="12.00"  text-anchor="middle">
		<text><tspan font-family="Arial" >Material 39, with 2 components</tspan></text>
	</g>
</g>
	<g id="gnuplot_plot_1" ><title>scattering function</title>
<g fill="none" color="black" stroke="currentColor" stroke-width="1.00" stroke-linecap="butt" stroke-linejoin="miter">
	<g transform="translate(1187.9,76.0)" stroke="none" fill="black" font-family="Arial" font-size="12.00"  text-anchor="end">
		<text><tspan font-family="Arial" >scattering function</tspan></text>
	</g>
</g>
<g fill="none" color="black" stroke="currentColor" stroke-width="1.00" stroke-linecap="butt" stroke-linejoin="miter">
	<use xlink:href='#gpPt5' transform='translate(103.7,103.0) scale(2.25)' color='rgb(255,   0,   0)'/>
	<use xlink:href='#gpPt5' transform='translate(104.3,103.7) scale(2.25)' color='rgb(255,   0,   0)'/>
	<use xlink:href='#gpPt5' transform='translate(105.0,105.8) scale(2.25)' color='rgb(255,   0,   0)'/>
	<use xlink:href='#gpPt5' transform='translate(105.6,109.3) scale(2.25)' color='rgb(255,   0,   0)'/>
	<use xlink:href='#gpPt5' transform='translate(106.3,114.0) scale(2.25)' color='rgb(255,   0,   0)'/>
	<use xlink:href='#gpPt5' transform='translate(106.9,119.6) scale(2.25)' color='rgb(255,   0,   0)'/>
	<use xlink:href='#gpPt5' transform='translate(107.5,126.0) scale(2.25)' color='rgb(255,   0,   0)'/>
	<use xlink:href='#gpPt5' transform='translate(108.2,132.8) scale(2.25)' color='rgb(255,   0,   0)'/>
	<use xlink:href='#gpPt5' transform='translate(108.8,139.9) scale(2.25)' color='rgb(255,   0,   0)'/>
	<use xlink:href='#gpPt5' transform='translate(109.5,146.9) scale(2.25)' color='rgb(255,   0,   0)'/>
	<use xlink:href='#gpPt5' transform='translate(110.1,153.6) scale(2.25)' color='rgb(255,   0,   0)'/>
	<use xlink:href='#gpPt5' transform='translate(110.7,159.9) scale(2.25)' color='rgb(255,   0,   0)'/>
	<use xlink:href='#gpPt5' transform='translate(111.4,165.8) scale(2.25)' color='rgb(255,   0,   0)'/>
	<use xlink:href='#gpPt5' transform='translate(112.0,171.3) scale(2.25)' color='rgb(255,   0,   0)'/>
	<use xlink:href='#gpPt5' transform='translate(112.7,176.3) scale(2.25)' color='rgb(255,   0,   0)'/>
	<use xlink:href='#gpPt5' transform='translate(113.3,181.1) scale(2.25)' color='rgb(255,   0,   0)'/>
	<use xlink:href='#gpPt5' transform='translate(113.9,185.5) scale(2.25)' color='rgb(255,   0,   0)'/>
	<use xlink:href='#gpPt5' transform='translate(114.6,189.8) scale(2.25)' color='rgb(255,   0,   0)'/>
	<use xlink:href='#gpPt5' transform='translate(115.2,193.7) scale(2.25)' color='rgb(255,   0,   0)'/>
	<use xlink:href='#gpPt5' transform='translate(115.9,197.5) scale(2.25)' color='rgb(255,   0,   0)'/>
	<use xlink:href='#gpPt5' transform='translate(116.5,201.0) scale(2.25)' color='rgb(255,   0,   0)'/>
	<use xlink:href='#gpPt5' transform='translate(122.9,226.7) scale(2.25)' color='rgb(255,   0,   0)'/>
	<use xlink:href='#gpPt5' transform='translate(129.3,241.7) scale(2.25)' color='rgb(255,   0,   0)'/>
	<use xlink:href='#gpPt5' transform='translate(135.7,251.6) scale(2.25)' color='rgb(255,   0,   0)'/>
	<use xlink:href='#gpPt5' transform='translate(142.1,258.9) scale(2.25)' color='rgb(255,   0,   0)'/>
	<use xlink:href='#gpPt5' transform='translate(154.9,270.0) scale(2.25)' color='rgb(255,   0,   0)'/>
	<use xlink:href='#gpPt5' transform='translate(167.7,279.4) scale(2.25)' color='rgb(255,   0,   0)'/>
	<use xlink:href='#gpPt5' transform='translate(180.5,288.5) scale(2.25)' color='rgb(255,   0,   0)'/>
	<use xlink:href='#gpPt5' transform='translate(193.2,297.5) scale(2.25)' color='rgb(255,   0,   0)'/>
	<use xlink:href='#gpPt5' transform='translate(206.0,306.8) scale(2.25)' color='rgb(255,   0,   0)'/>
	<use xlink:href='#gpPt5' transform='translate(218.8,316.2) scale(2.25)' color='rgb(255,   0,   0)'/>
	<use xlink:href='#gpPt5' transform='translate(231.6,325.7) scale(2.25)' color='rgb(255,   0,   0)'/>
	<use xlink:href='#gpPt5' transform='translate(244.4,335.4) scale(2.25)' color='rgb(255,   0,   0)'/>
	<use xlink:href='#gpPt5' transform='translate(257.2,345.3) scale(2.25)' color='rgb(255,   0,   0)'/>
	<use xlink:href='#gpPt5' transform='translate(270.0,355.2) scale(2.25)' color='rgb(255,   0,   0)'/>
	<use xlink:href='#gpPt5' transform='translate(282.8,365.1) scale(2.25)' color='rgb(255,   0,   0)'/>
	<use xlink:href='#gpPt5' transform='translate(295.6,375.1) scale(2.25)' color='rgb(255,   0,   0)'/>
	<use xlink:href='#gpPt5' transform='translate(308.4,385.1) scale(2.25)' color='rgb(255,   0,   0)'/>
	<use xlink:href='#gpPt5' transform='translate(321.2,395.0) scale(2.25)' color='rgb(255,   0,   0)'/>
	<use xlink:href='#gpPt5' transform='translate(334.0,405.0) scale(2.25)' color='rgb(255,   0,   0)'/>
	<use xlink:href='#gpPt5' transform='translate(346.8,414.9) scale(2.25)' color='rgb(255,   0,   0)'/>
	<use xlink:href='#gpPt5' transform='translate(359.5,424.6) scale(2.25)' color='rgb(255,   0,   0)'/>
	<use xlink:href='#gpPt5' transform='translate(372.3,434.4) scale(2.25)' color='rgb(255,   0,   0)'/>
	<use xlink:href='#gpPt5' transform='translate(385.1,444.0) scale(2.25)' color='rgb(255,   0,   0)'/>
	<use xlink:href='#gpPt5' transform='translate(397.9,453.5) scale(2.25)' color='rgb(255,   0,   0)'/>
	<use xlink:href='#gpPt5' transform='translate(410.7,463.0) scale(2.25)' color='rgb(255,   0,   0)'/>
	<use xlink:href='#gpPt5' transform='translate(423.5,472.3) scale(2.25)' color='rgb(255,   0,   0)'/>
	<use xlink:href='#gpPt5' transform='translate(436.3,481.5) scale(2.25)' color='rgb(255,   0,   0)'/>
	<use xlink:href='#gpPt5' transform='translate(449.1,490.6) scale(2.25)' color='rgb(255,   0,   0)'/>
	<use xlink:href='#gpPt5' transform='translate(461.9,499.5) scale(2.25)' color='rgb(255,   0,   0)'/>
	<use xlink:href='#gpPt5' transform='translate(474.7,508.3) scale(2.25)' color='rgb(255,   0,   0)'/>
	<use xlink:href='#gpPt5' transform='translate(487.5,516.9) scale(2.25)' color='rgb(255,   0,   0)'/>
	<use xlink:href='#gpPt5' transform='translate(500.3,525.4) scale(2.25)' color='rgb(255,   0,   0)'/>
	<use xlink:href='#gpPt5' transform='translate(513.1,533.7) scale(2.25)' color='rgb(255,   0,   0)'/>
	<use xlink:href='#gpPt5' transform='translate(525.8,541.9) scale(2.25)' color='rgb(255,   0,   0)'/>
	<use xlink:href='#gpPt5' transform='translate(538.6,549.8) scale(2.25)' color='rgb(255,   0,   0)'/>
	<use xlink:href='#gpPt5' transform='translate(551.4,557.7) scale(2.25)' color='rgb(255,   0,   0)'/>
	<use xlink:href='#gpPt5' transform='translate(564.2,565.2) scale(2.25)' color='rgb(255,   0,   0)'/>
	<use xlink:href='#gpPt5' transform='translate(577.0,572.7) scale(2.25)' color='rgb(255,   0,   0)'/>
	<use xlink:href='#gpPt5' transform='translate(589.8,579.9) scale(2.25)' color='rgb(255,   0,   0)'/>
	<use xlink:href='#gpPt5' transform='translate(602.6,586.8) scale(2.25)' color='rgb(255,   0,   0)'/>
	<use xlink:href='#gpPt5' transform='translate(615.4,593.6) scale(2.25)' color='rgb(255,   0,   0)'/>
	<use xlink:href='#gpPt5' transform='translate(628.2,600.2) scale(2.25)' color='rgb(255,   0,   0)'/>
	<use xlink:href='#gpPt5' transform='translate(641.0,606.5) scale(2.25)' color='rgb(255,   0,   0)'/>
	<use xlink:href='#gpPt5' transform='translate(653.8,612.6) scale(2.25)' color='rgb(255,   0,   0)'/>
	<use xlink:href='#gpPt5' transform='translate(666.6,618.4) scale(2.25)' color='rgb(255,   0,   0)'/>
	<use xlink:href='#gpPt5' transform='translate(679.4,623.9) scale(2.25)' color='rgb(255,   0,   0)'/>
	<use xlink:href='#gpPt5' transform='translate(692.1,629.2) scale(2.25)' color='rgb(255,   0,   0)'/>
	<use xlink:href='#gpPt5' transform='translate(704.9,634.1) scale(2.25)' color='rgb(255,   0,   0)'/>
	<use xlink:href='#gpPt5' transform='translate(717.7,638.9) scale(2.25)' color='rgb(255,   0,   0)'/>
	<use xlink:href='#gpPt5' transform='translate(730.5,643.3) scale(2.25)' color='rgb(255,   0,   0)'/>
	<use xlink:href='#gpPt5' transform='translate(743.3,647.3) scale(2.25)' color='rgb(255,   0,   0)'/>
	<use xlink:href='#gpPt5' transform='translate(756.1,651.1) scale(2.25)' color='rgb(255,   0,   0)'/>
	<use xlink:href='#gpPt5' transform='translate(768.9,654.6) scale(2.25)' color='rgb(255,   0,   0)'/>
	<use xlink:href='#gpPt5' transform='translate(781.7,657.7) scale(2.25)' color='rgb(255,   0,   0)'/>
	<use xlink:href='#gpPt5' transform='translate(794.5,660.6) scale(2.25)' color='rgb(255,   0,   0)'/>
	<use xlink:href='#gpPt5' transform='translate(807.3,663.1) scale(2.25)' color='rgb(255,   0,   0)'/>
	<use xlink:href='#gpPt5' transform='translate(820.1,665.2) scale(2.25)' color='rgb(255,   0,   0)'/>
	<use xlink:href='#gpPt5' transform='translate(832.9,667.1) scale(2.25)' color='rgb(255,   0,   0)'/>
	<use xlink:href='#gpPt5' transform='translate(845.6,668.6) scale(2.25)' color='rgb(255,   0,   0)'/>
	<use xlink:href='#gpPt5' transform='translate(858.4,669.8) scale(2.25)' color='rgb(255,   0,   0)'/>
	<use xlink:href='#gpPt5' transform='translate(871.2,670.8) scale(2.25)' color='rgb(255,   0,   0)'/>
	<use xlink:href='#gpPt5' transform='translate(884.0,671.4) scale(2.25)' color='rgb(255,   0,   0)'/>
	<use xlink:href='#gpPt5' transform='translate(896.8,671.6) scale(2.25)' color='rgb(255,   0,   0)'/>
	<use xlink:href='#gpPt5' transform='translate(909.6,671.6) scale(2.25)' color='rgb(255,   0,   0)'/>
	<use xlink:href='#gpPt5' transform='translate(922.4,671.4) scale(2.25)' color='rgb(255,   0,   0)'/>
	<use xlink:href='#gpPt5' transform='translate(935.2,670.8) scale(2.25)' color='rgb(255,   0,   0)'/>
	<use xlink:href='#gpPt5' transform='translate(948.0,670.0) scale(2.25)' color='rgb(255,   0,   0)'/>
	<use xlink:href='#gpPt5' transform='translate(960.8,668.9) scale(2.25)' color='rgb(255,   0,   0)'/>
	<use xlink:href='#gpPt5' transform='translate(973.6,667.5) scale(2.25)' color='rgb(255,   0,   0)'/>
	<use xlink:href='#gpPt5' transform='translate(986.4,665.9) scale(2.25)' color='rgb(255,   0,   0)'/>
	<use xlink:href='#gpPt5' transform='translate(999.2,664.2) scale(2.25)' color='rgb(255,   0,   0)'/>
	<use xlink:href='#gpPt5' transform='translate(1011.9,662.2) scale(2.25)' color='rgb(255,   0,   0)'/>
	<use xlink:href='#gpPt5' transform='translate(1024.7,660.0) scale(2.25)' color='rgb(255,   0,   0)'/>
	<use xlink:href='#gpPt5' transform='translate(1037.5,657.7) scale(2.25)' color='rgb(255,   0,   0)'/>
	<use xlink:href='#gpPt5' transform='translate(1050.3,655.3) scale(2.25)' color='rgb(255,   0,   0)'/>
	<use xlink:href='#gpPt5' transform='translate(1063.1,652.7) scale(2.25)' color='rgb(255,   0,   0)'/>
	<use xlink:href='#gpPt5' transform='translate(1075.9,650.2) scale(2.25)' color='rgb(255,   0,   0)'/>
	<use xlink:href='#gpPt5' transform='translate(1088.7,647.6) scale(2.25)' color='rgb(255,   0,   0)'/>
	<use xlink:href='#gpPt5' transform='translate(1101.5,644.9) scale(2.25)' color='rgb(255,   0,   0)'/>
	<use xlink:href='#gpPt5' transform='translate(1114.3,642.5) scale(2.25)' color='rgb(255,   0,   0)'/>
	<use xlink:href='#gpPt5' transform='translate(1127.1,640.5) scale(2.25)' color='rgb(255,   0,   0)'/>
	<use xlink:href='#gpPt5' transform='translate(1139.9,639.0) scale(2.25)' color='rgb(255,   0,   0)'/>
	<use xlink:href='#gpPt5' transform='translate(1152.7,638.0) scale(2.25)' color='rgb(255,   0,   0)'/>
	<use xlink:href='#gpPt5' transform='translate(1165.5,637.4) scale(2.25)' color='rgb(255,   0,   0)'/>
	<use xlink:href='#gpPt5' transform='translate(1178.2,637.0) scale(2.25)' color='rgb(255,   0,   0)'/>
	<use xlink:href='#gpPt5' transform='translate(1191.0,636.5) scale(2.25)' color='rgb(255,   0,   0)'/>
	<use xlink:href='#gpPt5' transform='translate(1203.8,635.6) scale(2.25)' color='rgb(255,   0,   0)'/>
	<use xlink:href='#gpPt5' transform='translate(1216.6,633.9) scale(2.25)' color='rgb(255,   0,   0)'/>
	<use xlink:href='#gpPt5' transform='translate(1229.4,631.9) scale(2.25)' color='rgb(255,   0,   0)'/>
	<use xlink:href='#gpPt5' transform='translate(1242.2,630.3) scale(2.25)' color='rgb(255,   0,   0)'/>
	<use xlink:href='#gpPt5' transform='translate(1255.0,629.1) scale(2.25)' color='rgb(255,   0,   0)'/>
	<use xlink:href='#gpPt5' transform='translate(1217.3,72.1) scale(2.25)' color='rgb(255,   0,   0)'/>
</g>
	</g>
	<g id="gnuplot_plot_2" ><title>gnuplot_plot_2</title>
<g fill="none" color="black" stroke="currentColor" stroke-width="1.00" stroke-linecap="butt" stroke-linejoin="miter">
	<use xlink:href='#gpPt5' transform='translate(103.7,88.1) scale(2.25)' color='rgb(  0, 100,   0)'/>
	<use xlink:href='#gpPt5' transform='translate(104.3,89.0) scale(2.25)' color='rgb(  0, 100,   0)'/>
	<use xlink:href='#gpPt5' transform='translate(105.0,91.5) scale(2.25)' color='rgb(  0, 100,   0)'/>
	<use xlink:href='#gpPt5' transform='translate(105.6,95.6) scale(2.25)' color='rgb(  0, 100,   0)'/>
	<use xlink:href='#gpPt5' transform='translate(106.3,101.1) scale(2.25)' color='rgb(  0, 100,   0)'/>
	<use xlink:href='#gpPt5' transform='translate(106.9,107.6) scale(2.25)' color='rgb(  0, 100,   0)'/>
	<use xlink:href='#gpPt5' transform='translate(107.5,114.8) scale(2.25)' color='rgb(  0, 100,   0)'/>
	<use xlink:href='#gpPt5' transform='translate(108.2,122.4) scale(2.25)' color='rgb(  0, 100,   0)'/>
	<use xlink:href='#gpPt5' transform='translate(108.8,130.0) scale(2.25)' color='rgb(  0, 100,   0)'/>
	<use xlink:href='#gpPt5' transform='translate(109.5,137.4) scale(2.25)' color='rgb(  0, 100,   0)'/>
	<use xlink:href='#gpPt5' transform='translate(110.1,144.4) scale(2.25)' color='rgb(  0, 100,   0)'/>
	<use xlink:href='#gpPt5' transform='translate(110.7,150.8) scale(2.25)' color='rgb(  0, 100,   0)'/>
	<use xlink:href='#gpPt5' transform='translate(111.4,156.7) scale(2.25)' color='rgb(  0, 100,   0)'/>
	<use xlink:href='#gpPt5' transform='translate(112.0,162.2) scale(2.25)' color='rgb(  0, 100,   0)'/>
	<use xlink:href='#gpPt5' transform='translate(112.7,167.3) scale(2.25)' color='rgb(  0, 100,   0)'/>
	<use xlink:href='#gpPt5' transform='translate(113.3,172.0) scale(2.25)' color='rgb(  0, 100,   0)'/>
	<use xlink:href='#gpPt5' transform='translate(113.9,176.5) scale(2.25)' color='rgb(  0, 100,   0)'/>
	<use xlink:href='#gpPt5' transform='translate(114.6,180.7) scale(2.25)' color='rgb(  0, 100,   0)'/>
	<use xlink:href='#gpPt5' transform='translate(115.2,184.6) scale(2.25)' color='rgb(  0, 100,   0)'/>
	<use xlink:href='#gpPt5' transform='translate(115.9,188.3) scale(2.25)' color='rgb(  0, 100,   0)'/>
	<use xlink:href='#gpPt5' transform='translate(116.5,191.7) scale(2.25)' color='rgb(  0, 100,   0)'/>
	<use xlink:href='#gpPt5' transform='translate(122.9,216.1) scale(2.25)' color='rgb(  0, 100,   0)'/>
	<use xlink:href='#gpPt5' transform='translate(129.3,230.0) scale(2.25)' color='rgb(  0, 100,   0)'/>
	<use xlink:href='#gpPt5' transform='translate(135.7,239.2) scale(2.25)' color='rgb(  0, 100,   0)'/>
	<use xlink:href='#gpPt5' transform='translate(142.1,246.0) scale(2.25)' color='rgb(  0, 100,   0)'/>
	<use xlink:href='#gpPt5' transform='translate(154.9,256.8) scale(2.25)' color='rgb(  0, 100,   0)'/>
	<use xlink:href='#gpPt5' transform='translate(167.7,266.3) scale(2.25)' color='rgb(  0, 100,   0)'/>
	<use xlink:href='#gpPt5' transform='translate(180.5,275.5) scale(2.25)' color='rgb(  0, 100,   0)'/>
	<use xlink:href='#gpPt5' transform='translate(193.2,284.9) scale(2.25)' color='rgb(  0, 100,   0)'/>
	<use xlink:href='#gpPt5' transform='translate(206.0,294.4) scale(2.25)' color='rgb(  0, 100,   0)'/>
	<use xlink:href='#gpPt5' transform='translate(218.8,304.1) scale(2.25)' color='rgb(  0, 100,   0)'/>
	<use xlink:href='#gpPt5' transform='translate(231.6,313.9) scale(2.25)' color='rgb(  0, 100,   0)'/>
	<use xlink:href='#gpPt5' transform='translate(244.4,323.9) scale(2.25)' color='rgb(  0, 100,   0)'/>
	<use xlink:href='#gpPt5' transform='translate(257.2,334.0) scale(2.25)' color='rgb(  0, 100,   0)'/>
	<use xlink:href='#gpPt5' transform='translate(270.0,344.2) scale(2.25)' color='rgb(  0, 100,   0)'/>
	<use xlink:href='#gpPt5' transform='translate(282.8,354.4) scale(2.25)' color='rgb(  0, 100,   0)'/>
	<use xlink:href='#gpPt5' transform='translate(295.6,364.6) scale(2.25)' color='rgb(  0, 100,   0)'/>
	<use xlink:href='#gpPt5' transform='translate(308.4,374.8) scale(2.25)' color='rgb(  0, 100,   0)'/>
	<use xlink:href='#gpPt5' transform='translate(321.2,385.0) scale(2.25)' color='rgb(  0, 100,   0)'/>
	<use xlink:href='#gpPt5' transform='translate(334.0,395.1) scale(2.25)' color='rgb(  0, 100,   0)'/>
	<use xlink:href='#gpPt5' transform='translate(346.8,405.2) scale(2.25)' color='rgb(  0, 100,   0)'/>
	<use xlink:href='#gpPt5' transform='translate(359.5,415.2) scale(2.25)' color='rgb(  0, 100,   0)'/>
	<use xlink:href='#gpPt5' transform='translate(372.3,425.1) scale(2.25)' color='rgb(  0, 100,   0)'/>
	<use xlink:href='#gpPt5' transform='translate(385.1,434.9) scale(2.25)' color='rgb(  0, 100,   0)'/>
	<use xlink:href='#gpPt5' transform='translate(397.9,444.7) scale(2.25)' color='rgb(  0, 100,   0)'/>
	<use xlink:href='#gpPt5' transform='translate(410.7,454.2) scale(2.25)' color='rgb(  0, 100,   0)'/>
	<use xlink:href='#gpPt5' transform='translate(423.5,463.7) scale(2.25)' color='rgb(  0, 100,   0)'/>
	<use xlink:href='#gpPt5' transform='translate(436.3,473.0) scale(2.25)' color='rgb(  0, 100,   0)'/>
	<use xlink:href='#gpPt5' transform='translate(449.1,482.2) scale(2.25)' color='rgb(  0, 100,   0)'/>
	<use xlink:href='#gpPt5' transform='translate(461.9,491.3) scale(2.25)' color='rgb(  0, 100,   0)'/>
	<use xlink:href='#gpPt5' transform='translate(474.7,500.2) scale(2.25)' color='rgb(  0, 100,   0)'/>
	<use xlink:href='#gpPt5' transform='translate(487.5,508.9) scale(2.25)' color='rgb(  0, 100,   0)'/>
	<use xlink:href='#gpPt5' transform='translate(500.3,517.5) scale(2.25)' color='rgb(  0, 100,   0)'/>
	<use xlink:href='#gpPt5' transform='translate(513.1,526.0) scale(2.25)' color='rgb(  0, 100,   0)'/>
	<use xlink:href='#gpPt5' transform='translate(525.8,534.2) scale(2.25)' color='rgb(  0, 100,   0)'/>
	<use xlink:href='#gpPt5' transform='translate(538.6,542.3) scale(2.25)' color='rgb(  0, 100,   0)'/>
	<use xlink:href='#gpPt5' transform='translate(551.4,550.1) scale(2.25)' color='rgb(  0, 100,   0)'/>
	<use xlink:href='#gpPt5' transform='translate(564.2,557.8) scale(2.25)' color='rgb(  0, 100,   0)'/>
	<use xlink:href='#gpPt5' transform='translate(577.0,565.3) scale(2.25)' color='rgb(  0, 100,   0)'/>
	<use xlink:href='#gpPt5' transform='translate(589.8,572.5) scale(2.25)' color='rgb(  0, 100,   0)'/>
	<use xlink:href='#gpPt5' transform='translate(602.6,579.6) scale(2.25)' color='rgb(  0, 100,   0)'/>
	<use xlink:href='#gpPt5' transform='translate(615.4,586.4) scale(2.25)' color='rgb(  0, 100,   0)'/>
	<use xlink:href='#gpPt5' transform='translate(628.2,593.0) scale(2.25)' color='rgb(  0, 100,   0)'/>
	<use xlink:href='#gpPt5' transform='translate(641.0,599.3) scale(2.25)' color='rgb(  0, 100,   0)'/>
	<use xlink:href='#gpPt5' transform='translate(653.8,605.4) scale(2.25)' color='rgb(  0, 100,   0)'/>
	<use xlink:href='#gpPt5' transform='translate(666.6,611.3) scale(2.25)' color='rgb(  0, 100,   0)'/>
	<use xlink:href='#gpPt5' transform='translate(679.4,616.8) scale(2.25)' color='rgb(  0, 100,   0)'/>
	<use xlink:href='#gpPt5' transform='translate(692.1,622.1) scale(2.25)' color='rgb(  0, 100,   0)'/>
	<use xlink:href='#gpPt5' transform='translate(704.9,627.1) scale(2.25)' color='rgb(  0, 100,   0)'/>
	<use xlink:href='#gpPt5' transform='translate(717.7,631.8) scale(2.25)' color='rgb(  0, 100,   0)'/>
	<use xlink:href='#gpPt5' transform='translate(730.5,636.2) scale(2.25)' color='rgb(  0, 100,   0)'/>
	<use xlink:href='#gpPt5' transform='translate(743.3,640.3) scale(2.25)' color='rgb(  0, 100,   0)'/>
	<use xlink:href='#gpPt5' transform='translate(756.1,644.1) scale(2.25)' color='rgb(  0, 100,   0)'/>
	<use xlink:href='#gpPt5' transform='translate(768.9,647.7) scale(2.25)' color='rgb(  0, 100,   0)'/>
	<use xlink:href='#gpPt5' transform='translate(781.7,650.7) scale(2.25)' color='rgb(  0, 100,   0)'/>
	<use xlink:href='#gpPt5' transform='translate(794.5,653.6) scale(2.25)' color='rgb(  0, 100,   0)'/>
	<use xlink:href='#gpPt5' transform='translate(807.3,656.1) scale(2.25)' color='rgb(  0, 100,   0)'/>
	<use xlink:href='#gpPt5' transform='translate(820.1,658.3) scale(2.25)' color='rgb(  0, 100,   0)'/>
	<use xlink:href='#gpPt5' transform='translate(832.9,660.1) scale(2.25)' color='rgb(  0, 100,   0)'/>
	<use xlink:href='#gpPt5' transform='translate(845.6,661.7) scale(2.25)' color='rgb(  0, 100,   0)'/>
	<use xlink:href='#gpPt5' transform='translate(858.4,662.9) scale(2.25)' color='rgb(  0, 100,   0)'/>
	<use xlink:href='#gpPt5' transform='translate(871.2,663.8) scale(2.25)' color='rgb(  0, 100,   0)'/>
	<use xlink:href='#gpPt5' transform='translate(884.0,664.4) scale(2.25)' color='rgb(  0, 100,   0)'/>
	<use xlink:href='#gpPt5' transform='translate(896.8,664.7) scale(2.25)' color='rgb(  0, 100,   0)'/>
	<use xlink:href='#gpPt5' transform='translate(909.6,664.6) scale(2.25)' color='rgb(  0, 100,   0)'/>
	<use xlink:href='#gpPt5' transform='translate(922.4,664.2) scale(2.25)' color='rgb(  0, 100,   0)'/>
	<use xlink:href='#gpPt5' transform='translate(935.2,663.6) scale(2.25)' color='rgb(  0, 100,   0)'/>
	<use xlink:href='#gpPt5' transform='translate(948.0,662.7) scale(2.25)' color='rgb(  0, 100,   0)'/>
	<use xlink:href='#gpPt5' transform='translate(960.8,661.5) scale(2.25)' color='rgb(  0, 100,   0)'/>
	<use xlink:href='#gpPt5' transform='translate(973.6,660.1) scale(2.25)' color='rgb(  0, 100,   0)'/>
	<use xlink:href='#gpPt5' transform='translate(986.4,658.4) scale(2.25)' color='rgb(  0, 100,   0)'/>
	<use xlink:href='#gpPt5' transform='translate(999.2,656.5) scale(2.25)' color='rgb(  0, 100,   0)'/>
	<use xlink:href='#gpPt5' transform='translate(1011.9,654.3) scale(2.25)' color='rgb(  0, 100,   0)'/>
	<use xlink:href='#gpPt5' transform='translate(1024.7,652.0) scale(2.25)' color='rgb(  0, 100,   0)'/>
	<use xlink:href='#gpPt5' transform='translate(1037.5,649.5) scale(2.25)' color='rgb(  0, 100,   0)'/>
	<use xlink:href='#gpPt5' transform='translate(1050.3,646.9) scale(2.25)' color='rgb(  0, 100,   0)'/>
	<use xlink:href='#gpPt5' transform='translate(1063.1,644.2) scale(2.25)' color='rgb(  0, 100,   0)'/>
	<use xlink:href='#gpPt5' transform='translate(1075.9,641.5) scale(2.25)' color='rgb(  0, 100,   0)'/>
	<use xlink:href='#gpPt5' transform='translate(1088.7,638.8) scale(2.25)' color='rgb(  0, 100,   0)'/>
	<use xlink:href='#gpPt5' transform='translate(1101.5,636.3) scale(2.25)' color='rgb(  0, 100,   0)'/>
	<use xlink:href='#gpPt5' transform='translate(1114.3,633.9) scale(2.25)' color='rgb(  0, 100,   0)'/>
	<use xlink:href='#gpPt5' transform='translate(1127.1,631.8) scale(2.25)' color='rgb(  0, 100,   0)'/>
	<use xlink:href='#gpPt5' transform='translate(1139.9,630.1) scale(2.25)' color='rgb(  0, 100,   0)'/>
	<use xlink:href='#gpPt5' transform='translate(1152.7,629.3) scale(2.25)' color='rgb(  0, 100,   0)'/>
	<use xlink:href='#gpPt5' transform='translate(1165.5,629.2) scale(2.25)' color='rgb(  0, 100,   0)'/>
	<use xlink:href='#gpPt5' transform='translate(1178.2,629.5) scale(2.25)' color='rgb(  0, 100,   0)'/>
	<use xlink:href='#gpPt5' transform='translate(1191.0,629.5) scale(2.25)' color='rgb(  0, 100,   0)'/>
	<use xlink:href='#gpPt5' transform='translate(1203.8,628.7) scale(2.25)' color='rgb(  0, 100,   0)'/>
	<use xlink:href='#gpPt5' transform='translate(1216.6,626.8) scale(2.25)' color='rgb(  0, 100,   0)'/>
	<use xlink:href='#gpPt5' transform='translate(1229.4,624.5) scale(2.25)' color='rgb(  0, 100,   0)'/>
	<use xlink:href='#gpPt5' transform='translate(1242.2,622.4) scale(2.25)' color='rgb(  0, 100,   0)'/>
	<use xlink:href='#gpPt5' transform='translate(1255.0,620.9) scale(2.25)' color='rgb(  0, 100,   0)'/>
</g>
	</g>
	<g id="gnuplot_plot_3" ><title>gnuplot_plot_3</title>
<g fill="none" color="black" stroke="currentColor" stroke-width="1.00" stroke-linecap="butt" stroke-linejoin="miter">
	<use xlink:href='#gpPt5' transform='translate(103.7,54.1) scale(2.25)' color='rgb(  0,   0, 255)'/>
	<use xlink:href='#gpPt5' transform='translate(104.3,55.4) scale(2.25)' color='rgb(  0,   0, 255)'/>
	<use xlink:href='#gpPt5' transform='translate(105.0,59.1) scale(2.25)' color='rgb(  0,   0, 255)'/>
	<use xlink:href='#gpPt5' transform='translate(105.6,65.0) scale(2.25)' color='rgb(  0,   0, 255)'/>
	<use xlink:href='#gpPt5' transform='translate(106.3,72.7) scale(2.25)' color='rgb(  0,   0, 255)'/>
	<use xlink:href='#gpPt5' transform='translate(106.9,81.5) scale(2.25)' color='rgb(  0,   0, 255)'/>
	<use xlink:href='#gpPt5' transform='translate(107.5,90.8) scale(2.25)' color='rgb(  0,   0, 255)'/>
	<use xlink:href='#gpPt5' transform='translate(108.2,100.1) scale(2.25)' color='rgb(  0,   0, 255)'/>
	<use xlink:href='#gpPt5' transform='translate(108.8,108.8) scale(2.25)' color='rgb(  0,   0, 255)'/>
	<use xlink:href='#gpPt5' transform='translate(109.5,116.7) scale(2.25)' color='rgb(  0,   0, 255)'/>
	<use xlink:href='#gpPt5' transform='translate(110.1,123.8) scale(2.25)' color='rgb(  0,   0, 255)'/>
	<use xlink:href='#gpPt5' transform='translate(110.7,130.3) scale(2.25)' color='rgb(  0,   0, 255)'/>
	<use xlink:href='#gpPt5' transform='translate(111.4,136.3) scale(2.25)' color='rgb(  0,   0, 255)'/>
	<use xlink:href='#gpPt5' transform='translate(112.0,141.8) scale(2.25)' color='rgb(  0,   0, 255)'/>
	<use xlink:href='#gpPt5' transform='translate(112.7,146.9) scale(2.25)' color='rgb(  0,   0, 255)'/>
	<use xlink:href='#gpPt5' transform='translate(113.3,151.6) scale(2.25)' color='rgb(  0,   0, 255)'/>
	<use xlink:href='#gpPt5' transform='translate(113.9,155.9) scale(2.25)' color='rgb(  0,   0, 255)'/>
	<use xlink:href='#gpPt5' transform='translate(114.6,159.8) scale(2.25)' color='rgb(  0,   0, 255)'/>
	<use xlink:href='#gpPt5' transform='translate(115.2,163.5) scale(2.25)' color='rgb(  0,   0, 255)'/>
	<use xlink:href='#gpPt5' transform='translate(115.9,166.8) scale(2.25)' color='rgb(  0,   0, 255)'/>
	<use xlink:href='#gpPt5' transform='translate(116.5,169.9) scale(2.25)' color='rgb(  0,   0, 255)'/>
	<use xlink:href='#gpPt5' transform='translate(122.9,191.4) scale(2.25)' color='rgb(  0,   0, 255)'/>
	<use xlink:href='#gpPt5' transform='translate(129.3,203.2) scale(2.25)' color='rgb(  0,   0, 255)'/>
	<use xlink:href='#gpPt5' transform='translate(135.7,211.1) scale(2.25)' color='rgb(  0,   0, 255)'/>
	<use xlink:href='#gpPt5' transform='translate(142.1,217.4) scale(2.25)' color='rgb(  0,   0, 255)'/>
	<use xlink:href='#gpPt5' transform='translate(154.9,228.0) scale(2.25)' color='rgb(  0,   0, 255)'/>
	<use xlink:href='#gpPt5' transform='translate(167.7,238.0) scale(2.25)' color='rgb(  0,   0, 255)'/>
	<use xlink:href='#gpPt5' transform='translate(180.5,247.9) scale(2.25)' color='rgb(  0,   0, 255)'/>
	<use xlink:href='#gpPt5' transform='translate(193.2,258.0) scale(2.25)' color='rgb(  0,   0, 255)'/>
	<use xlink:href='#gpPt5' transform='translate(206.0,268.2) scale(2.25)' color='rgb(  0,   0, 255)'/>
	<use xlink:href='#gpPt5' transform='translate(218.8,278.6) scale(2.25)' color='rgb(  0,   0, 255)'/>
	<use xlink:href='#gpPt5' transform='translate(231.6,289.1) scale(2.25)' color='rgb(  0,   0, 255)'/>
	<use xlink:href='#gpPt5' transform='translate(244.4,299.7) scale(2.25)' color='rgb(  0,   0, 255)'/>
	<use xlink:href='#gpPt5' transform='translate(257.2,310.4) scale(2.25)' color='rgb(  0,   0, 255)'/>
	<use xlink:href='#gpPt5' transform='translate(270.0,321.1) scale(2.25)' color='rgb(  0,   0, 255)'/>
	<use xlink:href='#gpPt5' transform='translate(282.8,331.9) scale(2.25)' color='rgb(  0,   0, 255)'/>
	<use xlink:href='#gpPt5' transform='translate(295.6,342.6) scale(2.25)' color='rgb(  0,   0, 255)'/>
	<use xlink:href='#gpPt5' transform='translate(308.4,353.3) scale(2.25)' color='rgb(  0,   0, 255)'/>
	<use xlink:href='#gpPt5' transform='translate(321.2,363.9) scale(2.25)' color='rgb(  0,   0, 255)'/>
	<use xlink:href='#gpPt5' transform='translate(334.0,374.5) scale(2.25)' color='rgb(  0,   0, 255)'/>
	<use xlink:href='#gpPt5' transform='translate(346.8,385.0) scale(2.25)' color='rgb(  0,   0, 255)'/>
	<use xlink:href='#gpPt5' transform='translate(359.5,395.4) scale(2.25)' color='rgb(  0,   0, 255)'/>
	<use xlink:href='#gpPt5' transform='translate(372.3,405.7) scale(2.25)' color='rgb(  0,   0, 255)'/>
	<use xlink:href='#gpPt5' transform='translate(385.1,415.9) scale(2.25)' color='rgb(  0,   0, 255)'/>
	<use xlink:href='#gpPt5' transform='translate(397.9,425.9) scale(2.25)' color='rgb(  0,   0, 255)'/>
	<use xlink:href='#gpPt5' transform='translate(410.7,435.8) scale(2.25)' color='rgb(  0,   0, 255)'/>
	<use xlink:href='#gpPt5' transform='translate(423.5,445.6) scale(2.25)' color='rgb(  0,   0, 255)'/>
	<use xlink:href='#gpPt5' transform='translate(436.3,455.2) scale(2.25)' color='rgb(  0,   0, 255)'/>
	<use xlink:href='#gpPt5' transform='translate(449.1,464.7) scale(2.25)' color='rgb(  0,   0, 255)'/>
	<use xlink:href='#gpPt5' transform='translate(461.9,474.0) scale(2.25)' color='rgb(  0,   0, 255)'/>
	<use xlink:href='#gpPt5' transform='translate(474.7,483.1) scale(2.25)' color='rgb(  0,   0, 255)'/>
	<use xlink:href='#gpPt5' transform='translate(487.5,492.0) scale(2.25)' color='rgb(  0,   0, 255)'/>
	<use xlink:href='#gpPt5' transform='translate(500.3,500.7) scale(2.25)' color='rgb(  0,   0, 255)'/>
	<use xlink:href='#gpPt5' transform='translate(513.1,509.3) scale(2.25)' color='rgb(  0,   0, 255)'/>
	<use xlink:href='#gpPt5' transform='translate(525.8,517.8) scale(2.25)' color='rgb(  0,   0, 255)'/>
	<use xlink:href='#gpPt5' transform='translate(538.6,526.0) scale(2.25)' color='rgb(  0,   0, 255)'/>
	<use xlink:href='#gpPt5' transform='translate(551.4,534.0) scale(2.25)' color='rgb(  0,   0, 255)'/>
	<use xlink:href='#gpPt5' transform='translate(564.2,541.8) scale(2.25)' color='rgb(  0,   0, 255)'/>
	<use xlink:href='#gpPt5' transform='translate(577.0,549.3) scale(2.25)' color='rgb(  0,   0, 255)'/>
	<use xlink:href='#gpPt5' transform='translate(589.8,556.6) scale(2.25)' color='rgb(  0,   0, 255)'/>
	<use xlink:href='#gpPt5' transform='translate(602.6,563.7) scale(2.25)' color='rgb(  0,   0, 255)'/>
	<use xlink:href='#gpPt5' transform='translate(615.4,570.6) scale(2.25)' color='rgb(  0,   0, 255)'/>
	<use xlink:href='#gpPt5' transform='translate(628.2,577.3) scale(2.25)' color='rgb(  0,   0, 255)'/>
	<use xlink:href='#gpPt5' transform='translate(641.0,583.7) scale(2.25)' color='rgb(  0,   0, 255)'/>
	<use xlink:href='#gpPt5' transform='translate(653.8,589.8) scale(2.25)' color='rgb(  0,   0, 255)'/>
	<use xlink:href='#gpPt5' transform='translate(666.6,595.7) scale(2.25)' color='rgb(  0,   0, 255)'/>
	<use xlink:href='#gpPt5' transform='translate(679.4,601.2) scale(2.25)' color='rgb(  0,   0, 255)'/>
	<use xlink:href='#gpPt5' transform='translate(692.1,606.6) scale(2.25)' color='rgb(  0,   0, 255)'/>
	<use xlink:href='#gpPt5' transform='translate(704.9,611.6) scale(2.25)' color='rgb(  0,   0, 255)'/>
	<use xlink:href='#gpPt5' transform='translate(717.7,616.3) scale(2.25)' color='rgb(  0,   0, 255)'/>
	<use xlink:href='#gpPt5' transform='translate(730.5,620.8) scale(2.25)' color='rgb(  0,   0, 255)'/>
	<use xlink:href='#gpPt5' transform='translate(743.3,624.9) scale(2.25)' color='rgb(  0,   0, 255)'/>
	<use xlink:href='#gpPt5' transform='translate(756.1,628.7) scale(2.25)' color='rgb(  0,   0, 255)'/>
	<use xlink:href='#gpPt5' transform='translate(768.9,632.1) scale(2.25)' color='rgb(  0,   0, 255)'/>
	<use xlink:href='#gpPt5' transform='translate(781.7,635.3) scale(2.25)' color='rgb(  0,   0, 255)'/>
	<use xlink:href='#gpPt5' transform='translate(794.5,638.1) scale(2.25)' color='rgb(  0,   0, 255)'/>
	<use xlink:href='#gpPt5' transform='translate(807.3,640.6) scale(2.25)' color='rgb(  0,   0, 255)'/>
	<use xlink:href='#gpPt5' transform='translate(820.1,642.8) scale(2.25)' color='rgb(  0,   0, 255)'/>
	<use xlink:href='#gpPt5' transform='translate(832.9,644.6) scale(2.25)' color='rgb(  0,   0, 255)'/>
	<use xlink:href='#gpPt5' transform='translate(845.6,646.1) scale(2.25)' color='rgb(  0,   0, 255)'/>
	<use xlink:href='#gpPt5' transform='translate(858.4,647.3) scale(2.25)' color='rgb(  0,   0, 255)'/>
	<use xlink:href='#gpPt5' transform='translate(871.2,648.1) scale(2.25)' color='rgb(  0,   0, 255)'/>
	<use xlink:href='#gpPt5' transform='translate(884.0,648.6) scale(2.25)' color='rgb(  0,   0, 255)'/>
	<use xlink:href='#gpPt5' transform='translate(896.8,648.6) scale(2.25)' color='rgb(  0,   0, 255)'/>
	<use xlink:href='#gpPt5' transform='translate(909.6,648.4) scale(2.25)' color='rgb(  0,   0, 255)'/>
	<use xlink:href='#gpPt5' transform='translate(922.4,647.9) scale(2.25)' color='rgb(  0,   0, 255)'/>
	<use xlink:href='#gpPt5' transform='translate(935.2,647.0) scale(2.25)' color='rgb(  0,   0, 255)'/>
	<use xlink:href='#gpPt5' transform='translate(948.0,645.9) scale(2.25)' color='rgb(  0,   0, 255)'/>
	<use xlink:href='#gpPt5' transform='translate(960.8,644.4) scale(2.25)' color='rgb(  0,   0, 255)'/>
	<use xlink:href='#gpPt5' transform='translate(973.6,642.6) scale(2.25)' color='rgb(  0,   0, 255)'/>
	<use xlink:href='#gpPt5' transform='translate(986.4,640.6) scale(2.25)' color='rgb(  0,   0, 255)'/>
	<use xlink:href='#gpPt5' transform='translate(999.2,638.2) scale(2.25)' color='rgb(  0,   0, 255)'/>
	<use xlink:href='#gpPt5' transform='translate(1011.9,635.6) scale(2.25)' color='rgb(  0,   0, 255)'/>
	<use xlink:href='#gpPt5' transform='translate(1024.7,632.8) scale(2.25)' color='rgb(  0,   0, 255)'/>
	<use xlink:href='#gpPt5' transform='translate(1037.5,629.9) scale(2.25)' color='rgb(  0,   0, 255)'/>
	<use xlink:href='#gpPt5' transform='translate(1050.3,626.8) scale(2.25)' color='rgb(  0,   0, 255)'/>
	<use xlink:href='#gpPt5' transform='translate(1063.1,623.6) scale(2.25)' color='rgb(  0,   0, 255)'/>
	<use xlink:href='#gpPt5' transform='translate(1075.9,620.4) scale(2.25)' color='rgb(  0,   0, 255)'/>
	<use xlink:href='#gpPt5' transform='translate(1088.7,617.3) scale(2.25)' color='rgb(  0,   0, 255)'/>
	<use xlink:href='#gpPt5' transform='translate(1101.5,614.5) scale(2.25)' color='rgb(  0,   0, 255)'/>
	<use xlink:href='#gpPt5' transform='translate(1114.3,612.0) scale(2.25)' color='rgb(  0,   0, 255)'/>
	<use xlink:href='#gpPt5' transform='translate(1127.1,609.9) scale(2.25)' color='rgb(  0,   0, 255)'/>
	<use xlink:href='#gpPt5' transform='translate(1139.9,608.4) scale(2.25)' color='rgb(  0,   0, 255)'/>
	<use xlink:href='#gpPt5' transform='translate(1152.7,608.1) scale(2.25)' color='rgb(  0,   0, 255)'/>
	<use xlink:href='#gpPt5' transform='translate(1165.5,608.6) scale(2.25)' color='rgb(  0,   0, 255)'/>
	<use xlink:href='#gpPt5' transform='translate(1178.2,609.8) scale(2.25)' color='rgb(  0,   0, 255)'/>
	<use xlink:href='#gpPt5' transform='translate(1191.0,610.9) scale(2.25)' color='rgb(  0,   0, 255)'/>
	<use xlink:href='#gpPt5' transform='translate(1203.8,611.0) scale(2.25)' color='rgb(  0,   0, 255)'/>
	<use xlink:href='#gpPt5' transform='translate(1216.6,609.4) scale(2.25)' color='rgb(  0,   0, 255)'/>
	<use xlink:href='#gpPt5' transform='translate(1229.4,606.3) scale(2.25)' color='rgb(  0,   0, 255)'/>
	<use xlink:href='#gpPt5' transform='translate(1242.2,603.3) scale(2.25)' color='rgb(  0,   0, 255)'/>
	<use xlink:href='#gpPt5' transform='translate(1255.0,601.5) scale(2.25)' color='rgb(  0,   0, 255)'/>
</g>
	</g>
	<g id="gnuplot_plot_4" ><title>fit</title>
<g fill="none" color="black" stroke="currentColor" stroke-width="1.00" stroke-linecap="butt" stroke-linejoin="miter">
	<g transform="translate(1187.9,94.0)" stroke="none" fill="black" font-family="Arial" font-size="12.00"  text-anchor="end">
		<text><tspan font-family="Arial" >fit</tspan></text>
	</g>
</g>
<g fill="none" color="black" stroke="currentColor" stroke-width="1.00" stroke-linecap="butt" stroke-linejoin="miter">
	<path stroke='rgb(255,   0,   0)'  d='M1196.2,90.1 L1238.4,90.1 M103.7,100.1 L104.8,102.5 L106.0,109.2 L107.1,119.3 L108.2,131.3 L109.3,144.2
		L110.5,157.0 L111.6,169.0 L112.7,179.9 L113.8,189.5 L115.0,197.8 L116.1,205.0 L117.2,211.0 L118.3,216.2
		L119.5,220.6 L120.6,224.3 L121.7,227.5 L122.8,230.3 L124.0,232.6 L125.1,234.7 L126.2,236.5 L127.3,238.2
		L128.5,239.6 L129.6,240.9 L130.7,242.1 L131.8,243.2 L133.0,244.3 L134.1,245.2 L135.2,246.2 L136.3,247.0
		L137.5,247.9 L138.6,248.7 L139.7,249.5 L140.8,250.3 L142.0,251.1 L143.1,251.8 L144.2,252.6 L145.3,253.3
		L146.5,254.0 L147.6,254.8 L148.7,255.5 L149.8,256.3 L151.0,257.0 L152.1,257.7 L153.2,258.5 L154.3,259.2
		L155.5,260.0 L156.6,260.8 L157.7,261.5 L158.8,262.3 L160.0,263.1 L161.1,263.9 L162.2,264.7 L163.3,265.5
		L164.5,266.3 L165.6,267.1 L166.7,267.9 L167.8,268.7 L169.0,269.6 L170.1,270.4 L171.2,271.3 L172.4,272.1
		L173.5,273.0 L174.6,273.8 L175.7,274.7 L176.9,275.6 L178.0,276.5 L179.1,277.4 L180.2,278.3 L181.4,279.2
		L182.5,280.1 L183.6,281.0 L184.7,281.9 L185.9,282.9 L187.0,283.8 L188.1,284.8 L189.2,285.7 L190.4,286.6
		L191.5,287.6 L192.6,288.6 L193.7,289.5 L194.9,290.5 L196.0,291.5 L197.1,292.4 L198.2,293.4 L199.4,294.4
		L200.5,295.4 L201.6,296.4 L202.7,297.4 L203.9,298.4 L205.0,299.4 L206.1,300.4 L207.2,301.4 L208.4,302.4
		L209.5,303.4 L210.6,304.4 L211.7,305.4 L212.9,306.4 L214.0,307.5 L215.1,308.5 L216.2,309.5 L217.4,310.5
		L218.5,311.6 L219.6,312.6 L220.7,313.6 L221.9,314.6 L223.0,315.7 L224.1,316.7 L225.2,317.8 L226.4,318.8
		L227.5,319.8 L228.6,320.9 L229.7,321.9 L230.9,322.9 L232.0,324.0 L233.1,325.0 L234.2,326.1 L235.4,327.1
		L236.5,328.1 L237.6,329.2 L238.7,330.2 L239.9,331.3 L241.0,332.3 L242.1,333.4 L243.3,334.4 L244.4,335.4
		L245.5,336.5 L246.6,337.5 L247.8,338.6 L248.9,339.6 L250.0,340.6 L251.1,341.7 L252.3,342.7 L253.4,343.7
		L254.5,344.8 L255.6,345.8 L256.8,346.8 L257.9,347.9 L259.0,348.9 L260.1,349.9 L261.3,351.0 L262.4,352.0
		L263.5,353.0 L264.6,354.0 L265.8,355.1 L266.9,356.1 L268.0,357.1 L269.1,358.1 L270.3,359.1 L271.4,360.2
		L272.5,361.2 L273.6,362.2 L274.8,363.2 L275.9,364.2 L277.0,365.2 L278.1,366.2 L279.3,367.2 L280.4,368.2
		L281.5,369.2 L282.6,370.2 L283.8,371.2 L284.9,372.2 L286.0,373.2 L287.1,374.2 L288.3,375.2 L289.4,376.2
		L290.5,377.2 L291.6,378.2 L292.8,379.1 L293.9,380.1 L295.0,381.1 L296.1,382.1 L297.3,383.0 L298.4,384.0
		L299.5,385.0 L300.6,386.0 L301.8,386.9 L302.9,387.9 L304.0,388.8 L305.1,389.8 L306.3,390.8 L307.4,391.7
		L308.5,392.7 L309.7,393.6 L310.8,394.6 L311.9,395.5 L313.0,396.5 L314.2,397.4 L315.3,398.3 L316.4,399.3
		L317.5,400.2 L318.7,401.1 L319.8,402.1 L320.9,403.0 L322.0,403.9 L323.2,404.8 L324.3,405.8 L325.4,406.7
		L326.5,407.6 L327.7,408.5 L328.8,409.4 L329.9,410.3 L331.0,411.2 L332.2,412.1 L333.3,413.0 L334.4,413.9
		L335.5,414.8 L336.7,415.7 L337.8,416.6 L338.9,417.5 L340.0,418.4 L341.2,419.3 L342.3,420.2 L343.4,421.0
		L344.5,421.9 L345.7,422.8 L346.8,423.7 L347.9,424.5 L349.0,425.4 L350.2,426.3 L351.3,427.1 L352.4,428.0
		L353.5,428.9 L354.7,429.7 L355.8,430.6 L356.9,431.4 L358.0,432.3 L359.2,433.1 L360.3,434.0 L361.4,434.8
		L362.5,435.6 L363.7,436.5 L364.8,437.3 L365.9,438.1 L367.0,439.0 L368.2,439.8 L369.3,440.6 L370.4,441.5
		L371.5,442.3 L372.7,443.1 L373.8,443.9 L374.9,444.7 L376.1,445.5 L377.2,446.3 L378.3,447.1 L379.4,448.0
		L380.6,448.8 L381.7,449.6 L382.8,450.4 L383.9,451.2 L385.1,451.9 L386.2,452.7 L387.3,453.5 L388.4,454.3
		L389.6,455.1 L390.7,455.9 L391.8,456.7 L392.9,457.4 L394.1,458.2 L395.2,459.0 L396.3,459.8 L397.4,460.5
		L398.6,461.3 L399.7,462.1 L400.8,462.8 L401.9,463.6 L403.1,464.3 L404.2,465.1 L405.3,465.8 L406.4,466.6
		L407.6,467.3 L408.7,468.1 L409.8,468.8 L410.9,469.6 L412.1,470.3 L413.2,471.1 L414.3,471.8 L415.4,472.5
		L416.6,473.3 L417.7,474.0 L418.8,474.7 L419.9,475.4 L421.1,476.2 L422.2,476.9 L423.3,477.6 L424.4,478.3
		L425.6,479.0 L426.7,479.8 L427.8,480.5 L428.9,481.2 L430.1,481.9 L431.2,482.6 L432.3,483.3 L433.4,484.0
		L434.6,484.7 L435.7,485.4 L436.8,486.1 L437.9,486.8 L439.1,487.5 L440.2,488.1 L441.3,488.8 L442.5,489.5
		L443.6,490.2 L444.7,490.9 L445.8,491.6 L447.0,492.2 L448.1,492.9 L449.2,493.6 L450.3,494.3 L451.5,494.9
		L452.6,495.6 L453.7,496.3 L454.8,496.9 L456.0,497.6 L457.1,498.2 L458.2,498.9 L459.3,499.6 L460.5,500.2
		L461.6,500.9 L462.7,501.5 L463.8,502.2 L465.0,502.8 L466.1,503.4 L467.2,504.1 L468.3,504.7 L469.5,505.4
		L470.6,506.0 L471.7,506.6 L472.8,507.3 L474.0,507.9 L475.1,508.5 L476.2,509.2 L477.3,509.8 L478.5,510.4
		L479.6,511.0 L480.7,511.7 L481.8,512.3 L483.0,512.9 L484.1,513.5 L485.2,514.1 L486.3,514.7 L487.5,515.3
		L488.6,516.0 L489.7,516.6 L490.8,517.2 L492.0,517.8 L493.1,518.4 L494.2,519.0 L495.3,519.6 L496.5,520.2
		L497.6,520.8 L498.7,521.3 L499.8,521.9 L501.0,522.5 L502.1,523.1 L503.2,523.7 L504.3,524.3 L505.5,524.9
		L506.6,525.5 L507.7,526.0 L508.8,526.6 L510.0,527.2 L511.1,527.8 L512.2,528.3 L513.4,528.9 L514.5,529.5
		L515.6,530.0 L516.7,530.6 L517.9,531.2 L519.0,531.7 L520.1,532.3 L521.2,532.9 L522.4,533.4 L523.5,534.0
		L524.6,534.5 L525.7,535.1 L526.9,535.6 L528.0,536.2 L529.1,536.7 L530.2,537.3 L531.4,537.8 L532.5,538.4
		L533.6,538.9 L534.7,539.4 L535.9,540.0 L537.0,540.5 L538.1,541.1 L539.2,541.6 L540.4,542.1 L541.5,542.7
		L542.6,543.2 L543.7,543.7 L544.9,544.2 L546.0,544.8 L547.1,545.3 L548.2,545.8 L549.4,546.3 L550.5,546.9
		L551.6,547.4 L552.7,547.9 L553.9,548.4 L555.0,548.9 L556.1,549.4 L557.2,550.0 L558.4,550.5 L559.5,551.0
		L560.6,551.5 L561.7,552.0 L562.9,552.5 L564.0,553.0 L565.1,553.5 L566.2,554.0 L567.4,554.5 L568.5,555.0
		L569.6,555.5 L570.7,556.0 L571.9,556.5 L573.0,557.0 L574.1,557.4 L575.2,557.9 L576.4,558.4 L577.5,558.9
		L578.6,559.4 L579.8,559.9 L580.9,560.4 L582.0,560.8 L583.1,561.3 L584.3,561.8 L585.4,562.3 L586.5,562.7
		L587.6,563.2 L588.8,563.7 L589.9,564.2 L591.0,564.6 L592.1,565.1 L593.3,565.6 L594.4,566.0 L595.5,566.5
		L596.6,567.0 L597.8,567.4 L598.9,567.9 L600.0,568.3 L601.1,568.8 L602.3,569.3 L603.4,569.7 L604.5,570.2
		L605.6,570.6 L606.8,571.1 L607.9,571.5 L609.0,572.0 L610.1,572.4 L611.3,572.9 L612.4,573.3 L613.5,573.7
		L614.6,574.2 L615.8,574.6 L616.9,575.1 L618.0,575.5 L619.1,576.0 L620.3,576.4 L621.4,576.8 L622.5,577.3
		L623.6,577.7 L624.8,578.1 L625.9,578.6 L627.0,579.0 L628.1,579.4 L629.3,579.8 L630.4,580.3 L631.5,580.7
		L632.6,581.1 L633.8,581.5 L634.9,581.9 L636.0,582.4 L637.1,582.8 L638.3,583.2 L639.4,583.6 L640.5,584.0
		L641.6,584.4 L642.8,584.9 L643.9,585.3 L645.0,585.7 L646.2,586.1 L647.3,586.5 L648.4,586.9 L649.5,587.3
		L650.7,587.7 L651.8,588.1 L652.9,588.5 L654.0,588.9 L655.2,589.3 L656.3,589.7 L657.4,590.1 L658.5,590.5
		L659.7,590.9 L660.8,591.3 L661.9,591.7 L663.0,592.1 L664.2,592.5 L665.3,592.9 L666.4,593.3 L667.5,593.6
		L668.7,594.0 L669.8,594.4 L670.9,594.8 L672.0,595.2 L673.2,595.6 L674.3,595.9 L675.4,596.3 L676.5,596.7
		L677.7,597.1 L678.8,597.5 L679.9,597.8 L681.0,598.2 L682.2,598.6 L683.3,598.9 L684.4,599.3 L685.5,599.7
		L686.7,600.1 L687.8,600.4 L688.9,600.8 L690.0,601.2 L691.2,601.5 L692.3,601.9 L693.4,602.3 L694.5,602.6
		L695.7,603.0 L696.8,603.3 L697.9,603.7 L699.0,604.0 L700.2,604.4 L701.3,604.8 L702.4,605.1 L703.5,605.5
		L704.7,605.8 L705.8,606.2 L706.9,606.5 L708.0,606.9 L709.2,607.2 L710.3,607.6 L711.4,607.9 L712.5,608.3
		L713.7,608.6 L714.8,608.9 L715.9,609.3 L717.1,609.6 L718.2,610.0 L719.3,610.3 L720.4,610.6 L721.6,611.0
		L722.7,611.3 L723.8,611.7 L724.9,612.0 L726.1,612.3 L727.2,612.7 L728.3,613.0 L729.4,613.3 L730.6,613.6
		L731.7,614.0 L732.8,614.3 L733.9,614.6 L735.1,615.0 L736.2,615.3 L737.3,615.6 L738.4,615.9 L739.6,616.2
		L740.7,616.6 L741.8,616.9 L742.9,617.2 L744.1,617.5 L745.2,617.8 L746.3,618.2 L747.4,618.5 L748.6,618.8
		L749.7,619.1 L750.8,619.4 L751.9,619.7 L753.1,620.0 L754.2,620.3 L755.3,620.7 L756.4,621.0 L757.6,621.3
		L758.7,621.6 L759.8,621.9 L760.9,622.2 L762.1,622.5 L763.2,622.8 L764.3,623.1 L765.4,623.4 L766.6,623.7
		L767.7,624.0 L768.8,624.3 L769.9,624.6 L771.1,624.9 L772.2,625.2 L773.3,625.5 L774.4,625.8 L775.6,626.1
		L776.7,626.3 L777.8,626.6 L778.9,626.9 L780.1,627.2 L781.2,627.5 L782.3,627.8 L783.5,628.1 L784.6,628.4
		L785.7,628.6 L786.8,628.9 L788.0,629.2 L789.1,629.5 L790.2,629.8 L791.3,630.1 L792.5,630.3 L793.6,630.6
		L794.7,630.9 L795.8,631.2 L797.0,631.4 L798.1,631.7 L799.2,632.0 L800.3,632.3 L801.5,632.5 L802.6,632.8
		L803.7,633.1 L804.8,633.3 L806.0,633.6 L807.1,633.9 L808.2,634.2 L809.3,634.4 L810.5,634.7 L811.6,634.9
		L812.7,635.2 L813.8,635.5 L815.0,635.7 L816.1,636.0 L817.2,636.3 L818.3,636.5 L819.5,636.8 L820.6,637.0
		L821.7,637.3 L822.8,637.5 L824.0,637.8 L825.1,638.1 L826.2,638.3 L827.3,638.6 L828.5,638.8 L829.6,639.1
		L830.7,639.3 L831.8,639.6 L833.0,639.8 L834.1,640.1 L835.2,640.3 L836.3,640.6 L837.5,640.8 L838.6,641.1
		L839.7,641.3 L840.8,641.5 L842.0,641.8 L843.1,642.0 L844.2,642.3 L845.3,642.5 L846.5,642.7 L847.6,643.0
		L848.7,643.2 L849.9,643.5 L851.0,643.7 L852.1,643.9 L853.2,644.2 L854.4,644.4 L855.5,644.6 L856.6,644.9
		L857.7,645.1 L858.9,645.3 L860.0,645.6 L861.1,645.8 L862.2,646.0 L863.4,646.2 L864.5,646.5 L865.6,646.7
		L866.7,646.9 L867.9,647.1 L869.0,647.4 L870.1,647.6 L871.2,647.8 L872.4,648.0 L873.5,648.3 L874.6,648.5
		L875.7,648.7 L876.9,648.9 L878.0,649.1 L879.1,649.3 L880.2,649.6 L881.4,649.8 L882.5,650.0 L883.6,650.2
		L884.7,650.4 L885.9,650.6 L887.0,650.8 L888.1,651.0 L889.2,651.3 L890.4,651.5 L891.5,651.7 L892.6,651.9
		L893.7,652.1 L894.9,652.3 L896.0,652.5 L897.1,652.7 L898.2,652.9 L899.4,653.1 L900.5,653.3 L901.6,653.5
		L902.7,653.7 L903.9,653.9 L905.0,654.1 L906.1,654.3 L907.2,654.5 L908.4,654.7 L909.5,654.9 L910.6,655.1
		L911.7,655.3 L912.9,655.5 L914.0,655.7 L915.1,655.9 L916.2,656.1 L917.4,656.3 L918.5,656.5 L919.6,656.6
		L920.8,656.8 L921.9,657.0 L923.0,657.2 L924.1,657.4 L925.3,657.6 L926.4,657.8 L927.5,658.0 L928.6,658.1
		L929.8,658.3 L930.9,658.5 L932.0,658.7 L933.1,658.9 L934.3,659.1 L935.4,659.2 L936.5,659.4 L937.6,659.6
		L938.8,659.8 L939.9,659.9 L941.0,660.1 L942.1,660.3 L943.3,660.5 L944.4,660.6 L945.5,660.8 L946.6,661.0
		L947.8,661.2 L948.9,661.3 L950.0,661.5 L951.1,661.7 L952.3,661.8 L953.4,662.0 L954.5,662.2 L955.6,662.4
		L956.8,662.5 L957.9,662.7 L959.0,662.8 L960.1,663.0 L961.3,663.2 L962.4,663.3 L963.5,663.5 L964.6,663.7
		L965.8,663.8 L966.9,664.0 L968.0,664.1 L969.1,664.3 L970.3,664.5 L971.4,664.6 L972.5,664.8 L973.6,664.9
		L974.8,665.1 L975.9,665.2 L977.0,665.4 L978.1,665.6 L979.3,665.7 L980.4,665.9 L981.5,666.0 L982.6,666.2
		L983.8,666.3 L984.9,666.5 L986.0,666.6 L987.2,666.8 L988.3,666.9 L989.4,667.1 L990.5,667.2 L991.7,667.3
		L992.8,667.5 L993.9,667.6 L995.0,667.8 L996.2,667.9 L997.3,668.1 L998.4,668.2 L999.5,668.3 L1000.7,668.5
		L1001.8,668.6 L1002.9,668.8 L1004.0,668.9 L1005.2,669.0 L1006.3,669.2 L1007.4,669.3 L1008.5,669.4 L1009.7,669.6
		L1010.8,669.7 L1011.9,669.9 L1013.0,670.0 L1014.2,670.1 L1015.3,670.2 L1016.4,670.4 L1017.5,670.5 L1018.7,670.6
		L1019.8,670.8 L1020.9,670.9 L1022.0,671.0 L1023.2,671.2 L1024.3,671.3 L1025.4,671.4 L1026.5,671.5 L1027.7,671.7
		L1028.8,671.8 L1029.9,671.9 L1031.0,672.0 L1032.2,672.1 L1033.3,672.3 L1034.4,672.4 L1035.5,672.5 L1036.7,672.6
		L1037.8,672.7 L1038.9,672.9 L1040.0,673.0 L1041.2,673.1 L1042.3,673.2 L1043.4,673.3 L1044.5,673.4 L1045.7,673.6
		L1046.8,673.7 L1047.9,673.8 L1049.0,673.9 L1050.2,674.0 L1051.3,674.1 L1052.4,674.2 L1053.6,674.3 L1054.7,674.4
		L1055.8,674.6 L1056.9,674.7 L1058.1,674.8 L1059.2,674.9 L1060.3,675.0 L1061.4,675.1 L1062.6,675.2 L1063.7,675.3
		L1064.8,675.4 L1065.9,675.5 L1067.1,675.6 L1068.2,675.7 L1069.3,675.8 L1070.4,675.9 L1071.6,676.0 L1072.7,676.1
		L1073.8,676.2 L1074.9,676.3 L1076.1,676.4 L1077.2,676.5 L1078.3,676.6 L1079.4,676.7 L1080.6,676.8 L1081.7,676.9
		L1082.8,677.0 L1083.9,677.1 L1085.1,677.1 L1086.2,677.2 L1087.3,677.3 L1088.4,677.4 L1089.6,677.5 L1090.7,677.6
		L1091.8,677.7 L1092.9,677.8 L1094.1,677.9 L1095.2,677.9 L1096.3,678.0 L1097.4,678.1 L1098.6,678.2 L1099.7,678.3
		L1100.8,678.4 L1101.9,678.4 L1103.1,678.5 L1104.2,678.6 L1105.3,678.7 L1106.4,678.8 L1107.6,678.9 L1108.7,678.9
		L1109.8,679.0 L1110.9,679.1 L1112.1,679.2 L1113.2,679.2 L1114.3,679.3 L1115.4,679.4 L1116.6,679.5 L1117.7,679.5
		L1118.8,679.6 L1120.0,679.7 L1121.1,679.8 L1122.2,679.8 L1123.3,679.9 L1124.5,680.0 L1125.6,680.0 L1126.7,680.1
		L1127.8,680.2 L1129.0,680.2 L1130.1,680.3 L1131.2,680.4 L1132.3,680.4 L1133.5,680.5 L1134.6,680.6 L1135.7,680.6
		L1136.8,680.7 L1138.0,680.8 L1139.1,680.8 L1140.2,680.9 L1141.3,680.9 L1142.5,681.0 L1143.6,681.1 L1144.7,681.1
		L1145.8,681.2 L1147.0,681.2 L1148.1,681.3 L1149.2,681.4 L1150.3,681.4 L1151.5,681.5 L1152.6,681.5 L1153.7,681.6
		L1154.8,681.6 L1156.0,681.7 L1157.1,681.7 L1158.2,681.8 L1159.3,681.8 L1160.5,681.9 L1161.6,681.9 L1162.7,682.0
		L1163.8,682.0 L1165.0,682.1 L1166.1,682.1 L1167.2,682.2 L1168.3,682.2 L1169.5,682.3 L1170.6,682.3 L1171.7,682.4
		L1172.8,682.4 L1174.0,682.5 L1175.1,682.5 L1176.2,682.5 L1177.3,682.6 L1178.5,682.6 L1179.6,682.7 L1180.7,682.7
		L1181.8,682.7 L1183.0,682.8 L1184.1,682.8 L1185.2,682.9 L1186.3,682.9 L1187.5,682.9 L1188.6,683.0 L1189.7,683.0
		L1190.9,683.0 L1192.0,683.1 L1193.1,683.1 L1194.2,683.1 L1195.4,683.2 L1196.5,683.2 L1197.6,683.2 L1198.7,683.3
		L1199.9,683.3 L1201.0,683.3 L1202.1,683.3 L1203.2,683.4 L1204.4,683.4 L1205.5,683.4 L1206.6,683.4 L1207.7,683.5
		L1208.9,683.5 L1210.0,683.5 L1211.1,683.5 L1212.2,683.6 L1213.4,683.6 L1214.5,683.6 L1215.6,683.6 L1216.7,683.7
		L1217.9,683.7 L1219.0,683.7 L1220.1,683.7 L1221.2,683.7 L1222.4,683.7 L1223.5,683.8 L1224.6,683.8 L1225.7,683.8
		L1226.9,683.8 L1228.0,683.8 L1229.1,683.8 L1230.2,683.9 L1231.4,683.9 L1232.5,683.9 L1233.6,683.9 L1234.7,683.9
		L1235.9,683.9 L1237.0,683.9 L1238.1,683.9 L1239.2,683.9 L1240.4,683.9 L1241.5,684.0 L1242.6,684.0 L1243.7,684.0
		L1244.9,684.0 L1246.0,684.0 L1247.1,684.0 L1248.2,684.0 L1249.4,684.0 L1250.5,684.0 L1251.6,684.0 L1252.7,684.0
		L1253.9,684.0 L1255.0,684.0  '/></g>
	</g>
	<g id="gnuplot_plot_5" ><title>gnuplot_plot_5</title>
<g fill="none" color="black" stroke="currentColor" stroke-width="1.00" stroke-linecap="butt" stroke-linejoin="miter">
	<path stroke='rgb(  0, 100,   0)'  d='M103.7,89.3 L104.8,91.7 L106.0,98.4 L107.1,108.5 L108.2,120.7 L109.3,133.7 L110.5,146.5 L111.6,158.6
		L112.7,169.6 L113.8,179.3 L115.0,187.8 L116.1,195.0 L117.2,201.2 L118.3,206.4 L119.5,210.9 L120.6,214.7
		L121.7,217.9 L122.8,220.7 L124.0,223.1 L125.1,225.2 L126.2,227.1 L127.3,228.7 L128.5,230.2 L129.6,231.5
		L130.7,232.8 L131.8,233.9 L133.0,234.9 L134.1,235.9 L135.2,236.9 L136.3,237.8 L137.5,238.6 L138.6,239.4
		L139.7,240.2 L140.8,241.0 L142.0,241.8 L143.1,242.5 L144.2,243.3 L145.3,244.0 L146.5,244.8 L147.6,245.5
		L148.7,246.3 L149.8,247.0 L151.0,247.8 L152.1,248.5 L153.2,249.3 L154.3,250.0 L155.5,250.8 L156.6,251.5
		L157.7,252.3 L158.8,253.1 L160.0,253.9 L161.1,254.6 L162.2,255.4 L163.3,256.2 L164.5,257.1 L165.6,257.9
		L166.7,258.7 L167.8,259.5 L169.0,260.4 L170.1,261.2 L171.2,262.1 L172.4,262.9 L173.5,263.8 L174.6,264.6
		L175.7,265.5 L176.9,266.4 L178.0,267.3 L179.1,268.2 L180.2,269.1 L181.4,270.0 L182.5,270.9 L183.6,271.8
		L184.7,272.7 L185.9,273.7 L187.0,274.6 L188.1,275.5 L189.2,276.5 L190.4,277.4 L191.5,278.4 L192.6,279.4
		L193.7,280.3 L194.9,281.3 L196.0,282.3 L197.1,283.2 L198.2,284.2 L199.4,285.2 L200.5,286.2 L201.6,287.2
		L202.7,288.2 L203.9,289.2 L205.0,290.2 L206.1,291.2 L207.2,292.2 L208.4,293.2 L209.5,294.2 L210.6,295.2
		L211.7,296.2 L212.9,297.2 L214.0,298.3 L215.1,299.3 L216.2,300.3 L217.4,301.3 L218.5,302.4 L219.6,303.4
		L220.7,304.4 L221.9,305.4 L223.0,306.5 L224.1,307.5 L225.2,308.6 L226.4,309.6 L227.5,310.6 L228.6,311.7
		L229.7,312.7 L230.9,313.7 L232.0,314.8 L233.1,315.8 L234.2,316.9 L235.4,317.9 L236.5,318.9 L237.6,320.0
		L238.7,321.0 L239.9,322.1 L241.0,323.1 L242.1,324.2 L243.3,325.2 L244.4,326.2 L245.5,327.3 L246.6,328.3
		L247.8,329.4 L248.9,330.4 L250.0,331.4 L251.1,332.5 L252.3,333.5 L253.4,334.5 L254.5,335.6 L255.6,336.6
		L256.8,337.6 L257.9,338.7 L259.0,339.7 L260.1,340.7 L261.3,341.8 L262.4,342.8 L263.5,343.8 L264.6,344.8
		L265.8,345.9 L266.9,346.9 L268.0,347.9 L269.1,348.9 L270.3,349.9 L271.4,351.0 L272.5,352.0 L273.6,353.0
		L274.8,354.0 L275.9,355.0 L277.0,356.0 L278.1,357.0 L279.3,358.0 L280.4,359.0 L281.5,360.0 L282.6,361.0
		L283.8,362.0 L284.9,363.0 L286.0,364.0 L287.1,365.0 L288.3,366.0 L289.4,367.0 L290.5,368.0 L291.6,369.0
		L292.8,369.9 L293.9,370.9 L295.0,371.9 L296.1,372.9 L297.3,373.9 L298.4,374.8 L299.5,375.8 L300.6,376.8
		L301.8,377.7 L302.9,378.7 L304.0,379.6 L305.1,380.6 L306.3,381.6 L307.4,382.5 L308.5,383.5 L309.7,384.4
		L310.8,385.4 L311.9,386.3 L313.0,387.3 L314.2,388.2 L315.3,389.1 L316.4,390.1 L317.5,391.0 L318.7,391.9
		L319.8,392.9 L320.9,393.8 L322.0,394.7 L323.2,395.6 L324.3,396.6 L325.4,397.5 L326.5,398.4 L327.7,399.3
		L328.8,400.2 L329.9,401.1 L331.0,402.0 L332.2,402.9 L333.3,403.8 L334.4,404.7 L335.5,405.6 L336.7,406.5
		L337.8,407.4 L338.9,408.3 L340.0,409.2 L341.2,410.1 L342.3,411.0 L343.4,411.8 L344.5,412.7 L345.7,413.6
		L346.8,414.5 L347.9,415.3 L349.0,416.2 L350.2,417.1 L351.3,417.9 L352.4,418.8 L353.5,419.7 L354.7,420.5
		L355.8,421.4 L356.9,422.2 L358.0,423.1 L359.2,423.9 L360.3,424.8 L361.4,425.6 L362.5,426.4 L363.7,427.3
		L364.8,428.1 L365.9,428.9 L367.0,429.8 L368.2,430.6 L369.3,431.4 L370.4,432.3 L371.5,433.1 L372.7,433.9
		L373.8,434.7 L374.9,435.5 L376.1,436.3 L377.2,437.1 L378.3,438.0 L379.4,438.8 L380.6,439.6 L381.7,440.4
		L382.8,441.2 L383.9,442.0 L385.1,442.7 L386.2,443.5 L387.3,444.3 L388.4,445.1 L389.6,445.9 L390.7,446.7
		L391.8,447.5 L392.9,448.2 L394.1,449.0 L395.2,449.8 L396.3,450.6 L397.4,451.3 L398.6,452.1 L399.7,452.9
		L400.8,453.6 L401.9,454.4 L403.1,455.1 L404.2,455.9 L405.3,456.6 L406.4,457.4 L407.6,458.1 L408.7,458.9
		L409.8,459.6 L410.9,460.4 L412.1,461.1 L413.2,461.9 L414.3,462.6 L415.4,463.3 L416.6,464.1 L417.7,464.8
		L418.8,465.5 L419.9,466.2 L421.1,467.0 L422.2,467.7 L423.3,468.4 L424.4,469.1 L425.6,469.8 L426.7,470.6
		L427.8,471.3 L428.9,472.0 L430.1,472.7 L431.2,473.4 L432.3,474.1 L433.4,474.8 L434.6,475.5 L435.7,476.2
		L436.8,476.9 L437.9,477.6 L439.1,478.3 L440.2,479.0 L441.3,479.6 L442.5,480.3 L443.6,481.0 L444.7,481.7
		L445.8,482.4 L447.0,483.0 L448.1,483.7 L449.2,484.4 L450.3,485.1 L451.5,485.7 L452.6,486.4 L453.7,487.1
		L454.8,487.7 L456.0,488.4 L457.1,489.0 L458.2,489.7 L459.3,490.4 L460.5,491.0 L461.6,491.7 L462.7,492.3
		L463.8,493.0 L465.0,493.6 L466.1,494.3 L467.2,494.9 L468.3,495.5 L469.5,496.2 L470.6,496.8 L471.7,497.4
		L472.8,498.1 L474.0,498.7 L475.1,499.3 L476.2,500.0 L477.3,500.6 L478.5,501.2 L479.6,501.8 L480.7,502.5
		L481.8,503.1 L483.0,503.7 L484.1,504.3 L485.2,504.9 L486.3,505.5 L487.5,506.1 L488.6,506.8 L489.7,507.4
		L490.8,508.0 L492.0,508.6 L493.1,509.2 L494.2,509.8 L495.3,510.4 L496.5,511.0 L497.6,511.6 L498.7,512.2
		L499.8,512.7 L501.0,513.3 L502.1,513.9 L503.2,514.5 L504.3,515.1 L505.5,515.7 L506.6,516.3 L507.7,516.8
		L508.8,517.4 L510.0,518.0 L511.1,518.6 L512.2,519.1 L513.4,519.7 L514.5,520.3 L515.6,520.8 L516.7,521.4
		L517.9,522.0 L519.0,522.5 L520.1,523.1 L521.2,523.7 L522.4,524.2 L523.5,524.8 L524.6,525.3 L525.7,525.9
		L526.9,526.4 L528.0,527.0 L529.1,527.5 L530.2,528.1 L531.4,528.6 L532.5,529.2 L533.6,529.7 L534.7,530.2
		L535.9,530.8 L537.0,531.3 L538.1,531.9 L539.2,532.4 L540.4,532.9 L541.5,533.5 L542.6,534.0 L543.7,534.5
		L544.9,535.1 L546.0,535.6 L547.1,536.1 L548.2,536.6 L549.4,537.1 L550.5,537.7 L551.6,538.2 L552.7,538.7
		L553.9,539.2 L555.0,539.7 L556.1,540.2 L557.2,540.8 L558.4,541.3 L559.5,541.8 L560.6,542.3 L561.7,542.8
		L562.9,543.3 L564.0,543.8 L565.1,544.3 L566.2,544.8 L567.4,545.3 L568.5,545.8 L569.6,546.3 L570.7,546.8
		L571.9,547.3 L573.0,547.8 L574.1,548.2 L575.2,548.7 L576.4,549.2 L577.5,549.7 L578.6,550.2 L579.8,550.7
		L580.9,551.2 L582.0,551.6 L583.1,552.1 L584.3,552.6 L585.4,553.1 L586.5,553.5 L587.6,554.0 L588.8,554.5
		L589.9,555.0 L591.0,555.4 L592.1,555.9 L593.3,556.4 L594.4,556.8 L595.5,557.3 L596.6,557.8 L597.8,558.2
		L598.9,558.7 L600.0,559.1 L601.1,559.6 L602.3,560.1 L603.4,560.5 L604.5,561.0 L605.6,561.4 L606.8,561.9
		L607.9,562.3 L609.0,562.8 L610.1,563.2 L611.3,563.7 L612.4,564.1 L613.5,564.6 L614.6,565.0 L615.8,565.4
		L616.9,565.9 L618.0,566.3 L619.1,566.8 L620.3,567.2 L621.4,567.6 L622.5,568.1 L623.6,568.5 L624.8,568.9
		L625.9,569.4 L627.0,569.8 L628.1,570.2 L629.3,570.6 L630.4,571.1 L631.5,571.5 L632.6,571.9 L633.8,572.3
		L634.9,572.8 L636.0,573.2 L637.1,573.6 L638.3,574.0 L639.4,574.4 L640.5,574.8 L641.6,575.2 L642.8,575.7
		L643.9,576.1 L645.0,576.5 L646.2,576.9 L647.3,577.3 L648.4,577.7 L649.5,578.1 L650.7,578.5 L651.8,578.9
		L652.9,579.3 L654.0,579.7 L655.2,580.1 L656.3,580.5 L657.4,580.9 L658.5,581.3 L659.7,581.7 L660.8,582.1
		L661.9,582.5 L663.0,582.9 L664.2,583.3 L665.3,583.7 L666.4,584.1 L667.5,584.4 L668.7,584.8 L669.8,585.2
		L670.9,585.6 L672.0,586.0 L673.2,586.4 L674.3,586.7 L675.4,587.1 L676.5,587.5 L677.7,587.9 L678.8,588.3
		L679.9,588.6 L681.0,589.0 L682.2,589.4 L683.3,589.8 L684.4,590.1 L685.5,590.5 L686.7,590.9 L687.8,591.2
		L688.9,591.6 L690.0,592.0 L691.2,592.3 L692.3,592.7 L693.4,593.1 L694.5,593.4 L695.7,593.8 L696.8,594.1
		L697.9,594.5 L699.0,594.9 L700.2,595.2 L701.3,595.6 L702.4,595.9 L703.5,596.3 L704.7,596.6 L705.8,597.0
		L706.9,597.3 L708.0,597.7 L709.2,598.0 L710.3,598.4 L711.4,598.7 L712.5,599.1 L713.7,599.4 L714.8,599.7
		L715.9,600.1 L717.1,600.4 L718.2,600.8 L719.3,601.1 L720.4,601.5 L721.6,601.8 L722.7,602.1 L723.8,602.5
		L724.9,602.8 L726.1,603.1 L727.2,603.5 L728.3,603.8 L729.4,604.1 L730.6,604.5 L731.7,604.8 L732.8,605.1
		L733.9,605.4 L735.1,605.8 L736.2,606.1 L737.3,606.4 L738.4,606.7 L739.6,607.1 L740.7,607.4 L741.8,607.7
		L742.9,608.0 L744.1,608.3 L745.2,608.6 L746.3,609.0 L747.4,609.3 L748.6,609.6 L749.7,609.9 L750.8,610.2
		L751.9,610.5 L753.1,610.8 L754.2,611.1 L755.3,611.5 L756.4,611.8 L757.6,612.1 L758.7,612.4 L759.8,612.7
		L760.9,613.0 L762.1,613.3 L763.2,613.6 L764.3,613.9 L765.4,614.2 L766.6,614.5 L767.7,614.8 L768.8,615.1
		L769.9,615.4 L771.1,615.7 L772.2,616.0 L773.3,616.3 L774.4,616.6 L775.6,616.9 L776.7,617.1 L777.8,617.4
		L778.9,617.7 L780.1,618.0 L781.2,618.3 L782.3,618.6 L783.5,618.9 L784.6,619.2 L785.7,619.4 L786.8,619.7
		L788.0,620.0 L789.1,620.3 L790.2,620.6 L791.3,620.9 L792.5,621.1 L793.6,621.4 L794.7,621.7 L795.8,622.0
		L797.0,622.2 L798.1,622.5 L799.2,622.8 L800.3,623.1 L801.5,623.3 L802.6,623.6 L803.7,623.9 L804.8,624.1
		L806.0,624.4 L807.1,624.7 L808.2,625.0 L809.3,625.2 L810.5,625.5 L811.6,625.8 L812.7,626.0 L813.8,626.3
		L815.0,626.5 L816.1,626.8 L817.2,627.1 L818.3,627.3 L819.5,627.6 L820.6,627.8 L821.7,628.1 L822.8,628.4
		L824.0,628.6 L825.1,628.9 L826.2,629.1 L827.3,629.4 L828.5,629.6 L829.6,629.9 L830.7,630.1 L831.8,630.4
		L833.0,630.6 L834.1,630.9 L835.2,631.1 L836.3,631.4 L837.5,631.6 L838.6,631.9 L839.7,632.1 L840.8,632.3
		L842.0,632.6 L843.1,632.8 L844.2,633.1 L845.3,633.3 L846.5,633.5 L847.6,633.8 L848.7,634.0 L849.9,634.3
		L851.0,634.5 L852.1,634.7 L853.2,635.0 L854.4,635.2 L855.5,635.4 L856.6,635.7 L857.7,635.9 L858.9,636.1
		L860.0,636.4 L861.1,636.6 L862.2,636.8 L863.4,637.0 L864.5,637.3 L865.6,637.5 L866.7,637.7 L867.9,637.9
		L869.0,638.2 L870.1,638.4 L871.2,638.6 L872.4,638.8 L873.5,639.1 L874.6,639.3 L875.7,639.5 L876.9,639.7
		L878.0,639.9 L879.1,640.1 L880.2,640.4 L881.4,640.6 L882.5,640.8 L883.6,641.0 L884.7,641.2 L885.9,641.4
		L887.0,641.6 L888.1,641.9 L889.2,642.1 L890.4,642.3 L891.5,642.5 L892.6,642.7 L893.7,642.9 L894.9,643.1
		L896.0,643.3 L897.1,643.5 L898.2,643.7 L899.4,643.9 L900.5,644.1 L901.6,644.3 L902.7,644.5 L903.9,644.7
		L905.0,644.9 L906.1,645.1 L907.2,645.3 L908.4,645.5 L909.5,645.7 L910.6,645.9 L911.7,646.1 L912.9,646.3
		L914.0,646.5 L915.1,646.7 L916.2,646.9 L917.4,647.1 L918.5,647.3 L919.6,647.4 L920.8,647.6 L921.9,647.8
		L923.0,648.0 L924.1,648.2 L925.3,648.4 L926.4,648.6 L927.5,648.8 L928.6,648.9 L929.8,649.1 L930.9,649.3
		L932.0,649.5 L933.1,649.7 L934.3,649.9 L935.4,650.0 L936.5,650.2 L937.6,650.4 L938.8,650.6 L939.9,650.7
		L941.0,650.9 L942.1,651.1 L943.3,651.3 L944.4,651.4 L945.5,651.6 L946.6,651.8 L947.8,652.0 L948.9,652.1
		L950.0,652.3 L951.1,652.5 L952.3,652.6 L953.4,652.8 L954.5,653.0 L955.6,653.2 L956.8,653.3 L957.9,653.5
		L959.0,653.7 L960.1,653.8 L961.3,654.0 L962.4,654.1 L963.5,654.3 L964.6,654.5 L965.8,654.6 L966.9,654.8
		L968.0,654.9 L969.1,655.1 L970.3,655.3 L971.4,655.4 L972.5,655.6 L973.6,655.7 L974.8,655.9 L975.9,656.0
		L977.0,656.2 L978.1,656.4 L979.3,656.5 L980.4,656.7 L981.5,656.8 L982.6,657.0 L983.8,657.1 L984.9,657.3
		L986.0,657.4 L987.2,657.6 L988.3,657.7 L989.4,657.9 L990.5,658.0 L991.7,658.1 L992.8,658.3 L993.9,658.4
		L995.0,658.6 L996.2,658.7 L997.3,658.9 L998.4,659.0 L999.5,659.1 L1000.7,659.3 L1001.8,659.4 L1002.9,659.6
		L1004.0,659.7 L1005.2,659.8 L1006.3,660.0 L1007.4,660.1 L1008.5,660.3 L1009.7,660.4 L1010.8,660.5 L1011.9,660.7
		L1013.0,660.8 L1014.2,660.9 L1015.3,661.0 L1016.4,661.2 L1017.5,661.3 L1018.7,661.4 L1019.8,661.6 L1020.9,661.7
		L1022.0,661.8 L1023.2,662.0 L1024.3,662.1 L1025.4,662.2 L1026.5,662.3 L1027.7,662.5 L1028.8,662.6 L1029.9,662.7
		L1031.0,662.8 L1032.2,662.9 L1033.3,663.1 L1034.4,663.2 L1035.5,663.3 L1036.7,663.4 L1037.8,663.5 L1038.9,663.7
		L1040.0,663.8 L1041.2,663.9 L1042.3,664.0 L1043.4,664.1 L1044.5,664.2 L1045.7,664.4 L1046.8,664.5 L1047.9,664.6
		L1049.0,664.7 L1050.2,664.8 L1051.3,664.9 L1052.4,665.0 L1053.6,665.1 L1054.7,665.2 L1055.8,665.4 L1056.9,665.5
		L1058.1,665.6 L1059.2,665.7 L1060.3,665.8 L1061.4,665.9 L1062.6,666.0 L1063.7,666.1 L1064.8,666.2 L1065.9,666.3
		L1067.1,666.4 L1068.2,666.5 L1069.3,666.6 L1070.4,666.7 L1071.6,666.8 L1072.7,666.9 L1073.8,667.0 L1074.9,667.1
		L1076.1,667.2 L1077.2,667.3 L1078.3,667.4 L1079.4,667.5 L1080.6,667.6 L1081.7,667.7 L1082.8,667.8 L1083.9,667.9
		L1085.1,667.9 L1086.2,668.0 L1087.3,668.1 L1088.4,668.2 L1089.6,668.3 L1090.7,668.4 L1091.8,668.5 L1092.9,668.6
		L1094.1,668.7 L1095.2,668.7 L1096.3,668.8 L1097.4,668.9 L1098.6,669.0 L1099.7,669.1 L1100.8,669.2 L1101.9,669.2
		L1103.1,669.3 L1104.2,669.4 L1105.3,669.5 L1106.4,669.6 L1107.6,669.7 L1108.7,669.7 L1109.8,669.8 L1110.9,669.9
		L1112.1,670.0 L1113.2,670.0 L1114.3,670.1 L1115.4,670.2 L1116.6,670.3 L1117.7,670.3 L1118.8,670.4 L1120.0,670.5
		L1121.1,670.6 L1122.2,670.6 L1123.3,670.7 L1124.5,670.8 L1125.6,670.8 L1126.7,670.9 L1127.8,671.0 L1129.0,671.0
		L1130.1,671.1 L1131.2,671.2 L1132.3,671.2 L1133.5,671.3 L1134.6,671.4 L1135.7,671.4 L1136.8,671.5 L1138.0,671.6
		L1139.1,671.6 L1140.2,671.7 L1141.3,671.7 L1142.5,671.8 L1143.6,671.9 L1144.7,671.9 L1145.8,672.0 L1147.0,672.0
		L1148.1,672.1 L1149.2,672.2 L1150.3,672.2 L1151.5,672.3 L1152.6,672.3 L1153.7,672.4 L1154.8,672.4 L1156.0,672.5
		L1157.1,672.5 L1158.2,672.6 L1159.3,672.6 L1160.5,672.7 L1161.6,672.7 L1162.7,672.8 L1163.8,672.8 L1165.0,672.9
		L1166.1,672.9 L1167.2,673.0 L1168.3,673.0 L1169.5,673.1 L1170.6,673.1 L1171.7,673.2 L1172.8,673.2 L1174.0,673.3
		L1175.1,673.3 L1176.2,673.3 L1177.3,673.4 L1178.5,673.4 L1179.6,673.5 L1180.7,673.5 L1181.8,673.5 L1183.0,673.6
		L1184.1,673.6 L1185.2,673.7 L1186.3,673.7 L1187.5,673.7 L1188.6,673.8 L1189.7,673.8 L1190.9,673.8 L1192.0,673.9
		L1193.1,673.9 L1194.2,673.9 L1195.4,674.0 L1196.5,674.0 L1197.6,674.0 L1198.7,674.1 L1199.9,674.1 L1201.0,674.1
		L1202.1,674.1 L1203.2,674.2 L1204.4,674.2 L1205.5,674.2 L1206.6,674.3 L1207.7,674.3 L1208.9,674.3 L1210.0,674.3
		L1211.1,674.3 L1212.2,674.4 L1213.4,674.4 L1214.5,674.4 L1215.6,674.4 L1216.7,674.5 L1217.9,674.5 L1219.0,674.5
		L1220.1,674.5 L1221.2,674.5 L1222.4,674.6 L1223.5,674.6 L1224.6,674.6 L1225.7,674.6 L1226.9,674.6 L1228.0,674.6
		L1229.1,674.6 L1230.2,674.7 L1231.4,674.7 L1232.5,674.7 L1233.6,674.7 L1234.7,674.7 L1235.9,674.7 L1237.0,674.7
		L1238.1,674.7 L1239.2,674.7 L1240.4,674.8 L1241.5,674.8 L1242.6,674.8 L1243.7,674.8 L1244.9,674.8 L1246.0,674.8
		L1247.1,674.8 L1248.2,674.8 L1249.4,674.8 L1250.5,674.8 L1251.6,674.8 L1252.7,674.8 L1253.9,674.8 L1255.0,674.8
		 '/></g>
	</g>
	<g id="gnuplot_plot_6" ><title>gnuplot_plot_6</title>
<g fill="none" color="black" stroke="currentColor" stroke-width="1.00" stroke-linecap="butt" stroke-linejoin="miter">
	<path stroke='rgb(  0,   0, 255)'  d='M103.7,61.1 L104.8,63.6 L106.0,70.5 L107.1,80.9 L108.2,93.4 L109.3,106.9 L110.5,120.4 L111.6,133.1
		L112.7,144.7 L113.8,155.1 L115.0,164.1 L116.1,172.0 L117.2,178.7 L118.3,184.4 L119.5,189.3 L120.6,193.5
		L121.7,197.0 L122.8,200.1 L124.0,202.8 L125.1,205.1 L126.2,207.2 L127.3,209.0 L128.5,210.6 L129.6,212.1
		L130.7,213.4 L131.8,214.6 L133.0,215.7 L134.1,216.8 L135.2,217.8 L136.3,218.8 L137.5,219.7 L138.6,220.5
		L139.7,221.4 L140.8,222.2 L142.0,223.0 L143.1,223.8 L144.2,224.6 L145.3,225.3 L146.5,226.1 L147.6,226.9
		L148.7,227.6 L149.8,228.4 L151.0,229.1 L152.1,229.9 L153.2,230.7 L154.3,231.4 L155.5,232.2 L156.6,233.0
		L157.7,233.8 L158.8,234.5 L160.0,235.3 L161.1,236.1 L162.2,236.9 L163.3,237.7 L164.5,238.6 L165.6,239.4
		L166.7,240.2 L167.8,241.0 L169.0,241.9 L170.1,242.7 L171.2,243.6 L172.4,244.4 L173.5,245.3 L174.6,246.2
		L175.7,247.1 L176.9,247.9 L178.0,248.8 L179.1,249.7 L180.2,250.6 L181.4,251.5 L182.5,252.5 L183.6,253.4
		L184.7,254.3 L185.9,255.2 L187.0,256.2 L188.1,257.1 L189.2,258.1 L190.4,259.0 L191.5,260.0 L192.6,260.9
		L193.7,261.9 L194.9,262.9 L196.0,263.8 L197.1,264.8 L198.2,265.8 L199.4,266.8 L200.5,267.8 L201.6,268.8
		L202.7,269.8 L203.9,270.7 L205.0,271.7 L206.1,272.8 L207.2,273.8 L208.4,274.8 L209.5,275.8 L210.6,276.8
		L211.7,277.8 L212.9,278.8 L214.0,279.9 L215.1,280.9 L216.2,281.9 L217.4,282.9 L218.5,284.0 L219.6,285.0
		L220.7,286.0 L221.9,287.0 L223.0,288.1 L224.1,289.1 L225.2,290.2 L226.4,291.2 L227.5,292.2 L228.6,293.3
		L229.7,294.3 L230.9,295.3 L232.0,296.4 L233.1,297.4 L234.2,298.5 L235.4,299.5 L236.5,300.6 L237.6,301.6
		L238.7,302.6 L239.9,303.7 L241.0,304.7 L242.1,305.8 L243.3,306.8 L244.4,307.8 L245.5,308.9 L246.6,309.9
		L247.8,311.0 L248.9,312.0 L250.0,313.0 L251.1,314.1 L252.3,315.1 L253.4,316.1 L254.5,317.2 L255.6,318.2
		L256.8,319.3 L257.9,320.3 L259.0,321.3 L260.1,322.3 L261.3,323.4 L262.4,324.4 L263.5,325.4 L264.6,326.5
		L265.8,327.5 L266.9,328.5 L268.0,329.5 L269.1,330.5 L270.3,331.6 L271.4,332.6 L272.5,333.6 L273.6,334.6
		L274.8,335.6 L275.9,336.6 L277.0,337.6 L278.1,338.6 L279.3,339.6 L280.4,340.6 L281.5,341.6 L282.6,342.6
		L283.8,343.6 L284.9,344.6 L286.0,345.6 L287.1,346.6 L288.3,347.6 L289.4,348.6 L290.5,349.6 L291.6,350.6
		L292.8,351.6 L293.9,352.5 L295.0,353.5 L296.1,354.5 L297.3,355.5 L298.4,356.4 L299.5,357.4 L300.6,358.4
		L301.8,359.3 L302.9,360.3 L304.0,361.3 L305.1,362.2 L306.3,363.2 L307.4,364.1 L308.5,365.1 L309.7,366.0
		L310.8,367.0 L311.9,367.9 L313.0,368.9 L314.2,369.8 L315.3,370.8 L316.4,371.7 L317.5,372.6 L318.7,373.6
		L319.8,374.5 L320.9,375.4 L322.0,376.3 L323.2,377.3 L324.3,378.2 L325.4,379.1 L326.5,380.0 L327.7,380.9
		L328.8,381.8 L329.9,382.7 L331.0,383.7 L332.2,384.6 L333.3,385.5 L334.4,386.4 L335.5,387.3 L336.7,388.1
		L337.8,389.0 L338.9,389.9 L340.0,390.8 L341.2,391.7 L342.3,392.6 L343.4,393.5 L344.5,394.3 L345.7,395.2
		L346.8,396.1 L347.9,397.0 L349.0,397.8 L350.2,398.7 L351.3,399.6 L352.4,400.4 L353.5,401.3 L354.7,402.1
		L355.8,403.0 L356.9,403.8 L358.0,404.7 L359.2,405.5 L360.3,406.4 L361.4,407.2 L362.5,408.1 L363.7,408.9
		L364.8,409.7 L365.9,410.6 L367.0,411.4 L368.2,412.2 L369.3,413.0 L370.4,413.9 L371.5,414.7 L372.7,415.5
		L373.8,416.3 L374.9,417.1 L376.1,418.0 L377.2,418.8 L378.3,419.6 L379.4,420.4 L380.6,421.2 L381.7,422.0
		L382.8,422.8 L383.9,423.6 L385.1,424.4 L386.2,425.2 L387.3,425.9 L388.4,426.7 L389.6,427.5 L390.7,428.3
		L391.8,429.1 L392.9,429.9 L394.1,430.6 L395.2,431.4 L396.3,432.2 L397.4,432.9 L398.6,433.7 L399.7,434.5
		L400.8,435.2 L401.9,436.0 L403.1,436.8 L404.2,437.5 L405.3,438.3 L406.4,439.0 L407.6,439.8 L408.7,440.5
		L409.8,441.3 L410.9,442.0 L412.1,442.7 L413.2,443.5 L414.3,444.2 L415.4,444.9 L416.6,445.7 L417.7,446.4
		L418.8,447.1 L419.9,447.9 L421.1,448.6 L422.2,449.3 L423.3,450.0 L424.4,450.7 L425.6,451.5 L426.7,452.2
		L427.8,452.9 L428.9,453.6 L430.1,454.3 L431.2,455.0 L432.3,455.7 L433.4,456.4 L434.6,457.1 L435.7,457.8
		L436.8,458.5 L437.9,459.2 L439.1,459.9 L440.2,460.6 L441.3,461.3 L442.5,461.9 L443.6,462.6 L444.7,463.3
		L445.8,464.0 L447.0,464.7 L448.1,465.3 L449.2,466.0 L450.3,466.7 L451.5,467.3 L452.6,468.0 L453.7,468.7
		L454.8,469.3 L456.0,470.0 L457.1,470.7 L458.2,471.3 L459.3,472.0 L460.5,472.6 L461.6,473.3 L462.7,473.9
		L463.8,474.6 L465.0,475.2 L466.1,475.9 L467.2,476.5 L468.3,477.2 L469.5,477.8 L470.6,478.4 L471.7,479.1
		L472.8,479.7 L474.0,480.3 L475.1,481.0 L476.2,481.6 L477.3,482.2 L478.5,482.8 L479.6,483.5 L480.7,484.1
		L481.8,484.7 L483.0,485.3 L484.1,485.9 L485.2,486.5 L486.3,487.2 L487.5,487.8 L488.6,488.4 L489.7,489.0
		L490.8,489.6 L492.0,490.2 L493.1,490.8 L494.2,491.4 L495.3,492.0 L496.5,492.6 L497.6,493.2 L498.7,493.8
		L499.8,494.4 L501.0,495.0 L502.1,495.5 L503.2,496.1 L504.3,496.7 L505.5,497.3 L506.6,497.9 L507.7,498.5
		L508.8,499.0 L510.0,499.6 L511.1,500.2 L512.2,500.8 L513.4,501.3 L514.5,501.9 L515.6,502.5 L516.7,503.0
		L517.9,503.6 L519.0,504.2 L520.1,504.7 L521.2,505.3 L522.4,505.8 L523.5,506.4 L524.6,506.9 L525.7,507.5
		L526.9,508.1 L528.0,508.6 L529.1,509.2 L530.2,509.7 L531.4,510.2 L532.5,510.8 L533.6,511.3 L534.7,511.9
		L535.9,512.4 L537.0,512.9 L538.1,513.5 L539.2,514.0 L540.4,514.6 L541.5,515.1 L542.6,515.6 L543.7,516.1
		L544.9,516.7 L546.0,517.2 L547.1,517.7 L548.2,518.2 L549.4,518.8 L550.5,519.3 L551.6,519.8 L552.7,520.3
		L553.9,520.8 L555.0,521.4 L556.1,521.9 L557.2,522.4 L558.4,522.9 L559.5,523.4 L560.6,523.9 L561.7,524.4
		L562.9,524.9 L564.0,525.4 L565.1,525.9 L566.2,526.4 L567.4,526.9 L568.5,527.4 L569.6,527.9 L570.7,528.4
		L571.9,528.9 L573.0,529.4 L574.1,529.9 L575.2,530.4 L576.4,530.8 L577.5,531.3 L578.6,531.8 L579.8,532.3
		L580.9,532.8 L582.0,533.3 L583.1,533.7 L584.3,534.2 L585.4,534.7 L586.5,535.2 L587.6,535.6 L588.8,536.1
		L589.9,536.6 L591.0,537.1 L592.1,537.5 L593.3,538.0 L594.4,538.5 L595.5,538.9 L596.6,539.4 L597.8,539.8
		L598.9,540.3 L600.0,540.8 L601.1,541.2 L602.3,541.7 L603.4,542.1 L604.5,542.6 L605.6,543.0 L606.8,543.5
		L607.9,543.9 L609.0,544.4 L610.1,544.8 L611.3,545.3 L612.4,545.7 L613.5,546.2 L614.6,546.6 L615.8,547.1
		L616.9,547.5 L618.0,547.9 L619.1,548.4 L620.3,548.8 L621.4,549.2 L622.5,549.7 L623.6,550.1 L624.8,550.5
		L625.9,551.0 L627.0,551.4 L628.1,551.8 L629.3,552.3 L630.4,552.7 L631.5,553.1 L632.6,553.5 L633.8,554.0
		L634.9,554.4 L636.0,554.8 L637.1,555.2 L638.3,555.6 L639.4,556.0 L640.5,556.5 L641.6,556.9 L642.8,557.3
		L643.9,557.7 L645.0,558.1 L646.2,558.5 L647.3,558.9 L648.4,559.3 L649.5,559.7 L650.7,560.1 L651.8,560.5
		L652.9,560.9 L654.0,561.3 L655.2,561.7 L656.3,562.1 L657.4,562.5 L658.5,562.9 L659.7,563.3 L660.8,563.7
		L661.9,564.1 L663.0,564.5 L664.2,564.9 L665.3,565.3 L666.4,565.7 L667.5,566.1 L668.7,566.5 L669.8,566.8
		L670.9,567.2 L672.0,567.6 L673.2,568.0 L674.3,568.4 L675.4,568.7 L676.5,569.1 L677.7,569.5 L678.8,569.9
		L679.9,570.3 L681.0,570.6 L682.2,571.0 L683.3,571.4 L684.4,571.7 L685.5,572.1 L686.7,572.5 L687.8,572.9
		L688.9,573.2 L690.0,573.6 L691.2,574.0 L692.3,574.3 L693.4,574.7 L694.5,575.0 L695.7,575.4 L696.8,575.8
		L697.9,576.1 L699.0,576.5 L700.2,576.8 L701.3,577.2 L702.4,577.5 L703.5,577.9 L704.7,578.2 L705.8,578.6
		L706.9,578.9 L708.0,579.3 L709.2,579.6 L710.3,580.0 L711.4,580.3 L712.5,580.7 L713.7,581.0 L714.8,581.4
		L715.9,581.7 L717.1,582.1 L718.2,582.4 L719.3,582.7 L720.4,583.1 L721.6,583.4 L722.7,583.7 L723.8,584.1
		L724.9,584.4 L726.1,584.7 L727.2,585.1 L728.3,585.4 L729.4,585.7 L730.6,586.1 L731.7,586.4 L732.8,586.7
		L733.9,587.1 L735.1,587.4 L736.2,587.7 L737.3,588.0 L738.4,588.4 L739.6,588.7 L740.7,589.0 L741.8,589.3
		L742.9,589.6 L744.1,590.0 L745.2,590.3 L746.3,590.6 L747.4,590.9 L748.6,591.2 L749.7,591.5 L750.8,591.8
		L751.9,592.2 L753.1,592.5 L754.2,592.8 L755.3,593.1 L756.4,593.4 L757.6,593.7 L758.7,594.0 L759.8,594.3
		L760.9,594.6 L762.1,594.9 L763.2,595.2 L764.3,595.5 L765.4,595.8 L766.6,596.1 L767.7,596.4 L768.8,596.7
		L769.9,597.0 L771.1,597.3 L772.2,597.6 L773.3,597.9 L774.4,598.2 L775.6,598.5 L776.7,598.8 L777.8,599.1
		L778.9,599.4 L780.1,599.6 L781.2,599.9 L782.3,600.2 L783.5,600.5 L784.6,600.8 L785.7,601.1 L786.8,601.4
		L788.0,601.6 L789.1,601.9 L790.2,602.2 L791.3,602.5 L792.5,602.8 L793.6,603.0 L794.7,603.3 L795.8,603.6
		L797.0,603.9 L798.1,604.1 L799.2,604.4 L800.3,604.7 L801.5,605.0 L802.6,605.2 L803.7,605.5 L804.8,605.8
		L806.0,606.0 L807.1,606.3 L808.2,606.6 L809.3,606.8 L810.5,607.1 L811.6,607.4 L812.7,607.6 L813.8,607.9
		L815.0,608.2 L816.1,608.4 L817.2,608.7 L818.3,608.9 L819.5,609.2 L820.6,609.5 L821.7,609.7 L822.8,610.0
		L824.0,610.2 L825.1,610.5 L826.2,610.7 L827.3,611.0 L828.5,611.2 L829.6,611.5 L830.7,611.7 L831.8,612.0
		L833.0,612.2 L834.1,612.5 L835.2,612.7 L836.3,613.0 L837.5,613.2 L838.6,613.5 L839.7,613.7 L840.8,614.0
		L842.0,614.2 L843.1,614.4 L844.2,614.7 L845.3,614.9 L846.5,615.2 L847.6,615.4 L848.7,615.6 L849.9,615.9
		L851.0,616.1 L852.1,616.4 L853.2,616.6 L854.4,616.8 L855.5,617.1 L856.6,617.3 L857.7,617.5 L858.9,617.7
		L860.0,618.0 L861.1,618.2 L862.2,618.4 L863.4,618.7 L864.5,618.9 L865.6,619.1 L866.7,619.3 L867.9,619.6
		L869.0,619.8 L870.1,620.0 L871.2,620.2 L872.4,620.5 L873.5,620.7 L874.6,620.9 L875.7,621.1 L876.9,621.3
		L878.0,621.6 L879.1,621.8 L880.2,622.0 L881.4,622.2 L882.5,622.4 L883.6,622.6 L884.7,622.8 L885.9,623.1
		L887.0,623.3 L888.1,623.5 L889.2,623.7 L890.4,623.9 L891.5,624.1 L892.6,624.3 L893.7,624.5 L894.9,624.7
		L896.0,624.9 L897.1,625.1 L898.2,625.3 L899.4,625.5 L900.5,625.7 L901.6,625.9 L902.7,626.1 L903.9,626.3
		L905.0,626.5 L906.1,626.7 L907.2,626.9 L908.4,627.1 L909.5,627.3 L910.6,627.5 L911.7,627.7 L912.9,627.9
		L914.0,628.1 L915.1,628.3 L916.2,628.5 L917.4,628.7 L918.5,628.9 L919.6,629.1 L920.8,629.3 L921.9,629.4
		L923.0,629.6 L924.1,629.8 L925.3,630.0 L926.4,630.2 L927.5,630.4 L928.6,630.6 L929.8,630.7 L930.9,630.9
		L932.0,631.1 L933.1,631.3 L934.3,631.5 L935.4,631.7 L936.5,631.8 L937.6,632.0 L938.8,632.2 L939.9,632.4
		L941.0,632.5 L942.1,632.7 L943.3,632.9 L944.4,633.1 L945.5,633.2 L946.6,633.4 L947.8,633.6 L948.9,633.8
		L950.0,633.9 L951.1,634.1 L952.3,634.3 L953.4,634.4 L954.5,634.6 L955.6,634.8 L956.8,634.9 L957.9,635.1
		L959.0,635.3 L960.1,635.4 L961.3,635.6 L962.4,635.8 L963.5,635.9 L964.6,636.1 L965.8,636.3 L966.9,636.4
		L968.0,636.6 L969.1,636.7 L970.3,636.9 L971.4,637.0 L972.5,637.2 L973.6,637.4 L974.8,637.5 L975.9,637.7
		L977.0,637.8 L978.1,638.0 L979.3,638.1 L980.4,638.3 L981.5,638.4 L982.6,638.6 L983.8,638.7 L984.9,638.9
		L986.0,639.0 L987.2,639.2 L988.3,639.3 L989.4,639.5 L990.5,639.6 L991.7,639.8 L992.8,639.9 L993.9,640.1
		L995.0,640.2 L996.2,640.3 L997.3,640.5 L998.4,640.6 L999.5,640.8 L1000.7,640.9 L1001.8,641.1 L1002.9,641.2
		L1004.0,641.3 L1005.2,641.5 L1006.3,641.6 L1007.4,641.7 L1008.5,641.9 L1009.7,642.0 L1010.8,642.1 L1011.9,642.3
		L1013.0,642.4 L1014.2,642.5 L1015.3,642.7 L1016.4,642.8 L1017.5,642.9 L1018.7,643.1 L1019.8,643.2 L1020.9,643.3
		L1022.0,643.4 L1023.2,643.6 L1024.3,643.7 L1025.4,643.8 L1026.5,644.0 L1027.7,644.1 L1028.8,644.2 L1029.9,644.3
		L1031.0,644.4 L1032.2,644.6 L1033.3,644.7 L1034.4,644.8 L1035.5,644.9 L1036.7,645.0 L1037.8,645.2 L1038.9,645.3
		L1040.0,645.4 L1041.2,645.5 L1042.3,645.6 L1043.4,645.8 L1044.5,645.9 L1045.7,646.0 L1046.8,646.1 L1047.9,646.2
		L1049.0,646.3 L1050.2,646.4 L1051.3,646.5 L1052.4,646.7 L1053.6,646.8 L1054.7,646.9 L1055.8,647.0 L1056.9,647.1
		L1058.1,647.2 L1059.2,647.3 L1060.3,647.4 L1061.4,647.5 L1062.6,647.6 L1063.7,647.7 L1064.8,647.8 L1065.9,647.9
		L1067.1,648.0 L1068.2,648.1 L1069.3,648.2 L1070.4,648.3 L1071.6,648.4 L1072.7,648.5 L1073.8,648.6 L1074.9,648.7
		L1076.1,648.8 L1077.2,648.9 L1078.3,649.0 L1079.4,649.1 L1080.6,649.2 L1081.7,649.3 L1082.8,649.4 L1083.9,649.5
		L1085.1,649.6 L1086.2,649.7 L1087.3,649.8 L1088.4,649.8 L1089.6,649.9 L1090.7,650.0 L1091.8,650.1 L1092.9,650.2
		L1094.1,650.3 L1095.2,650.4 L1096.3,650.5 L1097.4,650.5 L1098.6,650.6 L1099.7,650.7 L1100.8,650.8 L1101.9,650.9
		L1103.1,651.0 L1104.2,651.0 L1105.3,651.1 L1106.4,651.2 L1107.6,651.3 L1108.7,651.4 L1109.8,651.4 L1110.9,651.5
		L1112.1,651.6 L1113.2,651.7 L1114.3,651.7 L1115.4,651.8 L1116.6,651.9 L1117.7,652.0 L1118.8,652.0 L1120.0,652.1
		L1121.1,652.2 L1122.2,652.3 L1123.3,652.3 L1124.5,652.4 L1125.6,652.5 L1126.7,652.5 L1127.8,652.6 L1129.0,652.7
		L1130.1,652.7 L1131.2,652.8 L1132.3,652.9 L1133.5,652.9 L1134.6,653.0 L1135.7,653.1 L1136.8,653.1 L1138.0,653.2
		L1139.1,653.2 L1140.2,653.3 L1141.3,653.4 L1142.5,653.4 L1143.6,653.5 L1144.7,653.6 L1145.8,653.6 L1147.0,653.7
		L1148.1,653.7 L1149.2,653.8 L1150.3,653.8 L1151.5,653.9 L1152.6,653.9 L1153.7,654.0 L1154.8,654.1 L1156.0,654.1
		L1157.1,654.2 L1158.2,654.2 L1159.3,654.3 L1160.5,654.3 L1161.6,654.4 L1162.7,654.4 L1163.8,654.5 L1165.0,654.5
		L1166.1,654.6 L1167.2,654.6 L1168.3,654.7 L1169.5,654.7 L1170.6,654.7 L1171.7,654.8 L1172.8,654.8 L1174.0,654.9
		L1175.1,654.9 L1176.2,655.0 L1177.3,655.0 L1178.5,655.0 L1179.6,655.1 L1180.7,655.1 L1181.8,655.2 L1183.0,655.2
		L1184.1,655.2 L1185.2,655.3 L1186.3,655.3 L1187.5,655.4 L1188.6,655.4 L1189.7,655.4 L1190.9,655.5 L1192.0,655.5
		L1193.1,655.5 L1194.2,655.6 L1195.4,655.6 L1196.5,655.6 L1197.6,655.6 L1198.7,655.7 L1199.9,655.7 L1201.0,655.7
		L1202.1,655.8 L1203.2,655.8 L1204.4,655.8 L1205.5,655.8 L1206.6,655.9 L1207.7,655.9 L1208.9,655.9 L1210.0,655.9
		L1211.1,656.0 L1212.2,656.0 L1213.4,656.0 L1214.5,656.0 L1215.6,656.1 L1216.7,656.1 L1217.9,656.1 L1219.0,656.1
		L1220.1,656.1 L1221.2,656.2 L1222.4,656.2 L1223.5,656.2 L1224.6,656.2 L1225.7,656.2 L1226.9,656.2 L1228.0,656.3
		L1229.1,656.3 L1230.2,656.3 L1231.4,656.3 L1232.5,656.3 L1233.6,656.3 L1234.7,656.3 L1235.9,656.3 L1237.0,656.3
		L1238.1,656.4 L1239.2,656.4 L1240.4,656.4 L1241.5,656.4 L1242.6,656.4 L1243.7,656.4 L1244.9,656.4 L1246.0,656.4
		L1247.1,656.4 L1248.2,656.4 L1249.4,656.4 L1250.5,656.4 L1251.6,656.4 L1252.7,656.4 L1253.9,656.4 L1255.0,656.4
		 '/></g>
	</g>
<g fill="none" color="white" stroke="rgb(  0,   0, 255)" stroke-width="2.00" stroke-linecap="butt" stroke-linejoin="miter">
</g>
<g fill="none" color="black" stroke="currentColor" stroke-width="2.00" stroke-linecap="butt" stroke-linejoin="miter">
</g>
<g fill="none" color="black" stroke="black" stroke-width="1.00" stroke-linecap="butt" stroke-linejoin="miter">
</g>
<g fill="none" color="black" stroke="currentColor" stroke-width="1.00" stroke-linecap="butt" stroke-linejoin="miter">
	<path stroke='black'  d='M103.7,54.1 L103.7,684.0 L1255.0,684.0 L1255.0,54.1 L103.7,54.1 Z  '/></g>
<g fill="none" color="black" stroke="currentColor" stroke-width="1.00" stroke-linecap="butt" stroke-linejoin="miter">
</g>
</g>
</svg>

