<?xml version="1.0" encoding="utf-8"  standalone="no"?>
<svg 
 width="1280" height="720"
 viewBox="0 0 1280 720"
 xmlns="http://www.w3.org/2000/svg"
 xmlns:xlink="http://www.w3.org/1999/xlink"
>

<title>Gnuplot</title>
<desc>Produced by GNUPLOT 5.0 patchlevel 6 </desc>

<g id="gnuplot_canvas">

<rect x="0" y="0" width="1280" height="720" fill="none"/>
<defs>

	<circle id='gpDot' r='0.5' stroke-width='0.5'/>
	<path id='gpPt0' stroke-width='0.222' stroke='currentColor' d='M-1,0 h2 M0,-1 v2'/>
	<path id='gpPt1' stroke-width='0.222' stroke='currentColor' d='M-1,-1 L1,1 M1,-1 L-1,1'/>
	<path id='gpPt2' stroke-width='0.222' stroke='currentColor' d='M-1,0 L1,0 M0,-1 L0,1 M-1,-1 L1,1 M-1,1 L1,-1'/>
	<rect id='gpPt3' stroke-width='0.222' stroke='currentColor' x='-1' y='-1' width='2' height='2'/>
	<rect id='gpPt4' stroke-width='0.222' stroke='currentColor' fill='currentColor' x='-1' y='-1' width='2' height='2'/>
	<circle id='gpPt5' stroke-width='0.222' stroke='currentColor' cx='0' cy='0' r='1'/>
	<use xlink:href='#gpPt5' id='gpPt6' fill='currentColor' stroke='none'/>
	<path id='gpPt7' stroke-width='0.222' stroke='currentColor' d='M0,-1.33 L-1.33,0.67 L1.33,0.67 z'/>
	<use xlink:href='#gpPt7' id='gpPt8' fill='currentColor' stroke='none'/>
	<use xlink:href='#gpPt7' id='gpPt9' stroke='currentColor' transform='rotate(180)'/>
	<use xlink:href='#gpPt9' id='gpPt10' fill='currentColor' stroke='none'/>
	<use xlink:href='#gpPt3' id='gpPt11' stroke='currentColor' transform='rotate(45)'/>
	<use xlink:href='#gpPt11' id='gpPt12' fill='currentColor' stroke='none'/>
	<path id='gpPt13' stroke-width='0.222' stroke='currentColor' d='M0,1.330 L1.265,0.411 L0.782,-1.067 L-0.782,-1.076 L-1.265,0.411 z'/>
	<use xlink:href='#gpPt13' id='gpPt14' fill='currentColor' stroke='none'/>
	<filter id='textbox' filterUnits='objectBoundingBox' x='0' y='0' height='1' width='1'>
	  <feFlood flood-color='white' flood-opacity='1' result='bgnd'/>
	  <feComposite in='SourceGraphic' in2='bgnd' operator='atop'/>
	</filter>
	<filter id='greybox' filterUnits='objectBoundingBox' x='0' y='0' height='1' width='1'>
	  <feFlood flood-color='lightgrey' flood-opacity='1' result='grey'/>
	  <feComposite in='SourceGraphic' in2='grey' operator='atop'/>
	</filter>
</defs>
<g fill="none" color="white" stroke="currentColor" stroke-width="1.00" stroke-linecap="butt" stroke-linejoin="miter">
</g>
<g fill="none" color="black" stroke="currentColor" stroke-width="1.00" stroke-linecap="butt" stroke-linejoin="miter">
	<path stroke='black'  d='M53.9,684.0 L62.9,684.0 M1255.0,684.0 L1246.0,684.0  '/>	<g transform="translate(45.6,687.9)" stroke="none" fill="black" font-family="Arial" font-size="12.00"  text-anchor="end">
		<text><tspan font-family="Arial" > 0</tspan></text>
	</g>
</g>
<g fill="none" color="black" stroke="currentColor" stroke-width="1.00" stroke-linecap="butt" stroke-linejoin="miter">
	<path stroke='black'  d='M53.9,369.0 L62.9,369.0 M1255.0,369.0 L1246.0,369.0  '/>	<g transform="translate(45.6,372.9)" stroke="none" fill="black" font-family="Arial" font-size="12.00"  text-anchor="end">
		<text><tspan font-family="Arial" > 0.5</tspan></text>
	</g>
</g>
<g fill="none" color="black" stroke="currentColor" stroke-width="1.00" stroke-linecap="butt" stroke-linejoin="miter">
	<path stroke='black'  d='M53.9,54.1 L62.9,54.1 M1255.0,54.1 L1246.0,54.1  '/>	<g transform="translate(45.6,58.0)" stroke="none" fill="black" font-family="Arial" font-size="12.00"  text-anchor="end">
		<text><tspan font-family="Arial" > 1</tspan></text>
	</g>
</g>
<g fill="none" color="black" stroke="currentColor" stroke-width="1.00" stroke-linecap="butt" stroke-linejoin="miter">
	<path stroke='black'  d='M53.9,684.0 L53.9,675.0 M53.9,54.1 L53.9,63.1  '/>	<g transform="translate(53.9,705.9)" stroke="none" fill="black" font-family="Arial" font-size="12.00"  text-anchor="middle">
		<text><tspan font-family="Arial" > 0</tspan></text>
	</g>
</g>
<g fill="none" color="black" stroke="currentColor" stroke-width="1.00" stroke-linecap="butt" stroke-linejoin="miter">
	<path stroke='black'  d='M654.5,684.0 L654.5,675.0 M654.5,54.1 L654.5,63.1  '/>	<g transform="translate(654.5,705.9)" stroke="none" fill="black" font-family="Arial" font-size="12.00"  text-anchor="middle">
		<text><tspan font-family="Arial" >pi/2</tspan></text>
	</g>
</g>
<g fill="none" color="black" stroke="currentColor" stroke-width="1.00" stroke-linecap="butt" stroke-linejoin="miter">
	<path stroke='black'  d='M1255.0,684.0 L1255.0,675.0 M1255.0,54.1 L1255.0,63.1  '/>	<g transform="translate(1255.0,705.9)" stroke="none" fill="black" font-family="Arial" font-size="12.00"  text-anchor="middle">
		<text><tspan font-family="Arial" >pi</tspan></text>
	</g>
</g>
<g fill="none" color="black" stroke="currentColor" stroke-width="1.00" stroke-linecap="butt" stroke-linejoin="miter">
</g>
<g fill="none" color="black" stroke="currentColor" stroke-width="1.00" stroke-linecap="butt" stroke-linejoin="miter">
	<path stroke='black'  d='M53.9,54.1 L53.9,684.0 L1255.0,684.0 L1255.0,54.1 L53.9,54.1 Z  '/></g>
<g fill="none" color="black" stroke="currentColor" stroke-width="1.00" stroke-linecap="butt" stroke-linejoin="miter">
	<g transform="translate(654.4,31.0)" stroke="none" fill="black" font-family="Arial" font-size="12.00"  text-anchor="middle">
		<text><tspan font-family="Arial" >Material 13, with 2 components</tspan></text>
	</g>
</g>
	<g id="gnuplot_plot_1" ><title>scattering function</title>
<g fill="none" color="black" stroke="currentColor" stroke-width="1.00" stroke-linecap="butt" stroke-linejoin="miter">
	<g transform="translate(1187.9,76.0)" stroke="none" fill="black" font-family="Arial" font-size="12.00"  text-anchor="end">
		<text><tspan font-family="Arial" >scattering function</tspan></text>
	</g>
</g>
<g fill="none" color="black" stroke="currentColor" stroke-width="1.00" stroke-linecap="butt" stroke-linejoin="miter">
	<use xlink:href='#gpPt5' transform='translate(56.3,54.1) scale(2.25)' color='rgb(255,   0,   0)'/>
	<use xlink:href='#gpPt5' transform='translate(67.2,124.8) scale(2.25)' color='rgb(255,   0,   0)'/>
	<use xlink:href='#gpPt5' transform='translate(82.5,263.1) scale(2.25)' color='rgb(255,   0,   0)'/>
	<use xlink:href='#gpPt5' transform='translate(97.8,395.3) scale(2.25)' color='rgb(255,   0,   0)'/>
	<use xlink:href='#gpPt5' transform='translate(113.8,507.8) scale(2.25)' color='rgb(255,   0,   0)'/>
	<use xlink:href='#gpPt5' transform='translate(122.0,548.4) scale(2.25)' color='rgb(255,   0,   0)'/>
	<use xlink:href='#gpPt5' transform='translate(135.8,585.0) scale(2.25)' color='rgb(255,   0,   0)'/>
	<use xlink:href='#gpPt5' transform='translate(158.7,626.1) scale(2.25)' color='rgb(255,   0,   0)'/>
	<use xlink:href='#gpPt5' transform='translate(179.2,646.2) scale(2.25)' color='rgb(255,   0,   0)'/>
	<use xlink:href='#gpPt5' transform='translate(211.0,662.2) scale(2.25)' color='rgb(255,   0,   0)'/>
	<use xlink:href='#gpPt5' transform='translate(270.5,674.7) scale(2.25)' color='rgb(255,   0,   0)'/>
	<use xlink:href='#gpPt5' transform='translate(335.6,678.5) scale(2.25)' color='rgb(255,   0,   0)'/>
	<use xlink:href='#gpPt5' transform='translate(405.3,681.3) scale(2.25)' color='rgb(255,   0,   0)'/>
	<use xlink:href='#gpPt5' transform='translate(472.9,682.0) scale(2.25)' color='rgb(255,   0,   0)'/>
	<use xlink:href='#gpPt5' transform='translate(734.8,683.0) scale(2.25)' color='rgb(255,   0,   0)'/>
	<use xlink:href='#gpPt5' transform='translate(993.8,684.0) scale(2.25)' color='rgb(255,   0,   0)'/>
	<use xlink:href='#gpPt5' transform='translate(1255.0,683.7) scale(2.25)' color='rgb(255,   0,   0)'/>
	<use xlink:href='#gpPt5' transform='translate(1217.3,72.1) scale(2.25)' color='rgb(255,   0,   0)'/>
</g>
	</g>
	<g id="gnuplot_plot_2" ><title>fit</title>
<g fill="none" color="black" stroke="currentColor" stroke-width="1.00" stroke-linecap="butt" stroke-linejoin="miter">
	<g transform="translate(1187.9,94.0)" stroke="none" fill="black" font-family="Arial" font-size="12.00"  text-anchor="end">
		<text><tspan font-family="Arial" >fit</tspan></text>
	</g>
</g>
<g fill="none" color="black" stroke="currentColor" stroke-width="1.00" stroke-linecap="butt" stroke-linejoin="miter">
	<path stroke='rgb(255,   0,   0)'  d='M1196.2,90.1 L1238.4,90.1 M53.9,113.6 L55.1,114.0 L56.2,115.0 L57.4,116.7 L58.6,119.1 L59.8,122.2
		L60.9,125.9 L62.1,130.2 L63.3,135.2 L64.5,140.7 L65.6,146.7 L66.8,153.2 L68.0,160.2 L69.2,167.7
		L70.3,175.5 L71.5,183.8 L72.7,192.3 L73.9,201.1 L75.0,210.2 L76.2,219.5 L77.4,228.9 L78.6,238.5
		L79.7,248.3 L80.9,258.1 L82.1,267.9 L83.3,277.8 L84.4,287.6 L85.6,297.5 L86.8,307.2 L87.9,317.0
		L89.1,326.6 L90.3,336.1 L91.5,345.5 L92.6,354.7 L93.8,363.8 L95.0,372.8 L96.2,381.5 L97.3,390.1
		L98.5,398.6 L99.7,406.8 L100.9,414.8 L102.0,422.7 L103.2,430.3 L104.4,437.8 L105.6,445.1 L106.7,452.1
		L107.9,459.0 L109.1,465.7 L110.3,472.2 L111.4,478.5 L112.6,484.6 L113.8,490.5 L115.0,496.3 L116.1,501.9
		L117.3,507.3 L118.5,512.5 L119.6,517.6 L120.8,522.5 L122.0,527.2 L123.2,531.8 L124.3,536.3 L125.5,540.6
		L126.7,544.8 L127.9,548.8 L129.0,552.7 L130.2,556.5 L131.4,560.1 L132.6,563.7 L133.7,567.1 L134.9,570.4
		L136.1,573.6 L137.3,576.7 L138.4,579.7 L139.6,582.6 L140.8,585.4 L142.0,588.1 L143.1,590.7 L144.3,593.2
		L145.5,595.7 L146.7,598.1 L147.8,600.4 L149.0,602.6 L150.2,604.8 L151.3,606.8 L152.5,608.9 L153.7,610.8
		L154.9,612.7 L156.0,614.5 L157.2,616.3 L158.4,618.0 L159.6,619.7 L160.7,621.3 L161.9,622.9 L163.1,624.4
		L164.3,625.9 L165.4,627.3 L166.6,628.7 L167.8,630.0 L169.0,631.3 L170.1,632.6 L171.3,633.8 L172.5,635.0
		L173.7,636.2 L174.8,637.3 L176.0,638.4 L177.2,639.4 L178.4,640.5 L179.5,641.5 L180.7,642.4 L181.9,643.4
		L183.1,644.3 L184.2,645.2 L185.4,646.0 L186.6,646.9 L187.7,647.7 L188.9,648.5 L190.1,649.2 L191.3,650.0
		L192.4,650.7 L193.6,651.4 L194.8,652.1 L196.0,652.8 L197.1,653.4 L198.3,654.1 L199.5,654.7 L200.7,655.3
		L201.8,655.9 L203.0,656.5 L204.2,657.0 L205.4,657.6 L206.5,658.1 L207.7,658.6 L208.9,659.1 L210.1,659.6
		L211.2,660.1 L212.4,660.5 L213.6,661.0 L214.8,661.4 L215.9,661.9 L217.1,662.3 L218.3,662.7 L219.4,663.1
		L220.6,663.5 L221.8,663.9 L223.0,664.3 L224.1,664.6 L225.3,665.0 L226.5,665.3 L227.7,665.7 L228.8,666.0
		L230.0,666.3 L231.2,666.6 L232.4,666.9 L233.5,667.2 L234.7,667.5 L235.9,667.8 L237.1,668.1 L238.2,668.4
		L239.4,668.7 L240.6,668.9 L241.8,669.2 L242.9,669.4 L244.1,669.7 L245.3,669.9 L246.5,670.2 L247.6,670.4
		L248.8,670.6 L250.0,670.8 L251.1,671.0 L252.3,671.3 L253.5,671.5 L254.7,671.7 L255.8,671.9 L257.0,672.1
		L258.2,672.3 L259.4,672.4 L260.5,672.6 L261.7,672.8 L262.9,673.0 L264.1,673.2 L265.2,673.3 L266.4,673.5
		L267.6,673.6 L268.8,673.8 L269.9,674.0 L271.1,674.1 L272.3,674.3 L273.5,674.4 L274.6,674.6 L275.8,674.7
		L277.0,674.8 L278.2,675.0 L279.3,675.1 L280.5,675.2 L281.7,675.4 L282.8,675.5 L284.0,675.6 L285.2,675.7
		L286.4,675.8 L287.5,676.0 L288.7,676.1 L289.9,676.2 L291.1,676.3 L292.2,676.4 L293.4,676.5 L294.6,676.6
		L295.8,676.7 L296.9,676.8 L298.1,676.9 L299.3,677.0 L300.5,677.1 L301.6,677.2 L302.8,677.3 L304.0,677.4
		L305.2,677.5 L306.3,677.6 L307.5,677.7 L308.7,677.7 L309.9,677.8 L311.0,677.9 L312.2,678.0 L313.4,678.1
		L314.5,678.1 L315.7,678.2 L316.9,678.3 L318.1,678.4 L319.2,678.4 L320.4,678.5 L321.6,678.6 L322.8,678.6
		L323.9,678.7 L325.1,678.8 L326.3,678.8 L327.5,678.9 L328.6,679.0 L329.8,679.0 L331.0,679.1 L332.2,679.2
		L333.3,679.2 L334.5,679.3 L335.7,679.3 L336.9,679.4 L338.0,679.4 L339.2,679.5 L340.4,679.6 L341.6,679.6
		L342.7,679.7 L343.9,679.7 L345.1,679.8 L346.2,679.8 L347.4,679.9 L348.6,679.9 L349.8,680.0 L350.9,680.0
		L352.1,680.0 L353.3,680.1 L354.5,680.1 L355.6,680.2 L356.8,680.2 L358.0,680.3 L359.2,680.3 L360.3,680.4
		L361.5,680.4 L362.7,680.4 L363.9,680.5 L365.0,680.5 L366.2,680.6 L367.4,680.6 L368.6,680.6 L369.7,680.7
		L370.9,680.7 L372.1,680.7 L373.3,680.8 L374.4,680.8 L375.6,680.8 L376.8,680.9 L378.0,680.9 L379.1,680.9
		L380.3,681.0 L381.5,681.0 L382.6,681.0 L383.8,681.1 L385.0,681.1 L386.2,681.1 L387.3,681.2 L388.5,681.2
		L389.7,681.2 L390.9,681.3 L392.0,681.3 L393.2,681.3 L394.4,681.3 L395.6,681.4 L396.7,681.4 L397.9,681.4
		L399.1,681.4 L400.3,681.5 L401.4,681.5 L402.6,681.5 L403.8,681.5 L405.0,681.6 L406.1,681.6 L407.3,681.6
		L408.5,681.6 L409.7,681.7 L410.8,681.7 L412.0,681.7 L413.2,681.7 L414.3,681.8 L415.5,681.8 L416.7,681.8
		L417.9,681.8 L419.0,681.8 L420.2,681.9 L421.4,681.9 L422.6,681.9 L423.7,681.9 L424.9,681.9 L426.1,682.0
		L427.3,682.0 L428.4,682.0 L429.6,682.0 L430.8,682.0 L432.0,682.1 L433.1,682.1 L434.3,682.1 L435.5,682.1
		L436.7,682.1 L437.8,682.1 L439.0,682.2 L440.2,682.2 L441.4,682.2 L442.5,682.2 L443.7,682.2 L444.9,682.2
		L446.0,682.3 L447.2,682.3 L448.4,682.3 L449.6,682.3 L450.7,682.3 L451.9,682.3 L453.1,682.3 L454.3,682.4
		L455.4,682.4 L456.6,682.4 L457.8,682.4 L459.0,682.4 L460.1,682.4 L461.3,682.4 L462.5,682.5 L463.7,682.5
		L464.8,682.5 L466.0,682.5 L467.2,682.5 L468.4,682.5 L469.5,682.5 L470.7,682.5 L471.9,682.6 L473.1,682.6
		L474.2,682.6 L475.4,682.6 L476.6,682.6 L477.7,682.6 L478.9,682.6 L480.1,682.6 L481.3,682.6 L482.4,682.7
		L483.6,682.7 L484.8,682.7 L486.0,682.7 L487.1,682.7 L488.3,682.7 L489.5,682.7 L490.7,682.7 L491.8,682.7
		L493.0,682.8 L494.2,682.8 L495.4,682.8 L496.5,682.8 L497.7,682.8 L498.9,682.8 L500.1,682.8 L501.2,682.8
		L502.4,682.8 L503.6,682.8 L504.8,682.8 L505.9,682.9 L507.1,682.9 L508.3,682.9 L509.4,682.9 L510.6,682.9
		L511.8,682.9 L513.0,682.9 L514.1,682.9 L515.3,682.9 L516.5,682.9 L517.7,682.9 L518.8,682.9 L520.0,682.9
		L521.2,683.0 L522.4,683.0 L523.5,683.0 L524.7,683.0 L525.9,683.0 L527.1,683.0 L528.2,683.0 L529.4,683.0
		L530.6,683.0 L531.8,683.0 L532.9,683.0 L534.1,683.0 L535.3,683.0 L536.5,683.0 L537.6,683.0 L538.8,683.1
		L540.0,683.1 L541.1,683.1 L542.3,683.1 L543.5,683.1 L544.7,683.1 L545.8,683.1 L547.0,683.1 L548.2,683.1
		L549.4,683.1 L550.5,683.1 L551.7,683.1 L552.9,683.1 L554.1,683.1 L555.2,683.1 L556.4,683.1 L557.6,683.1
		L558.8,683.2 L559.9,683.2 L561.1,683.2 L562.3,683.2 L563.5,683.2 L564.6,683.2 L565.8,683.2 L567.0,683.2
		L568.2,683.2 L569.3,683.2 L570.5,683.2 L571.7,683.2 L572.9,683.2 L574.0,683.2 L575.2,683.2 L576.4,683.2
		L577.5,683.2 L578.7,683.2 L579.9,683.2 L581.1,683.2 L582.2,683.2 L583.4,683.2 L584.6,683.3 L585.8,683.3
		L586.9,683.3 L588.1,683.3 L589.3,683.3 L590.5,683.3 L591.6,683.3 L592.8,683.3 L594.0,683.3 L595.2,683.3
		L596.3,683.3 L597.5,683.3 L598.7,683.3 L599.9,683.3 L601.0,683.3 L602.2,683.3 L603.4,683.3 L604.6,683.3
		L605.7,683.3 L606.9,683.3 L608.1,683.3 L609.2,683.3 L610.4,683.3 L611.6,683.3 L612.8,683.3 L613.9,683.3
		L615.1,683.3 L616.3,683.3 L617.5,683.3 L618.6,683.4 L619.8,683.4 L621.0,683.4 L622.2,683.4 L623.3,683.4
		L624.5,683.4 L625.7,683.4 L626.9,683.4 L628.0,683.4 L629.2,683.4 L630.4,683.4 L631.6,683.4 L632.7,683.4
		L633.9,683.4 L635.1,683.4 L636.3,683.4 L637.4,683.4 L638.6,683.4 L639.8,683.4 L640.9,683.4 L642.1,683.4
		L643.3,683.4 L644.5,683.4 L645.6,683.4 L646.8,683.4 L648.0,683.4 L649.2,683.4 L650.3,683.4 L651.5,683.4
		L652.7,683.4 L653.9,683.4 L655.0,683.4 L656.2,683.4 L657.4,683.4 L658.6,683.4 L659.7,683.4 L660.9,683.4
		L662.1,683.4 L663.3,683.4 L664.4,683.4 L665.6,683.4 L666.8,683.4 L668.0,683.4 L669.1,683.4 L670.3,683.5
		L671.5,683.5 L672.6,683.5 L673.8,683.5 L675.0,683.5 L676.2,683.5 L677.3,683.5 L678.5,683.5 L679.7,683.5
		L680.9,683.5 L682.0,683.5 L683.2,683.5 L684.4,683.5 L685.6,683.5 L686.7,683.5 L687.9,683.5 L689.1,683.5
		L690.3,683.5 L691.4,683.5 L692.6,683.5 L693.8,683.5 L695.0,683.5 L696.1,683.5 L697.3,683.5 L698.5,683.5
		L699.7,683.5 L700.8,683.5 L702.0,683.5 L703.2,683.5 L704.3,683.5 L705.5,683.5 L706.7,683.5 L707.9,683.5
		L709.0,683.5 L710.2,683.5 L711.4,683.5 L712.6,683.5 L713.7,683.5 L714.9,683.5 L716.1,683.5 L717.3,683.5
		L718.4,683.5 L719.6,683.5 L720.8,683.5 L722.0,683.5 L723.1,683.5 L724.3,683.5 L725.5,683.5 L726.7,683.5
		L727.8,683.5 L729.0,683.5 L730.2,683.5 L731.4,683.5 L732.5,683.5 L733.7,683.5 L734.9,683.5 L736.0,683.5
		L737.2,683.5 L738.4,683.5 L739.6,683.5 L740.7,683.5 L741.9,683.5 L743.1,683.5 L744.3,683.5 L745.4,683.5
		L746.6,683.5 L747.8,683.5 L749.0,683.5 L750.1,683.5 L751.3,683.5 L752.5,683.5 L753.7,683.5 L754.8,683.5
		L756.0,683.5 L757.2,683.5 L758.4,683.5 L759.5,683.5 L760.7,683.5 L761.9,683.5 L763.1,683.5 L764.2,683.5
		L765.4,683.5 L766.6,683.5 L767.8,683.5 L768.9,683.5 L770.1,683.5 L771.3,683.5 L772.4,683.5 L773.6,683.5
		L774.8,683.5 L776.0,683.5 L777.1,683.5 L778.3,683.5 L779.5,683.5 L780.7,683.5 L781.8,683.5 L783.0,683.5
		L784.2,683.5 L785.4,683.5 L786.5,683.5 L787.7,683.5 L788.9,683.5 L790.1,683.5 L791.2,683.5 L792.4,683.5
		L793.6,683.5 L794.8,683.5 L795.9,683.5 L797.1,683.5 L798.3,683.5 L799.5,683.5 L800.6,683.5 L801.8,683.5
		L803.0,683.5 L804.1,683.5 L805.3,683.5 L806.5,683.5 L807.7,683.5 L808.8,683.5 L810.0,683.5 L811.2,683.5
		L812.4,683.5 L813.5,683.5 L814.7,683.5 L815.9,683.5 L817.1,683.5 L818.2,683.5 L819.4,683.5 L820.6,683.5
		L821.8,683.5 L822.9,683.5 L824.1,683.5 L825.3,683.5 L826.5,683.5 L827.6,683.5 L828.8,683.5 L830.0,683.5
		L831.2,683.5 L832.3,683.5 L833.5,683.5 L834.7,683.5 L835.8,683.5 L837.0,683.5 L838.2,683.5 L839.4,683.5
		L840.5,683.5 L841.7,683.5 L842.9,683.5 L844.1,683.5 L845.2,683.5 L846.4,683.5 L847.6,683.5 L848.8,683.5
		L849.9,683.5 L851.1,683.5 L852.3,683.5 L853.5,683.5 L854.6,683.5 L855.8,683.5 L857.0,683.5 L858.2,683.5
		L859.3,683.5 L860.5,683.5 L861.7,683.5 L862.9,683.5 L864.0,683.5 L865.2,683.5 L866.4,683.5 L867.5,683.5
		L868.7,683.5 L869.9,683.5 L871.1,683.5 L872.2,683.5 L873.4,683.5 L874.6,683.5 L875.8,683.5 L876.9,683.5
		L878.1,683.5 L879.3,683.5 L880.5,683.5 L881.6,683.5 L882.8,683.5 L884.0,683.5 L885.2,683.5 L886.3,683.5
		L887.5,683.5 L888.7,683.5 L889.9,683.5 L891.0,683.5 L892.2,683.5 L893.4,683.5 L894.6,683.5 L895.7,683.5
		L896.9,683.5 L898.1,683.5 L899.2,683.5 L900.4,683.5 L901.6,683.5 L902.8,683.5 L903.9,683.5 L905.1,683.5
		L906.3,683.5 L907.5,683.5 L908.6,683.5 L909.8,683.5 L911.0,683.5 L912.2,683.5 L913.3,683.5 L914.5,683.5
		L915.7,683.5 L916.9,683.5 L918.0,683.5 L919.2,683.5 L920.4,683.5 L921.6,683.5 L922.7,683.5 L923.9,683.5
		L925.1,683.5 L926.3,683.5 L927.4,683.5 L928.6,683.5 L929.8,683.5 L930.9,683.5 L932.1,683.5 L933.3,683.5
		L934.5,683.5 L935.6,683.5 L936.8,683.5 L938.0,683.5 L939.2,683.5 L940.3,683.5 L941.5,683.5 L942.7,683.5
		L943.9,683.5 L945.0,683.5 L946.2,683.5 L947.4,683.5 L948.6,683.5 L949.7,683.5 L950.9,683.5 L952.1,683.5
		L953.3,683.5 L954.4,683.5 L955.6,683.5 L956.8,683.5 L958.0,683.5 L959.1,683.5 L960.3,683.5 L961.5,683.5
		L962.7,683.5 L963.8,683.5 L965.0,683.5 L966.2,683.5 L967.3,683.5 L968.5,683.5 L969.7,683.5 L970.9,683.5
		L972.0,683.5 L973.2,683.5 L974.4,683.5 L975.6,683.5 L976.7,683.5 L977.9,683.5 L979.1,683.5 L980.3,683.5
		L981.4,683.5 L982.6,683.5 L983.8,683.5 L985.0,683.5 L986.1,683.5 L987.3,683.5 L988.5,683.5 L989.7,683.5
		L990.8,683.5 L992.0,683.5 L993.2,683.5 L994.4,683.5 L995.5,683.5 L996.7,683.5 L997.9,683.5 L999.0,683.5
		L1000.2,683.5 L1001.4,683.5 L1002.6,683.5 L1003.7,683.5 L1004.9,683.5 L1006.1,683.5 L1007.3,683.5 L1008.4,683.5
		L1009.6,683.5 L1010.8,683.5 L1012.0,683.5 L1013.1,683.5 L1014.3,683.5 L1015.5,683.5 L1016.7,683.5 L1017.8,683.5
		L1019.0,683.5 L1020.2,683.5 L1021.4,683.5 L1022.5,683.5 L1023.7,683.5 L1024.9,683.5 L1026.1,683.5 L1027.2,683.5
		L1028.4,683.5 L1029.6,683.5 L1030.7,683.5 L1031.9,683.5 L1033.1,683.5 L1034.3,683.5 L1035.4,683.5 L1036.6,683.5
		L1037.8,683.5 L1039.0,683.5 L1040.1,683.5 L1041.3,683.5 L1042.5,683.5 L1043.7,683.5 L1044.8,683.5 L1046.0,683.5
		L1047.2,683.5 L1048.4,683.5 L1049.5,683.5 L1050.7,683.5 L1051.9,683.5 L1053.1,683.5 L1054.2,683.5 L1055.4,683.5
		L1056.6,683.5 L1057.8,683.5 L1058.9,683.5 L1060.1,683.5 L1061.3,683.5 L1062.4,683.5 L1063.6,683.5 L1064.8,683.5
		L1066.0,683.5 L1067.1,683.5 L1068.3,683.5 L1069.5,683.5 L1070.7,683.5 L1071.8,683.5 L1073.0,683.5 L1074.2,683.5
		L1075.4,683.5 L1076.5,683.5 L1077.7,683.5 L1078.9,683.5 L1080.1,683.5 L1081.2,683.5 L1082.4,683.5 L1083.6,683.5
		L1084.8,683.5 L1085.9,683.5 L1087.1,683.5 L1088.3,683.5 L1089.5,683.5 L1090.6,683.5 L1091.8,683.5 L1093.0,683.4
		L1094.1,683.4 L1095.3,683.4 L1096.5,683.4 L1097.7,683.4 L1098.8,683.4 L1100.0,683.4 L1101.2,683.4 L1102.4,683.4
		L1103.5,683.4 L1104.7,683.4 L1105.9,683.4 L1107.1,683.4 L1108.2,683.4 L1109.4,683.4 L1110.6,683.4 L1111.8,683.4
		L1112.9,683.4 L1114.1,683.4 L1115.3,683.4 L1116.5,683.4 L1117.6,683.4 L1118.8,683.4 L1120.0,683.4 L1121.2,683.4
		L1122.3,683.4 L1123.5,683.4 L1124.7,683.4 L1125.8,683.4 L1127.0,683.4 L1128.2,683.4 L1129.4,683.4 L1130.5,683.4
		L1131.7,683.4 L1132.9,683.4 L1134.1,683.4 L1135.2,683.4 L1136.4,683.4 L1137.6,683.4 L1138.8,683.4 L1139.9,683.4
		L1141.1,683.4 L1142.3,683.4 L1143.5,683.4 L1144.6,683.4 L1145.8,683.4 L1147.0,683.4 L1148.2,683.4 L1149.3,683.4
		L1150.5,683.4 L1151.7,683.4 L1152.9,683.4 L1154.0,683.4 L1155.2,683.4 L1156.4,683.4 L1157.6,683.4 L1158.7,683.4
		L1159.9,683.4 L1161.1,683.4 L1162.2,683.4 L1163.4,683.4 L1164.6,683.4 L1165.8,683.4 L1166.9,683.4 L1168.1,683.4
		L1169.3,683.4 L1170.5,683.4 L1171.6,683.4 L1172.8,683.4 L1174.0,683.4 L1175.2,683.4 L1176.3,683.4 L1177.5,683.4
		L1178.7,683.4 L1179.9,683.4 L1181.0,683.4 L1182.2,683.4 L1183.4,683.4 L1184.6,683.4 L1185.7,683.4 L1186.9,683.4
		L1188.1,683.4 L1189.3,683.4 L1190.4,683.4 L1191.6,683.4 L1192.8,683.4 L1193.9,683.4 L1195.1,683.4 L1196.3,683.4
		L1197.5,683.4 L1198.6,683.4 L1199.8,683.4 L1201.0,683.4 L1202.2,683.4 L1203.3,683.4 L1204.5,683.4 L1205.7,683.4
		L1206.9,683.4 L1208.0,683.4 L1209.2,683.4 L1210.4,683.4 L1211.6,683.4 L1212.7,683.4 L1213.9,683.4 L1215.1,683.4
		L1216.3,683.4 L1217.4,683.4 L1218.6,683.4 L1219.8,683.4 L1221.0,683.4 L1222.1,683.4 L1223.3,683.4 L1224.5,683.4
		L1225.6,683.4 L1226.8,683.4 L1228.0,683.4 L1229.2,683.4 L1230.3,683.4 L1231.5,683.4 L1232.7,683.4 L1233.9,683.4
		L1235.0,683.4 L1236.2,683.4 L1237.4,683.4 L1238.6,683.4 L1239.7,683.4 L1240.9,683.4 L1242.1,683.4 L1243.3,683.4
		L1244.4,683.4 L1245.6,683.4 L1246.8,683.4 L1248.0,683.4 L1249.1,683.4 L1250.3,683.4 L1251.5,683.4 L1252.7,683.4
		L1253.8,683.4 L1255.0,683.4  '/></g>
	</g>
<g fill="none" color="white" stroke="rgb(255,   0,   0)" stroke-width="2.00" stroke-linecap="butt" stroke-linejoin="miter">
</g>
<g fill="none" color="black" stroke="currentColor" stroke-width="2.00" stroke-linecap="butt" stroke-linejoin="miter">
</g>
<g fill="none" color="black" stroke="black" stroke-width="1.00" stroke-linecap="butt" stroke-linejoin="miter">
</g>
<g fill="none" color="black" stroke="currentColor" stroke-width="1.00" stroke-linecap="butt" stroke-linejoin="miter">
	<path stroke='black'  d='M53.9,54.1 L53.9,684.0 L1255.0,684.0 L1255.0,54.1 L53.9,54.1 Z  '/></g>
<g fill="none" color="black" stroke="currentColor" stroke-width="1.00" stroke-linecap="butt" stroke-linejoin="miter">
</g>
</g>
</svg>

