<?xml version="1.0" encoding="utf-8"  standalone="no"?>
<svg 
 width="1280" height="720"
 viewBox="0 0 1280 720"
 xmlns="http://www.w3.org/2000/svg"
 xmlns:xlink="http://www.w3.org/1999/xlink"
>

<title>Gnuplot</title>
<desc>Produced by GNUPLOT 5.0 patchlevel 6 </desc>

<g id="gnuplot_canvas">

<rect x="0" y="0" width="1280" height="720" fill="none"/>
<defs>

	<circle id='gpDot' r='0.5' stroke-width='0.5'/>
	<path id='gpPt0' stroke-width='0.222' stroke='currentColor' d='M-1,0 h2 M0,-1 v2'/>
	<path id='gpPt1' stroke-width='0.222' stroke='currentColor' d='M-1,-1 L1,1 M1,-1 L-1,1'/>
	<path id='gpPt2' stroke-width='0.222' stroke='currentColor' d='M-1,0 L1,0 M0,-1 L0,1 M-1,-1 L1,1 M-1,1 L1,-1'/>
	<rect id='gpPt3' stroke-width='0.222' stroke='currentColor' x='-1' y='-1' width='2' height='2'/>
	<rect id='gpPt4' stroke-width='0.222' stroke='currentColor' fill='currentColor' x='-1' y='-1' width='2' height='2'/>
	<circle id='gpPt5' stroke-width='0.222' stroke='currentColor' cx='0' cy='0' r='1'/>
	<use xlink:href='#gpPt5' id='gpPt6' fill='currentColor' stroke='none'/>
	<path id='gpPt7' stroke-width='0.222' stroke='currentColor' d='M0,-1.33 L-1.33,0.67 L1.33,0.67 z'/>
	<use xlink:href='#gpPt7' id='gpPt8' fill='currentColor' stroke='none'/>
	<use xlink:href='#gpPt7' id='gpPt9' stroke='currentColor' transform='rotate(180)'/>
	<use xlink:href='#gpPt9' id='gpPt10' fill='currentColor' stroke='none'/>
	<use xlink:href='#gpPt3' id='gpPt11' stroke='currentColor' transform='rotate(45)'/>
	<use xlink:href='#gpPt11' id='gpPt12' fill='currentColor' stroke='none'/>
	<path id='gpPt13' stroke-width='0.222' stroke='currentColor' d='M0,1.330 L1.265,0.411 L0.782,-1.067 L-0.782,-1.076 L-1.265,0.411 z'/>
	<use xlink:href='#gpPt13' id='gpPt14' fill='currentColor' stroke='none'/>
	<filter id='textbox' filterUnits='objectBoundingBox' x='0' y='0' height='1' width='1'>
	  <feFlood flood-color='white' flood-opacity='1' result='bgnd'/>
	  <feComposite in='SourceGraphic' in2='bgnd' operator='atop'/>
	</filter>
	<filter id='greybox' filterUnits='objectBoundingBox' x='0' y='0' height='1' width='1'>
	  <feFlood flood-color='lightgrey' flood-opacity='1' result='grey'/>
	  <feComposite in='SourceGraphic' in2='grey' operator='atop'/>
	</filter>
</defs>
<g fill="none" color="white" stroke="currentColor" stroke-width="1.00" stroke-linecap="butt" stroke-linejoin="miter">
</g>
<g fill="none" color="black" stroke="currentColor" stroke-width="1.00" stroke-linecap="butt" stroke-linejoin="miter">
	<path stroke='black'  d='M78.8,684.0 L87.8,684.0 M1255.0,684.0 L1246.0,684.0  '/>	<g transform="translate(70.5,687.9)" stroke="none" fill="black" font-family="Arial" font-size="12.00"  text-anchor="end">
		<text><tspan font-family="Arial" >0.00007</tspan></text>
	</g>
</g>
<g fill="none" color="black" stroke="currentColor" stroke-width="1.00" stroke-linecap="butt" stroke-linejoin="miter">
	<path stroke='black'  d='M78.8,369.0 L87.8,369.0 M1255.0,369.0 L1246.0,369.0  '/>	<g transform="translate(70.5,372.9)" stroke="none" fill="black" font-family="Arial" font-size="12.00"  text-anchor="end">
		<text><tspan font-family="Arial" >0.00191</tspan></text>
	</g>
</g>
<g fill="none" color="black" stroke="currentColor" stroke-width="1.00" stroke-linecap="butt" stroke-linejoin="miter">
	<path stroke='black'  d='M78.8,54.1 L87.8,54.1 M1255.0,54.1 L1246.0,54.1  '/>	<g transform="translate(70.5,58.0)" stroke="none" fill="black" font-family="Arial" font-size="12.00"  text-anchor="end">
		<text><tspan font-family="Arial" >0.04975</tspan></text>
	</g>
</g>
<g fill="none" color="black" stroke="currentColor" stroke-width="1.00" stroke-linecap="butt" stroke-linejoin="miter">
	<path stroke='black'  d='M78.8,684.0 L78.8,675.0 M78.8,54.1 L78.8,63.1  '/>	<g transform="translate(78.8,705.9)" stroke="none" fill="black" font-family="Arial" font-size="12.00"  text-anchor="middle">
		<text><tspan font-family="Arial" > 0</tspan></text>
	</g>
</g>
<g fill="none" color="black" stroke="currentColor" stroke-width="1.00" stroke-linecap="butt" stroke-linejoin="miter">
	<path stroke='black'  d='M666.9,684.0 L666.9,675.0 M666.9,54.1 L666.9,63.1  '/>	<g transform="translate(666.9,705.9)" stroke="none" fill="black" font-family="Arial" font-size="12.00"  text-anchor="middle">
		<text><tspan font-family="Arial" >pi/2</tspan></text>
	</g>
</g>
<g fill="none" color="black" stroke="currentColor" stroke-width="1.00" stroke-linecap="butt" stroke-linejoin="miter">
	<path stroke='black'  d='M1255.0,684.0 L1255.0,675.0 M1255.0,54.1 L1255.0,63.1  '/>	<g transform="translate(1255.0,705.9)" stroke="none" fill="black" font-family="Arial" font-size="12.00"  text-anchor="middle">
		<text><tspan font-family="Arial" >pi</tspan></text>
	</g>
</g>
<g fill="none" color="black" stroke="currentColor" stroke-width="1.00" stroke-linecap="butt" stroke-linejoin="miter">
</g>
<g fill="none" color="black" stroke="currentColor" stroke-width="1.00" stroke-linecap="butt" stroke-linejoin="miter">
	<path stroke='black'  d='M78.8,54.1 L78.8,684.0 L1255.0,684.0 L1255.0,54.1 L78.8,54.1 Z  '/></g>
<g fill="none" color="black" stroke="currentColor" stroke-width="1.00" stroke-linecap="butt" stroke-linejoin="miter">
	<g transform="translate(666.9,31.0)" stroke="none" fill="black" font-family="Arial" font-size="12.00"  text-anchor="middle">
		<text><tspan font-family="Arial" >Material 48, with 8 components</tspan></text>
	</g>
</g>
	<g id="gnuplot_plot_1" ><title>scattering function</title>
<g fill="none" color="black" stroke="currentColor" stroke-width="1.00" stroke-linecap="butt" stroke-linejoin="miter">
	<g transform="translate(1187.9,76.0)" stroke="none" fill="black" font-family="Arial" font-size="12.00"  text-anchor="end">
		<text><tspan font-family="Arial" >scattering function</tspan></text>
	</g>
</g>
<g fill="none" color="black" stroke="currentColor" stroke-width="1.00" stroke-linecap="butt" stroke-linejoin="miter">
	<use xlink:href='#gpPt5' transform='translate(78.8,98.2) scale(2.25)' color='rgb(255,   0,   0)'/>
	<use xlink:href='#gpPt5' transform='translate(79.5,98.2) scale(2.25)' color='rgb(255,   0,   0)'/>
	<use xlink:href='#gpPt5' transform='translate(80.1,98.3) scale(2.25)' color='rgb(255,   0,   0)'/>
	<use xlink:href='#gpPt5' transform='translate(80.8,98.5) scale(2.25)' color='rgb(255,   0,   0)'/>
	<use xlink:href='#gpPt5' transform='translate(81.4,98.7) scale(2.25)' color='rgb(255,   0,   0)'/>
	<use xlink:href='#gpPt5' transform='translate(82.1,99.0) scale(2.25)' color='rgb(255,   0,   0)'/>
	<use xlink:href='#gpPt5' transform='translate(82.7,99.3) scale(2.25)' color='rgb(255,   0,   0)'/>
	<use xlink:href='#gpPt5' transform='translate(83.4,99.7) scale(2.25)' color='rgb(255,   0,   0)'/>
	<use xlink:href='#gpPt5' transform='translate(84.0,100.1) scale(2.25)' color='rgb(255,   0,   0)'/>
	<use xlink:href='#gpPt5' transform='translate(84.7,100.5) scale(2.25)' color='rgb(255,   0,   0)'/>
	<use xlink:href='#gpPt5' transform='translate(85.3,101.0) scale(2.25)' color='rgb(255,   0,   0)'/>
	<use xlink:href='#gpPt5' transform='translate(86.0,101.5) scale(2.25)' color='rgb(255,   0,   0)'/>
	<use xlink:href='#gpPt5' transform='translate(86.6,102.0) scale(2.25)' color='rgb(255,   0,   0)'/>
	<use xlink:href='#gpPt5' transform='translate(87.3,102.6) scale(2.25)' color='rgb(255,   0,   0)'/>
	<use xlink:href='#gpPt5' transform='translate(87.9,103.2) scale(2.25)' color='rgb(255,   0,   0)'/>
	<use xlink:href='#gpPt5' transform='translate(88.6,103.7) scale(2.25)' color='rgb(255,   0,   0)'/>
	<use xlink:href='#gpPt5' transform='translate(89.3,104.3) scale(2.25)' color='rgb(255,   0,   0)'/>
	<use xlink:href='#gpPt5' transform='translate(89.9,104.9) scale(2.25)' color='rgb(255,   0,   0)'/>
	<use xlink:href='#gpPt5' transform='translate(90.6,105.5) scale(2.25)' color='rgb(255,   0,   0)'/>
	<use xlink:href='#gpPt5' transform='translate(91.2,106.2) scale(2.25)' color='rgb(255,   0,   0)'/>
	<use xlink:href='#gpPt5' transform='translate(91.9,106.8) scale(2.25)' color='rgb(255,   0,   0)'/>
	<use xlink:href='#gpPt5' transform='translate(98.4,113.7) scale(2.25)' color='rgb(255,   0,   0)'/>
	<use xlink:href='#gpPt5' transform='translate(104.9,121.0) scale(2.25)' color='rgb(255,   0,   0)'/>
	<use xlink:href='#gpPt5' transform='translate(111.5,128.5) scale(2.25)' color='rgb(255,   0,   0)'/>
	<use xlink:href='#gpPt5' transform='translate(118.0,136.2) scale(2.25)' color='rgb(255,   0,   0)'/>
	<use xlink:href='#gpPt5' transform='translate(131.1,151.9) scale(2.25)' color='rgb(255,   0,   0)'/>
	<use xlink:href='#gpPt5' transform='translate(144.1,167.5) scale(2.25)' color='rgb(255,   0,   0)'/>
	<use xlink:href='#gpPt5' transform='translate(157.2,183.2) scale(2.25)' color='rgb(255,   0,   0)'/>
	<use xlink:href='#gpPt5' transform='translate(170.3,198.8) scale(2.25)' color='rgb(255,   0,   0)'/>
	<use xlink:href='#gpPt5' transform='translate(183.4,214.5) scale(2.25)' color='rgb(255,   0,   0)'/>
	<use xlink:href='#gpPt5' transform='translate(196.4,230.0) scale(2.25)' color='rgb(255,   0,   0)'/>
	<use xlink:href='#gpPt5' transform='translate(209.5,245.5) scale(2.25)' color='rgb(255,   0,   0)'/>
	<use xlink:href='#gpPt5' transform='translate(222.6,260.9) scale(2.25)' color='rgb(255,   0,   0)'/>
	<use xlink:href='#gpPt5' transform='translate(235.6,276.1) scale(2.25)' color='rgb(255,   0,   0)'/>
	<use xlink:href='#gpPt5' transform='translate(248.7,291.2) scale(2.25)' color='rgb(255,   0,   0)'/>
	<use xlink:href='#gpPt5' transform='translate(261.8,306.2) scale(2.25)' color='rgb(255,   0,   0)'/>
	<use xlink:href='#gpPt5' transform='translate(274.8,321.0) scale(2.25)' color='rgb(255,   0,   0)'/>
	<use xlink:href='#gpPt5' transform='translate(287.9,335.7) scale(2.25)' color='rgb(255,   0,   0)'/>
	<use xlink:href='#gpPt5' transform='translate(301.0,350.1) scale(2.25)' color='rgb(255,   0,   0)'/>
	<use xlink:href='#gpPt5' transform='translate(314.0,364.3) scale(2.25)' color='rgb(255,   0,   0)'/>
	<use xlink:href='#gpPt5' transform='translate(327.1,378.2) scale(2.25)' color='rgb(255,   0,   0)'/>
	<use xlink:href='#gpPt5' transform='translate(340.2,392.0) scale(2.25)' color='rgb(255,   0,   0)'/>
	<use xlink:href='#gpPt5' transform='translate(353.2,405.4) scale(2.25)' color='rgb(255,   0,   0)'/>
	<use xlink:href='#gpPt5' transform='translate(366.3,418.6) scale(2.25)' color='rgb(255,   0,   0)'/>
	<use xlink:href='#gpPt5' transform='translate(379.4,431.5) scale(2.25)' color='rgb(255,   0,   0)'/>
	<use xlink:href='#gpPt5' transform='translate(392.5,444.2) scale(2.25)' color='rgb(255,   0,   0)'/>
	<use xlink:href='#gpPt5' transform='translate(405.5,456.6) scale(2.25)' color='rgb(255,   0,   0)'/>
	<use xlink:href='#gpPt5' transform='translate(418.6,468.7) scale(2.25)' color='rgb(255,   0,   0)'/>
	<use xlink:href='#gpPt5' transform='translate(431.7,480.5) scale(2.25)' color='rgb(255,   0,   0)'/>
	<use xlink:href='#gpPt5' transform='translate(444.7,492.0) scale(2.25)' color='rgb(255,   0,   0)'/>
	<use xlink:href='#gpPt5' transform='translate(457.8,503.3) scale(2.25)' color='rgb(255,   0,   0)'/>
	<use xlink:href='#gpPt5' transform='translate(470.9,514.3) scale(2.25)' color='rgb(255,   0,   0)'/>
	<use xlink:href='#gpPt5' transform='translate(483.9,524.9) scale(2.25)' color='rgb(255,   0,   0)'/>
	<use xlink:href='#gpPt5' transform='translate(497.0,535.2) scale(2.25)' color='rgb(255,   0,   0)'/>
	<use xlink:href='#gpPt5' transform='translate(510.1,545.2) scale(2.25)' color='rgb(255,   0,   0)'/>
	<use xlink:href='#gpPt5' transform='translate(523.1,555.1) scale(2.25)' color='rgb(255,   0,   0)'/>
	<use xlink:href='#gpPt5' transform='translate(536.2,564.5) scale(2.25)' color='rgb(255,   0,   0)'/>
	<use xlink:href='#gpPt5' transform='translate(549.3,573.5) scale(2.25)' color='rgb(255,   0,   0)'/>
	<use xlink:href='#gpPt5' transform='translate(562.3,582.3) scale(2.25)' color='rgb(255,   0,   0)'/>
	<use xlink:href='#gpPt5' transform='translate(575.4,590.8) scale(2.25)' color='rgb(255,   0,   0)'/>
	<use xlink:href='#gpPt5' transform='translate(588.5,598.9) scale(2.25)' color='rgb(255,   0,   0)'/>
	<use xlink:href='#gpPt5' transform='translate(601.6,606.7) scale(2.25)' color='rgb(255,   0,   0)'/>
	<use xlink:href='#gpPt5' transform='translate(614.6,614.2) scale(2.25)' color='rgb(255,   0,   0)'/>
	<use xlink:href='#gpPt5' transform='translate(627.7,621.4) scale(2.25)' color='rgb(255,   0,   0)'/>
	<use xlink:href='#gpPt5' transform='translate(640.8,628.1) scale(2.25)' color='rgb(255,   0,   0)'/>
	<use xlink:href='#gpPt5' transform='translate(653.8,634.4) scale(2.25)' color='rgb(255,   0,   0)'/>
	<use xlink:href='#gpPt5' transform='translate(666.9,640.5) scale(2.25)' color='rgb(255,   0,   0)'/>
	<use xlink:href='#gpPt5' transform='translate(680.0,646.2) scale(2.25)' color='rgb(255,   0,   0)'/>
	<use xlink:href='#gpPt5' transform='translate(693.0,651.5) scale(2.25)' color='rgb(255,   0,   0)'/>
	<use xlink:href='#gpPt5' transform='translate(706.1,656.6) scale(2.25)' color='rgb(255,   0,   0)'/>
	<use xlink:href='#gpPt5' transform='translate(719.2,661.2) scale(2.25)' color='rgb(255,   0,   0)'/>
	<use xlink:href='#gpPt5' transform='translate(732.2,665.2) scale(2.25)' color='rgb(255,   0,   0)'/>
	<use xlink:href='#gpPt5' transform='translate(745.3,668.8) scale(2.25)' color='rgb(255,   0,   0)'/>
	<use xlink:href='#gpPt5' transform='translate(758.4,672.2) scale(2.25)' color='rgb(255,   0,   0)'/>
	<use xlink:href='#gpPt5' transform='translate(771.5,675.3) scale(2.25)' color='rgb(255,   0,   0)'/>
	<use xlink:href='#gpPt5' transform='translate(784.5,677.7) scale(2.25)' color='rgb(255,   0,   0)'/>
	<use xlink:href='#gpPt5' transform='translate(797.6,679.8) scale(2.25)' color='rgb(255,   0,   0)'/>
	<use xlink:href='#gpPt5' transform='translate(810.7,681.6) scale(2.25)' color='rgb(255,   0,   0)'/>
	<use xlink:href='#gpPt5' transform='translate(823.7,682.8) scale(2.25)' color='rgb(255,   0,   0)'/>
	<use xlink:href='#gpPt5' transform='translate(836.8,683.5) scale(2.25)' color='rgb(255,   0,   0)'/>
	<use xlink:href='#gpPt5' transform='translate(849.9,684.0) scale(2.25)' color='rgb(255,   0,   0)'/>
	<use xlink:href='#gpPt5' transform='translate(862.9,684.0) scale(2.25)' color='rgb(255,   0,   0)'/>
	<use xlink:href='#gpPt5' transform='translate(876.0,683.5) scale(2.25)' color='rgb(255,   0,   0)'/>
	<use xlink:href='#gpPt5' transform='translate(889.1,682.5) scale(2.25)' color='rgb(255,   0,   0)'/>
	<use xlink:href='#gpPt5' transform='translate(902.1,681.2) scale(2.25)' color='rgb(255,   0,   0)'/>
	<use xlink:href='#gpPt5' transform='translate(915.2,679.4) scale(2.25)' color='rgb(255,   0,   0)'/>
	<use xlink:href='#gpPt5' transform='translate(928.3,677.0) scale(2.25)' color='rgb(255,   0,   0)'/>
	<use xlink:href='#gpPt5' transform='translate(941.3,674.2) scale(2.25)' color='rgb(255,   0,   0)'/>
	<use xlink:href='#gpPt5' transform='translate(954.4,670.9) scale(2.25)' color='rgb(255,   0,   0)'/>
	<use xlink:href='#gpPt5' transform='translate(967.5,667.4) scale(2.25)' color='rgb(255,   0,   0)'/>
	<use xlink:href='#gpPt5' transform='translate(980.6,663.6) scale(2.25)' color='rgb(255,   0,   0)'/>
	<use xlink:href='#gpPt5' transform='translate(993.6,659.4) scale(2.25)' color='rgb(255,   0,   0)'/>
	<use xlink:href='#gpPt5' transform='translate(1006.7,654.9) scale(2.25)' color='rgb(255,   0,   0)'/>
	<use xlink:href='#gpPt5' transform='translate(1019.8,650.5) scale(2.25)' color='rgb(255,   0,   0)'/>
	<use xlink:href='#gpPt5' transform='translate(1032.8,646.1) scale(2.25)' color='rgb(255,   0,   0)'/>
	<use xlink:href='#gpPt5' transform='translate(1045.9,642.0) scale(2.25)' color='rgb(255,   0,   0)'/>
	<use xlink:href='#gpPt5' transform='translate(1059.0,638.1) scale(2.25)' color='rgb(255,   0,   0)'/>
	<use xlink:href='#gpPt5' transform='translate(1072.0,634.4) scale(2.25)' color='rgb(255,   0,   0)'/>
	<use xlink:href='#gpPt5' transform='translate(1085.1,630.8) scale(2.25)' color='rgb(255,   0,   0)'/>
	<use xlink:href='#gpPt5' transform='translate(1098.2,627.4) scale(2.25)' color='rgb(255,   0,   0)'/>
	<use xlink:href='#gpPt5' transform='translate(1111.2,624.3) scale(2.25)' color='rgb(255,   0,   0)'/>
	<use xlink:href='#gpPt5' transform='translate(1124.3,621.8) scale(2.25)' color='rgb(255,   0,   0)'/>
	<use xlink:href='#gpPt5' transform='translate(1137.4,620.1) scale(2.25)' color='rgb(255,   0,   0)'/>
	<use xlink:href='#gpPt5' transform='translate(1150.4,619.5) scale(2.25)' color='rgb(255,   0,   0)'/>
	<use xlink:href='#gpPt5' transform='translate(1163.5,620.0) scale(2.25)' color='rgb(255,   0,   0)'/>
	<use xlink:href='#gpPt5' transform='translate(1176.6,622.6) scale(2.25)' color='rgb(255,   0,   0)'/>
	<use xlink:href='#gpPt5' transform='translate(1189.7,627.7) scale(2.25)' color='rgb(255,   0,   0)'/>
	<use xlink:href='#gpPt5' transform='translate(1202.7,633.6) scale(2.25)' color='rgb(255,   0,   0)'/>
	<use xlink:href='#gpPt5' transform='translate(1215.8,635.8) scale(2.25)' color='rgb(255,   0,   0)'/>
	<use xlink:href='#gpPt5' transform='translate(1228.9,630.3) scale(2.25)' color='rgb(255,   0,   0)'/>
	<use xlink:href='#gpPt5' transform='translate(1241.9,620.0) scale(2.25)' color='rgb(255,   0,   0)'/>
	<use xlink:href='#gpPt5' transform='translate(1255.0,614.3) scale(2.25)' color='rgb(255,   0,   0)'/>
	<use xlink:href='#gpPt5' transform='translate(1217.3,72.1) scale(2.25)' color='rgb(255,   0,   0)'/>
</g>
	</g>
	<g id="gnuplot_plot_2" ><title>gnuplot_plot_2</title>
<g fill="none" color="black" stroke="currentColor" stroke-width="1.00" stroke-linecap="butt" stroke-linejoin="miter">
	<use xlink:href='#gpPt5' transform='translate(78.8,84.9) scale(2.25)' color='rgb(  0, 100,   0)'/>
	<use xlink:href='#gpPt5' transform='translate(79.5,84.9) scale(2.25)' color='rgb(  0, 100,   0)'/>
	<use xlink:href='#gpPt5' transform='translate(80.1,85.1) scale(2.25)' color='rgb(  0, 100,   0)'/>
	<use xlink:href='#gpPt5' transform='translate(80.8,85.3) scale(2.25)' color='rgb(  0, 100,   0)'/>
	<use xlink:href='#gpPt5' transform='translate(81.4,85.5) scale(2.25)' color='rgb(  0, 100,   0)'/>
	<use xlink:href='#gpPt5' transform='translate(82.1,85.9) scale(2.25)' color='rgb(  0, 100,   0)'/>
	<use xlink:href='#gpPt5' transform='translate(82.7,86.3) scale(2.25)' color='rgb(  0, 100,   0)'/>
	<use xlink:href='#gpPt5' transform='translate(83.4,86.7) scale(2.25)' color='rgb(  0, 100,   0)'/>
	<use xlink:href='#gpPt5' transform='translate(84.0,87.2) scale(2.25)' color='rgb(  0, 100,   0)'/>
	<use xlink:href='#gpPt5' transform='translate(84.7,87.7) scale(2.25)' color='rgb(  0, 100,   0)'/>
	<use xlink:href='#gpPt5' transform='translate(85.3,88.3) scale(2.25)' color='rgb(  0, 100,   0)'/>
	<use xlink:href='#gpPt5' transform='translate(86.0,88.8) scale(2.25)' color='rgb(  0, 100,   0)'/>
	<use xlink:href='#gpPt5' transform='translate(86.6,89.4) scale(2.25)' color='rgb(  0, 100,   0)'/>
	<use xlink:href='#gpPt5' transform='translate(87.3,90.0) scale(2.25)' color='rgb(  0, 100,   0)'/>
	<use xlink:href='#gpPt5' transform='translate(87.9,90.7) scale(2.25)' color='rgb(  0, 100,   0)'/>
	<use xlink:href='#gpPt5' transform='translate(88.6,91.3) scale(2.25)' color='rgb(  0, 100,   0)'/>
	<use xlink:href='#gpPt5' transform='translate(89.3,92.0) scale(2.25)' color='rgb(  0, 100,   0)'/>
	<use xlink:href='#gpPt5' transform='translate(89.9,92.7) scale(2.25)' color='rgb(  0, 100,   0)'/>
	<use xlink:href='#gpPt5' transform='translate(90.6,93.4) scale(2.25)' color='rgb(  0, 100,   0)'/>
	<use xlink:href='#gpPt5' transform='translate(91.2,94.1) scale(2.25)' color='rgb(  0, 100,   0)'/>
	<use xlink:href='#gpPt5' transform='translate(91.9,94.9) scale(2.25)' color='rgb(  0, 100,   0)'/>
	<use xlink:href='#gpPt5' transform='translate(98.4,102.5) scale(2.25)' color='rgb(  0, 100,   0)'/>
	<use xlink:href='#gpPt5' transform='translate(104.9,110.5) scale(2.25)' color='rgb(  0, 100,   0)'/>
	<use xlink:href='#gpPt5' transform='translate(111.5,118.7) scale(2.25)' color='rgb(  0, 100,   0)'/>
	<use xlink:href='#gpPt5' transform='translate(118.0,127.0) scale(2.25)' color='rgb(  0, 100,   0)'/>
	<use xlink:href='#gpPt5' transform='translate(131.1,143.6) scale(2.25)' color='rgb(  0, 100,   0)'/>
	<use xlink:href='#gpPt5' transform='translate(144.1,160.3) scale(2.25)' color='rgb(  0, 100,   0)'/>
	<use xlink:href='#gpPt5' transform='translate(157.2,176.8) scale(2.25)' color='rgb(  0, 100,   0)'/>
	<use xlink:href='#gpPt5' transform='translate(170.3,193.1) scale(2.25)' color='rgb(  0, 100,   0)'/>
	<use xlink:href='#gpPt5' transform='translate(183.4,209.3) scale(2.25)' color='rgb(  0, 100,   0)'/>
	<use xlink:href='#gpPt5' transform='translate(196.4,225.2) scale(2.25)' color='rgb(  0, 100,   0)'/>
	<use xlink:href='#gpPt5' transform='translate(209.5,241.0) scale(2.25)' color='rgb(  0, 100,   0)'/>
	<use xlink:href='#gpPt5' transform='translate(222.6,256.6) scale(2.25)' color='rgb(  0, 100,   0)'/>
	<use xlink:href='#gpPt5' transform='translate(235.6,272.2) scale(2.25)' color='rgb(  0, 100,   0)'/>
	<use xlink:href='#gpPt5' transform='translate(248.7,287.5) scale(2.25)' color='rgb(  0, 100,   0)'/>
	<use xlink:href='#gpPt5' transform='translate(261.8,302.6) scale(2.25)' color='rgb(  0, 100,   0)'/>
	<use xlink:href='#gpPt5' transform='translate(274.8,317.5) scale(2.25)' color='rgb(  0, 100,   0)'/>
	<use xlink:href='#gpPt5' transform='translate(287.9,332.3) scale(2.25)' color='rgb(  0, 100,   0)'/>
	<use xlink:href='#gpPt5' transform='translate(301.0,346.8) scale(2.25)' color='rgb(  0, 100,   0)'/>
	<use xlink:href='#gpPt5' transform='translate(314.0,361.1) scale(2.25)' color='rgb(  0, 100,   0)'/>
	<use xlink:href='#gpPt5' transform='translate(327.1,375.1) scale(2.25)' color='rgb(  0, 100,   0)'/>
	<use xlink:href='#gpPt5' transform='translate(340.2,388.9) scale(2.25)' color='rgb(  0, 100,   0)'/>
	<use xlink:href='#gpPt5' transform='translate(353.2,402.4) scale(2.25)' color='rgb(  0, 100,   0)'/>
	<use xlink:href='#gpPt5' transform='translate(366.3,415.6) scale(2.25)' color='rgb(  0, 100,   0)'/>
	<use xlink:href='#gpPt5' transform='translate(379.4,428.6) scale(2.25)' color='rgb(  0, 100,   0)'/>
	<use xlink:href='#gpPt5' transform='translate(392.5,441.3) scale(2.25)' color='rgb(  0, 100,   0)'/>
	<use xlink:href='#gpPt5' transform='translate(405.5,453.6) scale(2.25)' color='rgb(  0, 100,   0)'/>
	<use xlink:href='#gpPt5' transform='translate(418.6,465.8) scale(2.25)' color='rgb(  0, 100,   0)'/>
	<use xlink:href='#gpPt5' transform='translate(431.7,477.6) scale(2.25)' color='rgb(  0, 100,   0)'/>
	<use xlink:href='#gpPt5' transform='translate(444.7,489.2) scale(2.25)' color='rgb(  0, 100,   0)'/>
	<use xlink:href='#gpPt5' transform='translate(457.8,500.3) scale(2.25)' color='rgb(  0, 100,   0)'/>
	<use xlink:href='#gpPt5' transform='translate(470.9,511.2) scale(2.25)' color='rgb(  0, 100,   0)'/>
	<use xlink:href='#gpPt5' transform='translate(483.9,521.9) scale(2.25)' color='rgb(  0, 100,   0)'/>
	<use xlink:href='#gpPt5' transform='translate(497.0,532.3) scale(2.25)' color='rgb(  0, 100,   0)'/>
	<use xlink:href='#gpPt5' transform='translate(510.1,542.3) scale(2.25)' color='rgb(  0, 100,   0)'/>
	<use xlink:href='#gpPt5' transform='translate(523.1,552.0) scale(2.25)' color='rgb(  0, 100,   0)'/>
	<use xlink:href='#gpPt5' transform='translate(536.2,561.4) scale(2.25)' color='rgb(  0, 100,   0)'/>
	<use xlink:href='#gpPt5' transform='translate(549.3,570.6) scale(2.25)' color='rgb(  0, 100,   0)'/>
	<use xlink:href='#gpPt5' transform='translate(562.3,579.3) scale(2.25)' color='rgb(  0, 100,   0)'/>
	<use xlink:href='#gpPt5' transform='translate(575.4,587.7) scale(2.25)' color='rgb(  0, 100,   0)'/>
	<use xlink:href='#gpPt5' transform='translate(588.5,595.9) scale(2.25)' color='rgb(  0, 100,   0)'/>
	<use xlink:href='#gpPt5' transform='translate(601.6,603.6) scale(2.25)' color='rgb(  0, 100,   0)'/>
	<use xlink:href='#gpPt5' transform='translate(614.6,611.0) scale(2.25)' color='rgb(  0, 100,   0)'/>
	<use xlink:href='#gpPt5' transform='translate(627.7,618.0) scale(2.25)' color='rgb(  0, 100,   0)'/>
	<use xlink:href='#gpPt5' transform='translate(640.8,624.8) scale(2.25)' color='rgb(  0, 100,   0)'/>
	<use xlink:href='#gpPt5' transform='translate(653.8,631.2) scale(2.25)' color='rgb(  0, 100,   0)'/>
	<use xlink:href='#gpPt5' transform='translate(666.9,637.2) scale(2.25)' color='rgb(  0, 100,   0)'/>
	<use xlink:href='#gpPt5' transform='translate(680.0,642.7) scale(2.25)' color='rgb(  0, 100,   0)'/>
	<use xlink:href='#gpPt5' transform='translate(693.0,647.9) scale(2.25)' color='rgb(  0, 100,   0)'/>
	<use xlink:href='#gpPt5' transform='translate(706.1,652.7) scale(2.25)' color='rgb(  0, 100,   0)'/>
	<use xlink:href='#gpPt5' transform='translate(719.2,657.1) scale(2.25)' color='rgb(  0, 100,   0)'/>
	<use xlink:href='#gpPt5' transform='translate(732.2,661.3) scale(2.25)' color='rgb(  0, 100,   0)'/>
	<use xlink:href='#gpPt5' transform='translate(745.3,665.1) scale(2.25)' color='rgb(  0, 100,   0)'/>
	<use xlink:href='#gpPt5' transform='translate(758.4,668.3) scale(2.25)' color='rgb(  0, 100,   0)'/>
	<use xlink:href='#gpPt5' transform='translate(771.5,671.1) scale(2.25)' color='rgb(  0, 100,   0)'/>
	<use xlink:href='#gpPt5' transform='translate(784.5,673.6) scale(2.25)' color='rgb(  0, 100,   0)'/>
	<use xlink:href='#gpPt5' transform='translate(797.6,675.8) scale(2.25)' color='rgb(  0, 100,   0)'/>
	<use xlink:href='#gpPt5' transform='translate(810.7,677.3) scale(2.25)' color='rgb(  0, 100,   0)'/>
	<use xlink:href='#gpPt5' transform='translate(823.7,678.5) scale(2.25)' color='rgb(  0, 100,   0)'/>
	<use xlink:href='#gpPt5' transform='translate(836.8,679.4) scale(2.25)' color='rgb(  0, 100,   0)'/>
	<use xlink:href='#gpPt5' transform='translate(849.9,679.7) scale(2.25)' color='rgb(  0, 100,   0)'/>
	<use xlink:href='#gpPt5' transform='translate(862.9,679.4) scale(2.25)' color='rgb(  0, 100,   0)'/>
	<use xlink:href='#gpPt5' transform='translate(876.0,678.8) scale(2.25)' color='rgb(  0, 100,   0)'/>
	<use xlink:href='#gpPt5' transform='translate(889.1,677.6) scale(2.25)' color='rgb(  0, 100,   0)'/>
	<use xlink:href='#gpPt5' transform='translate(902.1,675.9) scale(2.25)' color='rgb(  0, 100,   0)'/>
	<use xlink:href='#gpPt5' transform='translate(915.2,673.7) scale(2.25)' color='rgb(  0, 100,   0)'/>
	<use xlink:href='#gpPt5' transform='translate(928.3,671.2) scale(2.25)' color='rgb(  0, 100,   0)'/>
	<use xlink:href='#gpPt5' transform='translate(941.3,668.2) scale(2.25)' color='rgb(  0, 100,   0)'/>
	<use xlink:href='#gpPt5' transform='translate(954.4,664.8) scale(2.25)' color='rgb(  0, 100,   0)'/>
	<use xlink:href='#gpPt5' transform='translate(967.5,660.9) scale(2.25)' color='rgb(  0, 100,   0)'/>
	<use xlink:href='#gpPt5' transform='translate(980.6,656.6) scale(2.25)' color='rgb(  0, 100,   0)'/>
	<use xlink:href='#gpPt5' transform='translate(993.6,652.3) scale(2.25)' color='rgb(  0, 100,   0)'/>
	<use xlink:href='#gpPt5' transform='translate(1006.7,647.7) scale(2.25)' color='rgb(  0, 100,   0)'/>
	<use xlink:href='#gpPt5' transform='translate(1019.8,642.9) scale(2.25)' color='rgb(  0, 100,   0)'/>
	<use xlink:href='#gpPt5' transform='translate(1032.8,638.3) scale(2.25)' color='rgb(  0, 100,   0)'/>
	<use xlink:href='#gpPt5' transform='translate(1045.9,634.0) scale(2.25)' color='rgb(  0, 100,   0)'/>
	<use xlink:href='#gpPt5' transform='translate(1059.0,629.8) scale(2.25)' color='rgb(  0, 100,   0)'/>
	<use xlink:href='#gpPt5' transform='translate(1072.0,625.5) scale(2.25)' color='rgb(  0, 100,   0)'/>
	<use xlink:href='#gpPt5' transform='translate(1085.1,621.9) scale(2.25)' color='rgb(  0, 100,   0)'/>
	<use xlink:href='#gpPt5' transform='translate(1098.2,618.8) scale(2.25)' color='rgb(  0, 100,   0)'/>
	<use xlink:href='#gpPt5' transform='translate(1111.2,616.1) scale(2.25)' color='rgb(  0, 100,   0)'/>
	<use xlink:href='#gpPt5' transform='translate(1124.3,613.3) scale(2.25)' color='rgb(  0, 100,   0)'/>
	<use xlink:href='#gpPt5' transform='translate(1137.4,610.9) scale(2.25)' color='rgb(  0, 100,   0)'/>
	<use xlink:href='#gpPt5' transform='translate(1150.4,609.6) scale(2.25)' color='rgb(  0, 100,   0)'/>
	<use xlink:href='#gpPt5' transform='translate(1163.5,610.5) scale(2.25)' color='rgb(  0, 100,   0)'/>
	<use xlink:href='#gpPt5' transform='translate(1176.6,614.2) scale(2.25)' color='rgb(  0, 100,   0)'/>
	<use xlink:href='#gpPt5' transform='translate(1189.7,620.6) scale(2.25)' color='rgb(  0, 100,   0)'/>
	<use xlink:href='#gpPt5' transform='translate(1202.7,627.6) scale(2.25)' color='rgb(  0, 100,   0)'/>
	<use xlink:href='#gpPt5' transform='translate(1215.8,629.6) scale(2.25)' color='rgb(  0, 100,   0)'/>
	<use xlink:href='#gpPt5' transform='translate(1228.9,622.9) scale(2.25)' color='rgb(  0, 100,   0)'/>
	<use xlink:href='#gpPt5' transform='translate(1241.9,611.1) scale(2.25)' color='rgb(  0, 100,   0)'/>
	<use xlink:href='#gpPt5' transform='translate(1255.0,604.5) scale(2.25)' color='rgb(  0, 100,   0)'/>
</g>
	</g>
	<g id="gnuplot_plot_3" ><title>gnuplot_plot_3</title>
<g fill="none" color="black" stroke="currentColor" stroke-width="1.00" stroke-linecap="butt" stroke-linejoin="miter">
	<use xlink:href='#gpPt5' transform='translate(78.8,54.1) scale(2.25)' color='rgb(  0,   0, 255)'/>
	<use xlink:href='#gpPt5' transform='translate(79.5,54.2) scale(2.25)' color='rgb(  0,   0, 255)'/>
	<use xlink:href='#gpPt5' transform='translate(80.1,54.4) scale(2.25)' color='rgb(  0,   0, 255)'/>
	<use xlink:href='#gpPt5' transform='translate(80.8,54.7) scale(2.25)' color='rgb(  0,   0, 255)'/>
	<use xlink:href='#gpPt5' transform='translate(81.4,55.1) scale(2.25)' color='rgb(  0,   0, 255)'/>
	<use xlink:href='#gpPt5' transform='translate(82.1,55.6) scale(2.25)' color='rgb(  0,   0, 255)'/>
	<use xlink:href='#gpPt5' transform='translate(82.7,56.2) scale(2.25)' color='rgb(  0,   0, 255)'/>
	<use xlink:href='#gpPt5' transform='translate(83.4,56.8) scale(2.25)' color='rgb(  0,   0, 255)'/>
	<use xlink:href='#gpPt5' transform='translate(84.0,57.5) scale(2.25)' color='rgb(  0,   0, 255)'/>
	<use xlink:href='#gpPt5' transform='translate(84.7,58.2) scale(2.25)' color='rgb(  0,   0, 255)'/>
	<use xlink:href='#gpPt5' transform='translate(85.3,59.0) scale(2.25)' color='rgb(  0,   0, 255)'/>
	<use xlink:href='#gpPt5' transform='translate(86.0,59.8) scale(2.25)' color='rgb(  0,   0, 255)'/>
	<use xlink:href='#gpPt5' transform='translate(86.6,60.7) scale(2.25)' color='rgb(  0,   0, 255)'/>
	<use xlink:href='#gpPt5' transform='translate(87.3,61.5) scale(2.25)' color='rgb(  0,   0, 255)'/>
	<use xlink:href='#gpPt5' transform='translate(87.9,62.4) scale(2.25)' color='rgb(  0,   0, 255)'/>
	<use xlink:href='#gpPt5' transform='translate(88.6,63.3) scale(2.25)' color='rgb(  0,   0, 255)'/>
	<use xlink:href='#gpPt5' transform='translate(89.3,64.2) scale(2.25)' color='rgb(  0,   0, 255)'/>
	<use xlink:href='#gpPt5' transform='translate(89.9,65.1) scale(2.25)' color='rgb(  0,   0, 255)'/>
	<use xlink:href='#gpPt5' transform='translate(90.6,66.1) scale(2.25)' color='rgb(  0,   0, 255)'/>
	<use xlink:href='#gpPt5' transform='translate(91.2,67.0) scale(2.25)' color='rgb(  0,   0, 255)'/>
	<use xlink:href='#gpPt5' transform='translate(91.9,68.0) scale(2.25)' color='rgb(  0,   0, 255)'/>
	<use xlink:href='#gpPt5' transform='translate(98.4,78.0) scale(2.25)' color='rgb(  0,   0, 255)'/>
	<use xlink:href='#gpPt5' transform='translate(104.9,88.2) scale(2.25)' color='rgb(  0,   0, 255)'/>
	<use xlink:href='#gpPt5' transform='translate(111.5,98.4) scale(2.25)' color='rgb(  0,   0, 255)'/>
	<use xlink:href='#gpPt5' transform='translate(118.0,108.6) scale(2.25)' color='rgb(  0,   0, 255)'/>
	<use xlink:href='#gpPt5' transform='translate(131.1,128.4) scale(2.25)' color='rgb(  0,   0, 255)'/>
	<use xlink:href='#gpPt5' transform='translate(144.1,147.5) scale(2.25)' color='rgb(  0,   0, 255)'/>
	<use xlink:href='#gpPt5' transform='translate(157.2,166.0) scale(2.25)' color='rgb(  0,   0, 255)'/>
	<use xlink:href='#gpPt5' transform='translate(170.3,183.9) scale(2.25)' color='rgb(  0,   0, 255)'/>
	<use xlink:href='#gpPt5' transform='translate(183.4,201.2) scale(2.25)' color='rgb(  0,   0, 255)'/>
	<use xlink:href='#gpPt5' transform='translate(196.4,218.1) scale(2.25)' color='rgb(  0,   0, 255)'/>
	<use xlink:href='#gpPt5' transform='translate(209.5,234.6) scale(2.25)' color='rgb(  0,   0, 255)'/>
	<use xlink:href='#gpPt5' transform='translate(222.6,250.7) scale(2.25)' color='rgb(  0,   0, 255)'/>
	<use xlink:href='#gpPt5' transform='translate(235.6,266.6) scale(2.25)' color='rgb(  0,   0, 255)'/>
	<use xlink:href='#gpPt5' transform='translate(248.7,282.2) scale(2.25)' color='rgb(  0,   0, 255)'/>
	<use xlink:href='#gpPt5' transform='translate(261.8,297.6) scale(2.25)' color='rgb(  0,   0, 255)'/>
	<use xlink:href='#gpPt5' transform='translate(274.8,312.6) scale(2.25)' color='rgb(  0,   0, 255)'/>
	<use xlink:href='#gpPt5' transform='translate(287.9,327.4) scale(2.25)' color='rgb(  0,   0, 255)'/>
	<use xlink:href='#gpPt5' transform='translate(301.0,341.9) scale(2.25)' color='rgb(  0,   0, 255)'/>
	<use xlink:href='#gpPt5' transform='translate(314.0,356.1) scale(2.25)' color='rgb(  0,   0, 255)'/>
	<use xlink:href='#gpPt5' transform='translate(327.1,370.2) scale(2.25)' color='rgb(  0,   0, 255)'/>
	<use xlink:href='#gpPt5' transform='translate(340.2,383.9) scale(2.25)' color='rgb(  0,   0, 255)'/>
	<use xlink:href='#gpPt5' transform='translate(353.2,397.2) scale(2.25)' color='rgb(  0,   0, 255)'/>
	<use xlink:href='#gpPt5' transform='translate(366.3,410.3) scale(2.25)' color='rgb(  0,   0, 255)'/>
	<use xlink:href='#gpPt5' transform='translate(379.4,423.2) scale(2.25)' color='rgb(  0,   0, 255)'/>
	<use xlink:href='#gpPt5' transform='translate(392.5,435.8) scale(2.25)' color='rgb(  0,   0, 255)'/>
	<use xlink:href='#gpPt5' transform='translate(405.5,448.0) scale(2.25)' color='rgb(  0,   0, 255)'/>
	<use xlink:href='#gpPt5' transform='translate(418.6,459.9) scale(2.25)' color='rgb(  0,   0, 255)'/>
	<use xlink:href='#gpPt5' transform='translate(431.7,471.6) scale(2.25)' color='rgb(  0,   0, 255)'/>
	<use xlink:href='#gpPt5' transform='translate(444.7,483.1) scale(2.25)' color='rgb(  0,   0, 255)'/>
	<use xlink:href='#gpPt5' transform='translate(457.8,494.4) scale(2.25)' color='rgb(  0,   0, 255)'/>
	<use xlink:href='#gpPt5' transform='translate(470.9,505.0) scale(2.25)' color='rgb(  0,   0, 255)'/>
	<use xlink:href='#gpPt5' transform='translate(483.9,515.4) scale(2.25)' color='rgb(  0,   0, 255)'/>
	<use xlink:href='#gpPt5' transform='translate(497.0,525.7) scale(2.25)' color='rgb(  0,   0, 255)'/>
	<use xlink:href='#gpPt5' transform='translate(510.1,535.8) scale(2.25)' color='rgb(  0,   0, 255)'/>
	<use xlink:href='#gpPt5' transform='translate(523.1,545.2) scale(2.25)' color='rgb(  0,   0, 255)'/>
	<use xlink:href='#gpPt5' transform='translate(536.2,554.5) scale(2.25)' color='rgb(  0,   0, 255)'/>
	<use xlink:href='#gpPt5' transform='translate(549.3,563.7) scale(2.25)' color='rgb(  0,   0, 255)'/>
	<use xlink:href='#gpPt5' transform='translate(562.3,572.5) scale(2.25)' color='rgb(  0,   0, 255)'/>
	<use xlink:href='#gpPt5' transform='translate(575.4,580.6) scale(2.25)' color='rgb(  0,   0, 255)'/>
	<use xlink:href='#gpPt5' transform='translate(588.5,588.4) scale(2.25)' color='rgb(  0,   0, 255)'/>
	<use xlink:href='#gpPt5' transform='translate(601.6,596.3) scale(2.25)' color='rgb(  0,   0, 255)'/>
	<use xlink:href='#gpPt5' transform='translate(614.6,603.9) scale(2.25)' color='rgb(  0,   0, 255)'/>
	<use xlink:href='#gpPt5' transform='translate(627.7,610.9) scale(2.25)' color='rgb(  0,   0, 255)'/>
	<use xlink:href='#gpPt5' transform='translate(640.8,617.3) scale(2.25)' color='rgb(  0,   0, 255)'/>
	<use xlink:href='#gpPt5' transform='translate(653.8,623.5) scale(2.25)' color='rgb(  0,   0, 255)'/>
	<use xlink:href='#gpPt5' transform='translate(666.9,629.6) scale(2.25)' color='rgb(  0,   0, 255)'/>
	<use xlink:href='#gpPt5' transform='translate(680.0,634.9) scale(2.25)' color='rgb(  0,   0, 255)'/>
	<use xlink:href='#gpPt5' transform='translate(693.0,639.9) scale(2.25)' color='rgb(  0,   0, 255)'/>
	<use xlink:href='#gpPt5' transform='translate(706.1,644.9) scale(2.25)' color='rgb(  0,   0, 255)'/>
	<use xlink:href='#gpPt5' transform='translate(719.2,649.5) scale(2.25)' color='rgb(  0,   0, 255)'/>
	<use xlink:href='#gpPt5' transform='translate(732.2,653.1) scale(2.25)' color='rgb(  0,   0, 255)'/>
	<use xlink:href='#gpPt5' transform='translate(745.3,656.4) scale(2.25)' color='rgb(  0,   0, 255)'/>
	<use xlink:href='#gpPt5' transform='translate(758.4,659.6) scale(2.25)' color='rgb(  0,   0, 255)'/>
	<use xlink:href='#gpPt5' transform='translate(771.5,662.4) scale(2.25)' color='rgb(  0,   0, 255)'/>
	<use xlink:href='#gpPt5' transform='translate(784.5,664.7) scale(2.25)' color='rgb(  0,   0, 255)'/>
	<use xlink:href='#gpPt5' transform='translate(797.6,666.4) scale(2.25)' color='rgb(  0,   0, 255)'/>
	<use xlink:href='#gpPt5' transform='translate(810.7,667.7) scale(2.25)' color='rgb(  0,   0, 255)'/>
	<use xlink:href='#gpPt5' transform='translate(823.7,669.1) scale(2.25)' color='rgb(  0,   0, 255)'/>
	<use xlink:href='#gpPt5' transform='translate(836.8,669.9) scale(2.25)' color='rgb(  0,   0, 255)'/>
	<use xlink:href='#gpPt5' transform='translate(849.9,669.9) scale(2.25)' color='rgb(  0,   0, 255)'/>
	<use xlink:href='#gpPt5' transform='translate(862.9,669.4) scale(2.25)' color='rgb(  0,   0, 255)'/>
	<use xlink:href='#gpPt5' transform='translate(876.0,668.5) scale(2.25)' color='rgb(  0,   0, 255)'/>
	<use xlink:href='#gpPt5' transform='translate(889.1,666.9) scale(2.25)' color='rgb(  0,   0, 255)'/>
	<use xlink:href='#gpPt5' transform='translate(902.1,665.0) scale(2.25)' color='rgb(  0,   0, 255)'/>
	<use xlink:href='#gpPt5' transform='translate(915.2,662.6) scale(2.25)' color='rgb(  0,   0, 255)'/>
	<use xlink:href='#gpPt5' transform='translate(928.3,659.3) scale(2.25)' color='rgb(  0,   0, 255)'/>
	<use xlink:href='#gpPt5' transform='translate(941.3,655.4) scale(2.25)' color='rgb(  0,   0, 255)'/>
	<use xlink:href='#gpPt5' transform='translate(954.4,651.1) scale(2.25)' color='rgb(  0,   0, 255)'/>
	<use xlink:href='#gpPt5' transform='translate(967.5,646.6) scale(2.25)' color='rgb(  0,   0, 255)'/>
	<use xlink:href='#gpPt5' transform='translate(980.6,641.9) scale(2.25)' color='rgb(  0,   0, 255)'/>
	<use xlink:href='#gpPt5' transform='translate(993.6,636.5) scale(2.25)' color='rgb(  0,   0, 255)'/>
	<use xlink:href='#gpPt5' transform='translate(1006.7,630.8) scale(2.25)' color='rgb(  0,   0, 255)'/>
	<use xlink:href='#gpPt5' transform='translate(1019.8,625.3) scale(2.25)' color='rgb(  0,   0, 255)'/>
	<use xlink:href='#gpPt5' transform='translate(1032.8,619.7) scale(2.25)' color='rgb(  0,   0, 255)'/>
	<use xlink:href='#gpPt5' transform='translate(1045.9,614.9) scale(2.25)' color='rgb(  0,   0, 255)'/>
	<use xlink:href='#gpPt5' transform='translate(1059.0,610.4) scale(2.25)' color='rgb(  0,   0, 255)'/>
	<use xlink:href='#gpPt5' transform='translate(1072.0,605.9) scale(2.25)' color='rgb(  0,   0, 255)'/>
	<use xlink:href='#gpPt5' transform='translate(1085.1,601.7) scale(2.25)' color='rgb(  0,   0, 255)'/>
	<use xlink:href='#gpPt5' transform='translate(1098.2,598.1) scale(2.25)' color='rgb(  0,   0, 255)'/>
	<use xlink:href='#gpPt5' transform='translate(1111.2,594.6) scale(2.25)' color='rgb(  0,   0, 255)'/>
	<use xlink:href='#gpPt5' transform='translate(1124.3,591.5) scale(2.25)' color='rgb(  0,   0, 255)'/>
	<use xlink:href='#gpPt5' transform='translate(1137.4,589.1) scale(2.25)' color='rgb(  0,   0, 255)'/>
	<use xlink:href='#gpPt5' transform='translate(1150.4,587.5) scale(2.25)' color='rgb(  0,   0, 255)'/>
	<use xlink:href='#gpPt5' transform='translate(1163.5,587.7) scale(2.25)' color='rgb(  0,   0, 255)'/>
	<use xlink:href='#gpPt5' transform='translate(1176.6,591.0) scale(2.25)' color='rgb(  0,   0, 255)'/>
	<use xlink:href='#gpPt5' transform='translate(1189.7,597.8) scale(2.25)' color='rgb(  0,   0, 255)'/>
	<use xlink:href='#gpPt5' transform='translate(1202.7,606.4) scale(2.25)' color='rgb(  0,   0, 255)'/>
	<use xlink:href='#gpPt5' transform='translate(1215.8,611.0) scale(2.25)' color='rgb(  0,   0, 255)'/>
	<use xlink:href='#gpPt5' transform='translate(1228.9,604.2) scale(2.25)' color='rgb(  0,   0, 255)'/>
	<use xlink:href='#gpPt5' transform='translate(1241.9,588.7) scale(2.25)' color='rgb(  0,   0, 255)'/>
	<use xlink:href='#gpPt5' transform='translate(1255.0,579.5) scale(2.25)' color='rgb(  0,   0, 255)'/>
</g>
	</g>
	<g id="gnuplot_plot_4" ><title>fit</title>
<g fill="none" color="black" stroke="currentColor" stroke-width="1.00" stroke-linecap="butt" stroke-linejoin="miter">
	<g transform="translate(1187.9,94.0)" stroke="none" fill="black" font-family="Arial" font-size="12.00"  text-anchor="end">
		<text><tspan font-family="Arial" >fit</tspan></text>
	</g>
</g>
<g fill="none" color="black" stroke="currentColor" stroke-width="1.00" stroke-linecap="butt" stroke-linejoin="miter">
	<path stroke='rgb(255,   0,   0)'  d='M1196.2,90.1 L1238.4,90.1 M78.8,98.8 L79.9,98.9 L81.1,99.1 L82.2,99.5 L83.4,100.0 L84.5,100.6
		L85.7,101.4 L86.8,102.3 L88.0,103.2 L89.1,104.3 L90.3,105.4 L91.4,106.6 L92.6,107.9 L93.7,109.2
		L94.9,110.5 L96.0,111.9 L97.2,113.3 L98.3,114.7 L99.5,116.1 L100.6,117.5 L101.8,118.8 L102.9,120.2
		L104.1,121.6 L105.2,123.0 L106.4,124.3 L107.5,125.7 L108.7,127.0 L109.8,128.3 L111.0,129.6 L112.1,131.0
		L113.3,132.2 L114.4,133.5 L115.6,134.8 L116.7,136.1 L117.9,137.3 L119.0,138.6 L120.2,139.9 L121.3,141.1
		L122.5,142.4 L123.6,143.6 L124.8,144.9 L125.9,146.1 L127.1,147.4 L128.2,148.6 L129.4,149.9 L130.5,151.1
		L131.7,152.4 L132.8,153.7 L134.0,154.9 L135.1,156.2 L136.3,157.5 L137.4,158.8 L138.6,160.1 L139.7,161.4
		L140.9,162.7 L142.0,164.0 L143.2,165.3 L144.3,166.6 L145.5,167.9 L146.6,169.3 L147.8,170.6 L148.9,171.9
		L150.1,173.3 L151.2,174.6 L152.4,176.0 L153.5,177.4 L154.7,178.7 L155.8,180.1 L157.0,181.5 L158.1,182.9
		L159.3,184.3 L160.4,185.7 L161.6,187.1 L162.7,188.5 L163.9,189.9 L165.0,191.3 L166.2,192.7 L167.3,194.1
		L168.5,195.6 L169.6,197.0 L170.8,198.4 L171.9,199.9 L173.1,201.3 L174.2,202.7 L175.4,204.2 L176.5,205.6
		L177.7,207.1 L178.8,208.5 L180.0,210.0 L181.1,211.4 L182.3,212.9 L183.4,214.4 L184.6,215.8 L185.7,217.3
		L186.9,218.7 L188.0,220.2 L189.2,221.7 L190.3,223.1 L191.5,224.6 L192.6,226.1 L193.8,227.5 L194.9,229.0
		L196.1,230.4 L197.2,231.9 L198.4,233.4 L199.5,234.8 L200.7,236.3 L201.8,237.8 L203.0,239.2 L204.1,240.7
		L205.3,242.2 L206.4,243.6 L207.6,245.1 L208.7,246.5 L209.9,248.0 L211.0,249.4 L212.2,250.9 L213.3,252.3
		L214.5,253.8 L215.6,255.2 L216.8,256.7 L217.9,258.1 L219.1,259.6 L220.2,261.0 L221.4,262.5 L222.5,263.9
		L223.7,265.3 L224.8,266.8 L226.0,268.2 L227.1,269.6 L228.3,271.1 L229.4,272.5 L230.6,273.9 L231.7,275.3
		L232.9,276.7 L234.0,278.2 L235.2,279.6 L236.3,281.0 L237.5,282.4 L238.6,283.8 L239.8,285.2 L240.9,286.6
		L242.1,288.0 L243.2,289.4 L244.4,290.8 L245.5,292.1 L246.7,293.5 L247.8,294.9 L249.0,296.3 L250.1,297.7
		L251.3,299.0 L252.4,300.4 L253.6,301.8 L254.7,303.1 L255.9,304.5 L257.0,305.9 L258.2,307.2 L259.3,308.6
		L260.5,309.9 L261.6,311.2 L262.8,312.6 L263.9,313.9 L265.1,315.3 L266.2,316.6 L267.4,317.9 L268.5,319.2
		L269.7,320.6 L270.8,321.9 L272.0,323.2 L273.1,324.5 L274.3,325.8 L275.4,327.1 L276.6,328.4 L277.7,329.7
		L278.9,331.0 L280.0,332.3 L281.2,333.6 L282.3,334.9 L283.5,336.2 L284.6,337.5 L285.8,338.7 L286.9,340.0
		L288.1,341.3 L289.2,342.6 L290.4,343.8 L291.5,345.1 L292.7,346.3 L293.8,347.6 L295.0,348.9 L296.1,350.1
		L297.3,351.4 L298.4,352.6 L299.6,353.8 L300.7,355.1 L301.9,356.3 L303.0,357.5 L304.2,358.8 L305.3,360.0
		L306.5,361.2 L307.6,362.4 L308.8,363.6 L309.9,364.9 L311.1,366.1 L312.2,367.3 L313.4,368.5 L314.5,369.7
		L315.6,370.9 L316.8,372.1 L317.9,373.3 L319.1,374.5 L320.2,375.7 L321.4,376.8 L322.5,378.0 L323.7,379.2
		L324.8,380.4 L326.0,381.5 L327.1,382.7 L328.3,383.9 L329.4,385.0 L330.6,386.2 L331.7,387.4 L332.9,388.5
		L334.0,389.7 L335.2,390.8 L336.3,392.0 L337.5,393.1 L338.6,394.3 L339.8,395.4 L340.9,396.5 L342.1,397.7
		L343.2,398.8 L344.4,399.9 L345.5,401.1 L346.7,402.2 L347.8,403.3 L349.0,404.4 L350.1,405.5 L351.3,406.7
		L352.4,407.8 L353.6,408.9 L354.7,410.0 L355.9,411.1 L357.0,412.2 L358.2,413.3 L359.3,414.4 L360.5,415.5
		L361.6,416.6 L362.8,417.7 L363.9,418.8 L365.1,419.8 L366.2,420.9 L367.4,422.0 L368.5,423.1 L369.7,424.2
		L370.8,425.2 L372.0,426.3 L373.1,427.4 L374.3,428.4 L375.4,429.5 L376.6,430.6 L377.7,431.6 L378.9,432.7
		L380.0,433.7 L381.2,434.8 L382.3,435.8 L383.5,436.9 L384.6,437.9 L385.8,439.0 L386.9,440.0 L388.1,441.1
		L389.2,442.1 L390.4,443.1 L391.5,444.2 L392.7,445.2 L393.8,446.2 L395.0,447.3 L396.1,448.3 L397.3,449.3
		L398.4,450.3 L399.6,451.4 L400.7,452.4 L401.9,453.4 L403.0,454.4 L404.2,455.4 L405.3,456.4 L406.5,457.4
		L407.6,458.4 L408.8,459.4 L409.9,460.4 L411.1,461.4 L412.2,462.4 L413.4,463.4 L414.5,464.4 L415.7,465.4
		L416.8,466.4 L418.0,467.4 L419.1,468.4 L420.3,469.4 L421.4,470.4 L422.6,471.3 L423.7,472.3 L424.9,473.3
		L426.0,474.3 L427.2,475.2 L428.3,476.2 L429.5,477.2 L430.6,478.2 L431.8,479.1 L432.9,480.1 L434.1,481.0
		L435.2,482.0 L436.4,483.0 L437.5,483.9 L438.7,484.9 L439.8,485.8 L441.0,486.8 L442.1,487.7 L443.3,488.7
		L444.4,489.6 L445.6,490.6 L446.7,491.5 L447.9,492.5 L449.0,493.4 L450.2,494.4 L451.3,495.3 L452.5,496.2
		L453.6,497.2 L454.8,498.1 L455.9,499.0 L457.1,500.0 L458.2,500.9 L459.4,501.8 L460.5,502.7 L461.7,503.7
		L462.8,504.6 L464.0,505.5 L465.1,506.4 L466.3,507.3 L467.4,508.3 L468.6,509.2 L469.7,510.1 L470.9,511.0
		L472.0,511.9 L473.2,512.8 L474.3,513.7 L475.5,514.6 L476.6,515.5 L477.8,516.4 L478.9,517.3 L480.1,518.2
		L481.2,519.1 L482.4,520.0 L483.5,520.9 L484.7,521.8 L485.8,522.7 L487.0,523.6 L488.1,524.5 L489.3,525.4
		L490.4,526.2 L491.6,527.1 L492.7,528.0 L493.9,528.9 L495.0,529.8 L496.2,530.7 L497.3,531.5 L498.5,532.4
		L499.6,533.3 L500.8,534.1 L501.9,535.0 L503.1,535.9 L504.2,536.8 L505.4,537.6 L506.5,538.5 L507.7,539.3
		L508.8,540.2 L510.0,541.1 L511.1,541.9 L512.3,542.8 L513.4,543.6 L514.6,544.5 L515.7,545.3 L516.9,546.2
		L518.0,547.0 L519.2,547.9 L520.3,548.7 L521.5,549.6 L522.6,550.4 L523.8,551.3 L524.9,552.1 L526.1,552.9
		L527.2,553.8 L528.4,554.6 L529.5,555.4 L530.7,556.3 L531.8,557.1 L533.0,557.9 L534.1,558.8 L535.3,559.6
		L536.4,560.4 L537.6,561.2 L538.7,562.1 L539.9,562.9 L541.0,563.7 L542.2,564.5 L543.3,565.3 L544.5,566.1
		L545.6,567.0 L546.8,567.8 L547.9,568.6 L549.1,569.4 L550.2,570.2 L551.3,571.0 L552.5,571.8 L553.6,572.6
		L554.8,573.4 L555.9,574.2 L557.1,575.0 L558.2,575.8 L559.4,576.6 L560.5,577.4 L561.7,578.1 L562.8,578.9
		L564.0,579.7 L565.1,580.5 L566.3,581.3 L567.4,582.1 L568.6,582.8 L569.7,583.6 L570.9,584.4 L572.0,585.2
		L573.2,585.9 L574.3,586.7 L575.5,587.5 L576.6,588.2 L577.8,589.0 L578.9,589.8 L580.1,590.5 L581.2,591.3
		L582.4,592.0 L583.5,592.8 L584.7,593.5 L585.8,594.3 L587.0,595.0 L588.1,595.8 L589.3,596.5 L590.4,597.3
		L591.6,598.0 L592.7,598.8 L593.9,599.5 L595.0,600.2 L596.2,601.0 L597.3,601.7 L598.5,602.4 L599.6,603.1
		L600.8,603.9 L601.9,604.6 L603.1,605.3 L604.2,606.0 L605.4,606.7 L606.5,607.5 L607.7,608.2 L608.8,608.9
		L610.0,609.6 L611.1,610.3 L612.3,611.0 L613.4,611.7 L614.6,612.4 L615.7,613.1 L616.9,613.8 L618.0,614.5
		L619.2,615.2 L620.3,615.9 L621.5,616.5 L622.6,617.2 L623.8,617.9 L624.9,618.6 L626.1,619.2 L627.2,619.9
		L628.4,620.6 L629.5,621.3 L630.7,621.9 L631.8,622.6 L633.0,623.2 L634.1,623.9 L635.3,624.5 L636.4,625.2
		L637.6,625.8 L638.7,626.5 L639.9,627.1 L641.0,627.8 L642.2,628.4 L643.3,629.1 L644.5,629.7 L645.6,630.3
		L646.8,630.9 L647.9,631.6 L649.1,632.2 L650.2,632.8 L651.4,633.4 L652.5,634.0 L653.7,634.6 L654.8,635.2
		L656.0,635.8 L657.1,636.4 L658.3,637.0 L659.4,637.6 L660.6,638.2 L661.7,638.8 L662.9,639.4 L664.0,640.0
		L665.2,640.6 L666.3,641.1 L667.5,641.7 L668.6,642.3 L669.8,642.8 L670.9,643.4 L672.1,644.0 L673.2,644.5
		L674.4,645.1 L675.5,645.6 L676.7,646.2 L677.8,646.7 L679.0,647.3 L680.1,647.8 L681.3,648.3 L682.4,648.9
		L683.6,649.4 L684.7,649.9 L685.9,650.4 L687.0,650.9 L688.2,651.4 L689.3,652.0 L690.5,652.5 L691.6,653.0
		L692.8,653.5 L693.9,653.9 L695.1,654.4 L696.2,654.9 L697.4,655.4 L698.5,655.9 L699.7,656.4 L700.8,656.8
		L702.0,657.3 L703.1,657.8 L704.3,658.2 L705.4,658.7 L706.6,659.1 L707.7,659.6 L708.9,660.0 L710.0,660.5
		L711.2,660.9 L712.3,661.3 L713.5,661.7 L714.6,662.2 L715.8,662.6 L716.9,663.0 L718.1,663.4 L719.2,663.8
		L720.4,664.2 L721.5,664.6 L722.7,665.0 L723.8,665.4 L725.0,665.8 L726.1,666.2 L727.3,666.6 L728.4,666.9
		L729.6,667.3 L730.7,667.7 L731.9,668.0 L733.0,668.4 L734.2,668.7 L735.3,669.1 L736.5,669.4 L737.6,669.8
		L738.8,670.1 L739.9,670.4 L741.1,670.8 L742.2,671.1 L743.4,671.4 L744.5,671.7 L745.7,672.0 L746.8,672.3
		L748.0,672.6 L749.1,672.9 L750.3,673.2 L751.4,673.5 L752.6,673.8 L753.7,674.1 L754.9,674.3 L756.0,674.6
		L757.2,674.9 L758.3,675.1 L759.5,675.4 L760.6,675.6 L761.8,675.9 L762.9,676.1 L764.1,676.4 L765.2,676.6
		L766.4,676.8 L767.5,677.1 L768.7,677.3 L769.8,677.5 L771.0,677.7 L772.1,677.9 L773.3,678.1 L774.4,678.3
		L775.6,678.5 L776.7,678.7 L777.9,678.9 L779.0,679.1 L780.2,679.2 L781.3,679.4 L782.5,679.6 L783.6,679.8
		L784.7,679.9 L785.9,680.1 L787.0,680.2 L788.2,680.4 L789.3,680.5 L790.5,680.6 L791.6,680.8 L792.8,680.9
		L793.9,681.0 L795.1,681.1 L796.2,681.3 L797.4,681.4 L798.5,681.5 L799.7,681.6 L800.8,681.7 L802.0,681.8
		L803.1,681.9 L804.3,682.0 L805.4,682.0 L806.6,682.1 L807.7,682.2 L808.9,682.3 L810.0,682.3 L811.2,682.4
		L812.3,682.4 L813.5,682.5 L814.6,682.5 L815.8,682.6 L816.9,682.6 L818.1,682.7 L819.2,682.7 L820.4,682.7
		L821.5,682.8 L822.7,682.8 L823.8,682.8 L825.0,682.8 L826.1,682.8 L827.3,682.8 L828.4,682.8 L829.6,682.8
		L830.7,682.8 L831.9,682.8 L833.0,682.8 L834.2,682.8 L835.3,682.8 L836.5,682.7 L837.6,682.7 L838.8,682.7
		L839.9,682.6 L841.1,682.6 L842.2,682.6 L843.4,682.5 L844.5,682.5 L845.7,682.4 L846.8,682.4 L848.0,682.3
		L849.1,682.2 L850.3,682.2 L851.4,682.1 L852.6,682.0 L853.7,682.0 L854.9,681.9 L856.0,681.8 L857.2,681.7
		L858.3,681.6 L859.5,681.5 L860.6,681.4 L861.8,681.4 L862.9,681.3 L864.1,681.1 L865.2,681.0 L866.4,680.9
		L867.5,680.8 L868.7,680.7 L869.8,680.6 L871.0,680.5 L872.1,680.3 L873.3,680.2 L874.4,680.1 L875.6,680.0
		L876.7,679.8 L877.9,679.7 L879.0,679.6 L880.2,679.4 L881.3,679.3 L882.5,679.1 L883.6,679.0 L884.8,678.8
		L885.9,678.7 L887.1,678.5 L888.2,678.3 L889.4,678.2 L890.5,678.0 L891.7,677.9 L892.8,677.7 L894.0,677.5
		L895.1,677.3 L896.3,677.2 L897.4,677.0 L898.6,676.8 L899.7,676.6 L900.9,676.5 L902.0,676.3 L903.2,676.1
		L904.3,675.9 L905.5,675.7 L906.6,675.5 L907.8,675.3 L908.9,675.1 L910.1,674.9 L911.2,674.7 L912.4,674.5
		L913.5,674.3 L914.7,674.1 L915.8,673.9 L917.0,673.7 L918.1,673.5 L919.3,673.3 L920.4,673.1 L921.6,672.8
		L922.7,672.6 L923.9,672.4 L925.0,672.2 L926.2,672.0 L927.3,671.7 L928.5,671.5 L929.6,671.3 L930.8,671.1
		L931.9,670.8 L933.1,670.6 L934.2,670.4 L935.4,670.1 L936.5,669.9 L937.7,669.7 L938.8,669.4 L940.0,669.2
		L941.1,669.0 L942.3,668.7 L943.4,668.5 L944.6,668.3 L945.7,668.0 L946.9,667.8 L948.0,667.5 L949.2,667.3
		L950.3,667.0 L951.5,666.8 L952.6,666.5 L953.8,666.3 L954.9,666.0 L956.1,665.8 L957.2,665.5 L958.4,665.3
		L959.5,665.0 L960.7,664.8 L961.8,664.5 L963.0,664.3 L964.1,664.0 L965.3,663.8 L966.4,663.5 L967.6,663.3
		L968.7,663.0 L969.9,662.8 L971.0,662.5 L972.2,662.2 L973.3,662.0 L974.5,661.7 L975.6,661.5 L976.8,661.2
		L977.9,660.9 L979.1,660.7 L980.2,660.4 L981.4,660.2 L982.5,659.9 L983.7,659.6 L984.8,659.4 L986.0,659.1
		L987.1,658.8 L988.3,658.6 L989.4,658.3 L990.6,658.1 L991.7,657.8 L992.9,657.5 L994.0,657.3 L995.2,657.0
		L996.3,656.7 L997.5,656.5 L998.6,656.2 L999.8,656.0 L1000.9,655.7 L1002.1,655.4 L1003.2,655.2 L1004.4,654.9
		L1005.5,654.6 L1006.7,654.4 L1007.8,654.1 L1009.0,653.8 L1010.1,653.6 L1011.3,653.3 L1012.4,653.1 L1013.6,652.8
		L1014.7,652.5 L1015.9,652.3 L1017.0,652.0 L1018.2,651.8 L1019.3,651.5 L1020.4,651.2 L1021.6,651.0 L1022.7,650.7
		L1023.9,650.5 L1025.0,650.2 L1026.2,649.9 L1027.3,649.7 L1028.5,649.4 L1029.6,649.2 L1030.8,648.9 L1031.9,648.6
		L1033.1,648.4 L1034.2,648.1 L1035.4,647.9 L1036.5,647.6 L1037.7,647.4 L1038.8,647.1 L1040.0,646.9 L1041.1,646.6
		L1042.3,646.4 L1043.4,646.1 L1044.6,645.9 L1045.7,645.6 L1046.9,645.4 L1048.0,645.1 L1049.2,644.9 L1050.3,644.6
		L1051.5,644.4 L1052.6,644.1 L1053.8,643.9 L1054.9,643.6 L1056.1,643.4 L1057.2,643.1 L1058.4,642.9 L1059.5,642.6
		L1060.7,642.4 L1061.8,642.2 L1063.0,641.9 L1064.1,641.7 L1065.3,641.5 L1066.4,641.2 L1067.6,641.0 L1068.7,640.7
		L1069.9,640.5 L1071.0,640.3 L1072.2,640.0 L1073.3,639.8 L1074.5,639.6 L1075.6,639.3 L1076.8,639.1 L1077.9,638.9
		L1079.1,638.7 L1080.2,638.4 L1081.4,638.2 L1082.5,638.0 L1083.7,637.8 L1084.8,637.5 L1086.0,637.3 L1087.1,637.1
		L1088.3,636.9 L1089.4,636.7 L1090.6,636.4 L1091.7,636.2 L1092.9,636.0 L1094.0,635.8 L1095.2,635.6 L1096.3,635.4
		L1097.5,635.2 L1098.6,635.0 L1099.8,634.7 L1100.9,634.5 L1102.1,634.3 L1103.2,634.1 L1104.4,633.9 L1105.5,633.7
		L1106.7,633.5 L1107.8,633.3 L1109.0,633.1 L1110.1,632.9 L1111.3,632.7 L1112.4,632.5 L1113.6,632.3 L1114.7,632.1
		L1115.9,631.9 L1117.0,631.8 L1118.2,631.6 L1119.3,631.4 L1120.5,631.2 L1121.6,631.0 L1122.8,630.8 L1123.9,630.6
		L1125.1,630.5 L1126.2,630.3 L1127.4,630.1 L1128.5,629.9 L1129.7,629.7 L1130.8,629.6 L1132.0,629.4 L1133.1,629.2
		L1134.3,629.1 L1135.4,628.9 L1136.6,628.7 L1137.7,628.5 L1138.9,628.4 L1140.0,628.2 L1141.2,628.1 L1142.3,627.9
		L1143.5,627.7 L1144.6,627.6 L1145.8,627.4 L1146.9,627.3 L1148.1,627.1 L1149.2,627.0 L1150.4,626.8 L1151.5,626.7
		L1152.7,626.5 L1153.8,626.4 L1155.0,626.2 L1156.1,626.1 L1157.3,625.9 L1158.4,625.8 L1159.6,625.7 L1160.7,625.5
		L1161.9,625.4 L1163.0,625.2 L1164.2,625.1 L1165.3,625.0 L1166.5,624.9 L1167.6,624.7 L1168.8,624.6 L1169.9,624.5
		L1171.1,624.3 L1172.2,624.2 L1173.4,624.1 L1174.5,624.0 L1175.7,623.9 L1176.8,623.8 L1178.0,623.6 L1179.1,623.5
		L1180.3,623.4 L1181.4,623.3 L1182.6,623.2 L1183.7,623.1 L1184.9,623.0 L1186.0,622.9 L1187.2,622.8 L1188.3,622.7
		L1189.5,622.6 L1190.6,622.5 L1191.8,622.4 L1192.9,622.3 L1194.1,622.2 L1195.2,622.1 L1196.4,622.0 L1197.5,621.9
		L1198.7,621.9 L1199.8,621.8 L1201.0,621.7 L1202.1,621.6 L1203.3,621.5 L1204.4,621.5 L1205.6,621.4 L1206.7,621.3
		L1207.9,621.2 L1209.0,621.2 L1210.2,621.1 L1211.3,621.0 L1212.5,621.0 L1213.6,620.9 L1214.8,620.8 L1215.9,620.8
		L1217.1,620.7 L1218.2,620.7 L1219.4,620.6 L1220.5,620.6 L1221.7,620.5 L1222.8,620.5 L1224.0,620.4 L1225.1,620.4
		L1226.3,620.3 L1227.4,620.3 L1228.6,620.2 L1229.7,620.2 L1230.9,620.2 L1232.0,620.1 L1233.2,620.1 L1234.3,620.1
		L1235.5,620.0 L1236.6,620.0 L1237.8,620.0 L1238.9,620.0 L1240.1,619.9 L1241.2,619.9 L1242.4,619.9 L1243.5,619.9
		L1244.7,619.9 L1245.8,619.8 L1247.0,619.8 L1248.1,619.8 L1249.3,619.8 L1250.4,619.8 L1251.6,619.8 L1252.7,619.8
		L1253.9,619.8 L1255.0,619.8  '/></g>
	</g>
	<g id="gnuplot_plot_5" ><title>gnuplot_plot_5</title>
<g fill="none" color="black" stroke="currentColor" stroke-width="1.00" stroke-linecap="butt" stroke-linejoin="miter">
	<path stroke='rgb(  0, 100,   0)'  d='M78.8,85.6 L79.9,85.7 L81.1,85.9 L82.2,86.3 L83.4,86.8 L84.5,87.5 L85.7,88.3 L86.8,89.2
		L88.0,90.3 L89.1,91.4 L90.3,92.6 L91.4,93.9 L92.6,95.2 L93.7,96.6 L94.9,98.1 L96.0,99.5
		L97.2,101.0 L98.3,102.5 L99.5,103.9 L100.6,105.4 L101.8,106.9 L102.9,108.4 L104.1,109.9 L105.2,111.4
		L106.4,112.8 L107.5,114.3 L108.7,115.7 L109.8,117.1 L111.0,118.5 L112.1,119.9 L113.3,121.3 L114.4,122.7
		L115.6,124.0 L116.7,125.4 L117.9,126.7 L119.0,128.1 L120.2,129.4 L121.3,130.8 L122.5,132.1 L123.6,133.5
		L124.8,134.8 L125.9,136.1 L127.1,137.5 L128.2,138.8 L129.4,140.1 L130.5,141.5 L131.7,142.8 L132.8,144.2
		L134.0,145.5 L135.1,146.9 L136.3,148.2 L137.4,149.6 L138.6,151.0 L139.7,152.3 L140.9,153.7 L142.0,155.1
		L143.2,156.5 L144.3,157.9 L145.5,159.3 L146.6,160.7 L147.8,162.1 L148.9,163.5 L150.1,164.9 L151.2,166.3
		L152.4,167.8 L153.5,169.2 L154.7,170.6 L155.8,172.1 L157.0,173.5 L158.1,175.0 L159.3,176.4 L160.4,177.9
		L161.6,179.4 L162.7,180.8 L163.9,182.3 L165.0,183.8 L166.2,185.2 L167.3,186.7 L168.5,188.2 L169.6,189.7
		L170.8,191.2 L171.9,192.7 L173.1,194.2 L174.2,195.7 L175.4,197.1 L176.5,198.6 L177.7,200.1 L178.8,201.6
		L180.0,203.2 L181.1,204.7 L182.3,206.2 L183.4,207.7 L184.6,209.2 L185.7,210.7 L186.9,212.2 L188.0,213.7
		L189.2,215.2 L190.3,216.7 L191.5,218.2 L192.6,219.7 L193.8,221.2 L194.9,222.7 L196.1,224.2 L197.2,225.7
		L198.4,227.3 L199.5,228.8 L200.7,230.3 L201.8,231.8 L203.0,233.3 L204.1,234.8 L205.3,236.3 L206.4,237.8
		L207.6,239.2 L208.7,240.7 L209.9,242.2 L211.0,243.7 L212.2,245.2 L213.3,246.7 L214.5,248.2 L215.6,249.7
		L216.8,251.1 L217.9,252.6 L219.1,254.1 L220.2,255.6 L221.4,257.0 L222.5,258.5 L223.7,260.0 L224.8,261.4
		L226.0,262.9 L227.1,264.3 L228.3,265.8 L229.4,267.2 L230.6,268.7 L231.7,270.1 L232.9,271.6 L234.0,273.0
		L235.2,274.4 L236.3,275.9 L237.5,277.3 L238.6,278.7 L239.8,280.2 L240.9,281.6 L242.1,283.0 L243.2,284.4
		L244.4,285.8 L245.5,287.2 L246.7,288.6 L247.8,290.0 L249.0,291.4 L250.1,292.8 L251.3,294.2 L252.4,295.6
		L253.6,297.0 L254.7,298.4 L255.9,299.8 L257.0,301.1 L258.2,302.5 L259.3,303.9 L260.5,305.2 L261.6,306.6
		L262.8,308.0 L263.9,309.3 L265.1,310.7 L266.2,312.0 L267.4,313.4 L268.5,314.7 L269.7,316.0 L270.8,317.4
		L272.0,318.7 L273.1,320.0 L274.3,321.4 L275.4,322.7 L276.6,324.0 L277.7,325.3 L278.9,326.6 L280.0,327.9
		L281.2,329.2 L282.3,330.5 L283.5,331.8 L284.6,333.1 L285.8,334.4 L286.9,335.7 L288.1,337.0 L289.2,338.3
		L290.4,339.6 L291.5,340.8 L292.7,342.1 L293.8,343.4 L295.0,344.6 L296.1,345.9 L297.3,347.2 L298.4,348.4
		L299.6,349.7 L300.7,350.9 L301.9,352.2 L303.0,353.4 L304.2,354.6 L305.3,355.9 L306.5,357.1 L307.6,358.3
		L308.8,359.6 L309.9,360.8 L311.1,362.0 L312.2,363.2 L313.4,364.4 L314.5,365.6 L315.6,366.9 L316.8,368.1
		L317.9,369.3 L319.1,370.5 L320.2,371.7 L321.4,372.9 L322.5,374.0 L323.7,375.2 L324.8,376.4 L326.0,377.6
		L327.1,378.8 L328.3,380.0 L329.4,381.1 L330.6,382.3 L331.7,383.5 L332.9,384.6 L334.0,385.8 L335.2,386.9
		L336.3,388.1 L337.5,389.3 L338.6,390.4 L339.8,391.6 L340.9,392.7 L342.1,393.8 L343.2,395.0 L344.4,396.1
		L345.5,397.3 L346.7,398.4 L347.8,399.5 L349.0,400.6 L350.1,401.8 L351.3,402.9 L352.4,404.0 L353.6,405.1
		L354.7,406.2 L355.9,407.3 L357.0,408.5 L358.2,409.6 L359.3,410.7 L360.5,411.8 L361.6,412.9 L362.8,414.0
		L363.9,415.1 L365.1,416.1 L366.2,417.2 L367.4,418.3 L368.5,419.4 L369.7,420.5 L370.8,421.6 L372.0,422.6
		L373.1,423.7 L374.3,424.8 L375.4,425.9 L376.6,426.9 L377.7,428.0 L378.9,429.0 L380.0,430.1 L381.2,431.2
		L382.3,432.2 L383.5,433.3 L384.6,434.3 L385.8,435.4 L386.9,436.4 L388.1,437.5 L389.2,438.5 L390.4,439.6
		L391.5,440.6 L392.7,441.6 L393.8,442.7 L395.0,443.7 L396.1,444.7 L397.3,445.8 L398.4,446.8 L399.6,447.8
		L400.7,448.8 L401.9,449.8 L403.0,450.9 L404.2,451.9 L405.3,452.9 L406.5,453.9 L407.6,454.9 L408.8,455.9
		L409.9,456.9 L411.1,457.9 L412.2,458.9 L413.4,459.9 L414.5,460.9 L415.7,461.9 L416.8,462.9 L418.0,463.9
		L419.1,464.9 L420.3,465.9 L421.4,466.9 L422.6,467.9 L423.7,468.8 L424.9,469.8 L426.0,470.8 L427.2,471.8
		L428.3,472.8 L429.5,473.7 L430.6,474.7 L431.8,475.7 L432.9,476.6 L434.1,477.6 L435.2,478.6 L436.4,479.5
		L437.5,480.5 L438.7,481.5 L439.8,482.4 L441.0,483.4 L442.1,484.3 L443.3,485.3 L444.4,486.2 L445.6,487.2
		L446.7,488.1 L447.9,489.1 L449.0,490.0 L450.2,491.0 L451.3,491.9 L452.5,492.8 L453.6,493.8 L454.8,494.7
		L455.9,495.7 L457.1,496.6 L458.2,497.5 L459.4,498.4 L460.5,499.4 L461.7,500.3 L462.8,501.2 L464.0,502.1
		L465.1,503.1 L466.3,504.0 L467.4,504.9 L468.6,505.8 L469.7,506.7 L470.9,507.7 L472.0,508.6 L473.2,509.5
		L474.3,510.4 L475.5,511.3 L476.6,512.2 L477.8,513.1 L478.9,514.0 L480.1,514.9 L481.2,515.8 L482.4,516.7
		L483.5,517.6 L484.7,518.5 L485.8,519.4 L487.0,520.3 L488.1,521.2 L489.3,522.1 L490.4,522.9 L491.6,523.8
		L492.7,524.7 L493.9,525.6 L495.0,526.5 L496.2,527.4 L497.3,528.2 L498.5,529.1 L499.6,530.0 L500.8,530.9
		L501.9,531.7 L503.1,532.6 L504.2,533.5 L505.4,534.3 L506.5,535.2 L507.7,536.1 L508.8,536.9 L510.0,537.8
		L511.1,538.7 L512.3,539.5 L513.4,540.4 L514.6,541.2 L515.7,542.1 L516.9,542.9 L518.0,543.8 L519.2,544.6
		L520.3,545.5 L521.5,546.3 L522.6,547.2 L523.8,548.0 L524.9,548.9 L526.1,549.7 L527.2,550.5 L528.4,551.4
		L529.5,552.2 L530.7,553.0 L531.8,553.9 L533.0,554.7 L534.1,555.5 L535.3,556.4 L536.4,557.2 L537.6,558.0
		L538.7,558.8 L539.9,559.6 L541.0,560.5 L542.2,561.3 L543.3,562.1 L544.5,562.9 L545.6,563.7 L546.8,564.5
		L547.9,565.4 L549.1,566.2 L550.2,567.0 L551.3,567.8 L552.5,568.6 L553.6,569.4 L554.8,570.2 L555.9,571.0
		L557.1,571.8 L558.2,572.6 L559.4,573.4 L560.5,574.2 L561.7,574.9 L562.8,575.7 L564.0,576.5 L565.1,577.3
		L566.3,578.1 L567.4,578.9 L568.6,579.6 L569.7,580.4 L570.9,581.2 L572.0,582.0 L573.2,582.7 L574.3,583.5
		L575.5,584.3 L576.6,585.0 L577.8,585.8 L578.9,586.6 L580.1,587.3 L581.2,588.1 L582.4,588.9 L583.5,589.6
		L584.7,590.4 L585.8,591.1 L587.0,591.9 L588.1,592.6 L589.3,593.4 L590.4,594.1 L591.6,594.8 L592.7,595.6
		L593.9,596.3 L595.0,597.1 L596.2,597.8 L597.3,598.5 L598.5,599.2 L599.6,600.0 L600.8,600.7 L601.9,601.4
		L603.1,602.1 L604.2,602.9 L605.4,603.6 L606.5,604.3 L607.7,605.0 L608.8,605.7 L610.0,606.4 L611.1,607.1
		L612.3,607.8 L613.4,608.5 L614.6,609.2 L615.7,609.9 L616.9,610.6 L618.0,611.3 L619.2,612.0 L620.3,612.7
		L621.5,613.4 L622.6,614.1 L623.8,614.7 L624.9,615.4 L626.1,616.1 L627.2,616.8 L628.4,617.4 L629.5,618.1
		L630.7,618.8 L631.8,619.4 L633.0,620.1 L634.1,620.7 L635.3,621.4 L636.4,622.0 L637.6,622.7 L638.7,623.3
		L639.9,624.0 L641.0,624.6 L642.2,625.3 L643.3,625.9 L644.5,626.5 L645.6,627.2 L646.8,627.8 L647.9,628.4
		L649.1,629.0 L650.2,629.6 L651.4,630.3 L652.5,630.9 L653.7,631.5 L654.8,632.1 L656.0,632.7 L657.1,633.3
		L658.3,633.9 L659.4,634.5 L660.6,635.1 L661.7,635.7 L662.9,636.3 L664.0,636.8 L665.2,637.4 L666.3,638.0
		L667.5,638.6 L668.6,639.1 L669.8,639.7 L670.9,640.3 L672.1,640.8 L673.2,641.4 L674.4,641.9 L675.5,642.5
		L676.7,643.0 L677.8,643.6 L679.0,644.1 L680.1,644.6 L681.3,645.2 L682.4,645.7 L683.6,646.2 L684.7,646.8
		L685.9,647.3 L687.0,647.8 L688.2,648.3 L689.3,648.8 L690.5,649.3 L691.6,649.8 L692.8,650.3 L693.9,650.8
		L695.1,651.3 L696.2,651.8 L697.4,652.3 L698.5,652.7 L699.7,653.2 L700.8,653.7 L702.0,654.1 L703.1,654.6
		L704.3,655.1 L705.4,655.5 L706.6,656.0 L707.7,656.4 L708.9,656.9 L710.0,657.3 L711.2,657.7 L712.3,658.2
		L713.5,658.6 L714.6,659.0 L715.8,659.4 L716.9,659.8 L718.1,660.3 L719.2,660.7 L720.4,661.1 L721.5,661.5
		L722.7,661.9 L723.8,662.2 L725.0,662.6 L726.1,663.0 L727.3,663.4 L728.4,663.8 L729.6,664.1 L730.7,664.5
		L731.9,664.8 L733.0,665.2 L734.2,665.6 L735.3,665.9 L736.5,666.2 L737.6,666.6 L738.8,666.9 L739.9,667.2
		L741.1,667.6 L742.2,667.9 L743.4,668.2 L744.5,668.5 L745.7,668.8 L746.8,669.1 L748.0,669.4 L749.1,669.7
		L750.3,670.0 L751.4,670.3 L752.6,670.6 L753.7,670.9 L754.9,671.1 L756.0,671.4 L757.2,671.7 L758.3,671.9
		L759.5,672.2 L760.6,672.4 L761.8,672.7 L762.9,672.9 L764.1,673.1 L765.2,673.4 L766.4,673.6 L767.5,673.8
		L768.7,674.0 L769.8,674.3 L771.0,674.5 L772.1,674.7 L773.3,674.9 L774.4,675.1 L775.6,675.3 L776.7,675.4
		L777.9,675.6 L779.0,675.8 L780.2,676.0 L781.3,676.1 L782.5,676.3 L783.6,676.5 L784.7,676.6 L785.9,676.8
		L787.0,676.9 L788.2,677.1 L789.3,677.2 L790.5,677.3 L791.6,677.5 L792.8,677.6 L793.9,677.7 L795.1,677.8
		L796.2,677.9 L797.4,678.0 L798.5,678.1 L799.7,678.2 L800.8,678.3 L802.0,678.4 L803.1,678.5 L804.3,678.6
		L805.4,678.7 L806.6,678.7 L807.7,678.8 L808.9,678.9 L810.0,678.9 L811.2,679.0 L812.3,679.0 L813.5,679.1
		L814.6,679.1 L815.8,679.2 L816.9,679.2 L818.1,679.2 L819.2,679.2 L820.4,679.3 L821.5,679.3 L822.7,679.3
		L823.8,679.3 L825.0,679.3 L826.1,679.3 L827.3,679.3 L828.4,679.3 L829.6,679.3 L830.7,679.3 L831.9,679.3
		L833.0,679.3 L834.2,679.2 L835.3,679.2 L836.5,679.2 L837.6,679.1 L838.8,679.1 L839.9,679.1 L841.1,679.0
		L842.2,679.0 L843.4,678.9 L844.5,678.8 L845.7,678.8 L846.8,678.7 L848.0,678.6 L849.1,678.6 L850.3,678.5
		L851.4,678.4 L852.6,678.3 L853.7,678.3 L854.9,678.2 L856.0,678.1 L857.2,678.0 L858.3,677.9 L859.5,677.8
		L860.6,677.7 L861.8,677.6 L862.9,677.5 L864.1,677.3 L865.2,677.2 L866.4,677.1 L867.5,677.0 L868.7,676.9
		L869.8,676.7 L871.0,676.6 L872.1,676.5 L873.3,676.3 L874.4,676.2 L875.6,676.0 L876.7,675.9 L877.9,675.7
		L879.0,675.6 L880.2,675.4 L881.3,675.3 L882.5,675.1 L883.6,675.0 L884.8,674.8 L885.9,674.6 L887.1,674.5
		L888.2,674.3 L889.4,674.1 L890.5,673.9 L891.7,673.8 L892.8,673.6 L894.0,673.4 L895.1,673.2 L896.3,673.0
		L897.4,672.8 L898.6,672.6 L899.7,672.4 L900.9,672.2 L902.0,672.0 L903.2,671.8 L904.3,671.6 L905.5,671.4
		L906.6,671.2 L907.8,671.0 L908.9,670.8 L910.1,670.6 L911.2,670.4 L912.4,670.2 L913.5,669.9 L914.7,669.7
		L915.8,669.5 L917.0,669.3 L918.1,669.0 L919.3,668.8 L920.4,668.6 L921.6,668.3 L922.7,668.1 L923.9,667.9
		L925.0,667.6 L926.2,667.4 L927.3,667.2 L928.5,666.9 L929.6,666.7 L930.8,666.4 L931.9,666.2 L933.1,665.9
		L934.2,665.7 L935.4,665.4 L936.5,665.2 L937.7,664.9 L938.8,664.7 L940.0,664.4 L941.1,664.2 L942.3,663.9
		L943.4,663.7 L944.6,663.4 L945.7,663.1 L946.9,662.9 L948.0,662.6 L949.2,662.4 L950.3,662.1 L951.5,661.8
		L952.6,661.6 L953.8,661.3 L954.9,661.0 L956.1,660.8 L957.2,660.5 L958.4,660.2 L959.5,659.9 L960.7,659.7
		L961.8,659.4 L963.0,659.1 L964.1,658.9 L965.3,658.6 L966.4,658.3 L967.6,658.0 L968.7,657.8 L969.9,657.5
		L971.0,657.2 L972.2,656.9 L973.3,656.6 L974.5,656.4 L975.6,656.1 L976.8,655.8 L977.9,655.5 L979.1,655.2
		L980.2,655.0 L981.4,654.7 L982.5,654.4 L983.7,654.1 L984.8,653.8 L986.0,653.5 L987.1,653.3 L988.3,653.0
		L989.4,652.7 L990.6,652.4 L991.7,652.1 L992.9,651.8 L994.0,651.5 L995.2,651.3 L996.3,651.0 L997.5,650.7
		L998.6,650.4 L999.8,650.1 L1000.9,649.8 L1002.1,649.6 L1003.2,649.3 L1004.4,649.0 L1005.5,648.7 L1006.7,648.4
		L1007.8,648.1 L1009.0,647.8 L1010.1,647.6 L1011.3,647.3 L1012.4,647.0 L1013.6,646.7 L1014.7,646.4 L1015.9,646.1
		L1017.0,645.8 L1018.2,645.6 L1019.3,645.3 L1020.4,645.0 L1021.6,644.7 L1022.7,644.4 L1023.9,644.1 L1025.0,643.9
		L1026.2,643.6 L1027.3,643.3 L1028.5,643.0 L1029.6,642.7 L1030.8,642.5 L1031.9,642.2 L1033.1,641.9 L1034.2,641.6
		L1035.4,641.3 L1036.5,641.1 L1037.7,640.8 L1038.8,640.5 L1040.0,640.2 L1041.1,640.0 L1042.3,639.7 L1043.4,639.4
		L1044.6,639.1 L1045.7,638.9 L1046.9,638.6 L1048.0,638.3 L1049.2,638.0 L1050.3,637.8 L1051.5,637.5 L1052.6,637.2
		L1053.8,637.0 L1054.9,636.7 L1056.1,636.4 L1057.2,636.2 L1058.4,635.9 L1059.5,635.6 L1060.7,635.4 L1061.8,635.1
		L1063.0,634.8 L1064.1,634.6 L1065.3,634.3 L1066.4,634.1 L1067.6,633.8 L1068.7,633.5 L1069.9,633.3 L1071.0,633.0
		L1072.2,632.8 L1073.3,632.5 L1074.5,632.3 L1075.6,632.0 L1076.8,631.8 L1077.9,631.5 L1079.1,631.3 L1080.2,631.0
		L1081.4,630.8 L1082.5,630.5 L1083.7,630.3 L1084.8,630.0 L1086.0,629.8 L1087.1,629.5 L1088.3,629.3 L1089.4,629.1
		L1090.6,628.8 L1091.7,628.6 L1092.9,628.3 L1094.0,628.1 L1095.2,627.9 L1096.3,627.6 L1097.5,627.4 L1098.6,627.2
		L1099.8,626.9 L1100.9,626.7 L1102.1,626.5 L1103.2,626.3 L1104.4,626.0 L1105.5,625.8 L1106.7,625.6 L1107.8,625.4
		L1109.0,625.1 L1110.1,624.9 L1111.3,624.7 L1112.4,624.5 L1113.6,624.3 L1114.7,624.1 L1115.9,623.8 L1117.0,623.6
		L1118.2,623.4 L1119.3,623.2 L1120.5,623.0 L1121.6,622.8 L1122.8,622.6 L1123.9,622.4 L1125.1,622.2 L1126.2,622.0
		L1127.4,621.8 L1128.5,621.6 L1129.7,621.4 L1130.8,621.2 L1132.0,621.0 L1133.1,620.8 L1134.3,620.6 L1135.4,620.5
		L1136.6,620.3 L1137.7,620.1 L1138.9,619.9 L1140.0,619.7 L1141.2,619.5 L1142.3,619.4 L1143.5,619.2 L1144.6,619.0
		L1145.8,618.8 L1146.9,618.7 L1148.1,618.5 L1149.2,618.3 L1150.4,618.1 L1151.5,618.0 L1152.7,617.8 L1153.8,617.7
		L1155.0,617.5 L1156.1,617.3 L1157.3,617.2 L1158.4,617.0 L1159.6,616.9 L1160.7,616.7 L1161.9,616.6 L1163.0,616.4
		L1164.2,616.3 L1165.3,616.1 L1166.5,616.0 L1167.6,615.8 L1168.8,615.7 L1169.9,615.5 L1171.1,615.4 L1172.2,615.3
		L1173.4,615.1 L1174.5,615.0 L1175.7,614.9 L1176.8,614.7 L1178.0,614.6 L1179.1,614.5 L1180.3,614.4 L1181.4,614.2
		L1182.6,614.1 L1183.7,614.0 L1184.9,613.9 L1186.0,613.8 L1187.2,613.7 L1188.3,613.5 L1189.5,613.4 L1190.6,613.3
		L1191.8,613.2 L1192.9,613.1 L1194.1,613.0 L1195.2,612.9 L1196.4,612.8 L1197.5,612.7 L1198.7,612.6 L1199.8,612.5
		L1201.0,612.4 L1202.1,612.3 L1203.3,612.3 L1204.4,612.2 L1205.6,612.1 L1206.7,612.0 L1207.9,611.9 L1209.0,611.8
		L1210.2,611.8 L1211.3,611.7 L1212.5,611.6 L1213.6,611.6 L1214.8,611.5 L1215.9,611.4 L1217.1,611.4 L1218.2,611.3
		L1219.4,611.2 L1220.5,611.2 L1221.7,611.1 L1222.8,611.1 L1224.0,611.0 L1225.1,611.0 L1226.3,610.9 L1227.4,610.9
		L1228.6,610.8 L1229.7,610.8 L1230.9,610.7 L1232.0,610.7 L1233.2,610.6 L1234.3,610.6 L1235.5,610.6 L1236.6,610.5
		L1237.8,610.5 L1238.9,610.5 L1240.1,610.5 L1241.2,610.4 L1242.4,610.4 L1243.5,610.4 L1244.7,610.4 L1245.8,610.4
		L1247.0,610.3 L1248.1,610.3 L1249.3,610.3 L1250.4,610.3 L1251.6,610.3 L1252.7,610.3 L1253.9,610.3 L1255.0,610.3
		 '/></g>
	</g>
	<g id="gnuplot_plot_6" ><title>gnuplot_plot_6</title>
<g fill="none" color="black" stroke="currentColor" stroke-width="1.00" stroke-linecap="butt" stroke-linejoin="miter">
	<path stroke='rgb(  0,   0, 255)'  d='M78.8,55.9 L79.9,56.0 L81.1,56.3 L82.2,56.7 L83.4,57.4 L84.5,58.2 L85.7,59.2 L86.8,60.4
		L88.0,61.6 L89.1,63.0 L90.3,64.5 L91.4,66.1 L92.6,67.8 L93.7,69.5 L94.9,71.3 L96.0,73.1
		L97.2,74.9 L98.3,76.8 L99.5,78.6 L100.6,80.5 L101.8,82.3 L102.9,84.2 L104.1,86.0 L105.2,87.8
		L106.4,89.7 L107.5,91.5 L108.7,93.2 L109.8,95.0 L111.0,96.7 L112.1,98.4 L113.3,100.2 L114.4,101.8
		L115.6,103.5 L116.7,105.2 L117.9,106.8 L119.0,108.5 L120.2,110.1 L121.3,111.7 L122.5,113.3 L123.6,114.9
		L124.8,116.5 L125.9,118.1 L127.1,119.7 L128.2,121.3 L129.4,122.8 L130.5,124.4 L131.7,126.0 L132.8,127.5
		L134.0,129.1 L135.1,130.7 L136.3,132.2 L137.4,133.8 L138.6,135.4 L139.7,137.0 L140.9,138.5 L142.0,140.1
		L143.2,141.7 L144.3,143.2 L145.5,144.8 L146.6,146.4 L147.8,148.0 L148.9,149.6 L150.1,151.2 L151.2,152.7
		L152.4,154.3 L153.5,155.9 L154.7,157.5 L155.8,159.1 L157.0,160.7 L158.1,162.3 L159.3,163.9 L160.4,165.5
		L161.6,167.1 L162.7,168.7 L163.9,170.3 L165.0,171.9 L166.2,173.5 L167.3,175.1 L168.5,176.7 L169.6,178.3
		L170.8,179.9 L171.9,181.5 L173.1,183.1 L174.2,184.8 L175.4,186.4 L176.5,188.0 L177.7,189.6 L178.8,191.2
		L180.0,192.8 L181.1,194.4 L182.3,196.0 L183.4,197.6 L184.6,199.2 L185.7,200.8 L186.9,202.4 L188.0,204.0
		L189.2,205.6 L190.3,207.2 L191.5,208.8 L192.6,210.4 L193.8,211.9 L194.9,213.5 L196.1,215.1 L197.2,216.7
		L198.4,218.3 L199.5,219.9 L200.7,221.4 L201.8,223.0 L203.0,224.6 L204.1,226.1 L205.3,227.7 L206.4,229.3
		L207.6,230.8 L208.7,232.4 L209.9,233.9 L211.0,235.5 L212.2,237.0 L213.3,238.6 L214.5,240.1 L215.6,241.7
		L216.8,243.2 L217.9,244.7 L219.1,246.2 L220.2,247.8 L221.4,249.3 L222.5,250.8 L223.7,252.3 L224.8,253.8
		L226.0,255.3 L227.1,256.8 L228.3,258.3 L229.4,259.8 L230.6,261.3 L231.7,262.8 L232.9,264.3 L234.0,265.8
		L235.2,267.2 L236.3,268.7 L237.5,270.2 L238.6,271.6 L239.8,273.1 L240.9,274.6 L242.1,276.0 L243.2,277.5
		L244.4,278.9 L245.5,280.3 L246.7,281.8 L247.8,283.2 L249.0,284.6 L250.1,286.1 L251.3,287.5 L252.4,288.9
		L253.6,290.3 L254.7,291.7 L255.9,293.1 L257.0,294.5 L258.2,295.9 L259.3,297.3 L260.5,298.7 L261.6,300.1
		L262.8,301.5 L263.9,302.9 L265.1,304.2 L266.2,305.6 L267.4,307.0 L268.5,308.3 L269.7,309.7 L270.8,311.1
		L272.0,312.4 L273.1,313.8 L274.3,315.1 L275.4,316.4 L276.6,317.8 L277.7,319.1 L278.9,320.4 L280.0,321.8
		L281.2,323.1 L282.3,324.4 L283.5,325.7 L284.6,327.0 L285.8,328.3 L286.9,329.6 L288.1,330.9 L289.2,332.2
		L290.4,333.5 L291.5,334.8 L292.7,336.1 L293.8,337.3 L295.0,338.6 L296.1,339.9 L297.3,341.2 L298.4,342.4
		L299.6,343.7 L300.7,344.9 L301.9,346.2 L303.0,347.4 L304.2,348.7 L305.3,349.9 L306.5,351.2 L307.6,352.4
		L308.8,353.6 L309.9,354.9 L311.1,356.1 L312.2,357.3 L313.4,358.5 L314.5,359.8 L315.6,361.0 L316.8,362.2
		L317.9,363.4 L319.1,364.6 L320.2,365.8 L321.4,367.0 L322.5,368.2 L323.7,369.4 L324.8,370.6 L326.0,371.7
		L327.1,372.9 L328.3,374.1 L329.4,375.3 L330.6,376.5 L331.7,377.6 L332.9,378.8 L334.0,379.9 L335.2,381.1
		L336.3,382.3 L337.5,383.4 L338.6,384.6 L339.8,385.7 L340.9,386.9 L342.1,388.0 L343.2,389.1 L344.4,390.3
		L345.5,391.4 L346.7,392.5 L347.8,393.7 L349.0,394.8 L350.1,395.9 L351.3,397.0 L352.4,398.1 L353.6,399.2
		L354.7,400.4 L355.9,401.5 L357.0,402.6 L358.2,403.7 L359.3,404.8 L360.5,405.9 L361.6,407.0 L362.8,408.1
		L363.9,409.1 L365.1,410.2 L366.2,411.3 L367.4,412.4 L368.5,413.5 L369.7,414.5 L370.8,415.6 L372.0,416.7
		L373.1,417.8 L374.3,418.8 L375.4,419.9 L376.6,420.9 L377.7,422.0 L378.9,423.1 L380.0,424.1 L381.2,425.2
		L382.3,426.2 L383.5,427.3 L384.6,428.3 L385.8,429.3 L386.9,430.4 L388.1,431.4 L389.2,432.5 L390.4,433.5
		L391.5,434.5 L392.7,435.5 L393.8,436.6 L395.0,437.6 L396.1,438.6 L397.3,439.6 L398.4,440.6 L399.6,441.7
		L400.7,442.7 L401.9,443.7 L403.0,444.7 L404.2,445.7 L405.3,446.7 L406.5,447.7 L407.6,448.7 L408.8,449.7
		L409.9,450.7 L411.1,451.7 L412.2,452.7 L413.4,453.7 L414.5,454.7 L415.7,455.6 L416.8,456.6 L418.0,457.6
		L419.1,458.6 L420.3,459.6 L421.4,460.5 L422.6,461.5 L423.7,462.5 L424.9,463.5 L426.0,464.4 L427.2,465.4
		L428.3,466.3 L429.5,467.3 L430.6,468.3 L431.8,469.2 L432.9,470.2 L434.1,471.1 L435.2,472.1 L436.4,473.0
		L437.5,474.0 L438.7,474.9 L439.8,475.9 L441.0,476.8 L442.1,477.8 L443.3,478.7 L444.4,479.6 L445.6,480.6
		L446.7,481.5 L447.9,482.4 L449.0,483.4 L450.2,484.3 L451.3,485.2 L452.5,486.2 L453.6,487.1 L454.8,488.0
		L455.9,488.9 L457.1,489.8 L458.2,490.8 L459.4,491.7 L460.5,492.6 L461.7,493.5 L462.8,494.4 L464.0,495.3
		L465.1,496.2 L466.3,497.1 L467.4,498.0 L468.6,498.9 L469.7,499.8 L470.9,500.7 L472.0,501.6 L473.2,502.5
		L474.3,503.4 L475.5,504.3 L476.6,505.2 L477.8,506.1 L478.9,507.0 L480.1,507.9 L481.2,508.8 L482.4,509.7
		L483.5,510.5 L484.7,511.4 L485.8,512.3 L487.0,513.2 L488.1,514.0 L489.3,514.9 L490.4,515.8 L491.6,516.7
		L492.7,517.5 L493.9,518.4 L495.0,519.3 L496.2,520.1 L497.3,521.0 L498.5,521.9 L499.6,522.7 L500.8,523.6
		L501.9,524.4 L503.1,525.3 L504.2,526.1 L505.4,527.0 L506.5,527.9 L507.7,528.7 L508.8,529.5 L510.0,530.4
		L511.1,531.2 L512.3,532.1 L513.4,532.9 L514.6,533.8 L515.7,534.6 L516.9,535.4 L518.0,536.3 L519.2,537.1
		L520.3,538.0 L521.5,538.8 L522.6,539.6 L523.8,540.4 L524.9,541.3 L526.1,542.1 L527.2,542.9 L528.4,543.7
		L529.5,544.6 L530.7,545.4 L531.8,546.2 L533.0,547.0 L534.1,547.8 L535.3,548.6 L536.4,549.5 L537.6,550.3
		L538.7,551.1 L539.9,551.9 L541.0,552.7 L542.2,553.5 L543.3,554.3 L544.5,555.1 L545.6,555.9 L546.8,556.7
		L547.9,557.5 L549.1,558.3 L550.2,559.1 L551.3,559.9 L552.5,560.7 L553.6,561.5 L554.8,562.2 L555.9,563.0
		L557.1,563.8 L558.2,564.6 L559.4,565.4 L560.5,566.2 L561.7,566.9 L562.8,567.7 L564.0,568.5 L565.1,569.2
		L566.3,570.0 L567.4,570.8 L568.6,571.6 L569.7,572.3 L570.9,573.1 L572.0,573.8 L573.2,574.6 L574.3,575.4
		L575.5,576.1 L576.6,576.9 L577.8,577.6 L578.9,578.4 L580.1,579.1 L581.2,579.9 L582.4,580.6 L583.5,581.4
		L584.7,582.1 L585.8,582.9 L587.0,583.6 L588.1,584.3 L589.3,585.1 L590.4,585.8 L591.6,586.5 L592.7,587.3
		L593.9,588.0 L595.0,588.7 L596.2,589.4 L597.3,590.2 L598.5,590.9 L599.6,591.6 L600.8,592.3 L601.9,593.0
		L603.1,593.7 L604.2,594.4 L605.4,595.1 L606.5,595.9 L607.7,596.6 L608.8,597.3 L610.0,598.0 L611.1,598.6
		L612.3,599.3 L613.4,600.0 L614.6,600.7 L615.7,601.4 L616.9,602.1 L618.0,602.8 L619.2,603.5 L620.3,604.1
		L621.5,604.8 L622.6,605.5 L623.8,606.2 L624.9,606.8 L626.1,607.5 L627.2,608.2 L628.4,608.8 L629.5,609.5
		L630.7,610.1 L631.8,610.8 L633.0,611.4 L634.1,612.1 L635.3,612.7 L636.4,613.4 L637.6,614.0 L638.7,614.7
		L639.9,615.3 L641.0,615.9 L642.2,616.6 L643.3,617.2 L644.5,617.8 L645.6,618.4 L646.8,619.1 L647.9,619.7
		L649.1,620.3 L650.2,620.9 L651.4,621.5 L652.5,622.1 L653.7,622.7 L654.8,623.3 L656.0,623.9 L657.1,624.5
		L658.3,625.1 L659.4,625.7 L660.6,626.3 L661.7,626.9 L662.9,627.4 L664.0,628.0 L665.2,628.6 L666.3,629.2
		L667.5,629.7 L668.6,630.3 L669.8,630.9 L670.9,631.4 L672.1,632.0 L673.2,632.5 L674.4,633.1 L675.5,633.6
		L676.7,634.1 L677.8,634.7 L679.0,635.2 L680.1,635.7 L681.3,636.3 L682.4,636.8 L683.6,637.3 L684.7,637.8
		L685.9,638.3 L687.0,638.8 L688.2,639.4 L689.3,639.9 L690.5,640.4 L691.6,640.8 L692.8,641.3 L693.9,641.8
		L695.1,642.3 L696.2,642.8 L697.4,643.3 L698.5,643.7 L699.7,644.2 L700.8,644.7 L702.0,645.1 L703.1,645.6
		L704.3,646.0 L705.4,646.5 L706.6,646.9 L707.7,647.4 L708.9,647.8 L710.0,648.2 L711.2,648.6 L712.3,649.1
		L713.5,649.5 L714.6,649.9 L715.8,650.3 L716.9,650.7 L718.1,651.1 L719.2,651.5 L720.4,651.9 L721.5,652.3
		L722.7,652.7 L723.8,653.1 L725.0,653.4 L726.1,653.8 L727.3,654.2 L728.4,654.5 L729.6,654.9 L730.7,655.2
		L731.9,655.6 L733.0,655.9 L734.2,656.3 L735.3,656.6 L736.5,656.9 L737.6,657.3 L738.8,657.6 L739.9,657.9
		L741.1,658.2 L742.2,658.5 L743.4,658.8 L744.5,659.1 L745.7,659.4 L746.8,659.7 L748.0,660.0 L749.1,660.3
		L750.3,660.6 L751.4,660.8 L752.6,661.1 L753.7,661.4 L754.9,661.6 L756.0,661.9 L757.2,662.1 L758.3,662.3
		L759.5,662.6 L760.6,662.8 L761.8,663.0 L762.9,663.3 L764.1,663.5 L765.2,663.7 L766.4,663.9 L767.5,664.1
		L768.7,664.3 L769.8,664.5 L771.0,664.7 L772.1,664.9 L773.3,665.1 L774.4,665.2 L775.6,665.4 L776.7,665.6
		L777.9,665.7 L779.0,665.9 L780.2,666.0 L781.3,666.2 L782.5,666.3 L783.6,666.5 L784.7,666.6 L785.9,666.7
		L787.0,666.8 L788.2,666.9 L789.3,667.1 L790.5,667.2 L791.6,667.3 L792.8,667.4 L793.9,667.5 L795.1,667.5
		L796.2,667.6 L797.4,667.7 L798.5,667.8 L799.7,667.9 L800.8,667.9 L802.0,668.0 L803.1,668.0 L804.3,668.1
		L805.4,668.1 L806.6,668.2 L807.7,668.2 L808.9,668.2 L810.0,668.3 L811.2,668.3 L812.3,668.3 L813.5,668.3
		L814.6,668.3 L815.8,668.3 L816.9,668.3 L818.1,668.3 L819.2,668.3 L820.4,668.3 L821.5,668.3 L822.7,668.3
		L823.8,668.3 L825.0,668.2 L826.1,668.2 L827.3,668.2 L828.4,668.1 L829.6,668.1 L830.7,668.0 L831.9,668.0
		L833.0,667.9 L834.2,667.8 L835.3,667.8 L836.5,667.7 L837.6,667.6 L838.8,667.6 L839.9,667.5 L841.1,667.4
		L842.2,667.3 L843.4,667.2 L844.5,667.1 L845.7,667.0 L846.8,666.9 L848.0,666.8 L849.1,666.7 L850.3,666.6
		L851.4,666.4 L852.6,666.3 L853.7,666.2 L854.9,666.1 L856.0,665.9 L857.2,665.8 L858.3,665.6 L859.5,665.5
		L860.6,665.3 L861.8,665.2 L862.9,665.0 L864.1,664.9 L865.2,664.7 L866.4,664.6 L867.5,664.4 L868.7,664.2
		L869.8,664.0 L871.0,663.9 L872.1,663.7 L873.3,663.5 L874.4,663.3 L875.6,663.1 L876.7,662.9 L877.9,662.7
		L879.0,662.5 L880.2,662.3 L881.3,662.1 L882.5,661.9 L883.6,661.7 L884.8,661.5 L885.9,661.3 L887.1,661.1
		L888.2,660.9 L889.4,660.6 L890.5,660.4 L891.7,660.2 L892.8,660.0 L894.0,659.7 L895.1,659.5 L896.3,659.2
		L897.4,659.0 L898.6,658.8 L899.7,658.5 L900.9,658.3 L902.0,658.0 L903.2,657.8 L904.3,657.5 L905.5,657.3
		L906.6,657.0 L907.8,656.8 L908.9,656.5 L910.1,656.2 L911.2,656.0 L912.4,655.7 L913.5,655.4 L914.7,655.2
		L915.8,654.9 L917.0,654.6 L918.1,654.3 L919.3,654.1 L920.4,653.8 L921.6,653.5 L922.7,653.2 L923.9,652.9
		L925.0,652.7 L926.2,652.4 L927.3,652.1 L928.5,651.8 L929.6,651.5 L930.8,651.2 L931.9,650.9 L933.1,650.6
		L934.2,650.3 L935.4,650.0 L936.5,649.7 L937.7,649.4 L938.8,649.1 L940.0,648.8 L941.1,648.5 L942.3,648.2
		L943.4,647.9 L944.6,647.6 L945.7,647.3 L946.9,647.0 L948.0,646.7 L949.2,646.4 L950.3,646.1 L951.5,645.8
		L952.6,645.4 L953.8,645.1 L954.9,644.8 L956.1,644.5 L957.2,644.2 L958.4,643.9 L959.5,643.5 L960.7,643.2
		L961.8,642.9 L963.0,642.6 L964.1,642.3 L965.3,642.0 L966.4,641.6 L967.6,641.3 L968.7,641.0 L969.9,640.7
		L971.0,640.3 L972.2,640.0 L973.3,639.7 L974.5,639.4 L975.6,639.0 L976.8,638.7 L977.9,638.4 L979.1,638.1
		L980.2,637.8 L981.4,637.4 L982.5,637.1 L983.7,636.8 L984.8,636.4 L986.0,636.1 L987.1,635.8 L988.3,635.5
		L989.4,635.1 L990.6,634.8 L991.7,634.5 L992.9,634.2 L994.0,633.8 L995.2,633.5 L996.3,633.2 L997.5,632.9
		L998.6,632.5 L999.8,632.2 L1000.9,631.9 L1002.1,631.6 L1003.2,631.2 L1004.4,630.9 L1005.5,630.6 L1006.7,630.3
		L1007.8,629.9 L1009.0,629.6 L1010.1,629.3 L1011.3,629.0 L1012.4,628.6 L1013.6,628.3 L1014.7,628.0 L1015.9,627.7
		L1017.0,627.4 L1018.2,627.0 L1019.3,626.7 L1020.4,626.4 L1021.6,626.1 L1022.7,625.8 L1023.9,625.4 L1025.0,625.1
		L1026.2,624.8 L1027.3,624.5 L1028.5,624.2 L1029.6,623.9 L1030.8,623.5 L1031.9,623.2 L1033.1,622.9 L1034.2,622.6
		L1035.4,622.3 L1036.5,622.0 L1037.7,621.7 L1038.8,621.4 L1040.0,621.0 L1041.1,620.7 L1042.3,620.4 L1043.4,620.1
		L1044.6,619.8 L1045.7,619.5 L1046.9,619.2 L1048.0,618.9 L1049.2,618.6 L1050.3,618.3 L1051.5,618.0 L1052.6,617.7
		L1053.8,617.4 L1054.9,617.1 L1056.1,616.8 L1057.2,616.5 L1058.4,616.2 L1059.5,615.9 L1060.7,615.6 L1061.8,615.3
		L1063.0,615.0 L1064.1,614.7 L1065.3,614.5 L1066.4,614.2 L1067.6,613.9 L1068.7,613.6 L1069.9,613.3 L1071.0,613.0
		L1072.2,612.7 L1073.3,612.5 L1074.5,612.2 L1075.6,611.9 L1076.8,611.6 L1077.9,611.4 L1079.1,611.1 L1080.2,610.8
		L1081.4,610.5 L1082.5,610.3 L1083.7,610.0 L1084.8,609.7 L1086.0,609.4 L1087.1,609.2 L1088.3,608.9 L1089.4,608.7
		L1090.6,608.4 L1091.7,608.1 L1092.9,607.9 L1094.0,607.6 L1095.2,607.4 L1096.3,607.1 L1097.5,606.8 L1098.6,606.6
		L1099.8,606.3 L1100.9,606.1 L1102.1,605.8 L1103.2,605.6 L1104.4,605.3 L1105.5,605.1 L1106.7,604.9 L1107.8,604.6
		L1109.0,604.4 L1110.1,604.1 L1111.3,603.9 L1112.4,603.7 L1113.6,603.4 L1114.7,603.2 L1115.9,603.0 L1117.0,602.7
		L1118.2,602.5 L1119.3,602.3 L1120.5,602.1 L1121.6,601.8 L1122.8,601.6 L1123.9,601.4 L1125.1,601.2 L1126.2,600.9
		L1127.4,600.7 L1128.5,600.5 L1129.7,600.3 L1130.8,600.1 L1132.0,599.9 L1133.1,599.7 L1134.3,599.5 L1135.4,599.3
		L1136.6,599.1 L1137.7,598.9 L1138.9,598.7 L1140.0,598.5 L1141.2,598.3 L1142.3,598.1 L1143.5,597.9 L1144.6,597.7
		L1145.8,597.5 L1146.9,597.3 L1148.1,597.1 L1149.2,597.0 L1150.4,596.8 L1151.5,596.6 L1152.7,596.4 L1153.8,596.2
		L1155.0,596.1 L1156.1,595.9 L1157.3,595.7 L1158.4,595.6 L1159.6,595.4 L1160.7,595.2 L1161.9,595.1 L1163.0,594.9
		L1164.2,594.7 L1165.3,594.6 L1166.5,594.4 L1167.6,594.3 L1168.8,594.1 L1169.9,594.0 L1171.1,593.8 L1172.2,593.7
		L1173.4,593.5 L1174.5,593.4 L1175.7,593.2 L1176.8,593.1 L1178.0,593.0 L1179.1,592.8 L1180.3,592.7 L1181.4,592.6
		L1182.6,592.4 L1183.7,592.3 L1184.9,592.2 L1186.0,592.1 L1187.2,591.9 L1188.3,591.8 L1189.5,591.7 L1190.6,591.6
		L1191.8,591.5 L1192.9,591.4 L1194.1,591.3 L1195.2,591.1 L1196.4,591.0 L1197.5,590.9 L1198.7,590.8 L1199.8,590.7
		L1201.0,590.6 L1202.1,590.5 L1203.3,590.5 L1204.4,590.4 L1205.6,590.3 L1206.7,590.2 L1207.9,590.1 L1209.0,590.0
		L1210.2,589.9 L1211.3,589.9 L1212.5,589.8 L1213.6,589.7 L1214.8,589.6 L1215.9,589.6 L1217.1,589.5 L1218.2,589.4
		L1219.4,589.3 L1220.5,589.3 L1221.7,589.2 L1222.8,589.2 L1224.0,589.1 L1225.1,589.1 L1226.3,589.0 L1227.4,588.9
		L1228.6,588.9 L1229.7,588.9 L1230.9,588.8 L1232.0,588.8 L1233.2,588.7 L1234.3,588.7 L1235.5,588.7 L1236.6,588.6
		L1237.8,588.6 L1238.9,588.6 L1240.1,588.5 L1241.2,588.5 L1242.4,588.5 L1243.5,588.5 L1244.7,588.4 L1245.8,588.4
		L1247.0,588.4 L1248.1,588.4 L1249.3,588.4 L1250.4,588.4 L1251.6,588.4 L1252.7,588.4 L1253.9,588.4 L1255.0,588.3
		 '/></g>
	</g>
<g fill="none" color="white" stroke="rgb(  0,   0, 255)" stroke-width="2.00" stroke-linecap="butt" stroke-linejoin="miter">
</g>
<g fill="none" color="black" stroke="currentColor" stroke-width="2.00" stroke-linecap="butt" stroke-linejoin="miter">
</g>
<g fill="none" color="black" stroke="black" stroke-width="1.00" stroke-linecap="butt" stroke-linejoin="miter">
</g>
<g fill="none" color="black" stroke="currentColor" stroke-width="1.00" stroke-linecap="butt" stroke-linejoin="miter">
	<path stroke='black'  d='M78.8,54.1 L78.8,684.0 L1255.0,684.0 L1255.0,54.1 L78.8,54.1 Z  '/></g>
<g fill="none" color="black" stroke="currentColor" stroke-width="1.00" stroke-linecap="butt" stroke-linejoin="miter">
</g>
</g>
</svg>

