<?xml version="1.0" encoding="utf-8"  standalone="no"?>
<svg 
 width="1280" height="720"
 viewBox="0 0 1280 720"
 xmlns="http://www.w3.org/2000/svg"
 xmlns:xlink="http://www.w3.org/1999/xlink"
>

<title>Gnuplot</title>
<desc>Produced by GNUPLOT 5.0 patchlevel 6 </desc>

<g id="gnuplot_canvas">

<rect x="0" y="0" width="1280" height="720" fill="none"/>
<defs>

	<circle id='gpDot' r='0.5' stroke-width='0.5'/>
	<path id='gpPt0' stroke-width='0.222' stroke='currentColor' d='M-1,0 h2 M0,-1 v2'/>
	<path id='gpPt1' stroke-width='0.222' stroke='currentColor' d='M-1,-1 L1,1 M1,-1 L-1,1'/>
	<path id='gpPt2' stroke-width='0.222' stroke='currentColor' d='M-1,0 L1,0 M0,-1 L0,1 M-1,-1 L1,1 M-1,1 L1,-1'/>
	<rect id='gpPt3' stroke-width='0.222' stroke='currentColor' x='-1' y='-1' width='2' height='2'/>
	<rect id='gpPt4' stroke-width='0.222' stroke='currentColor' fill='currentColor' x='-1' y='-1' width='2' height='2'/>
	<circle id='gpPt5' stroke-width='0.222' stroke='currentColor' cx='0' cy='0' r='1'/>
	<use xlink:href='#gpPt5' id='gpPt6' fill='currentColor' stroke='none'/>
	<path id='gpPt7' stroke-width='0.222' stroke='currentColor' d='M0,-1.33 L-1.33,0.67 L1.33,0.67 z'/>
	<use xlink:href='#gpPt7' id='gpPt8' fill='currentColor' stroke='none'/>
	<use xlink:href='#gpPt7' id='gpPt9' stroke='currentColor' transform='rotate(180)'/>
	<use xlink:href='#gpPt9' id='gpPt10' fill='currentColor' stroke='none'/>
	<use xlink:href='#gpPt3' id='gpPt11' stroke='currentColor' transform='rotate(45)'/>
	<use xlink:href='#gpPt11' id='gpPt12' fill='currentColor' stroke='none'/>
	<path id='gpPt13' stroke-width='0.222' stroke='currentColor' d='M0,1.330 L1.265,0.411 L0.782,-1.067 L-0.782,-1.076 L-1.265,0.411 z'/>
	<use xlink:href='#gpPt13' id='gpPt14' fill='currentColor' stroke='none'/>
	<filter id='textbox' filterUnits='objectBoundingBox' x='0' y='0' height='1' width='1'>
	  <feFlood flood-color='white' flood-opacity='1' result='bgnd'/>
	  <feComposite in='SourceGraphic' in2='bgnd' operator='atop'/>
	</filter>
	<filter id='greybox' filterUnits='objectBoundingBox' x='0' y='0' height='1' width='1'>
	  <feFlood flood-color='lightgrey' flood-opacity='1' result='grey'/>
	  <feComposite in='SourceGraphic' in2='grey' operator='atop'/>
	</filter>
</defs>
<g fill="none" color="white" stroke="currentColor" stroke-width="1.00" stroke-linecap="butt" stroke-linejoin="miter">
</g>
<g fill="none" color="black" stroke="currentColor" stroke-width="1.00" stroke-linecap="butt" stroke-linejoin="miter">
	<path stroke='black'  d='M112.0,684.0 L121.0,684.0 M1255.0,684.0 L1246.0,684.0  '/>	<g transform="translate(103.7,687.9)" stroke="none" fill="black" font-family="Arial" font-size="12.00"  text-anchor="end">
		<text><tspan font-family="Arial" > 0.0001793</tspan></text>
	</g>
</g>
<g fill="none" color="black" stroke="currentColor" stroke-width="1.00" stroke-linecap="butt" stroke-linejoin="miter">
	<path stroke='black'  d='M112.0,369.0 L121.0,369.0 M1255.0,369.0 L1246.0,369.0  '/>	<g transform="translate(103.7,372.9)" stroke="none" fill="black" font-family="Arial" font-size="12.00"  text-anchor="end">
		<text><tspan font-family="Arial" > 0.00671787</tspan></text>
	</g>
</g>
<g fill="none" color="black" stroke="currentColor" stroke-width="1.00" stroke-linecap="butt" stroke-linejoin="miter">
	<path stroke='black'  d='M112.0,54.1 L121.0,54.1 M1255.0,54.1 L1246.0,54.1  '/>	<g transform="translate(103.7,58.0)" stroke="none" fill="black" font-family="Arial" font-size="12.00"  text-anchor="end">
		<text><tspan font-family="Arial" > 0.2517</tspan></text>
	</g>
</g>
<g fill="none" color="black" stroke="currentColor" stroke-width="1.00" stroke-linecap="butt" stroke-linejoin="miter">
	<path stroke='black'  d='M112.0,684.0 L112.0,675.0 M112.0,54.1 L112.0,63.1  '/>	<g transform="translate(112.0,705.9)" stroke="none" fill="black" font-family="Arial" font-size="12.00"  text-anchor="middle">
		<text><tspan font-family="Arial" > 0</tspan></text>
	</g>
</g>
<g fill="none" color="black" stroke="currentColor" stroke-width="1.00" stroke-linecap="butt" stroke-linejoin="miter">
	<path stroke='black'  d='M683.5,684.0 L683.5,675.0 M683.5,54.1 L683.5,63.1  '/>	<g transform="translate(683.5,705.9)" stroke="none" fill="black" font-family="Arial" font-size="12.00"  text-anchor="middle">
		<text><tspan font-family="Arial" >pi/2</tspan></text>
	</g>
</g>
<g fill="none" color="black" stroke="currentColor" stroke-width="1.00" stroke-linecap="butt" stroke-linejoin="miter">
	<path stroke='black'  d='M1255.0,684.0 L1255.0,675.0 M1255.0,54.1 L1255.0,63.1  '/>	<g transform="translate(1255.0,705.9)" stroke="none" fill="black" font-family="Arial" font-size="12.00"  text-anchor="middle">
		<text><tspan font-family="Arial" >pi</tspan></text>
	</g>
</g>
<g fill="none" color="black" stroke="currentColor" stroke-width="1.00" stroke-linecap="butt" stroke-linejoin="miter">
</g>
<g fill="none" color="black" stroke="currentColor" stroke-width="1.00" stroke-linecap="butt" stroke-linejoin="miter">
	<path stroke='black'  d='M112.0,54.1 L112.0,684.0 L1255.0,684.0 L1255.0,54.1 L112.0,54.1 Z  '/></g>
<g fill="none" color="black" stroke="currentColor" stroke-width="1.00" stroke-linecap="butt" stroke-linejoin="miter">
	<g transform="translate(683.5,31.0)" stroke="none" fill="black" font-family="Arial" font-size="12.00"  text-anchor="middle">
		<text><tspan font-family="Arial" >Material 20, with 4 components</tspan></text>
	</g>
</g>
	<g id="gnuplot_plot_1" ><title>scattering function</title>
<g fill="none" color="black" stroke="currentColor" stroke-width="1.00" stroke-linecap="butt" stroke-linejoin="miter">
	<g transform="translate(1187.9,76.0)" stroke="none" fill="black" font-family="Arial" font-size="12.00"  text-anchor="end">
		<text><tspan font-family="Arial" >scattering function</tspan></text>
	</g>
</g>
<g fill="none" color="black" stroke="currentColor" stroke-width="1.00" stroke-linecap="butt" stroke-linejoin="miter">
	<use xlink:href='#gpPt5' transform='translate(112.0,102.7) scale(2.25)' color='rgb(255,   0,   0)'/>
	<use xlink:href='#gpPt5' transform='translate(112.6,103.5) scale(2.25)' color='rgb(255,   0,   0)'/>
	<use xlink:href='#gpPt5' transform='translate(113.3,105.8) scale(2.25)' color='rgb(255,   0,   0)'/>
	<use xlink:href='#gpPt5' transform='translate(113.9,109.5) scale(2.25)' color='rgb(255,   0,   0)'/>
	<use xlink:href='#gpPt5' transform='translate(114.5,114.6) scale(2.25)' color='rgb(255,   0,   0)'/>
	<use xlink:href='#gpPt5' transform='translate(115.2,120.8) scale(2.25)' color='rgb(255,   0,   0)'/>
	<use xlink:href='#gpPt5' transform='translate(115.8,127.8) scale(2.25)' color='rgb(255,   0,   0)'/>
	<use xlink:href='#gpPt5' transform='translate(116.4,135.4) scale(2.25)' color='rgb(255,   0,   0)'/>
	<use xlink:href='#gpPt5' transform='translate(117.1,143.3) scale(2.25)' color='rgb(255,   0,   0)'/>
	<use xlink:href='#gpPt5' transform='translate(117.7,151.2) scale(2.25)' color='rgb(255,   0,   0)'/>
	<use xlink:href='#gpPt5' transform='translate(118.4,158.8) scale(2.25)' color='rgb(255,   0,   0)'/>
	<use xlink:href='#gpPt5' transform='translate(119.0,166.1) scale(2.25)' color='rgb(255,   0,   0)'/>
	<use xlink:href='#gpPt5' transform='translate(119.6,173.0) scale(2.25)' color='rgb(255,   0,   0)'/>
	<use xlink:href='#gpPt5' transform='translate(120.3,179.5) scale(2.25)' color='rgb(255,   0,   0)'/>
	<use xlink:href='#gpPt5' transform='translate(120.9,185.6) scale(2.25)' color='rgb(255,   0,   0)'/>
	<use xlink:href='#gpPt5' transform='translate(121.5,191.3) scale(2.25)' color='rgb(255,   0,   0)'/>
	<use xlink:href='#gpPt5' transform='translate(122.2,196.7) scale(2.25)' color='rgb(255,   0,   0)'/>
	<use xlink:href='#gpPt5' transform='translate(122.8,201.9) scale(2.25)' color='rgb(255,   0,   0)'/>
	<use xlink:href='#gpPt5' transform='translate(123.4,206.9) scale(2.25)' color='rgb(255,   0,   0)'/>
	<use xlink:href='#gpPt5' transform='translate(124.1,211.6) scale(2.25)' color='rgb(255,   0,   0)'/>
	<use xlink:href='#gpPt5' transform='translate(124.7,216.1) scale(2.25)' color='rgb(255,   0,   0)'/>
	<use xlink:href='#gpPt5' transform='translate(131.1,250.1) scale(2.25)' color='rgb(255,   0,   0)'/>
	<use xlink:href='#gpPt5' transform='translate(137.4,271.0) scale(2.25)' color='rgb(255,   0,   0)'/>
	<use xlink:href='#gpPt5' transform='translate(143.8,284.6) scale(2.25)' color='rgb(255,   0,   0)'/>
	<use xlink:href='#gpPt5' transform='translate(150.1,294.2) scale(2.25)' color='rgb(255,   0,   0)'/>
	<use xlink:href='#gpPt5' transform='translate(162.8,307.3) scale(2.25)' color='rgb(255,   0,   0)'/>
	<use xlink:href='#gpPt5' transform='translate(175.5,317.0) scale(2.25)' color='rgb(255,   0,   0)'/>
	<use xlink:href='#gpPt5' transform='translate(188.2,325.7) scale(2.25)' color='rgb(255,   0,   0)'/>
	<use xlink:href='#gpPt5' transform='translate(200.9,334.0) scale(2.25)' color='rgb(255,   0,   0)'/>
	<use xlink:href='#gpPt5' transform='translate(213.6,342.4) scale(2.25)' color='rgb(255,   0,   0)'/>
	<use xlink:href='#gpPt5' transform='translate(226.3,350.8) scale(2.25)' color='rgb(255,   0,   0)'/>
	<use xlink:href='#gpPt5' transform='translate(239.0,359.3) scale(2.25)' color='rgb(255,   0,   0)'/>
	<use xlink:href='#gpPt5' transform='translate(251.7,368.0) scale(2.25)' color='rgb(255,   0,   0)'/>
	<use xlink:href='#gpPt5' transform='translate(264.4,376.8) scale(2.25)' color='rgb(255,   0,   0)'/>
	<use xlink:href='#gpPt5' transform='translate(277.1,385.6) scale(2.25)' color='rgb(255,   0,   0)'/>
	<use xlink:href='#gpPt5' transform='translate(289.8,394.6) scale(2.25)' color='rgb(255,   0,   0)'/>
	<use xlink:href='#gpPt5' transform='translate(302.5,403.5) scale(2.25)' color='rgb(255,   0,   0)'/>
	<use xlink:href='#gpPt5' transform='translate(315.2,412.5) scale(2.25)' color='rgb(255,   0,   0)'/>
	<use xlink:href='#gpPt5' transform='translate(327.9,421.6) scale(2.25)' color='rgb(255,   0,   0)'/>
	<use xlink:href='#gpPt5' transform='translate(340.6,430.6) scale(2.25)' color='rgb(255,   0,   0)'/>
	<use xlink:href='#gpPt5' transform='translate(353.3,439.6) scale(2.25)' color='rgb(255,   0,   0)'/>
	<use xlink:href='#gpPt5' transform='translate(366.0,448.6) scale(2.25)' color='rgb(255,   0,   0)'/>
	<use xlink:href='#gpPt5' transform='translate(378.7,457.5) scale(2.25)' color='rgb(255,   0,   0)'/>
	<use xlink:href='#gpPt5' transform='translate(391.4,466.4) scale(2.25)' color='rgb(255,   0,   0)'/>
	<use xlink:href='#gpPt5' transform='translate(404.1,475.2) scale(2.25)' color='rgb(255,   0,   0)'/>
	<use xlink:href='#gpPt5' transform='translate(416.8,484.0) scale(2.25)' color='rgb(255,   0,   0)'/>
	<use xlink:href='#gpPt5' transform='translate(429.5,492.6) scale(2.25)' color='rgb(255,   0,   0)'/>
	<use xlink:href='#gpPt5' transform='translate(442.2,501.2) scale(2.25)' color='rgb(255,   0,   0)'/>
	<use xlink:href='#gpPt5' transform='translate(454.9,509.6) scale(2.25)' color='rgb(255,   0,   0)'/>
	<use xlink:href='#gpPt5' transform='translate(467.6,518.0) scale(2.25)' color='rgb(255,   0,   0)'/>
	<use xlink:href='#gpPt5' transform='translate(480.3,526.2) scale(2.25)' color='rgb(255,   0,   0)'/>
	<use xlink:href='#gpPt5' transform='translate(493.0,534.4) scale(2.25)' color='rgb(255,   0,   0)'/>
	<use xlink:href='#gpPt5' transform='translate(505.7,542.4) scale(2.25)' color='rgb(255,   0,   0)'/>
	<use xlink:href='#gpPt5' transform='translate(518.4,550.2) scale(2.25)' color='rgb(255,   0,   0)'/>
	<use xlink:href='#gpPt5' transform='translate(531.1,558.0) scale(2.25)' color='rgb(255,   0,   0)'/>
	<use xlink:href='#gpPt5' transform='translate(543.8,565.5) scale(2.25)' color='rgb(255,   0,   0)'/>
	<use xlink:href='#gpPt5' transform='translate(556.5,572.9) scale(2.25)' color='rgb(255,   0,   0)'/>
	<use xlink:href='#gpPt5' transform='translate(569.2,580.2) scale(2.25)' color='rgb(255,   0,   0)'/>
	<use xlink:href='#gpPt5' transform='translate(581.9,587.3) scale(2.25)' color='rgb(255,   0,   0)'/>
	<use xlink:href='#gpPt5' transform='translate(594.6,594.2) scale(2.25)' color='rgb(255,   0,   0)'/>
	<use xlink:href='#gpPt5' transform='translate(607.3,600.9) scale(2.25)' color='rgb(255,   0,   0)'/>
	<use xlink:href='#gpPt5' transform='translate(620.0,607.4) scale(2.25)' color='rgb(255,   0,   0)'/>
	<use xlink:href='#gpPt5' transform='translate(632.7,613.7) scale(2.25)' color='rgb(255,   0,   0)'/>
	<use xlink:href='#gpPt5' transform='translate(645.4,619.8) scale(2.25)' color='rgb(255,   0,   0)'/>
	<use xlink:href='#gpPt5' transform='translate(658.1,625.6) scale(2.25)' color='rgb(255,   0,   0)'/>
	<use xlink:href='#gpPt5' transform='translate(670.8,631.2) scale(2.25)' color='rgb(255,   0,   0)'/>
	<use xlink:href='#gpPt5' transform='translate(683.5,636.6) scale(2.25)' color='rgb(255,   0,   0)'/>
	<use xlink:href='#gpPt5' transform='translate(696.2,641.7) scale(2.25)' color='rgb(255,   0,   0)'/>
	<use xlink:href='#gpPt5' transform='translate(708.9,646.6) scale(2.25)' color='rgb(255,   0,   0)'/>
	<use xlink:href='#gpPt5' transform='translate(721.6,651.1) scale(2.25)' color='rgb(255,   0,   0)'/>
	<use xlink:href='#gpPt5' transform='translate(734.3,655.4) scale(2.25)' color='rgb(255,   0,   0)'/>
	<use xlink:href='#gpPt5' transform='translate(747.0,659.4) scale(2.25)' color='rgb(255,   0,   0)'/>
	<use xlink:href='#gpPt5' transform='translate(759.7,663.2) scale(2.25)' color='rgb(255,   0,   0)'/>
	<use xlink:href='#gpPt5' transform='translate(772.4,666.6) scale(2.25)' color='rgb(255,   0,   0)'/>
	<use xlink:href='#gpPt5' transform='translate(785.1,669.7) scale(2.25)' color='rgb(255,   0,   0)'/>
	<use xlink:href='#gpPt5' transform='translate(797.8,672.5) scale(2.25)' color='rgb(255,   0,   0)'/>
	<use xlink:href='#gpPt5' transform='translate(810.5,675.0) scale(2.25)' color='rgb(255,   0,   0)'/>
	<use xlink:href='#gpPt5' transform='translate(823.2,677.2) scale(2.25)' color='rgb(255,   0,   0)'/>
	<use xlink:href='#gpPt5' transform='translate(835.9,679.0) scale(2.25)' color='rgb(255,   0,   0)'/>
	<use xlink:href='#gpPt5' transform='translate(848.6,680.6) scale(2.25)' color='rgb(255,   0,   0)'/>
	<use xlink:href='#gpPt5' transform='translate(861.3,681.8) scale(2.25)' color='rgb(255,   0,   0)'/>
	<use xlink:href='#gpPt5' transform='translate(874.0,682.8) scale(2.25)' color='rgb(255,   0,   0)'/>
	<use xlink:href='#gpPt5' transform='translate(886.7,683.5) scale(2.25)' color='rgb(255,   0,   0)'/>
	<use xlink:href='#gpPt5' transform='translate(899.4,683.9) scale(2.25)' color='rgb(255,   0,   0)'/>
	<use xlink:href='#gpPt5' transform='translate(912.1,684.0) scale(2.25)' color='rgb(255,   0,   0)'/>
	<use xlink:href='#gpPt5' transform='translate(924.8,683.8) scale(2.25)' color='rgb(255,   0,   0)'/>
	<use xlink:href='#gpPt5' transform='translate(937.5,683.4) scale(2.25)' color='rgb(255,   0,   0)'/>
	<use xlink:href='#gpPt5' transform='translate(950.2,682.7) scale(2.25)' color='rgb(255,   0,   0)'/>
	<use xlink:href='#gpPt5' transform='translate(962.9,681.8) scale(2.25)' color='rgb(255,   0,   0)'/>
	<use xlink:href='#gpPt5' transform='translate(975.6,680.7) scale(2.25)' color='rgb(255,   0,   0)'/>
	<use xlink:href='#gpPt5' transform='translate(988.3,679.3) scale(2.25)' color='rgb(255,   0,   0)'/>
	<use xlink:href='#gpPt5' transform='translate(1001.0,677.8) scale(2.25)' color='rgb(255,   0,   0)'/>
	<use xlink:href='#gpPt5' transform='translate(1013.7,676.0) scale(2.25)' color='rgb(255,   0,   0)'/>
	<use xlink:href='#gpPt5' transform='translate(1026.4,674.1) scale(2.25)' color='rgb(255,   0,   0)'/>
	<use xlink:href='#gpPt5' transform='translate(1039.1,672.1) scale(2.25)' color='rgb(255,   0,   0)'/>
	<use xlink:href='#gpPt5' transform='translate(1051.8,669.8) scale(2.25)' color='rgb(255,   0,   0)'/>
	<use xlink:href='#gpPt5' transform='translate(1064.5,667.5) scale(2.25)' color='rgb(255,   0,   0)'/>
	<use xlink:href='#gpPt5' transform='translate(1077.2,665.1) scale(2.25)' color='rgb(255,   0,   0)'/>
	<use xlink:href='#gpPt5' transform='translate(1089.9,662.7) scale(2.25)' color='rgb(255,   0,   0)'/>
	<use xlink:href='#gpPt5' transform='translate(1102.6,660.2) scale(2.25)' color='rgb(255,   0,   0)'/>
	<use xlink:href='#gpPt5' transform='translate(1115.3,657.8) scale(2.25)' color='rgb(255,   0,   0)'/>
	<use xlink:href='#gpPt5' transform='translate(1128.0,655.7) scale(2.25)' color='rgb(255,   0,   0)'/>
	<use xlink:href='#gpPt5' transform='translate(1140.7,654.1) scale(2.25)' color='rgb(255,   0,   0)'/>
	<use xlink:href='#gpPt5' transform='translate(1153.4,652.7) scale(2.25)' color='rgb(255,   0,   0)'/>
	<use xlink:href='#gpPt5' transform='translate(1166.1,651.6) scale(2.25)' color='rgb(255,   0,   0)'/>
	<use xlink:href='#gpPt5' transform='translate(1178.8,650.4) scale(2.25)' color='rgb(255,   0,   0)'/>
	<use xlink:href='#gpPt5' transform='translate(1191.5,649.0) scale(2.25)' color='rgb(255,   0,   0)'/>
	<use xlink:href='#gpPt5' transform='translate(1204.2,647.1) scale(2.25)' color='rgb(255,   0,   0)'/>
	<use xlink:href='#gpPt5' transform='translate(1216.9,644.7) scale(2.25)' color='rgb(255,   0,   0)'/>
	<use xlink:href='#gpPt5' transform='translate(1229.6,642.6) scale(2.25)' color='rgb(255,   0,   0)'/>
	<use xlink:href='#gpPt5' transform='translate(1242.3,641.5) scale(2.25)' color='rgb(255,   0,   0)'/>
	<use xlink:href='#gpPt5' transform='translate(1255.0,640.4) scale(2.25)' color='rgb(255,   0,   0)'/>
	<use xlink:href='#gpPt5' transform='translate(1217.3,72.1) scale(2.25)' color='rgb(255,   0,   0)'/>
</g>
	</g>
	<g id="gnuplot_plot_2" ><title>gnuplot_plot_2</title>
<g fill="none" color="black" stroke="currentColor" stroke-width="1.00" stroke-linecap="butt" stroke-linejoin="miter">
	<use xlink:href='#gpPt5' transform='translate(112.0,88.0) scale(2.25)' color='rgb(  0, 100,   0)'/>
	<use xlink:href='#gpPt5' transform='translate(112.6,88.9) scale(2.25)' color='rgb(  0, 100,   0)'/>
	<use xlink:href='#gpPt5' transform='translate(113.3,91.7) scale(2.25)' color='rgb(  0, 100,   0)'/>
	<use xlink:href='#gpPt5' transform='translate(113.9,96.1) scale(2.25)' color='rgb(  0, 100,   0)'/>
	<use xlink:href='#gpPt5' transform='translate(114.5,102.0) scale(2.25)' color='rgb(  0, 100,   0)'/>
	<use xlink:href='#gpPt5' transform='translate(115.2,109.1) scale(2.25)' color='rgb(  0, 100,   0)'/>
	<use xlink:href='#gpPt5' transform='translate(115.8,117.1) scale(2.25)' color='rgb(  0, 100,   0)'/>
	<use xlink:href='#gpPt5' transform='translate(116.4,125.6) scale(2.25)' color='rgb(  0, 100,   0)'/>
	<use xlink:href='#gpPt5' transform='translate(117.1,134.2) scale(2.25)' color='rgb(  0, 100,   0)'/>
	<use xlink:href='#gpPt5' transform='translate(117.7,142.6) scale(2.25)' color='rgb(  0, 100,   0)'/>
	<use xlink:href='#gpPt5' transform='translate(118.4,150.7) scale(2.25)' color='rgb(  0, 100,   0)'/>
	<use xlink:href='#gpPt5' transform='translate(119.0,158.2) scale(2.25)' color='rgb(  0, 100,   0)'/>
	<use xlink:href='#gpPt5' transform='translate(119.6,165.2) scale(2.25)' color='rgb(  0, 100,   0)'/>
	<use xlink:href='#gpPt5' transform='translate(120.3,171.7) scale(2.25)' color='rgb(  0, 100,   0)'/>
	<use xlink:href='#gpPt5' transform='translate(120.9,177.9) scale(2.25)' color='rgb(  0, 100,   0)'/>
	<use xlink:href='#gpPt5' transform='translate(121.5,183.7) scale(2.25)' color='rgb(  0, 100,   0)'/>
	<use xlink:href='#gpPt5' transform='translate(122.2,189.2) scale(2.25)' color='rgb(  0, 100,   0)'/>
	<use xlink:href='#gpPt5' transform='translate(122.8,194.5) scale(2.25)' color='rgb(  0, 100,   0)'/>
	<use xlink:href='#gpPt5' transform='translate(123.4,199.4) scale(2.25)' color='rgb(  0, 100,   0)'/>
	<use xlink:href='#gpPt5' transform='translate(124.1,204.1) scale(2.25)' color='rgb(  0, 100,   0)'/>
	<use xlink:href='#gpPt5' transform='translate(124.7,208.5) scale(2.25)' color='rgb(  0, 100,   0)'/>
	<use xlink:href='#gpPt5' transform='translate(131.1,241.4) scale(2.25)' color='rgb(  0, 100,   0)'/>
	<use xlink:href='#gpPt5' transform='translate(137.4,260.9) scale(2.25)' color='rgb(  0, 100,   0)'/>
	<use xlink:href='#gpPt5' transform='translate(143.8,273.4) scale(2.25)' color='rgb(  0, 100,   0)'/>
	<use xlink:href='#gpPt5' transform='translate(150.1,282.1) scale(2.25)' color='rgb(  0, 100,   0)'/>
	<use xlink:href='#gpPt5' transform='translate(162.8,294.4) scale(2.25)' color='rgb(  0, 100,   0)'/>
	<use xlink:href='#gpPt5' transform='translate(175.5,303.9) scale(2.25)' color='rgb(  0, 100,   0)'/>
	<use xlink:href='#gpPt5' transform='translate(188.2,312.5) scale(2.25)' color='rgb(  0, 100,   0)'/>
	<use xlink:href='#gpPt5' transform='translate(200.9,321.0) scale(2.25)' color='rgb(  0, 100,   0)'/>
	<use xlink:href='#gpPt5' transform='translate(213.6,329.6) scale(2.25)' color='rgb(  0, 100,   0)'/>
	<use xlink:href='#gpPt5' transform='translate(226.3,338.2) scale(2.25)' color='rgb(  0, 100,   0)'/>
	<use xlink:href='#gpPt5' transform='translate(239.0,347.0) scale(2.25)' color='rgb(  0, 100,   0)'/>
	<use xlink:href='#gpPt5' transform='translate(251.7,355.9) scale(2.25)' color='rgb(  0, 100,   0)'/>
	<use xlink:href='#gpPt5' transform='translate(264.4,364.9) scale(2.25)' color='rgb(  0, 100,   0)'/>
	<use xlink:href='#gpPt5' transform='translate(277.1,374.0) scale(2.25)' color='rgb(  0, 100,   0)'/>
	<use xlink:href='#gpPt5' transform='translate(289.8,383.2) scale(2.25)' color='rgb(  0, 100,   0)'/>
	<use xlink:href='#gpPt5' transform='translate(302.5,392.4) scale(2.25)' color='rgb(  0, 100,   0)'/>
	<use xlink:href='#gpPt5' transform='translate(315.2,401.6) scale(2.25)' color='rgb(  0, 100,   0)'/>
	<use xlink:href='#gpPt5' transform='translate(327.9,410.9) scale(2.25)' color='rgb(  0, 100,   0)'/>
	<use xlink:href='#gpPt5' transform='translate(340.6,420.1) scale(2.25)' color='rgb(  0, 100,   0)'/>
	<use xlink:href='#gpPt5' transform='translate(353.3,429.3) scale(2.25)' color='rgb(  0, 100,   0)'/>
	<use xlink:href='#gpPt5' transform='translate(366.0,438.5) scale(2.25)' color='rgb(  0, 100,   0)'/>
	<use xlink:href='#gpPt5' transform='translate(378.7,447.6) scale(2.25)' color='rgb(  0, 100,   0)'/>
	<use xlink:href='#gpPt5' transform='translate(391.4,456.7) scale(2.25)' color='rgb(  0, 100,   0)'/>
	<use xlink:href='#gpPt5' transform='translate(404.1,465.6) scale(2.25)' color='rgb(  0, 100,   0)'/>
	<use xlink:href='#gpPt5' transform='translate(416.8,474.5) scale(2.25)' color='rgb(  0, 100,   0)'/>
	<use xlink:href='#gpPt5' transform='translate(429.5,483.3) scale(2.25)' color='rgb(  0, 100,   0)'/>
	<use xlink:href='#gpPt5' transform='translate(442.2,492.0) scale(2.25)' color='rgb(  0, 100,   0)'/>
	<use xlink:href='#gpPt5' transform='translate(454.9,500.6) scale(2.25)' color='rgb(  0, 100,   0)'/>
	<use xlink:href='#gpPt5' transform='translate(467.6,509.1) scale(2.25)' color='rgb(  0, 100,   0)'/>
	<use xlink:href='#gpPt5' transform='translate(480.3,517.5) scale(2.25)' color='rgb(  0, 100,   0)'/>
	<use xlink:href='#gpPt5' transform='translate(493.0,525.7) scale(2.25)' color='rgb(  0, 100,   0)'/>
	<use xlink:href='#gpPt5' transform='translate(505.7,533.8) scale(2.25)' color='rgb(  0, 100,   0)'/>
	<use xlink:href='#gpPt5' transform='translate(518.4,541.8) scale(2.25)' color='rgb(  0, 100,   0)'/>
	<use xlink:href='#gpPt5' transform='translate(531.1,549.6) scale(2.25)' color='rgb(  0, 100,   0)'/>
	<use xlink:href='#gpPt5' transform='translate(543.8,557.2) scale(2.25)' color='rgb(  0, 100,   0)'/>
	<use xlink:href='#gpPt5' transform='translate(556.5,564.7) scale(2.25)' color='rgb(  0, 100,   0)'/>
	<use xlink:href='#gpPt5' transform='translate(569.2,572.1) scale(2.25)' color='rgb(  0, 100,   0)'/>
	<use xlink:href='#gpPt5' transform='translate(581.9,579.2) scale(2.25)' color='rgb(  0, 100,   0)'/>
	<use xlink:href='#gpPt5' transform='translate(594.6,586.1) scale(2.25)' color='rgb(  0, 100,   0)'/>
	<use xlink:href='#gpPt5' transform='translate(607.3,592.9) scale(2.25)' color='rgb(  0, 100,   0)'/>
	<use xlink:href='#gpPt5' transform='translate(620.0,599.5) scale(2.25)' color='rgb(  0, 100,   0)'/>
	<use xlink:href='#gpPt5' transform='translate(632.7,605.8) scale(2.25)' color='rgb(  0, 100,   0)'/>
	<use xlink:href='#gpPt5' transform='translate(645.4,612.0) scale(2.25)' color='rgb(  0, 100,   0)'/>
	<use xlink:href='#gpPt5' transform='translate(658.1,617.9) scale(2.25)' color='rgb(  0, 100,   0)'/>
	<use xlink:href='#gpPt5' transform='translate(670.8,623.6) scale(2.25)' color='rgb(  0, 100,   0)'/>
	<use xlink:href='#gpPt5' transform='translate(683.5,628.9) scale(2.25)' color='rgb(  0, 100,   0)'/>
	<use xlink:href='#gpPt5' transform='translate(696.2,634.1) scale(2.25)' color='rgb(  0, 100,   0)'/>
	<use xlink:href='#gpPt5' transform='translate(708.9,639.0) scale(2.25)' color='rgb(  0, 100,   0)'/>
	<use xlink:href='#gpPt5' transform='translate(721.6,643.5) scale(2.25)' color='rgb(  0, 100,   0)'/>
	<use xlink:href='#gpPt5' transform='translate(734.3,647.9) scale(2.25)' color='rgb(  0, 100,   0)'/>
	<use xlink:href='#gpPt5' transform='translate(747.0,651.9) scale(2.25)' color='rgb(  0, 100,   0)'/>
	<use xlink:href='#gpPt5' transform='translate(759.7,655.7) scale(2.25)' color='rgb(  0, 100,   0)'/>
	<use xlink:href='#gpPt5' transform='translate(772.4,659.1) scale(2.25)' color='rgb(  0, 100,   0)'/>
	<use xlink:href='#gpPt5' transform='translate(785.1,662.2) scale(2.25)' color='rgb(  0, 100,   0)'/>
	<use xlink:href='#gpPt5' transform='translate(797.8,665.0) scale(2.25)' color='rgb(  0, 100,   0)'/>
	<use xlink:href='#gpPt5' transform='translate(810.5,667.5) scale(2.25)' color='rgb(  0, 100,   0)'/>
	<use xlink:href='#gpPt5' transform='translate(823.2,669.8) scale(2.25)' color='rgb(  0, 100,   0)'/>
	<use xlink:href='#gpPt5' transform='translate(835.9,671.7) scale(2.25)' color='rgb(  0, 100,   0)'/>
	<use xlink:href='#gpPt5' transform='translate(848.6,673.3) scale(2.25)' color='rgb(  0, 100,   0)'/>
	<use xlink:href='#gpPt5' transform='translate(861.3,674.5) scale(2.25)' color='rgb(  0, 100,   0)'/>
	<use xlink:href='#gpPt5' transform='translate(874.0,675.4) scale(2.25)' color='rgb(  0, 100,   0)'/>
	<use xlink:href='#gpPt5' transform='translate(886.7,676.1) scale(2.25)' color='rgb(  0, 100,   0)'/>
	<use xlink:href='#gpPt5' transform='translate(899.4,676.5) scale(2.25)' color='rgb(  0, 100,   0)'/>
	<use xlink:href='#gpPt5' transform='translate(912.1,676.6) scale(2.25)' color='rgb(  0, 100,   0)'/>
	<use xlink:href='#gpPt5' transform='translate(924.8,676.4) scale(2.25)' color='rgb(  0, 100,   0)'/>
	<use xlink:href='#gpPt5' transform='translate(937.5,675.9) scale(2.25)' color='rgb(  0, 100,   0)'/>
	<use xlink:href='#gpPt5' transform='translate(950.2,675.2) scale(2.25)' color='rgb(  0, 100,   0)'/>
	<use xlink:href='#gpPt5' transform='translate(962.9,674.2) scale(2.25)' color='rgb(  0, 100,   0)'/>
	<use xlink:href='#gpPt5' transform='translate(975.6,673.0) scale(2.25)' color='rgb(  0, 100,   0)'/>
	<use xlink:href='#gpPt5' transform='translate(988.3,671.6) scale(2.25)' color='rgb(  0, 100,   0)'/>
	<use xlink:href='#gpPt5' transform='translate(1001.0,669.9) scale(2.25)' color='rgb(  0, 100,   0)'/>
	<use xlink:href='#gpPt5' transform='translate(1013.7,668.0) scale(2.25)' color='rgb(  0, 100,   0)'/>
	<use xlink:href='#gpPt5' transform='translate(1026.4,666.0) scale(2.25)' color='rgb(  0, 100,   0)'/>
	<use xlink:href='#gpPt5' transform='translate(1039.1,663.8) scale(2.25)' color='rgb(  0, 100,   0)'/>
	<use xlink:href='#gpPt5' transform='translate(1051.8,661.4) scale(2.25)' color='rgb(  0, 100,   0)'/>
	<use xlink:href='#gpPt5' transform='translate(1064.5,659.0) scale(2.25)' color='rgb(  0, 100,   0)'/>
	<use xlink:href='#gpPt5' transform='translate(1077.2,656.5) scale(2.25)' color='rgb(  0, 100,   0)'/>
	<use xlink:href='#gpPt5' transform='translate(1089.9,654.0) scale(2.25)' color='rgb(  0, 100,   0)'/>
	<use xlink:href='#gpPt5' transform='translate(1102.6,651.6) scale(2.25)' color='rgb(  0, 100,   0)'/>
	<use xlink:href='#gpPt5' transform='translate(1115.3,649.3) scale(2.25)' color='rgb(  0, 100,   0)'/>
	<use xlink:href='#gpPt5' transform='translate(1128.0,647.1) scale(2.25)' color='rgb(  0, 100,   0)'/>
	<use xlink:href='#gpPt5' transform='translate(1140.7,645.4) scale(2.25)' color='rgb(  0, 100,   0)'/>
	<use xlink:href='#gpPt5' transform='translate(1153.4,644.3) scale(2.25)' color='rgb(  0, 100,   0)'/>
	<use xlink:href='#gpPt5' transform='translate(1166.1,643.7) scale(2.25)' color='rgb(  0, 100,   0)'/>
	<use xlink:href='#gpPt5' transform='translate(1178.8,642.9) scale(2.25)' color='rgb(  0, 100,   0)'/>
	<use xlink:href='#gpPt5' transform='translate(1191.5,641.6) scale(2.25)' color='rgb(  0, 100,   0)'/>
	<use xlink:href='#gpPt5' transform='translate(1204.2,639.6) scale(2.25)' color='rgb(  0, 100,   0)'/>
	<use xlink:href='#gpPt5' transform='translate(1216.9,637.2) scale(2.25)' color='rgb(  0, 100,   0)'/>
	<use xlink:href='#gpPt5' transform='translate(1229.6,634.8) scale(2.25)' color='rgb(  0, 100,   0)'/>
	<use xlink:href='#gpPt5' transform='translate(1242.3,633.1) scale(2.25)' color='rgb(  0, 100,   0)'/>
	<use xlink:href='#gpPt5' transform='translate(1255.0,631.8) scale(2.25)' color='rgb(  0, 100,   0)'/>
</g>
	</g>
	<g id="gnuplot_plot_3" ><title>gnuplot_plot_3</title>
<g fill="none" color="black" stroke="currentColor" stroke-width="1.00" stroke-linecap="butt" stroke-linejoin="miter">
	<use xlink:href='#gpPt5' transform='translate(112.0,54.1) scale(2.25)' color='rgb(  0,   0, 255)'/>
	<use xlink:href='#gpPt5' transform='translate(112.6,55.5) scale(2.25)' color='rgb(  0,   0, 255)'/>
	<use xlink:href='#gpPt5' transform='translate(113.3,59.5) scale(2.25)' color='rgb(  0,   0, 255)'/>
	<use xlink:href='#gpPt5' transform='translate(113.9,66.0) scale(2.25)' color='rgb(  0,   0, 255)'/>
	<use xlink:href='#gpPt5' transform='translate(114.5,74.3) scale(2.25)' color='rgb(  0,   0, 255)'/>
	<use xlink:href='#gpPt5' transform='translate(115.2,84.1) scale(2.25)' color='rgb(  0,   0, 255)'/>
	<use xlink:href='#gpPt5' transform='translate(115.8,94.5) scale(2.25)' color='rgb(  0,   0, 255)'/>
	<use xlink:href='#gpPt5' transform='translate(116.4,105.0) scale(2.25)' color='rgb(  0,   0, 255)'/>
	<use xlink:href='#gpPt5' transform='translate(117.1,114.9) scale(2.25)' color='rgb(  0,   0, 255)'/>
	<use xlink:href='#gpPt5' transform='translate(117.7,124.2) scale(2.25)' color='rgb(  0,   0, 255)'/>
	<use xlink:href='#gpPt5' transform='translate(118.4,132.6) scale(2.25)' color='rgb(  0,   0, 255)'/>
	<use xlink:href='#gpPt5' transform='translate(119.0,140.4) scale(2.25)' color='rgb(  0,   0, 255)'/>
	<use xlink:href='#gpPt5' transform='translate(119.6,147.7) scale(2.25)' color='rgb(  0,   0, 255)'/>
	<use xlink:href='#gpPt5' transform='translate(120.3,154.5) scale(2.25)' color='rgb(  0,   0, 255)'/>
	<use xlink:href='#gpPt5' transform='translate(120.9,160.9) scale(2.25)' color='rgb(  0,   0, 255)'/>
	<use xlink:href='#gpPt5' transform='translate(121.5,166.9) scale(2.25)' color='rgb(  0,   0, 255)'/>
	<use xlink:href='#gpPt5' transform='translate(122.2,172.4) scale(2.25)' color='rgb(  0,   0, 255)'/>
	<use xlink:href='#gpPt5' transform='translate(122.8,177.5) scale(2.25)' color='rgb(  0,   0, 255)'/>
	<use xlink:href='#gpPt5' transform='translate(123.4,182.3) scale(2.25)' color='rgb(  0,   0, 255)'/>
	<use xlink:href='#gpPt5' transform='translate(124.1,186.8) scale(2.25)' color='rgb(  0,   0, 255)'/>
	<use xlink:href='#gpPt5' transform='translate(124.7,190.9) scale(2.25)' color='rgb(  0,   0, 255)'/>
	<use xlink:href='#gpPt5' transform='translate(131.1,220.6) scale(2.25)' color='rgb(  0,   0, 255)'/>
	<use xlink:href='#gpPt5' transform='translate(137.4,237.0) scale(2.25)' color='rgb(  0,   0, 255)'/>
	<use xlink:href='#gpPt5' transform='translate(143.8,247.2) scale(2.25)' color='rgb(  0,   0, 255)'/>
	<use xlink:href='#gpPt5' transform='translate(150.1,254.6) scale(2.25)' color='rgb(  0,   0, 255)'/>
	<use xlink:href='#gpPt5' transform='translate(162.8,265.6) scale(2.25)' color='rgb(  0,   0, 255)'/>
	<use xlink:href='#gpPt5' transform='translate(175.5,275.0) scale(2.25)' color='rgb(  0,   0, 255)'/>
	<use xlink:href='#gpPt5' transform='translate(188.2,284.0) scale(2.25)' color='rgb(  0,   0, 255)'/>
	<use xlink:href='#gpPt5' transform='translate(200.9,293.0) scale(2.25)' color='rgb(  0,   0, 255)'/>
	<use xlink:href='#gpPt5' transform='translate(213.6,302.1) scale(2.25)' color='rgb(  0,   0, 255)'/>
	<use xlink:href='#gpPt5' transform='translate(226.3,311.4) scale(2.25)' color='rgb(  0,   0, 255)'/>
	<use xlink:href='#gpPt5' transform='translate(239.0,320.8) scale(2.25)' color='rgb(  0,   0, 255)'/>
	<use xlink:href='#gpPt5' transform='translate(251.7,330.2) scale(2.25)' color='rgb(  0,   0, 255)'/>
	<use xlink:href='#gpPt5' transform='translate(264.4,339.9) scale(2.25)' color='rgb(  0,   0, 255)'/>
	<use xlink:href='#gpPt5' transform='translate(277.1,349.5) scale(2.25)' color='rgb(  0,   0, 255)'/>
	<use xlink:href='#gpPt5' transform='translate(289.8,359.2) scale(2.25)' color='rgb(  0,   0, 255)'/>
	<use xlink:href='#gpPt5' transform='translate(302.5,368.9) scale(2.25)' color='rgb(  0,   0, 255)'/>
	<use xlink:href='#gpPt5' transform='translate(315.2,378.6) scale(2.25)' color='rgb(  0,   0, 255)'/>
	<use xlink:href='#gpPt5' transform='translate(327.9,388.3) scale(2.25)' color='rgb(  0,   0, 255)'/>
	<use xlink:href='#gpPt5' transform='translate(340.6,398.0) scale(2.25)' color='rgb(  0,   0, 255)'/>
	<use xlink:href='#gpPt5' transform='translate(353.3,407.6) scale(2.25)' color='rgb(  0,   0, 255)'/>
	<use xlink:href='#gpPt5' transform='translate(366.0,417.2) scale(2.25)' color='rgb(  0,   0, 255)'/>
	<use xlink:href='#gpPt5' transform='translate(378.7,426.7) scale(2.25)' color='rgb(  0,   0, 255)'/>
	<use xlink:href='#gpPt5' transform='translate(391.4,436.1) scale(2.25)' color='rgb(  0,   0, 255)'/>
	<use xlink:href='#gpPt5' transform='translate(404.1,445.4) scale(2.25)' color='rgb(  0,   0, 255)'/>
	<use xlink:href='#gpPt5' transform='translate(416.8,454.6) scale(2.25)' color='rgb(  0,   0, 255)'/>
	<use xlink:href='#gpPt5' transform='translate(429.5,463.7) scale(2.25)' color='rgb(  0,   0, 255)'/>
	<use xlink:href='#gpPt5' transform='translate(442.2,472.7) scale(2.25)' color='rgb(  0,   0, 255)'/>
	<use xlink:href='#gpPt5' transform='translate(454.9,481.6) scale(2.25)' color='rgb(  0,   0, 255)'/>
	<use xlink:href='#gpPt5' transform='translate(467.6,490.3) scale(2.25)' color='rgb(  0,   0, 255)'/>
	<use xlink:href='#gpPt5' transform='translate(480.3,498.9) scale(2.25)' color='rgb(  0,   0, 255)'/>
	<use xlink:href='#gpPt5' transform='translate(493.0,507.4) scale(2.25)' color='rgb(  0,   0, 255)'/>
	<use xlink:href='#gpPt5' transform='translate(505.7,515.6) scale(2.25)' color='rgb(  0,   0, 255)'/>
	<use xlink:href='#gpPt5' transform='translate(518.4,523.8) scale(2.25)' color='rgb(  0,   0, 255)'/>
	<use xlink:href='#gpPt5' transform='translate(531.1,531.8) scale(2.25)' color='rgb(  0,   0, 255)'/>
	<use xlink:href='#gpPt5' transform='translate(543.8,539.6) scale(2.25)' color='rgb(  0,   0, 255)'/>
	<use xlink:href='#gpPt5' transform='translate(556.5,547.2) scale(2.25)' color='rgb(  0,   0, 255)'/>
	<use xlink:href='#gpPt5' transform='translate(569.2,554.7) scale(2.25)' color='rgb(  0,   0, 255)'/>
	<use xlink:href='#gpPt5' transform='translate(581.9,561.9) scale(2.25)' color='rgb(  0,   0, 255)'/>
	<use xlink:href='#gpPt5' transform='translate(594.6,568.9) scale(2.25)' color='rgb(  0,   0, 255)'/>
	<use xlink:href='#gpPt5' transform='translate(607.3,575.8) scale(2.25)' color='rgb(  0,   0, 255)'/>
	<use xlink:href='#gpPt5' transform='translate(620.0,582.4) scale(2.25)' color='rgb(  0,   0, 255)'/>
	<use xlink:href='#gpPt5' transform='translate(632.7,588.9) scale(2.25)' color='rgb(  0,   0, 255)'/>
	<use xlink:href='#gpPt5' transform='translate(645.4,595.1) scale(2.25)' color='rgb(  0,   0, 255)'/>
	<use xlink:href='#gpPt5' transform='translate(658.1,601.0) scale(2.25)' color='rgb(  0,   0, 255)'/>
	<use xlink:href='#gpPt5' transform='translate(670.8,606.7) scale(2.25)' color='rgb(  0,   0, 255)'/>
	<use xlink:href='#gpPt5' transform='translate(683.5,612.2) scale(2.25)' color='rgb(  0,   0, 255)'/>
	<use xlink:href='#gpPt5' transform='translate(696.2,617.4) scale(2.25)' color='rgb(  0,   0, 255)'/>
	<use xlink:href='#gpPt5' transform='translate(708.9,622.4) scale(2.25)' color='rgb(  0,   0, 255)'/>
	<use xlink:href='#gpPt5' transform='translate(721.6,627.0) scale(2.25)' color='rgb(  0,   0, 255)'/>
	<use xlink:href='#gpPt5' transform='translate(734.3,631.4) scale(2.25)' color='rgb(  0,   0, 255)'/>
	<use xlink:href='#gpPt5' transform='translate(747.0,635.4) scale(2.25)' color='rgb(  0,   0, 255)'/>
	<use xlink:href='#gpPt5' transform='translate(759.7,639.2) scale(2.25)' color='rgb(  0,   0, 255)'/>
	<use xlink:href='#gpPt5' transform='translate(772.4,642.7) scale(2.25)' color='rgb(  0,   0, 255)'/>
	<use xlink:href='#gpPt5' transform='translate(785.1,645.8) scale(2.25)' color='rgb(  0,   0, 255)'/>
	<use xlink:href='#gpPt5' transform='translate(797.8,648.6) scale(2.25)' color='rgb(  0,   0, 255)'/>
	<use xlink:href='#gpPt5' transform='translate(810.5,651.2) scale(2.25)' color='rgb(  0,   0, 255)'/>
	<use xlink:href='#gpPt5' transform='translate(823.2,653.4) scale(2.25)' color='rgb(  0,   0, 255)'/>
	<use xlink:href='#gpPt5' transform='translate(835.9,655.3) scale(2.25)' color='rgb(  0,   0, 255)'/>
	<use xlink:href='#gpPt5' transform='translate(848.6,656.9) scale(2.25)' color='rgb(  0,   0, 255)'/>
	<use xlink:href='#gpPt5' transform='translate(861.3,658.1) scale(2.25)' color='rgb(  0,   0, 255)'/>
	<use xlink:href='#gpPt5' transform='translate(874.0,659.0) scale(2.25)' color='rgb(  0,   0, 255)'/>
	<use xlink:href='#gpPt5' transform='translate(886.7,659.6) scale(2.25)' color='rgb(  0,   0, 255)'/>
	<use xlink:href='#gpPt5' transform='translate(899.4,659.9) scale(2.25)' color='rgb(  0,   0, 255)'/>
	<use xlink:href='#gpPt5' transform='translate(912.1,659.8) scale(2.25)' color='rgb(  0,   0, 255)'/>
	<use xlink:href='#gpPt5' transform='translate(924.8,659.5) scale(2.25)' color='rgb(  0,   0, 255)'/>
	<use xlink:href='#gpPt5' transform='translate(937.5,658.9) scale(2.25)' color='rgb(  0,   0, 255)'/>
	<use xlink:href='#gpPt5' transform='translate(950.2,657.9) scale(2.25)' color='rgb(  0,   0, 255)'/>
	<use xlink:href='#gpPt5' transform='translate(962.9,656.7) scale(2.25)' color='rgb(  0,   0, 255)'/>
	<use xlink:href='#gpPt5' transform='translate(975.6,655.2) scale(2.25)' color='rgb(  0,   0, 255)'/>
	<use xlink:href='#gpPt5' transform='translate(988.3,653.4) scale(2.25)' color='rgb(  0,   0, 255)'/>
	<use xlink:href='#gpPt5' transform='translate(1001.0,651.4) scale(2.25)' color='rgb(  0,   0, 255)'/>
	<use xlink:href='#gpPt5' transform='translate(1013.7,649.1) scale(2.25)' color='rgb(  0,   0, 255)'/>
	<use xlink:href='#gpPt5' transform='translate(1026.4,646.7) scale(2.25)' color='rgb(  0,   0, 255)'/>
	<use xlink:href='#gpPt5' transform='translate(1039.1,644.1) scale(2.25)' color='rgb(  0,   0, 255)'/>
	<use xlink:href='#gpPt5' transform='translate(1051.8,641.3) scale(2.25)' color='rgb(  0,   0, 255)'/>
	<use xlink:href='#gpPt5' transform='translate(1064.5,638.5) scale(2.25)' color='rgb(  0,   0, 255)'/>
	<use xlink:href='#gpPt5' transform='translate(1077.2,635.6) scale(2.25)' color='rgb(  0,   0, 255)'/>
	<use xlink:href='#gpPt5' transform='translate(1089.9,632.8) scale(2.25)' color='rgb(  0,   0, 255)'/>
	<use xlink:href='#gpPt5' transform='translate(1102.6,630.1) scale(2.25)' color='rgb(  0,   0, 255)'/>
	<use xlink:href='#gpPt5' transform='translate(1115.3,627.7) scale(2.25)' color='rgb(  0,   0, 255)'/>
	<use xlink:href='#gpPt5' transform='translate(1128.0,625.6) scale(2.25)' color='rgb(  0,   0, 255)'/>
	<use xlink:href='#gpPt5' transform='translate(1140.7,624.2) scale(2.25)' color='rgb(  0,   0, 255)'/>
	<use xlink:href='#gpPt5' transform='translate(1153.4,623.7) scale(2.25)' color='rgb(  0,   0, 255)'/>
	<use xlink:href='#gpPt5' transform='translate(1166.1,623.7) scale(2.25)' color='rgb(  0,   0, 255)'/>
	<use xlink:href='#gpPt5' transform='translate(1178.8,623.6) scale(2.25)' color='rgb(  0,   0, 255)'/>
	<use xlink:href='#gpPt5' transform='translate(1191.5,622.9) scale(2.25)' color='rgb(  0,   0, 255)'/>
	<use xlink:href='#gpPt5' transform='translate(1204.2,621.4) scale(2.25)' color='rgb(  0,   0, 255)'/>
	<use xlink:href='#gpPt5' transform='translate(1216.9,618.7) scale(2.25)' color='rgb(  0,   0, 255)'/>
	<use xlink:href='#gpPt5' transform='translate(1229.6,615.6) scale(2.25)' color='rgb(  0,   0, 255)'/>
	<use xlink:href='#gpPt5' transform='translate(1242.3,613.3) scale(2.25)' color='rgb(  0,   0, 255)'/>
	<use xlink:href='#gpPt5' transform='translate(1255.0,611.8) scale(2.25)' color='rgb(  0,   0, 255)'/>
</g>
	</g>
	<g id="gnuplot_plot_4" ><title>fit</title>
<g fill="none" color="black" stroke="currentColor" stroke-width="1.00" stroke-linecap="butt" stroke-linejoin="miter">
	<g transform="translate(1187.9,94.0)" stroke="none" fill="black" font-family="Arial" font-size="12.00"  text-anchor="end">
		<text><tspan font-family="Arial" >fit</tspan></text>
	</g>
</g>
<g fill="none" color="black" stroke="currentColor" stroke-width="1.00" stroke-linecap="butt" stroke-linejoin="miter">
	<path stroke='rgb(255,   0,   0)'  d='M1196.2,90.1 L1238.4,90.1 M112.0,101.2 L113.1,103.4 L114.2,109.9 L115.4,119.8 L116.5,132.1 L117.6,145.8
		L118.7,160.0 L119.8,174.0 L120.9,187.3 L122.1,199.7 L123.2,211.1 L124.3,221.2 L125.4,230.3 L126.5,238.3
		L127.6,245.4 L128.8,251.6 L129.9,257.0 L131.0,261.7 L132.1,265.9 L133.2,269.5 L134.3,272.7 L135.5,275.5
		L136.6,278.0 L137.7,280.2 L138.8,282.2 L139.9,284.0 L141.0,285.6 L142.2,287.1 L143.3,288.4 L144.4,289.7
		L145.5,290.8 L146.6,291.9 L147.8,292.9 L148.9,293.8 L150.0,294.7 L151.1,295.6 L152.2,296.4 L153.3,297.2
		L154.5,297.9 L155.6,298.7 L156.7,299.4 L157.8,300.1 L158.9,300.8 L160.0,301.4 L161.2,302.1 L162.3,302.8
		L163.4,303.4 L164.5,304.1 L165.6,304.7 L166.7,305.3 L167.9,306.0 L169.0,306.6 L170.1,307.3 L171.2,307.9
		L172.3,308.5 L173.5,309.2 L174.6,309.8 L175.7,310.5 L176.8,311.1 L177.9,311.7 L179.0,312.4 L180.2,313.1
		L181.3,313.7 L182.4,314.4 L183.5,315.0 L184.6,315.7 L185.7,316.4 L186.9,317.1 L188.0,317.8 L189.1,318.4
		L190.2,319.1 L191.3,319.8 L192.4,320.5 L193.6,321.2 L194.7,321.9 L195.8,322.7 L196.9,323.4 L198.0,324.1
		L199.1,324.8 L200.3,325.5 L201.4,326.3 L202.5,327.0 L203.6,327.8 L204.7,328.5 L205.9,329.3 L207.0,330.0
		L208.1,330.8 L209.2,331.5 L210.3,332.3 L211.4,333.1 L212.6,333.8 L213.7,334.6 L214.8,335.4 L215.9,336.2
		L217.0,337.0 L218.1,337.8 L219.3,338.6 L220.4,339.3 L221.5,340.1 L222.6,341.0 L223.7,341.8 L224.8,342.6
		L226.0,343.4 L227.1,344.2 L228.2,345.0 L229.3,345.8 L230.4,346.7 L231.6,347.5 L232.7,348.3 L233.8,349.1
		L234.9,350.0 L236.0,350.8 L237.1,351.6 L238.3,352.5 L239.4,353.3 L240.5,354.2 L241.6,355.0 L242.7,355.8
		L243.8,356.7 L245.0,357.5 L246.1,358.4 L247.2,359.2 L248.3,360.1 L249.4,361.0 L250.5,361.8 L251.7,362.7
		L252.8,363.5 L253.9,364.4 L255.0,365.3 L256.1,366.1 L257.2,367.0 L258.4,367.9 L259.5,368.7 L260.6,369.6
		L261.7,370.5 L262.8,371.3 L264.0,372.2 L265.1,373.1 L266.2,373.9 L267.3,374.8 L268.4,375.7 L269.5,376.6
		L270.7,377.4 L271.8,378.3 L272.9,379.2 L274.0,380.1 L275.1,380.9 L276.2,381.8 L277.4,382.7 L278.5,383.6
		L279.6,384.4 L280.7,385.3 L281.8,386.2 L282.9,387.1 L284.1,388.0 L285.2,388.8 L286.3,389.7 L287.4,390.6
		L288.5,391.5 L289.7,392.4 L290.8,393.2 L291.9,394.1 L293.0,395.0 L294.1,395.9 L295.2,396.7 L296.4,397.6
		L297.5,398.5 L298.6,399.4 L299.7,400.2 L300.8,401.1 L301.9,402.0 L303.1,402.9 L304.2,403.7 L305.3,404.6
		L306.4,405.5 L307.5,406.4 L308.6,407.2 L309.8,408.1 L310.9,409.0 L312.0,409.9 L313.1,410.7 L314.2,411.6
		L315.3,412.5 L316.5,413.3 L317.6,414.2 L318.7,415.1 L319.8,415.9 L320.9,416.8 L322.1,417.7 L323.2,418.5
		L324.3,419.4 L325.4,420.3 L326.5,421.1 L327.6,422.0 L328.8,422.8 L329.9,423.7 L331.0,424.6 L332.1,425.4
		L333.2,426.3 L334.3,427.1 L335.5,428.0 L336.6,428.8 L337.7,429.7 L338.8,430.6 L339.9,431.4 L341.0,432.3
		L342.2,433.1 L343.3,434.0 L344.4,434.8 L345.5,435.6 L346.6,436.5 L347.8,437.3 L348.9,438.2 L350.0,439.0
		L351.1,439.9 L352.2,440.7 L353.3,441.5 L354.5,442.4 L355.6,443.2 L356.7,444.1 L357.8,444.9 L358.9,445.7
		L360.0,446.6 L361.2,447.4 L362.3,448.2 L363.4,449.0 L364.5,449.9 L365.6,450.7 L366.7,451.5 L367.9,452.4
		L369.0,453.2 L370.1,454.0 L371.2,454.8 L372.3,455.6 L373.4,456.5 L374.6,457.3 L375.7,458.1 L376.8,458.9
		L377.9,459.7 L379.0,460.5 L380.2,461.4 L381.3,462.2 L382.4,463.0 L383.5,463.8 L384.6,464.6 L385.7,465.4
		L386.9,466.2 L388.0,467.0 L389.1,467.8 L390.2,468.6 L391.3,469.4 L392.4,470.2 L393.6,471.0 L394.7,471.8
		L395.8,472.6 L396.9,473.4 L398.0,474.2 L399.1,475.0 L400.3,475.8 L401.4,476.6 L402.5,477.4 L403.6,478.1
		L404.7,478.9 L405.9,479.7 L407.0,480.5 L408.1,481.3 L409.2,482.1 L410.3,482.8 L411.4,483.6 L412.6,484.4
		L413.7,485.2 L414.8,485.9 L415.9,486.7 L417.0,487.5 L418.1,488.3 L419.3,489.0 L420.4,489.8 L421.5,490.6
		L422.6,491.3 L423.7,492.1 L424.8,492.9 L426.0,493.6 L427.1,494.4 L428.2,495.1 L429.3,495.9 L430.4,496.7
		L431.5,497.4 L432.7,498.2 L433.8,498.9 L434.9,499.7 L436.0,500.4 L437.1,501.2 L438.3,501.9 L439.4,502.7
		L440.5,503.4 L441.6,504.2 L442.7,504.9 L443.8,505.7 L445.0,506.4 L446.1,507.1 L447.2,507.9 L448.3,508.6
		L449.4,509.4 L450.5,510.1 L451.7,510.8 L452.8,511.6 L453.9,512.3 L455.0,513.0 L456.1,513.8 L457.2,514.5
		L458.4,515.2 L459.5,515.9 L460.6,516.7 L461.7,517.4 L462.8,518.1 L464.0,518.8 L465.1,519.5 L466.2,520.3
		L467.3,521.0 L468.4,521.7 L469.5,522.4 L470.7,523.1 L471.8,523.8 L472.9,524.5 L474.0,525.3 L475.1,526.0
		L476.2,526.7 L477.4,527.4 L478.5,528.1 L479.6,528.8 L480.7,529.5 L481.8,530.2 L482.9,530.9 L484.1,531.6
		L485.2,532.3 L486.3,533.0 L487.4,533.7 L488.5,534.4 L489.6,535.1 L490.8,535.8 L491.9,536.5 L493.0,537.1
		L494.1,537.8 L495.2,538.5 L496.4,539.2 L497.5,539.9 L498.6,540.6 L499.7,541.3 L500.8,541.9 L501.9,542.6
		L503.1,543.3 L504.2,544.0 L505.3,544.7 L506.4,545.3 L507.5,546.0 L508.6,546.7 L509.8,547.3 L510.9,548.0
		L512.0,548.7 L513.1,549.4 L514.2,550.0 L515.3,550.7 L516.5,551.3 L517.6,552.0 L518.7,552.7 L519.8,553.3
		L520.9,554.0 L522.0,554.7 L523.2,555.3 L524.3,556.0 L525.4,556.6 L526.5,557.3 L527.6,557.9 L528.8,558.6
		L529.9,559.2 L531.0,559.9 L532.1,560.5 L533.2,561.2 L534.3,561.8 L535.5,562.5 L536.6,563.1 L537.7,563.7
		L538.8,564.4 L539.9,565.0 L541.0,565.7 L542.2,566.3 L543.3,566.9 L544.4,567.6 L545.5,568.2 L546.6,568.8
		L547.7,569.5 L548.9,570.1 L550.0,570.7 L551.1,571.3 L552.2,572.0 L553.3,572.6 L554.5,573.2 L555.6,573.8
		L556.7,574.5 L557.8,575.1 L558.9,575.7 L560.0,576.3 L561.2,576.9 L562.3,577.5 L563.4,578.2 L564.5,578.8
		L565.6,579.4 L566.7,580.0 L567.9,580.6 L569.0,581.2 L570.1,581.8 L571.2,582.4 L572.3,583.0 L573.4,583.6
		L574.6,584.2 L575.7,584.8 L576.8,585.4 L577.9,586.0 L579.0,586.6 L580.1,587.2 L581.3,587.8 L582.4,588.4
		L583.5,589.0 L584.6,589.6 L585.7,590.2 L586.9,590.7 L588.0,591.3 L589.1,591.9 L590.2,592.5 L591.3,593.1
		L592.4,593.7 L593.6,594.2 L594.7,594.8 L595.8,595.4 L596.9,596.0 L598.0,596.5 L599.1,597.1 L600.3,597.7
		L601.4,598.2 L602.5,598.8 L603.6,599.4 L604.7,599.9 L605.8,600.5 L607.0,601.1 L608.1,601.6 L609.2,602.2
		L610.3,602.8 L611.4,603.3 L612.6,603.9 L613.7,604.4 L614.8,605.0 L615.9,605.5 L617.0,606.1 L618.1,606.6
		L619.3,607.2 L620.4,607.7 L621.5,608.3 L622.6,608.8 L623.7,609.4 L624.8,609.9 L626.0,610.4 L627.1,611.0
		L628.2,611.5 L629.3,612.0 L630.4,612.6 L631.5,613.1 L632.7,613.6 L633.8,614.2 L634.9,614.7 L636.0,615.2
		L637.1,615.7 L638.2,616.3 L639.4,616.8 L640.5,617.3 L641.6,617.8 L642.7,618.3 L643.8,618.9 L645.0,619.4
		L646.1,619.9 L647.2,620.4 L648.3,620.9 L649.4,621.4 L650.5,621.9 L651.7,622.4 L652.8,622.9 L653.9,623.4
		L655.0,623.9 L656.1,624.4 L657.2,624.9 L658.4,625.4 L659.5,625.9 L660.6,626.4 L661.7,626.9 L662.8,627.4
		L663.9,627.9 L665.1,628.4 L666.2,628.8 L667.3,629.3 L668.4,629.8 L669.5,630.3 L670.7,630.8 L671.8,631.2
		L672.9,631.7 L674.0,632.2 L675.1,632.6 L676.2,633.1 L677.4,633.6 L678.5,634.0 L679.6,634.5 L680.7,635.0
		L681.8,635.4 L682.9,635.9 L684.1,636.4 L685.2,636.8 L686.3,637.3 L687.4,637.7 L688.5,638.2 L689.6,638.6
		L690.8,639.1 L691.9,639.5 L693.0,639.9 L694.1,640.4 L695.2,640.8 L696.3,641.3 L697.5,641.7 L698.6,642.1
		L699.7,642.6 L700.8,643.0 L701.9,643.4 L703.1,643.8 L704.2,644.3 L705.3,644.7 L706.4,645.1 L707.5,645.5
		L708.6,645.9 L709.8,646.4 L710.9,646.8 L712.0,647.2 L713.1,647.6 L714.2,648.0 L715.3,648.4 L716.5,648.8
		L717.6,649.2 L718.7,649.6 L719.8,650.0 L720.9,650.4 L722.0,650.8 L723.2,651.2 L724.3,651.6 L725.4,652.0
		L726.5,652.3 L727.6,652.7 L728.8,653.1 L729.9,653.5 L731.0,653.9 L732.1,654.2 L733.2,654.6 L734.3,655.0
		L735.5,655.4 L736.6,655.7 L737.7,656.1 L738.8,656.4 L739.9,656.8 L741.0,657.2 L742.2,657.5 L743.3,657.9
		L744.4,658.2 L745.5,658.6 L746.6,658.9 L747.7,659.3 L748.9,659.6 L750.0,659.9 L751.1,660.3 L752.2,660.6
		L753.3,661.0 L754.4,661.3 L755.6,661.6 L756.7,661.9 L757.8,662.3 L758.9,662.6 L760.0,662.9 L761.2,663.2
		L762.3,663.5 L763.4,663.9 L764.5,664.2 L765.6,664.5 L766.7,664.8 L767.9,665.1 L769.0,665.4 L770.1,665.7
		L771.2,666.0 L772.3,666.3 L773.4,666.6 L774.6,666.9 L775.7,667.2 L776.8,667.4 L777.9,667.7 L779.0,668.0
		L780.1,668.3 L781.3,668.6 L782.4,668.8 L783.5,669.1 L784.6,669.4 L785.7,669.6 L786.9,669.9 L788.0,670.2
		L789.1,670.4 L790.2,670.7 L791.3,670.9 L792.4,671.2 L793.6,671.4 L794.7,671.7 L795.8,671.9 L796.9,672.2
		L798.0,672.4 L799.1,672.6 L800.3,672.9 L801.4,673.1 L802.5,673.3 L803.6,673.6 L804.7,673.8 L805.8,674.0
		L807.0,674.2 L808.1,674.4 L809.2,674.7 L810.3,674.9 L811.4,675.1 L812.5,675.3 L813.7,675.5 L814.8,675.7
		L815.9,675.9 L817.0,676.1 L818.1,676.3 L819.3,676.5 L820.4,676.7 L821.5,676.9 L822.6,677.0 L823.7,677.2
		L824.8,677.4 L826.0,677.6 L827.1,677.7 L828.2,677.9 L829.3,678.1 L830.4,678.2 L831.5,678.4 L832.7,678.6
		L833.8,678.7 L834.9,678.9 L836.0,679.0 L837.1,679.2 L838.2,679.3 L839.4,679.5 L840.5,679.6 L841.6,679.8
		L842.7,679.9 L843.8,680.0 L845.0,680.2 L846.1,680.3 L847.2,680.4 L848.3,680.6 L849.4,680.7 L850.5,680.8
		L851.7,680.9 L852.8,681.0 L853.9,681.1 L855.0,681.2 L856.1,681.4 L857.2,681.5 L858.4,681.6 L859.5,681.7
		L860.6,681.8 L861.7,681.8 L862.8,681.9 L863.9,682.0 L865.1,682.1 L866.2,682.2 L867.3,682.3 L868.4,682.4
		L869.5,682.4 L870.6,682.5 L871.8,682.6 L872.9,682.6 L874.0,682.7 L875.1,682.8 L876.2,682.8 L877.4,682.9
		L878.5,682.9 L879.6,683.0 L880.7,683.1 L881.8,683.1 L882.9,683.1 L884.1,683.2 L885.2,683.2 L886.3,683.3
		L887.4,683.3 L888.5,683.3 L889.6,683.4 L890.8,683.4 L891.9,683.4 L893.0,683.5 L894.1,683.5 L895.2,683.5
		L896.3,683.5 L897.5,683.5 L898.6,683.5 L899.7,683.5 L900.8,683.6 L901.9,683.6 L903.0,683.6 L904.2,683.6
		L905.3,683.6 L906.4,683.6 L907.5,683.6 L908.6,683.5 L909.8,683.5 L910.9,683.5 L912.0,683.5 L913.1,683.5
		L914.2,683.5 L915.3,683.4 L916.5,683.4 L917.6,683.4 L918.7,683.4 L919.8,683.3 L920.9,683.3 L922.0,683.3
		L923.2,683.2 L924.3,683.2 L925.4,683.1 L926.5,683.1 L927.6,683.1 L928.7,683.0 L929.9,683.0 L931.0,682.9
		L932.1,682.9 L933.2,682.8 L934.3,682.7 L935.5,682.7 L936.6,682.6 L937.7,682.6 L938.8,682.5 L939.9,682.4
		L941.0,682.3 L942.2,682.3 L943.3,682.2 L944.4,682.1 L945.5,682.0 L946.6,682.0 L947.7,681.9 L948.9,681.8
		L950.0,681.7 L951.1,681.6 L952.2,681.5 L953.3,681.4 L954.4,681.4 L955.6,681.3 L956.7,681.2 L957.8,681.1
		L958.9,681.0 L960.0,680.9 L961.1,680.8 L962.3,680.7 L963.4,680.6 L964.5,680.4 L965.6,680.3 L966.7,680.2
		L967.9,680.1 L969.0,680.0 L970.1,679.9 L971.2,679.8 L972.3,679.6 L973.4,679.5 L974.6,679.4 L975.7,679.3
		L976.8,679.1 L977.9,679.0 L979.0,678.9 L980.1,678.8 L981.3,678.6 L982.4,678.5 L983.5,678.4 L984.6,678.2
		L985.7,678.1 L986.8,678.0 L988.0,677.8 L989.1,677.7 L990.2,677.5 L991.3,677.4 L992.4,677.2 L993.6,677.1
		L994.7,677.0 L995.8,676.8 L996.9,676.7 L998.0,676.5 L999.1,676.4 L1000.3,676.2 L1001.4,676.1 L1002.5,675.9
		L1003.6,675.7 L1004.7,675.6 L1005.8,675.4 L1007.0,675.3 L1008.1,675.1 L1009.2,674.9 L1010.3,674.8 L1011.4,674.6
		L1012.5,674.5 L1013.7,674.3 L1014.8,674.1 L1015.9,674.0 L1017.0,673.8 L1018.1,673.6 L1019.2,673.5 L1020.4,673.3
		L1021.5,673.1 L1022.6,672.9 L1023.7,672.8 L1024.8,672.6 L1026.0,672.4 L1027.1,672.3 L1028.2,672.1 L1029.3,671.9
		L1030.4,671.7 L1031.5,671.5 L1032.7,671.4 L1033.8,671.2 L1034.9,671.0 L1036.0,670.8 L1037.1,670.7 L1038.2,670.5
		L1039.4,670.3 L1040.5,670.1 L1041.6,669.9 L1042.7,669.8 L1043.8,669.6 L1044.9,669.4 L1046.1,669.2 L1047.2,669.0
		L1048.3,668.8 L1049.4,668.6 L1050.5,668.5 L1051.7,668.3 L1052.8,668.1 L1053.9,667.9 L1055.0,667.7 L1056.1,667.5
		L1057.2,667.3 L1058.4,667.2 L1059.5,667.0 L1060.6,666.8 L1061.7,666.6 L1062.8,666.4 L1063.9,666.2 L1065.1,666.0
		L1066.2,665.9 L1067.3,665.7 L1068.4,665.5 L1069.5,665.3 L1070.6,665.1 L1071.8,664.9 L1072.9,664.7 L1074.0,664.5
		L1075.1,664.3 L1076.2,664.2 L1077.3,664.0 L1078.5,663.8 L1079.6,663.6 L1080.7,663.4 L1081.8,663.2 L1082.9,663.0
		L1084.1,662.9 L1085.2,662.7 L1086.3,662.5 L1087.4,662.3 L1088.5,662.1 L1089.6,661.9 L1090.8,661.7 L1091.9,661.6
		L1093.0,661.4 L1094.1,661.2 L1095.2,661.0 L1096.3,660.8 L1097.5,660.6 L1098.6,660.5 L1099.7,660.3 L1100.8,660.1
		L1101.9,659.9 L1103.0,659.7 L1104.2,659.6 L1105.3,659.4 L1106.4,659.2 L1107.5,659.0 L1108.6,658.8 L1109.8,658.7
		L1110.9,658.5 L1112.0,658.3 L1113.1,658.1 L1114.2,658.0 L1115.3,657.8 L1116.5,657.6 L1117.6,657.4 L1118.7,657.3
		L1119.8,657.1 L1120.9,656.9 L1122.0,656.8 L1123.2,656.6 L1124.3,656.4 L1125.4,656.2 L1126.5,656.1 L1127.6,655.9
		L1128.7,655.7 L1129.9,655.6 L1131.0,655.4 L1132.1,655.3 L1133.2,655.1 L1134.3,654.9 L1135.4,654.8 L1136.6,654.6
		L1137.7,654.5 L1138.8,654.3 L1139.9,654.1 L1141.0,654.0 L1142.2,653.8 L1143.3,653.7 L1144.4,653.5 L1145.5,653.4
		L1146.6,653.2 L1147.7,653.1 L1148.9,652.9 L1150.0,652.8 L1151.1,652.6 L1152.2,652.5 L1153.3,652.4 L1154.4,652.2
		L1155.6,652.1 L1156.7,651.9 L1157.8,651.8 L1158.9,651.7 L1160.0,651.5 L1161.1,651.4 L1162.3,651.3 L1163.4,651.1
		L1164.5,651.0 L1165.6,650.9 L1166.7,650.7 L1167.9,650.6 L1169.0,650.5 L1170.1,650.4 L1171.2,650.2 L1172.3,650.1
		L1173.4,650.0 L1174.6,649.9 L1175.7,649.8 L1176.8,649.6 L1177.9,649.5 L1179.0,649.4 L1180.1,649.3 L1181.3,649.2
		L1182.4,649.1 L1183.5,649.0 L1184.6,648.9 L1185.7,648.8 L1186.8,648.7 L1188.0,648.6 L1189.1,648.5 L1190.2,648.4
		L1191.3,648.3 L1192.4,648.2 L1193.5,648.1 L1194.7,648.0 L1195.8,647.9 L1196.9,647.8 L1198.0,647.7 L1199.1,647.6
		L1200.3,647.5 L1201.4,647.5 L1202.5,647.4 L1203.6,647.3 L1204.7,647.2 L1205.8,647.1 L1207.0,647.1 L1208.1,647.0
		L1209.2,646.9 L1210.3,646.9 L1211.4,646.8 L1212.5,646.7 L1213.7,646.7 L1214.8,646.6 L1215.9,646.5 L1217.0,646.5
		L1218.1,646.4 L1219.2,646.4 L1220.4,646.3 L1221.5,646.2 L1222.6,646.2 L1223.7,646.1 L1224.8,646.1 L1226.0,646.0
		L1227.1,646.0 L1228.2,646.0 L1229.3,645.9 L1230.4,645.9 L1231.5,645.8 L1232.7,645.8 L1233.8,645.8 L1234.9,645.7
		L1236.0,645.7 L1237.1,645.7 L1238.2,645.7 L1239.4,645.6 L1240.5,645.6 L1241.6,645.6 L1242.7,645.6 L1243.8,645.5
		L1244.9,645.5 L1246.1,645.5 L1247.2,645.5 L1248.3,645.5 L1249.4,645.5 L1250.5,645.5 L1251.6,645.5 L1252.8,645.5
		L1253.9,645.5 L1255.0,645.5  '/></g>
	</g>
	<g id="gnuplot_plot_5" ><title>gnuplot_plot_5</title>
<g fill="none" color="black" stroke="currentColor" stroke-width="1.00" stroke-linecap="butt" stroke-linejoin="miter">
	<path stroke='rgb(  0, 100,   0)'  d='M112.0,92.2 L113.1,94.4 L114.2,100.9 L115.4,110.7 L116.5,123.0 L117.6,136.6 L118.7,150.7 L119.8,164.6
		L120.9,177.9 L122.1,190.2 L123.2,201.4 L124.3,211.5 L125.4,220.4 L126.5,228.3 L127.6,235.3 L128.8,241.4
		L129.9,246.7 L131.0,251.3 L132.1,255.4 L133.2,259.0 L134.3,262.1 L135.5,264.8 L136.6,267.3 L137.7,269.5
		L138.8,271.4 L139.9,273.2 L141.0,274.8 L142.2,276.2 L143.3,277.5 L144.4,278.7 L145.5,279.9 L146.6,280.9
		L147.8,281.9 L148.9,282.8 L150.0,283.7 L151.1,284.6 L152.2,285.4 L153.3,286.1 L154.5,286.9 L155.6,287.6
		L156.7,288.3 L157.8,289.0 L158.9,289.7 L160.0,290.3 L161.2,291.0 L162.3,291.7 L163.4,292.3 L164.5,292.9
		L165.6,293.6 L166.7,294.2 L167.9,294.9 L169.0,295.5 L170.1,296.1 L171.2,296.8 L172.3,297.4 L173.5,298.0
		L174.6,298.7 L175.7,299.3 L176.8,300.0 L177.9,300.6 L179.0,301.3 L180.2,301.9 L181.3,302.6 L182.4,303.2
		L183.5,303.9 L184.6,304.6 L185.7,305.2 L186.9,305.9 L188.0,306.6 L189.1,307.3 L190.2,308.0 L191.3,308.7
		L192.4,309.4 L193.6,310.1 L194.7,310.8 L195.8,311.5 L196.9,312.2 L198.0,312.9 L199.1,313.7 L200.3,314.4
		L201.4,315.1 L202.5,315.9 L203.6,316.6 L204.7,317.4 L205.9,318.1 L207.0,318.9 L208.1,319.6 L209.2,320.4
		L210.3,321.2 L211.4,321.9 L212.6,322.7 L213.7,323.5 L214.8,324.3 L215.9,325.0 L217.0,325.8 L218.1,326.6
		L219.3,327.4 L220.4,328.2 L221.5,329.0 L222.6,329.8 L223.7,330.6 L224.8,331.4 L226.0,332.2 L227.1,333.1
		L228.2,333.9 L229.3,334.7 L230.4,335.5 L231.6,336.4 L232.7,337.2 L233.8,338.0 L234.9,338.8 L236.0,339.7
		L237.1,340.5 L238.3,341.4 L239.4,342.2 L240.5,343.0 L241.6,343.9 L242.7,344.7 L243.8,345.6 L245.0,346.4
		L246.1,347.3 L247.2,348.1 L248.3,349.0 L249.4,349.9 L250.5,350.7 L251.7,351.6 L252.8,352.4 L253.9,353.3
		L255.0,354.2 L256.1,355.0 L257.2,355.9 L258.4,356.8 L259.5,357.6 L260.6,358.5 L261.7,359.4 L262.8,360.2
		L264.0,361.1 L265.1,362.0 L266.2,362.9 L267.3,363.7 L268.4,364.6 L269.5,365.5 L270.7,366.4 L271.8,367.2
		L272.9,368.1 L274.0,369.0 L275.1,369.9 L276.2,370.8 L277.4,371.6 L278.5,372.5 L279.6,373.4 L280.7,374.3
		L281.8,375.2 L282.9,376.0 L284.1,376.9 L285.2,377.8 L286.3,378.7 L287.4,379.6 L288.5,380.4 L289.7,381.3
		L290.8,382.2 L291.9,383.1 L293.0,384.0 L294.1,384.8 L295.2,385.7 L296.4,386.6 L297.5,387.5 L298.6,388.4
		L299.7,389.2 L300.8,390.1 L301.9,391.0 L303.1,391.9 L304.2,392.8 L305.3,393.6 L306.4,394.5 L307.5,395.4
		L308.6,396.3 L309.8,397.1 L310.9,398.0 L312.0,398.9 L313.1,399.8 L314.2,400.6 L315.3,401.5 L316.5,402.4
		L317.6,403.2 L318.7,404.1 L319.8,405.0 L320.9,405.9 L322.1,406.7 L323.2,407.6 L324.3,408.5 L325.4,409.3
		L326.5,410.2 L327.6,411.1 L328.8,411.9 L329.9,412.8 L331.0,413.6 L332.1,414.5 L333.2,415.4 L334.3,416.2
		L335.5,417.1 L336.6,417.9 L337.7,418.8 L338.8,419.7 L339.9,420.5 L341.0,421.4 L342.2,422.2 L343.3,423.1
		L344.4,423.9 L345.5,424.8 L346.6,425.6 L347.8,426.5 L348.9,427.3 L350.0,428.2 L351.1,429.0 L352.2,429.9
		L353.3,430.7 L354.5,431.5 L355.6,432.4 L356.7,433.2 L357.8,434.1 L358.9,434.9 L360.0,435.7 L361.2,436.6
		L362.3,437.4 L363.4,438.2 L364.5,439.1 L365.6,439.9 L366.7,440.7 L367.9,441.6 L369.0,442.4 L370.1,443.2
		L371.2,444.0 L372.3,444.9 L373.4,445.7 L374.6,446.5 L375.7,447.3 L376.8,448.2 L377.9,449.0 L379.0,449.8
		L380.2,450.6 L381.3,451.4 L382.4,452.2 L383.5,453.1 L384.6,453.9 L385.7,454.7 L386.9,455.5 L388.0,456.3
		L389.1,457.1 L390.2,457.9 L391.3,458.7 L392.4,459.5 L393.6,460.3 L394.7,461.1 L395.8,461.9 L396.9,462.7
		L398.0,463.5 L399.1,464.3 L400.3,465.1 L401.4,465.9 L402.5,466.7 L403.6,467.5 L404.7,468.3 L405.9,469.1
		L407.0,469.9 L408.1,470.7 L409.2,471.4 L410.3,472.2 L411.4,473.0 L412.6,473.8 L413.7,474.6 L414.8,475.4
		L415.9,476.1 L417.0,476.9 L418.1,477.7 L419.3,478.5 L420.4,479.2 L421.5,480.0 L422.6,480.8 L423.7,481.6
		L424.8,482.3 L426.0,483.1 L427.1,483.9 L428.2,484.6 L429.3,485.4 L430.4,486.2 L431.5,486.9 L432.7,487.7
		L433.8,488.4 L434.9,489.2 L436.0,490.0 L437.1,490.7 L438.3,491.5 L439.4,492.2 L440.5,493.0 L441.6,493.7
		L442.7,494.5 L443.8,495.2 L445.0,496.0 L446.1,496.7 L447.2,497.5 L448.3,498.2 L449.4,499.0 L450.5,499.7
		L451.7,500.4 L452.8,501.2 L453.9,501.9 L455.0,502.7 L456.1,503.4 L457.2,504.1 L458.4,504.9 L459.5,505.6
		L460.6,506.3 L461.7,507.1 L462.8,507.8 L464.0,508.5 L465.1,509.2 L466.2,510.0 L467.3,510.7 L468.4,511.4
		L469.5,512.1 L470.7,512.9 L471.8,513.6 L472.9,514.3 L474.0,515.0 L475.1,515.7 L476.2,516.4 L477.4,517.2
		L478.5,517.9 L479.6,518.6 L480.7,519.3 L481.8,520.0 L482.9,520.7 L484.1,521.4 L485.2,522.1 L486.3,522.8
		L487.4,523.5 L488.5,524.2 L489.6,524.9 L490.8,525.6 L491.9,526.3 L493.0,527.0 L494.1,527.7 L495.2,528.4
		L496.4,529.1 L497.5,529.8 L498.6,530.5 L499.7,531.2 L500.8,531.9 L501.9,532.6 L503.1,533.3 L504.2,533.9
		L505.3,534.6 L506.4,535.3 L507.5,536.0 L508.6,536.7 L509.8,537.4 L510.9,538.0 L512.0,538.7 L513.1,539.4
		L514.2,540.1 L515.3,540.7 L516.5,541.4 L517.6,542.1 L518.7,542.8 L519.8,543.4 L520.9,544.1 L522.0,544.8
		L523.2,545.4 L524.3,546.1 L525.4,546.8 L526.5,547.4 L527.6,548.1 L528.8,548.7 L529.9,549.4 L531.0,550.1
		L532.1,550.7 L533.2,551.4 L534.3,552.0 L535.5,552.7 L536.6,553.3 L537.7,554.0 L538.8,554.6 L539.9,555.3
		L541.0,555.9 L542.2,556.6 L543.3,557.2 L544.4,557.9 L545.5,558.5 L546.6,559.2 L547.7,559.8 L548.9,560.4
		L550.0,561.1 L551.1,561.7 L552.2,562.3 L553.3,563.0 L554.5,563.6 L555.6,564.3 L556.7,564.9 L557.8,565.5
		L558.9,566.1 L560.0,566.8 L561.2,567.4 L562.3,568.0 L563.4,568.6 L564.5,569.3 L565.6,569.9 L566.7,570.5
		L567.9,571.1 L569.0,571.7 L570.1,572.4 L571.2,573.0 L572.3,573.6 L573.4,574.2 L574.6,574.8 L575.7,575.4
		L576.8,576.0 L577.9,576.6 L579.0,577.2 L580.1,577.9 L581.3,578.5 L582.4,579.1 L583.5,579.7 L584.6,580.3
		L585.7,580.9 L586.9,581.5 L588.0,582.1 L589.1,582.7 L590.2,583.2 L591.3,583.8 L592.4,584.4 L593.6,585.0
		L594.7,585.6 L595.8,586.2 L596.9,586.8 L598.0,587.4 L599.1,588.0 L600.3,588.5 L601.4,589.1 L602.5,589.7
		L603.6,590.3 L604.7,590.9 L605.8,591.4 L607.0,592.0 L608.1,592.6 L609.2,593.1 L610.3,593.7 L611.4,594.3
		L612.6,594.9 L613.7,595.4 L614.8,596.0 L615.9,596.6 L617.0,597.1 L618.1,597.7 L619.3,598.2 L620.4,598.8
		L621.5,599.4 L622.6,599.9 L623.7,600.5 L624.8,601.0 L626.0,601.6 L627.1,602.1 L628.2,602.7 L629.3,603.2
		L630.4,603.8 L631.5,604.3 L632.7,604.8 L633.8,605.4 L634.9,605.9 L636.0,606.5 L637.1,607.0 L638.2,607.5
		L639.4,608.1 L640.5,608.6 L641.6,609.1 L642.7,609.7 L643.8,610.2 L645.0,610.7 L646.1,611.2 L647.2,611.8
		L648.3,612.3 L649.4,612.8 L650.5,613.3 L651.7,613.9 L652.8,614.4 L653.9,614.9 L655.0,615.4 L656.1,615.9
		L657.2,616.4 L658.4,616.9 L659.5,617.4 L660.6,617.9 L661.7,618.4 L662.8,618.9 L663.9,619.4 L665.1,619.9
		L666.2,620.4 L667.3,620.9 L668.4,621.4 L669.5,621.9 L670.7,622.4 L671.8,622.9 L672.9,623.4 L674.0,623.9
		L675.1,624.4 L676.2,624.8 L677.4,625.3 L678.5,625.8 L679.6,626.3 L680.7,626.7 L681.8,627.2 L682.9,627.7
		L684.1,628.2 L685.2,628.6 L686.3,629.1 L687.4,629.6 L688.5,630.0 L689.6,630.5 L690.8,630.9 L691.9,631.4
		L693.0,631.9 L694.1,632.3 L695.2,632.8 L696.3,633.2 L697.5,633.7 L698.6,634.1 L699.7,634.6 L700.8,635.0
		L701.9,635.4 L703.1,635.9 L704.2,636.3 L705.3,636.8 L706.4,637.2 L707.5,637.6 L708.6,638.0 L709.8,638.5
		L710.9,638.9 L712.0,639.3 L713.1,639.7 L714.2,640.2 L715.3,640.6 L716.5,641.0 L717.6,641.4 L718.7,641.8
		L719.8,642.2 L720.9,642.6 L722.0,643.1 L723.2,643.5 L724.3,643.9 L725.4,644.3 L726.5,644.7 L727.6,645.0
		L728.8,645.4 L729.9,645.8 L731.0,646.2 L732.1,646.6 L733.2,647.0 L734.3,647.4 L735.5,647.8 L736.6,648.1
		L737.7,648.5 L738.8,648.9 L739.9,649.3 L741.0,649.6 L742.2,650.0 L743.3,650.4 L744.4,650.7 L745.5,651.1
		L746.6,651.4 L747.7,651.8 L748.9,652.2 L750.0,652.5 L751.1,652.9 L752.2,653.2 L753.3,653.6 L754.4,653.9
		L755.6,654.2 L756.7,654.6 L757.8,654.9 L758.9,655.2 L760.0,655.6 L761.2,655.9 L762.3,656.2 L763.4,656.6
		L764.5,656.9 L765.6,657.2 L766.7,657.5 L767.9,657.8 L769.0,658.1 L770.1,658.5 L771.2,658.8 L772.3,659.1
		L773.4,659.4 L774.6,659.7 L775.7,660.0 L776.8,660.3 L777.9,660.6 L779.0,660.8 L780.1,661.1 L781.3,661.4
		L782.4,661.7 L783.5,662.0 L784.6,662.3 L785.7,662.5 L786.9,662.8 L788.0,663.1 L789.1,663.3 L790.2,663.6
		L791.3,663.9 L792.4,664.1 L793.6,664.4 L794.7,664.6 L795.8,664.9 L796.9,665.2 L798.0,665.4 L799.1,665.6
		L800.3,665.9 L801.4,666.1 L802.5,666.4 L803.6,666.6 L804.7,666.8 L805.8,667.1 L807.0,667.3 L808.1,667.5
		L809.2,667.7 L810.3,667.9 L811.4,668.2 L812.5,668.4 L813.7,668.6 L814.8,668.8 L815.9,669.0 L817.0,669.2
		L818.1,669.4 L819.3,669.6 L820.4,669.8 L821.5,670.0 L822.6,670.2 L823.7,670.4 L824.8,670.6 L826.0,670.7
		L827.1,670.9 L828.2,671.1 L829.3,671.3 L830.4,671.4 L831.5,671.6 L832.7,671.8 L833.8,671.9 L834.9,672.1
		L836.0,672.2 L837.1,672.4 L838.2,672.6 L839.4,672.7 L840.5,672.8 L841.6,673.0 L842.7,673.1 L843.8,673.3
		L845.0,673.4 L846.1,673.5 L847.2,673.7 L848.3,673.8 L849.4,673.9 L850.5,674.0 L851.7,674.2 L852.8,674.3
		L853.9,674.4 L855.0,674.5 L856.1,674.6 L857.2,674.7 L858.4,674.8 L859.5,674.9 L860.6,675.0 L861.7,675.1
		L862.8,675.2 L863.9,675.3 L865.1,675.4 L866.2,675.5 L867.3,675.6 L868.4,675.6 L869.5,675.7 L870.6,675.8
		L871.8,675.9 L872.9,675.9 L874.0,676.0 L875.1,676.1 L876.2,676.1 L877.4,676.2 L878.5,676.2 L879.6,676.3
		L880.7,676.3 L881.8,676.4 L882.9,676.4 L884.1,676.5 L885.2,676.5 L886.3,676.6 L887.4,676.6 L888.5,676.6
		L889.6,676.6 L890.8,676.7 L891.9,676.7 L893.0,676.7 L894.1,676.7 L895.2,676.8 L896.3,676.8 L897.5,676.8
		L898.6,676.8 L899.7,676.8 L900.8,676.8 L901.9,676.8 L903.0,676.8 L904.2,676.8 L905.3,676.8 L906.4,676.8
		L907.5,676.8 L908.6,676.8 L909.8,676.8 L910.9,676.7 L912.0,676.7 L913.1,676.7 L914.2,676.7 L915.3,676.7
		L916.5,676.6 L917.6,676.6 L918.7,676.6 L919.8,676.5 L920.9,676.5 L922.0,676.4 L923.2,676.4 L924.3,676.4
		L925.4,676.3 L926.5,676.3 L927.6,676.2 L928.7,676.2 L929.9,676.1 L931.0,676.0 L932.1,676.0 L933.2,675.9
		L934.3,675.9 L935.5,675.8 L936.6,675.7 L937.7,675.7 L938.8,675.6 L939.9,675.5 L941.0,675.4 L942.2,675.4
		L943.3,675.3 L944.4,675.2 L945.5,675.1 L946.6,675.0 L947.7,674.9 L948.9,674.8 L950.0,674.8 L951.1,674.7
		L952.2,674.6 L953.3,674.5 L954.4,674.4 L955.6,674.3 L956.7,674.2 L957.8,674.1 L958.9,673.9 L960.0,673.8
		L961.1,673.7 L962.3,673.6 L963.4,673.5 L964.5,673.4 L965.6,673.3 L966.7,673.2 L967.9,673.0 L969.0,672.9
		L970.1,672.8 L971.2,672.7 L972.3,672.5 L973.4,672.4 L974.6,672.3 L975.7,672.1 L976.8,672.0 L977.9,671.9
		L979.0,671.7 L980.1,671.6 L981.3,671.5 L982.4,671.3 L983.5,671.2 L984.6,671.0 L985.7,670.9 L986.8,670.7
		L988.0,670.6 L989.1,670.4 L990.2,670.3 L991.3,670.1 L992.4,670.0 L993.6,669.8 L994.7,669.7 L995.8,669.5
		L996.9,669.4 L998.0,669.2 L999.1,669.0 L1000.3,668.9 L1001.4,668.7 L1002.5,668.6 L1003.6,668.4 L1004.7,668.2
		L1005.8,668.1 L1007.0,667.9 L1008.1,667.7 L1009.2,667.6 L1010.3,667.4 L1011.4,667.2 L1012.5,667.0 L1013.7,666.9
		L1014.8,666.7 L1015.9,666.5 L1017.0,666.3 L1018.1,666.2 L1019.2,666.0 L1020.4,665.8 L1021.5,665.6 L1022.6,665.4
		L1023.7,665.3 L1024.8,665.1 L1026.0,664.9 L1027.1,664.7 L1028.2,664.5 L1029.3,664.4 L1030.4,664.2 L1031.5,664.0
		L1032.7,663.8 L1033.8,663.6 L1034.9,663.4 L1036.0,663.2 L1037.1,663.0 L1038.2,662.9 L1039.4,662.7 L1040.5,662.5
		L1041.6,662.3 L1042.7,662.1 L1043.8,661.9 L1044.9,661.7 L1046.1,661.5 L1047.2,661.3 L1048.3,661.1 L1049.4,660.9
		L1050.5,660.7 L1051.7,660.6 L1052.8,660.4 L1053.9,660.2 L1055.0,660.0 L1056.1,659.8 L1057.2,659.6 L1058.4,659.4
		L1059.5,659.2 L1060.6,659.0 L1061.7,658.8 L1062.8,658.6 L1063.9,658.4 L1065.1,658.2 L1066.2,658.0 L1067.3,657.8
		L1068.4,657.6 L1069.5,657.4 L1070.6,657.2 L1071.8,657.0 L1072.9,656.8 L1074.0,656.6 L1075.1,656.4 L1076.2,656.2
		L1077.3,656.1 L1078.5,655.9 L1079.6,655.7 L1080.7,655.5 L1081.8,655.3 L1082.9,655.1 L1084.1,654.9 L1085.2,654.7
		L1086.3,654.5 L1087.4,654.3 L1088.5,654.1 L1089.6,653.9 L1090.8,653.7 L1091.9,653.5 L1093.0,653.3 L1094.1,653.1
		L1095.2,653.0 L1096.3,652.8 L1097.5,652.6 L1098.6,652.4 L1099.7,652.2 L1100.8,652.0 L1101.9,651.8 L1103.0,651.6
		L1104.2,651.4 L1105.3,651.3 L1106.4,651.1 L1107.5,650.9 L1108.6,650.7 L1109.8,650.5 L1110.9,650.3 L1112.0,650.2
		L1113.1,650.0 L1114.2,649.8 L1115.3,649.6 L1116.5,649.4 L1117.6,649.2 L1118.7,649.1 L1119.8,648.9 L1120.9,648.7
		L1122.0,648.5 L1123.2,648.4 L1124.3,648.2 L1125.4,648.0 L1126.5,647.8 L1127.6,647.7 L1128.7,647.5 L1129.9,647.3
		L1131.0,647.2 L1132.1,647.0 L1133.2,646.8 L1134.3,646.7 L1135.4,646.5 L1136.6,646.3 L1137.7,646.2 L1138.8,646.0
		L1139.9,645.8 L1141.0,645.7 L1142.2,645.5 L1143.3,645.4 L1144.4,645.2 L1145.5,645.0 L1146.6,644.9 L1147.7,644.7
		L1148.9,644.6 L1150.0,644.4 L1151.1,644.3 L1152.2,644.1 L1153.3,644.0 L1154.4,643.8 L1155.6,643.7 L1156.7,643.5
		L1157.8,643.4 L1158.9,643.3 L1160.0,643.1 L1161.1,643.0 L1162.3,642.8 L1163.4,642.7 L1164.5,642.6 L1165.6,642.4
		L1166.7,642.3 L1167.9,642.2 L1169.0,642.0 L1170.1,641.9 L1171.2,641.8 L1172.3,641.7 L1173.4,641.5 L1174.6,641.4
		L1175.7,641.3 L1176.8,641.2 L1177.9,641.1 L1179.0,640.9 L1180.1,640.8 L1181.3,640.7 L1182.4,640.6 L1183.5,640.5
		L1184.6,640.4 L1185.7,640.3 L1186.8,640.2 L1188.0,640.1 L1189.1,640.0 L1190.2,639.9 L1191.3,639.8 L1192.4,639.7
		L1193.5,639.6 L1194.7,639.5 L1195.8,639.4 L1196.9,639.3 L1198.0,639.2 L1199.1,639.1 L1200.3,639.0 L1201.4,638.9
		L1202.5,638.8 L1203.6,638.8 L1204.7,638.7 L1205.8,638.6 L1207.0,638.5 L1208.1,638.4 L1209.2,638.4 L1210.3,638.3
		L1211.4,638.2 L1212.5,638.2 L1213.7,638.1 L1214.8,638.0 L1215.9,638.0 L1217.0,637.9 L1218.1,637.8 L1219.2,637.8
		L1220.4,637.7 L1221.5,637.7 L1222.6,637.6 L1223.7,637.6 L1224.8,637.5 L1226.0,637.5 L1227.1,637.4 L1228.2,637.4
		L1229.3,637.3 L1230.4,637.3 L1231.5,637.2 L1232.7,637.2 L1233.8,637.2 L1234.9,637.1 L1236.0,637.1 L1237.1,637.1
		L1238.2,637.0 L1239.4,637.0 L1240.5,637.0 L1241.6,637.0 L1242.7,637.0 L1243.8,636.9 L1244.9,636.9 L1246.1,636.9
		L1247.2,636.9 L1248.3,636.9 L1249.4,636.9 L1250.5,636.9 L1251.6,636.9 L1252.8,636.8 L1253.9,636.8 L1255.0,636.8
		 '/></g>
	</g>
	<g id="gnuplot_plot_6" ><title>gnuplot_plot_6</title>
<g fill="none" color="black" stroke="currentColor" stroke-width="1.00" stroke-linecap="butt" stroke-linejoin="miter">
	<path stroke='rgb(  0,   0, 255)'  d='M112.0,69.7 L113.1,71.9 L114.2,78.4 L115.4,88.2 L116.5,100.5 L117.6,114.1 L118.7,128.2 L119.8,142.1
		L120.9,155.4 L122.1,167.6 L123.2,178.9 L124.3,188.9 L125.4,197.9 L126.5,205.8 L127.6,212.7 L128.8,218.8
		L129.9,224.1 L131.0,228.8 L132.1,232.8 L133.2,236.4 L134.3,239.5 L135.5,242.3 L136.6,244.7 L137.7,246.9
		L138.8,248.8 L139.9,250.6 L141.0,252.2 L142.2,253.6 L143.3,254.9 L144.4,256.2 L145.5,257.3 L146.6,258.3
		L147.8,259.3 L148.9,260.2 L150.0,261.1 L151.1,262.0 L152.2,262.8 L153.3,263.5 L154.5,264.3 L155.6,265.0
		L156.7,265.7 L157.8,266.4 L158.9,267.1 L160.0,267.8 L161.2,268.4 L162.3,269.1 L163.4,269.7 L164.5,270.4
		L165.6,271.0 L166.7,271.6 L167.9,272.3 L169.0,272.9 L170.1,273.5 L171.2,274.2 L172.3,274.8 L173.5,275.5
		L174.6,276.1 L175.7,276.7 L176.8,277.4 L177.9,278.0 L179.0,278.7 L180.2,279.3 L181.3,280.0 L182.4,280.7
		L183.5,281.3 L184.6,282.0 L185.7,282.7 L186.9,283.4 L188.0,284.0 L189.1,284.7 L190.2,285.4 L191.3,286.1
		L192.4,286.8 L193.6,287.5 L194.7,288.2 L195.8,289.0 L196.9,289.7 L198.0,290.4 L199.1,291.1 L200.3,291.9
		L201.4,292.6 L202.5,293.3 L203.6,294.1 L204.7,294.8 L205.9,295.6 L207.0,296.3 L208.1,297.1 L209.2,297.9
		L210.3,298.6 L211.4,299.4 L212.6,300.2 L213.7,301.0 L214.8,301.8 L215.9,302.5 L217.0,303.3 L218.1,304.1
		L219.3,304.9 L220.4,305.7 L221.5,306.5 L222.6,307.3 L223.7,308.1 L224.8,309.0 L226.0,309.8 L227.1,310.6
		L228.2,311.4 L229.3,312.2 L230.4,313.1 L231.6,313.9 L232.7,314.7 L233.8,315.5 L234.9,316.4 L236.0,317.2
		L237.1,318.1 L238.3,318.9 L239.4,319.8 L240.5,320.6 L241.6,321.4 L242.7,322.3 L243.8,323.2 L245.0,324.0
		L246.1,324.9 L247.2,325.7 L248.3,326.6 L249.4,327.4 L250.5,328.3 L251.7,329.2 L252.8,330.0 L253.9,330.9
		L255.0,331.8 L256.1,332.6 L257.2,333.5 L258.4,334.4 L259.5,335.3 L260.6,336.1 L261.7,337.0 L262.8,337.9
		L264.0,338.8 L265.1,339.6 L266.2,340.5 L267.3,341.4 L268.4,342.3 L269.5,343.1 L270.7,344.0 L271.8,344.9
		L272.9,345.8 L274.0,346.7 L275.1,347.6 L276.2,348.4 L277.4,349.3 L278.5,350.2 L279.6,351.1 L280.7,352.0
		L281.8,352.9 L282.9,353.7 L284.1,354.6 L285.2,355.5 L286.3,356.4 L287.4,357.3 L288.5,358.2 L289.7,359.1
		L290.8,359.9 L291.9,360.8 L293.0,361.7 L294.1,362.6 L295.2,363.5 L296.4,364.4 L297.5,365.3 L298.6,366.1
		L299.7,367.0 L300.8,367.9 L301.9,368.8 L303.1,369.7 L304.2,370.6 L305.3,371.4 L306.4,372.3 L307.5,373.2
		L308.6,374.1 L309.8,375.0 L310.9,375.8 L312.0,376.7 L313.1,377.6 L314.2,378.5 L315.3,379.4 L316.5,380.2
		L317.6,381.1 L318.7,382.0 L319.8,382.9 L320.9,383.7 L322.1,384.6 L323.2,385.5 L324.3,386.4 L325.4,387.2
		L326.5,388.1 L327.6,389.0 L328.8,389.9 L329.9,390.7 L331.0,391.6 L332.1,392.5 L333.2,393.3 L334.3,394.2
		L335.5,395.1 L336.6,395.9 L337.7,396.8 L338.8,397.6 L339.9,398.5 L341.0,399.4 L342.2,400.2 L343.3,401.1
		L344.4,402.0 L345.5,402.8 L346.6,403.7 L347.8,404.5 L348.9,405.4 L350.0,406.2 L351.1,407.1 L352.2,407.9
		L353.3,408.8 L354.5,409.6 L355.6,410.5 L356.7,411.3 L357.8,412.2 L358.9,413.0 L360.0,413.9 L361.2,414.7
		L362.3,415.6 L363.4,416.4 L364.5,417.2 L365.6,418.1 L366.7,418.9 L367.9,419.8 L369.0,420.6 L370.1,421.4
		L371.2,422.3 L372.3,423.1 L373.4,423.9 L374.6,424.8 L375.7,425.6 L376.8,426.4 L377.9,427.3 L379.0,428.1
		L380.2,428.9 L381.3,429.7 L382.4,430.6 L383.5,431.4 L384.6,432.2 L385.7,433.0 L386.9,433.8 L388.0,434.7
		L389.1,435.5 L390.2,436.3 L391.3,437.1 L392.4,437.9 L393.6,438.7 L394.7,439.5 L395.8,440.4 L396.9,441.2
		L398.0,442.0 L399.1,442.8 L400.3,443.6 L401.4,444.4 L402.5,445.2 L403.6,446.0 L404.7,446.8 L405.9,447.6
		L407.0,448.4 L408.1,449.2 L409.2,450.0 L410.3,450.8 L411.4,451.6 L412.6,452.4 L413.7,453.2 L414.8,454.0
		L415.9,454.8 L417.0,455.5 L418.1,456.3 L419.3,457.1 L420.4,457.9 L421.5,458.7 L422.6,459.5 L423.7,460.3
		L424.8,461.0 L426.0,461.8 L427.1,462.6 L428.2,463.4 L429.3,464.1 L430.4,464.9 L431.5,465.7 L432.7,466.5
		L433.8,467.2 L434.9,468.0 L436.0,468.8 L437.1,469.6 L438.3,470.3 L439.4,471.1 L440.5,471.9 L441.6,472.6
		L442.7,473.4 L443.8,474.1 L445.0,474.9 L446.1,475.7 L447.2,476.4 L448.3,477.2 L449.4,477.9 L450.5,478.7
		L451.7,479.4 L452.8,480.2 L453.9,481.0 L455.0,481.7 L456.1,482.5 L457.2,483.2 L458.4,484.0 L459.5,484.7
		L460.6,485.4 L461.7,486.2 L462.8,486.9 L464.0,487.7 L465.1,488.4 L466.2,489.2 L467.3,489.9 L468.4,490.6
		L469.5,491.4 L470.7,492.1 L471.8,492.8 L472.9,493.6 L474.0,494.3 L475.1,495.0 L476.2,495.8 L477.4,496.5
		L478.5,497.2 L479.6,497.9 L480.7,498.7 L481.8,499.4 L482.9,500.1 L484.1,500.8 L485.2,501.6 L486.3,502.3
		L487.4,503.0 L488.5,503.7 L489.6,504.4 L490.8,505.2 L491.9,505.9 L493.0,506.6 L494.1,507.3 L495.2,508.0
		L496.4,508.7 L497.5,509.4 L498.6,510.1 L499.7,510.8 L500.8,511.5 L501.9,512.3 L503.1,513.0 L504.2,513.7
		L505.3,514.4 L506.4,515.1 L507.5,515.8 L508.6,516.5 L509.8,517.2 L510.9,517.9 L512.0,518.5 L513.1,519.2
		L514.2,519.9 L515.3,520.6 L516.5,521.3 L517.6,522.0 L518.7,522.7 L519.8,523.4 L520.9,524.1 L522.0,524.8
		L523.2,525.4 L524.3,526.1 L525.4,526.8 L526.5,527.5 L527.6,528.2 L528.8,528.8 L529.9,529.5 L531.0,530.2
		L532.1,530.9 L533.2,531.5 L534.3,532.2 L535.5,532.9 L536.6,533.6 L537.7,534.2 L538.8,534.9 L539.9,535.6
		L541.0,536.2 L542.2,536.9 L543.3,537.6 L544.4,538.2 L545.5,538.9 L546.6,539.5 L547.7,540.2 L548.9,540.9
		L550.0,541.5 L551.1,542.2 L552.2,542.8 L553.3,543.5 L554.5,544.1 L555.6,544.8 L556.7,545.4 L557.8,546.1
		L558.9,546.7 L560.0,547.4 L561.2,548.0 L562.3,548.7 L563.4,549.3 L564.5,550.0 L565.6,550.6 L566.7,551.3
		L567.9,551.9 L569.0,552.5 L570.1,553.2 L571.2,553.8 L572.3,554.4 L573.4,555.1 L574.6,555.7 L575.7,556.3
		L576.8,557.0 L577.9,557.6 L579.0,558.2 L580.1,558.9 L581.3,559.5 L582.4,560.1 L583.5,560.7 L584.6,561.3
		L585.7,562.0 L586.9,562.6 L588.0,563.2 L589.1,563.8 L590.2,564.4 L591.3,565.1 L592.4,565.7 L593.6,566.3
		L594.7,566.9 L595.8,567.5 L596.9,568.1 L598.0,568.7 L599.1,569.3 L600.3,569.9 L601.4,570.5 L602.5,571.1
		L603.6,571.7 L604.7,572.3 L605.8,572.9 L607.0,573.5 L608.1,574.1 L609.2,574.7 L610.3,575.3 L611.4,575.9
		L612.6,576.5 L613.7,577.1 L614.8,577.7 L615.9,578.3 L617.0,578.8 L618.1,579.4 L619.3,580.0 L620.4,580.6
		L621.5,581.2 L622.6,581.7 L623.7,582.3 L624.8,582.9 L626.0,583.5 L627.1,584.1 L628.2,584.6 L629.3,585.2
		L630.4,585.8 L631.5,586.3 L632.7,586.9 L633.8,587.5 L634.9,588.0 L636.0,588.6 L637.1,589.1 L638.2,589.7
		L639.4,590.3 L640.5,590.8 L641.6,591.4 L642.7,591.9 L643.8,592.5 L645.0,593.0 L646.1,593.6 L647.2,594.1
		L648.3,594.7 L649.4,595.2 L650.5,595.8 L651.7,596.3 L652.8,596.8 L653.9,597.4 L655.0,597.9 L656.1,598.4
		L657.2,599.0 L658.4,599.5 L659.5,600.0 L660.6,600.6 L661.7,601.1 L662.8,601.6 L663.9,602.1 L665.1,602.7
		L666.2,603.2 L667.3,603.7 L668.4,604.2 L669.5,604.7 L670.7,605.3 L671.8,605.8 L672.9,606.3 L674.0,606.8
		L675.1,607.3 L676.2,607.8 L677.4,608.3 L678.5,608.8 L679.6,609.3 L680.7,609.8 L681.8,610.3 L682.9,610.8
		L684.1,611.3 L685.2,611.8 L686.3,612.3 L687.4,612.8 L688.5,613.2 L689.6,613.7 L690.8,614.2 L691.9,614.7
		L693.0,615.2 L694.1,615.6 L695.2,616.1 L696.3,616.6 L697.5,617.1 L698.6,617.5 L699.7,618.0 L700.8,618.5
		L701.9,618.9 L703.1,619.4 L704.2,619.8 L705.3,620.3 L706.4,620.8 L707.5,621.2 L708.6,621.7 L709.8,622.1
		L710.9,622.6 L712.0,623.0 L713.1,623.4 L714.2,623.9 L715.3,624.3 L716.5,624.8 L717.6,625.2 L718.7,625.6
		L719.8,626.1 L720.9,626.5 L722.0,626.9 L723.2,627.3 L724.3,627.7 L725.4,628.2 L726.5,628.6 L727.6,629.0
		L728.8,629.4 L729.9,629.8 L731.0,630.2 L732.1,630.6 L733.2,631.0 L734.3,631.4 L735.5,631.8 L736.6,632.2
		L737.7,632.6 L738.8,633.0 L739.9,633.4 L741.0,633.8 L742.2,634.2 L743.3,634.6 L744.4,635.0 L745.5,635.3
		L746.6,635.7 L747.7,636.1 L748.9,636.4 L750.0,636.8 L751.1,637.2 L752.2,637.5 L753.3,637.9 L754.4,638.3
		L755.6,638.6 L756.7,639.0 L757.8,639.3 L758.9,639.7 L760.0,640.0 L761.2,640.4 L762.3,640.7 L763.4,641.0
		L764.5,641.4 L765.6,641.7 L766.7,642.0 L767.9,642.4 L769.0,642.7 L770.1,643.0 L771.2,643.3 L772.3,643.7
		L773.4,644.0 L774.6,644.3 L775.7,644.6 L776.8,644.9 L777.9,645.2 L779.0,645.5 L780.1,645.8 L781.3,646.1
		L782.4,646.4 L783.5,646.7 L784.6,647.0 L785.7,647.3 L786.9,647.5 L788.0,647.8 L789.1,648.1 L790.2,648.4
		L791.3,648.6 L792.4,648.9 L793.6,649.2 L794.7,649.4 L795.8,649.7 L796.9,650.0 L798.0,650.2 L799.1,650.5
		L800.3,650.7 L801.4,651.0 L802.5,651.2 L803.6,651.4 L804.7,651.7 L805.8,651.9 L807.0,652.1 L808.1,652.4
		L809.2,652.6 L810.3,652.8 L811.4,653.0 L812.5,653.3 L813.7,653.5 L814.8,653.7 L815.9,653.9 L817.0,654.1
		L818.1,654.3 L819.3,654.5 L820.4,654.7 L821.5,654.9 L822.6,655.1 L823.7,655.3 L824.8,655.4 L826.0,655.6
		L827.1,655.8 L828.2,656.0 L829.3,656.2 L830.4,656.3 L831.5,656.5 L832.7,656.7 L833.8,656.8 L834.9,657.0
		L836.0,657.1 L837.1,657.3 L838.2,657.4 L839.4,657.6 L840.5,657.7 L841.6,657.9 L842.7,658.0 L843.8,658.1
		L845.0,658.3 L846.1,658.4 L847.2,658.5 L848.3,658.6 L849.4,658.7 L850.5,658.9 L851.7,659.0 L852.8,659.1
		L853.9,659.2 L855.0,659.3 L856.1,659.4 L857.2,659.5 L858.4,659.6 L859.5,659.7 L860.6,659.8 L861.7,659.8
		L862.8,659.9 L863.9,660.0 L865.1,660.1 L866.2,660.2 L867.3,660.2 L868.4,660.3 L869.5,660.4 L870.6,660.4
		L871.8,660.5 L872.9,660.5 L874.0,660.6 L875.1,660.6 L876.2,660.7 L877.4,660.7 L878.5,660.8 L879.6,660.8
		L880.7,660.9 L881.8,660.9 L882.9,660.9 L884.1,661.0 L885.2,661.0 L886.3,661.0 L887.4,661.0 L888.5,661.0
		L889.6,661.0 L890.8,661.1 L891.9,661.1 L893.0,661.1 L894.1,661.1 L895.2,661.1 L896.3,661.1 L897.5,661.1
		L898.6,661.1 L899.7,661.0 L900.8,661.0 L901.9,661.0 L903.0,661.0 L904.2,661.0 L905.3,661.0 L906.4,660.9
		L907.5,660.9 L908.6,660.9 L909.8,660.8 L910.9,660.8 L912.0,660.8 L913.1,660.7 L914.2,660.7 L915.3,660.6
		L916.5,660.6 L917.6,660.5 L918.7,660.5 L919.8,660.4 L920.9,660.3 L922.0,660.3 L923.2,660.2 L924.3,660.2
		L925.4,660.1 L926.5,660.0 L927.6,659.9 L928.7,659.9 L929.9,659.8 L931.0,659.7 L932.1,659.6 L933.2,659.5
		L934.3,659.4 L935.5,659.4 L936.6,659.3 L937.7,659.2 L938.8,659.1 L939.9,659.0 L941.0,658.9 L942.2,658.8
		L943.3,658.7 L944.4,658.6 L945.5,658.4 L946.6,658.3 L947.7,658.2 L948.9,658.1 L950.0,658.0 L951.1,657.9
		L952.2,657.7 L953.3,657.6 L954.4,657.5 L955.6,657.4 L956.7,657.2 L957.8,657.1 L958.9,657.0 L960.0,656.8
		L961.1,656.7 L962.3,656.6 L963.4,656.4 L964.5,656.3 L965.6,656.1 L966.7,656.0 L967.9,655.8 L969.0,655.7
		L970.1,655.5 L971.2,655.4 L972.3,655.2 L973.4,655.1 L974.6,654.9 L975.7,654.8 L976.8,654.6 L977.9,654.4
		L979.0,654.3 L980.1,654.1 L981.3,653.9 L982.4,653.8 L983.5,653.6 L984.6,653.4 L985.7,653.3 L986.8,653.1
		L988.0,652.9 L989.1,652.7 L990.2,652.6 L991.3,652.4 L992.4,652.2 L993.6,652.0 L994.7,651.8 L995.8,651.7
		L996.9,651.5 L998.0,651.3 L999.1,651.1 L1000.3,650.9 L1001.4,650.7 L1002.5,650.5 L1003.6,650.3 L1004.7,650.1
		L1005.8,650.0 L1007.0,649.8 L1008.1,649.6 L1009.2,649.4 L1010.3,649.2 L1011.4,649.0 L1012.5,648.8 L1013.7,648.6
		L1014.8,648.4 L1015.9,648.2 L1017.0,648.0 L1018.1,647.8 L1019.2,647.6 L1020.4,647.3 L1021.5,647.1 L1022.6,646.9
		L1023.7,646.7 L1024.8,646.5 L1026.0,646.3 L1027.1,646.1 L1028.2,645.9 L1029.3,645.7 L1030.4,645.5 L1031.5,645.3
		L1032.7,645.0 L1033.8,644.8 L1034.9,644.6 L1036.0,644.4 L1037.1,644.2 L1038.2,644.0 L1039.4,643.8 L1040.5,643.5
		L1041.6,643.3 L1042.7,643.1 L1043.8,642.9 L1044.9,642.7 L1046.1,642.5 L1047.2,642.3 L1048.3,642.0 L1049.4,641.8
		L1050.5,641.6 L1051.7,641.4 L1052.8,641.2 L1053.9,640.9 L1055.0,640.7 L1056.1,640.5 L1057.2,640.3 L1058.4,640.1
		L1059.5,639.8 L1060.6,639.6 L1061.7,639.4 L1062.8,639.2 L1063.9,639.0 L1065.1,638.8 L1066.2,638.5 L1067.3,638.3
		L1068.4,638.1 L1069.5,637.9 L1070.6,637.7 L1071.8,637.4 L1072.9,637.2 L1074.0,637.0 L1075.1,636.8 L1076.2,636.6
		L1077.3,636.4 L1078.5,636.1 L1079.6,635.9 L1080.7,635.7 L1081.8,635.5 L1082.9,635.3 L1084.1,635.1 L1085.2,634.8
		L1086.3,634.6 L1087.4,634.4 L1088.5,634.2 L1089.6,634.0 L1090.8,633.8 L1091.9,633.6 L1093.0,633.3 L1094.1,633.1
		L1095.2,632.9 L1096.3,632.7 L1097.5,632.5 L1098.6,632.3 L1099.7,632.1 L1100.8,631.9 L1101.9,631.7 L1103.0,631.5
		L1104.2,631.3 L1105.3,631.1 L1106.4,630.9 L1107.5,630.6 L1108.6,630.4 L1109.8,630.2 L1110.9,630.0 L1112.0,629.8
		L1113.1,629.6 L1114.2,629.4 L1115.3,629.2 L1116.5,629.0 L1117.6,628.9 L1118.7,628.7 L1119.8,628.5 L1120.9,628.3
		L1122.0,628.1 L1123.2,627.9 L1124.3,627.7 L1125.4,627.5 L1126.5,627.3 L1127.6,627.1 L1128.7,626.9 L1129.9,626.8
		L1131.0,626.6 L1132.1,626.4 L1133.2,626.2 L1134.3,626.0 L1135.4,625.8 L1136.6,625.7 L1137.7,625.5 L1138.8,625.3
		L1139.9,625.1 L1141.0,625.0 L1142.2,624.8 L1143.3,624.6 L1144.4,624.4 L1145.5,624.3 L1146.6,624.1 L1147.7,623.9
		L1148.9,623.8 L1150.0,623.6 L1151.1,623.4 L1152.2,623.3 L1153.3,623.1 L1154.4,623.0 L1155.6,622.8 L1156.7,622.6
		L1157.8,622.5 L1158.9,622.3 L1160.0,622.2 L1161.1,622.0 L1162.3,621.9 L1163.4,621.7 L1164.5,621.6 L1165.6,621.4
		L1166.7,621.3 L1167.9,621.2 L1169.0,621.0 L1170.1,620.9 L1171.2,620.7 L1172.3,620.6 L1173.4,620.5 L1174.6,620.3
		L1175.7,620.2 L1176.8,620.1 L1177.9,619.9 L1179.0,619.8 L1180.1,619.7 L1181.3,619.6 L1182.4,619.4 L1183.5,619.3
		L1184.6,619.2 L1185.7,619.1 L1186.8,619.0 L1188.0,618.9 L1189.1,618.8 L1190.2,618.6 L1191.3,618.5 L1192.4,618.4
		L1193.5,618.3 L1194.7,618.2 L1195.8,618.1 L1196.9,618.0 L1198.0,617.9 L1199.1,617.8 L1200.3,617.7 L1201.4,617.6
		L1202.5,617.5 L1203.6,617.5 L1204.7,617.4 L1205.8,617.3 L1207.0,617.2 L1208.1,617.1 L1209.2,617.0 L1210.3,617.0
		L1211.4,616.9 L1212.5,616.8 L1213.7,616.7 L1214.8,616.7 L1215.9,616.6 L1217.0,616.5 L1218.1,616.5 L1219.2,616.4
		L1220.4,616.3 L1221.5,616.3 L1222.6,616.2 L1223.7,616.2 L1224.8,616.1 L1226.0,616.1 L1227.1,616.0 L1228.2,616.0
		L1229.3,615.9 L1230.4,615.9 L1231.5,615.8 L1232.7,615.8 L1233.8,615.8 L1234.9,615.7 L1236.0,615.7 L1237.1,615.7
		L1238.2,615.6 L1239.4,615.6 L1240.5,615.6 L1241.6,615.5 L1242.7,615.5 L1243.8,615.5 L1244.9,615.5 L1246.1,615.5
		L1247.2,615.5 L1248.3,615.4 L1249.4,615.4 L1250.5,615.4 L1251.6,615.4 L1252.8,615.4 L1253.9,615.4 L1255.0,615.4
		 '/></g>
	</g>
<g fill="none" color="white" stroke="rgb(  0,   0, 255)" stroke-width="2.00" stroke-linecap="butt" stroke-linejoin="miter">
</g>
<g fill="none" color="black" stroke="currentColor" stroke-width="2.00" stroke-linecap="butt" stroke-linejoin="miter">
</g>
<g fill="none" color="black" stroke="black" stroke-width="1.00" stroke-linecap="butt" stroke-linejoin="miter">
</g>
<g fill="none" color="black" stroke="currentColor" stroke-width="1.00" stroke-linecap="butt" stroke-linejoin="miter">
	<path stroke='black'  d='M112.0,54.1 L112.0,684.0 L1255.0,684.0 L1255.0,54.1 L112.0,54.1 Z  '/></g>
<g fill="none" color="black" stroke="currentColor" stroke-width="1.00" stroke-linecap="butt" stroke-linejoin="miter">
</g>
</g>
</svg>

