<?xml version="1.0" encoding="utf-8"  standalone="no"?>
<svg 
 width="1280" height="720"
 viewBox="0 0 1280 720"
 xmlns="http://www.w3.org/2000/svg"
 xmlns:xlink="http://www.w3.org/1999/xlink"
>

<title>Gnuplot</title>
<desc>Produced by GNUPLOT 5.0 patchlevel 6 </desc>

<g id="gnuplot_canvas">

<rect x="0" y="0" width="1280" height="720" fill="none"/>
<defs>

	<circle id='gpDot' r='0.5' stroke-width='0.5'/>
	<path id='gpPt0' stroke-width='0.222' stroke='currentColor' d='M-1,0 h2 M0,-1 v2'/>
	<path id='gpPt1' stroke-width='0.222' stroke='currentColor' d='M-1,-1 L1,1 M1,-1 L-1,1'/>
	<path id='gpPt2' stroke-width='0.222' stroke='currentColor' d='M-1,0 L1,0 M0,-1 L0,1 M-1,-1 L1,1 M-1,1 L1,-1'/>
	<rect id='gpPt3' stroke-width='0.222' stroke='currentColor' x='-1' y='-1' width='2' height='2'/>
	<rect id='gpPt4' stroke-width='0.222' stroke='currentColor' fill='currentColor' x='-1' y='-1' width='2' height='2'/>
	<circle id='gpPt5' stroke-width='0.222' stroke='currentColor' cx='0' cy='0' r='1'/>
	<use xlink:href='#gpPt5' id='gpPt6' fill='currentColor' stroke='none'/>
	<path id='gpPt7' stroke-width='0.222' stroke='currentColor' d='M0,-1.33 L-1.33,0.67 L1.33,0.67 z'/>
	<use xlink:href='#gpPt7' id='gpPt8' fill='currentColor' stroke='none'/>
	<use xlink:href='#gpPt7' id='gpPt9' stroke='currentColor' transform='rotate(180)'/>
	<use xlink:href='#gpPt9' id='gpPt10' fill='currentColor' stroke='none'/>
	<use xlink:href='#gpPt3' id='gpPt11' stroke='currentColor' transform='rotate(45)'/>
	<use xlink:href='#gpPt11' id='gpPt12' fill='currentColor' stroke='none'/>
	<path id='gpPt13' stroke-width='0.222' stroke='currentColor' d='M0,1.330 L1.265,0.411 L0.782,-1.067 L-0.782,-1.076 L-1.265,0.411 z'/>
	<use xlink:href='#gpPt13' id='gpPt14' fill='currentColor' stroke='none'/>
	<filter id='textbox' filterUnits='objectBoundingBox' x='0' y='0' height='1' width='1'>
	  <feFlood flood-color='white' flood-opacity='1' result='bgnd'/>
	  <feComposite in='SourceGraphic' in2='bgnd' operator='atop'/>
	</filter>
	<filter id='greybox' filterUnits='objectBoundingBox' x='0' y='0' height='1' width='1'>
	  <feFlood flood-color='lightgrey' flood-opacity='1' result='grey'/>
	  <feComposite in='SourceGraphic' in2='grey' operator='atop'/>
	</filter>
</defs>
<g fill="none" color="white" stroke="currentColor" stroke-width="1.00" stroke-linecap="butt" stroke-linejoin="miter">
</g>
<g fill="none" color="black" stroke="currentColor" stroke-width="1.00" stroke-linecap="butt" stroke-linejoin="miter">
	<path stroke='black'  d='M103.7,682.7 L112.7,682.7 M1255.0,682.7 L1246.0,682.7  '/>	<g transform="translate(95.4,686.6)" stroke="none" fill="black" font-family="Arial" font-size="12.00"  text-anchor="end">
		<text><tspan font-family="Arial" > 0.0004447</tspan></text>
	</g>
</g>
<g fill="none" color="black" stroke="currentColor" stroke-width="1.00" stroke-linecap="butt" stroke-linejoin="miter">
	<path stroke='black'  d='M103.7,368.4 L112.7,368.4 M1255.0,368.4 L1246.0,368.4  '/>	<g transform="translate(95.4,372.3)" stroke="none" fill="black" font-family="Arial" font-size="12.00"  text-anchor="end">
		<text><tspan font-family="Arial" > 0.0254282</tspan></text>
	</g>
</g>
<g fill="none" color="black" stroke="currentColor" stroke-width="1.00" stroke-linecap="butt" stroke-linejoin="miter">
	<path stroke='black'  d='M103.7,54.1 L112.7,54.1 M1255.0,54.1 L1246.0,54.1  '/>	<g transform="translate(95.4,58.0)" stroke="none" fill="black" font-family="Arial" font-size="12.00"  text-anchor="end">
		<text><tspan font-family="Arial" > 1.454</tspan></text>
	</g>
</g>
<g fill="none" color="black" stroke="currentColor" stroke-width="1.00" stroke-linecap="butt" stroke-linejoin="miter">
	<path stroke='black'  d='M103.7,684.0 L103.7,675.0 M103.7,54.1 L103.7,63.1  '/>	<g transform="translate(103.7,705.9)" stroke="none" fill="black" font-family="Arial" font-size="12.00"  text-anchor="middle">
		<text><tspan font-family="Arial" > 0</tspan></text>
	</g>
</g>
<g fill="none" color="black" stroke="currentColor" stroke-width="1.00" stroke-linecap="butt" stroke-linejoin="miter">
	<path stroke='black'  d='M679.4,684.0 L679.4,675.0 M679.4,54.1 L679.4,63.1  '/>	<g transform="translate(679.4,705.9)" stroke="none" fill="black" font-family="Arial" font-size="12.00"  text-anchor="middle">
		<text><tspan font-family="Arial" >pi/2</tspan></text>
	</g>
</g>
<g fill="none" color="black" stroke="currentColor" stroke-width="1.00" stroke-linecap="butt" stroke-linejoin="miter">
	<path stroke='black'  d='M1255.0,684.0 L1255.0,675.0 M1255.0,54.1 L1255.0,63.1  '/>	<g transform="translate(1255.0,705.9)" stroke="none" fill="black" font-family="Arial" font-size="12.00"  text-anchor="middle">
		<text><tspan font-family="Arial" >pi</tspan></text>
	</g>
</g>
<g fill="none" color="black" stroke="currentColor" stroke-width="1.00" stroke-linecap="butt" stroke-linejoin="miter">
</g>
<g fill="none" color="black" stroke="currentColor" stroke-width="1.00" stroke-linecap="butt" stroke-linejoin="miter">
	<path stroke='black'  d='M103.7,54.1 L103.7,684.0 L1255.0,684.0 L1255.0,54.1 L103.7,54.1 Z  '/></g>
<g fill="none" color="black" stroke="currentColor" stroke-width="1.00" stroke-linecap="butt" stroke-linejoin="miter">
	<g transform="translate(679.3,31.0)" stroke="none" fill="black" font-family="Arial" font-size="12.00"  text-anchor="middle">
		<text><tspan font-family="Arial" >Material 25, with 4 components</tspan></text>
	</g>
</g>
	<g id="gnuplot_plot_1" ><title>scattering function</title>
<g fill="none" color="black" stroke="currentColor" stroke-width="1.00" stroke-linecap="butt" stroke-linejoin="miter">
	<g transform="translate(1187.9,76.0)" stroke="none" fill="black" font-family="Arial" font-size="12.00"  text-anchor="end">
		<text><tspan font-family="Arial" >scattering function</tspan></text>
	</g>
</g>
<g fill="none" color="black" stroke="currentColor" stroke-width="1.00" stroke-linecap="butt" stroke-linejoin="miter">
	<use xlink:href='#gpPt5' transform='translate(103.7,95.3) scale(2.25)' color='rgb(255,   0,   0)'/>
	<use xlink:href='#gpPt5' transform='translate(104.3,97.4) scale(2.25)' color='rgb(255,   0,   0)'/>
	<use xlink:href='#gpPt5' transform='translate(105.0,102.2) scale(2.25)' color='rgb(255,   0,   0)'/>
	<use xlink:href='#gpPt5' transform='translate(105.6,107.4) scale(2.25)' color='rgb(255,   0,   0)'/>
	<use xlink:href='#gpPt5' transform='translate(106.3,112.3) scale(2.25)' color='rgb(255,   0,   0)'/>
	<use xlink:href='#gpPt5' transform='translate(106.9,116.7) scale(2.25)' color='rgb(255,   0,   0)'/>
	<use xlink:href='#gpPt5' transform='translate(107.5,120.5) scale(2.25)' color='rgb(255,   0,   0)'/>
	<use xlink:href='#gpPt5' transform='translate(108.2,123.9) scale(2.25)' color='rgb(255,   0,   0)'/>
	<use xlink:href='#gpPt5' transform='translate(108.8,127.0) scale(2.25)' color='rgb(255,   0,   0)'/>
	<use xlink:href='#gpPt5' transform='translate(109.5,129.8) scale(2.25)' color='rgb(255,   0,   0)'/>
	<use xlink:href='#gpPt5' transform='translate(110.1,132.4) scale(2.25)' color='rgb(255,   0,   0)'/>
	<use xlink:href='#gpPt5' transform='translate(110.7,134.8) scale(2.25)' color='rgb(255,   0,   0)'/>
	<use xlink:href='#gpPt5' transform='translate(111.4,137.1) scale(2.25)' color='rgb(255,   0,   0)'/>
	<use xlink:href='#gpPt5' transform='translate(112.0,139.3) scale(2.25)' color='rgb(255,   0,   0)'/>
	<use xlink:href='#gpPt5' transform='translate(112.7,141.4) scale(2.25)' color='rgb(255,   0,   0)'/>
	<use xlink:href='#gpPt5' transform='translate(113.3,143.5) scale(2.25)' color='rgb(255,   0,   0)'/>
	<use xlink:href='#gpPt5' transform='translate(113.9,145.6) scale(2.25)' color='rgb(255,   0,   0)'/>
	<use xlink:href='#gpPt5' transform='translate(114.6,147.6) scale(2.25)' color='rgb(255,   0,   0)'/>
	<use xlink:href='#gpPt5' transform='translate(115.2,149.6) scale(2.25)' color='rgb(255,   0,   0)'/>
	<use xlink:href='#gpPt5' transform='translate(115.9,151.6) scale(2.25)' color='rgb(255,   0,   0)'/>
	<use xlink:href='#gpPt5' transform='translate(116.5,153.5) scale(2.25)' color='rgb(255,   0,   0)'/>
	<use xlink:href='#gpPt5' transform='translate(122.9,172.6) scale(2.25)' color='rgb(255,   0,   0)'/>
	<use xlink:href='#gpPt5' transform='translate(129.3,191.0) scale(2.25)' color='rgb(255,   0,   0)'/>
	<use xlink:href='#gpPt5' transform='translate(135.7,208.3) scale(2.25)' color='rgb(255,   0,   0)'/>
	<use xlink:href='#gpPt5' transform='translate(142.1,224.7) scale(2.25)' color='rgb(255,   0,   0)'/>
	<use xlink:href='#gpPt5' transform='translate(154.9,253.8) scale(2.25)' color='rgb(255,   0,   0)'/>
	<use xlink:href='#gpPt5' transform='translate(167.7,278.2) scale(2.25)' color='rgb(255,   0,   0)'/>
	<use xlink:href='#gpPt5' transform='translate(180.5,299.0) scale(2.25)' color='rgb(255,   0,   0)'/>
	<use xlink:href='#gpPt5' transform='translate(193.2,317.1) scale(2.25)' color='rgb(255,   0,   0)'/>
	<use xlink:href='#gpPt5' transform='translate(206.0,333.0) scale(2.25)' color='rgb(255,   0,   0)'/>
	<use xlink:href='#gpPt5' transform='translate(218.8,347.5) scale(2.25)' color='rgb(255,   0,   0)'/>
	<use xlink:href='#gpPt5' transform='translate(231.6,360.6) scale(2.25)' color='rgb(255,   0,   0)'/>
	<use xlink:href='#gpPt5' transform='translate(244.4,372.5) scale(2.25)' color='rgb(255,   0,   0)'/>
	<use xlink:href='#gpPt5' transform='translate(257.2,383.8) scale(2.25)' color='rgb(255,   0,   0)'/>
	<use xlink:href='#gpPt5' transform='translate(270.0,394.7) scale(2.25)' color='rgb(255,   0,   0)'/>
	<use xlink:href='#gpPt5' transform='translate(282.8,405.4) scale(2.25)' color='rgb(255,   0,   0)'/>
	<use xlink:href='#gpPt5' transform='translate(295.6,416.0) scale(2.25)' color='rgb(255,   0,   0)'/>
	<use xlink:href='#gpPt5' transform='translate(308.4,425.9) scale(2.25)' color='rgb(255,   0,   0)'/>
	<use xlink:href='#gpPt5' transform='translate(321.2,435.5) scale(2.25)' color='rgb(255,   0,   0)'/>
	<use xlink:href='#gpPt5' transform='translate(334.0,445.1) scale(2.25)' color='rgb(255,   0,   0)'/>
	<use xlink:href='#gpPt5' transform='translate(346.8,454.7) scale(2.25)' color='rgb(255,   0,   0)'/>
	<use xlink:href='#gpPt5' transform='translate(359.5,464.3) scale(2.25)' color='rgb(255,   0,   0)'/>
	<use xlink:href='#gpPt5' transform='translate(372.3,473.5) scale(2.25)' color='rgb(255,   0,   0)'/>
	<use xlink:href='#gpPt5' transform='translate(385.1,482.6) scale(2.25)' color='rgb(255,   0,   0)'/>
	<use xlink:href='#gpPt5' transform='translate(397.9,491.4) scale(2.25)' color='rgb(255,   0,   0)'/>
	<use xlink:href='#gpPt5' transform='translate(410.7,500.4) scale(2.25)' color='rgb(255,   0,   0)'/>
	<use xlink:href='#gpPt5' transform='translate(423.5,509.4) scale(2.25)' color='rgb(255,   0,   0)'/>
	<use xlink:href='#gpPt5' transform='translate(436.3,517.8) scale(2.25)' color='rgb(255,   0,   0)'/>
	<use xlink:href='#gpPt5' transform='translate(449.1,525.9) scale(2.25)' color='rgb(255,   0,   0)'/>
	<use xlink:href='#gpPt5' transform='translate(461.9,534.4) scale(2.25)' color='rgb(255,   0,   0)'/>
	<use xlink:href='#gpPt5' transform='translate(474.7,543.0) scale(2.25)' color='rgb(255,   0,   0)'/>
	<use xlink:href='#gpPt5' transform='translate(487.5,551.3) scale(2.25)' color='rgb(255,   0,   0)'/>
	<use xlink:href='#gpPt5' transform='translate(500.3,558.3) scale(2.25)' color='rgb(255,   0,   0)'/>
	<use xlink:href='#gpPt5' transform='translate(513.1,565.7) scale(2.25)' color='rgb(255,   0,   0)'/>
	<use xlink:href='#gpPt5' transform='translate(525.8,573.8) scale(2.25)' color='rgb(255,   0,   0)'/>
	<use xlink:href='#gpPt5' transform='translate(538.6,581.6) scale(2.25)' color='rgb(255,   0,   0)'/>
	<use xlink:href='#gpPt5' transform='translate(551.4,588.3) scale(2.25)' color='rgb(255,   0,   0)'/>
	<use xlink:href='#gpPt5' transform='translate(564.2,594.9) scale(2.25)' color='rgb(255,   0,   0)'/>
	<use xlink:href='#gpPt5' transform='translate(577.0,602.1) scale(2.25)' color='rgb(255,   0,   0)'/>
	<use xlink:href='#gpPt5' transform='translate(589.8,608.8) scale(2.25)' color='rgb(255,   0,   0)'/>
	<use xlink:href='#gpPt5' transform='translate(602.6,614.4) scale(2.25)' color='rgb(255,   0,   0)'/>
	<use xlink:href='#gpPt5' transform='translate(615.4,620.5) scale(2.25)' color='rgb(255,   0,   0)'/>
	<use xlink:href='#gpPt5' transform='translate(628.2,627.3) scale(2.25)' color='rgb(255,   0,   0)'/>
	<use xlink:href='#gpPt5' transform='translate(641.0,632.9) scale(2.25)' color='rgb(255,   0,   0)'/>
	<use xlink:href='#gpPt5' transform='translate(653.8,637.5) scale(2.25)' color='rgb(255,   0,   0)'/>
	<use xlink:href='#gpPt5' transform='translate(666.6,642.4) scale(2.25)' color='rgb(255,   0,   0)'/>
	<use xlink:href='#gpPt5' transform='translate(679.4,647.9) scale(2.25)' color='rgb(255,   0,   0)'/>
	<use xlink:href='#gpPt5' transform='translate(692.1,652.1) scale(2.25)' color='rgb(255,   0,   0)'/>
	<use xlink:href='#gpPt5' transform='translate(704.9,655.8) scale(2.25)' color='rgb(255,   0,   0)'/>
	<use xlink:href='#gpPt5' transform='translate(717.7,660.4) scale(2.25)' color='rgb(255,   0,   0)'/>
	<use xlink:href='#gpPt5' transform='translate(730.5,665.0) scale(2.25)' color='rgb(255,   0,   0)'/>
	<use xlink:href='#gpPt5' transform='translate(743.3,667.2) scale(2.25)' color='rgb(255,   0,   0)'/>
	<use xlink:href='#gpPt5' transform='translate(756.1,669.2) scale(2.25)' color='rgb(255,   0,   0)'/>
	<use xlink:href='#gpPt5' transform='translate(768.9,672.2) scale(2.25)' color='rgb(255,   0,   0)'/>
	<use xlink:href='#gpPt5' transform='translate(781.7,674.8) scale(2.25)' color='rgb(255,   0,   0)'/>
	<use xlink:href='#gpPt5' transform='translate(794.5,676.1) scale(2.25)' color='rgb(255,   0,   0)'/>
	<use xlink:href='#gpPt5' transform='translate(807.3,677.7) scale(2.25)' color='rgb(255,   0,   0)'/>
	<use xlink:href='#gpPt5' transform='translate(820.1,679.8) scale(2.25)' color='rgb(255,   0,   0)'/>
	<use xlink:href='#gpPt5' transform='translate(832.9,680.5) scale(2.25)' color='rgb(255,   0,   0)'/>
	<use xlink:href='#gpPt5' transform='translate(845.6,680.6) scale(2.25)' color='rgb(255,   0,   0)'/>
	<use xlink:href='#gpPt5' transform='translate(858.4,681.2) scale(2.25)' color='rgb(255,   0,   0)'/>
	<use xlink:href='#gpPt5' transform='translate(871.2,681.8) scale(2.25)' color='rgb(255,   0,   0)'/>
	<use xlink:href='#gpPt5' transform='translate(884.0,680.9) scale(2.25)' color='rgb(255,   0,   0)'/>
	<use xlink:href='#gpPt5' transform='translate(896.8,679.8) scale(2.25)' color='rgb(255,   0,   0)'/>
	<use xlink:href='#gpPt5' transform='translate(909.6,678.1) scale(2.25)' color='rgb(255,   0,   0)'/>
	<use xlink:href='#gpPt5' transform='translate(922.4,675.8) scale(2.25)' color='rgb(255,   0,   0)'/>
	<use xlink:href='#gpPt5' transform='translate(935.2,672.5) scale(2.25)' color='rgb(255,   0,   0)'/>
	<use xlink:href='#gpPt5' transform='translate(948.0,667.7) scale(2.25)' color='rgb(255,   0,   0)'/>
	<use xlink:href='#gpPt5' transform='translate(960.8,662.2) scale(2.25)' color='rgb(255,   0,   0)'/>
	<use xlink:href='#gpPt5' transform='translate(973.6,657.4) scale(2.25)' color='rgb(255,   0,   0)'/>
	<use xlink:href='#gpPt5' transform='translate(986.4,651.7) scale(2.25)' color='rgb(255,   0,   0)'/>
	<use xlink:href='#gpPt5' transform='translate(999.2,644.6) scale(2.25)' color='rgb(255,   0,   0)'/>
	<use xlink:href='#gpPt5' transform='translate(1011.9,636.9) scale(2.25)' color='rgb(255,   0,   0)'/>
	<use xlink:href='#gpPt5' transform='translate(1024.7,629.9) scale(2.25)' color='rgb(255,   0,   0)'/>
	<use xlink:href='#gpPt5' transform='translate(1037.5,623.0) scale(2.25)' color='rgb(255,   0,   0)'/>
	<use xlink:href='#gpPt5' transform='translate(1050.3,617.6) scale(2.25)' color='rgb(255,   0,   0)'/>
	<use xlink:href='#gpPt5' transform='translate(1063.1,613.7) scale(2.25)' color='rgb(255,   0,   0)'/>
	<use xlink:href='#gpPt5' transform='translate(1075.9,610.3) scale(2.25)' color='rgb(255,   0,   0)'/>
	<use xlink:href='#gpPt5' transform='translate(1088.7,606.5) scale(2.25)' color='rgb(255,   0,   0)'/>
	<use xlink:href='#gpPt5' transform='translate(1101.5,602.8) scale(2.25)' color='rgb(255,   0,   0)'/>
	<use xlink:href='#gpPt5' transform='translate(1114.3,599.5) scale(2.25)' color='rgb(255,   0,   0)'/>
	<use xlink:href='#gpPt5' transform='translate(1127.1,596.7) scale(2.25)' color='rgb(255,   0,   0)'/>
	<use xlink:href='#gpPt5' transform='translate(1139.9,593.9) scale(2.25)' color='rgb(255,   0,   0)'/>
	<use xlink:href='#gpPt5' transform='translate(1152.7,591.2) scale(2.25)' color='rgb(255,   0,   0)'/>
	<use xlink:href='#gpPt5' transform='translate(1165.5,587.8) scale(2.25)' color='rgb(255,   0,   0)'/>
	<use xlink:href='#gpPt5' transform='translate(1178.2,585.9) scale(2.25)' color='rgb(255,   0,   0)'/>
	<use xlink:href='#gpPt5' transform='translate(1191.0,587.0) scale(2.25)' color='rgb(255,   0,   0)'/>
	<use xlink:href='#gpPt5' transform='translate(1203.8,592.6) scale(2.25)' color='rgb(255,   0,   0)'/>
	<use xlink:href='#gpPt5' transform='translate(1216.6,598.5) scale(2.25)' color='rgb(255,   0,   0)'/>
	<use xlink:href='#gpPt5' transform='translate(1229.4,595.0) scale(2.25)' color='rgb(255,   0,   0)'/>
	<use xlink:href='#gpPt5' transform='translate(1242.2,582.7) scale(2.25)' color='rgb(255,   0,   0)'/>
	<use xlink:href='#gpPt5' transform='translate(1255.0,571.9) scale(2.25)' color='rgb(255,   0,   0)'/>
	<use xlink:href='#gpPt5' transform='translate(1217.3,72.1) scale(2.25)' color='rgb(255,   0,   0)'/>
</g>
	</g>
	<g id="gnuplot_plot_2" ><title>gnuplot_plot_2</title>
<g fill="none" color="black" stroke="currentColor" stroke-width="1.00" stroke-linecap="butt" stroke-linejoin="miter">
	<use xlink:href='#gpPt5' transform='translate(103.7,83.1) scale(2.25)' color='rgb(  0, 100,   0)'/>
	<use xlink:href='#gpPt5' transform='translate(104.3,85.6) scale(2.25)' color='rgb(  0, 100,   0)'/>
	<use xlink:href='#gpPt5' transform='translate(105.0,91.0) scale(2.25)' color='rgb(  0, 100,   0)'/>
	<use xlink:href='#gpPt5' transform='translate(105.6,96.8) scale(2.25)' color='rgb(  0, 100,   0)'/>
	<use xlink:href='#gpPt5' transform='translate(106.3,102.0) scale(2.25)' color='rgb(  0, 100,   0)'/>
	<use xlink:href='#gpPt5' transform='translate(106.9,106.6) scale(2.25)' color='rgb(  0, 100,   0)'/>
	<use xlink:href='#gpPt5' transform='translate(107.5,110.6) scale(2.25)' color='rgb(  0, 100,   0)'/>
	<use xlink:href='#gpPt5' transform='translate(108.2,114.2) scale(2.25)' color='rgb(  0, 100,   0)'/>
	<use xlink:href='#gpPt5' transform='translate(108.8,117.4) scale(2.25)' color='rgb(  0, 100,   0)'/>
	<use xlink:href='#gpPt5' transform='translate(109.5,120.3) scale(2.25)' color='rgb(  0, 100,   0)'/>
	<use xlink:href='#gpPt5' transform='translate(110.1,123.0) scale(2.25)' color='rgb(  0, 100,   0)'/>
	<use xlink:href='#gpPt5' transform='translate(110.7,125.6) scale(2.25)' color='rgb(  0, 100,   0)'/>
	<use xlink:href='#gpPt5' transform='translate(111.4,128.1) scale(2.25)' color='rgb(  0, 100,   0)'/>
	<use xlink:href='#gpPt5' transform='translate(112.0,130.5) scale(2.25)' color='rgb(  0, 100,   0)'/>
	<use xlink:href='#gpPt5' transform='translate(112.7,132.8) scale(2.25)' color='rgb(  0, 100,   0)'/>
	<use xlink:href='#gpPt5' transform='translate(113.3,135.1) scale(2.25)' color='rgb(  0, 100,   0)'/>
	<use xlink:href='#gpPt5' transform='translate(113.9,137.3) scale(2.25)' color='rgb(  0, 100,   0)'/>
	<use xlink:href='#gpPt5' transform='translate(114.6,139.5) scale(2.25)' color='rgb(  0, 100,   0)'/>
	<use xlink:href='#gpPt5' transform='translate(115.2,141.7) scale(2.25)' color='rgb(  0, 100,   0)'/>
	<use xlink:href='#gpPt5' transform='translate(115.9,143.9) scale(2.25)' color='rgb(  0, 100,   0)'/>
	<use xlink:href='#gpPt5' transform='translate(116.5,146.1) scale(2.25)' color='rgb(  0, 100,   0)'/>
	<use xlink:href='#gpPt5' transform='translate(122.9,167.2) scale(2.25)' color='rgb(  0, 100,   0)'/>
	<use xlink:href='#gpPt5' transform='translate(129.3,187.4) scale(2.25)' color='rgb(  0, 100,   0)'/>
	<use xlink:href='#gpPt5' transform='translate(135.7,206.1) scale(2.25)' color='rgb(  0, 100,   0)'/>
	<use xlink:href='#gpPt5' transform='translate(142.1,223.4) scale(2.25)' color='rgb(  0, 100,   0)'/>
	<use xlink:href='#gpPt5' transform='translate(154.9,253.8) scale(2.25)' color='rgb(  0, 100,   0)'/>
	<use xlink:href='#gpPt5' transform='translate(167.7,279.4) scale(2.25)' color='rgb(  0, 100,   0)'/>
	<use xlink:href='#gpPt5' transform='translate(180.5,301.0) scale(2.25)' color='rgb(  0, 100,   0)'/>
	<use xlink:href='#gpPt5' transform='translate(193.2,319.4) scale(2.25)' color='rgb(  0, 100,   0)'/>
	<use xlink:href='#gpPt5' transform='translate(206.0,335.3) scale(2.25)' color='rgb(  0, 100,   0)'/>
	<use xlink:href='#gpPt5' transform='translate(218.8,348.9) scale(2.25)' color='rgb(  0, 100,   0)'/>
	<use xlink:href='#gpPt5' transform='translate(231.6,361.4) scale(2.25)' color='rgb(  0, 100,   0)'/>
	<use xlink:href='#gpPt5' transform='translate(244.4,373.4) scale(2.25)' color='rgb(  0, 100,   0)'/>
	<use xlink:href='#gpPt5' transform='translate(257.2,384.8) scale(2.25)' color='rgb(  0, 100,   0)'/>
	<use xlink:href='#gpPt5' transform='translate(270.0,395.6) scale(2.25)' color='rgb(  0, 100,   0)'/>
	<use xlink:href='#gpPt5' transform='translate(282.8,405.7) scale(2.25)' color='rgb(  0, 100,   0)'/>
	<use xlink:href='#gpPt5' transform='translate(295.6,415.3) scale(2.25)' color='rgb(  0, 100,   0)'/>
	<use xlink:href='#gpPt5' transform='translate(308.4,425.2) scale(2.25)' color='rgb(  0, 100,   0)'/>
	<use xlink:href='#gpPt5' transform='translate(321.2,435.2) scale(2.25)' color='rgb(  0, 100,   0)'/>
	<use xlink:href='#gpPt5' transform='translate(334.0,444.9) scale(2.25)' color='rgb(  0, 100,   0)'/>
	<use xlink:href='#gpPt5' transform='translate(346.8,454.3) scale(2.25)' color='rgb(  0, 100,   0)'/>
	<use xlink:href='#gpPt5' transform='translate(359.5,463.3) scale(2.25)' color='rgb(  0, 100,   0)'/>
	<use xlink:href='#gpPt5' transform='translate(372.3,472.4) scale(2.25)' color='rgb(  0, 100,   0)'/>
	<use xlink:href='#gpPt5' transform='translate(385.1,481.6) scale(2.25)' color='rgb(  0, 100,   0)'/>
	<use xlink:href='#gpPt5' transform='translate(397.9,490.7) scale(2.25)' color='rgb(  0, 100,   0)'/>
	<use xlink:href='#gpPt5' transform='translate(410.7,499.5) scale(2.25)' color='rgb(  0, 100,   0)'/>
	<use xlink:href='#gpPt5' transform='translate(423.5,507.8) scale(2.25)' color='rgb(  0, 100,   0)'/>
	<use xlink:href='#gpPt5' transform='translate(436.3,516.5) scale(2.25)' color='rgb(  0, 100,   0)'/>
	<use xlink:href='#gpPt5' transform='translate(449.1,525.5) scale(2.25)' color='rgb(  0, 100,   0)'/>
	<use xlink:href='#gpPt5' transform='translate(461.9,533.6) scale(2.25)' color='rgb(  0, 100,   0)'/>
	<use xlink:href='#gpPt5' transform='translate(474.7,541.4) scale(2.25)' color='rgb(  0, 100,   0)'/>
	<use xlink:href='#gpPt5' transform='translate(487.5,549.3) scale(2.25)' color='rgb(  0, 100,   0)'/>
	<use xlink:href='#gpPt5' transform='translate(500.3,557.9) scale(2.25)' color='rgb(  0, 100,   0)'/>
	<use xlink:href='#gpPt5' transform='translate(513.1,565.5) scale(2.25)' color='rgb(  0, 100,   0)'/>
	<use xlink:href='#gpPt5' transform='translate(525.8,572.8) scale(2.25)' color='rgb(  0, 100,   0)'/>
	<use xlink:href='#gpPt5' transform='translate(538.6,580.1) scale(2.25)' color='rgb(  0, 100,   0)'/>
	<use xlink:href='#gpPt5' transform='translate(551.4,587.4) scale(2.25)' color='rgb(  0, 100,   0)'/>
	<use xlink:href='#gpPt5' transform='translate(564.2,594.6) scale(2.25)' color='rgb(  0, 100,   0)'/>
	<use xlink:href='#gpPt5' transform='translate(577.0,601.3) scale(2.25)' color='rgb(  0, 100,   0)'/>
	<use xlink:href='#gpPt5' transform='translate(589.8,607.4) scale(2.25)' color='rgb(  0, 100,   0)'/>
	<use xlink:href='#gpPt5' transform='translate(602.6,614.5) scale(2.25)' color='rgb(  0, 100,   0)'/>
	<use xlink:href='#gpPt5' transform='translate(615.4,620.7) scale(2.25)' color='rgb(  0, 100,   0)'/>
	<use xlink:href='#gpPt5' transform='translate(628.2,626.1) scale(2.25)' color='rgb(  0, 100,   0)'/>
	<use xlink:href='#gpPt5' transform='translate(641.0,631.2) scale(2.25)' color='rgb(  0, 100,   0)'/>
	<use xlink:href='#gpPt5' transform='translate(653.8,637.3) scale(2.25)' color='rgb(  0, 100,   0)'/>
	<use xlink:href='#gpPt5' transform='translate(666.6,642.5) scale(2.25)' color='rgb(  0, 100,   0)'/>
	<use xlink:href='#gpPt5' transform='translate(679.4,647.2) scale(2.25)' color='rgb(  0, 100,   0)'/>
	<use xlink:href='#gpPt5' transform='translate(692.1,651.5) scale(2.25)' color='rgb(  0, 100,   0)'/>
	<use xlink:href='#gpPt5' transform='translate(704.9,655.8) scale(2.25)' color='rgb(  0, 100,   0)'/>
	<use xlink:href='#gpPt5' transform='translate(717.7,658.8) scale(2.25)' color='rgb(  0, 100,   0)'/>
	<use xlink:href='#gpPt5' transform='translate(730.5,662.1) scale(2.25)' color='rgb(  0, 100,   0)'/>
	<use xlink:href='#gpPt5' transform='translate(743.3,665.8) scale(2.25)' color='rgb(  0, 100,   0)'/>
	<use xlink:href='#gpPt5' transform='translate(756.1,669.4) scale(2.25)' color='rgb(  0, 100,   0)'/>
	<use xlink:href='#gpPt5' transform='translate(768.9,671.4) scale(2.25)' color='rgb(  0, 100,   0)'/>
	<use xlink:href='#gpPt5' transform='translate(781.7,673.5) scale(2.25)' color='rgb(  0, 100,   0)'/>
	<use xlink:href='#gpPt5' transform='translate(794.5,676.1) scale(2.25)' color='rgb(  0, 100,   0)'/>
	<use xlink:href='#gpPt5' transform='translate(807.3,678.5) scale(2.25)' color='rgb(  0, 100,   0)'/>
	<use xlink:href='#gpPt5' transform='translate(820.1,679.8) scale(2.25)' color='rgb(  0, 100,   0)'/>
	<use xlink:href='#gpPt5' transform='translate(832.9,680.7) scale(2.25)' color='rgb(  0, 100,   0)'/>
	<use xlink:href='#gpPt5' transform='translate(845.6,681.9) scale(2.25)' color='rgb(  0, 100,   0)'/>
	<use xlink:href='#gpPt5' transform='translate(858.4,682.7) scale(2.25)' color='rgb(  0, 100,   0)'/>
	<use xlink:href='#gpPt5' transform='translate(871.2,681.7) scale(2.25)' color='rgb(  0, 100,   0)'/>
	<use xlink:href='#gpPt5' transform='translate(884.0,681.3) scale(2.25)' color='rgb(  0, 100,   0)'/>
	<use xlink:href='#gpPt5' transform='translate(896.8,680.1) scale(2.25)' color='rgb(  0, 100,   0)'/>
	<use xlink:href='#gpPt5' transform='translate(909.6,677.4) scale(2.25)' color='rgb(  0, 100,   0)'/>
	<use xlink:href='#gpPt5' transform='translate(922.4,674.4) scale(2.25)' color='rgb(  0, 100,   0)'/>
	<use xlink:href='#gpPt5' transform='translate(935.2,671.7) scale(2.25)' color='rgb(  0, 100,   0)'/>
	<use xlink:href='#gpPt5' transform='translate(948.0,668.1) scale(2.25)' color='rgb(  0, 100,   0)'/>
	<use xlink:href='#gpPt5' transform='translate(960.8,663.5) scale(2.25)' color='rgb(  0, 100,   0)'/>
	<use xlink:href='#gpPt5' transform='translate(973.6,657.4) scale(2.25)' color='rgb(  0, 100,   0)'/>
	<use xlink:href='#gpPt5' transform='translate(986.4,650.4) scale(2.25)' color='rgb(  0, 100,   0)'/>
	<use xlink:href='#gpPt5' transform='translate(999.2,643.7) scale(2.25)' color='rgb(  0, 100,   0)'/>
	<use xlink:href='#gpPt5' transform='translate(1011.9,636.3) scale(2.25)' color='rgb(  0, 100,   0)'/>
	<use xlink:href='#gpPt5' transform='translate(1024.7,628.7) scale(2.25)' color='rgb(  0, 100,   0)'/>
	<use xlink:href='#gpPt5' transform='translate(1037.5,621.5) scale(2.25)' color='rgb(  0, 100,   0)'/>
	<use xlink:href='#gpPt5' transform='translate(1050.3,615.8) scale(2.25)' color='rgb(  0, 100,   0)'/>
	<use xlink:href='#gpPt5' transform='translate(1063.1,610.3) scale(2.25)' color='rgb(  0, 100,   0)'/>
	<use xlink:href='#gpPt5' transform='translate(1075.9,605.5) scale(2.25)' color='rgb(  0, 100,   0)'/>
	<use xlink:href='#gpPt5' transform='translate(1088.7,602.3) scale(2.25)' color='rgb(  0, 100,   0)'/>
	<use xlink:href='#gpPt5' transform='translate(1101.5,601.1) scale(2.25)' color='rgb(  0, 100,   0)'/>
	<use xlink:href='#gpPt5' transform='translate(1114.3,599.8) scale(2.25)' color='rgb(  0, 100,   0)'/>
	<use xlink:href='#gpPt5' transform='translate(1127.1,596.3) scale(2.25)' color='rgb(  0, 100,   0)'/>
	<use xlink:href='#gpPt5' transform='translate(1139.9,591.4) scale(2.25)' color='rgb(  0, 100,   0)'/>
	<use xlink:href='#gpPt5' transform='translate(1152.7,587.1) scale(2.25)' color='rgb(  0, 100,   0)'/>
	<use xlink:href='#gpPt5' transform='translate(1165.5,585.1) scale(2.25)' color='rgb(  0, 100,   0)'/>
	<use xlink:href='#gpPt5' transform='translate(1178.2,584.9) scale(2.25)' color='rgb(  0, 100,   0)'/>
	<use xlink:href='#gpPt5' transform='translate(1191.0,588.3) scale(2.25)' color='rgb(  0, 100,   0)'/>
	<use xlink:href='#gpPt5' transform='translate(1203.8,594.0) scale(2.25)' color='rgb(  0, 100,   0)'/>
	<use xlink:href='#gpPt5' transform='translate(1216.6,596.2) scale(2.25)' color='rgb(  0, 100,   0)'/>
	<use xlink:href='#gpPt5' transform='translate(1229.4,590.5) scale(2.25)' color='rgb(  0, 100,   0)'/>
	<use xlink:href='#gpPt5' transform='translate(1242.2,574.9) scale(2.25)' color='rgb(  0, 100,   0)'/>
	<use xlink:href='#gpPt5' transform='translate(1255.0,560.8) scale(2.25)' color='rgb(  0, 100,   0)'/>
</g>
	</g>
	<g id="gnuplot_plot_3" ><title>gnuplot_plot_3</title>
<g fill="none" color="black" stroke="currentColor" stroke-width="1.00" stroke-linecap="butt" stroke-linejoin="miter">
	<use xlink:href='#gpPt5' transform='translate(103.7,54.1) scale(2.25)' color='rgb(  0,   0, 255)'/>
	<use xlink:href='#gpPt5' transform='translate(104.3,57.7) scale(2.25)' color='rgb(  0,   0, 255)'/>
	<use xlink:href='#gpPt5' transform='translate(105.0,64.9) scale(2.25)' color='rgb(  0,   0, 255)'/>
	<use xlink:href='#gpPt5' transform='translate(105.6,71.8) scale(2.25)' color='rgb(  0,   0, 255)'/>
	<use xlink:href='#gpPt5' transform='translate(106.3,77.6) scale(2.25)' color='rgb(  0,   0, 255)'/>
	<use xlink:href='#gpPt5' transform='translate(106.9,82.7) scale(2.25)' color='rgb(  0,   0, 255)'/>
	<use xlink:href='#gpPt5' transform='translate(107.5,87.0) scale(2.25)' color='rgb(  0,   0, 255)'/>
	<use xlink:href='#gpPt5' transform='translate(108.2,90.9) scale(2.25)' color='rgb(  0,   0, 255)'/>
	<use xlink:href='#gpPt5' transform='translate(108.8,94.3) scale(2.25)' color='rgb(  0,   0, 255)'/>
	<use xlink:href='#gpPt5' transform='translate(109.5,97.6) scale(2.25)' color='rgb(  0,   0, 255)'/>
	<use xlink:href='#gpPt5' transform='translate(110.1,100.7) scale(2.25)' color='rgb(  0,   0, 255)'/>
	<use xlink:href='#gpPt5' transform='translate(110.7,103.6) scale(2.25)' color='rgb(  0,   0, 255)'/>
	<use xlink:href='#gpPt5' transform='translate(111.4,106.5) scale(2.25)' color='rgb(  0,   0, 255)'/>
	<use xlink:href='#gpPt5' transform='translate(112.0,109.3) scale(2.25)' color='rgb(  0,   0, 255)'/>
	<use xlink:href='#gpPt5' transform='translate(112.7,112.1) scale(2.25)' color='rgb(  0,   0, 255)'/>
	<use xlink:href='#gpPt5' transform='translate(113.3,114.9) scale(2.25)' color='rgb(  0,   0, 255)'/>
	<use xlink:href='#gpPt5' transform='translate(113.9,117.6) scale(2.25)' color='rgb(  0,   0, 255)'/>
	<use xlink:href='#gpPt5' transform='translate(114.6,120.3) scale(2.25)' color='rgb(  0,   0, 255)'/>
	<use xlink:href='#gpPt5' transform='translate(115.2,123.0) scale(2.25)' color='rgb(  0,   0, 255)'/>
	<use xlink:href='#gpPt5' transform='translate(115.9,125.7) scale(2.25)' color='rgb(  0,   0, 255)'/>
	<use xlink:href='#gpPt5' transform='translate(116.5,128.3) scale(2.25)' color='rgb(  0,   0, 255)'/>
	<use xlink:href='#gpPt5' transform='translate(122.9,154.3) scale(2.25)' color='rgb(  0,   0, 255)'/>
	<use xlink:href='#gpPt5' transform='translate(129.3,178.7) scale(2.25)' color='rgb(  0,   0, 255)'/>
	<use xlink:href='#gpPt5' transform='translate(135.7,201.0) scale(2.25)' color='rgb(  0,   0, 255)'/>
	<use xlink:href='#gpPt5' transform='translate(142.1,221.1) scale(2.25)' color='rgb(  0,   0, 255)'/>
	<use xlink:href='#gpPt5' transform='translate(154.9,255.1) scale(2.25)' color='rgb(  0,   0, 255)'/>
	<use xlink:href='#gpPt5' transform='translate(167.7,282.6) scale(2.25)' color='rgb(  0,   0, 255)'/>
	<use xlink:href='#gpPt5' transform='translate(180.5,305.0) scale(2.25)' color='rgb(  0,   0, 255)'/>
	<use xlink:href='#gpPt5' transform='translate(193.2,323.3) scale(2.25)' color='rgb(  0,   0, 255)'/>
	<use xlink:href='#gpPt5' transform='translate(206.0,338.6) scale(2.25)' color='rgb(  0,   0, 255)'/>
	<use xlink:href='#gpPt5' transform='translate(218.8,351.9) scale(2.25)' color='rgb(  0,   0, 255)'/>
	<use xlink:href='#gpPt5' transform='translate(231.6,363.9) scale(2.25)' color='rgb(  0,   0, 255)'/>
	<use xlink:href='#gpPt5' transform='translate(244.4,375.1) scale(2.25)' color='rgb(  0,   0, 255)'/>
	<use xlink:href='#gpPt5' transform='translate(257.2,385.9) scale(2.25)' color='rgb(  0,   0, 255)'/>
	<use xlink:href='#gpPt5' transform='translate(270.0,396.0) scale(2.25)' color='rgb(  0,   0, 255)'/>
	<use xlink:href='#gpPt5' transform='translate(282.8,406.1) scale(2.25)' color='rgb(  0,   0, 255)'/>
	<use xlink:href='#gpPt5' transform='translate(295.6,415.7) scale(2.25)' color='rgb(  0,   0, 255)'/>
	<use xlink:href='#gpPt5' transform='translate(308.4,424.9) scale(2.25)' color='rgb(  0,   0, 255)'/>
	<use xlink:href='#gpPt5' transform='translate(321.2,434.2) scale(2.25)' color='rgb(  0,   0, 255)'/>
	<use xlink:href='#gpPt5' transform='translate(334.0,443.5) scale(2.25)' color='rgb(  0,   0, 255)'/>
	<use xlink:href='#gpPt5' transform='translate(346.8,453.1) scale(2.25)' color='rgb(  0,   0, 255)'/>
	<use xlink:href='#gpPt5' transform='translate(359.5,462.2) scale(2.25)' color='rgb(  0,   0, 255)'/>
	<use xlink:href='#gpPt5' transform='translate(372.3,470.3) scale(2.25)' color='rgb(  0,   0, 255)'/>
	<use xlink:href='#gpPt5' transform='translate(385.1,479.2) scale(2.25)' color='rgb(  0,   0, 255)'/>
	<use xlink:href='#gpPt5' transform='translate(397.9,488.6) scale(2.25)' color='rgb(  0,   0, 255)'/>
	<use xlink:href='#gpPt5' transform='translate(410.7,497.2) scale(2.25)' color='rgb(  0,   0, 255)'/>
	<use xlink:href='#gpPt5' transform='translate(423.5,505.2) scale(2.25)' color='rgb(  0,   0, 255)'/>
	<use xlink:href='#gpPt5' transform='translate(436.3,513.4) scale(2.25)' color='rgb(  0,   0, 255)'/>
	<use xlink:href='#gpPt5' transform='translate(449.1,521.9) scale(2.25)' color='rgb(  0,   0, 255)'/>
	<use xlink:href='#gpPt5' transform='translate(461.9,530.5) scale(2.25)' color='rgb(  0,   0, 255)'/>
	<use xlink:href='#gpPt5' transform='translate(474.7,539.0) scale(2.25)' color='rgb(  0,   0, 255)'/>
	<use xlink:href='#gpPt5' transform='translate(487.5,546.1) scale(2.25)' color='rgb(  0,   0, 255)'/>
	<use xlink:href='#gpPt5' transform='translate(500.3,553.6) scale(2.25)' color='rgb(  0,   0, 255)'/>
	<use xlink:href='#gpPt5' transform='translate(513.1,561.9) scale(2.25)' color='rgb(  0,   0, 255)'/>
	<use xlink:href='#gpPt5' transform='translate(525.8,569.9) scale(2.25)' color='rgb(  0,   0, 255)'/>
	<use xlink:href='#gpPt5' transform='translate(538.6,576.6) scale(2.25)' color='rgb(  0,   0, 255)'/>
	<use xlink:href='#gpPt5' transform='translate(551.4,583.4) scale(2.25)' color='rgb(  0,   0, 255)'/>
	<use xlink:href='#gpPt5' transform='translate(564.2,591.5) scale(2.25)' color='rgb(  0,   0, 255)'/>
	<use xlink:href='#gpPt5' transform='translate(577.0,598.6) scale(2.25)' color='rgb(  0,   0, 255)'/>
	<use xlink:href='#gpPt5' transform='translate(589.8,604.7) scale(2.25)' color='rgb(  0,   0, 255)'/>
	<use xlink:href='#gpPt5' transform='translate(602.6,610.3) scale(2.25)' color='rgb(  0,   0, 255)'/>
	<use xlink:href='#gpPt5' transform='translate(615.4,617.1) scale(2.25)' color='rgb(  0,   0, 255)'/>
	<use xlink:href='#gpPt5' transform='translate(628.2,624.1) scale(2.25)' color='rgb(  0,   0, 255)'/>
	<use xlink:href='#gpPt5' transform='translate(641.0,630.1) scale(2.25)' color='rgb(  0,   0, 255)'/>
	<use xlink:href='#gpPt5' transform='translate(653.8,634.2) scale(2.25)' color='rgb(  0,   0, 255)'/>
	<use xlink:href='#gpPt5' transform='translate(666.6,639.7) scale(2.25)' color='rgb(  0,   0, 255)'/>
	<use xlink:href='#gpPt5' transform='translate(679.4,645.4) scale(2.25)' color='rgb(  0,   0, 255)'/>
	<use xlink:href='#gpPt5' transform='translate(692.1,649.2) scale(2.25)' color='rgb(  0,   0, 255)'/>
	<use xlink:href='#gpPt5' transform='translate(704.9,652.6) scale(2.25)' color='rgb(  0,   0, 255)'/>
	<use xlink:href='#gpPt5' transform='translate(717.7,657.5) scale(2.25)' color='rgb(  0,   0, 255)'/>
	<use xlink:href='#gpPt5' transform='translate(730.5,661.0) scale(2.25)' color='rgb(  0,   0, 255)'/>
	<use xlink:href='#gpPt5' transform='translate(743.3,663.8) scale(2.25)' color='rgb(  0,   0, 255)'/>
	<use xlink:href='#gpPt5' transform='translate(756.1,666.3) scale(2.25)' color='rgb(  0,   0, 255)'/>
	<use xlink:href='#gpPt5' transform='translate(768.9,668.7) scale(2.25)' color='rgb(  0,   0, 255)'/>
	<use xlink:href='#gpPt5' transform='translate(781.7,671.2) scale(2.25)' color='rgb(  0,   0, 255)'/>
	<use xlink:href='#gpPt5' transform='translate(794.5,673.8) scale(2.25)' color='rgb(  0,   0, 255)'/>
	<use xlink:href='#gpPt5' transform='translate(807.3,675.2) scale(2.25)' color='rgb(  0,   0, 255)'/>
	<use xlink:href='#gpPt5' transform='translate(820.1,675.8) scale(2.25)' color='rgb(  0,   0, 255)'/>
	<use xlink:href='#gpPt5' transform='translate(832.9,678.9) scale(2.25)' color='rgb(  0,   0, 255)'/>
	<use xlink:href='#gpPt5' transform='translate(845.6,681.1) scale(2.25)' color='rgb(  0,   0, 255)'/>
	<use xlink:href='#gpPt5' transform='translate(858.4,682.0) scale(2.25)' color='rgb(  0,   0, 255)'/>
	<use xlink:href='#gpPt5' transform='translate(871.2,682.4) scale(2.25)' color='rgb(  0,   0, 255)'/>
	<use xlink:href='#gpPt5' transform='translate(884.0,682.1) scale(2.25)' color='rgb(  0,   0, 255)'/>
	<use xlink:href='#gpPt5' transform='translate(896.8,679.9) scale(2.25)' color='rgb(  0,   0, 255)'/>
	<use xlink:href='#gpPt5' transform='translate(909.6,678.2) scale(2.25)' color='rgb(  0,   0, 255)'/>
	<use xlink:href='#gpPt5' transform='translate(922.4,676.2) scale(2.25)' color='rgb(  0,   0, 255)'/>
	<use xlink:href='#gpPt5' transform='translate(935.2,672.6) scale(2.25)' color='rgb(  0,   0, 255)'/>
	<use xlink:href='#gpPt5' transform='translate(948.0,668.3) scale(2.25)' color='rgb(  0,   0, 255)'/>
	<use xlink:href='#gpPt5' transform='translate(960.8,662.3) scale(2.25)' color='rgb(  0,   0, 255)'/>
	<use xlink:href='#gpPt5' transform='translate(973.6,656.8) scale(2.25)' color='rgb(  0,   0, 255)'/>
	<use xlink:href='#gpPt5' transform='translate(986.4,651.2) scale(2.25)' color='rgb(  0,   0, 255)'/>
	<use xlink:href='#gpPt5' transform='translate(999.2,642.9) scale(2.25)' color='rgb(  0,   0, 255)'/>
	<use xlink:href='#gpPt5' transform='translate(1011.9,634.1) scale(2.25)' color='rgb(  0,   0, 255)'/>
	<use xlink:href='#gpPt5' transform='translate(1024.7,625.7) scale(2.25)' color='rgb(  0,   0, 255)'/>
	<use xlink:href='#gpPt5' transform='translate(1037.5,615.9) scale(2.25)' color='rgb(  0,   0, 255)'/>
	<use xlink:href='#gpPt5' transform='translate(1050.3,609.0) scale(2.25)' color='rgb(  0,   0, 255)'/>
	<use xlink:href='#gpPt5' transform='translate(1063.1,604.8) scale(2.25)' color='rgb(  0,   0, 255)'/>
	<use xlink:href='#gpPt5' transform='translate(1075.9,599.6) scale(2.25)' color='rgb(  0,   0, 255)'/>
	<use xlink:href='#gpPt5' transform='translate(1088.7,595.9) scale(2.25)' color='rgb(  0,   0, 255)'/>
	<use xlink:href='#gpPt5' transform='translate(1101.5,594.7) scale(2.25)' color='rgb(  0,   0, 255)'/>
	<use xlink:href='#gpPt5' transform='translate(1114.3,592.6) scale(2.25)' color='rgb(  0,   0, 255)'/>
	<use xlink:href='#gpPt5' transform='translate(1127.1,590.0) scale(2.25)' color='rgb(  0,   0, 255)'/>
	<use xlink:href='#gpPt5' transform='translate(1139.9,587.0) scale(2.25)' color='rgb(  0,   0, 255)'/>
	<use xlink:href='#gpPt5' transform='translate(1152.7,582.9) scale(2.25)' color='rgb(  0,   0, 255)'/>
	<use xlink:href='#gpPt5' transform='translate(1165.5,579.0) scale(2.25)' color='rgb(  0,   0, 255)'/>
	<use xlink:href='#gpPt5' transform='translate(1178.2,576.6) scale(2.25)' color='rgb(  0,   0, 255)'/>
	<use xlink:href='#gpPt5' transform='translate(1191.0,576.3) scale(2.25)' color='rgb(  0,   0, 255)'/>
	<use xlink:href='#gpPt5' transform='translate(1203.8,578.7) scale(2.25)' color='rgb(  0,   0, 255)'/>
	<use xlink:href='#gpPt5' transform='translate(1216.6,580.5) scale(2.25)' color='rgb(  0,   0, 255)'/>
	<use xlink:href='#gpPt5' transform='translate(1229.4,575.6) scale(2.25)' color='rgb(  0,   0, 255)'/>
	<use xlink:href='#gpPt5' transform='translate(1242.2,561.0) scale(2.25)' color='rgb(  0,   0, 255)'/>
	<use xlink:href='#gpPt5' transform='translate(1255.0,545.2) scale(2.25)' color='rgb(  0,   0, 255)'/>
</g>
	</g>
	<g id="gnuplot_plot_4" ><title>fit</title>
<g fill="none" color="black" stroke="currentColor" stroke-width="1.00" stroke-linecap="butt" stroke-linejoin="miter">
	<g transform="translate(1187.9,94.0)" stroke="none" fill="black" font-family="Arial" font-size="12.00"  text-anchor="end">
		<text><tspan font-family="Arial" >fit</tspan></text>
	</g>
</g>
<g fill="none" color="black" stroke="currentColor" stroke-width="1.00" stroke-linecap="butt" stroke-linejoin="miter">
	<path stroke='rgb(255,   0,   0)'  d='M1196.2,90.1 L1238.4,90.1 M103.7,112.8 L104.8,113.1 L106.0,114.2 L107.1,116.1 L108.2,118.5 L109.3,121.6
		L110.5,125.2 L111.6,129.3 L112.7,133.7 L113.8,138.4 L115.0,143.4 L116.1,148.6 L117.2,153.8 L118.3,159.1
		L119.5,164.4 L120.6,169.7 L121.7,174.8 L122.8,179.9 L124.0,184.9 L125.1,189.7 L126.2,194.3 L127.3,198.8
		L128.5,203.1 L129.6,207.3 L130.7,211.3 L131.8,215.1 L133.0,218.8 L134.1,222.3 L135.2,225.7 L136.3,228.9
		L137.5,232.0 L138.6,234.9 L139.7,237.7 L140.8,240.4 L142.0,243.0 L143.1,245.5 L144.2,247.9 L145.3,250.2
		L146.5,252.4 L147.6,254.6 L148.7,256.7 L149.8,258.7 L151.0,260.6 L152.1,262.5 L153.2,264.4 L154.3,266.1
		L155.5,267.9 L156.6,269.6 L157.7,271.2 L158.8,272.9 L160.0,274.5 L161.1,276.0 L162.2,277.6 L163.3,279.1
		L164.5,280.6 L165.6,282.0 L166.7,283.5 L167.8,284.9 L169.0,286.3 L170.1,287.7 L171.2,289.1 L172.4,290.4
		L173.5,291.8 L174.6,293.1 L175.7,294.5 L176.9,295.8 L178.0,297.1 L179.1,298.4 L180.2,299.7 L181.4,301.0
		L182.5,302.3 L183.6,303.5 L184.7,304.8 L185.9,306.1 L187.0,307.3 L188.1,308.6 L189.2,309.8 L190.4,311.1
		L191.5,312.3 L192.6,313.6 L193.7,314.8 L194.9,316.0 L196.0,317.3 L197.1,318.5 L198.2,319.7 L199.4,320.9
		L200.5,322.1 L201.6,323.4 L202.7,324.6 L203.9,325.8 L205.0,327.0 L206.1,328.2 L207.2,329.4 L208.4,330.6
		L209.5,331.8 L210.6,333.0 L211.7,334.2 L212.9,335.4 L214.0,336.6 L215.1,337.7 L216.2,338.9 L217.4,340.1
		L218.5,341.3 L219.6,342.5 L220.7,343.6 L221.9,344.8 L223.0,346.0 L224.1,347.2 L225.2,348.3 L226.4,349.5
		L227.5,350.6 L228.6,351.8 L229.7,353.0 L230.9,354.1 L232.0,355.3 L233.1,356.4 L234.2,357.6 L235.4,358.7
		L236.5,359.9 L237.6,361.0 L238.7,362.1 L239.9,363.3 L241.0,364.4 L242.1,365.5 L243.3,366.7 L244.4,367.8
		L245.5,368.9 L246.6,370.0 L247.8,371.1 L248.9,372.3 L250.0,373.4 L251.1,374.5 L252.3,375.6 L253.4,376.7
		L254.5,377.8 L255.6,378.9 L256.8,380.0 L257.9,381.1 L259.0,382.2 L260.1,383.3 L261.3,384.3 L262.4,385.4
		L263.5,386.5 L264.6,387.6 L265.8,388.7 L266.9,389.7 L268.0,390.8 L269.1,391.9 L270.3,392.9 L271.4,394.0
		L272.5,395.0 L273.6,396.1 L274.8,397.1 L275.9,398.2 L277.0,399.2 L278.1,400.3 L279.3,401.3 L280.4,402.4
		L281.5,403.4 L282.6,404.4 L283.8,405.4 L284.9,406.5 L286.0,407.5 L287.1,408.5 L288.3,409.5 L289.4,410.5
		L290.5,411.5 L291.6,412.6 L292.8,413.6 L293.9,414.6 L295.0,415.6 L296.1,416.6 L297.3,417.5 L298.4,418.5
		L299.5,419.5 L300.6,420.5 L301.8,421.5 L302.9,422.5 L304.0,423.4 L305.1,424.4 L306.3,425.4 L307.4,426.4
		L308.5,427.3 L309.7,428.3 L310.8,429.2 L311.9,430.2 L313.0,431.1 L314.2,432.1 L315.3,433.0 L316.4,434.0
		L317.5,434.9 L318.7,435.9 L319.8,436.8 L320.9,437.7 L322.0,438.7 L323.2,439.6 L324.3,440.5 L325.4,441.4
		L326.5,442.4 L327.7,443.3 L328.8,444.2 L329.9,445.1 L331.0,446.0 L332.2,446.9 L333.3,447.8 L334.4,448.7
		L335.5,449.6 L336.7,450.5 L337.8,451.4 L338.9,452.3 L340.0,453.2 L341.2,454.1 L342.3,455.0 L343.4,455.8
		L344.5,456.7 L345.7,457.6 L346.8,458.5 L347.9,459.3 L349.0,460.2 L350.2,461.1 L351.3,461.9 L352.4,462.8
		L353.5,463.6 L354.7,464.5 L355.8,465.4 L356.9,466.2 L358.0,467.1 L359.2,467.9 L360.3,468.7 L361.4,469.6
		L362.5,470.4 L363.7,471.3 L364.8,472.1 L365.9,472.9 L367.0,473.7 L368.2,474.6 L369.3,475.4 L370.4,476.2
		L371.5,477.0 L372.7,477.9 L373.8,478.7 L374.9,479.5 L376.1,480.3 L377.2,481.1 L378.3,481.9 L379.4,482.7
		L380.6,483.5 L381.7,484.3 L382.8,485.1 L383.9,485.9 L385.1,486.7 L386.2,487.5 L387.3,488.3 L388.4,489.1
		L389.6,489.8 L390.7,490.6 L391.8,491.4 L392.9,492.2 L394.1,493.0 L395.2,493.7 L396.3,494.5 L397.4,495.3
		L398.6,496.0 L399.7,496.8 L400.8,497.6 L401.9,498.3 L403.1,499.1 L404.2,499.8 L405.3,500.6 L406.4,501.3
		L407.6,502.1 L408.7,502.8 L409.8,503.6 L410.9,504.3 L412.1,505.1 L413.2,505.8 L414.3,506.6 L415.4,507.3
		L416.6,508.0 L417.7,508.8 L418.8,509.5 L419.9,510.2 L421.1,511.0 L422.2,511.7 L423.3,512.4 L424.4,513.1
		L425.6,513.9 L426.7,514.6 L427.8,515.3 L428.9,516.0 L430.1,516.7 L431.2,517.4 L432.3,518.1 L433.4,518.9
		L434.6,519.6 L435.7,520.3 L436.8,521.0 L437.9,521.7 L439.1,522.4 L440.2,523.1 L441.3,523.8 L442.5,524.5
		L443.6,525.2 L444.7,525.8 L445.8,526.5 L447.0,527.2 L448.1,527.9 L449.2,528.6 L450.3,529.3 L451.5,530.0
		L452.6,530.6 L453.7,531.3 L454.8,532.0 L456.0,532.7 L457.1,533.4 L458.2,534.0 L459.3,534.7 L460.5,535.4
		L461.6,536.0 L462.7,536.7 L463.8,537.4 L465.0,538.0 L466.1,538.7 L467.2,539.4 L468.3,540.0 L469.5,540.7
		L470.6,541.3 L471.7,542.0 L472.8,542.6 L474.0,543.3 L475.1,543.9 L476.2,544.6 L477.3,545.2 L478.5,545.9
		L479.6,546.5 L480.7,547.2 L481.8,547.8 L483.0,548.5 L484.1,549.1 L485.2,549.7 L486.3,550.4 L487.5,551.0
		L488.6,551.6 L489.7,552.3 L490.8,552.9 L492.0,553.5 L493.1,554.2 L494.2,554.8 L495.3,555.4 L496.5,556.1
		L497.6,556.7 L498.7,557.3 L499.8,557.9 L501.0,558.5 L502.1,559.2 L503.2,559.8 L504.3,560.4 L505.5,561.0
		L506.6,561.6 L507.7,562.2 L508.8,562.9 L510.0,563.5 L511.1,564.1 L512.2,564.7 L513.4,565.3 L514.5,565.9
		L515.6,566.5 L516.7,567.1 L517.9,567.7 L519.0,568.3 L520.1,568.9 L521.2,569.5 L522.4,570.1 L523.5,570.7
		L524.6,571.3 L525.7,571.9 L526.9,572.5 L528.0,573.1 L529.1,573.7 L530.2,574.3 L531.4,574.9 L532.5,575.4
		L533.6,576.0 L534.7,576.6 L535.9,577.2 L537.0,577.8 L538.1,578.4 L539.2,579.0 L540.4,579.5 L541.5,580.1
		L542.6,580.7 L543.7,581.3 L544.9,581.8 L546.0,582.4 L547.1,583.0 L548.2,583.6 L549.4,584.1 L550.5,584.7
		L551.6,585.3 L552.7,585.9 L553.9,586.4 L555.0,587.0 L556.1,587.6 L557.2,588.1 L558.4,588.7 L559.5,589.3
		L560.6,589.8 L561.7,590.4 L562.9,590.9 L564.0,591.5 L565.1,592.1 L566.2,592.6 L567.4,593.2 L568.5,593.7
		L569.6,594.3 L570.7,594.8 L571.9,595.4 L573.0,595.9 L574.1,596.5 L575.2,597.0 L576.4,597.6 L577.5,598.1
		L578.6,598.7 L579.8,599.2 L580.9,599.8 L582.0,600.3 L583.1,600.9 L584.3,601.4 L585.4,602.0 L586.5,602.5
		L587.6,603.0 L588.8,603.6 L589.9,604.1 L591.0,604.7 L592.1,605.2 L593.3,605.7 L594.4,606.3 L595.5,606.8
		L596.6,607.3 L597.8,607.9 L598.9,608.4 L600.0,608.9 L601.1,609.4 L602.3,610.0 L603.4,610.5 L604.5,611.0
		L605.6,611.6 L606.8,612.1 L607.9,612.6 L609.0,613.1 L610.1,613.6 L611.3,614.2 L612.4,614.7 L613.5,615.2
		L614.6,615.7 L615.8,616.2 L616.9,616.8 L618.0,617.3 L619.1,617.8 L620.3,618.3 L621.4,618.8 L622.5,619.3
		L623.6,619.8 L624.8,620.3 L625.9,620.8 L627.0,621.4 L628.1,621.9 L629.3,622.4 L630.4,622.9 L631.5,623.4
		L632.6,623.9 L633.8,624.4 L634.9,624.9 L636.0,625.4 L637.1,625.9 L638.3,626.4 L639.4,626.9 L640.5,627.4
		L641.6,627.9 L642.8,628.4 L643.9,628.8 L645.0,629.3 L646.2,629.8 L647.3,630.3 L648.4,630.8 L649.5,631.3
		L650.7,631.8 L651.8,632.3 L652.9,632.7 L654.0,633.2 L655.2,633.7 L656.3,634.2 L657.4,634.7 L658.5,635.2
		L659.7,635.6 L660.8,636.1 L661.9,636.6 L663.0,637.1 L664.2,637.5 L665.3,638.0 L666.4,638.5 L667.5,638.9
		L668.7,639.4 L669.8,639.9 L670.9,640.3 L672.0,640.8 L673.2,641.3 L674.3,641.7 L675.4,642.2 L676.5,642.6
		L677.7,643.1 L678.8,643.6 L679.9,644.0 L681.0,644.5 L682.2,644.9 L683.3,645.4 L684.4,645.8 L685.5,646.3
		L686.7,646.7 L687.8,647.1 L688.9,647.6 L690.0,648.0 L691.2,648.5 L692.3,648.9 L693.4,649.3 L694.5,649.8
		L695.7,650.2 L696.8,650.7 L697.9,651.1 L699.0,651.5 L700.2,651.9 L701.3,652.4 L702.4,652.8 L703.5,653.2
		L704.7,653.6 L705.8,654.1 L706.9,654.5 L708.0,654.9 L709.2,655.3 L710.3,655.7 L711.4,656.1 L712.5,656.5
		L713.7,656.9 L714.8,657.3 L715.9,657.7 L717.1,658.1 L718.2,658.5 L719.3,658.9 L720.4,659.3 L721.6,659.7
		L722.7,660.1 L723.8,660.5 L724.9,660.9 L726.1,661.3 L727.2,661.7 L728.3,662.0 L729.4,662.4 L730.6,662.8
		L731.7,663.2 L732.8,663.5 L733.9,663.9 L735.1,664.3 L736.2,664.6 L737.3,665.0 L738.4,665.4 L739.6,665.7
		L740.7,666.1 L741.8,666.4 L742.9,666.8 L744.1,667.1 L745.2,667.5 L746.3,667.8 L747.4,668.1 L748.6,668.5
		L749.7,668.8 L750.8,669.1 L751.9,669.5 L753.1,669.8 L754.2,670.1 L755.3,670.4 L756.4,670.7 L757.6,671.1
		L758.7,671.4 L759.8,671.7 L760.9,672.0 L762.1,672.3 L763.2,672.6 L764.3,672.9 L765.4,673.2 L766.6,673.5
		L767.7,673.7 L768.8,674.0 L769.9,674.3 L771.1,674.6 L772.2,674.9 L773.3,675.1 L774.4,675.4 L775.6,675.7
		L776.7,675.9 L777.8,676.2 L778.9,676.4 L780.1,676.7 L781.2,676.9 L782.3,677.2 L783.5,677.4 L784.6,677.6
		L785.7,677.9 L786.8,678.1 L788.0,678.3 L789.1,678.5 L790.2,678.7 L791.3,679.0 L792.5,679.2 L793.6,679.4
		L794.7,679.6 L795.8,679.8 L797.0,680.0 L798.1,680.1 L799.2,680.3 L800.3,680.5 L801.5,680.7 L802.6,680.8
		L803.7,681.0 L804.8,681.2 L806.0,681.3 L807.1,681.5 L808.2,681.6 L809.3,681.8 L810.5,681.9 L811.6,682.1
		L812.7,682.2 L813.8,682.3 L815.0,682.4 L816.1,682.6 L817.2,682.7 L818.3,682.8 L819.5,682.9 L820.6,683.0
		L821.7,683.1 L822.8,683.2 L824.0,683.3 L825.1,683.3 L826.2,683.4 L827.3,683.5 L828.5,683.6 L829.6,683.6
		L830.7,683.7 L831.8,683.7 L833.0,683.8 L834.1,683.8 L835.2,683.9 L836.3,683.9 L837.5,683.9 L838.6,684.0
		L839.7,684.0 L840.8,684.0 L842.0,684.0 L843.1,684.0 L844.2,684.0 L845.3,684.0 L846.5,684.0 L847.6,684.0
		L848.7,684.0 L849.9,683.9 L851.0,683.9 L852.1,683.9 L853.2,683.8 L854.4,683.8 L855.5,683.7 L856.6,683.7
		L857.7,683.6 L858.9,683.6 L860.0,683.5 L861.1,683.4 L862.2,683.3 L863.4,683.2 L864.5,683.2 L865.6,683.1
		L866.7,683.0 L867.9,682.9 L869.0,682.8 L870.1,682.6 L871.2,682.5 L872.4,682.4 L873.5,682.3 L874.6,682.1
		L875.7,682.0 L876.9,681.9 L878.0,681.7 L879.1,681.6 L880.2,681.4 L881.4,681.2 L882.5,681.1 L883.6,680.9
		L884.7,680.7 L885.9,680.6 L887.0,680.4 L888.1,680.2 L889.2,680.0 L890.4,679.8 L891.5,679.6 L892.6,679.4
		L893.7,679.2 L894.9,679.0 L896.0,678.7 L897.1,678.5 L898.2,678.3 L899.4,678.1 L900.5,677.8 L901.6,677.6
		L902.7,677.3 L903.9,677.1 L905.0,676.8 L906.1,676.6 L907.2,676.3 L908.4,676.1 L909.5,675.8 L910.6,675.5
		L911.7,675.2 L912.9,675.0 L914.0,674.7 L915.1,674.4 L916.2,674.1 L917.4,673.8 L918.5,673.5 L919.6,673.2
		L920.8,672.9 L921.9,672.6 L923.0,672.3 L924.1,671.9 L925.3,671.6 L926.4,671.3 L927.5,671.0 L928.6,670.6
		L929.8,670.3 L930.9,670.0 L932.0,669.6 L933.1,669.3 L934.3,668.9 L935.4,668.6 L936.5,668.2 L937.6,667.9
		L938.8,667.5 L939.9,667.2 L941.0,666.8 L942.1,666.4 L943.3,666.1 L944.4,665.7 L945.5,665.3 L946.6,664.9
		L947.8,664.6 L948.9,664.2 L950.0,663.8 L951.1,663.4 L952.3,663.0 L953.4,662.6 L954.5,662.2 L955.6,661.8
		L956.8,661.4 L957.9,661.0 L959.0,660.6 L960.1,660.2 L961.3,659.8 L962.4,659.4 L963.5,659.0 L964.6,658.6
		L965.8,658.2 L966.9,657.8 L968.0,657.4 L969.1,656.9 L970.3,656.5 L971.4,656.1 L972.5,655.7 L973.6,655.2
		L974.8,654.8 L975.9,654.4 L977.0,654.0 L978.1,653.5 L979.3,653.1 L980.4,652.7 L981.5,652.2 L982.6,651.8
		L983.8,651.4 L984.9,650.9 L986.0,650.5 L987.2,650.0 L988.3,649.6 L989.4,649.2 L990.5,648.7 L991.7,648.3
		L992.8,647.8 L993.9,647.4 L995.0,646.9 L996.2,646.5 L997.3,646.0 L998.4,645.6 L999.5,645.1 L1000.7,644.7
		L1001.8,644.2 L1002.9,643.8 L1004.0,643.3 L1005.2,642.9 L1006.3,642.4 L1007.4,642.0 L1008.5,641.5 L1009.7,641.1
		L1010.8,640.6 L1011.9,640.2 L1013.0,639.7 L1014.2,639.3 L1015.3,638.8 L1016.4,638.4 L1017.5,637.9 L1018.7,637.5
		L1019.8,637.0 L1020.9,636.6 L1022.0,636.1 L1023.2,635.7 L1024.3,635.2 L1025.4,634.8 L1026.5,634.3 L1027.7,633.9
		L1028.8,633.4 L1029.9,633.0 L1031.0,632.5 L1032.2,632.1 L1033.3,631.6 L1034.4,631.2 L1035.5,630.7 L1036.7,630.3
		L1037.8,629.8 L1038.9,629.4 L1040.0,628.9 L1041.2,628.5 L1042.3,628.0 L1043.4,627.6 L1044.5,627.2 L1045.7,626.7
		L1046.8,626.3 L1047.9,625.8 L1049.0,625.4 L1050.2,625.0 L1051.3,624.5 L1052.4,624.1 L1053.6,623.6 L1054.7,623.2
		L1055.8,622.8 L1056.9,622.3 L1058.1,621.9 L1059.2,621.5 L1060.3,621.1 L1061.4,620.6 L1062.6,620.2 L1063.7,619.8
		L1064.8,619.4 L1065.9,618.9 L1067.1,618.5 L1068.2,618.1 L1069.3,617.7 L1070.4,617.2 L1071.6,616.8 L1072.7,616.4
		L1073.8,616.0 L1074.9,615.6 L1076.1,615.2 L1077.2,614.8 L1078.3,614.4 L1079.4,614.0 L1080.6,613.6 L1081.7,613.2
		L1082.8,612.8 L1083.9,612.4 L1085.1,612.0 L1086.2,611.6 L1087.3,611.2 L1088.4,610.8 L1089.6,610.4 L1090.7,610.0
		L1091.8,609.6 L1092.9,609.2 L1094.1,608.8 L1095.2,608.4 L1096.3,608.1 L1097.4,607.7 L1098.6,607.3 L1099.7,606.9
		L1100.8,606.6 L1101.9,606.2 L1103.1,605.8 L1104.2,605.5 L1105.3,605.1 L1106.4,604.7 L1107.6,604.4 L1108.7,604.0
		L1109.8,603.6 L1110.9,603.3 L1112.1,602.9 L1113.2,602.6 L1114.3,602.2 L1115.4,601.9 L1116.6,601.5 L1117.7,601.2
		L1118.8,600.9 L1120.0,600.5 L1121.1,600.2 L1122.2,599.9 L1123.3,599.5 L1124.5,599.2 L1125.6,598.9 L1126.7,598.5
		L1127.8,598.2 L1129.0,597.9 L1130.1,597.6 L1131.2,597.3 L1132.3,597.0 L1133.5,596.6 L1134.6,596.3 L1135.7,596.0
		L1136.8,595.7 L1138.0,595.4 L1139.1,595.1 L1140.2,594.8 L1141.3,594.5 L1142.5,594.2 L1143.6,594.0 L1144.7,593.7
		L1145.8,593.4 L1147.0,593.1 L1148.1,592.8 L1149.2,592.5 L1150.3,592.3 L1151.5,592.0 L1152.6,591.7 L1153.7,591.5
		L1154.8,591.2 L1156.0,590.9 L1157.1,590.7 L1158.2,590.4 L1159.3,590.2 L1160.5,589.9 L1161.6,589.7 L1162.7,589.4
		L1163.8,589.2 L1165.0,589.0 L1166.1,588.7 L1167.2,588.5 L1168.3,588.2 L1169.5,588.0 L1170.6,587.8 L1171.7,587.6
		L1172.8,587.4 L1174.0,587.1 L1175.1,586.9 L1176.2,586.7 L1177.3,586.5 L1178.5,586.3 L1179.6,586.1 L1180.7,585.9
		L1181.8,585.7 L1183.0,585.5 L1184.1,585.3 L1185.2,585.1 L1186.3,584.9 L1187.5,584.7 L1188.6,584.6 L1189.7,584.4
		L1190.9,584.2 L1192.0,584.0 L1193.1,583.9 L1194.2,583.7 L1195.4,583.5 L1196.5,583.4 L1197.6,583.2 L1198.7,583.1
		L1199.9,582.9 L1201.0,582.8 L1202.1,582.6 L1203.2,582.5 L1204.4,582.3 L1205.5,582.2 L1206.6,582.1 L1207.7,581.9
		L1208.9,581.8 L1210.0,581.7 L1211.1,581.6 L1212.2,581.4 L1213.4,581.3 L1214.5,581.2 L1215.6,581.1 L1216.7,581.0
		L1217.9,580.9 L1219.0,580.8 L1220.1,580.7 L1221.2,580.6 L1222.4,580.5 L1223.5,580.4 L1224.6,580.3 L1225.7,580.3
		L1226.9,580.2 L1228.0,580.1 L1229.1,580.0 L1230.2,580.0 L1231.4,579.9 L1232.5,579.8 L1233.6,579.8 L1234.7,579.7
		L1235.9,579.7 L1237.0,579.6 L1238.1,579.6 L1239.2,579.5 L1240.4,579.5 L1241.5,579.4 L1242.6,579.4 L1243.7,579.4
		L1244.9,579.3 L1246.0,579.3 L1247.1,579.3 L1248.2,579.3 L1249.4,579.2 L1250.5,579.2 L1251.6,579.2 L1252.7,579.2
		L1253.9,579.2 L1255.0,579.2  '/></g>
	</g>
	<g id="gnuplot_plot_5" ><title>gnuplot_plot_5</title>
<g fill="none" color="black" stroke="currentColor" stroke-width="1.00" stroke-linecap="butt" stroke-linejoin="miter">
	<path stroke='rgb(  0, 100,   0)'  d='M103.7,103.9 L104.8,104.2 L106.0,105.4 L107.1,107.2 L108.2,109.7 L109.3,112.8 L110.5,116.5 L111.6,120.7
		L112.7,125.2 L113.8,130.1 L115.0,135.2 L116.1,140.4 L117.2,145.8 L118.3,151.3 L119.5,156.8 L120.6,162.2
		L121.7,167.5 L122.8,172.8 L124.0,178.0 L125.1,183.0 L126.2,187.8 L127.3,192.5 L128.5,197.1 L129.6,201.5
		L130.7,205.7 L131.8,209.7 L133.0,213.6 L134.1,217.3 L135.2,220.9 L136.3,224.3 L137.5,227.6 L138.6,230.7
		L139.7,233.7 L140.8,236.6 L142.0,239.3 L143.1,242.0 L144.2,244.6 L145.3,247.0 L146.5,249.4 L147.6,251.7
		L148.7,253.9 L149.8,256.0 L151.0,258.1 L152.1,260.1 L153.2,262.1 L154.3,264.0 L155.5,265.8 L156.6,267.6
		L157.7,269.4 L158.8,271.1 L160.0,272.7 L161.1,274.4 L162.2,276.0 L163.3,277.6 L164.5,279.1 L165.6,280.7
		L166.7,282.2 L167.8,283.7 L169.0,285.1 L170.1,286.6 L171.2,288.0 L172.4,289.4 L173.5,290.8 L174.6,292.2
		L175.7,293.6 L176.9,295.0 L178.0,296.3 L179.1,297.7 L180.2,299.0 L181.4,300.3 L182.5,301.6 L183.6,303.0
		L184.7,304.3 L185.9,305.5 L187.0,306.8 L188.1,308.1 L189.2,309.4 L190.4,310.7 L191.5,311.9 L192.6,313.2
		L193.7,314.5 L194.9,315.7 L196.0,317.0 L197.1,318.2 L198.2,319.5 L199.4,320.7 L200.5,321.9 L201.6,323.2
		L202.7,324.4 L203.9,325.6 L205.0,326.8 L206.1,328.1 L207.2,329.3 L208.4,330.5 L209.5,331.7 L210.6,332.9
		L211.7,334.1 L212.9,335.3 L214.0,336.5 L215.1,337.7 L216.2,338.9 L217.4,340.1 L218.5,341.3 L219.6,342.5
		L220.7,343.7 L221.9,344.9 L223.0,346.0 L224.1,347.2 L225.2,348.4 L226.4,349.6 L227.5,350.7 L228.6,351.9
		L229.7,353.1 L230.9,354.2 L232.0,355.4 L233.1,356.5 L234.2,357.7 L235.4,358.9 L236.5,360.0 L237.6,361.1
		L238.7,362.3 L239.9,363.4 L241.0,364.6 L242.1,365.7 L243.3,366.8 L244.4,368.0 L245.5,369.1 L246.6,370.2
		L247.8,371.3 L248.9,372.5 L250.0,373.6 L251.1,374.7 L252.3,375.8 L253.4,376.9 L254.5,378.0 L255.6,379.1
		L256.8,380.2 L257.9,381.3 L259.0,382.4 L260.1,383.5 L261.3,384.6 L262.4,385.7 L263.5,386.8 L264.6,387.8
		L265.8,388.9 L266.9,390.0 L268.0,391.1 L269.1,392.1 L270.3,393.2 L271.4,394.3 L272.5,395.3 L273.6,396.4
		L274.8,397.4 L275.9,398.5 L277.0,399.5 L278.1,400.6 L279.3,401.6 L280.4,402.7 L281.5,403.7 L282.6,404.7
		L283.8,405.8 L284.9,406.8 L286.0,407.8 L287.1,408.8 L288.3,409.9 L289.4,410.9 L290.5,411.9 L291.6,412.9
		L292.8,413.9 L293.9,414.9 L295.0,415.9 L296.1,416.9 L297.3,417.9 L298.4,418.9 L299.5,419.9 L300.6,420.9
		L301.8,421.8 L302.9,422.8 L304.0,423.8 L305.1,424.8 L306.3,425.7 L307.4,426.7 L308.5,427.7 L309.7,428.6
		L310.8,429.6 L311.9,430.6 L313.0,431.5 L314.2,432.5 L315.3,433.4 L316.4,434.4 L317.5,435.3 L318.7,436.2
		L319.8,437.2 L320.9,438.1 L322.0,439.0 L323.2,440.0 L324.3,440.9 L325.4,441.8 L326.5,442.7 L327.7,443.7
		L328.8,444.6 L329.9,445.5 L331.0,446.4 L332.2,447.3 L333.3,448.2 L334.4,449.1 L335.5,450.0 L336.7,450.9
		L337.8,451.8 L338.9,452.7 L340.0,453.6 L341.2,454.5 L342.3,455.4 L343.4,456.2 L344.5,457.1 L345.7,458.0
		L346.8,458.9 L347.9,459.7 L349.0,460.6 L350.2,461.5 L351.3,462.3 L352.4,463.2 L353.5,464.0 L354.7,464.9
		L355.8,465.8 L356.9,466.6 L358.0,467.5 L359.2,468.3 L360.3,469.1 L361.4,470.0 L362.5,470.8 L363.7,471.7
		L364.8,472.5 L365.9,473.3 L367.0,474.1 L368.2,475.0 L369.3,475.8 L370.4,476.6 L371.5,477.4 L372.7,478.3
		L373.8,479.1 L374.9,479.9 L376.1,480.7 L377.2,481.5 L378.3,482.3 L379.4,483.1 L380.6,483.9 L381.7,484.7
		L382.8,485.5 L383.9,486.3 L385.1,487.1 L386.2,487.9 L387.3,488.7 L388.4,489.5 L389.6,490.2 L390.7,491.0
		L391.8,491.8 L392.9,492.6 L394.1,493.4 L395.2,494.1 L396.3,494.9 L397.4,495.7 L398.6,496.4 L399.7,497.2
		L400.8,498.0 L401.9,498.7 L403.1,499.5 L404.2,500.2 L405.3,501.0 L406.4,501.8 L407.6,502.5 L408.7,503.3
		L409.8,504.0 L410.9,504.7 L412.1,505.5 L413.2,506.2 L414.3,507.0 L415.4,507.7 L416.6,508.4 L417.7,509.2
		L418.8,509.9 L419.9,510.6 L421.1,511.4 L422.2,512.1 L423.3,512.8 L424.4,513.5 L425.6,514.3 L426.7,515.0
		L427.8,515.7 L428.9,516.4 L430.1,517.1 L431.2,517.8 L432.3,518.6 L433.4,519.3 L434.6,520.0 L435.7,520.7
		L436.8,521.4 L437.9,522.1 L439.1,522.8 L440.2,523.5 L441.3,524.2 L442.5,524.9 L443.6,525.6 L444.7,526.3
		L445.8,526.9 L447.0,527.6 L448.1,528.3 L449.2,529.0 L450.3,529.7 L451.5,530.4 L452.6,531.0 L453.7,531.7
		L454.8,532.4 L456.0,533.1 L457.1,533.8 L458.2,534.4 L459.3,535.1 L460.5,535.8 L461.6,536.4 L462.7,537.1
		L463.8,537.8 L465.0,538.4 L466.1,539.1 L467.2,539.8 L468.3,540.4 L469.5,541.1 L470.6,541.7 L471.7,542.4
		L472.8,543.0 L474.0,543.7 L475.1,544.3 L476.2,545.0 L477.3,545.6 L478.5,546.3 L479.6,546.9 L480.7,547.6
		L481.8,548.2 L483.0,548.8 L484.1,549.5 L485.2,550.1 L486.3,550.8 L487.5,551.4 L488.6,552.0 L489.7,552.7
		L490.8,553.3 L492.0,553.9 L493.1,554.6 L494.2,555.2 L495.3,555.8 L496.5,556.4 L497.6,557.1 L498.7,557.7
		L499.8,558.3 L501.0,558.9 L502.1,559.5 L503.2,560.2 L504.3,560.8 L505.5,561.4 L506.6,562.0 L507.7,562.6
		L508.8,563.2 L510.0,563.8 L511.1,564.4 L512.2,565.0 L513.4,565.7 L514.5,566.3 L515.6,566.9 L516.7,567.5
		L517.9,568.1 L519.0,568.7 L520.1,569.3 L521.2,569.9 L522.4,570.5 L523.5,571.1 L524.6,571.7 L525.7,572.2
		L526.9,572.8 L528.0,573.4 L529.1,574.0 L530.2,574.6 L531.4,575.2 L532.5,575.8 L533.6,576.4 L534.7,577.0
		L535.9,577.5 L537.0,578.1 L538.1,578.7 L539.2,579.3 L540.4,579.9 L541.5,580.4 L542.6,581.0 L543.7,581.6
		L544.9,582.2 L546.0,582.7 L547.1,583.3 L548.2,583.9 L549.4,584.5 L550.5,585.0 L551.6,585.6 L552.7,586.2
		L553.9,586.7 L555.0,587.3 L556.1,587.9 L557.2,588.4 L558.4,589.0 L559.5,589.6 L560.6,590.1 L561.7,590.7
		L562.9,591.2 L564.0,591.8 L565.1,592.3 L566.2,592.9 L567.4,593.5 L568.5,594.0 L569.6,594.6 L570.7,595.1
		L571.9,595.7 L573.0,596.2 L574.1,596.8 L575.2,597.3 L576.4,597.9 L577.5,598.4 L578.6,599.0 L579.8,599.5
		L580.9,600.0 L582.0,600.6 L583.1,601.1 L584.3,601.7 L585.4,602.2 L586.5,602.7 L587.6,603.3 L588.8,603.8
		L589.9,604.4 L591.0,604.9 L592.1,605.4 L593.3,606.0 L594.4,606.5 L595.5,607.0 L596.6,607.6 L597.8,608.1
		L598.9,608.6 L600.0,609.1 L601.1,609.7 L602.3,610.2 L603.4,610.7 L604.5,611.2 L605.6,611.8 L606.8,612.3
		L607.9,612.8 L609.0,613.3 L610.1,613.8 L611.3,614.4 L612.4,614.9 L613.5,615.4 L614.6,615.9 L615.8,616.4
		L616.9,616.9 L618.0,617.4 L619.1,618.0 L620.3,618.5 L621.4,619.0 L622.5,619.5 L623.6,620.0 L624.8,620.5
		L625.9,621.0 L627.0,621.5 L628.1,622.0 L629.3,622.5 L630.4,623.0 L631.5,623.5 L632.6,624.0 L633.8,624.5
		L634.9,625.0 L636.0,625.5 L637.1,626.0 L638.3,626.5 L639.4,627.0 L640.5,627.5 L641.6,628.0 L642.8,628.5
		L643.9,628.9 L645.0,629.4 L646.2,629.9 L647.3,630.4 L648.4,630.9 L649.5,631.4 L650.7,631.8 L651.8,632.3
		L652.9,632.8 L654.0,633.3 L655.2,633.8 L656.3,634.2 L657.4,634.7 L658.5,635.2 L659.7,635.7 L660.8,636.1
		L661.9,636.6 L663.0,637.1 L664.2,637.5 L665.3,638.0 L666.4,638.5 L667.5,638.9 L668.7,639.4 L669.8,639.9
		L670.9,640.3 L672.0,640.8 L673.2,641.2 L674.3,641.7 L675.4,642.1 L676.5,642.6 L677.7,643.1 L678.8,643.5
		L679.9,643.9 L681.0,644.4 L682.2,644.8 L683.3,645.3 L684.4,645.7 L685.5,646.2 L686.7,646.6 L687.8,647.1
		L688.9,647.5 L690.0,647.9 L691.2,648.4 L692.3,648.8 L693.4,649.2 L694.5,649.7 L695.7,650.1 L696.8,650.5
		L697.9,650.9 L699.0,651.4 L700.2,651.8 L701.3,652.2 L702.4,652.6 L703.5,653.0 L704.7,653.4 L705.8,653.9
		L706.9,654.3 L708.0,654.7 L709.2,655.1 L710.3,655.5 L711.4,655.9 L712.5,656.3 L713.7,656.7 L714.8,657.1
		L715.9,657.5 L717.1,657.9 L718.2,658.3 L719.3,658.7 L720.4,659.1 L721.6,659.4 L722.7,659.8 L723.8,660.2
		L724.9,660.6 L726.1,661.0 L727.2,661.3 L728.3,661.7 L729.4,662.1 L730.6,662.4 L731.7,662.8 L732.8,663.2
		L733.9,663.5 L735.1,663.9 L736.2,664.3 L737.3,664.6 L738.4,665.0 L739.6,665.3 L740.7,665.7 L741.8,666.0
		L742.9,666.3 L744.1,666.7 L745.2,667.0 L746.3,667.3 L747.4,667.7 L748.6,668.0 L749.7,668.3 L750.8,668.6
		L751.9,669.0 L753.1,669.3 L754.2,669.6 L755.3,669.9 L756.4,670.2 L757.6,670.5 L758.7,670.8 L759.8,671.1
		L760.9,671.4 L762.1,671.7 L763.2,672.0 L764.3,672.3 L765.4,672.6 L766.6,672.9 L767.7,673.1 L768.8,673.4
		L769.9,673.7 L771.1,673.9 L772.2,674.2 L773.3,674.5 L774.4,674.7 L775.6,675.0 L776.7,675.2 L777.8,675.5
		L778.9,675.7 L780.1,676.0 L781.2,676.2 L782.3,676.4 L783.5,676.6 L784.6,676.9 L785.7,677.1 L786.8,677.3
		L788.0,677.5 L789.1,677.7 L790.2,677.9 L791.3,678.1 L792.5,678.3 L793.6,678.5 L794.7,678.7 L795.8,678.9
		L797.0,679.1 L798.1,679.3 L799.2,679.4 L800.3,679.6 L801.5,679.8 L802.6,679.9 L803.7,680.1 L804.8,680.2
		L806.0,680.4 L807.1,680.5 L808.2,680.7 L809.3,680.8 L810.5,680.9 L811.6,681.1 L812.7,681.2 L813.8,681.3
		L815.0,681.4 L816.1,681.5 L817.2,681.6 L818.3,681.7 L819.5,681.8 L820.6,681.9 L821.7,682.0 L822.8,682.1
		L824.0,682.2 L825.1,682.3 L826.2,682.3 L827.3,682.4 L828.5,682.4 L829.6,682.5 L830.7,682.5 L831.8,682.6
		L833.0,682.6 L834.1,682.7 L835.2,682.7 L836.3,682.7 L837.5,682.7 L838.6,682.8 L839.7,682.8 L840.8,682.8
		L842.0,682.8 L843.1,682.8 L844.2,682.8 L845.3,682.8 L846.5,682.7 L847.6,682.7 L848.7,682.7 L849.9,682.7
		L851.0,682.6 L852.1,682.6 L853.2,682.5 L854.4,682.5 L855.5,682.4 L856.6,682.4 L857.7,682.3 L858.9,682.2
		L860.0,682.1 L861.1,682.1 L862.2,682.0 L863.4,681.9 L864.5,681.8 L865.6,681.7 L866.7,681.6 L867.9,681.5
		L869.0,681.4 L870.1,681.2 L871.2,681.1 L872.4,681.0 L873.5,680.9 L874.6,680.7 L875.7,680.6 L876.9,680.4
		L878.0,680.3 L879.1,680.1 L880.2,680.0 L881.4,679.8 L882.5,679.6 L883.6,679.5 L884.7,679.3 L885.9,679.1
		L887.0,678.9 L888.1,678.7 L889.2,678.5 L890.4,678.3 L891.5,678.1 L892.6,677.9 L893.7,677.7 L894.9,677.5
		L896.0,677.2 L897.1,677.0 L898.2,676.8 L899.4,676.5 L900.5,676.3 L901.6,676.1 L902.7,675.8 L903.9,675.6
		L905.0,675.3 L906.1,675.0 L907.2,674.8 L908.4,674.5 L909.5,674.2 L910.6,674.0 L911.7,673.7 L912.9,673.4
		L914.0,673.1 L915.1,672.8 L916.2,672.5 L917.4,672.2 L918.5,671.9 L919.6,671.6 L920.8,671.3 L921.9,671.0
		L923.0,670.7 L924.1,670.4 L925.3,670.0 L926.4,669.7 L927.5,669.4 L928.6,669.1 L929.8,668.7 L930.9,668.4
		L932.0,668.0 L933.1,667.7 L934.3,667.4 L935.4,667.0 L936.5,666.7 L937.6,666.3 L938.8,665.9 L939.9,665.6
		L941.0,665.2 L942.1,664.9 L943.3,664.5 L944.4,664.1 L945.5,663.7 L946.6,663.4 L947.8,663.0 L948.9,662.6
		L950.0,662.2 L951.1,661.8 L952.3,661.4 L953.4,661.0 L954.5,660.7 L955.6,660.3 L956.8,659.9 L957.9,659.5
		L959.0,659.1 L960.1,658.7 L961.3,658.3 L962.4,657.8 L963.5,657.4 L964.6,657.0 L965.8,656.6 L966.9,656.2
		L968.0,655.8 L969.1,655.4 L970.3,654.9 L971.4,654.5 L972.5,654.1 L973.6,653.7 L974.8,653.3 L975.9,652.8
		L977.0,652.4 L978.1,652.0 L979.3,651.5 L980.4,651.1 L981.5,650.7 L982.6,650.2 L983.8,649.8 L984.9,649.4
		L986.0,648.9 L987.2,648.5 L988.3,648.1 L989.4,647.6 L990.5,647.2 L991.7,646.7 L992.8,646.3 L993.9,645.9
		L995.0,645.4 L996.2,645.0 L997.3,644.5 L998.4,644.1 L999.5,643.6 L1000.7,643.2 L1001.8,642.7 L1002.9,642.3
		L1004.0,641.8 L1005.2,641.4 L1006.3,641.0 L1007.4,640.5 L1008.5,640.1 L1009.7,639.6 L1010.8,639.2 L1011.9,638.7
		L1013.0,638.3 L1014.2,637.8 L1015.3,637.4 L1016.4,636.9 L1017.5,636.5 L1018.7,636.0 L1019.8,635.6 L1020.9,635.1
		L1022.0,634.7 L1023.2,634.2 L1024.3,633.8 L1025.4,633.3 L1026.5,632.9 L1027.7,632.4 L1028.8,632.0 L1029.9,631.5
		L1031.0,631.1 L1032.2,630.6 L1033.3,630.2 L1034.4,629.7 L1035.5,629.3 L1036.7,628.9 L1037.8,628.4 L1038.9,628.0
		L1040.0,627.5 L1041.2,627.1 L1042.3,626.6 L1043.4,626.2 L1044.5,625.8 L1045.7,625.3 L1046.8,624.9 L1047.9,624.5
		L1049.0,624.0 L1050.2,623.6 L1051.3,623.1 L1052.4,622.7 L1053.6,622.3 L1054.7,621.8 L1055.8,621.4 L1056.9,621.0
		L1058.1,620.6 L1059.2,620.1 L1060.3,619.7 L1061.4,619.3 L1062.6,618.9 L1063.7,618.4 L1064.8,618.0 L1065.9,617.6
		L1067.1,617.2 L1068.2,616.8 L1069.3,616.3 L1070.4,615.9 L1071.6,615.5 L1072.7,615.1 L1073.8,614.7 L1074.9,614.3
		L1076.1,613.9 L1077.2,613.5 L1078.3,613.1 L1079.4,612.7 L1080.6,612.3 L1081.7,611.9 L1082.8,611.5 L1083.9,611.1
		L1085.1,610.7 L1086.2,610.3 L1087.3,609.9 L1088.4,609.5 L1089.6,609.1 L1090.7,608.7 L1091.8,608.3 L1092.9,608.0
		L1094.1,607.6 L1095.2,607.2 L1096.3,606.8 L1097.4,606.4 L1098.6,606.1 L1099.7,605.7 L1100.8,605.3 L1101.9,605.0
		L1103.1,604.6 L1104.2,604.2 L1105.3,603.9 L1106.4,603.5 L1107.6,603.1 L1108.7,602.8 L1109.8,602.4 L1110.9,602.1
		L1112.1,601.7 L1113.2,601.4 L1114.3,601.0 L1115.4,600.7 L1116.6,600.3 L1117.7,600.0 L1118.8,599.7 L1120.0,599.3
		L1121.1,599.0 L1122.2,598.7 L1123.3,598.3 L1124.5,598.0 L1125.6,597.7 L1126.7,597.4 L1127.8,597.0 L1129.0,596.7
		L1130.1,596.4 L1131.2,596.1 L1132.3,595.8 L1133.5,595.5 L1134.6,595.2 L1135.7,594.9 L1136.8,594.6 L1138.0,594.3
		L1139.1,594.0 L1140.2,593.7 L1141.3,593.4 L1142.5,593.1 L1143.6,592.8 L1144.7,592.5 L1145.8,592.2 L1147.0,592.0
		L1148.1,591.7 L1149.2,591.4 L1150.3,591.1 L1151.5,590.9 L1152.6,590.6 L1153.7,590.3 L1154.8,590.1 L1156.0,589.8
		L1157.1,589.5 L1158.2,589.3 L1159.3,589.0 L1160.5,588.8 L1161.6,588.5 L1162.7,588.3 L1163.8,588.1 L1165.0,587.8
		L1166.1,587.6 L1167.2,587.4 L1168.3,587.1 L1169.5,586.9 L1170.6,586.7 L1171.7,586.5 L1172.8,586.2 L1174.0,586.0
		L1175.1,585.8 L1176.2,585.6 L1177.3,585.4 L1178.5,585.2 L1179.6,585.0 L1180.7,584.8 L1181.8,584.6 L1183.0,584.4
		L1184.1,584.2 L1185.2,584.0 L1186.3,583.8 L1187.5,583.6 L1188.6,583.5 L1189.7,583.3 L1190.9,583.1 L1192.0,582.9
		L1193.1,582.8 L1194.2,582.6 L1195.4,582.4 L1196.5,582.3 L1197.6,582.1 L1198.7,582.0 L1199.9,581.8 L1201.0,581.7
		L1202.1,581.5 L1203.2,581.4 L1204.4,581.3 L1205.5,581.1 L1206.6,581.0 L1207.7,580.9 L1208.9,580.7 L1210.0,580.6
		L1211.1,580.5 L1212.2,580.4 L1213.4,580.2 L1214.5,580.1 L1215.6,580.0 L1216.7,579.9 L1217.9,579.8 L1219.0,579.7
		L1220.1,579.6 L1221.2,579.5 L1222.4,579.4 L1223.5,579.3 L1224.6,579.3 L1225.7,579.2 L1226.9,579.1 L1228.0,579.0
		L1229.1,579.0 L1230.2,578.9 L1231.4,578.8 L1232.5,578.8 L1233.6,578.7 L1234.7,578.6 L1235.9,578.6 L1237.0,578.5
		L1238.1,578.5 L1239.2,578.4 L1240.4,578.4 L1241.5,578.4 L1242.6,578.3 L1243.7,578.3 L1244.9,578.3 L1246.0,578.2
		L1247.1,578.2 L1248.2,578.2 L1249.4,578.2 L1250.5,578.2 L1251.6,578.2 L1252.7,578.1 L1253.9,578.1 L1255.0,578.1
		 '/></g>
	</g>
	<g id="gnuplot_plot_6" ><title>gnuplot_plot_6</title>
<g fill="none" color="black" stroke="currentColor" stroke-width="1.00" stroke-linecap="butt" stroke-linejoin="miter">
	<path stroke='rgb(  0,   0, 255)'  d='M103.7,82.0 L104.8,82.4 L106.0,83.6 L107.1,85.5 L108.2,88.1 L109.3,91.3 L110.5,95.1 L111.6,99.4
		L112.7,104.1 L113.8,109.2 L115.0,114.5 L116.1,120.0 L117.2,125.7 L118.3,131.4 L119.5,137.2 L120.6,142.9
		L121.7,148.6 L122.8,154.2 L124.0,159.7 L125.1,165.1 L126.2,170.4 L127.3,175.5 L128.5,180.5 L129.6,185.2
		L130.7,189.9 L131.8,194.3 L133.0,198.6 L134.1,202.7 L135.2,206.7 L136.3,210.5 L137.5,214.2 L138.6,217.7
		L139.7,221.1 L140.8,224.3 L142.0,227.4 L143.1,230.4 L144.2,233.3 L145.3,236.1 L146.5,238.8 L147.6,241.4
		L148.7,243.9 L149.8,246.3 L151.0,248.7 L152.1,250.9 L153.2,253.1 L154.3,255.3 L155.5,257.3 L156.6,259.4
		L157.7,261.3 L158.8,263.3 L160.0,265.1 L161.1,267.0 L162.2,268.8 L163.3,270.5 L164.5,272.2 L165.6,273.9
		L166.7,275.6 L167.8,277.2 L169.0,278.8 L170.1,280.4 L171.2,281.9 L172.4,283.5 L173.5,285.0 L174.6,286.5
		L175.7,288.0 L176.9,289.4 L178.0,290.9 L179.1,292.3 L180.2,293.8 L181.4,295.2 L182.5,296.6 L183.6,298.0
		L184.7,299.3 L185.9,300.7 L187.0,302.1 L188.1,303.4 L189.2,304.8 L190.4,306.1 L191.5,307.4 L192.6,308.7
		L193.7,310.1 L194.9,311.4 L196.0,312.7 L197.1,314.0 L198.2,315.3 L199.4,316.5 L200.5,317.8 L201.6,319.1
		L202.7,320.4 L203.9,321.6 L205.0,322.9 L206.1,324.2 L207.2,325.4 L208.4,326.7 L209.5,327.9 L210.6,329.2
		L211.7,330.4 L212.9,331.6 L214.0,332.9 L215.1,334.1 L216.2,335.3 L217.4,336.5 L218.5,337.7 L219.6,339.0
		L220.7,340.2 L221.9,341.4 L223.0,342.6 L224.1,343.8 L225.2,345.0 L226.4,346.2 L227.5,347.4 L228.6,348.6
		L229.7,349.7 L230.9,350.9 L232.0,352.1 L233.1,353.3 L234.2,354.5 L235.4,355.6 L236.5,356.8 L237.6,358.0
		L238.7,359.1 L239.9,360.3 L241.0,361.4 L242.1,362.6 L243.3,363.7 L244.4,364.9 L245.5,366.0 L246.6,367.2
		L247.8,368.3 L248.9,369.4 L250.0,370.6 L251.1,371.7 L252.3,372.8 L253.4,373.9 L254.5,375.1 L255.6,376.2
		L256.8,377.3 L257.9,378.4 L259.0,379.5 L260.1,380.6 L261.3,381.7 L262.4,382.8 L263.5,383.9 L264.6,385.0
		L265.8,386.1 L266.9,387.2 L268.0,388.2 L269.1,389.3 L270.3,390.4 L271.4,391.5 L272.5,392.5 L273.6,393.6
		L274.8,394.7 L275.9,395.7 L277.0,396.8 L278.1,397.8 L279.3,398.9 L280.4,399.9 L281.5,401.0 L282.6,402.0
		L283.8,403.0 L284.9,404.1 L286.0,405.1 L287.1,406.1 L288.3,407.2 L289.4,408.2 L290.5,409.2 L291.6,410.2
		L292.8,411.2 L293.9,412.2 L295.0,413.3 L296.1,414.3 L297.3,415.3 L298.4,416.3 L299.5,417.3 L300.6,418.2
		L301.8,419.2 L302.9,420.2 L304.0,421.2 L305.1,422.2 L306.3,423.2 L307.4,424.1 L308.5,425.1 L309.7,426.1
		L310.8,427.0 L311.9,428.0 L313.0,429.0 L314.2,429.9 L315.3,430.9 L316.4,431.8 L317.5,432.8 L318.7,433.7
		L319.8,434.7 L320.9,435.6 L322.0,436.6 L323.2,437.5 L324.3,438.4 L325.4,439.3 L326.5,440.3 L327.7,441.2
		L328.8,442.1 L329.9,443.0 L331.0,444.0 L332.2,444.9 L333.3,445.8 L334.4,446.7 L335.5,447.6 L336.7,448.5
		L337.8,449.4 L338.9,450.3 L340.0,451.2 L341.2,452.1 L342.3,453.0 L343.4,453.8 L344.5,454.7 L345.7,455.6
		L346.8,456.5 L347.9,457.4 L349.0,458.2 L350.2,459.1 L351.3,460.0 L352.4,460.8 L353.5,461.7 L354.7,462.6
		L355.8,463.4 L356.9,464.3 L358.0,465.1 L359.2,466.0 L360.3,466.8 L361.4,467.7 L362.5,468.5 L363.7,469.4
		L364.8,470.2 L365.9,471.0 L367.0,471.9 L368.2,472.7 L369.3,473.5 L370.4,474.4 L371.5,475.2 L372.7,476.0
		L373.8,476.8 L374.9,477.6 L376.1,478.5 L377.2,479.3 L378.3,480.1 L379.4,480.9 L380.6,481.7 L381.7,482.5
		L382.8,483.3 L383.9,484.1 L385.1,484.9 L386.2,485.7 L387.3,486.5 L388.4,487.3 L389.6,488.1 L390.7,488.9
		L391.8,489.6 L392.9,490.4 L394.1,491.2 L395.2,492.0 L396.3,492.8 L397.4,493.5 L398.6,494.3 L399.7,495.1
		L400.8,495.9 L401.9,496.6 L403.1,497.4 L404.2,498.1 L405.3,498.9 L406.4,499.7 L407.6,500.4 L408.7,501.2
		L409.8,501.9 L410.9,502.7 L412.1,503.4 L413.2,504.2 L414.3,504.9 L415.4,505.7 L416.6,506.4 L417.7,507.1
		L418.8,507.9 L419.9,508.6 L421.1,509.4 L422.2,510.1 L423.3,510.8 L424.4,511.5 L425.6,512.3 L426.7,513.0
		L427.8,513.7 L428.9,514.4 L430.1,515.2 L431.2,515.9 L432.3,516.6 L433.4,517.3 L434.6,518.0 L435.7,518.7
		L436.8,519.4 L437.9,520.2 L439.1,520.9 L440.2,521.6 L441.3,522.3 L442.5,523.0 L443.6,523.7 L444.7,524.4
		L445.8,525.1 L447.0,525.8 L448.1,526.5 L449.2,527.1 L450.3,527.8 L451.5,528.5 L452.6,529.2 L453.7,529.9
		L454.8,530.6 L456.0,531.3 L457.1,531.9 L458.2,532.6 L459.3,533.3 L460.5,534.0 L461.6,534.7 L462.7,535.3
		L463.8,536.0 L465.0,536.7 L466.1,537.3 L467.2,538.0 L468.3,538.7 L469.5,539.3 L470.6,540.0 L471.7,540.7
		L472.8,541.3 L474.0,542.0 L475.1,542.6 L476.2,543.3 L477.3,543.9 L478.5,544.6 L479.6,545.3 L480.7,545.9
		L481.8,546.6 L483.0,547.2 L484.1,547.9 L485.2,548.5 L486.3,549.1 L487.5,549.8 L488.6,550.4 L489.7,551.1
		L490.8,551.7 L492.0,552.3 L493.1,553.0 L494.2,553.6 L495.3,554.3 L496.5,554.9 L497.6,555.5 L498.7,556.1
		L499.8,556.8 L501.0,557.4 L502.1,558.0 L503.2,558.7 L504.3,559.3 L505.5,559.9 L506.6,560.5 L507.7,561.1
		L508.8,561.8 L510.0,562.4 L511.1,563.0 L512.2,563.6 L513.4,564.2 L514.5,564.8 L515.6,565.5 L516.7,566.1
		L517.9,566.7 L519.0,567.3 L520.1,567.9 L521.2,568.5 L522.4,569.1 L523.5,569.7 L524.6,570.3 L525.7,570.9
		L526.9,571.5 L528.0,572.1 L529.1,572.7 L530.2,573.3 L531.4,573.9 L532.5,574.5 L533.6,575.1 L534.7,575.7
		L535.9,576.3 L537.0,576.9 L538.1,577.5 L539.2,578.1 L540.4,578.7 L541.5,579.3 L542.6,579.9 L543.7,580.4
		L544.9,581.0 L546.0,581.6 L547.1,582.2 L548.2,582.8 L549.4,583.4 L550.5,583.9 L551.6,584.5 L552.7,585.1
		L553.9,585.7 L555.0,586.3 L556.1,586.8 L557.2,587.4 L558.4,588.0 L559.5,588.5 L560.6,589.1 L561.7,589.7
		L562.9,590.3 L564.0,590.8 L565.1,591.4 L566.2,592.0 L567.4,592.5 L568.5,593.1 L569.6,593.7 L570.7,594.2
		L571.9,594.8 L573.0,595.4 L574.1,595.9 L575.2,596.5 L576.4,597.0 L577.5,597.6 L578.6,598.1 L579.8,598.7
		L580.9,599.3 L582.0,599.8 L583.1,600.4 L584.3,600.9 L585.4,601.5 L586.5,602.0 L587.6,602.6 L588.8,603.1
		L589.9,603.7 L591.0,604.2 L592.1,604.8 L593.3,605.3 L594.4,605.9 L595.5,606.4 L596.6,606.9 L597.8,607.5
		L598.9,608.0 L600.0,608.6 L601.1,609.1 L602.3,609.6 L603.4,610.2 L604.5,610.7 L605.6,611.3 L606.8,611.8
		L607.9,612.3 L609.0,612.9 L610.1,613.4 L611.3,613.9 L612.4,614.5 L613.5,615.0 L614.6,615.5 L615.8,616.0
		L616.9,616.6 L618.0,617.1 L619.1,617.6 L620.3,618.1 L621.4,618.7 L622.5,619.2 L623.6,619.7 L624.8,620.2
		L625.9,620.8 L627.0,621.3 L628.1,621.8 L629.3,622.3 L630.4,622.8 L631.5,623.3 L632.6,623.8 L633.8,624.4
		L634.9,624.9 L636.0,625.4 L637.1,625.9 L638.3,626.4 L639.4,626.9 L640.5,627.4 L641.6,627.9 L642.8,628.4
		L643.9,628.9 L645.0,629.4 L646.2,629.9 L647.3,630.4 L648.4,630.9 L649.5,631.4 L650.7,631.9 L651.8,632.4
		L652.9,632.9 L654.0,633.4 L655.2,633.9 L656.3,634.4 L657.4,634.9 L658.5,635.4 L659.7,635.9 L660.8,636.3
		L661.9,636.8 L663.0,637.3 L664.2,637.8 L665.3,638.3 L666.4,638.8 L667.5,639.2 L668.7,639.7 L669.8,640.2
		L670.9,640.7 L672.0,641.1 L673.2,641.6 L674.3,642.1 L675.4,642.6 L676.5,643.0 L677.7,643.5 L678.8,644.0
		L679.9,644.4 L681.0,644.9 L682.2,645.3 L683.3,645.8 L684.4,646.3 L685.5,646.7 L686.7,647.2 L687.8,647.6
		L688.9,648.1 L690.0,648.5 L691.2,649.0 L692.3,649.4 L693.4,649.9 L694.5,650.3 L695.7,650.8 L696.8,651.2
		L697.9,651.6 L699.0,652.1 L700.2,652.5 L701.3,652.9 L702.4,653.4 L703.5,653.8 L704.7,654.2 L705.8,654.7
		L706.9,655.1 L708.0,655.5 L709.2,655.9 L710.3,656.3 L711.4,656.8 L712.5,657.2 L713.7,657.6 L714.8,658.0
		L715.9,658.4 L717.1,658.8 L718.2,659.2 L719.3,659.6 L720.4,660.0 L721.6,660.4 L722.7,660.8 L723.8,661.2
		L724.9,661.6 L726.1,662.0 L727.2,662.4 L728.3,662.8 L729.4,663.1 L730.6,663.5 L731.7,663.9 L732.8,664.3
		L733.9,664.6 L735.1,665.0 L736.2,665.4 L737.3,665.7 L738.4,666.1 L739.6,666.5 L740.7,666.8 L741.8,667.2
		L742.9,667.5 L744.1,667.9 L745.2,668.2 L746.3,668.6 L747.4,668.9 L748.6,669.2 L749.7,669.6 L750.8,669.9
		L751.9,670.2 L753.1,670.5 L754.2,670.9 L755.3,671.2 L756.4,671.5 L757.6,671.8 L758.7,672.1 L759.8,672.4
		L760.9,672.7 L762.1,673.0 L763.2,673.3 L764.3,673.6 L765.4,673.9 L766.6,674.2 L767.7,674.4 L768.8,674.7
		L769.9,675.0 L771.1,675.3 L772.2,675.5 L773.3,675.8 L774.4,676.0 L775.6,676.3 L776.7,676.5 L777.8,676.8
		L778.9,677.0 L780.1,677.3 L781.2,677.5 L782.3,677.7 L783.5,678.0 L784.6,678.2 L785.7,678.4 L786.8,678.6
		L788.0,678.8 L789.1,679.0 L790.2,679.2 L791.3,679.4 L792.5,679.6 L793.6,679.8 L794.7,680.0 L795.8,680.2
		L797.0,680.3 L798.1,680.5 L799.2,680.7 L800.3,680.8 L801.5,681.0 L802.6,681.1 L803.7,681.3 L804.8,681.4
		L806.0,681.6 L807.1,681.7 L808.2,681.8 L809.3,681.9 L810.5,682.1 L811.6,682.2 L812.7,682.3 L813.8,682.4
		L815.0,682.5 L816.1,682.6 L817.2,682.7 L818.3,682.8 L819.5,682.8 L820.6,682.9 L821.7,683.0 L822.8,683.0
		L824.0,683.1 L825.1,683.2 L826.2,683.2 L827.3,683.2 L828.5,683.3 L829.6,683.3 L830.7,683.3 L831.8,683.4
		L833.0,683.4 L834.1,683.4 L835.2,683.4 L836.3,683.4 L837.5,683.4 L838.6,683.4 L839.7,683.4 L840.8,683.4
		L842.0,683.3 L843.1,683.3 L844.2,683.3 L845.3,683.2 L846.5,683.2 L847.6,683.1 L848.7,683.1 L849.9,683.0
		L851.0,682.9 L852.1,682.9 L853.2,682.8 L854.4,682.7 L855.5,682.6 L856.6,682.5 L857.7,682.4 L858.9,682.3
		L860.0,682.2 L861.1,682.1 L862.2,682.0 L863.4,681.9 L864.5,681.7 L865.6,681.6 L866.7,681.5 L867.9,681.3
		L869.0,681.2 L870.1,681.0 L871.2,680.9 L872.4,680.7 L873.5,680.5 L874.6,680.3 L875.7,680.2 L876.9,680.0
		L878.0,679.8 L879.1,679.6 L880.2,679.4 L881.4,679.2 L882.5,679.0 L883.6,678.8 L884.7,678.5 L885.9,678.3
		L887.0,678.1 L888.1,677.9 L889.2,677.6 L890.4,677.4 L891.5,677.1 L892.6,676.9 L893.7,676.6 L894.9,676.4
		L896.0,676.1 L897.1,675.8 L898.2,675.6 L899.4,675.3 L900.5,675.0 L901.6,674.7 L902.7,674.4 L903.9,674.1
		L905.0,673.8 L906.1,673.5 L907.2,673.2 L908.4,672.9 L909.5,672.6 L910.6,672.3 L911.7,672.0 L912.9,671.6
		L914.0,671.3 L915.1,671.0 L916.2,670.6 L917.4,670.3 L918.5,669.9 L919.6,669.6 L920.8,669.2 L921.9,668.9
		L923.0,668.5 L924.1,668.2 L925.3,667.8 L926.4,667.4 L927.5,667.1 L928.6,666.7 L929.8,666.3 L930.9,665.9
		L932.0,665.6 L933.1,665.2 L934.3,664.8 L935.4,664.4 L936.5,664.0 L937.6,663.6 L938.8,663.2 L939.9,662.8
		L941.0,662.4 L942.1,662.0 L943.3,661.6 L944.4,661.2 L945.5,660.8 L946.6,660.3 L947.8,659.9 L948.9,659.5
		L950.0,659.1 L951.1,658.6 L952.3,658.2 L953.4,657.8 L954.5,657.4 L955.6,656.9 L956.8,656.5 L957.9,656.0
		L959.0,655.6 L960.1,655.2 L961.3,654.7 L962.4,654.3 L963.5,653.8 L964.6,653.4 L965.8,652.9 L966.9,652.5
		L968.0,652.0 L969.1,651.6 L970.3,651.1 L971.4,650.7 L972.5,650.2 L973.6,649.7 L974.8,649.3 L975.9,648.8
		L977.0,648.3 L978.1,647.9 L979.3,647.4 L980.4,647.0 L981.5,646.5 L982.6,646.0 L983.8,645.5 L984.9,645.1
		L986.0,644.6 L987.2,644.1 L988.3,643.7 L989.4,643.2 L990.5,642.7 L991.7,642.2 L992.8,641.8 L993.9,641.3
		L995.0,640.8 L996.2,640.3 L997.3,639.9 L998.4,639.4 L999.5,638.9 L1000.7,638.4 L1001.8,638.0 L1002.9,637.5
		L1004.0,637.0 L1005.2,636.5 L1006.3,636.1 L1007.4,635.6 L1008.5,635.1 L1009.7,634.6 L1010.8,634.1 L1011.9,633.7
		L1013.0,633.2 L1014.2,632.7 L1015.3,632.2 L1016.4,631.8 L1017.5,631.3 L1018.7,630.8 L1019.8,630.3 L1020.9,629.9
		L1022.0,629.4 L1023.2,628.9 L1024.3,628.4 L1025.4,628.0 L1026.5,627.5 L1027.7,627.0 L1028.8,626.5 L1029.9,626.1
		L1031.0,625.6 L1032.2,625.1 L1033.3,624.7 L1034.4,624.2 L1035.5,623.7 L1036.7,623.3 L1037.8,622.8 L1038.9,622.3
		L1040.0,621.9 L1041.2,621.4 L1042.3,620.9 L1043.4,620.5 L1044.5,620.0 L1045.7,619.5 L1046.8,619.1 L1047.9,618.6
		L1049.0,618.2 L1050.2,617.7 L1051.3,617.3 L1052.4,616.8 L1053.6,616.4 L1054.7,615.9 L1055.8,615.5 L1056.9,615.0
		L1058.1,614.6 L1059.2,614.1 L1060.3,613.7 L1061.4,613.2 L1062.6,612.8 L1063.7,612.3 L1064.8,611.9 L1065.9,611.5
		L1067.1,611.0 L1068.2,610.6 L1069.3,610.2 L1070.4,609.7 L1071.6,609.3 L1072.7,608.9 L1073.8,608.4 L1074.9,608.0
		L1076.1,607.6 L1077.2,607.2 L1078.3,606.7 L1079.4,606.3 L1080.6,605.9 L1081.7,605.5 L1082.8,605.1 L1083.9,604.7
		L1085.1,604.3 L1086.2,603.9 L1087.3,603.4 L1088.4,603.0 L1089.6,602.6 L1090.7,602.2 L1091.8,601.8 L1092.9,601.4
		L1094.1,601.0 L1095.2,600.7 L1096.3,600.3 L1097.4,599.9 L1098.6,599.5 L1099.7,599.1 L1100.8,598.7 L1101.9,598.3
		L1103.1,598.0 L1104.2,597.6 L1105.3,597.2 L1106.4,596.8 L1107.6,596.5 L1108.7,596.1 L1109.8,595.7 L1110.9,595.4
		L1112.1,595.0 L1113.2,594.6 L1114.3,594.3 L1115.4,593.9 L1116.6,593.6 L1117.7,593.2 L1118.8,592.9 L1120.0,592.5
		L1121.1,592.2 L1122.2,591.8 L1123.3,591.5 L1124.5,591.2 L1125.6,590.8 L1126.7,590.5 L1127.8,590.2 L1129.0,589.8
		L1130.1,589.5 L1131.2,589.2 L1132.3,588.9 L1133.5,588.5 L1134.6,588.2 L1135.7,587.9 L1136.8,587.6 L1138.0,587.3
		L1139.1,587.0 L1140.2,586.7 L1141.3,586.4 L1142.5,586.1 L1143.6,585.8 L1144.7,585.5 L1145.8,585.2 L1147.0,584.9
		L1148.1,584.6 L1149.2,584.4 L1150.3,584.1 L1151.5,583.8 L1152.6,583.5 L1153.7,583.3 L1154.8,583.0 L1156.0,582.7
		L1157.1,582.5 L1158.2,582.2 L1159.3,581.9 L1160.5,581.7 L1161.6,581.4 L1162.7,581.2 L1163.8,580.9 L1165.0,580.7
		L1166.1,580.4 L1167.2,580.2 L1168.3,580.0 L1169.5,579.7 L1170.6,579.5 L1171.7,579.3 L1172.8,579.1 L1174.0,578.8
		L1175.1,578.6 L1176.2,578.4 L1177.3,578.2 L1178.5,578.0 L1179.6,577.8 L1180.7,577.6 L1181.8,577.4 L1183.0,577.2
		L1184.1,577.0 L1185.2,576.8 L1186.3,576.6 L1187.5,576.4 L1188.6,576.2 L1189.7,576.0 L1190.9,575.9 L1192.0,575.7
		L1193.1,575.5 L1194.2,575.3 L1195.4,575.2 L1196.5,575.0 L1197.6,574.9 L1198.7,574.7 L1199.9,574.5 L1201.0,574.4
		L1202.1,574.2 L1203.2,574.1 L1204.4,574.0 L1205.5,573.8 L1206.6,573.7 L1207.7,573.5 L1208.9,573.4 L1210.0,573.3
		L1211.1,573.2 L1212.2,573.0 L1213.4,572.9 L1214.5,572.8 L1215.6,572.7 L1216.7,572.6 L1217.9,572.5 L1219.0,572.4
		L1220.1,572.3 L1221.2,572.2 L1222.4,572.1 L1223.5,572.0 L1224.6,571.9 L1225.7,571.8 L1226.9,571.8 L1228.0,571.7
		L1229.1,571.6 L1230.2,571.5 L1231.4,571.5 L1232.5,571.4 L1233.6,571.3 L1234.7,571.3 L1235.9,571.2 L1237.0,571.2
		L1238.1,571.1 L1239.2,571.1 L1240.4,571.0 L1241.5,571.0 L1242.6,571.0 L1243.7,570.9 L1244.9,570.9 L1246.0,570.9
		L1247.1,570.8 L1248.2,570.8 L1249.4,570.8 L1250.5,570.8 L1251.6,570.8 L1252.7,570.8 L1253.9,570.8 L1255.0,570.8
		 '/></g>
	</g>
<g fill="none" color="white" stroke="rgb(  0,   0, 255)" stroke-width="2.00" stroke-linecap="butt" stroke-linejoin="miter">
</g>
<g fill="none" color="black" stroke="currentColor" stroke-width="2.00" stroke-linecap="butt" stroke-linejoin="miter">
</g>
<g fill="none" color="black" stroke="black" stroke-width="1.00" stroke-linecap="butt" stroke-linejoin="miter">
</g>
<g fill="none" color="black" stroke="currentColor" stroke-width="1.00" stroke-linecap="butt" stroke-linejoin="miter">
	<path stroke='black'  d='M103.7,54.1 L103.7,684.0 L1255.0,684.0 L1255.0,54.1 L103.7,54.1 Z  '/></g>
<g fill="none" color="black" stroke="currentColor" stroke-width="1.00" stroke-linecap="butt" stroke-linejoin="miter">
</g>
</g>
</svg>

