<?xml version="1.0" encoding="utf-8"  standalone="no"?>
<svg 
 width="1280" height="720"
 viewBox="0 0 1280 720"
 xmlns="http://www.w3.org/2000/svg"
 xmlns:xlink="http://www.w3.org/1999/xlink"
>

<title>Gnuplot</title>
<desc>Produced by GNUPLOT 5.0 patchlevel 6 </desc>

<g id="gnuplot_canvas">

<rect x="0" y="0" width="1280" height="720" fill="none"/>
<defs>

	<circle id='gpDot' r='0.5' stroke-width='0.5'/>
	<path id='gpPt0' stroke-width='0.222' stroke='currentColor' d='M-1,0 h2 M0,-1 v2'/>
	<path id='gpPt1' stroke-width='0.222' stroke='currentColor' d='M-1,-1 L1,1 M1,-1 L-1,1'/>
	<path id='gpPt2' stroke-width='0.222' stroke='currentColor' d='M-1,0 L1,0 M0,-1 L0,1 M-1,-1 L1,1 M-1,1 L1,-1'/>
	<rect id='gpPt3' stroke-width='0.222' stroke='currentColor' x='-1' y='-1' width='2' height='2'/>
	<rect id='gpPt4' stroke-width='0.222' stroke='currentColor' fill='currentColor' x='-1' y='-1' width='2' height='2'/>
	<circle id='gpPt5' stroke-width='0.222' stroke='currentColor' cx='0' cy='0' r='1'/>
	<use xlink:href='#gpPt5' id='gpPt6' fill='currentColor' stroke='none'/>
	<path id='gpPt7' stroke-width='0.222' stroke='currentColor' d='M0,-1.33 L-1.33,0.67 L1.33,0.67 z'/>
	<use xlink:href='#gpPt7' id='gpPt8' fill='currentColor' stroke='none'/>
	<use xlink:href='#gpPt7' id='gpPt9' stroke='currentColor' transform='rotate(180)'/>
	<use xlink:href='#gpPt9' id='gpPt10' fill='currentColor' stroke='none'/>
	<use xlink:href='#gpPt3' id='gpPt11' stroke='currentColor' transform='rotate(45)'/>
	<use xlink:href='#gpPt11' id='gpPt12' fill='currentColor' stroke='none'/>
	<path id='gpPt13' stroke-width='0.222' stroke='currentColor' d='M0,1.330 L1.265,0.411 L0.782,-1.067 L-0.782,-1.076 L-1.265,0.411 z'/>
	<use xlink:href='#gpPt13' id='gpPt14' fill='currentColor' stroke='none'/>
	<filter id='textbox' filterUnits='objectBoundingBox' x='0' y='0' height='1' width='1'>
	  <feFlood flood-color='white' flood-opacity='1' result='bgnd'/>
	  <feComposite in='SourceGraphic' in2='bgnd' operator='atop'/>
	</filter>
	<filter id='greybox' filterUnits='objectBoundingBox' x='0' y='0' height='1' width='1'>
	  <feFlood flood-color='lightgrey' flood-opacity='1' result='grey'/>
	  <feComposite in='SourceGraphic' in2='grey' operator='atop'/>
	</filter>
</defs>
<g fill="none" color="white" stroke="currentColor" stroke-width="1.00" stroke-linecap="butt" stroke-linejoin="miter">
</g>
<g fill="none" color="black" stroke="currentColor" stroke-width="1.00" stroke-linecap="butt" stroke-linejoin="miter">
	<path stroke='black'  d='M103.7,682.6 L112.7,682.6 M1255.0,682.6 L1246.0,682.6  '/>	<g transform="translate(95.4,686.5)" stroke="none" fill="black" font-family="Arial" font-size="12.00"  text-anchor="end">
		<text><tspan font-family="Arial" > 0.0002086</tspan></text>
	</g>
</g>
<g fill="none" color="black" stroke="currentColor" stroke-width="1.00" stroke-linecap="butt" stroke-linejoin="miter">
	<path stroke='black'  d='M103.7,368.3 L112.7,368.3 M1255.0,368.3 L1246.0,368.3  '/>	<g transform="translate(95.4,372.2)" stroke="none" fill="black" font-family="Arial" font-size="12.00"  text-anchor="end">
		<text><tspan font-family="Arial" > 0.0118468</tspan></text>
	</g>
</g>
<g fill="none" color="black" stroke="currentColor" stroke-width="1.00" stroke-linecap="butt" stroke-linejoin="miter">
	<path stroke='black'  d='M103.7,54.1 L112.7,54.1 M1255.0,54.1 L1246.0,54.1  '/>	<g transform="translate(95.4,58.0)" stroke="none" fill="black" font-family="Arial" font-size="12.00"  text-anchor="end">
		<text><tspan font-family="Arial" > 0.6728</tspan></text>
	</g>
</g>
<g fill="none" color="black" stroke="currentColor" stroke-width="1.00" stroke-linecap="butt" stroke-linejoin="miter">
	<path stroke='black'  d='M103.7,684.0 L103.7,675.0 M103.7,54.1 L103.7,63.1  '/>	<g transform="translate(103.7,705.9)" stroke="none" fill="black" font-family="Arial" font-size="12.00"  text-anchor="middle">
		<text><tspan font-family="Arial" > 0</tspan></text>
	</g>
</g>
<g fill="none" color="black" stroke="currentColor" stroke-width="1.00" stroke-linecap="butt" stroke-linejoin="miter">
	<path stroke='black'  d='M679.4,684.0 L679.4,675.0 M679.4,54.1 L679.4,63.1  '/>	<g transform="translate(679.4,705.9)" stroke="none" fill="black" font-family="Arial" font-size="12.00"  text-anchor="middle">
		<text><tspan font-family="Arial" >pi/2</tspan></text>
	</g>
</g>
<g fill="none" color="black" stroke="currentColor" stroke-width="1.00" stroke-linecap="butt" stroke-linejoin="miter">
	<path stroke='black'  d='M1255.0,684.0 L1255.0,675.0 M1255.0,54.1 L1255.0,63.1  '/>	<g transform="translate(1255.0,705.9)" stroke="none" fill="black" font-family="Arial" font-size="12.00"  text-anchor="middle">
		<text><tspan font-family="Arial" >pi</tspan></text>
	</g>
</g>
<g fill="none" color="black" stroke="currentColor" stroke-width="1.00" stroke-linecap="butt" stroke-linejoin="miter">
</g>
<g fill="none" color="black" stroke="currentColor" stroke-width="1.00" stroke-linecap="butt" stroke-linejoin="miter">
	<path stroke='black'  d='M103.7,54.1 L103.7,684.0 L1255.0,684.0 L1255.0,54.1 L103.7,54.1 Z  '/></g>
<g fill="none" color="black" stroke="currentColor" stroke-width="1.00" stroke-linecap="butt" stroke-linejoin="miter">
	<g transform="translate(679.3,31.0)" stroke="none" fill="black" font-family="Arial" font-size="12.00"  text-anchor="middle">
		<text><tspan font-family="Arial" >Material 27, with 4 components</tspan></text>
	</g>
</g>
	<g id="gnuplot_plot_1" ><title>scattering function</title>
<g fill="none" color="black" stroke="currentColor" stroke-width="1.00" stroke-linecap="butt" stroke-linejoin="miter">
	<g transform="translate(1187.9,76.0)" stroke="none" fill="black" font-family="Arial" font-size="12.00"  text-anchor="end">
		<text><tspan font-family="Arial" >scattering function</tspan></text>
	</g>
</g>
<g fill="none" color="black" stroke="currentColor" stroke-width="1.00" stroke-linecap="butt" stroke-linejoin="miter">
	<use xlink:href='#gpPt5' transform='translate(103.7,95.2) scale(2.25)' color='rgb(255,   0,   0)'/>
	<use xlink:href='#gpPt5' transform='translate(104.3,97.0) scale(2.25)' color='rgb(255,   0,   0)'/>
	<use xlink:href='#gpPt5' transform='translate(105.0,101.2) scale(2.25)' color='rgb(255,   0,   0)'/>
	<use xlink:href='#gpPt5' transform='translate(105.6,105.8) scale(2.25)' color='rgb(255,   0,   0)'/>
	<use xlink:href='#gpPt5' transform='translate(106.3,110.1) scale(2.25)' color='rgb(255,   0,   0)'/>
	<use xlink:href='#gpPt5' transform='translate(106.9,113.9) scale(2.25)' color='rgb(255,   0,   0)'/>
	<use xlink:href='#gpPt5' transform='translate(107.5,117.3) scale(2.25)' color='rgb(255,   0,   0)'/>
	<use xlink:href='#gpPt5' transform='translate(108.2,120.3) scale(2.25)' color='rgb(255,   0,   0)'/>
	<use xlink:href='#gpPt5' transform='translate(108.8,123.1) scale(2.25)' color='rgb(255,   0,   0)'/>
	<use xlink:href='#gpPt5' transform='translate(109.5,125.6) scale(2.25)' color='rgb(255,   0,   0)'/>
	<use xlink:href='#gpPt5' transform='translate(110.1,128.0) scale(2.25)' color='rgb(255,   0,   0)'/>
	<use xlink:href='#gpPt5' transform='translate(110.7,130.2) scale(2.25)' color='rgb(255,   0,   0)'/>
	<use xlink:href='#gpPt5' transform='translate(111.4,132.4) scale(2.25)' color='rgb(255,   0,   0)'/>
	<use xlink:href='#gpPt5' transform='translate(112.0,134.5) scale(2.25)' color='rgb(255,   0,   0)'/>
	<use xlink:href='#gpPt5' transform='translate(112.7,136.6) scale(2.25)' color='rgb(255,   0,   0)'/>
	<use xlink:href='#gpPt5' transform='translate(113.3,138.6) scale(2.25)' color='rgb(255,   0,   0)'/>
	<use xlink:href='#gpPt5' transform='translate(113.9,140.6) scale(2.25)' color='rgb(255,   0,   0)'/>
	<use xlink:href='#gpPt5' transform='translate(114.6,142.5) scale(2.25)' color='rgb(255,   0,   0)'/>
	<use xlink:href='#gpPt5' transform='translate(115.2,144.5) scale(2.25)' color='rgb(255,   0,   0)'/>
	<use xlink:href='#gpPt5' transform='translate(115.9,146.4) scale(2.25)' color='rgb(255,   0,   0)'/>
	<use xlink:href='#gpPt5' transform='translate(116.5,148.4) scale(2.25)' color='rgb(255,   0,   0)'/>
	<use xlink:href='#gpPt5' transform='translate(122.9,167.4) scale(2.25)' color='rgb(255,   0,   0)'/>
	<use xlink:href='#gpPt5' transform='translate(129.3,185.8) scale(2.25)' color='rgb(255,   0,   0)'/>
	<use xlink:href='#gpPt5' transform='translate(135.7,203.3) scale(2.25)' color='rgb(255,   0,   0)'/>
	<use xlink:href='#gpPt5' transform='translate(142.1,219.7) scale(2.25)' color='rgb(255,   0,   0)'/>
	<use xlink:href='#gpPt5' transform='translate(154.9,249.1) scale(2.25)' color='rgb(255,   0,   0)'/>
	<use xlink:href='#gpPt5' transform='translate(167.7,273.9) scale(2.25)' color='rgb(255,   0,   0)'/>
	<use xlink:href='#gpPt5' transform='translate(180.5,295.1) scale(2.25)' color='rgb(255,   0,   0)'/>
	<use xlink:href='#gpPt5' transform='translate(193.2,313.4) scale(2.25)' color='rgb(255,   0,   0)'/>
	<use xlink:href='#gpPt5' transform='translate(206.0,329.6) scale(2.25)' color='rgb(255,   0,   0)'/>
	<use xlink:href='#gpPt5' transform='translate(218.8,344.3) scale(2.25)' color='rgb(255,   0,   0)'/>
	<use xlink:href='#gpPt5' transform='translate(231.6,357.7) scale(2.25)' color='rgb(255,   0,   0)'/>
	<use xlink:href='#gpPt5' transform='translate(244.4,369.8) scale(2.25)' color='rgb(255,   0,   0)'/>
	<use xlink:href='#gpPt5' transform='translate(257.2,381.1) scale(2.25)' color='rgb(255,   0,   0)'/>
	<use xlink:href='#gpPt5' transform='translate(270.0,392.2) scale(2.25)' color='rgb(255,   0,   0)'/>
	<use xlink:href='#gpPt5' transform='translate(282.8,403.1) scale(2.25)' color='rgb(255,   0,   0)'/>
	<use xlink:href='#gpPt5' transform='translate(295.6,413.7) scale(2.25)' color='rgb(255,   0,   0)'/>
	<use xlink:href='#gpPt5' transform='translate(308.4,423.7) scale(2.25)' color='rgb(255,   0,   0)'/>
	<use xlink:href='#gpPt5' transform='translate(321.2,433.4) scale(2.25)' color='rgb(255,   0,   0)'/>
	<use xlink:href='#gpPt5' transform='translate(334.0,443.1) scale(2.25)' color='rgb(255,   0,   0)'/>
	<use xlink:href='#gpPt5' transform='translate(346.8,452.8) scale(2.25)' color='rgb(255,   0,   0)'/>
	<use xlink:href='#gpPt5' transform='translate(359.5,462.5) scale(2.25)' color='rgb(255,   0,   0)'/>
	<use xlink:href='#gpPt5' transform='translate(372.3,471.8) scale(2.25)' color='rgb(255,   0,   0)'/>
	<use xlink:href='#gpPt5' transform='translate(385.1,480.9) scale(2.25)' color='rgb(255,   0,   0)'/>
	<use xlink:href='#gpPt5' transform='translate(397.9,489.8) scale(2.25)' color='rgb(255,   0,   0)'/>
	<use xlink:href='#gpPt5' transform='translate(410.7,498.8) scale(2.25)' color='rgb(255,   0,   0)'/>
	<use xlink:href='#gpPt5' transform='translate(423.5,507.9) scale(2.25)' color='rgb(255,   0,   0)'/>
	<use xlink:href='#gpPt5' transform='translate(436.3,516.4) scale(2.25)' color='rgb(255,   0,   0)'/>
	<use xlink:href='#gpPt5' transform='translate(449.1,524.5) scale(2.25)' color='rgb(255,   0,   0)'/>
	<use xlink:href='#gpPt5' transform='translate(461.9,533.0) scale(2.25)' color='rgb(255,   0,   0)'/>
	<use xlink:href='#gpPt5' transform='translate(474.7,541.7) scale(2.25)' color='rgb(255,   0,   0)'/>
	<use xlink:href='#gpPt5' transform='translate(487.5,550.0) scale(2.25)' color='rgb(255,   0,   0)'/>
	<use xlink:href='#gpPt5' transform='translate(500.3,557.1) scale(2.25)' color='rgb(255,   0,   0)'/>
	<use xlink:href='#gpPt5' transform='translate(513.1,564.5) scale(2.25)' color='rgb(255,   0,   0)'/>
	<use xlink:href='#gpPt5' transform='translate(525.8,572.6) scale(2.25)' color='rgb(255,   0,   0)'/>
	<use xlink:href='#gpPt5' transform='translate(538.6,580.6) scale(2.25)' color='rgb(255,   0,   0)'/>
	<use xlink:href='#gpPt5' transform='translate(551.4,587.3) scale(2.25)' color='rgb(255,   0,   0)'/>
	<use xlink:href='#gpPt5' transform='translate(564.2,593.8) scale(2.25)' color='rgb(255,   0,   0)'/>
	<use xlink:href='#gpPt5' transform='translate(577.0,601.2) scale(2.25)' color='rgb(255,   0,   0)'/>
	<use xlink:href='#gpPt5' transform='translate(589.8,607.8) scale(2.25)' color='rgb(255,   0,   0)'/>
	<use xlink:href='#gpPt5' transform='translate(602.6,613.4) scale(2.25)' color='rgb(255,   0,   0)'/>
	<use xlink:href='#gpPt5' transform='translate(615.4,619.5) scale(2.25)' color='rgb(255,   0,   0)'/>
	<use xlink:href='#gpPt5' transform='translate(628.2,626.5) scale(2.25)' color='rgb(255,   0,   0)'/>
	<use xlink:href='#gpPt5' transform='translate(641.0,632.1) scale(2.25)' color='rgb(255,   0,   0)'/>
	<use xlink:href='#gpPt5' transform='translate(653.8,636.6) scale(2.25)' color='rgb(255,   0,   0)'/>
	<use xlink:href='#gpPt5' transform='translate(666.6,641.5) scale(2.25)' color='rgb(255,   0,   0)'/>
	<use xlink:href='#gpPt5' transform='translate(679.4,647.1) scale(2.25)' color='rgb(255,   0,   0)'/>
	<use xlink:href='#gpPt5' transform='translate(692.1,651.2) scale(2.25)' color='rgb(255,   0,   0)'/>
	<use xlink:href='#gpPt5' transform='translate(704.9,655.0) scale(2.25)' color='rgb(255,   0,   0)'/>
	<use xlink:href='#gpPt5' transform='translate(717.7,659.6) scale(2.25)' color='rgb(255,   0,   0)'/>
	<use xlink:href='#gpPt5' transform='translate(730.5,664.2) scale(2.25)' color='rgb(255,   0,   0)'/>
	<use xlink:href='#gpPt5' transform='translate(743.3,666.4) scale(2.25)' color='rgb(255,   0,   0)'/>
	<use xlink:href='#gpPt5' transform='translate(756.1,668.2) scale(2.25)' color='rgb(255,   0,   0)'/>
	<use xlink:href='#gpPt5' transform='translate(768.9,671.3) scale(2.25)' color='rgb(255,   0,   0)'/>
	<use xlink:href='#gpPt5' transform='translate(781.7,673.9) scale(2.25)' color='rgb(255,   0,   0)'/>
	<use xlink:href='#gpPt5' transform='translate(794.5,675.1) scale(2.25)' color='rgb(255,   0,   0)'/>
	<use xlink:href='#gpPt5' transform='translate(807.3,676.6) scale(2.25)' color='rgb(255,   0,   0)'/>
	<use xlink:href='#gpPt5' transform='translate(820.1,678.8) scale(2.25)' color='rgb(255,   0,   0)'/>
	<use xlink:href='#gpPt5' transform='translate(832.9,679.4) scale(2.25)' color='rgb(255,   0,   0)'/>
	<use xlink:href='#gpPt5' transform='translate(845.6,679.5) scale(2.25)' color='rgb(255,   0,   0)'/>
	<use xlink:href='#gpPt5' transform='translate(858.4,680.1) scale(2.25)' color='rgb(255,   0,   0)'/>
	<use xlink:href='#gpPt5' transform='translate(871.2,680.6) scale(2.25)' color='rgb(255,   0,   0)'/>
	<use xlink:href='#gpPt5' transform='translate(884.0,679.6) scale(2.25)' color='rgb(255,   0,   0)'/>
	<use xlink:href='#gpPt5' transform='translate(896.8,678.4) scale(2.25)' color='rgb(255,   0,   0)'/>
	<use xlink:href='#gpPt5' transform='translate(909.6,676.7) scale(2.25)' color='rgb(255,   0,   0)'/>
	<use xlink:href='#gpPt5' transform='translate(922.4,674.3) scale(2.25)' color='rgb(255,   0,   0)'/>
	<use xlink:href='#gpPt5' transform='translate(935.2,670.8) scale(2.25)' color='rgb(255,   0,   0)'/>
	<use xlink:href='#gpPt5' transform='translate(948.0,665.9) scale(2.25)' color='rgb(255,   0,   0)'/>
	<use xlink:href='#gpPt5' transform='translate(960.8,660.2) scale(2.25)' color='rgb(255,   0,   0)'/>
	<use xlink:href='#gpPt5' transform='translate(973.6,655.2) scale(2.25)' color='rgb(255,   0,   0)'/>
	<use xlink:href='#gpPt5' transform='translate(986.4,649.4) scale(2.25)' color='rgb(255,   0,   0)'/>
	<use xlink:href='#gpPt5' transform='translate(999.2,642.0) scale(2.25)' color='rgb(255,   0,   0)'/>
	<use xlink:href='#gpPt5' transform='translate(1011.9,634.2) scale(2.25)' color='rgb(255,   0,   0)'/>
	<use xlink:href='#gpPt5' transform='translate(1024.7,627.1) scale(2.25)' color='rgb(255,   0,   0)'/>
	<use xlink:href='#gpPt5' transform='translate(1037.5,620.1) scale(2.25)' color='rgb(255,   0,   0)'/>
	<use xlink:href='#gpPt5' transform='translate(1050.3,614.5) scale(2.25)' color='rgb(255,   0,   0)'/>
	<use xlink:href='#gpPt5' transform='translate(1063.1,610.5) scale(2.25)' color='rgb(255,   0,   0)'/>
	<use xlink:href='#gpPt5' transform='translate(1075.9,607.1) scale(2.25)' color='rgb(255,   0,   0)'/>
	<use xlink:href='#gpPt5' transform='translate(1088.7,603.2) scale(2.25)' color='rgb(255,   0,   0)'/>
	<use xlink:href='#gpPt5' transform='translate(1101.5,599.4) scale(2.25)' color='rgb(255,   0,   0)'/>
	<use xlink:href='#gpPt5' transform='translate(1114.3,596.1) scale(2.25)' color='rgb(255,   0,   0)'/>
	<use xlink:href='#gpPt5' transform='translate(1127.1,593.3) scale(2.25)' color='rgb(255,   0,   0)'/>
	<use xlink:href='#gpPt5' transform='translate(1139.9,590.4) scale(2.25)' color='rgb(255,   0,   0)'/>
	<use xlink:href='#gpPt5' transform='translate(1152.7,587.6) scale(2.25)' color='rgb(255,   0,   0)'/>
	<use xlink:href='#gpPt5' transform='translate(1165.5,584.2) scale(2.25)' color='rgb(255,   0,   0)'/>
	<use xlink:href='#gpPt5' transform='translate(1178.2,582.2) scale(2.25)' color='rgb(255,   0,   0)'/>
	<use xlink:href='#gpPt5' transform='translate(1191.0,583.4) scale(2.25)' color='rgb(255,   0,   0)'/>
	<use xlink:href='#gpPt5' transform='translate(1203.8,589.1) scale(2.25)' color='rgb(255,   0,   0)'/>
	<use xlink:href='#gpPt5' transform='translate(1216.6,595.3) scale(2.25)' color='rgb(255,   0,   0)'/>
	<use xlink:href='#gpPt5' transform='translate(1229.4,591.8) scale(2.25)' color='rgb(255,   0,   0)'/>
	<use xlink:href='#gpPt5' transform='translate(1242.2,579.2) scale(2.25)' color='rgb(255,   0,   0)'/>
	<use xlink:href='#gpPt5' transform='translate(1255.0,568.2) scale(2.25)' color='rgb(255,   0,   0)'/>
	<use xlink:href='#gpPt5' transform='translate(1217.3,72.1) scale(2.25)' color='rgb(255,   0,   0)'/>
</g>
	</g>
	<g id="gnuplot_plot_2" ><title>gnuplot_plot_2</title>
<g fill="none" color="black" stroke="currentColor" stroke-width="1.00" stroke-linecap="butt" stroke-linejoin="miter">
	<use xlink:href='#gpPt5' transform='translate(103.7,83.0) scale(2.25)' color='rgb(  0, 100,   0)'/>
	<use xlink:href='#gpPt5' transform='translate(104.3,85.2) scale(2.25)' color='rgb(  0, 100,   0)'/>
	<use xlink:href='#gpPt5' transform='translate(105.0,90.0) scale(2.25)' color='rgb(  0, 100,   0)'/>
	<use xlink:href='#gpPt5' transform='translate(105.6,95.1) scale(2.25)' color='rgb(  0, 100,   0)'/>
	<use xlink:href='#gpPt5' transform='translate(106.3,99.7) scale(2.25)' color='rgb(  0, 100,   0)'/>
	<use xlink:href='#gpPt5' transform='translate(106.9,103.7) scale(2.25)' color='rgb(  0, 100,   0)'/>
	<use xlink:href='#gpPt5' transform='translate(107.5,107.3) scale(2.25)' color='rgb(  0, 100,   0)'/>
	<use xlink:href='#gpPt5' transform='translate(108.2,110.4) scale(2.25)' color='rgb(  0, 100,   0)'/>
	<use xlink:href='#gpPt5' transform='translate(108.8,113.3) scale(2.25)' color='rgb(  0, 100,   0)'/>
	<use xlink:href='#gpPt5' transform='translate(109.5,116.0) scale(2.25)' color='rgb(  0, 100,   0)'/>
	<use xlink:href='#gpPt5' transform='translate(110.1,118.6) scale(2.25)' color='rgb(  0, 100,   0)'/>
	<use xlink:href='#gpPt5' transform='translate(110.7,120.9) scale(2.25)' color='rgb(  0, 100,   0)'/>
	<use xlink:href='#gpPt5' transform='translate(111.4,123.3) scale(2.25)' color='rgb(  0, 100,   0)'/>
	<use xlink:href='#gpPt5' transform='translate(112.0,125.6) scale(2.25)' color='rgb(  0, 100,   0)'/>
	<use xlink:href='#gpPt5' transform='translate(112.7,127.8) scale(2.25)' color='rgb(  0, 100,   0)'/>
	<use xlink:href='#gpPt5' transform='translate(113.3,130.0) scale(2.25)' color='rgb(  0, 100,   0)'/>
	<use xlink:href='#gpPt5' transform='translate(113.9,132.2) scale(2.25)' color='rgb(  0, 100,   0)'/>
	<use xlink:href='#gpPt5' transform='translate(114.6,134.4) scale(2.25)' color='rgb(  0, 100,   0)'/>
	<use xlink:href='#gpPt5' transform='translate(115.2,136.6) scale(2.25)' color='rgb(  0, 100,   0)'/>
	<use xlink:href='#gpPt5' transform='translate(115.9,138.7) scale(2.25)' color='rgb(  0, 100,   0)'/>
	<use xlink:href='#gpPt5' transform='translate(116.5,140.9) scale(2.25)' color='rgb(  0, 100,   0)'/>
	<use xlink:href='#gpPt5' transform='translate(122.9,162.0) scale(2.25)' color='rgb(  0, 100,   0)'/>
	<use xlink:href='#gpPt5' transform='translate(129.3,182.2) scale(2.25)' color='rgb(  0, 100,   0)'/>
	<use xlink:href='#gpPt5' transform='translate(135.7,201.1) scale(2.25)' color='rgb(  0, 100,   0)'/>
	<use xlink:href='#gpPt5' transform='translate(142.1,218.5) scale(2.25)' color='rgb(  0, 100,   0)'/>
	<use xlink:href='#gpPt5' transform='translate(154.9,249.3) scale(2.25)' color='rgb(  0, 100,   0)'/>
	<use xlink:href='#gpPt5' transform='translate(167.7,275.4) scale(2.25)' color='rgb(  0, 100,   0)'/>
	<use xlink:href='#gpPt5' transform='translate(180.5,297.4) scale(2.25)' color='rgb(  0, 100,   0)'/>
	<use xlink:href='#gpPt5' transform='translate(193.2,316.2) scale(2.25)' color='rgb(  0, 100,   0)'/>
	<use xlink:href='#gpPt5' transform='translate(206.0,332.4) scale(2.25)' color='rgb(  0, 100,   0)'/>
	<use xlink:href='#gpPt5' transform='translate(218.8,346.2) scale(2.25)' color='rgb(  0, 100,   0)'/>
	<use xlink:href='#gpPt5' transform='translate(231.6,358.9) scale(2.25)' color='rgb(  0, 100,   0)'/>
	<use xlink:href='#gpPt5' transform='translate(244.4,371.1) scale(2.25)' color='rgb(  0, 100,   0)'/>
	<use xlink:href='#gpPt5' transform='translate(257.2,382.7) scale(2.25)' color='rgb(  0, 100,   0)'/>
	<use xlink:href='#gpPt5' transform='translate(270.0,393.5) scale(2.25)' color='rgb(  0, 100,   0)'/>
	<use xlink:href='#gpPt5' transform='translate(282.8,403.8) scale(2.25)' color='rgb(  0, 100,   0)'/>
	<use xlink:href='#gpPt5' transform='translate(295.6,413.5) scale(2.25)' color='rgb(  0, 100,   0)'/>
	<use xlink:href='#gpPt5' transform='translate(308.4,423.5) scale(2.25)' color='rgb(  0, 100,   0)'/>
	<use xlink:href='#gpPt5' transform='translate(321.2,433.6) scale(2.25)' color='rgb(  0, 100,   0)'/>
	<use xlink:href='#gpPt5' transform='translate(334.0,443.3) scale(2.25)' color='rgb(  0, 100,   0)'/>
	<use xlink:href='#gpPt5' transform='translate(346.8,452.8) scale(2.25)' color='rgb(  0, 100,   0)'/>
	<use xlink:href='#gpPt5' transform='translate(359.5,461.8) scale(2.25)' color='rgb(  0, 100,   0)'/>
	<use xlink:href='#gpPt5' transform='translate(372.3,471.0) scale(2.25)' color='rgb(  0, 100,   0)'/>
	<use xlink:href='#gpPt5' transform='translate(385.1,480.2) scale(2.25)' color='rgb(  0, 100,   0)'/>
	<use xlink:href='#gpPt5' transform='translate(397.9,489.5) scale(2.25)' color='rgb(  0, 100,   0)'/>
	<use xlink:href='#gpPt5' transform='translate(410.7,498.4) scale(2.25)' color='rgb(  0, 100,   0)'/>
	<use xlink:href='#gpPt5' transform='translate(423.5,506.7) scale(2.25)' color='rgb(  0, 100,   0)'/>
	<use xlink:href='#gpPt5' transform='translate(436.3,515.4) scale(2.25)' color='rgb(  0, 100,   0)'/>
	<use xlink:href='#gpPt5' transform='translate(449.1,524.5) scale(2.25)' color='rgb(  0, 100,   0)'/>
	<use xlink:href='#gpPt5' transform='translate(461.9,532.7) scale(2.25)' color='rgb(  0, 100,   0)'/>
	<use xlink:href='#gpPt5' transform='translate(474.7,540.5) scale(2.25)' color='rgb(  0, 100,   0)'/>
	<use xlink:href='#gpPt5' transform='translate(487.5,548.4) scale(2.25)' color='rgb(  0, 100,   0)'/>
	<use xlink:href='#gpPt5' transform='translate(500.3,557.1) scale(2.25)' color='rgb(  0, 100,   0)'/>
	<use xlink:href='#gpPt5' transform='translate(513.1,564.8) scale(2.25)' color='rgb(  0, 100,   0)'/>
	<use xlink:href='#gpPt5' transform='translate(525.8,572.1) scale(2.25)' color='rgb(  0, 100,   0)'/>
	<use xlink:href='#gpPt5' transform='translate(538.6,579.3) scale(2.25)' color='rgb(  0, 100,   0)'/>
	<use xlink:href='#gpPt5' transform='translate(551.4,586.8) scale(2.25)' color='rgb(  0, 100,   0)'/>
	<use xlink:href='#gpPt5' transform='translate(564.2,594.0) scale(2.25)' color='rgb(  0, 100,   0)'/>
	<use xlink:href='#gpPt5' transform='translate(577.0,600.6) scale(2.25)' color='rgb(  0, 100,   0)'/>
	<use xlink:href='#gpPt5' transform='translate(589.8,606.8) scale(2.25)' color='rgb(  0, 100,   0)'/>
	<use xlink:href='#gpPt5' transform='translate(602.6,614.0) scale(2.25)' color='rgb(  0, 100,   0)'/>
	<use xlink:href='#gpPt5' transform='translate(615.4,620.2) scale(2.25)' color='rgb(  0, 100,   0)'/>
	<use xlink:href='#gpPt5' transform='translate(628.2,625.6) scale(2.25)' color='rgb(  0, 100,   0)'/>
	<use xlink:href='#gpPt5' transform='translate(641.0,630.6) scale(2.25)' color='rgb(  0, 100,   0)'/>
	<use xlink:href='#gpPt5' transform='translate(653.8,636.8) scale(2.25)' color='rgb(  0, 100,   0)'/>
	<use xlink:href='#gpPt5' transform='translate(666.6,642.0) scale(2.25)' color='rgb(  0, 100,   0)'/>
	<use xlink:href='#gpPt5' transform='translate(679.4,646.8) scale(2.25)' color='rgb(  0, 100,   0)'/>
	<use xlink:href='#gpPt5' transform='translate(692.1,651.1) scale(2.25)' color='rgb(  0, 100,   0)'/>
	<use xlink:href='#gpPt5' transform='translate(704.9,655.3) scale(2.25)' color='rgb(  0, 100,   0)'/>
	<use xlink:href='#gpPt5' transform='translate(717.7,658.3) scale(2.25)' color='rgb(  0, 100,   0)'/>
	<use xlink:href='#gpPt5' transform='translate(730.5,661.6) scale(2.25)' color='rgb(  0, 100,   0)'/>
	<use xlink:href='#gpPt5' transform='translate(743.3,665.3) scale(2.25)' color='rgb(  0, 100,   0)'/>
	<use xlink:href='#gpPt5' transform='translate(756.1,668.9) scale(2.25)' color='rgb(  0, 100,   0)'/>
	<use xlink:href='#gpPt5' transform='translate(768.9,670.9) scale(2.25)' color='rgb(  0, 100,   0)'/>
	<use xlink:href='#gpPt5' transform='translate(781.7,672.9) scale(2.25)' color='rgb(  0, 100,   0)'/>
	<use xlink:href='#gpPt5' transform='translate(794.5,675.5) scale(2.25)' color='rgb(  0, 100,   0)'/>
	<use xlink:href='#gpPt5' transform='translate(807.3,677.9) scale(2.25)' color='rgb(  0, 100,   0)'/>
	<use xlink:href='#gpPt5' transform='translate(820.1,679.1) scale(2.25)' color='rgb(  0, 100,   0)'/>
	<use xlink:href='#gpPt5' transform='translate(832.9,680.1) scale(2.25)' color='rgb(  0, 100,   0)'/>
	<use xlink:href='#gpPt5' transform='translate(845.6,681.3) scale(2.25)' color='rgb(  0, 100,   0)'/>
	<use xlink:href='#gpPt5' transform='translate(858.4,682.0) scale(2.25)' color='rgb(  0, 100,   0)'/>
	<use xlink:href='#gpPt5' transform='translate(871.2,680.9) scale(2.25)' color='rgb(  0, 100,   0)'/>
	<use xlink:href='#gpPt5' transform='translate(884.0,680.5) scale(2.25)' color='rgb(  0, 100,   0)'/>
	<use xlink:href='#gpPt5' transform='translate(896.8,679.2) scale(2.25)' color='rgb(  0, 100,   0)'/>
	<use xlink:href='#gpPt5' transform='translate(909.6,676.4) scale(2.25)' color='rgb(  0, 100,   0)'/>
	<use xlink:href='#gpPt5' transform='translate(922.4,673.1) scale(2.25)' color='rgb(  0, 100,   0)'/>
	<use xlink:href='#gpPt5' transform='translate(935.2,670.3) scale(2.25)' color='rgb(  0, 100,   0)'/>
	<use xlink:href='#gpPt5' transform='translate(948.0,666.6) scale(2.25)' color='rgb(  0, 100,   0)'/>
	<use xlink:href='#gpPt5' transform='translate(960.8,661.8) scale(2.25)' color='rgb(  0, 100,   0)'/>
	<use xlink:href='#gpPt5' transform='translate(973.6,655.5) scale(2.25)' color='rgb(  0, 100,   0)'/>
	<use xlink:href='#gpPt5' transform='translate(986.4,648.3) scale(2.25)' color='rgb(  0, 100,   0)'/>
	<use xlink:href='#gpPt5' transform='translate(999.2,641.4) scale(2.25)' color='rgb(  0, 100,   0)'/>
	<use xlink:href='#gpPt5' transform='translate(1011.9,633.8) scale(2.25)' color='rgb(  0, 100,   0)'/>
	<use xlink:href='#gpPt5' transform='translate(1024.7,626.1) scale(2.25)' color='rgb(  0, 100,   0)'/>
	<use xlink:href='#gpPt5' transform='translate(1037.5,618.7) scale(2.25)' color='rgb(  0, 100,   0)'/>
	<use xlink:href='#gpPt5' transform='translate(1050.3,612.9) scale(2.25)' color='rgb(  0, 100,   0)'/>
	<use xlink:href='#gpPt5' transform='translate(1063.1,607.3) scale(2.25)' color='rgb(  0, 100,   0)'/>
	<use xlink:href='#gpPt5' transform='translate(1075.9,602.3) scale(2.25)' color='rgb(  0, 100,   0)'/>
	<use xlink:href='#gpPt5' transform='translate(1088.7,599.1) scale(2.25)' color='rgb(  0, 100,   0)'/>
	<use xlink:href='#gpPt5' transform='translate(1101.5,597.9) scale(2.25)' color='rgb(  0, 100,   0)'/>
	<use xlink:href='#gpPt5' transform='translate(1114.3,596.6) scale(2.25)' color='rgb(  0, 100,   0)'/>
	<use xlink:href='#gpPt5' transform='translate(1127.1,593.0) scale(2.25)' color='rgb(  0, 100,   0)'/>
	<use xlink:href='#gpPt5' transform='translate(1139.9,588.0) scale(2.25)' color='rgb(  0, 100,   0)'/>
	<use xlink:href='#gpPt5' transform='translate(1152.7,583.7) scale(2.25)' color='rgb(  0, 100,   0)'/>
	<use xlink:href='#gpPt5' transform='translate(1165.5,581.6) scale(2.25)' color='rgb(  0, 100,   0)'/>
	<use xlink:href='#gpPt5' transform='translate(1178.2,581.4) scale(2.25)' color='rgb(  0, 100,   0)'/>
	<use xlink:href='#gpPt5' transform='translate(1191.0,584.9) scale(2.25)' color='rgb(  0, 100,   0)'/>
	<use xlink:href='#gpPt5' transform='translate(1203.8,590.7) scale(2.25)' color='rgb(  0, 100,   0)'/>
	<use xlink:href='#gpPt5' transform='translate(1216.6,593.0) scale(2.25)' color='rgb(  0, 100,   0)'/>
	<use xlink:href='#gpPt5' transform='translate(1229.4,587.3) scale(2.25)' color='rgb(  0, 100,   0)'/>
	<use xlink:href='#gpPt5' transform='translate(1242.2,571.4) scale(2.25)' color='rgb(  0, 100,   0)'/>
	<use xlink:href='#gpPt5' transform='translate(1255.0,557.1) scale(2.25)' color='rgb(  0, 100,   0)'/>
</g>
	</g>
	<g id="gnuplot_plot_3" ><title>gnuplot_plot_3</title>
<g fill="none" color="black" stroke="currentColor" stroke-width="1.00" stroke-linecap="butt" stroke-linejoin="miter">
	<use xlink:href='#gpPt5' transform='translate(103.7,54.1) scale(2.25)' color='rgb(  0,   0, 255)'/>
	<use xlink:href='#gpPt5' transform='translate(104.3,57.3) scale(2.25)' color='rgb(  0,   0, 255)'/>
	<use xlink:href='#gpPt5' transform='translate(105.0,63.6) scale(2.25)' color='rgb(  0,   0, 255)'/>
	<use xlink:href='#gpPt5' transform='translate(105.6,69.6) scale(2.25)' color='rgb(  0,   0, 255)'/>
	<use xlink:href='#gpPt5' transform='translate(106.3,74.8) scale(2.25)' color='rgb(  0,   0, 255)'/>
	<use xlink:href='#gpPt5' transform='translate(106.9,79.3) scale(2.25)' color='rgb(  0,   0, 255)'/>
	<use xlink:href='#gpPt5' transform='translate(107.5,83.2) scale(2.25)' color='rgb(  0,   0, 255)'/>
	<use xlink:href='#gpPt5' transform='translate(108.2,86.7) scale(2.25)' color='rgb(  0,   0, 255)'/>
	<use xlink:href='#gpPt5' transform='translate(108.8,89.9) scale(2.25)' color='rgb(  0,   0, 255)'/>
	<use xlink:href='#gpPt5' transform='translate(109.5,93.0) scale(2.25)' color='rgb(  0,   0, 255)'/>
	<use xlink:href='#gpPt5' transform='translate(110.1,95.9) scale(2.25)' color='rgb(  0,   0, 255)'/>
	<use xlink:href='#gpPt5' transform='translate(110.7,98.7) scale(2.25)' color='rgb(  0,   0, 255)'/>
	<use xlink:href='#gpPt5' transform='translate(111.4,101.5) scale(2.25)' color='rgb(  0,   0, 255)'/>
	<use xlink:href='#gpPt5' transform='translate(112.0,104.3) scale(2.25)' color='rgb(  0,   0, 255)'/>
	<use xlink:href='#gpPt5' transform='translate(112.7,107.0) scale(2.25)' color='rgb(  0,   0, 255)'/>
	<use xlink:href='#gpPt5' transform='translate(113.3,109.7) scale(2.25)' color='rgb(  0,   0, 255)'/>
	<use xlink:href='#gpPt5' transform='translate(113.9,112.4) scale(2.25)' color='rgb(  0,   0, 255)'/>
	<use xlink:href='#gpPt5' transform='translate(114.6,115.1) scale(2.25)' color='rgb(  0,   0, 255)'/>
	<use xlink:href='#gpPt5' transform='translate(115.2,117.7) scale(2.25)' color='rgb(  0,   0, 255)'/>
	<use xlink:href='#gpPt5' transform='translate(115.9,120.4) scale(2.25)' color='rgb(  0,   0, 255)'/>
	<use xlink:href='#gpPt5' transform='translate(116.5,123.1) scale(2.25)' color='rgb(  0,   0, 255)'/>
	<use xlink:href='#gpPt5' transform='translate(122.9,149.1) scale(2.25)' color='rgb(  0,   0, 255)'/>
	<use xlink:href='#gpPt5' transform='translate(129.3,173.7) scale(2.25)' color='rgb(  0,   0, 255)'/>
	<use xlink:href='#gpPt5' transform='translate(135.7,196.3) scale(2.25)' color='rgb(  0,   0, 255)'/>
	<use xlink:href='#gpPt5' transform='translate(142.1,216.7) scale(2.25)' color='rgb(  0,   0, 255)'/>
	<use xlink:href='#gpPt5' transform='translate(154.9,251.3) scale(2.25)' color='rgb(  0,   0, 255)'/>
	<use xlink:href='#gpPt5' transform='translate(167.7,279.4) scale(2.25)' color='rgb(  0,   0, 255)'/>
	<use xlink:href='#gpPt5' transform='translate(180.5,302.4) scale(2.25)' color='rgb(  0,   0, 255)'/>
	<use xlink:href='#gpPt5' transform='translate(193.2,321.2) scale(2.25)' color='rgb(  0,   0, 255)'/>
	<use xlink:href='#gpPt5' transform='translate(206.0,336.8) scale(2.25)' color='rgb(  0,   0, 255)'/>
	<use xlink:href='#gpPt5' transform='translate(218.8,350.4) scale(2.25)' color='rgb(  0,   0, 255)'/>
	<use xlink:href='#gpPt5' transform='translate(231.6,362.6) scale(2.25)' color='rgb(  0,   0, 255)'/>
	<use xlink:href='#gpPt5' transform='translate(244.4,374.0) scale(2.25)' color='rgb(  0,   0, 255)'/>
	<use xlink:href='#gpPt5' transform='translate(257.2,385.0) scale(2.25)' color='rgb(  0,   0, 255)'/>
	<use xlink:href='#gpPt5' transform='translate(270.0,395.2) scale(2.25)' color='rgb(  0,   0, 255)'/>
	<use xlink:href='#gpPt5' transform='translate(282.8,405.4) scale(2.25)' color='rgb(  0,   0, 255)'/>
	<use xlink:href='#gpPt5' transform='translate(295.6,415.1) scale(2.25)' color='rgb(  0,   0, 255)'/>
	<use xlink:href='#gpPt5' transform='translate(308.4,424.3) scale(2.25)' color='rgb(  0,   0, 255)'/>
	<use xlink:href='#gpPt5' transform='translate(321.2,433.6) scale(2.25)' color='rgb(  0,   0, 255)'/>
	<use xlink:href='#gpPt5' transform='translate(334.0,443.0) scale(2.25)' color='rgb(  0,   0, 255)'/>
	<use xlink:href='#gpPt5' transform='translate(346.8,452.7) scale(2.25)' color='rgb(  0,   0, 255)'/>
	<use xlink:href='#gpPt5' transform='translate(359.5,461.8) scale(2.25)' color='rgb(  0,   0, 255)'/>
	<use xlink:href='#gpPt5' transform='translate(372.3,469.9) scale(2.25)' color='rgb(  0,   0, 255)'/>
	<use xlink:href='#gpPt5' transform='translate(385.1,478.9) scale(2.25)' color='rgb(  0,   0, 255)'/>
	<use xlink:href='#gpPt5' transform='translate(397.9,488.4) scale(2.25)' color='rgb(  0,   0, 255)'/>
	<use xlink:href='#gpPt5' transform='translate(410.7,497.0) scale(2.25)' color='rgb(  0,   0, 255)'/>
	<use xlink:href='#gpPt5' transform='translate(423.5,505.0) scale(2.25)' color='rgb(  0,   0, 255)'/>
	<use xlink:href='#gpPt5' transform='translate(436.3,513.3) scale(2.25)' color='rgb(  0,   0, 255)'/>
	<use xlink:href='#gpPt5' transform='translate(449.1,521.7) scale(2.25)' color='rgb(  0,   0, 255)'/>
	<use xlink:href='#gpPt5' transform='translate(461.9,530.5) scale(2.25)' color='rgb(  0,   0, 255)'/>
	<use xlink:href='#gpPt5' transform='translate(474.7,539.0) scale(2.25)' color='rgb(  0,   0, 255)'/>
	<use xlink:href='#gpPt5' transform='translate(487.5,546.1) scale(2.25)' color='rgb(  0,   0, 255)'/>
	<use xlink:href='#gpPt5' transform='translate(500.3,553.6) scale(2.25)' color='rgb(  0,   0, 255)'/>
	<use xlink:href='#gpPt5' transform='translate(513.1,562.0) scale(2.25)' color='rgb(  0,   0, 255)'/>
	<use xlink:href='#gpPt5' transform='translate(525.8,570.0) scale(2.25)' color='rgb(  0,   0, 255)'/>
	<use xlink:href='#gpPt5' transform='translate(538.6,576.7) scale(2.25)' color='rgb(  0,   0, 255)'/>
	<use xlink:href='#gpPt5' transform='translate(551.4,583.5) scale(2.25)' color='rgb(  0,   0, 255)'/>
	<use xlink:href='#gpPt5' transform='translate(564.2,591.8) scale(2.25)' color='rgb(  0,   0, 255)'/>
	<use xlink:href='#gpPt5' transform='translate(577.0,598.9) scale(2.25)' color='rgb(  0,   0, 255)'/>
	<use xlink:href='#gpPt5' transform='translate(589.8,604.9) scale(2.25)' color='rgb(  0,   0, 255)'/>
	<use xlink:href='#gpPt5' transform='translate(602.6,610.5) scale(2.25)' color='rgb(  0,   0, 255)'/>
	<use xlink:href='#gpPt5' transform='translate(615.4,617.4) scale(2.25)' color='rgb(  0,   0, 255)'/>
	<use xlink:href='#gpPt5' transform='translate(628.2,624.5) scale(2.25)' color='rgb(  0,   0, 255)'/>
	<use xlink:href='#gpPt5' transform='translate(641.0,630.6) scale(2.25)' color='rgb(  0,   0, 255)'/>
	<use xlink:href='#gpPt5' transform='translate(653.8,634.6) scale(2.25)' color='rgb(  0,   0, 255)'/>
	<use xlink:href='#gpPt5' transform='translate(666.6,640.1) scale(2.25)' color='rgb(  0,   0, 255)'/>
	<use xlink:href='#gpPt5' transform='translate(679.4,645.9) scale(2.25)' color='rgb(  0,   0, 255)'/>
	<use xlink:href='#gpPt5' transform='translate(692.1,649.6) scale(2.25)' color='rgb(  0,   0, 255)'/>
	<use xlink:href='#gpPt5' transform='translate(704.9,653.0) scale(2.25)' color='rgb(  0,   0, 255)'/>
	<use xlink:href='#gpPt5' transform='translate(717.7,657.9) scale(2.25)' color='rgb(  0,   0, 255)'/>
	<use xlink:href='#gpPt5' transform='translate(730.5,661.4) scale(2.25)' color='rgb(  0,   0, 255)'/>
	<use xlink:href='#gpPt5' transform='translate(743.3,664.1) scale(2.25)' color='rgb(  0,   0, 255)'/>
	<use xlink:href='#gpPt5' transform='translate(756.1,666.6) scale(2.25)' color='rgb(  0,   0, 255)'/>
	<use xlink:href='#gpPt5' transform='translate(768.9,669.0) scale(2.25)' color='rgb(  0,   0, 255)'/>
	<use xlink:href='#gpPt5' transform='translate(781.7,671.4) scale(2.25)' color='rgb(  0,   0, 255)'/>
	<use xlink:href='#gpPt5' transform='translate(794.5,674.0) scale(2.25)' color='rgb(  0,   0, 255)'/>
	<use xlink:href='#gpPt5' transform='translate(807.3,675.3) scale(2.25)' color='rgb(  0,   0, 255)'/>
	<use xlink:href='#gpPt5' transform='translate(820.1,676.0) scale(2.25)' color='rgb(  0,   0, 255)'/>
	<use xlink:href='#gpPt5' transform='translate(832.9,679.1) scale(2.25)' color='rgb(  0,   0, 255)'/>
	<use xlink:href='#gpPt5' transform='translate(845.6,681.4) scale(2.25)' color='rgb(  0,   0, 255)'/>
	<use xlink:href='#gpPt5' transform='translate(858.4,682.3) scale(2.25)' color='rgb(  0,   0, 255)'/>
	<use xlink:href='#gpPt5' transform='translate(871.2,682.6) scale(2.25)' color='rgb(  0,   0, 255)'/>
	<use xlink:href='#gpPt5' transform='translate(884.0,682.2) scale(2.25)' color='rgb(  0,   0, 255)'/>
	<use xlink:href='#gpPt5' transform='translate(896.8,679.9) scale(2.25)' color='rgb(  0,   0, 255)'/>
	<use xlink:href='#gpPt5' transform='translate(909.6,678.1) scale(2.25)' color='rgb(  0,   0, 255)'/>
	<use xlink:href='#gpPt5' transform='translate(922.4,676.0) scale(2.25)' color='rgb(  0,   0, 255)'/>
	<use xlink:href='#gpPt5' transform='translate(935.2,672.1) scale(2.25)' color='rgb(  0,   0, 255)'/>
	<use xlink:href='#gpPt5' transform='translate(948.0,667.7) scale(2.25)' color='rgb(  0,   0, 255)'/>
	<use xlink:href='#gpPt5' transform='translate(960.8,661.4) scale(2.25)' color='rgb(  0,   0, 255)'/>
	<use xlink:href='#gpPt5' transform='translate(973.6,655.6) scale(2.25)' color='rgb(  0,   0, 255)'/>
	<use xlink:href='#gpPt5' transform='translate(986.4,649.8) scale(2.25)' color='rgb(  0,   0, 255)'/>
	<use xlink:href='#gpPt5' transform='translate(999.2,641.3) scale(2.25)' color='rgb(  0,   0, 255)'/>
	<use xlink:href='#gpPt5' transform='translate(1011.9,632.1) scale(2.25)' color='rgb(  0,   0, 255)'/>
	<use xlink:href='#gpPt5' transform='translate(1024.7,623.6) scale(2.25)' color='rgb(  0,   0, 255)'/>
	<use xlink:href='#gpPt5' transform='translate(1037.5,613.6) scale(2.25)' color='rgb(  0,   0, 255)'/>
	<use xlink:href='#gpPt5' transform='translate(1050.3,606.4) scale(2.25)' color='rgb(  0,   0, 255)'/>
	<use xlink:href='#gpPt5' transform='translate(1063.1,602.2) scale(2.25)' color='rgb(  0,   0, 255)'/>
	<use xlink:href='#gpPt5' transform='translate(1075.9,596.8) scale(2.25)' color='rgb(  0,   0, 255)'/>
	<use xlink:href='#gpPt5' transform='translate(1088.7,593.1) scale(2.25)' color='rgb(  0,   0, 255)'/>
	<use xlink:href='#gpPt5' transform='translate(1101.5,591.9) scale(2.25)' color='rgb(  0,   0, 255)'/>
	<use xlink:href='#gpPt5' transform='translate(1114.3,589.7) scale(2.25)' color='rgb(  0,   0, 255)'/>
	<use xlink:href='#gpPt5' transform='translate(1127.1,587.1) scale(2.25)' color='rgb(  0,   0, 255)'/>
	<use xlink:href='#gpPt5' transform='translate(1139.9,584.1) scale(2.25)' color='rgb(  0,   0, 255)'/>
	<use xlink:href='#gpPt5' transform='translate(1152.7,579.8) scale(2.25)' color='rgb(  0,   0, 255)'/>
	<use xlink:href='#gpPt5' transform='translate(1165.5,575.8) scale(2.25)' color='rgb(  0,   0, 255)'/>
	<use xlink:href='#gpPt5' transform='translate(1178.2,573.3) scale(2.25)' color='rgb(  0,   0, 255)'/>
	<use xlink:href='#gpPt5' transform='translate(1191.0,573.1) scale(2.25)' color='rgb(  0,   0, 255)'/>
	<use xlink:href='#gpPt5' transform='translate(1203.8,575.5) scale(2.25)' color='rgb(  0,   0, 255)'/>
	<use xlink:href='#gpPt5' transform='translate(1216.6,577.4) scale(2.25)' color='rgb(  0,   0, 255)'/>
	<use xlink:href='#gpPt5' transform='translate(1229.4,572.5) scale(2.25)' color='rgb(  0,   0, 255)'/>
	<use xlink:href='#gpPt5' transform='translate(1242.2,557.7) scale(2.25)' color='rgb(  0,   0, 255)'/>
	<use xlink:href='#gpPt5' transform='translate(1255.0,541.5) scale(2.25)' color='rgb(  0,   0, 255)'/>
</g>
	</g>
	<g id="gnuplot_plot_4" ><title>fit</title>
<g fill="none" color="black" stroke="currentColor" stroke-width="1.00" stroke-linecap="butt" stroke-linejoin="miter">
	<g transform="translate(1187.9,94.0)" stroke="none" fill="black" font-family="Arial" font-size="12.00"  text-anchor="end">
		<text><tspan font-family="Arial" >fit</tspan></text>
	</g>
</g>
<g fill="none" color="black" stroke="currentColor" stroke-width="1.00" stroke-linecap="butt" stroke-linejoin="miter">
	<path stroke='rgb(255,   0,   0)'  d='M1196.2,90.1 L1238.4,90.1 M103.7,111.7 L104.8,112.0 L106.0,112.9 L107.1,114.5 L108.2,116.7 L109.3,119.4
		L110.5,122.6 L111.6,126.2 L112.7,130.1 L113.8,134.4 L115.0,138.9 L116.1,143.6 L117.2,148.5 L118.3,153.4
		L119.5,158.3 L120.6,163.3 L121.7,168.2 L122.8,173.1 L124.0,177.9 L125.1,182.6 L126.2,187.1 L127.3,191.6
		L128.5,195.9 L129.6,200.1 L130.7,204.1 L131.8,208.0 L133.0,211.7 L134.1,215.3 L135.2,218.8 L136.3,222.1
		L137.5,225.3 L138.6,228.4 L139.7,231.4 L140.8,234.2 L142.0,237.0 L143.1,239.6 L144.2,242.2 L145.3,244.6
		L146.5,247.0 L147.6,249.3 L148.7,251.5 L149.8,253.7 L151.0,255.7 L152.1,257.8 L153.2,259.7 L154.3,261.6
		L155.5,263.5 L156.6,265.3 L157.7,267.1 L158.8,268.8 L160.0,270.5 L161.1,272.2 L162.2,273.8 L163.3,275.4
		L164.5,276.9 L165.6,278.5 L166.7,280.0 L167.8,281.5 L169.0,283.0 L170.1,284.4 L171.2,285.9 L172.4,287.3
		L173.5,288.7 L174.6,290.1 L175.7,291.5 L176.9,292.9 L178.0,294.2 L179.1,295.6 L180.2,296.9 L181.4,298.2
		L182.5,299.6 L183.6,300.9 L184.7,302.2 L185.9,303.5 L187.0,304.8 L188.1,306.1 L189.2,307.3 L190.4,308.6
		L191.5,309.9 L192.6,311.1 L193.7,312.4 L194.9,313.6 L196.0,314.9 L197.1,316.1 L198.2,317.4 L199.4,318.6
		L200.5,319.9 L201.6,321.1 L202.7,322.3 L203.9,323.5 L205.0,324.8 L206.1,326.0 L207.2,327.2 L208.4,328.4
		L209.5,329.6 L210.6,330.8 L211.7,332.0 L212.9,333.2 L214.0,334.4 L215.1,335.6 L216.2,336.8 L217.4,338.0
		L218.5,339.2 L219.6,340.4 L220.7,341.5 L221.9,342.7 L223.0,343.9 L224.1,345.1 L225.2,346.2 L226.4,347.4
		L227.5,348.6 L228.6,349.7 L229.7,350.9 L230.9,352.1 L232.0,353.2 L233.1,354.4 L234.2,355.5 L235.4,356.7
		L236.5,357.8 L237.6,358.9 L238.7,360.1 L239.9,361.2 L241.0,362.4 L242.1,363.5 L243.3,364.6 L244.4,365.7
		L245.5,366.9 L246.6,368.0 L247.8,369.1 L248.9,370.2 L250.0,371.3 L251.1,372.4 L252.3,373.6 L253.4,374.7
		L254.5,375.8 L255.6,376.9 L256.8,378.0 L257.9,379.1 L259.0,380.1 L260.1,381.2 L261.3,382.3 L262.4,383.4
		L263.5,384.5 L264.6,385.6 L265.8,386.6 L266.9,387.7 L268.0,388.8 L269.1,389.8 L270.3,390.9 L271.4,392.0
		L272.5,393.0 L273.6,394.1 L274.8,395.1 L275.9,396.2 L277.0,397.2 L278.1,398.2 L279.3,399.3 L280.4,400.3
		L281.5,401.4 L282.6,402.4 L283.8,403.4 L284.9,404.4 L286.0,405.5 L287.1,406.5 L288.3,407.5 L289.4,408.5
		L290.5,409.5 L291.6,410.5 L292.8,411.5 L293.9,412.5 L295.0,413.5 L296.1,414.5 L297.3,415.5 L298.4,416.5
		L299.5,417.5 L300.6,418.5 L301.8,419.5 L302.9,420.4 L304.0,421.4 L305.1,422.4 L306.3,423.4 L307.4,424.3
		L308.5,425.3 L309.7,426.2 L310.8,427.2 L311.9,428.2 L313.0,429.1 L314.2,430.1 L315.3,431.0 L316.4,432.0
		L317.5,432.9 L318.7,433.8 L319.8,434.8 L320.9,435.7 L322.0,436.6 L323.2,437.6 L324.3,438.5 L325.4,439.4
		L326.5,440.3 L327.7,441.2 L328.8,442.2 L329.9,443.1 L331.0,444.0 L332.2,444.9 L333.3,445.8 L334.4,446.7
		L335.5,447.6 L336.7,448.5 L337.8,449.4 L338.9,450.3 L340.0,451.2 L341.2,452.0 L342.3,452.9 L343.4,453.8
		L344.5,454.7 L345.7,455.6 L346.8,456.4 L347.9,457.3 L349.0,458.2 L350.2,459.0 L351.3,459.9 L352.4,460.8
		L353.5,461.6 L354.7,462.5 L355.8,463.3 L356.9,464.2 L358.0,465.0 L359.2,465.9 L360.3,466.7 L361.4,467.6
		L362.5,468.4 L363.7,469.2 L364.8,470.1 L365.9,470.9 L367.0,471.7 L368.2,472.6 L369.3,473.4 L370.4,474.2
		L371.5,475.0 L372.7,475.8 L373.8,476.7 L374.9,477.5 L376.1,478.3 L377.2,479.1 L378.3,479.9 L379.4,480.7
		L380.6,481.5 L381.7,482.3 L382.8,483.1 L383.9,483.9 L385.1,484.7 L386.2,485.5 L387.3,486.3 L388.4,487.1
		L389.6,487.8 L390.7,488.6 L391.8,489.4 L392.9,490.2 L394.1,491.0 L395.2,491.7 L396.3,492.5 L397.4,493.3
		L398.6,494.1 L399.7,494.8 L400.8,495.6 L401.9,496.3 L403.1,497.1 L404.2,497.9 L405.3,498.6 L406.4,499.4
		L407.6,500.1 L408.7,500.9 L409.8,501.6 L410.9,502.4 L412.1,503.1 L413.2,503.9 L414.3,504.6 L415.4,505.3
		L416.6,506.1 L417.7,506.8 L418.8,507.5 L419.9,508.3 L421.1,509.0 L422.2,509.7 L423.3,510.5 L424.4,511.2
		L425.6,511.9 L426.7,512.6 L427.8,513.4 L428.9,514.1 L430.1,514.8 L431.2,515.5 L432.3,516.2 L433.4,516.9
		L434.6,517.6 L435.7,518.3 L436.8,519.0 L437.9,519.8 L439.1,520.5 L440.2,521.2 L441.3,521.9 L442.5,522.6
		L443.6,523.2 L444.7,523.9 L445.8,524.6 L447.0,525.3 L448.1,526.0 L449.2,526.7 L450.3,527.4 L451.5,528.1
		L452.6,528.8 L453.7,529.4 L454.8,530.1 L456.0,530.8 L457.1,531.5 L458.2,532.2 L459.3,532.8 L460.5,533.5
		L461.6,534.2 L462.7,534.8 L463.8,535.5 L465.0,536.2 L466.1,536.8 L467.2,537.5 L468.3,538.2 L469.5,538.8
		L470.6,539.5 L471.7,540.1 L472.8,540.8 L474.0,541.5 L475.1,542.1 L476.2,542.8 L477.3,543.4 L478.5,544.1
		L479.6,544.7 L480.7,545.4 L481.8,546.0 L483.0,546.6 L484.1,547.3 L485.2,547.9 L486.3,548.6 L487.5,549.2
		L488.6,549.8 L489.7,550.5 L490.8,551.1 L492.0,551.8 L493.1,552.4 L494.2,553.0 L495.3,553.6 L496.5,554.3
		L497.6,554.9 L498.7,555.5 L499.8,556.2 L501.0,556.8 L502.1,557.4 L503.2,558.0 L504.3,558.6 L505.5,559.3
		L506.6,559.9 L507.7,560.5 L508.8,561.1 L510.0,561.7 L511.1,562.3 L512.2,563.0 L513.4,563.6 L514.5,564.2
		L515.6,564.8 L516.7,565.4 L517.9,566.0 L519.0,566.6 L520.1,567.2 L521.2,567.8 L522.4,568.4 L523.5,569.0
		L524.6,569.6 L525.7,570.2 L526.9,570.8 L528.0,571.4 L529.1,572.0 L530.2,572.6 L531.4,573.2 L532.5,573.8
		L533.6,574.4 L534.7,575.0 L535.9,575.5 L537.0,576.1 L538.1,576.7 L539.2,577.3 L540.4,577.9 L541.5,578.5
		L542.6,579.1 L543.7,579.6 L544.9,580.2 L546.0,580.8 L547.1,581.4 L548.2,582.0 L549.4,582.5 L550.5,583.1
		L551.6,583.7 L552.7,584.3 L553.9,584.8 L555.0,585.4 L556.1,586.0 L557.2,586.5 L558.4,587.1 L559.5,587.7
		L560.6,588.2 L561.7,588.8 L562.9,589.4 L564.0,589.9 L565.1,590.5 L566.2,591.1 L567.4,591.6 L568.5,592.2
		L569.6,592.7 L570.7,593.3 L571.9,593.9 L573.0,594.4 L574.1,595.0 L575.2,595.5 L576.4,596.1 L577.5,596.6
		L578.6,597.2 L579.8,597.7 L580.9,598.3 L582.0,598.8 L583.1,599.4 L584.3,599.9 L585.4,600.5 L586.5,601.0
		L587.6,601.6 L588.8,602.1 L589.9,602.7 L591.0,603.2 L592.1,603.7 L593.3,604.3 L594.4,604.8 L595.5,605.4
		L596.6,605.9 L597.8,606.4 L598.9,607.0 L600.0,607.5 L601.1,608.0 L602.3,608.6 L603.4,609.1 L604.5,609.6
		L605.6,610.2 L606.8,610.7 L607.9,611.2 L609.0,611.7 L610.1,612.3 L611.3,612.8 L612.4,613.3 L613.5,613.8
		L614.6,614.4 L615.8,614.9 L616.9,615.4 L618.0,615.9 L619.1,616.4 L620.3,617.0 L621.4,617.5 L622.5,618.0
		L623.6,618.5 L624.8,619.0 L625.9,619.5 L627.0,620.1 L628.1,620.6 L629.3,621.1 L630.4,621.6 L631.5,622.1
		L632.6,622.6 L633.8,623.1 L634.9,623.6 L636.0,624.1 L637.1,624.6 L638.3,625.1 L639.4,625.6 L640.5,626.1
		L641.6,626.6 L642.8,627.1 L643.9,627.6 L645.0,628.1 L646.2,628.6 L647.3,629.1 L648.4,629.6 L649.5,630.1
		L650.7,630.6 L651.8,631.1 L652.9,631.6 L654.0,632.0 L655.2,632.5 L656.3,633.0 L657.4,633.5 L658.5,634.0
		L659.7,634.5 L660.8,634.9 L661.9,635.4 L663.0,635.9 L664.2,636.4 L665.3,636.9 L666.4,637.3 L667.5,637.8
		L668.7,638.3 L669.8,638.7 L670.9,639.2 L672.0,639.7 L673.2,640.2 L674.3,640.6 L675.4,641.1 L676.5,641.5
		L677.7,642.0 L678.8,642.5 L679.9,642.9 L681.0,643.4 L682.2,643.8 L683.3,644.3 L684.4,644.7 L685.5,645.2
		L686.7,645.6 L687.8,646.1 L688.9,646.5 L690.0,647.0 L691.2,647.4 L692.3,647.9 L693.4,648.3 L694.5,648.8
		L695.7,649.2 L696.8,649.6 L697.9,650.1 L699.0,650.5 L700.2,650.9 L701.3,651.4 L702.4,651.8 L703.5,652.2
		L704.7,652.6 L705.8,653.1 L706.9,653.5 L708.0,653.9 L709.2,654.3 L710.3,654.7 L711.4,655.2 L712.5,655.6
		L713.7,656.0 L714.8,656.4 L715.9,656.8 L717.1,657.2 L718.2,657.6 L719.3,658.0 L720.4,658.4 L721.6,658.8
		L722.7,659.2 L723.8,659.6 L724.9,660.0 L726.1,660.3 L727.2,660.7 L728.3,661.1 L729.4,661.5 L730.6,661.9
		L731.7,662.2 L732.8,662.6 L733.9,663.0 L735.1,663.4 L736.2,663.7 L737.3,664.1 L738.4,664.5 L739.6,664.8
		L740.7,665.2 L741.8,665.5 L742.9,665.9 L744.1,666.2 L745.2,666.6 L746.3,666.9 L747.4,667.2 L748.6,667.6
		L749.7,667.9 L750.8,668.2 L751.9,668.6 L753.1,668.9 L754.2,669.2 L755.3,669.5 L756.4,669.9 L757.6,670.2
		L758.7,670.5 L759.8,670.8 L760.9,671.1 L762.1,671.4 L763.2,671.7 L764.3,672.0 L765.4,672.3 L766.6,672.6
		L767.7,672.9 L768.8,673.1 L769.9,673.4 L771.1,673.7 L772.2,674.0 L773.3,674.2 L774.4,674.5 L775.6,674.8
		L776.7,675.0 L777.8,675.3 L778.9,675.5 L780.1,675.8 L781.2,676.0 L782.3,676.2 L783.5,676.5 L784.6,676.7
		L785.7,676.9 L786.8,677.2 L788.0,677.4 L789.1,677.6 L790.2,677.8 L791.3,678.0 L792.5,678.2 L793.6,678.4
		L794.7,678.6 L795.8,678.8 L797.0,679.0 L798.1,679.2 L799.2,679.4 L800.3,679.5 L801.5,679.7 L802.6,679.9
		L803.7,680.0 L804.8,680.2 L806.0,680.3 L807.1,680.5 L808.2,680.6 L809.3,680.8 L810.5,680.9 L811.6,681.0
		L812.7,681.2 L813.8,681.3 L815.0,681.4 L816.1,681.5 L817.2,681.6 L818.3,681.7 L819.5,681.8 L820.6,681.9
		L821.7,682.0 L822.8,682.1 L824.0,682.2 L825.1,682.2 L826.2,682.3 L827.3,682.4 L828.5,682.4 L829.6,682.5
		L830.7,682.5 L831.8,682.6 L833.0,682.6 L834.1,682.7 L835.2,682.7 L836.3,682.7 L837.5,682.7 L838.6,682.7
		L839.7,682.8 L840.8,682.8 L842.0,682.8 L843.1,682.8 L844.2,682.7 L845.3,682.7 L846.5,682.7 L847.6,682.7
		L848.7,682.7 L849.9,682.6 L851.0,682.6 L852.1,682.5 L853.2,682.5 L854.4,682.4 L855.5,682.4 L856.6,682.3
		L857.7,682.2 L858.9,682.2 L860.0,682.1 L861.1,682.0 L862.2,681.9 L863.4,681.8 L864.5,681.7 L865.6,681.6
		L866.7,681.5 L867.9,681.4 L869.0,681.2 L870.1,681.1 L871.2,681.0 L872.4,680.9 L873.5,680.7 L874.6,680.6
		L875.7,680.4 L876.9,680.3 L878.0,680.1 L879.1,679.9 L880.2,679.8 L881.4,679.6 L882.5,679.4 L883.6,679.2
		L884.7,679.0 L885.9,678.9 L887.0,678.7 L888.1,678.5 L889.2,678.2 L890.4,678.0 L891.5,677.8 L892.6,677.6
		L893.7,677.4 L894.9,677.1 L896.0,676.9 L897.1,676.7 L898.2,676.4 L899.4,676.2 L900.5,675.9 L901.6,675.7
		L902.7,675.4 L903.9,675.2 L905.0,674.9 L906.1,674.6 L907.2,674.3 L908.4,674.1 L909.5,673.8 L910.6,673.5
		L911.7,673.2 L912.9,672.9 L914.0,672.6 L915.1,672.3 L916.2,672.0 L917.4,671.7 L918.5,671.4 L919.6,671.1
		L920.8,670.7 L921.9,670.4 L923.0,670.1 L924.1,669.8 L925.3,669.4 L926.4,669.1 L927.5,668.7 L928.6,668.4
		L929.8,668.1 L930.9,667.7 L932.0,667.4 L933.1,667.0 L934.3,666.6 L935.4,666.3 L936.5,665.9 L937.6,665.5
		L938.8,665.2 L939.9,664.8 L941.0,664.4 L942.1,664.0 L943.3,663.7 L944.4,663.3 L945.5,662.9 L946.6,662.5
		L947.8,662.1 L948.9,661.7 L950.0,661.3 L951.1,660.9 L952.3,660.5 L953.4,660.1 L954.5,659.7 L955.6,659.3
		L956.8,658.9 L957.9,658.5 L959.0,658.0 L960.1,657.6 L961.3,657.2 L962.4,656.8 L963.5,656.4 L964.6,655.9
		L965.8,655.5 L966.9,655.1 L968.0,654.7 L969.1,654.2 L970.3,653.8 L971.4,653.4 L972.5,652.9 L973.6,652.5
		L974.8,652.0 L975.9,651.6 L977.0,651.2 L978.1,650.7 L979.3,650.3 L980.4,649.8 L981.5,649.4 L982.6,648.9
		L983.8,648.5 L984.9,648.0 L986.0,647.6 L987.2,647.1 L988.3,646.7 L989.4,646.2 L990.5,645.8 L991.7,645.3
		L992.8,644.9 L993.9,644.4 L995.0,644.0 L996.2,643.5 L997.3,643.0 L998.4,642.6 L999.5,642.1 L1000.7,641.7
		L1001.8,641.2 L1002.9,640.7 L1004.0,640.3 L1005.2,639.8 L1006.3,639.4 L1007.4,638.9 L1008.5,638.4 L1009.7,638.0
		L1010.8,637.5 L1011.9,637.1 L1013.0,636.6 L1014.2,636.1 L1015.3,635.7 L1016.4,635.2 L1017.5,634.7 L1018.7,634.3
		L1019.8,633.8 L1020.9,633.4 L1022.0,632.9 L1023.2,632.4 L1024.3,632.0 L1025.4,631.5 L1026.5,631.1 L1027.7,630.6
		L1028.8,630.1 L1029.9,629.7 L1031.0,629.2 L1032.2,628.8 L1033.3,628.3 L1034.4,627.9 L1035.5,627.4 L1036.7,626.9
		L1037.8,626.5 L1038.9,626.0 L1040.0,625.6 L1041.2,625.1 L1042.3,624.7 L1043.4,624.2 L1044.5,623.8 L1045.7,623.3
		L1046.8,622.9 L1047.9,622.4 L1049.0,622.0 L1050.2,621.5 L1051.3,621.1 L1052.4,620.6 L1053.6,620.2 L1054.7,619.8
		L1055.8,619.3 L1056.9,618.9 L1058.1,618.4 L1059.2,618.0 L1060.3,617.6 L1061.4,617.1 L1062.6,616.7 L1063.7,616.3
		L1064.8,615.8 L1065.9,615.4 L1067.1,615.0 L1068.2,614.5 L1069.3,614.1 L1070.4,613.7 L1071.6,613.3 L1072.7,612.8
		L1073.8,612.4 L1074.9,612.0 L1076.1,611.6 L1077.2,611.2 L1078.3,610.8 L1079.4,610.3 L1080.6,609.9 L1081.7,609.5
		L1082.8,609.1 L1083.9,608.7 L1085.1,608.3 L1086.2,607.9 L1087.3,607.5 L1088.4,607.1 L1089.6,606.7 L1090.7,606.3
		L1091.8,605.9 L1092.9,605.5 L1094.1,605.1 L1095.2,604.7 L1096.3,604.4 L1097.4,604.0 L1098.6,603.6 L1099.7,603.2
		L1100.8,602.8 L1101.9,602.5 L1103.1,602.1 L1104.2,601.7 L1105.3,601.3 L1106.4,601.0 L1107.6,600.6 L1108.7,600.2
		L1109.8,599.9 L1110.9,599.5 L1112.1,599.2 L1113.2,598.8 L1114.3,598.4 L1115.4,598.1 L1116.6,597.7 L1117.7,597.4
		L1118.8,597.0 L1120.0,596.7 L1121.1,596.4 L1122.2,596.0 L1123.3,595.7 L1124.5,595.3 L1125.6,595.0 L1126.7,594.7
		L1127.8,594.4 L1129.0,594.0 L1130.1,593.7 L1131.2,593.4 L1132.3,593.1 L1133.5,592.8 L1134.6,592.4 L1135.7,592.1
		L1136.8,591.8 L1138.0,591.5 L1139.1,591.2 L1140.2,590.9 L1141.3,590.6 L1142.5,590.3 L1143.6,590.0 L1144.7,589.7
		L1145.8,589.4 L1147.0,589.2 L1148.1,588.9 L1149.2,588.6 L1150.3,588.3 L1151.5,588.0 L1152.6,587.8 L1153.7,587.5
		L1154.8,587.2 L1156.0,587.0 L1157.1,586.7 L1158.2,586.4 L1159.3,586.2 L1160.5,585.9 L1161.6,585.7 L1162.7,585.4
		L1163.8,585.2 L1165.0,584.9 L1166.1,584.7 L1167.2,584.5 L1168.3,584.2 L1169.5,584.0 L1170.6,583.8 L1171.7,583.5
		L1172.8,583.3 L1174.0,583.1 L1175.1,582.9 L1176.2,582.7 L1177.3,582.4 L1178.5,582.2 L1179.6,582.0 L1180.7,581.8
		L1181.8,581.6 L1183.0,581.4 L1184.1,581.2 L1185.2,581.0 L1186.3,580.8 L1187.5,580.7 L1188.6,580.5 L1189.7,580.3
		L1190.9,580.1 L1192.0,579.9 L1193.1,579.8 L1194.2,579.6 L1195.4,579.4 L1196.5,579.3 L1197.6,579.1 L1198.7,579.0
		L1199.9,578.8 L1201.0,578.7 L1202.1,578.5 L1203.2,578.4 L1204.4,578.2 L1205.5,578.1 L1206.6,577.9 L1207.7,577.8
		L1208.9,577.7 L1210.0,577.6 L1211.1,577.4 L1212.2,577.3 L1213.4,577.2 L1214.5,577.1 L1215.6,577.0 L1216.7,576.9
		L1217.9,576.8 L1219.0,576.7 L1220.1,576.6 L1221.2,576.5 L1222.4,576.4 L1223.5,576.3 L1224.6,576.2 L1225.7,576.1
		L1226.9,576.0 L1228.0,575.9 L1229.1,575.9 L1230.2,575.8 L1231.4,575.7 L1232.5,575.7 L1233.6,575.6 L1234.7,575.5
		L1235.9,575.5 L1237.0,575.4 L1238.1,575.4 L1239.2,575.3 L1240.4,575.3 L1241.5,575.3 L1242.6,575.2 L1243.7,575.2
		L1244.9,575.2 L1246.0,575.1 L1247.1,575.1 L1248.2,575.1 L1249.4,575.1 L1250.5,575.1 L1251.6,575.1 L1252.7,575.0
		L1253.9,575.0 L1255.0,575.0  '/></g>
	</g>
	<g id="gnuplot_plot_5" ><title>gnuplot_plot_5</title>
<g fill="none" color="black" stroke="currentColor" stroke-width="1.00" stroke-linecap="butt" stroke-linejoin="miter">
	<path stroke='rgb(  0, 100,   0)'  d='M103.7,101.2 L104.8,101.5 L106.0,102.5 L107.1,104.1 L108.2,106.3 L109.3,109.1 L110.5,112.3 L111.6,116.0
		L112.7,120.0 L113.8,124.4 L115.0,129.0 L116.1,133.9 L117.2,138.8 L118.3,143.9 L119.5,149.0 L120.6,154.1
		L121.7,159.2 L122.8,164.3 L124.0,169.2 L125.1,174.1 L126.2,178.9 L127.3,183.5 L128.5,188.0 L129.6,192.4
		L130.7,196.7 L131.8,200.8 L133.0,204.7 L134.1,208.5 L135.2,212.2 L136.3,215.7 L137.5,219.1 L138.6,222.4
		L139.7,225.6 L140.8,228.6 L142.0,231.5 L143.1,234.3 L144.2,237.1 L145.3,239.7 L146.5,242.2 L147.6,244.7
		L148.7,247.0 L149.8,249.3 L151.0,251.5 L152.1,253.7 L153.2,255.8 L154.3,257.8 L155.5,259.8 L156.6,261.7
		L157.7,263.6 L158.8,265.4 L160.0,267.2 L161.1,269.0 L162.2,270.7 L163.3,272.4 L164.5,274.0 L165.6,275.6
		L166.7,277.2 L167.8,278.8 L169.0,280.4 L170.1,281.9 L171.2,283.4 L172.4,284.9 L173.5,286.3 L174.6,287.8
		L175.7,289.2 L176.9,290.7 L178.0,292.1 L179.1,293.5 L180.2,294.8 L181.4,296.2 L182.5,297.6 L183.6,298.9
		L184.7,300.3 L185.9,301.6 L187.0,302.9 L188.1,304.3 L189.2,305.6 L190.4,306.9 L191.5,308.2 L192.6,309.5
		L193.7,310.8 L194.9,312.0 L196.0,313.3 L197.1,314.6 L198.2,315.9 L199.4,317.1 L200.5,318.4 L201.6,319.6
		L202.7,320.9 L203.9,322.1 L205.0,323.4 L206.1,324.6 L207.2,325.8 L208.4,327.1 L209.5,328.3 L210.6,329.5
		L211.7,330.7 L212.9,331.9 L214.0,333.2 L215.1,334.4 L216.2,335.6 L217.4,336.8 L218.5,338.0 L219.6,339.2
		L220.7,340.4 L221.9,341.6 L223.0,342.8 L224.1,343.9 L225.2,345.1 L226.4,346.3 L227.5,347.5 L228.6,348.7
		L229.7,349.8 L230.9,351.0 L232.0,352.2 L233.1,353.3 L234.2,354.5 L235.4,355.6 L236.5,356.8 L237.6,357.9
		L238.7,359.1 L239.9,360.2 L241.0,361.4 L242.1,362.5 L243.3,363.7 L244.4,364.8 L245.5,365.9 L246.6,367.1
		L247.8,368.2 L248.9,369.3 L250.0,370.4 L251.1,371.5 L252.3,372.7 L253.4,373.8 L254.5,374.9 L255.6,376.0
		L256.8,377.1 L257.9,378.2 L259.0,379.3 L260.1,380.4 L261.3,381.5 L262.4,382.6 L263.5,383.6 L264.6,384.7
		L265.8,385.8 L266.9,386.9 L268.0,387.9 L269.1,389.0 L270.3,390.1 L271.4,391.1 L272.5,392.2 L273.6,393.3
		L274.8,394.3 L275.9,395.4 L277.0,396.4 L278.1,397.5 L279.3,398.5 L280.4,399.6 L281.5,400.6 L282.6,401.6
		L283.8,402.7 L284.9,403.7 L286.0,404.7 L287.1,405.7 L288.3,406.8 L289.4,407.8 L290.5,408.8 L291.6,409.8
		L292.8,410.8 L293.9,411.8 L295.0,412.8 L296.1,413.8 L297.3,414.8 L298.4,415.8 L299.5,416.8 L300.6,417.8
		L301.8,418.8 L302.9,419.7 L304.0,420.7 L305.1,421.7 L306.3,422.7 L307.4,423.6 L308.5,424.6 L309.7,425.6
		L310.8,426.5 L311.9,427.5 L313.0,428.4 L314.2,429.4 L315.3,430.3 L316.4,431.3 L317.5,432.2 L318.7,433.2
		L319.8,434.1 L320.9,435.1 L322.0,436.0 L323.2,436.9 L324.3,437.8 L325.4,438.8 L326.5,439.7 L327.7,440.6
		L328.8,441.5 L329.9,442.4 L331.0,443.4 L332.2,444.3 L333.3,445.2 L334.4,446.1 L335.5,447.0 L336.7,447.9
		L337.8,448.8 L338.9,449.7 L340.0,450.6 L341.2,451.4 L342.3,452.3 L343.4,453.2 L344.5,454.1 L345.7,455.0
		L346.8,455.9 L347.9,456.7 L349.0,457.6 L350.2,458.5 L351.3,459.3 L352.4,460.2 L353.5,461.1 L354.7,461.9
		L355.8,462.8 L356.9,463.6 L358.0,464.5 L359.2,465.3 L360.3,466.2 L361.4,467.0 L362.5,467.9 L363.7,468.7
		L364.8,469.5 L365.9,470.4 L367.0,471.2 L368.2,472.0 L369.3,472.8 L370.4,473.7 L371.5,474.5 L372.7,475.3
		L373.8,476.1 L374.9,477.0 L376.1,477.8 L377.2,478.6 L378.3,479.4 L379.4,480.2 L380.6,481.0 L381.7,481.8
		L382.8,482.6 L383.9,483.4 L385.1,484.2 L386.2,485.0 L387.3,485.8 L388.4,486.6 L389.6,487.4 L390.7,488.1
		L391.8,488.9 L392.9,489.7 L394.1,490.5 L395.2,491.3 L396.3,492.0 L397.4,492.8 L398.6,493.6 L399.7,494.4
		L400.8,495.1 L401.9,495.9 L403.1,496.7 L404.2,497.4 L405.3,498.2 L406.4,498.9 L407.6,499.7 L408.7,500.4
		L409.8,501.2 L410.9,501.9 L412.1,502.7 L413.2,503.4 L414.3,504.2 L415.4,504.9 L416.6,505.7 L417.7,506.4
		L418.8,507.1 L419.9,507.9 L421.1,508.6 L422.2,509.3 L423.3,510.1 L424.4,510.8 L425.6,511.5 L426.7,512.2
		L427.8,513.0 L428.9,513.7 L430.1,514.4 L431.2,515.1 L432.3,515.8 L433.4,516.6 L434.6,517.3 L435.7,518.0
		L436.8,518.7 L437.9,519.4 L439.1,520.1 L440.2,520.8 L441.3,521.5 L442.5,522.2 L443.6,522.9 L444.7,523.6
		L445.8,524.3 L447.0,525.0 L448.1,525.7 L449.2,526.4 L450.3,527.1 L451.5,527.8 L452.6,528.4 L453.7,529.1
		L454.8,529.8 L456.0,530.5 L457.1,531.2 L458.2,531.8 L459.3,532.5 L460.5,533.2 L461.6,533.9 L462.7,534.5
		L463.8,535.2 L465.0,535.9 L466.1,536.6 L467.2,537.2 L468.3,537.9 L469.5,538.6 L470.6,539.2 L471.7,539.9
		L472.8,540.5 L474.0,541.2 L475.1,541.9 L476.2,542.5 L477.3,543.2 L478.5,543.8 L479.6,544.5 L480.7,545.1
		L481.8,545.8 L483.0,546.4 L484.1,547.1 L485.2,547.7 L486.3,548.4 L487.5,549.0 L488.6,549.6 L489.7,550.3
		L490.8,550.9 L492.0,551.6 L493.1,552.2 L494.2,552.8 L495.3,553.5 L496.5,554.1 L497.6,554.7 L498.7,555.4
		L499.8,556.0 L501.0,556.6 L502.1,557.2 L503.2,557.9 L504.3,558.5 L505.5,559.1 L506.6,559.7 L507.7,560.4
		L508.8,561.0 L510.0,561.6 L511.1,562.2 L512.2,562.8 L513.4,563.4 L514.5,564.1 L515.6,564.7 L516.7,565.3
		L517.9,565.9 L519.0,566.5 L520.1,567.1 L521.2,567.7 L522.4,568.3 L523.5,568.9 L524.6,569.5 L525.7,570.1
		L526.9,570.7 L528.0,571.3 L529.1,571.9 L530.2,572.5 L531.4,573.1 L532.5,573.7 L533.6,574.3 L534.7,574.9
		L535.9,575.5 L537.0,576.1 L538.1,576.7 L539.2,577.3 L540.4,577.9 L541.5,578.5 L542.6,579.1 L543.7,579.7
		L544.9,580.2 L546.0,580.8 L547.1,581.4 L548.2,582.0 L549.4,582.6 L550.5,583.2 L551.6,583.7 L552.7,584.3
		L553.9,584.9 L555.0,585.5 L556.1,586.0 L557.2,586.6 L558.4,587.2 L559.5,587.8 L560.6,588.3 L561.7,588.9
		L562.9,589.5 L564.0,590.1 L565.1,590.6 L566.2,591.2 L567.4,591.8 L568.5,592.3 L569.6,592.9 L570.7,593.5
		L571.9,594.0 L573.0,594.6 L574.1,595.1 L575.2,595.7 L576.4,596.3 L577.5,596.8 L578.6,597.4 L579.8,597.9
		L580.9,598.5 L582.0,599.0 L583.1,599.6 L584.3,600.2 L585.4,600.7 L586.5,601.3 L587.6,601.8 L588.8,602.4
		L589.9,602.9 L591.0,603.5 L592.1,604.0 L593.3,604.6 L594.4,605.1 L595.5,605.6 L596.6,606.2 L597.8,606.7
		L598.9,607.3 L600.0,607.8 L601.1,608.4 L602.3,608.9 L603.4,609.4 L604.5,610.0 L605.6,610.5 L606.8,611.0
		L607.9,611.6 L609.0,612.1 L610.1,612.6 L611.3,613.2 L612.4,613.7 L613.5,614.2 L614.6,614.8 L615.8,615.3
		L616.9,615.8 L618.0,616.4 L619.1,616.9 L620.3,617.4 L621.4,617.9 L622.5,618.5 L623.6,619.0 L624.8,619.5
		L625.9,620.0 L627.0,620.5 L628.1,621.1 L629.3,621.6 L630.4,622.1 L631.5,622.6 L632.6,623.1 L633.8,623.6
		L634.9,624.2 L636.0,624.7 L637.1,625.2 L638.3,625.7 L639.4,626.2 L640.5,626.7 L641.6,627.2 L642.8,627.7
		L643.9,628.2 L645.0,628.7 L646.2,629.2 L647.3,629.7 L648.4,630.2 L649.5,630.7 L650.7,631.2 L651.8,631.7
		L652.9,632.2 L654.0,632.7 L655.2,633.2 L656.3,633.7 L657.4,634.2 L658.5,634.7 L659.7,635.2 L660.8,635.7
		L661.9,636.2 L663.0,636.6 L664.2,637.1 L665.3,637.6 L666.4,638.1 L667.5,638.6 L668.7,639.1 L669.8,639.5
		L670.9,640.0 L672.0,640.5 L673.2,641.0 L674.3,641.4 L675.4,641.9 L676.5,642.4 L677.7,642.9 L678.8,643.3
		L679.9,643.8 L681.0,644.3 L682.2,644.7 L683.3,645.2 L684.4,645.6 L685.5,646.1 L686.7,646.6 L687.8,647.0
		L688.9,647.5 L690.0,647.9 L691.2,648.4 L692.3,648.8 L693.4,649.3 L694.5,649.7 L695.7,650.2 L696.8,650.6
		L697.9,651.1 L699.0,651.5 L700.2,651.9 L701.3,652.4 L702.4,652.8 L703.5,653.3 L704.7,653.7 L705.8,654.1
		L706.9,654.6 L708.0,655.0 L709.2,655.4 L710.3,655.8 L711.4,656.2 L712.5,656.7 L713.7,657.1 L714.8,657.5
		L715.9,657.9 L717.1,658.3 L718.2,658.7 L719.3,659.1 L720.4,659.5 L721.6,660.0 L722.7,660.4 L723.8,660.8
		L724.9,661.1 L726.1,661.5 L727.2,661.9 L728.3,662.3 L729.4,662.7 L730.6,663.1 L731.7,663.5 L732.8,663.9
		L733.9,664.2 L735.1,664.6 L736.2,665.0 L737.3,665.4 L738.4,665.7 L739.6,666.1 L740.7,666.5 L741.8,666.8
		L742.9,667.2 L744.1,667.5 L745.2,667.9 L746.3,668.2 L747.4,668.6 L748.6,668.9 L749.7,669.3 L750.8,669.6
		L751.9,669.9 L753.1,670.3 L754.2,670.6 L755.3,670.9 L756.4,671.2 L757.6,671.5 L758.7,671.9 L759.8,672.2
		L760.9,672.5 L762.1,672.8 L763.2,673.1 L764.3,673.4 L765.4,673.7 L766.6,674.0 L767.7,674.3 L768.8,674.6
		L769.9,674.8 L771.1,675.1 L772.2,675.4 L773.3,675.7 L774.4,675.9 L775.6,676.2 L776.7,676.5 L777.8,676.7
		L778.9,677.0 L780.1,677.2 L781.2,677.5 L782.3,677.7 L783.5,677.9 L784.6,678.2 L785.7,678.4 L786.8,678.6
		L788.0,678.8 L789.1,679.1 L790.2,679.3 L791.3,679.5 L792.5,679.7 L793.6,679.9 L794.7,680.1 L795.8,680.3
		L797.0,680.4 L798.1,680.6 L799.2,680.8 L800.3,681.0 L801.5,681.1 L802.6,681.3 L803.7,681.5 L804.8,681.6
		L806.0,681.8 L807.1,681.9 L808.2,682.1 L809.3,682.2 L810.5,682.3 L811.6,682.5 L812.7,682.6 L813.8,682.7
		L815.0,682.8 L816.1,682.9 L817.2,683.0 L818.3,683.1 L819.5,683.2 L820.6,683.3 L821.7,683.4 L822.8,683.5
		L824.0,683.5 L825.1,683.6 L826.2,683.7 L827.3,683.7 L828.5,683.8 L829.6,683.8 L830.7,683.9 L831.8,683.9
		L833.0,683.9 L834.1,683.9 L835.2,684.0 L836.3,684.0 L837.5,684.0 L838.6,684.0 L839.7,684.0 L840.8,684.0
		L842.0,684.0 L843.1,684.0 L844.2,683.9 L845.3,683.9 L846.5,683.9 L847.6,683.9 L848.7,683.8 L849.9,683.8
		L851.0,683.7 L852.1,683.7 L853.2,683.6 L854.4,683.5 L855.5,683.5 L856.6,683.4 L857.7,683.3 L858.9,683.2
		L860.0,683.1 L861.1,683.0 L862.2,682.9 L863.4,682.8 L864.5,682.7 L865.6,682.6 L866.7,682.4 L867.9,682.3
		L869.0,682.2 L870.1,682.0 L871.2,681.9 L872.4,681.7 L873.5,681.6 L874.6,681.4 L875.7,681.2 L876.9,681.1
		L878.0,680.9 L879.1,680.7 L880.2,680.5 L881.4,680.3 L882.5,680.2 L883.6,680.0 L884.7,679.7 L885.9,679.5
		L887.0,679.3 L888.1,679.1 L889.2,678.9 L890.4,678.6 L891.5,678.4 L892.6,678.2 L893.7,677.9 L894.9,677.7
		L896.0,677.4 L897.1,677.2 L898.2,676.9 L899.4,676.7 L900.5,676.4 L901.6,676.1 L902.7,675.8 L903.9,675.6
		L905.0,675.3 L906.1,675.0 L907.2,674.7 L908.4,674.4 L909.5,674.1 L910.6,673.8 L911.7,673.5 L912.9,673.2
		L914.0,672.8 L915.1,672.5 L916.2,672.2 L917.4,671.9 L918.5,671.5 L919.6,671.2 L920.8,670.8 L921.9,670.5
		L923.0,670.2 L924.1,669.8 L925.3,669.5 L926.4,669.1 L927.5,668.7 L928.6,668.4 L929.8,668.0 L930.9,667.6
		L932.0,667.3 L933.1,666.9 L934.3,666.5 L935.4,666.1 L936.5,665.7 L937.6,665.3 L938.8,665.0 L939.9,664.6
		L941.0,664.2 L942.1,663.8 L943.3,663.4 L944.4,663.0 L945.5,662.6 L946.6,662.1 L947.8,661.7 L948.9,661.3
		L950.0,660.9 L951.1,660.5 L952.3,660.1 L953.4,659.6 L954.5,659.2 L955.6,658.8 L956.8,658.4 L957.9,657.9
		L959.0,657.5 L960.1,657.1 L961.3,656.6 L962.4,656.2 L963.5,655.7 L964.6,655.3 L965.8,654.9 L966.9,654.4
		L968.0,654.0 L969.1,653.5 L970.3,653.1 L971.4,652.6 L972.5,652.2 L973.6,651.7 L974.8,651.3 L975.9,650.8
		L977.0,650.3 L978.1,649.9 L979.3,649.4 L980.4,649.0 L981.5,648.5 L982.6,648.0 L983.8,647.6 L984.9,647.1
		L986.0,646.6 L987.2,646.2 L988.3,645.7 L989.4,645.2 L990.5,644.8 L991.7,644.3 L992.8,643.8 L993.9,643.3
		L995.0,642.9 L996.2,642.4 L997.3,641.9 L998.4,641.5 L999.5,641.0 L1000.7,640.5 L1001.8,640.0 L1002.9,639.6
		L1004.0,639.1 L1005.2,638.6 L1006.3,638.1 L1007.4,637.7 L1008.5,637.2 L1009.7,636.7 L1010.8,636.2 L1011.9,635.8
		L1013.0,635.3 L1014.2,634.8 L1015.3,634.3 L1016.4,633.9 L1017.5,633.4 L1018.7,632.9 L1019.8,632.4 L1020.9,632.0
		L1022.0,631.5 L1023.2,631.0 L1024.3,630.5 L1025.4,630.1 L1026.5,629.6 L1027.7,629.1 L1028.8,628.6 L1029.9,628.2
		L1031.0,627.7 L1032.2,627.2 L1033.3,626.8 L1034.4,626.3 L1035.5,625.8 L1036.7,625.4 L1037.8,624.9 L1038.9,624.4
		L1040.0,624.0 L1041.2,623.5 L1042.3,623.0 L1043.4,622.6 L1044.5,622.1 L1045.7,621.7 L1046.8,621.2 L1047.9,620.7
		L1049.0,620.3 L1050.2,619.8 L1051.3,619.4 L1052.4,618.9 L1053.6,618.5 L1054.7,618.0 L1055.8,617.6 L1056.9,617.1
		L1058.1,616.7 L1059.2,616.2 L1060.3,615.8 L1061.4,615.3 L1062.6,614.9 L1063.7,614.4 L1064.8,614.0 L1065.9,613.6
		L1067.1,613.1 L1068.2,612.7 L1069.3,612.3 L1070.4,611.8 L1071.6,611.4 L1072.7,611.0 L1073.8,610.5 L1074.9,610.1
		L1076.1,609.7 L1077.2,609.3 L1078.3,608.8 L1079.4,608.4 L1080.6,608.0 L1081.7,607.6 L1082.8,607.2 L1083.9,606.7
		L1085.1,606.3 L1086.2,605.9 L1087.3,605.5 L1088.4,605.1 L1089.6,604.7 L1090.7,604.3 L1091.8,603.9 L1092.9,603.5
		L1094.1,603.1 L1095.2,602.7 L1096.3,602.3 L1097.4,601.9 L1098.6,601.5 L1099.7,601.1 L1100.8,600.8 L1101.9,600.4
		L1103.1,600.0 L1104.2,599.6 L1105.3,599.2 L1106.4,598.9 L1107.6,598.5 L1108.7,598.1 L1109.8,597.7 L1110.9,597.4
		L1112.1,597.0 L1113.2,596.7 L1114.3,596.3 L1115.4,595.9 L1116.6,595.6 L1117.7,595.2 L1118.8,594.9 L1120.0,594.5
		L1121.1,594.2 L1122.2,593.8 L1123.3,593.5 L1124.5,593.2 L1125.6,592.8 L1126.7,592.5 L1127.8,592.1 L1129.0,591.8
		L1130.1,591.5 L1131.2,591.2 L1132.3,590.8 L1133.5,590.5 L1134.6,590.2 L1135.7,589.9 L1136.8,589.6 L1138.0,589.3
		L1139.1,589.0 L1140.2,588.6 L1141.3,588.3 L1142.5,588.0 L1143.6,587.7 L1144.7,587.5 L1145.8,587.2 L1147.0,586.9
		L1148.1,586.6 L1149.2,586.3 L1150.3,586.0 L1151.5,585.7 L1152.6,585.5 L1153.7,585.2 L1154.8,584.9 L1156.0,584.6
		L1157.1,584.4 L1158.2,584.1 L1159.3,583.9 L1160.5,583.6 L1161.6,583.3 L1162.7,583.1 L1163.8,582.8 L1165.0,582.6
		L1166.1,582.4 L1167.2,582.1 L1168.3,581.9 L1169.5,581.6 L1170.6,581.4 L1171.7,581.2 L1172.8,580.9 L1174.0,580.7
		L1175.1,580.5 L1176.2,580.3 L1177.3,580.1 L1178.5,579.9 L1179.6,579.6 L1180.7,579.4 L1181.8,579.2 L1183.0,579.0
		L1184.1,578.8 L1185.2,578.6 L1186.3,578.5 L1187.5,578.3 L1188.6,578.1 L1189.7,577.9 L1190.9,577.7 L1192.0,577.5
		L1193.1,577.4 L1194.2,577.2 L1195.4,577.0 L1196.5,576.9 L1197.6,576.7 L1198.7,576.5 L1199.9,576.4 L1201.0,576.2
		L1202.1,576.1 L1203.2,575.9 L1204.4,575.8 L1205.5,575.6 L1206.6,575.5 L1207.7,575.4 L1208.9,575.2 L1210.0,575.1
		L1211.1,575.0 L1212.2,574.9 L1213.4,574.7 L1214.5,574.6 L1215.6,574.5 L1216.7,574.4 L1217.9,574.3 L1219.0,574.2
		L1220.1,574.1 L1221.2,574.0 L1222.4,573.9 L1223.5,573.8 L1224.6,573.7 L1225.7,573.6 L1226.9,573.6 L1228.0,573.5
		L1229.1,573.4 L1230.2,573.3 L1231.4,573.3 L1232.5,573.2 L1233.6,573.1 L1234.7,573.1 L1235.9,573.0 L1237.0,573.0
		L1238.1,572.9 L1239.2,572.9 L1240.4,572.8 L1241.5,572.8 L1242.6,572.8 L1243.7,572.7 L1244.9,572.7 L1246.0,572.7
		L1247.1,572.6 L1248.2,572.6 L1249.4,572.6 L1250.5,572.6 L1251.6,572.6 L1252.7,572.6 L1253.9,572.6 L1255.0,572.6
		 '/></g>
	</g>
	<g id="gnuplot_plot_6" ><title>gnuplot_plot_6</title>
<g fill="none" color="black" stroke="currentColor" stroke-width="1.00" stroke-linecap="butt" stroke-linejoin="miter">
	<path stroke='rgb(  0,   0, 255)'  d='M103.7,80.3 L104.8,80.6 L106.0,81.6 L107.1,83.3 L108.2,85.5 L109.3,88.4 L110.5,91.7 L111.6,95.5
		L112.7,99.8 L113.8,104.3 L115.0,109.1 L116.1,114.2 L117.2,119.4 L118.3,124.7 L119.5,130.1 L120.6,135.5
		L121.7,140.9 L122.8,146.3 L124.0,151.6 L125.1,156.8 L126.2,162.0 L127.3,167.0 L128.5,171.9 L129.6,176.7
		L130.7,181.3 L131.8,185.8 L133.0,190.2 L134.1,194.4 L135.2,198.5 L136.3,202.4 L137.5,206.2 L138.6,209.9
		L139.7,213.4 L140.8,216.8 L142.0,220.1 L143.1,223.3 L144.2,226.4 L145.3,229.4 L146.5,232.2 L147.6,235.0
		L148.7,237.7 L149.8,240.3 L151.0,242.8 L152.1,245.3 L153.2,247.6 L154.3,249.9 L155.5,252.2 L156.6,254.4
		L157.7,256.5 L158.8,258.5 L160.0,260.6 L161.1,262.5 L162.2,264.5 L163.3,266.4 L164.5,268.2 L165.6,270.0
		L166.7,271.8 L167.8,273.5 L169.0,275.2 L170.1,276.9 L171.2,278.6 L172.4,280.2 L173.5,281.8 L174.6,283.4
		L175.7,285.0 L176.9,286.5 L178.0,288.1 L179.1,289.6 L180.2,291.1 L181.4,292.6 L182.5,294.0 L183.6,295.5
		L184.7,296.9 L185.9,298.3 L187.0,299.8 L188.1,301.2 L189.2,302.6 L190.4,304.0 L191.5,305.3 L192.6,306.7
		L193.7,308.1 L194.9,309.4 L196.0,310.7 L197.1,312.1 L198.2,313.4 L199.4,314.7 L200.5,316.0 L201.6,317.4
		L202.7,318.7 L203.9,320.0 L205.0,321.2 L206.1,322.5 L207.2,323.8 L208.4,325.1 L209.5,326.4 L210.6,327.6
		L211.7,328.9 L212.9,330.1 L214.0,331.4 L215.1,332.6 L216.2,333.9 L217.4,335.1 L218.5,336.4 L219.6,337.6
		L220.7,338.8 L221.9,340.1 L223.0,341.3 L224.1,342.5 L225.2,343.7 L226.4,344.9 L227.5,346.1 L228.6,347.3
		L229.7,348.5 L230.9,349.7 L232.0,350.9 L233.1,352.1 L234.2,353.3 L235.4,354.5 L236.5,355.6 L237.6,356.8
		L238.7,358.0 L239.9,359.1 L241.0,360.3 L242.1,361.5 L243.3,362.6 L244.4,363.8 L245.5,364.9 L246.6,366.1
		L247.8,367.2 L248.9,368.4 L250.0,369.5 L251.1,370.6 L252.3,371.8 L253.4,372.9 L254.5,374.0 L255.6,375.1
		L256.8,376.2 L257.9,377.4 L259.0,378.5 L260.1,379.6 L261.3,380.7 L262.4,381.8 L263.5,382.9 L264.6,384.0
		L265.8,385.1 L266.9,386.1 L268.0,387.2 L269.1,388.3 L270.3,389.4 L271.4,390.5 L272.5,391.5 L273.6,392.6
		L274.8,393.7 L275.9,394.7 L277.0,395.8 L278.1,396.9 L279.3,397.9 L280.4,399.0 L281.5,400.0 L282.6,401.0
		L283.8,402.1 L284.9,403.1 L286.0,404.2 L287.1,405.2 L288.3,406.2 L289.4,407.2 L290.5,408.3 L291.6,409.3
		L292.8,410.3 L293.9,411.3 L295.0,412.3 L296.1,413.3 L297.3,414.3 L298.4,415.3 L299.5,416.3 L300.6,417.3
		L301.8,418.3 L302.9,419.3 L304.0,420.3 L305.1,421.3 L306.3,422.3 L307.4,423.2 L308.5,424.2 L309.7,425.2
		L310.8,426.1 L311.9,427.1 L313.0,428.1 L314.2,429.0 L315.3,430.0 L316.4,430.9 L317.5,431.9 L318.7,432.8
		L319.8,433.8 L320.9,434.7 L322.0,435.7 L323.2,436.6 L324.3,437.5 L325.4,438.5 L326.5,439.4 L327.7,440.3
		L328.8,441.2 L329.9,442.2 L331.0,443.1 L332.2,444.0 L333.3,444.9 L334.4,445.8 L335.5,446.7 L336.7,447.6
		L337.8,448.5 L338.9,449.4 L340.0,450.3 L341.2,451.2 L342.3,452.1 L343.4,453.0 L344.5,453.9 L345.7,454.8
		L346.8,455.6 L347.9,456.5 L349.0,457.4 L350.2,458.3 L351.3,459.1 L352.4,460.0 L353.5,460.9 L354.7,461.7
		L355.8,462.6 L356.9,463.5 L358.0,464.3 L359.2,465.2 L360.3,466.0 L361.4,466.9 L362.5,467.7 L363.7,468.6
		L364.8,469.4 L365.9,470.2 L367.0,471.1 L368.2,471.9 L369.3,472.7 L370.4,473.6 L371.5,474.4 L372.7,475.2
		L373.8,476.0 L374.9,476.9 L376.1,477.7 L377.2,478.5 L378.3,479.3 L379.4,480.1 L380.6,480.9 L381.7,481.7
		L382.8,482.5 L383.9,483.3 L385.1,484.1 L386.2,484.9 L387.3,485.7 L388.4,486.5 L389.6,487.3 L390.7,488.1
		L391.8,488.9 L392.9,489.7 L394.1,490.5 L395.2,491.2 L396.3,492.0 L397.4,492.8 L398.6,493.6 L399.7,494.3
		L400.8,495.1 L401.9,495.9 L403.1,496.7 L404.2,497.4 L405.3,498.2 L406.4,498.9 L407.6,499.7 L408.7,500.5
		L409.8,501.2 L410.9,502.0 L412.1,502.7 L413.2,503.5 L414.3,504.2 L415.4,505.0 L416.6,505.7 L417.7,506.4
		L418.8,507.2 L419.9,507.9 L421.1,508.7 L422.2,509.4 L423.3,510.1 L424.4,510.9 L425.6,511.6 L426.7,512.3
		L427.8,513.0 L428.9,513.8 L430.1,514.5 L431.2,515.2 L432.3,515.9 L433.4,516.7 L434.6,517.4 L435.7,518.1
		L436.8,518.8 L437.9,519.5 L439.1,520.2 L440.2,520.9 L441.3,521.6 L442.5,522.3 L443.6,523.0 L444.7,523.7
		L445.8,524.4 L447.0,525.1 L448.1,525.8 L449.2,526.5 L450.3,527.2 L451.5,527.9 L452.6,528.6 L453.7,529.3
		L454.8,530.0 L456.0,530.7 L457.1,531.3 L458.2,532.0 L459.3,532.7 L460.5,533.4 L461.6,534.1 L462.7,534.7
		L463.8,535.4 L465.0,536.1 L466.1,536.8 L467.2,537.4 L468.3,538.1 L469.5,538.8 L470.6,539.4 L471.7,540.1
		L472.8,540.8 L474.0,541.4 L475.1,542.1 L476.2,542.8 L477.3,543.4 L478.5,544.1 L479.6,544.7 L480.7,545.4
		L481.8,546.0 L483.0,546.7 L484.1,547.3 L485.2,548.0 L486.3,548.6 L487.5,549.3 L488.6,549.9 L489.7,550.6
		L490.8,551.2 L492.0,551.9 L493.1,552.5 L494.2,553.1 L495.3,553.8 L496.5,554.4 L497.6,555.1 L498.7,555.7
		L499.8,556.3 L501.0,557.0 L502.1,557.6 L503.2,558.2 L504.3,558.8 L505.5,559.5 L506.6,560.1 L507.7,560.7
		L508.8,561.3 L510.0,562.0 L511.1,562.6 L512.2,563.2 L513.4,563.8 L514.5,564.4 L515.6,565.1 L516.7,565.7
		L517.9,566.3 L519.0,566.9 L520.1,567.5 L521.2,568.1 L522.4,568.7 L523.5,569.4 L524.6,570.0 L525.7,570.6
		L526.9,571.2 L528.0,571.8 L529.1,572.4 L530.2,573.0 L531.4,573.6 L532.5,574.2 L533.6,574.8 L534.7,575.4
		L535.9,576.0 L537.0,576.6 L538.1,577.2 L539.2,577.8 L540.4,578.4 L541.5,579.0 L542.6,579.6 L543.7,580.2
		L544.9,580.7 L546.0,581.3 L547.1,581.9 L548.2,582.5 L549.4,583.1 L550.5,583.7 L551.6,584.3 L552.7,584.9
		L553.9,585.4 L555.0,586.0 L556.1,586.6 L557.2,587.2 L558.4,587.8 L559.5,588.3 L560.6,588.9 L561.7,589.5
		L562.9,590.1 L564.0,590.6 L565.1,591.2 L566.2,591.8 L567.4,592.4 L568.5,592.9 L569.6,593.5 L570.7,594.1
		L571.9,594.6 L573.0,595.2 L574.1,595.8 L575.2,596.3 L576.4,596.9 L577.5,597.5 L578.6,598.0 L579.8,598.6
		L580.9,599.1 L582.0,599.7 L583.1,600.3 L584.3,600.8 L585.4,601.4 L586.5,601.9 L587.6,602.5 L588.8,603.0
		L589.9,603.6 L591.0,604.2 L592.1,604.7 L593.3,605.3 L594.4,605.8 L595.5,606.4 L596.6,606.9 L597.8,607.5
		L598.9,608.0 L600.0,608.5 L601.1,609.1 L602.3,609.6 L603.4,610.2 L604.5,610.7 L605.6,611.3 L606.8,611.8
		L607.9,612.3 L609.0,612.9 L610.1,613.4 L611.3,614.0 L612.4,614.5 L613.5,615.0 L614.6,615.6 L615.8,616.1
		L616.9,616.6 L618.0,617.2 L619.1,617.7 L620.3,618.2 L621.4,618.8 L622.5,619.3 L623.6,619.8 L624.8,620.3
		L625.9,620.9 L627.0,621.4 L628.1,621.9 L629.3,622.4 L630.4,622.9 L631.5,623.5 L632.6,624.0 L633.8,624.5
		L634.9,625.0 L636.0,625.5 L637.1,626.1 L638.3,626.6 L639.4,627.1 L640.5,627.6 L641.6,628.1 L642.8,628.6
		L643.9,629.1 L645.0,629.6 L646.2,630.1 L647.3,630.6 L648.4,631.1 L649.5,631.7 L650.7,632.2 L651.8,632.7
		L652.9,633.2 L654.0,633.7 L655.2,634.2 L656.3,634.6 L657.4,635.1 L658.5,635.6 L659.7,636.1 L660.8,636.6
		L661.9,637.1 L663.0,637.6 L664.2,638.1 L665.3,638.6 L666.4,639.1 L667.5,639.5 L668.7,640.0 L669.8,640.5
		L670.9,641.0 L672.0,641.5 L673.2,642.0 L674.3,642.4 L675.4,642.9 L676.5,643.4 L677.7,643.8 L678.8,644.3
		L679.9,644.8 L681.0,645.3 L682.2,645.7 L683.3,646.2 L684.4,646.6 L685.5,647.1 L686.7,647.6 L687.8,648.0
		L688.9,648.5 L690.0,648.9 L691.2,649.4 L692.3,649.8 L693.4,650.3 L694.5,650.7 L695.7,651.2 L696.8,651.6
		L697.9,652.1 L699.0,652.5 L700.2,653.0 L701.3,653.4 L702.4,653.8 L703.5,654.3 L704.7,654.7 L705.8,655.1
		L706.9,655.6 L708.0,656.0 L709.2,656.4 L710.3,656.8 L711.4,657.3 L712.5,657.7 L713.7,658.1 L714.8,658.5
		L715.9,658.9 L717.1,659.3 L718.2,659.7 L719.3,660.1 L720.4,660.5 L721.6,660.9 L722.7,661.3 L723.8,661.7
		L724.9,662.1 L726.1,662.5 L727.2,662.9 L728.3,663.3 L729.4,663.7 L730.6,664.1 L731.7,664.4 L732.8,664.8
		L733.9,665.2 L735.1,665.6 L736.2,665.9 L737.3,666.3 L738.4,666.6 L739.6,667.0 L740.7,667.4 L741.8,667.7
		L742.9,668.1 L744.1,668.4 L745.2,668.8 L746.3,669.1 L747.4,669.4 L748.6,669.8 L749.7,670.1 L750.8,670.4
		L751.9,670.8 L753.1,671.1 L754.2,671.4 L755.3,671.7 L756.4,672.0 L757.6,672.3 L758.7,672.6 L759.8,672.9
		L760.9,673.2 L762.1,673.5 L763.2,673.8 L764.3,674.1 L765.4,674.4 L766.6,674.7 L767.7,675.0 L768.8,675.2
		L769.9,675.5 L771.1,675.8 L772.2,676.0 L773.3,676.3 L774.4,676.5 L775.6,676.8 L776.7,677.0 L777.8,677.3
		L778.9,677.5 L780.1,677.7 L781.2,678.0 L782.3,678.2 L783.5,678.4 L784.6,678.6 L785.7,678.8 L786.8,679.1
		L788.0,679.3 L789.1,679.5 L790.2,679.7 L791.3,679.8 L792.5,680.0 L793.6,680.2 L794.7,680.4 L795.8,680.6
		L797.0,680.7 L798.1,680.9 L799.2,681.0 L800.3,681.2 L801.5,681.3 L802.6,681.5 L803.7,681.6 L804.8,681.8
		L806.0,681.9 L807.1,682.0 L808.2,682.1 L809.3,682.2 L810.5,682.4 L811.6,682.5 L812.7,682.6 L813.8,682.6
		L815.0,682.7 L816.1,682.8 L817.2,682.9 L818.3,683.0 L819.5,683.0 L820.6,683.1 L821.7,683.2 L822.8,683.2
		L824.0,683.3 L825.1,683.3 L826.2,683.3 L827.3,683.4 L828.5,683.4 L829.6,683.4 L830.7,683.4 L831.8,683.4
		L833.0,683.4 L834.1,683.4 L835.2,683.4 L836.3,683.4 L837.5,683.4 L838.6,683.4 L839.7,683.3 L840.8,683.3
		L842.0,683.3 L843.1,683.2 L844.2,683.2 L845.3,683.1 L846.5,683.1 L847.6,683.0 L848.7,682.9 L849.9,682.8
		L851.0,682.8 L852.1,682.7 L853.2,682.6 L854.4,682.5 L855.5,682.4 L856.6,682.3 L857.7,682.2 L858.9,682.0
		L860.0,681.9 L861.1,681.8 L862.2,681.6 L863.4,681.5 L864.5,681.4 L865.6,681.2 L866.7,681.0 L867.9,680.9
		L869.0,680.7 L870.1,680.5 L871.2,680.4 L872.4,680.2 L873.5,680.0 L874.6,679.8 L875.7,679.6 L876.9,679.4
		L878.0,679.2 L879.1,679.0 L880.2,678.8 L881.4,678.5 L882.5,678.3 L883.6,678.1 L884.7,677.8 L885.9,677.6
		L887.0,677.4 L888.1,677.1 L889.2,676.9 L890.4,676.6 L891.5,676.3 L892.6,676.1 L893.7,675.8 L894.9,675.5
		L896.0,675.2 L897.1,674.9 L898.2,674.6 L899.4,674.3 L900.5,674.0 L901.6,673.7 L902.7,673.4 L903.9,673.1
		L905.0,672.8 L906.1,672.5 L907.2,672.2 L908.4,671.8 L909.5,671.5 L910.6,671.2 L911.7,670.8 L912.9,670.5
		L914.0,670.1 L915.1,669.8 L916.2,669.4 L917.4,669.1 L918.5,668.7 L919.6,668.3 L920.8,668.0 L921.9,667.6
		L923.0,667.2 L924.1,666.9 L925.3,666.5 L926.4,666.1 L927.5,665.7 L928.6,665.3 L929.8,664.9 L930.9,664.5
		L932.0,664.1 L933.1,663.7 L934.3,663.3 L935.4,662.9 L936.5,662.5 L937.6,662.1 L938.8,661.7 L939.9,661.2
		L941.0,660.8 L942.1,660.4 L943.3,660.0 L944.4,659.5 L945.5,659.1 L946.6,658.7 L947.8,658.2 L948.9,657.8
		L950.0,657.4 L951.1,656.9 L952.3,656.5 L953.4,656.0 L954.5,655.6 L955.6,655.1 L956.8,654.7 L957.9,654.2
		L959.0,653.8 L960.1,653.3 L961.3,652.9 L962.4,652.4 L963.5,651.9 L964.6,651.5 L965.8,651.0 L966.9,650.6
		L968.0,650.1 L969.1,649.6 L970.3,649.1 L971.4,648.7 L972.5,648.2 L973.6,647.7 L974.8,647.3 L975.9,646.8
		L977.0,646.3 L978.1,645.8 L979.3,645.3 L980.4,644.9 L981.5,644.4 L982.6,643.9 L983.8,643.4 L984.9,642.9
		L986.0,642.5 L987.2,642.0 L988.3,641.5 L989.4,641.0 L990.5,640.5 L991.7,640.0 L992.8,639.6 L993.9,639.1
		L995.0,638.6 L996.2,638.1 L997.3,637.6 L998.4,637.1 L999.5,636.6 L1000.7,636.1 L1001.8,635.6 L1002.9,635.2
		L1004.0,634.7 L1005.2,634.2 L1006.3,633.7 L1007.4,633.2 L1008.5,632.7 L1009.7,632.2 L1010.8,631.7 L1011.9,631.3
		L1013.0,630.8 L1014.2,630.3 L1015.3,629.8 L1016.4,629.3 L1017.5,628.8 L1018.7,628.3 L1019.8,627.8 L1020.9,627.4
		L1022.0,626.9 L1023.2,626.4 L1024.3,625.9 L1025.4,625.4 L1026.5,624.9 L1027.7,624.5 L1028.8,624.0 L1029.9,623.5
		L1031.0,623.0 L1032.2,622.5 L1033.3,622.1 L1034.4,621.6 L1035.5,621.1 L1036.7,620.6 L1037.8,620.2 L1038.9,619.7
		L1040.0,619.2 L1041.2,618.7 L1042.3,618.3 L1043.4,617.8 L1044.5,617.3 L1045.7,616.9 L1046.8,616.4 L1047.9,615.9
		L1049.0,615.5 L1050.2,615.0 L1051.3,614.5 L1052.4,614.1 L1053.6,613.6 L1054.7,613.1 L1055.8,612.7 L1056.9,612.2
		L1058.1,611.8 L1059.2,611.3 L1060.3,610.9 L1061.4,610.4 L1062.6,610.0 L1063.7,609.5 L1064.8,609.1 L1065.9,608.6
		L1067.1,608.2 L1068.2,607.7 L1069.3,607.3 L1070.4,606.9 L1071.6,606.4 L1072.7,606.0 L1073.8,605.6 L1074.9,605.1
		L1076.1,604.7 L1077.2,604.3 L1078.3,603.8 L1079.4,603.4 L1080.6,603.0 L1081.7,602.6 L1082.8,602.1 L1083.9,601.7
		L1085.1,601.3 L1086.2,600.9 L1087.3,600.5 L1088.4,600.1 L1089.6,599.7 L1090.7,599.2 L1091.8,598.8 L1092.9,598.4
		L1094.1,598.0 L1095.2,597.6 L1096.3,597.2 L1097.4,596.8 L1098.6,596.4 L1099.7,596.1 L1100.8,595.7 L1101.9,595.3
		L1103.1,594.9 L1104.2,594.5 L1105.3,594.1 L1106.4,593.7 L1107.6,593.4 L1108.7,593.0 L1109.8,592.6 L1110.9,592.3
		L1112.1,591.9 L1113.2,591.5 L1114.3,591.2 L1115.4,590.8 L1116.6,590.4 L1117.7,590.1 L1118.8,589.7 L1120.0,589.4
		L1121.1,589.0 L1122.2,588.7 L1123.3,588.3 L1124.5,588.0 L1125.6,587.7 L1126.7,587.3 L1127.8,587.0 L1129.0,586.6
		L1130.1,586.3 L1131.2,586.0 L1132.3,585.7 L1133.5,585.3 L1134.6,585.0 L1135.7,584.7 L1136.8,584.4 L1138.0,584.1
		L1139.1,583.8 L1140.2,583.5 L1141.3,583.2 L1142.5,582.8 L1143.6,582.5 L1144.7,582.3 L1145.8,582.0 L1147.0,581.7
		L1148.1,581.4 L1149.2,581.1 L1150.3,580.8 L1151.5,580.5 L1152.6,580.2 L1153.7,580.0 L1154.8,579.7 L1156.0,579.4
		L1157.1,579.2 L1158.2,578.9 L1159.3,578.6 L1160.5,578.4 L1161.6,578.1 L1162.7,577.9 L1163.8,577.6 L1165.0,577.4
		L1166.1,577.1 L1167.2,576.9 L1168.3,576.6 L1169.5,576.4 L1170.6,576.2 L1171.7,575.9 L1172.8,575.7 L1174.0,575.5
		L1175.1,575.3 L1176.2,575.0 L1177.3,574.8 L1178.5,574.6 L1179.6,574.4 L1180.7,574.2 L1181.8,574.0 L1183.0,573.8
		L1184.1,573.6 L1185.2,573.4 L1186.3,573.2 L1187.5,573.0 L1188.6,572.8 L1189.7,572.6 L1190.9,572.5 L1192.0,572.3
		L1193.1,572.1 L1194.2,571.9 L1195.4,571.8 L1196.5,571.6 L1197.6,571.4 L1198.7,571.3 L1199.9,571.1 L1201.0,571.0
		L1202.1,570.8 L1203.2,570.7 L1204.4,570.5 L1205.5,570.4 L1206.6,570.2 L1207.7,570.1 L1208.9,570.0 L1210.0,569.8
		L1211.1,569.7 L1212.2,569.6 L1213.4,569.5 L1214.5,569.4 L1215.6,569.2 L1216.7,569.1 L1217.9,569.0 L1219.0,568.9
		L1220.1,568.8 L1221.2,568.7 L1222.4,568.6 L1223.5,568.5 L1224.6,568.5 L1225.7,568.4 L1226.9,568.3 L1228.0,568.2
		L1229.1,568.1 L1230.2,568.1 L1231.4,568.0 L1232.5,567.9 L1233.6,567.9 L1234.7,567.8 L1235.9,567.8 L1237.0,567.7
		L1238.1,567.6 L1239.2,567.6 L1240.4,567.6 L1241.5,567.5 L1242.6,567.5 L1243.7,567.4 L1244.9,567.4 L1246.0,567.4
		L1247.1,567.4 L1248.2,567.3 L1249.4,567.3 L1250.5,567.3 L1251.6,567.3 L1252.7,567.3 L1253.9,567.3 L1255.0,567.3
		 '/></g>
	</g>
<g fill="none" color="white" stroke="rgb(  0,   0, 255)" stroke-width="2.00" stroke-linecap="butt" stroke-linejoin="miter">
</g>
<g fill="none" color="black" stroke="currentColor" stroke-width="2.00" stroke-linecap="butt" stroke-linejoin="miter">
</g>
<g fill="none" color="black" stroke="black" stroke-width="1.00" stroke-linecap="butt" stroke-linejoin="miter">
</g>
<g fill="none" color="black" stroke="currentColor" stroke-width="1.00" stroke-linecap="butt" stroke-linejoin="miter">
	<path stroke='black'  d='M103.7,54.1 L103.7,684.0 L1255.0,684.0 L1255.0,54.1 L103.7,54.1 Z  '/></g>
<g fill="none" color="black" stroke="currentColor" stroke-width="1.00" stroke-linecap="butt" stroke-linejoin="miter">
</g>
</g>
</svg>

