<?xml version="1.0" encoding="utf-8"  standalone="no"?>
<svg 
 width="1280" height="720"
 viewBox="0 0 1280 720"
 xmlns="http://www.w3.org/2000/svg"
 xmlns:xlink="http://www.w3.org/1999/xlink"
>

<title>Gnuplot</title>
<desc>Produced by GNUPLOT 5.0 patchlevel 6 </desc>

<g id="gnuplot_canvas">

<rect x="0" y="0" width="1280" height="720" fill="none"/>
<defs>

	<circle id='gpDot' r='0.5' stroke-width='0.5'/>
	<path id='gpPt0' stroke-width='0.222' stroke='currentColor' d='M-1,0 h2 M0,-1 v2'/>
	<path id='gpPt1' stroke-width='0.222' stroke='currentColor' d='M-1,-1 L1,1 M1,-1 L-1,1'/>
	<path id='gpPt2' stroke-width='0.222' stroke='currentColor' d='M-1,0 L1,0 M0,-1 L0,1 M-1,-1 L1,1 M-1,1 L1,-1'/>
	<rect id='gpPt3' stroke-width='0.222' stroke='currentColor' x='-1' y='-1' width='2' height='2'/>
	<rect id='gpPt4' stroke-width='0.222' stroke='currentColor' fill='currentColor' x='-1' y='-1' width='2' height='2'/>
	<circle id='gpPt5' stroke-width='0.222' stroke='currentColor' cx='0' cy='0' r='1'/>
	<use xlink:href='#gpPt5' id='gpPt6' fill='currentColor' stroke='none'/>
	<path id='gpPt7' stroke-width='0.222' stroke='currentColor' d='M0,-1.33 L-1.33,0.67 L1.33,0.67 z'/>
	<use xlink:href='#gpPt7' id='gpPt8' fill='currentColor' stroke='none'/>
	<use xlink:href='#gpPt7' id='gpPt9' stroke='currentColor' transform='rotate(180)'/>
	<use xlink:href='#gpPt9' id='gpPt10' fill='currentColor' stroke='none'/>
	<use xlink:href='#gpPt3' id='gpPt11' stroke='currentColor' transform='rotate(45)'/>
	<use xlink:href='#gpPt11' id='gpPt12' fill='currentColor' stroke='none'/>
	<path id='gpPt13' stroke-width='0.222' stroke='currentColor' d='M0,1.330 L1.265,0.411 L0.782,-1.067 L-0.782,-1.076 L-1.265,0.411 z'/>
	<use xlink:href='#gpPt13' id='gpPt14' fill='currentColor' stroke='none'/>
	<filter id='textbox' filterUnits='objectBoundingBox' x='0' y='0' height='1' width='1'>
	  <feFlood flood-color='white' flood-opacity='1' result='bgnd'/>
	  <feComposite in='SourceGraphic' in2='bgnd' operator='atop'/>
	</filter>
	<filter id='greybox' filterUnits='objectBoundingBox' x='0' y='0' height='1' width='1'>
	  <feFlood flood-color='lightgrey' flood-opacity='1' result='grey'/>
	  <feComposite in='SourceGraphic' in2='grey' operator='atop'/>
	</filter>
</defs>
<g fill="none" color="white" stroke="currentColor" stroke-width="1.00" stroke-linecap="butt" stroke-linejoin="miter">
</g>
<g fill="none" color="black" stroke="currentColor" stroke-width="1.00" stroke-linecap="butt" stroke-linejoin="miter">
	<path stroke='black'  d='M103.7,682.7 L112.7,682.7 M1255.0,682.7 L1246.0,682.7  '/>	<g transform="translate(95.4,686.6)" stroke="none" fill="black" font-family="Arial" font-size="12.00"  text-anchor="end">
		<text><tspan font-family="Arial" > 0.000848</tspan></text>
	</g>
</g>
<g fill="none" color="black" stroke="currentColor" stroke-width="1.00" stroke-linecap="butt" stroke-linejoin="miter">
	<path stroke='black'  d='M103.7,368.4 L112.7,368.4 M1255.0,368.4 L1246.0,368.4  '/>	<g transform="translate(95.4,372.3)" stroke="none" fill="black" font-family="Arial" font-size="12.00"  text-anchor="end">
		<text><tspan font-family="Arial" > 0.0532832</tspan></text>
	</g>
</g>
<g fill="none" color="black" stroke="currentColor" stroke-width="1.00" stroke-linecap="butt" stroke-linejoin="miter">
	<path stroke='black'  d='M103.7,54.1 L112.7,54.1 M1255.0,54.1 L1246.0,54.1  '/>	<g transform="translate(95.4,58.0)" stroke="none" fill="black" font-family="Arial" font-size="12.00"  text-anchor="end">
		<text><tspan font-family="Arial" > 3.348</tspan></text>
	</g>
</g>
<g fill="none" color="black" stroke="currentColor" stroke-width="1.00" stroke-linecap="butt" stroke-linejoin="miter">
	<path stroke='black'  d='M103.7,684.0 L103.7,675.0 M103.7,54.1 L103.7,63.1  '/>	<g transform="translate(103.7,705.9)" stroke="none" fill="black" font-family="Arial" font-size="12.00"  text-anchor="middle">
		<text><tspan font-family="Arial" > 0</tspan></text>
	</g>
</g>
<g fill="none" color="black" stroke="currentColor" stroke-width="1.00" stroke-linecap="butt" stroke-linejoin="miter">
	<path stroke='black'  d='M679.4,684.0 L679.4,675.0 M679.4,54.1 L679.4,63.1  '/>	<g transform="translate(679.4,705.9)" stroke="none" fill="black" font-family="Arial" font-size="12.00"  text-anchor="middle">
		<text><tspan font-family="Arial" >pi/2</tspan></text>
	</g>
</g>
<g fill="none" color="black" stroke="currentColor" stroke-width="1.00" stroke-linecap="butt" stroke-linejoin="miter">
	<path stroke='black'  d='M1255.0,684.0 L1255.0,675.0 M1255.0,54.1 L1255.0,63.1  '/>	<g transform="translate(1255.0,705.9)" stroke="none" fill="black" font-family="Arial" font-size="12.00"  text-anchor="middle">
		<text><tspan font-family="Arial" >pi</tspan></text>
	</g>
</g>
<g fill="none" color="black" stroke="currentColor" stroke-width="1.00" stroke-linecap="butt" stroke-linejoin="miter">
</g>
<g fill="none" color="black" stroke="currentColor" stroke-width="1.00" stroke-linecap="butt" stroke-linejoin="miter">
	<path stroke='black'  d='M103.7,54.1 L103.7,684.0 L1255.0,684.0 L1255.0,54.1 L103.7,54.1 Z  '/></g>
<g fill="none" color="black" stroke="currentColor" stroke-width="1.00" stroke-linecap="butt" stroke-linejoin="miter">
	<g transform="translate(679.3,31.0)" stroke="none" fill="black" font-family="Arial" font-size="12.00"  text-anchor="middle">
		<text><tspan font-family="Arial" >Material 45, with 8 components</tspan></text>
	</g>
</g>
	<g id="gnuplot_plot_1" ><title>scattering function</title>
<g fill="none" color="black" stroke="currentColor" stroke-width="1.00" stroke-linecap="butt" stroke-linejoin="miter">
	<g transform="translate(1187.9,76.0)" stroke="none" fill="black" font-family="Arial" font-size="12.00"  text-anchor="end">
		<text><tspan font-family="Arial" >scattering function</tspan></text>
	</g>
</g>
<g fill="none" color="black" stroke="currentColor" stroke-width="1.00" stroke-linecap="butt" stroke-linejoin="miter">
	<use xlink:href='#gpPt5' transform='translate(103.7,94.7) scale(2.25)' color='rgb(255,   0,   0)'/>
	<use xlink:href='#gpPt5' transform='translate(104.3,97.6) scale(2.25)' color='rgb(255,   0,   0)'/>
	<use xlink:href='#gpPt5' transform='translate(105.0,103.7) scale(2.25)' color='rgb(255,   0,   0)'/>
	<use xlink:href='#gpPt5' transform='translate(105.6,110.0) scale(2.25)' color='rgb(255,   0,   0)'/>
	<use xlink:href='#gpPt5' transform='translate(106.3,115.4) scale(2.25)' color='rgb(255,   0,   0)'/>
	<use xlink:href='#gpPt5' transform='translate(106.9,120.1) scale(2.25)' color='rgb(255,   0,   0)'/>
	<use xlink:href='#gpPt5' transform='translate(107.5,124.1) scale(2.25)' color='rgb(255,   0,   0)'/>
	<use xlink:href='#gpPt5' transform='translate(108.2,127.7) scale(2.25)' color='rgb(255,   0,   0)'/>
	<use xlink:href='#gpPt5' transform='translate(108.8,130.9) scale(2.25)' color='rgb(255,   0,   0)'/>
	<use xlink:href='#gpPt5' transform='translate(109.5,133.9) scale(2.25)' color='rgb(255,   0,   0)'/>
	<use xlink:href='#gpPt5' transform='translate(110.1,136.7) scale(2.25)' color='rgb(255,   0,   0)'/>
	<use xlink:href='#gpPt5' transform='translate(110.7,139.4) scale(2.25)' color='rgb(255,   0,   0)'/>
	<use xlink:href='#gpPt5' transform='translate(111.4,142.0) scale(2.25)' color='rgb(255,   0,   0)'/>
	<use xlink:href='#gpPt5' transform='translate(112.0,144.5) scale(2.25)' color='rgb(255,   0,   0)'/>
	<use xlink:href='#gpPt5' transform='translate(112.7,146.9) scale(2.25)' color='rgb(255,   0,   0)'/>
	<use xlink:href='#gpPt5' transform='translate(113.3,149.4) scale(2.25)' color='rgb(255,   0,   0)'/>
	<use xlink:href='#gpPt5' transform='translate(113.9,151.8) scale(2.25)' color='rgb(255,   0,   0)'/>
	<use xlink:href='#gpPt5' transform='translate(114.6,154.2) scale(2.25)' color='rgb(255,   0,   0)'/>
	<use xlink:href='#gpPt5' transform='translate(115.2,156.5) scale(2.25)' color='rgb(255,   0,   0)'/>
	<use xlink:href='#gpPt5' transform='translate(115.9,158.9) scale(2.25)' color='rgb(255,   0,   0)'/>
	<use xlink:href='#gpPt5' transform='translate(116.5,161.3) scale(2.25)' color='rgb(255,   0,   0)'/>
	<use xlink:href='#gpPt5' transform='translate(122.9,184.0) scale(2.25)' color='rgb(255,   0,   0)'/>
	<use xlink:href='#gpPt5' transform='translate(129.3,205.4) scale(2.25)' color='rgb(255,   0,   0)'/>
	<use xlink:href='#gpPt5' transform='translate(135.7,225.0) scale(2.25)' color='rgb(255,   0,   0)'/>
	<use xlink:href='#gpPt5' transform='translate(142.1,242.7) scale(2.25)' color='rgb(255,   0,   0)'/>
	<use xlink:href='#gpPt5' transform='translate(154.9,272.5) scale(2.25)' color='rgb(255,   0,   0)'/>
	<use xlink:href='#gpPt5' transform='translate(167.7,296.5) scale(2.25)' color='rgb(255,   0,   0)'/>
	<use xlink:href='#gpPt5' transform='translate(180.5,316.1) scale(2.25)' color='rgb(255,   0,   0)'/>
	<use xlink:href='#gpPt5' transform='translate(193.2,332.6) scale(2.25)' color='rgb(255,   0,   0)'/>
	<use xlink:href='#gpPt5' transform='translate(206.0,346.9) scale(2.25)' color='rgb(255,   0,   0)'/>
	<use xlink:href='#gpPt5' transform='translate(218.8,359.8) scale(2.25)' color='rgb(255,   0,   0)'/>
	<use xlink:href='#gpPt5' transform='translate(231.6,371.5) scale(2.25)' color='rgb(255,   0,   0)'/>
	<use xlink:href='#gpPt5' transform='translate(244.4,382.2) scale(2.25)' color='rgb(255,   0,   0)'/>
	<use xlink:href='#gpPt5' transform='translate(257.2,392.8) scale(2.25)' color='rgb(255,   0,   0)'/>
	<use xlink:href='#gpPt5' transform='translate(270.0,403.0) scale(2.25)' color='rgb(255,   0,   0)'/>
	<use xlink:href='#gpPt5' transform='translate(282.8,412.9) scale(2.25)' color='rgb(255,   0,   0)'/>
	<use xlink:href='#gpPt5' transform='translate(295.6,422.8) scale(2.25)' color='rgb(255,   0,   0)'/>
	<use xlink:href='#gpPt5' transform='translate(308.4,432.3) scale(2.25)' color='rgb(255,   0,   0)'/>
	<use xlink:href='#gpPt5' transform='translate(321.2,441.7) scale(2.25)' color='rgb(255,   0,   0)'/>
	<use xlink:href='#gpPt5' transform='translate(334.0,450.9) scale(2.25)' color='rgb(255,   0,   0)'/>
	<use xlink:href='#gpPt5' transform='translate(346.8,460.3) scale(2.25)' color='rgb(255,   0,   0)'/>
	<use xlink:href='#gpPt5' transform='translate(359.5,469.7) scale(2.25)' color='rgb(255,   0,   0)'/>
	<use xlink:href='#gpPt5' transform='translate(372.3,478.4) scale(2.25)' color='rgb(255,   0,   0)'/>
	<use xlink:href='#gpPt5' transform='translate(385.1,487.2) scale(2.25)' color='rgb(255,   0,   0)'/>
	<use xlink:href='#gpPt5' transform='translate(397.9,496.1) scale(2.25)' color='rgb(255,   0,   0)'/>
	<use xlink:href='#gpPt5' transform='translate(410.7,505.0) scale(2.25)' color='rgb(255,   0,   0)'/>
	<use xlink:href='#gpPt5' transform='translate(423.5,513.4) scale(2.25)' color='rgb(255,   0,   0)'/>
	<use xlink:href='#gpPt5' transform='translate(436.3,521.8) scale(2.25)' color='rgb(255,   0,   0)'/>
	<use xlink:href='#gpPt5' transform='translate(449.1,529.8) scale(2.25)' color='rgb(255,   0,   0)'/>
	<use xlink:href='#gpPt5' transform='translate(461.9,538.3) scale(2.25)' color='rgb(255,   0,   0)'/>
	<use xlink:href='#gpPt5' transform='translate(474.7,546.8) scale(2.25)' color='rgb(255,   0,   0)'/>
	<use xlink:href='#gpPt5' transform='translate(487.5,554.4) scale(2.25)' color='rgb(255,   0,   0)'/>
	<use xlink:href='#gpPt5' transform='translate(500.3,561.5) scale(2.25)' color='rgb(255,   0,   0)'/>
	<use xlink:href='#gpPt5' transform='translate(513.1,569.6) scale(2.25)' color='rgb(255,   0,   0)'/>
	<use xlink:href='#gpPt5' transform='translate(525.8,577.6) scale(2.25)' color='rgb(255,   0,   0)'/>
	<use xlink:href='#gpPt5' transform='translate(538.6,584.4) scale(2.25)' color='rgb(255,   0,   0)'/>
	<use xlink:href='#gpPt5' transform='translate(551.4,591.1) scale(2.25)' color='rgb(255,   0,   0)'/>
	<use xlink:href='#gpPt5' transform='translate(564.2,598.7) scale(2.25)' color='rgb(255,   0,   0)'/>
	<use xlink:href='#gpPt5' transform='translate(577.0,605.8) scale(2.25)' color='rgb(255,   0,   0)'/>
	<use xlink:href='#gpPt5' transform='translate(589.8,611.7) scale(2.25)' color='rgb(255,   0,   0)'/>
	<use xlink:href='#gpPt5' transform='translate(602.6,617.5) scale(2.25)' color='rgb(255,   0,   0)'/>
	<use xlink:href='#gpPt5' transform='translate(615.4,624.2) scale(2.25)' color='rgb(255,   0,   0)'/>
	<use xlink:href='#gpPt5' transform='translate(628.2,630.6) scale(2.25)' color='rgb(255,   0,   0)'/>
	<use xlink:href='#gpPt5' transform='translate(641.0,636.3) scale(2.25)' color='rgb(255,   0,   0)'/>
	<use xlink:href='#gpPt5' transform='translate(653.8,640.7) scale(2.25)' color='rgb(255,   0,   0)'/>
	<use xlink:href='#gpPt5' transform='translate(666.6,646.1) scale(2.25)' color='rgb(255,   0,   0)'/>
	<use xlink:href='#gpPt5' transform='translate(679.4,651.6) scale(2.25)' color='rgb(255,   0,   0)'/>
	<use xlink:href='#gpPt5' transform='translate(692.1,655.6) scale(2.25)' color='rgb(255,   0,   0)'/>
	<use xlink:href='#gpPt5' transform='translate(704.9,658.9) scale(2.25)' color='rgb(255,   0,   0)'/>
	<use xlink:href='#gpPt5' transform='translate(717.7,663.8) scale(2.25)' color='rgb(255,   0,   0)'/>
	<use xlink:href='#gpPt5' transform='translate(730.5,667.7) scale(2.25)' color='rgb(255,   0,   0)'/>
	<use xlink:href='#gpPt5' transform='translate(743.3,669.9) scale(2.25)' color='rgb(255,   0,   0)'/>
	<use xlink:href='#gpPt5' transform='translate(756.1,671.8) scale(2.25)' color='rgb(255,   0,   0)'/>
	<use xlink:href='#gpPt5' transform='translate(768.9,674.8) scale(2.25)' color='rgb(255,   0,   0)'/>
	<use xlink:href='#gpPt5' transform='translate(781.7,677.2) scale(2.25)' color='rgb(255,   0,   0)'/>
	<use xlink:href='#gpPt5' transform='translate(794.5,678.5) scale(2.25)' color='rgb(255,   0,   0)'/>
	<use xlink:href='#gpPt5' transform='translate(807.3,679.3) scale(2.25)' color='rgb(255,   0,   0)'/>
	<use xlink:href='#gpPt5' transform='translate(820.1,680.3) scale(2.25)' color='rgb(255,   0,   0)'/>
	<use xlink:href='#gpPt5' transform='translate(832.9,682.1) scale(2.25)' color='rgb(255,   0,   0)'/>
	<use xlink:href='#gpPt5' transform='translate(845.6,682.5) scale(2.25)' color='rgb(255,   0,   0)'/>
	<use xlink:href='#gpPt5' transform='translate(858.4,682.4) scale(2.25)' color='rgb(255,   0,   0)'/>
	<use xlink:href='#gpPt5' transform='translate(871.2,682.7) scale(2.25)' color='rgb(255,   0,   0)'/>
	<use xlink:href='#gpPt5' transform='translate(884.0,681.5) scale(2.25)' color='rgb(255,   0,   0)'/>
	<use xlink:href='#gpPt5' transform='translate(896.8,679.9) scale(2.25)' color='rgb(255,   0,   0)'/>
	<use xlink:href='#gpPt5' transform='translate(909.6,679.2) scale(2.25)' color='rgb(255,   0,   0)'/>
	<use xlink:href='#gpPt5' transform='translate(922.4,676.7) scale(2.25)' color='rgb(255,   0,   0)'/>
	<use xlink:href='#gpPt5' transform='translate(935.2,672.7) scale(2.25)' color='rgb(255,   0,   0)'/>
	<use xlink:href='#gpPt5' transform='translate(948.0,668.8) scale(2.25)' color='rgb(255,   0,   0)'/>
	<use xlink:href='#gpPt5' transform='translate(960.8,663.1) scale(2.25)' color='rgb(255,   0,   0)'/>
	<use xlink:href='#gpPt5' transform='translate(973.6,658.0) scale(2.25)' color='rgb(255,   0,   0)'/>
	<use xlink:href='#gpPt5' transform='translate(986.4,653.1) scale(2.25)' color='rgb(255,   0,   0)'/>
	<use xlink:href='#gpPt5' transform='translate(999.2,646.0) scale(2.25)' color='rgb(255,   0,   0)'/>
	<use xlink:href='#gpPt5' transform='translate(1011.9,638.9) scale(2.25)' color='rgb(255,   0,   0)'/>
	<use xlink:href='#gpPt5' transform='translate(1024.7,633.7) scale(2.25)' color='rgb(255,   0,   0)'/>
	<use xlink:href='#gpPt5' transform='translate(1037.5,628.8) scale(2.25)' color='rgb(255,   0,   0)'/>
	<use xlink:href='#gpPt5' transform='translate(1050.3,624.6) scale(2.25)' color='rgb(255,   0,   0)'/>
	<use xlink:href='#gpPt5' transform='translate(1063.1,623.8) scale(2.25)' color='rgb(255,   0,   0)'/>
	<use xlink:href='#gpPt5' transform='translate(1075.9,622.0) scale(2.25)' color='rgb(255,   0,   0)'/>
	<use xlink:href='#gpPt5' transform='translate(1088.7,619.6) scale(2.25)' color='rgb(255,   0,   0)'/>
	<use xlink:href='#gpPt5' transform='translate(1101.5,618.9) scale(2.25)' color='rgb(255,   0,   0)'/>
	<use xlink:href='#gpPt5' transform='translate(1114.3,617.3) scale(2.25)' color='rgb(255,   0,   0)'/>
	<use xlink:href='#gpPt5' transform='translate(1127.1,614.6) scale(2.25)' color='rgb(255,   0,   0)'/>
	<use xlink:href='#gpPt5' transform='translate(1139.9,612.1) scale(2.25)' color='rgb(255,   0,   0)'/>
	<use xlink:href='#gpPt5' transform='translate(1152.7,607.7) scale(2.25)' color='rgb(255,   0,   0)'/>
	<use xlink:href='#gpPt5' transform='translate(1165.5,603.3) scale(2.25)' color='rgb(255,   0,   0)'/>
	<use xlink:href='#gpPt5' transform='translate(1178.2,598.8) scale(2.25)' color='rgb(255,   0,   0)'/>
	<use xlink:href='#gpPt5' transform='translate(1191.0,597.5) scale(2.25)' color='rgb(255,   0,   0)'/>
	<use xlink:href='#gpPt5' transform='translate(1203.8,601.1) scale(2.25)' color='rgb(255,   0,   0)'/>
	<use xlink:href='#gpPt5' transform='translate(1216.6,606.2) scale(2.25)' color='rgb(255,   0,   0)'/>
	<use xlink:href='#gpPt5' transform='translate(1229.4,603.1) scale(2.25)' color='rgb(255,   0,   0)'/>
	<use xlink:href='#gpPt5' transform='translate(1242.2,587.2) scale(2.25)' color='rgb(255,   0,   0)'/>
	<use xlink:href='#gpPt5' transform='translate(1255.0,572.8) scale(2.25)' color='rgb(255,   0,   0)'/>
	<use xlink:href='#gpPt5' transform='translate(1217.3,72.1) scale(2.25)' color='rgb(255,   0,   0)'/>
</g>
	</g>
	<g id="gnuplot_plot_2" ><title>gnuplot_plot_2</title>
<g fill="none" color="black" stroke="currentColor" stroke-width="1.00" stroke-linecap="butt" stroke-linejoin="miter">
	<use xlink:href='#gpPt5' transform='translate(103.7,82.7) scale(2.25)' color='rgb(  0, 100,   0)'/>
	<use xlink:href='#gpPt5' transform='translate(104.3,86.1) scale(2.25)' color='rgb(  0, 100,   0)'/>
	<use xlink:href='#gpPt5' transform='translate(105.0,93.1) scale(2.25)' color='rgb(  0, 100,   0)'/>
	<use xlink:href='#gpPt5' transform='translate(105.6,99.8) scale(2.25)' color='rgb(  0, 100,   0)'/>
	<use xlink:href='#gpPt5' transform='translate(106.3,105.5) scale(2.25)' color='rgb(  0, 100,   0)'/>
	<use xlink:href='#gpPt5' transform='translate(106.9,110.3) scale(2.25)' color='rgb(  0, 100,   0)'/>
	<use xlink:href='#gpPt5' transform='translate(107.5,114.5) scale(2.25)' color='rgb(  0, 100,   0)'/>
	<use xlink:href='#gpPt5' transform='translate(108.2,118.3) scale(2.25)' color='rgb(  0, 100,   0)'/>
	<use xlink:href='#gpPt5' transform='translate(108.8,121.6) scale(2.25)' color='rgb(  0, 100,   0)'/>
	<use xlink:href='#gpPt5' transform='translate(109.5,124.8) scale(2.25)' color='rgb(  0, 100,   0)'/>
	<use xlink:href='#gpPt5' transform='translate(110.1,127.7) scale(2.25)' color='rgb(  0, 100,   0)'/>
	<use xlink:href='#gpPt5' transform='translate(110.7,130.5) scale(2.25)' color='rgb(  0, 100,   0)'/>
	<use xlink:href='#gpPt5' transform='translate(111.4,133.3) scale(2.25)' color='rgb(  0, 100,   0)'/>
	<use xlink:href='#gpPt5' transform='translate(112.0,136.1) scale(2.25)' color='rgb(  0, 100,   0)'/>
	<use xlink:href='#gpPt5' transform='translate(112.7,138.7) scale(2.25)' color='rgb(  0, 100,   0)'/>
	<use xlink:href='#gpPt5' transform='translate(113.3,141.3) scale(2.25)' color='rgb(  0, 100,   0)'/>
	<use xlink:href='#gpPt5' transform='translate(113.9,144.0) scale(2.25)' color='rgb(  0, 100,   0)'/>
	<use xlink:href='#gpPt5' transform='translate(114.6,146.6) scale(2.25)' color='rgb(  0, 100,   0)'/>
	<use xlink:href='#gpPt5' transform='translate(115.2,149.2) scale(2.25)' color='rgb(  0, 100,   0)'/>
	<use xlink:href='#gpPt5' transform='translate(115.9,151.8) scale(2.25)' color='rgb(  0, 100,   0)'/>
	<use xlink:href='#gpPt5' transform='translate(116.5,154.3) scale(2.25)' color='rgb(  0, 100,   0)'/>
	<use xlink:href='#gpPt5' transform='translate(122.9,179.1) scale(2.25)' color='rgb(  0, 100,   0)'/>
	<use xlink:href='#gpPt5' transform='translate(129.3,202.1) scale(2.25)' color='rgb(  0, 100,   0)'/>
	<use xlink:href='#gpPt5' transform='translate(135.7,222.8) scale(2.25)' color='rgb(  0, 100,   0)'/>
	<use xlink:href='#gpPt5' transform='translate(142.1,241.2) scale(2.25)' color='rgb(  0, 100,   0)'/>
	<use xlink:href='#gpPt5' transform='translate(154.9,272.1) scale(2.25)' color='rgb(  0, 100,   0)'/>
	<use xlink:href='#gpPt5' transform='translate(167.7,296.8) scale(2.25)' color='rgb(  0, 100,   0)'/>
	<use xlink:href='#gpPt5' transform='translate(180.5,316.5) scale(2.25)' color='rgb(  0, 100,   0)'/>
	<use xlink:href='#gpPt5' transform='translate(193.2,332.6) scale(2.25)' color='rgb(  0, 100,   0)'/>
	<use xlink:href='#gpPt5' transform='translate(206.0,346.3) scale(2.25)' color='rgb(  0, 100,   0)'/>
	<use xlink:href='#gpPt5' transform='translate(218.8,358.4) scale(2.25)' color='rgb(  0, 100,   0)'/>
	<use xlink:href='#gpPt5' transform='translate(231.6,369.6) scale(2.25)' color='rgb(  0, 100,   0)'/>
	<use xlink:href='#gpPt5' transform='translate(244.4,380.5) scale(2.25)' color='rgb(  0, 100,   0)'/>
	<use xlink:href='#gpPt5' transform='translate(257.2,390.8) scale(2.25)' color='rgb(  0, 100,   0)'/>
	<use xlink:href='#gpPt5' transform='translate(270.0,400.8) scale(2.25)' color='rgb(  0, 100,   0)'/>
	<use xlink:href='#gpPt5' transform='translate(282.8,410.5) scale(2.25)' color='rgb(  0, 100,   0)'/>
	<use xlink:href='#gpPt5' transform='translate(295.6,420.0) scale(2.25)' color='rgb(  0, 100,   0)'/>
	<use xlink:href='#gpPt5' transform='translate(308.4,429.6) scale(2.25)' color='rgb(  0, 100,   0)'/>
	<use xlink:href='#gpPt5' transform='translate(321.2,439.0) scale(2.25)' color='rgb(  0, 100,   0)'/>
	<use xlink:href='#gpPt5' transform='translate(334.0,448.6) scale(2.25)' color='rgb(  0, 100,   0)'/>
	<use xlink:href='#gpPt5' transform='translate(346.8,457.9) scale(2.25)' color='rgb(  0, 100,   0)'/>
	<use xlink:href='#gpPt5' transform='translate(359.5,466.5) scale(2.25)' color='rgb(  0, 100,   0)'/>
	<use xlink:href='#gpPt5' transform='translate(372.3,475.7) scale(2.25)' color='rgb(  0, 100,   0)'/>
	<use xlink:href='#gpPt5' transform='translate(385.1,484.8) scale(2.25)' color='rgb(  0, 100,   0)'/>
	<use xlink:href='#gpPt5' transform='translate(397.9,493.8) scale(2.25)' color='rgb(  0, 100,   0)'/>
	<use xlink:href='#gpPt5' transform='translate(410.7,502.2) scale(2.25)' color='rgb(  0, 100,   0)'/>
	<use xlink:href='#gpPt5' transform='translate(423.5,510.7) scale(2.25)' color='rgb(  0, 100,   0)'/>
	<use xlink:href='#gpPt5' transform='translate(436.3,519.4) scale(2.25)' color='rgb(  0, 100,   0)'/>
	<use xlink:href='#gpPt5' transform='translate(449.1,527.9) scale(2.25)' color='rgb(  0, 100,   0)'/>
	<use xlink:href='#gpPt5' transform='translate(461.9,536.0) scale(2.25)' color='rgb(  0, 100,   0)'/>
	<use xlink:href='#gpPt5' transform='translate(474.7,543.8) scale(2.25)' color='rgb(  0, 100,   0)'/>
	<use xlink:href='#gpPt5' transform='translate(487.5,551.7) scale(2.25)' color='rgb(  0, 100,   0)'/>
	<use xlink:href='#gpPt5' transform='translate(500.3,559.9) scale(2.25)' color='rgb(  0, 100,   0)'/>
	<use xlink:href='#gpPt5' transform='translate(513.1,567.8) scale(2.25)' color='rgb(  0, 100,   0)'/>
	<use xlink:href='#gpPt5' transform='translate(525.8,574.8) scale(2.25)' color='rgb(  0, 100,   0)'/>
	<use xlink:href='#gpPt5' transform='translate(538.6,581.7) scale(2.25)' color='rgb(  0, 100,   0)'/>
	<use xlink:href='#gpPt5' transform='translate(551.4,589.4) scale(2.25)' color='rgb(  0, 100,   0)'/>
	<use xlink:href='#gpPt5' transform='translate(564.2,596.8) scale(2.25)' color='rgb(  0, 100,   0)'/>
	<use xlink:href='#gpPt5' transform='translate(577.0,602.7) scale(2.25)' color='rgb(  0, 100,   0)'/>
	<use xlink:href='#gpPt5' transform='translate(589.8,609.3) scale(2.25)' color='rgb(  0, 100,   0)'/>
	<use xlink:href='#gpPt5' transform='translate(602.6,616.5) scale(2.25)' color='rgb(  0, 100,   0)'/>
	<use xlink:href='#gpPt5' transform='translate(615.4,622.6) scale(2.25)' color='rgb(  0, 100,   0)'/>
	<use xlink:href='#gpPt5' transform='translate(628.2,627.4) scale(2.25)' color='rgb(  0, 100,   0)'/>
	<use xlink:href='#gpPt5' transform='translate(641.0,633.1) scale(2.25)' color='rgb(  0, 100,   0)'/>
	<use xlink:href='#gpPt5' transform='translate(653.8,639.4) scale(2.25)' color='rgb(  0, 100,   0)'/>
	<use xlink:href='#gpPt5' transform='translate(666.6,644.3) scale(2.25)' color='rgb(  0, 100,   0)'/>
	<use xlink:href='#gpPt5' transform='translate(679.4,648.2) scale(2.25)' color='rgb(  0, 100,   0)'/>
	<use xlink:href='#gpPt5' transform='translate(692.1,653.3) scale(2.25)' color='rgb(  0, 100,   0)'/>
	<use xlink:href='#gpPt5' transform='translate(704.9,658.0) scale(2.25)' color='rgb(  0, 100,   0)'/>
	<use xlink:href='#gpPt5' transform='translate(717.7,660.9) scale(2.25)' color='rgb(  0, 100,   0)'/>
	<use xlink:href='#gpPt5' transform='translate(730.5,663.3) scale(2.25)' color='rgb(  0, 100,   0)'/>
	<use xlink:href='#gpPt5' transform='translate(743.3,667.6) scale(2.25)' color='rgb(  0, 100,   0)'/>
	<use xlink:href='#gpPt5' transform='translate(756.1,671.6) scale(2.25)' color='rgb(  0, 100,   0)'/>
	<use xlink:href='#gpPt5' transform='translate(768.9,673.3) scale(2.25)' color='rgb(  0, 100,   0)'/>
	<use xlink:href='#gpPt5' transform='translate(781.7,674.6) scale(2.25)' color='rgb(  0, 100,   0)'/>
	<use xlink:href='#gpPt5' transform='translate(794.5,677.8) scale(2.25)' color='rgb(  0, 100,   0)'/>
	<use xlink:href='#gpPt5' transform='translate(807.3,679.6) scale(2.25)' color='rgb(  0, 100,   0)'/>
	<use xlink:href='#gpPt5' transform='translate(820.1,680.3) scale(2.25)' color='rgb(  0, 100,   0)'/>
	<use xlink:href='#gpPt5' transform='translate(832.9,681.1) scale(2.25)' color='rgb(  0, 100,   0)'/>
	<use xlink:href='#gpPt5' transform='translate(845.6,681.5) scale(2.25)' color='rgb(  0, 100,   0)'/>
	<use xlink:href='#gpPt5' transform='translate(858.4,681.0) scale(2.25)' color='rgb(  0, 100,   0)'/>
	<use xlink:href='#gpPt5' transform='translate(871.2,681.0) scale(2.25)' color='rgb(  0, 100,   0)'/>
	<use xlink:href='#gpPt5' transform='translate(884.0,680.5) scale(2.25)' color='rgb(  0, 100,   0)'/>
	<use xlink:href='#gpPt5' transform='translate(896.8,679.1) scale(2.25)' color='rgb(  0, 100,   0)'/>
	<use xlink:href='#gpPt5' transform='translate(909.6,677.4) scale(2.25)' color='rgb(  0, 100,   0)'/>
	<use xlink:href='#gpPt5' transform='translate(922.4,674.3) scale(2.25)' color='rgb(  0, 100,   0)'/>
	<use xlink:href='#gpPt5' transform='translate(935.2,671.3) scale(2.25)' color='rgb(  0, 100,   0)'/>
	<use xlink:href='#gpPt5' transform='translate(948.0,667.6) scale(2.25)' color='rgb(  0, 100,   0)'/>
	<use xlink:href='#gpPt5' transform='translate(960.8,663.9) scale(2.25)' color='rgb(  0, 100,   0)'/>
	<use xlink:href='#gpPt5' transform='translate(973.6,657.1) scale(2.25)' color='rgb(  0, 100,   0)'/>
	<use xlink:href='#gpPt5' transform='translate(986.4,649.9) scale(2.25)' color='rgb(  0, 100,   0)'/>
	<use xlink:href='#gpPt5' transform='translate(999.2,644.2) scale(2.25)' color='rgb(  0, 100,   0)'/>
	<use xlink:href='#gpPt5' transform='translate(1011.9,637.1) scale(2.25)' color='rgb(  0, 100,   0)'/>
	<use xlink:href='#gpPt5' transform='translate(1024.7,630.9) scale(2.25)' color='rgb(  0, 100,   0)'/>
	<use xlink:href='#gpPt5' transform='translate(1037.5,627.2) scale(2.25)' color='rgb(  0, 100,   0)'/>
	<use xlink:href='#gpPt5' transform='translate(1050.3,622.6) scale(2.25)' color='rgb(  0, 100,   0)'/>
	<use xlink:href='#gpPt5' transform='translate(1063.1,619.2) scale(2.25)' color='rgb(  0, 100,   0)'/>
	<use xlink:href='#gpPt5' transform='translate(1075.9,617.1) scale(2.25)' color='rgb(  0, 100,   0)'/>
	<use xlink:href='#gpPt5' transform='translate(1088.7,617.7) scale(2.25)' color='rgb(  0, 100,   0)'/>
	<use xlink:href='#gpPt5' transform='translate(1101.5,617.7) scale(2.25)' color='rgb(  0, 100,   0)'/>
	<use xlink:href='#gpPt5' transform='translate(1114.3,616.0) scale(2.25)' color='rgb(  0, 100,   0)'/>
	<use xlink:href='#gpPt5' transform='translate(1127.1,613.7) scale(2.25)' color='rgb(  0, 100,   0)'/>
	<use xlink:href='#gpPt5' transform='translate(1139.9,610.3) scale(2.25)' color='rgb(  0, 100,   0)'/>
	<use xlink:href='#gpPt5' transform='translate(1152.7,604.5) scale(2.25)' color='rgb(  0, 100,   0)'/>
	<use xlink:href='#gpPt5' transform='translate(1165.5,599.8) scale(2.25)' color='rgb(  0, 100,   0)'/>
	<use xlink:href='#gpPt5' transform='translate(1178.2,597.4) scale(2.25)' color='rgb(  0, 100,   0)'/>
	<use xlink:href='#gpPt5' transform='translate(1191.0,597.2) scale(2.25)' color='rgb(  0, 100,   0)'/>
	<use xlink:href='#gpPt5' transform='translate(1203.8,599.6) scale(2.25)' color='rgb(  0, 100,   0)'/>
	<use xlink:href='#gpPt5' transform='translate(1216.6,598.8) scale(2.25)' color='rgb(  0, 100,   0)'/>
	<use xlink:href='#gpPt5' transform='translate(1229.4,595.2) scale(2.25)' color='rgb(  0, 100,   0)'/>
	<use xlink:href='#gpPt5' transform='translate(1242.2,584.1) scale(2.25)' color='rgb(  0, 100,   0)'/>
	<use xlink:href='#gpPt5' transform='translate(1255.0,570.0) scale(2.25)' color='rgb(  0, 100,   0)'/>
</g>
	</g>
	<g id="gnuplot_plot_3" ><title>gnuplot_plot_3</title>
<g fill="none" color="black" stroke="currentColor" stroke-width="1.00" stroke-linecap="butt" stroke-linejoin="miter">
	<use xlink:href='#gpPt5' transform='translate(103.7,54.1) scale(2.25)' color='rgb(  0,   0, 255)'/>
	<use xlink:href='#gpPt5' transform='translate(104.3,59.0) scale(2.25)' color='rgb(  0,   0, 255)'/>
	<use xlink:href='#gpPt5' transform='translate(105.0,67.8) scale(2.25)' color='rgb(  0,   0, 255)'/>
	<use xlink:href='#gpPt5' transform='translate(105.6,75.5) scale(2.25)' color='rgb(  0,   0, 255)'/>
	<use xlink:href='#gpPt5' transform='translate(106.3,81.9) scale(2.25)' color='rgb(  0,   0, 255)'/>
	<use xlink:href='#gpPt5' transform='translate(106.9,87.1) scale(2.25)' color='rgb(  0,   0, 255)'/>
	<use xlink:href='#gpPt5' transform='translate(107.5,91.7) scale(2.25)' color='rgb(  0,   0, 255)'/>
	<use xlink:href='#gpPt5' transform='translate(108.2,95.8) scale(2.25)' color='rgb(  0,   0, 255)'/>
	<use xlink:href='#gpPt5' transform='translate(108.8,99.5) scale(2.25)' color='rgb(  0,   0, 255)'/>
	<use xlink:href='#gpPt5' transform='translate(109.5,103.1) scale(2.25)' color='rgb(  0,   0, 255)'/>
	<use xlink:href='#gpPt5' transform='translate(110.1,106.5) scale(2.25)' color='rgb(  0,   0, 255)'/>
	<use xlink:href='#gpPt5' transform='translate(110.7,109.9) scale(2.25)' color='rgb(  0,   0, 255)'/>
	<use xlink:href='#gpPt5' transform='translate(111.4,113.2) scale(2.25)' color='rgb(  0,   0, 255)'/>
	<use xlink:href='#gpPt5' transform='translate(112.0,116.5) scale(2.25)' color='rgb(  0,   0, 255)'/>
	<use xlink:href='#gpPt5' transform='translate(112.7,119.7) scale(2.25)' color='rgb(  0,   0, 255)'/>
	<use xlink:href='#gpPt5' transform='translate(113.3,122.9) scale(2.25)' color='rgb(  0,   0, 255)'/>
	<use xlink:href='#gpPt5' transform='translate(113.9,126.1) scale(2.25)' color='rgb(  0,   0, 255)'/>
	<use xlink:href='#gpPt5' transform='translate(114.6,129.3) scale(2.25)' color='rgb(  0,   0, 255)'/>
	<use xlink:href='#gpPt5' transform='translate(115.2,132.5) scale(2.25)' color='rgb(  0,   0, 255)'/>
	<use xlink:href='#gpPt5' transform='translate(115.9,135.6) scale(2.25)' color='rgb(  0,   0, 255)'/>
	<use xlink:href='#gpPt5' transform='translate(116.5,138.7) scale(2.25)' color='rgb(  0,   0, 255)'/>
	<use xlink:href='#gpPt5' transform='translate(122.9,168.5) scale(2.25)' color='rgb(  0,   0, 255)'/>
	<use xlink:href='#gpPt5' transform='translate(129.3,195.3) scale(2.25)' color='rgb(  0,   0, 255)'/>
	<use xlink:href='#gpPt5' transform='translate(135.7,218.5) scale(2.25)' color='rgb(  0,   0, 255)'/>
	<use xlink:href='#gpPt5' transform='translate(142.1,238.6) scale(2.25)' color='rgb(  0,   0, 255)'/>
	<use xlink:href='#gpPt5' transform='translate(154.9,270.8) scale(2.25)' color='rgb(  0,   0, 255)'/>
	<use xlink:href='#gpPt5' transform='translate(167.7,295.5) scale(2.25)' color='rgb(  0,   0, 255)'/>
	<use xlink:href='#gpPt5' transform='translate(180.5,314.5) scale(2.25)' color='rgb(  0,   0, 255)'/>
	<use xlink:href='#gpPt5' transform='translate(193.2,329.8) scale(2.25)' color='rgb(  0,   0, 255)'/>
	<use xlink:href='#gpPt5' transform='translate(206.0,343.0) scale(2.25)' color='rgb(  0,   0, 255)'/>
	<use xlink:href='#gpPt5' transform='translate(218.8,354.5) scale(2.25)' color='rgb(  0,   0, 255)'/>
	<use xlink:href='#gpPt5' transform='translate(231.6,364.9) scale(2.25)' color='rgb(  0,   0, 255)'/>
	<use xlink:href='#gpPt5' transform='translate(244.4,375.2) scale(2.25)' color='rgb(  0,   0, 255)'/>
	<use xlink:href='#gpPt5' transform='translate(257.2,385.3) scale(2.25)' color='rgb(  0,   0, 255)'/>
	<use xlink:href='#gpPt5' transform='translate(270.0,395.1) scale(2.25)' color='rgb(  0,   0, 255)'/>
	<use xlink:href='#gpPt5' transform='translate(282.8,404.9) scale(2.25)' color='rgb(  0,   0, 255)'/>
	<use xlink:href='#gpPt5' transform='translate(295.6,414.0) scale(2.25)' color='rgb(  0,   0, 255)'/>
	<use xlink:href='#gpPt5' transform='translate(308.4,423.2) scale(2.25)' color='rgb(  0,   0, 255)'/>
	<use xlink:href='#gpPt5' transform='translate(321.2,432.9) scale(2.25)' color='rgb(  0,   0, 255)'/>
	<use xlink:href='#gpPt5' transform='translate(334.0,442.2) scale(2.25)' color='rgb(  0,   0, 255)'/>
	<use xlink:href='#gpPt5' transform='translate(346.8,451.5) scale(2.25)' color='rgb(  0,   0, 255)'/>
	<use xlink:href='#gpPt5' transform='translate(359.5,460.4) scale(2.25)' color='rgb(  0,   0, 255)'/>
	<use xlink:href='#gpPt5' transform='translate(372.3,469.2) scale(2.25)' color='rgb(  0,   0, 255)'/>
	<use xlink:href='#gpPt5' transform='translate(385.1,478.0) scale(2.25)' color='rgb(  0,   0, 255)'/>
	<use xlink:href='#gpPt5' transform='translate(397.9,487.4) scale(2.25)' color='rgb(  0,   0, 255)'/>
	<use xlink:href='#gpPt5' transform='translate(410.7,496.1) scale(2.25)' color='rgb(  0,   0, 255)'/>
	<use xlink:href='#gpPt5' transform='translate(423.5,504.2) scale(2.25)' color='rgb(  0,   0, 255)'/>
	<use xlink:href='#gpPt5' transform='translate(436.3,512.7) scale(2.25)' color='rgb(  0,   0, 255)'/>
	<use xlink:href='#gpPt5' transform='translate(449.1,521.5) scale(2.25)' color='rgb(  0,   0, 255)'/>
	<use xlink:href='#gpPt5' transform='translate(461.9,529.8) scale(2.25)' color='rgb(  0,   0, 255)'/>
	<use xlink:href='#gpPt5' transform='translate(474.7,538.0) scale(2.25)' color='rgb(  0,   0, 255)'/>
	<use xlink:href='#gpPt5' transform='translate(487.5,545.4) scale(2.25)' color='rgb(  0,   0, 255)'/>
	<use xlink:href='#gpPt5' transform='translate(500.3,553.9) scale(2.25)' color='rgb(  0,   0, 255)'/>
	<use xlink:href='#gpPt5' transform='translate(513.1,561.6) scale(2.25)' color='rgb(  0,   0, 255)'/>
	<use xlink:href='#gpPt5' transform='translate(525.8,569.0) scale(2.25)' color='rgb(  0,   0, 255)'/>
	<use xlink:href='#gpPt5' transform='translate(538.6,576.4) scale(2.25)' color='rgb(  0,   0, 255)'/>
	<use xlink:href='#gpPt5' transform='translate(551.4,583.6) scale(2.25)' color='rgb(  0,   0, 255)'/>
	<use xlink:href='#gpPt5' transform='translate(564.2,590.8) scale(2.25)' color='rgb(  0,   0, 255)'/>
	<use xlink:href='#gpPt5' transform='translate(577.0,597.9) scale(2.25)' color='rgb(  0,   0, 255)'/>
	<use xlink:href='#gpPt5' transform='translate(589.8,604.0) scale(2.25)' color='rgb(  0,   0, 255)'/>
	<use xlink:href='#gpPt5' transform='translate(602.6,610.6) scale(2.25)' color='rgb(  0,   0, 255)'/>
	<use xlink:href='#gpPt5' transform='translate(615.4,616.9) scale(2.25)' color='rgb(  0,   0, 255)'/>
	<use xlink:href='#gpPt5' transform='translate(628.2,622.6) scale(2.25)' color='rgb(  0,   0, 255)'/>
	<use xlink:href='#gpPt5' transform='translate(641.0,628.1) scale(2.25)' color='rgb(  0,   0, 255)'/>
	<use xlink:href='#gpPt5' transform='translate(653.8,634.0) scale(2.25)' color='rgb(  0,   0, 255)'/>
	<use xlink:href='#gpPt5' transform='translate(666.6,638.9) scale(2.25)' color='rgb(  0,   0, 255)'/>
	<use xlink:href='#gpPt5' transform='translate(679.4,643.9) scale(2.25)' color='rgb(  0,   0, 255)'/>
	<use xlink:href='#gpPt5' transform='translate(692.1,648.5) scale(2.25)' color='rgb(  0,   0, 255)'/>
	<use xlink:href='#gpPt5' transform='translate(704.9,652.7) scale(2.25)' color='rgb(  0,   0, 255)'/>
	<use xlink:href='#gpPt5' transform='translate(717.7,656.2) scale(2.25)' color='rgb(  0,   0, 255)'/>
	<use xlink:href='#gpPt5' transform='translate(730.5,660.0) scale(2.25)' color='rgb(  0,   0, 255)'/>
	<use xlink:href='#gpPt5' transform='translate(743.3,663.2) scale(2.25)' color='rgb(  0,   0, 255)'/>
	<use xlink:href='#gpPt5' transform='translate(756.1,665.9) scale(2.25)' color='rgb(  0,   0, 255)'/>
	<use xlink:href='#gpPt5' transform='translate(768.9,668.0) scale(2.25)' color='rgb(  0,   0, 255)'/>
	<use xlink:href='#gpPt5' transform='translate(781.7,670.2) scale(2.25)' color='rgb(  0,   0, 255)'/>
	<use xlink:href='#gpPt5' transform='translate(794.5,672.0) scale(2.25)' color='rgb(  0,   0, 255)'/>
	<use xlink:href='#gpPt5' transform='translate(807.3,674.2) scale(2.25)' color='rgb(  0,   0, 255)'/>
	<use xlink:href='#gpPt5' transform='translate(820.1,675.6) scale(2.25)' color='rgb(  0,   0, 255)'/>
	<use xlink:href='#gpPt5' transform='translate(832.9,676.1) scale(2.25)' color='rgb(  0,   0, 255)'/>
	<use xlink:href='#gpPt5' transform='translate(845.6,678.2) scale(2.25)' color='rgb(  0,   0, 255)'/>
	<use xlink:href='#gpPt5' transform='translate(858.4,679.2) scale(2.25)' color='rgb(  0,   0, 255)'/>
	<use xlink:href='#gpPt5' transform='translate(871.2,677.7) scale(2.25)' color='rgb(  0,   0, 255)'/>
	<use xlink:href='#gpPt5' transform='translate(884.0,677.7) scale(2.25)' color='rgb(  0,   0, 255)'/>
	<use xlink:href='#gpPt5' transform='translate(896.8,676.1) scale(2.25)' color='rgb(  0,   0, 255)'/>
	<use xlink:href='#gpPt5' transform='translate(909.6,673.5) scale(2.25)' color='rgb(  0,   0, 255)'/>
	<use xlink:href='#gpPt5' transform='translate(922.4,671.8) scale(2.25)' color='rgb(  0,   0, 255)'/>
	<use xlink:href='#gpPt5' transform='translate(935.2,668.8) scale(2.25)' color='rgb(  0,   0, 255)'/>
	<use xlink:href='#gpPt5' transform='translate(948.0,665.6) scale(2.25)' color='rgb(  0,   0, 255)'/>
	<use xlink:href='#gpPt5' transform='translate(960.8,660.5) scale(2.25)' color='rgb(  0,   0, 255)'/>
	<use xlink:href='#gpPt5' transform='translate(973.6,654.2) scale(2.25)' color='rgb(  0,   0, 255)'/>
	<use xlink:href='#gpPt5' transform='translate(986.4,647.5) scale(2.25)' color='rgb(  0,   0, 255)'/>
	<use xlink:href='#gpPt5' transform='translate(999.2,639.8) scale(2.25)' color='rgb(  0,   0, 255)'/>
	<use xlink:href='#gpPt5' transform='translate(1011.9,631.9) scale(2.25)' color='rgb(  0,   0, 255)'/>
	<use xlink:href='#gpPt5' transform='translate(1024.7,625.6) scale(2.25)' color='rgb(  0,   0, 255)'/>
	<use xlink:href='#gpPt5' transform='translate(1037.5,618.5) scale(2.25)' color='rgb(  0,   0, 255)'/>
	<use xlink:href='#gpPt5' transform='translate(1050.3,615.7) scale(2.25)' color='rgb(  0,   0, 255)'/>
	<use xlink:href='#gpPt5' transform='translate(1063.1,614.2) scale(2.25)' color='rgb(  0,   0, 255)'/>
	<use xlink:href='#gpPt5' transform='translate(1075.9,612.0) scale(2.25)' color='rgb(  0,   0, 255)'/>
	<use xlink:href='#gpPt5' transform='translate(1088.7,611.0) scale(2.25)' color='rgb(  0,   0, 255)'/>
	<use xlink:href='#gpPt5' transform='translate(1101.5,611.4) scale(2.25)' color='rgb(  0,   0, 255)'/>
	<use xlink:href='#gpPt5' transform='translate(1114.3,610.0) scale(2.25)' color='rgb(  0,   0, 255)'/>
	<use xlink:href='#gpPt5' transform='translate(1127.1,608.4) scale(2.25)' color='rgb(  0,   0, 255)'/>
	<use xlink:href='#gpPt5' transform='translate(1139.9,605.0) scale(2.25)' color='rgb(  0,   0, 255)'/>
	<use xlink:href='#gpPt5' transform='translate(1152.7,600.3) scale(2.25)' color='rgb(  0,   0, 255)'/>
	<use xlink:href='#gpPt5' transform='translate(1165.5,596.2) scale(2.25)' color='rgb(  0,   0, 255)'/>
	<use xlink:href='#gpPt5' transform='translate(1178.2,592.0) scale(2.25)' color='rgb(  0,   0, 255)'/>
	<use xlink:href='#gpPt5' transform='translate(1191.0,590.9) scale(2.25)' color='rgb(  0,   0, 255)'/>
	<use xlink:href='#gpPt5' transform='translate(1203.8,591.9) scale(2.25)' color='rgb(  0,   0, 255)'/>
	<use xlink:href='#gpPt5' transform='translate(1216.6,591.4) scale(2.25)' color='rgb(  0,   0, 255)'/>
	<use xlink:href='#gpPt5' transform='translate(1229.4,586.6) scale(2.25)' color='rgb(  0,   0, 255)'/>
	<use xlink:href='#gpPt5' transform='translate(1242.2,573.2) scale(2.25)' color='rgb(  0,   0, 255)'/>
	<use xlink:href='#gpPt5' transform='translate(1255.0,557.4) scale(2.25)' color='rgb(  0,   0, 255)'/>
</g>
	</g>
	<g id="gnuplot_plot_4" ><title>fit</title>
<g fill="none" color="black" stroke="currentColor" stroke-width="1.00" stroke-linecap="butt" stroke-linejoin="miter">
	<g transform="translate(1187.9,94.0)" stroke="none" fill="black" font-family="Arial" font-size="12.00"  text-anchor="end">
		<text><tspan font-family="Arial" >fit</tspan></text>
	</g>
</g>
<g fill="none" color="black" stroke="currentColor" stroke-width="1.00" stroke-linecap="butt" stroke-linejoin="miter">
	<path stroke='rgb(255,   0,   0)'  d='M1196.2,90.1 L1238.4,90.1 M103.7,96.2 L104.8,100.7 L106.0,110.7 L107.1,120.7 L108.2,128.6 L109.3,134.5
		L110.5,139.4 L111.6,143.5 L112.7,147.4 L113.8,151.2 L115.0,155.0 L116.1,158.9 L117.2,162.8 L118.3,166.8
		L119.5,170.8 L120.6,174.9 L121.7,179.0 L122.8,183.2 L124.0,187.3 L125.1,191.4 L126.2,195.5 L127.3,199.5
		L128.5,203.5 L129.6,207.4 L130.7,211.3 L131.8,215.1 L133.0,218.8 L134.1,222.4 L135.2,225.9 L136.3,229.4
		L137.5,232.8 L138.6,236.0 L139.7,239.2 L140.8,242.3 L142.0,245.4 L143.1,248.3 L144.2,251.2 L145.3,253.9
		L146.5,256.7 L147.6,259.3 L148.7,261.8 L149.8,264.3 L151.0,266.8 L152.1,269.1 L153.2,271.4 L154.3,273.6
		L155.5,275.8 L156.6,278.0 L157.7,280.0 L158.8,282.1 L160.0,284.0 L161.1,286.0 L162.2,287.9 L163.3,289.7
		L164.5,291.6 L165.6,293.3 L166.7,295.1 L167.8,296.8 L169.0,298.5 L170.1,300.1 L171.2,301.7 L172.4,303.3
		L173.5,304.9 L174.6,306.5 L175.7,308.0 L176.9,309.5 L178.0,310.9 L179.1,312.4 L180.2,313.8 L181.4,315.3
		L182.5,316.7 L183.6,318.0 L184.7,319.4 L185.9,320.7 L187.0,322.1 L188.1,323.4 L189.2,324.7 L190.4,326.0
		L191.5,327.3 L192.6,328.6 L193.7,329.8 L194.9,331.1 L196.0,332.3 L197.1,333.5 L198.2,334.7 L199.4,335.9
		L200.5,337.1 L201.6,338.3 L202.7,339.5 L203.9,340.7 L205.0,341.8 L206.1,343.0 L207.2,344.1 L208.4,345.3
		L209.5,346.4 L210.6,347.6 L211.7,348.7 L212.9,349.8 L214.0,350.9 L215.1,352.0 L216.2,353.1 L217.4,354.2
		L218.5,355.3 L219.6,356.4 L220.7,357.4 L221.9,358.5 L223.0,359.6 L224.1,360.6 L225.2,361.7 L226.4,362.8
		L227.5,363.8 L228.6,364.8 L229.7,365.9 L230.9,366.9 L232.0,368.0 L233.1,369.0 L234.2,370.0 L235.4,371.0
		L236.5,372.1 L237.6,373.1 L238.7,374.1 L239.9,375.1 L241.0,376.1 L242.1,377.1 L243.3,378.1 L244.4,379.1
		L245.5,380.1 L246.6,381.1 L247.8,382.1 L248.9,383.1 L250.0,384.0 L251.1,385.0 L252.3,386.0 L253.4,387.0
		L254.5,387.9 L255.6,388.9 L256.8,389.9 L257.9,390.8 L259.0,391.8 L260.1,392.8 L261.3,393.7 L262.4,394.7
		L263.5,395.6 L264.6,396.6 L265.8,397.5 L266.9,398.5 L268.0,399.4 L269.1,400.4 L270.3,401.3 L271.4,402.2
		L272.5,403.2 L273.6,404.1 L274.8,405.0 L275.9,406.0 L277.0,406.9 L278.1,407.8 L279.3,408.8 L280.4,409.7
		L281.5,410.6 L282.6,411.5 L283.8,412.4 L284.9,413.4 L286.0,414.3 L287.1,415.2 L288.3,416.1 L289.4,417.0
		L290.5,417.9 L291.6,418.8 L292.8,419.7 L293.9,420.6 L295.0,421.5 L296.1,422.4 L297.3,423.3 L298.4,424.2
		L299.5,425.1 L300.6,426.0 L301.8,426.9 L302.9,427.8 L304.0,428.6 L305.1,429.5 L306.3,430.4 L307.4,431.3
		L308.5,432.2 L309.7,433.0 L310.8,433.9 L311.9,434.8 L313.0,435.7 L314.2,436.5 L315.3,437.4 L316.4,438.3
		L317.5,439.1 L318.7,440.0 L319.8,440.9 L320.9,441.7 L322.0,442.6 L323.2,443.5 L324.3,444.3 L325.4,445.2
		L326.5,446.0 L327.7,446.9 L328.8,447.7 L329.9,448.6 L331.0,449.4 L332.2,450.3 L333.3,451.1 L334.4,452.0
		L335.5,452.8 L336.7,453.7 L337.8,454.5 L338.9,455.3 L340.0,456.2 L341.2,457.0 L342.3,457.8 L343.4,458.7
		L344.5,459.5 L345.7,460.3 L346.8,461.2 L347.9,462.0 L349.0,462.8 L350.2,463.6 L351.3,464.5 L352.4,465.3
		L353.5,466.1 L354.7,466.9 L355.8,467.7 L356.9,468.5 L358.0,469.4 L359.2,470.2 L360.3,471.0 L361.4,471.8
		L362.5,472.6 L363.7,473.4 L364.8,474.2 L365.9,475.0 L367.0,475.8 L368.2,476.6 L369.3,477.4 L370.4,478.2
		L371.5,479.0 L372.7,479.8 L373.8,480.6 L374.9,481.4 L376.1,482.2 L377.2,483.0 L378.3,483.8 L379.4,484.6
		L380.6,485.4 L381.7,486.1 L382.8,486.9 L383.9,487.7 L385.1,488.5 L386.2,489.3 L387.3,490.0 L388.4,490.8
		L389.6,491.6 L390.7,492.4 L391.8,493.1 L392.9,493.9 L394.1,494.7 L395.2,495.4 L396.3,496.2 L397.4,497.0
		L398.6,497.7 L399.7,498.5 L400.8,499.3 L401.9,500.0 L403.1,500.8 L404.2,501.6 L405.3,502.3 L406.4,503.1
		L407.6,503.8 L408.7,504.6 L409.8,505.3 L410.9,506.1 L412.1,506.8 L413.2,507.6 L414.3,508.3 L415.4,509.1
		L416.6,509.8 L417.7,510.5 L418.8,511.3 L419.9,512.0 L421.1,512.8 L422.2,513.5 L423.3,514.2 L424.4,515.0
		L425.6,515.7 L426.7,516.4 L427.8,517.2 L428.9,517.9 L430.1,518.6 L431.2,519.3 L432.3,520.1 L433.4,520.8
		L434.6,521.5 L435.7,522.2 L436.8,523.0 L437.9,523.7 L439.1,524.4 L440.2,525.1 L441.3,525.8 L442.5,526.5
		L443.6,527.3 L444.7,528.0 L445.8,528.7 L447.0,529.4 L448.1,530.1 L449.2,530.8 L450.3,531.5 L451.5,532.2
		L452.6,532.9 L453.7,533.6 L454.8,534.3 L456.0,535.0 L457.1,535.7 L458.2,536.4 L459.3,537.1 L460.5,537.8
		L461.6,538.5 L462.7,539.2 L463.8,539.9 L465.0,540.6 L466.1,541.2 L467.2,541.9 L468.3,542.6 L469.5,543.3
		L470.6,544.0 L471.7,544.7 L472.8,545.3 L474.0,546.0 L475.1,546.7 L476.2,547.4 L477.3,548.0 L478.5,548.7
		L479.6,549.4 L480.7,550.1 L481.8,550.7 L483.0,551.4 L484.1,552.1 L485.2,552.7 L486.3,553.4 L487.5,554.1
		L488.6,554.7 L489.7,555.4 L490.8,556.1 L492.0,556.7 L493.1,557.4 L494.2,558.0 L495.3,558.7 L496.5,559.3
		L497.6,560.0 L498.7,560.6 L499.8,561.3 L501.0,562.0 L502.1,562.6 L503.2,563.2 L504.3,563.9 L505.5,564.5
		L506.6,565.2 L507.7,565.8 L508.8,566.5 L510.0,567.1 L511.1,567.7 L512.2,568.4 L513.4,569.0 L514.5,569.7
		L515.6,570.3 L516.7,570.9 L517.9,571.6 L519.0,572.2 L520.1,572.8 L521.2,573.4 L522.4,574.1 L523.5,574.7
		L524.6,575.3 L525.7,576.0 L526.9,576.6 L528.0,577.2 L529.1,577.8 L530.2,578.4 L531.4,579.1 L532.5,579.7
		L533.6,580.3 L534.7,580.9 L535.9,581.5 L537.0,582.1 L538.1,582.7 L539.2,583.4 L540.4,584.0 L541.5,584.6
		L542.6,585.2 L543.7,585.8 L544.9,586.4 L546.0,587.0 L547.1,587.6 L548.2,588.2 L549.4,588.8 L550.5,589.4
		L551.6,590.0 L552.7,590.6 L553.9,591.2 L555.0,591.8 L556.1,592.4 L557.2,593.0 L558.4,593.5 L559.5,594.1
		L560.6,594.7 L561.7,595.3 L562.9,595.9 L564.0,596.5 L565.1,597.1 L566.2,597.6 L567.4,598.2 L568.5,598.8
		L569.6,599.4 L570.7,600.0 L571.9,600.5 L573.0,601.1 L574.1,601.7 L575.2,602.3 L576.4,602.8 L577.5,603.4
		L578.6,604.0 L579.8,604.5 L580.9,605.1 L582.0,605.7 L583.1,606.2 L584.3,606.8 L585.4,607.4 L586.5,607.9
		L587.6,608.5 L588.8,609.0 L589.9,609.6 L591.0,610.1 L592.1,610.7 L593.3,611.2 L594.4,611.8 L595.5,612.4
		L596.6,612.9 L597.8,613.4 L598.9,614.0 L600.0,614.5 L601.1,615.1 L602.3,615.6 L603.4,616.2 L604.5,616.7
		L605.6,617.2 L606.8,617.8 L607.9,618.3 L609.0,618.9 L610.1,619.4 L611.3,619.9 L612.4,620.5 L613.5,621.0
		L614.6,621.5 L615.8,622.0 L616.9,622.6 L618.0,623.1 L619.1,623.6 L620.3,624.1 L621.4,624.7 L622.5,625.2
		L623.6,625.7 L624.8,626.2 L625.9,626.7 L627.0,627.2 L628.1,627.7 L629.3,628.3 L630.4,628.8 L631.5,629.3
		L632.6,629.8 L633.8,630.3 L634.9,630.8 L636.0,631.3 L637.1,631.8 L638.3,632.3 L639.4,632.8 L640.5,633.3
		L641.6,633.8 L642.8,634.3 L643.9,634.8 L645.0,635.3 L646.2,635.7 L647.3,636.2 L648.4,636.7 L649.5,637.2
		L650.7,637.7 L651.8,638.2 L652.9,638.6 L654.0,639.1 L655.2,639.6 L656.3,640.1 L657.4,640.5 L658.5,641.0
		L659.7,641.5 L660.8,642.0 L661.9,642.4 L663.0,642.9 L664.2,643.3 L665.3,643.8 L666.4,644.3 L667.5,644.7
		L668.7,645.2 L669.8,645.6 L670.9,646.1 L672.0,646.5 L673.2,647.0 L674.3,647.4 L675.4,647.9 L676.5,648.3
		L677.7,648.8 L678.8,649.2 L679.9,649.6 L681.0,650.1 L682.2,650.5 L683.3,650.9 L684.4,651.4 L685.5,651.8
		L686.7,652.2 L687.8,652.7 L688.9,653.1 L690.0,653.5 L691.2,653.9 L692.3,654.3 L693.4,654.7 L694.5,655.2
		L695.7,655.6 L696.8,656.0 L697.9,656.4 L699.0,656.8 L700.2,657.2 L701.3,657.6 L702.4,658.0 L703.5,658.4
		L704.7,658.8 L705.8,659.2 L706.9,659.5 L708.0,659.9 L709.2,660.3 L710.3,660.7 L711.4,661.1 L712.5,661.5
		L713.7,661.8 L714.8,662.2 L715.9,662.6 L717.1,662.9 L718.2,663.3 L719.3,663.7 L720.4,664.0 L721.6,664.4
		L722.7,664.7 L723.8,665.1 L724.9,665.4 L726.1,665.8 L727.2,666.1 L728.3,666.5 L729.4,666.8 L730.6,667.1
		L731.7,667.5 L732.8,667.8 L733.9,668.1 L735.1,668.5 L736.2,668.8 L737.3,669.1 L738.4,669.4 L739.6,669.7
		L740.7,670.0 L741.8,670.4 L742.9,670.7 L744.1,671.0 L745.2,671.3 L746.3,671.6 L747.4,671.9 L748.6,672.1
		L749.7,672.4 L750.8,672.7 L751.9,673.0 L753.1,673.3 L754.2,673.5 L755.3,673.8 L756.4,674.1 L757.6,674.4
		L758.7,674.6 L759.8,674.9 L760.9,675.1 L762.1,675.4 L763.2,675.6 L764.3,675.9 L765.4,676.1 L766.6,676.4
		L767.7,676.6 L768.8,676.8 L769.9,677.1 L771.1,677.3 L772.2,677.5 L773.3,677.7 L774.4,677.9 L775.6,678.2
		L776.7,678.4 L777.8,678.6 L778.9,678.8 L780.1,679.0 L781.2,679.2 L782.3,679.4 L783.5,679.5 L784.6,679.7
		L785.7,679.9 L786.8,680.1 L788.0,680.3 L789.1,680.4 L790.2,680.6 L791.3,680.8 L792.5,680.9 L793.6,681.1
		L794.7,681.2 L795.8,681.4 L797.0,681.5 L798.1,681.6 L799.2,681.8 L800.3,681.9 L801.5,682.0 L802.6,682.2
		L803.7,682.3 L804.8,682.4 L806.0,682.5 L807.1,682.6 L808.2,682.7 L809.3,682.8 L810.5,682.9 L811.6,683.0
		L812.7,683.1 L813.8,683.2 L815.0,683.3 L816.1,683.3 L817.2,683.4 L818.3,683.5 L819.5,683.5 L820.6,683.6
		L821.7,683.7 L822.8,683.7 L824.0,683.7 L825.1,683.8 L826.2,683.8 L827.3,683.9 L828.5,683.9 L829.6,683.9
		L830.7,683.9 L831.8,684.0 L833.0,684.0 L834.1,684.0 L835.2,684.0 L836.3,684.0 L837.5,684.0 L838.6,684.0
		L839.7,684.0 L840.8,684.0 L842.0,683.9 L843.1,683.9 L844.2,683.9 L845.3,683.9 L846.5,683.8 L847.6,683.8
		L848.7,683.8 L849.9,683.7 L851.0,683.7 L852.1,683.6 L853.2,683.5 L854.4,683.5 L855.5,683.4 L856.6,683.3
		L857.7,683.3 L858.9,683.2 L860.0,683.1 L861.1,683.0 L862.2,682.9 L863.4,682.8 L864.5,682.7 L865.6,682.6
		L866.7,682.5 L867.9,682.4 L869.0,682.3 L870.1,682.2 L871.2,682.1 L872.4,681.9 L873.5,681.8 L874.6,681.7
		L875.7,681.5 L876.9,681.4 L878.0,681.3 L879.1,681.1 L880.2,681.0 L881.4,680.8 L882.5,680.6 L883.6,680.5
		L884.7,680.3 L885.9,680.1 L887.0,680.0 L888.1,679.8 L889.2,679.6 L890.4,679.4 L891.5,679.2 L892.6,679.0
		L893.7,678.9 L894.9,678.7 L896.0,678.5 L897.1,678.2 L898.2,678.0 L899.4,677.8 L900.5,677.6 L901.6,677.4
		L902.7,677.2 L903.9,677.0 L905.0,676.7 L906.1,676.5 L907.2,676.3 L908.4,676.0 L909.5,675.8 L910.6,675.5
		L911.7,675.3 L912.9,675.1 L914.0,674.8 L915.1,674.5 L916.2,674.3 L917.4,674.0 L918.5,673.8 L919.6,673.5
		L920.8,673.2 L921.9,673.0 L923.0,672.7 L924.1,672.4 L925.3,672.1 L926.4,671.9 L927.5,671.6 L928.6,671.3
		L929.8,671.0 L930.9,670.7 L932.0,670.4 L933.1,670.1 L934.3,669.8 L935.4,669.5 L936.5,669.2 L937.6,668.9
		L938.8,668.6 L939.9,668.3 L941.0,668.0 L942.1,667.7 L943.3,667.3 L944.4,667.0 L945.5,666.7 L946.6,666.4
		L947.8,666.1 L948.9,665.7 L950.0,665.4 L951.1,665.1 L952.3,664.7 L953.4,664.4 L954.5,664.1 L955.6,663.7
		L956.8,663.4 L957.9,663.1 L959.0,662.7 L960.1,662.4 L961.3,662.0 L962.4,661.7 L963.5,661.3 L964.6,661.0
		L965.8,660.6 L966.9,660.3 L968.0,659.9 L969.1,659.6 L970.3,659.2 L971.4,658.9 L972.5,658.5 L973.6,658.1
		L974.8,657.8 L975.9,657.4 L977.0,657.0 L978.1,656.7 L979.3,656.3 L980.4,656.0 L981.5,655.6 L982.6,655.2
		L983.8,654.8 L984.9,654.5 L986.0,654.1 L987.2,653.7 L988.3,653.4 L989.4,653.0 L990.5,652.6 L991.7,652.2
		L992.8,651.9 L993.9,651.5 L995.0,651.1 L996.2,650.7 L997.3,650.4 L998.4,650.0 L999.5,649.6 L1000.7,649.2
		L1001.8,648.8 L1002.9,648.5 L1004.0,648.1 L1005.2,647.7 L1006.3,647.3 L1007.4,646.9 L1008.5,646.5 L1009.7,646.2
		L1010.8,645.8 L1011.9,645.4 L1013.0,645.0 L1014.2,644.6 L1015.3,644.3 L1016.4,643.9 L1017.5,643.5 L1018.7,643.1
		L1019.8,642.7 L1020.9,642.3 L1022.0,642.0 L1023.2,641.6 L1024.3,641.2 L1025.4,640.8 L1026.5,640.4 L1027.7,640.0
		L1028.8,639.7 L1029.9,639.3 L1031.0,638.9 L1032.2,638.5 L1033.3,638.1 L1034.4,637.8 L1035.5,637.4 L1036.7,637.0
		L1037.8,636.6 L1038.9,636.2 L1040.0,635.9 L1041.2,635.5 L1042.3,635.1 L1043.4,634.7 L1044.5,634.3 L1045.7,634.0
		L1046.8,633.6 L1047.9,633.2 L1049.0,632.8 L1050.2,632.5 L1051.3,632.1 L1052.4,631.7 L1053.6,631.4 L1054.7,631.0
		L1055.8,630.6 L1056.9,630.3 L1058.1,629.9 L1059.2,629.5 L1060.3,629.2 L1061.4,628.8 L1062.6,628.4 L1063.7,628.1
		L1064.8,627.7 L1065.9,627.3 L1067.1,627.0 L1068.2,626.6 L1069.3,626.3 L1070.4,625.9 L1071.6,625.5 L1072.7,625.2
		L1073.8,624.8 L1074.9,624.5 L1076.1,624.1 L1077.2,623.8 L1078.3,623.4 L1079.4,623.1 L1080.6,622.7 L1081.7,622.4
		L1082.8,622.0 L1083.9,621.7 L1085.1,621.4 L1086.2,621.0 L1087.3,620.7 L1088.4,620.3 L1089.6,620.0 L1090.7,619.7
		L1091.8,619.3 L1092.9,619.0 L1094.1,618.7 L1095.2,618.3 L1096.3,618.0 L1097.4,617.7 L1098.6,617.4 L1099.7,617.0
		L1100.8,616.7 L1101.9,616.4 L1103.1,616.1 L1104.2,615.8 L1105.3,615.5 L1106.4,615.1 L1107.6,614.8 L1108.7,614.5
		L1109.8,614.2 L1110.9,613.9 L1112.1,613.6 L1113.2,613.3 L1114.3,613.0 L1115.4,612.7 L1116.6,612.4 L1117.7,612.1
		L1118.8,611.8 L1120.0,611.5 L1121.1,611.2 L1122.2,610.9 L1123.3,610.6 L1124.5,610.4 L1125.6,610.1 L1126.7,609.8
		L1127.8,609.5 L1129.0,609.2 L1130.1,609.0 L1131.2,608.7 L1132.3,608.4 L1133.5,608.2 L1134.6,607.9 L1135.7,607.6
		L1136.8,607.4 L1138.0,607.1 L1139.1,606.8 L1140.2,606.6 L1141.3,606.3 L1142.5,606.1 L1143.6,605.8 L1144.7,605.6
		L1145.8,605.3 L1147.0,605.1 L1148.1,604.8 L1149.2,604.6 L1150.3,604.4 L1151.5,604.1 L1152.6,603.9 L1153.7,603.7
		L1154.8,603.4 L1156.0,603.2 L1157.1,603.0 L1158.2,602.7 L1159.3,602.5 L1160.5,602.3 L1161.6,602.1 L1162.7,601.9
		L1163.8,601.7 L1165.0,601.5 L1166.1,601.3 L1167.2,601.0 L1168.3,600.8 L1169.5,600.6 L1170.6,600.5 L1171.7,600.3
		L1172.8,600.1 L1174.0,599.9 L1175.1,599.7 L1176.2,599.5 L1177.3,599.3 L1178.5,599.1 L1179.6,599.0 L1180.7,598.8
		L1181.8,598.6 L1183.0,598.4 L1184.1,598.3 L1185.2,598.1 L1186.3,597.9 L1187.5,597.8 L1188.6,597.6 L1189.7,597.5
		L1190.9,597.3 L1192.0,597.2 L1193.1,597.0 L1194.2,596.9 L1195.4,596.7 L1196.5,596.6 L1197.6,596.5 L1198.7,596.3
		L1199.9,596.2 L1201.0,596.1 L1202.1,595.9 L1203.2,595.8 L1204.4,595.7 L1205.5,595.6 L1206.6,595.4 L1207.7,595.3
		L1208.9,595.2 L1210.0,595.1 L1211.1,595.0 L1212.2,594.9 L1213.4,594.8 L1214.5,594.7 L1215.6,594.6 L1216.7,594.5
		L1217.9,594.4 L1219.0,594.3 L1220.1,594.2 L1221.2,594.2 L1222.4,594.1 L1223.5,594.0 L1224.6,593.9 L1225.7,593.9
		L1226.9,593.8 L1228.0,593.7 L1229.1,593.7 L1230.2,593.6 L1231.4,593.5 L1232.5,593.5 L1233.6,593.4 L1234.7,593.4
		L1235.9,593.3 L1237.0,593.3 L1238.1,593.2 L1239.2,593.2 L1240.4,593.2 L1241.5,593.1 L1242.6,593.1 L1243.7,593.1
		L1244.9,593.0 L1246.0,593.0 L1247.1,593.0 L1248.2,593.0 L1249.4,593.0 L1250.5,593.0 L1251.6,592.9 L1252.7,592.9
		L1253.9,592.9 L1255.0,592.9  '/></g>
	</g>
	<g id="gnuplot_plot_5" ><title>gnuplot_plot_5</title>
<g fill="none" color="black" stroke="currentColor" stroke-width="1.00" stroke-linecap="butt" stroke-linejoin="miter">
	<path stroke='rgb(  0, 100,   0)'  d='M103.7,88.0 L104.8,92.5 L106.0,102.4 L107.1,112.3 L108.2,120.2 L109.3,126.2 L110.5,131.0 L111.6,135.3
		L112.7,139.3 L113.8,143.2 L115.0,147.1 L116.1,151.1 L117.2,155.2 L118.3,159.4 L119.5,163.6 L120.6,167.9
		L121.7,172.3 L122.8,176.6 L124.0,181.0 L125.1,185.4 L126.2,189.7 L127.3,194.0 L128.5,198.3 L129.6,202.5
		L130.7,206.7 L131.8,210.8 L133.0,214.8 L134.1,218.7 L135.2,222.5 L136.3,226.3 L137.5,229.9 L138.6,233.5
		L139.7,237.0 L140.8,240.4 L142.0,243.7 L143.1,246.9 L144.2,250.0 L145.3,253.1 L146.5,256.0 L147.6,258.9
		L148.7,261.7 L149.8,264.4 L151.0,267.0 L152.1,269.6 L153.2,272.1 L154.3,274.5 L155.5,276.9 L156.6,279.1
		L157.7,281.4 L158.8,283.5 L160.0,285.7 L161.1,287.7 L162.2,289.7 L163.3,291.7 L164.5,293.6 L165.6,295.5
		L166.7,297.3 L167.8,299.1 L169.0,300.8 L170.1,302.5 L171.2,304.2 L172.4,305.8 L173.5,307.4 L174.6,309.0
		L175.7,310.5 L176.9,312.1 L178.0,313.5 L179.1,315.0 L180.2,316.4 L181.4,317.8 L182.5,319.2 L183.6,320.6
		L184.7,321.9 L185.9,323.3 L187.0,324.6 L188.1,325.9 L189.2,327.1 L190.4,328.4 L191.5,329.6 L192.6,330.9
		L193.7,332.1 L194.9,333.3 L196.0,334.5 L197.1,335.6 L198.2,336.8 L199.4,338.0 L200.5,339.1 L201.6,340.2
		L202.7,341.4 L203.9,342.5 L205.0,343.6 L206.1,344.7 L207.2,345.8 L208.4,346.8 L209.5,347.9 L210.6,349.0
		L211.7,350.0 L212.9,351.1 L214.0,352.1 L215.1,353.2 L216.2,354.2 L217.4,355.2 L218.5,356.2 L219.6,357.3
		L220.7,358.3 L221.9,359.3 L223.0,360.3 L224.1,361.3 L225.2,362.3 L226.4,363.3 L227.5,364.3 L228.6,365.2
		L229.7,366.2 L230.9,367.2 L232.0,368.2 L233.1,369.1 L234.2,370.1 L235.4,371.1 L236.5,372.0 L237.6,373.0
		L238.7,373.9 L239.9,374.9 L241.0,375.8 L242.1,376.8 L243.3,377.7 L244.4,378.7 L245.5,379.6 L246.6,380.6
		L247.8,381.5 L248.9,382.4 L250.0,383.4 L251.1,384.3 L252.3,385.2 L253.4,386.1 L254.5,387.1 L255.6,388.0
		L256.8,388.9 L257.9,389.8 L259.0,390.7 L260.1,391.7 L261.3,392.6 L262.4,393.5 L263.5,394.4 L264.6,395.3
		L265.8,396.2 L266.9,397.1 L268.0,398.0 L269.1,398.9 L270.3,399.8 L271.4,400.7 L272.5,401.6 L273.6,402.5
		L274.8,403.4 L275.9,404.3 L277.0,405.2 L278.1,406.1 L279.3,407.0 L280.4,407.9 L281.5,408.8 L282.6,409.7
		L283.8,410.6 L284.9,411.5 L286.0,412.4 L287.1,413.3 L288.3,414.1 L289.4,415.0 L290.5,415.9 L291.6,416.8
		L292.8,417.7 L293.9,418.5 L295.0,419.4 L296.1,420.3 L297.3,421.2 L298.4,422.0 L299.5,422.9 L300.6,423.8
		L301.8,424.7 L302.9,425.5 L304.0,426.4 L305.1,427.3 L306.3,428.1 L307.4,429.0 L308.5,429.9 L309.7,430.7
		L310.8,431.6 L311.9,432.5 L313.0,433.3 L314.2,434.2 L315.3,435.0 L316.4,435.9 L317.5,436.7 L318.7,437.6
		L319.8,438.5 L320.9,439.3 L322.0,440.2 L323.2,441.0 L324.3,441.9 L325.4,442.7 L326.5,443.6 L327.7,444.4
		L328.8,445.2 L329.9,446.1 L331.0,446.9 L332.2,447.8 L333.3,448.6 L334.4,449.5 L335.5,450.3 L336.7,451.1
		L337.8,452.0 L338.9,452.8 L340.0,453.6 L341.2,454.5 L342.3,455.3 L343.4,456.1 L344.5,457.0 L345.7,457.8
		L346.8,458.6 L347.9,459.5 L349.0,460.3 L350.2,461.1 L351.3,461.9 L352.4,462.8 L353.5,463.6 L354.7,464.4
		L355.8,465.2 L356.9,466.0 L358.0,466.8 L359.2,467.7 L360.3,468.5 L361.4,469.3 L362.5,470.1 L363.7,470.9
		L364.8,471.7 L365.9,472.5 L367.0,473.3 L368.2,474.1 L369.3,474.9 L370.4,475.7 L371.5,476.6 L372.7,477.4
		L373.8,478.2 L374.9,479.0 L376.1,479.7 L377.2,480.5 L378.3,481.3 L379.4,482.1 L380.6,482.9 L381.7,483.7
		L382.8,484.5 L383.9,485.3 L385.1,486.1 L386.2,486.9 L387.3,487.7 L388.4,488.4 L389.6,489.2 L390.7,490.0
		L391.8,490.8 L392.9,491.6 L394.1,492.3 L395.2,493.1 L396.3,493.9 L397.4,494.7 L398.6,495.5 L399.7,496.2
		L400.8,497.0 L401.9,497.8 L403.1,498.5 L404.2,499.3 L405.3,500.1 L406.4,500.8 L407.6,501.6 L408.7,502.4
		L409.8,503.1 L410.9,503.9 L412.1,504.6 L413.2,505.4 L414.3,506.1 L415.4,506.9 L416.6,507.7 L417.7,508.4
		L418.8,509.2 L419.9,509.9 L421.1,510.7 L422.2,511.4 L423.3,512.2 L424.4,512.9 L425.6,513.6 L426.7,514.4
		L427.8,515.1 L428.9,515.9 L430.1,516.6 L431.2,517.3 L432.3,518.1 L433.4,518.8 L434.6,519.5 L435.7,520.3
		L436.8,521.0 L437.9,521.7 L439.1,522.5 L440.2,523.2 L441.3,523.9 L442.5,524.6 L443.6,525.4 L444.7,526.1
		L445.8,526.8 L447.0,527.5 L448.1,528.2 L449.2,529.0 L450.3,529.7 L451.5,530.4 L452.6,531.1 L453.7,531.8
		L454.8,532.5 L456.0,533.2 L457.1,534.0 L458.2,534.7 L459.3,535.4 L460.5,536.1 L461.6,536.8 L462.7,537.5
		L463.8,538.2 L465.0,538.9 L466.1,539.6 L467.2,540.3 L468.3,541.0 L469.5,541.7 L470.6,542.4 L471.7,543.0
		L472.8,543.7 L474.0,544.4 L475.1,545.1 L476.2,545.8 L477.3,546.5 L478.5,547.2 L479.6,547.9 L480.7,548.5
		L481.8,549.2 L483.0,549.9 L484.1,550.6 L485.2,551.2 L486.3,551.9 L487.5,552.6 L488.6,553.3 L489.7,553.9
		L490.8,554.6 L492.0,555.3 L493.1,555.9 L494.2,556.6 L495.3,557.3 L496.5,557.9 L497.6,558.6 L498.7,559.3
		L499.8,559.9 L501.0,560.6 L502.1,561.2 L503.2,561.9 L504.3,562.6 L505.5,563.2 L506.6,563.9 L507.7,564.5
		L508.8,565.2 L510.0,565.8 L511.1,566.5 L512.2,567.1 L513.4,567.8 L514.5,568.4 L515.6,569.0 L516.7,569.7
		L517.9,570.3 L519.0,571.0 L520.1,571.6 L521.2,572.2 L522.4,572.9 L523.5,573.5 L524.6,574.1 L525.7,574.8
		L526.9,575.4 L528.0,576.0 L529.1,576.7 L530.2,577.3 L531.4,577.9 L532.5,578.5 L533.6,579.2 L534.7,579.8
		L535.9,580.4 L537.0,581.0 L538.1,581.6 L539.2,582.2 L540.4,582.9 L541.5,583.5 L542.6,584.1 L543.7,584.7
		L544.9,585.3 L546.0,585.9 L547.1,586.5 L548.2,587.1 L549.4,587.7 L550.5,588.3 L551.6,588.9 L552.7,589.5
		L553.9,590.1 L555.0,590.7 L556.1,591.3 L557.2,591.9 L558.4,592.5 L559.5,593.1 L560.6,593.7 L561.7,594.3
		L562.9,594.9 L564.0,595.5 L565.1,596.1 L566.2,596.7 L567.4,597.2 L568.5,597.8 L569.6,598.4 L570.7,599.0
		L571.9,599.6 L573.0,600.1 L574.1,600.7 L575.2,601.3 L576.4,601.9 L577.5,602.4 L578.6,603.0 L579.8,603.6
		L580.9,604.1 L582.0,604.7 L583.1,605.3 L584.3,605.8 L585.4,606.4 L586.5,607.0 L587.6,607.5 L588.8,608.1
		L589.9,608.6 L591.0,609.2 L592.1,609.8 L593.3,610.3 L594.4,610.9 L595.5,611.4 L596.6,612.0 L597.8,612.5
		L598.9,613.1 L600.0,613.6 L601.1,614.2 L602.3,614.7 L603.4,615.2 L604.5,615.8 L605.6,616.3 L606.8,616.9
		L607.9,617.4 L609.0,617.9 L610.1,618.5 L611.3,619.0 L612.4,619.5 L613.5,620.1 L614.6,620.6 L615.8,621.1
		L616.9,621.6 L618.0,622.2 L619.1,622.7 L620.3,623.2 L621.4,623.7 L622.5,624.2 L623.6,624.8 L624.8,625.3
		L625.9,625.8 L627.0,626.3 L628.1,626.8 L629.3,627.3 L630.4,627.8 L631.5,628.3 L632.6,628.8 L633.8,629.3
		L634.9,629.8 L636.0,630.3 L637.1,630.8 L638.3,631.3 L639.4,631.8 L640.5,632.3 L641.6,632.8 L642.8,633.3
		L643.9,633.8 L645.0,634.3 L646.2,634.8 L647.3,635.2 L648.4,635.7 L649.5,636.2 L650.7,636.7 L651.8,637.2
		L652.9,637.6 L654.0,638.1 L655.2,638.6 L656.3,639.0 L657.4,639.5 L658.5,640.0 L659.7,640.4 L660.8,640.9
		L661.9,641.4 L663.0,641.8 L664.2,642.3 L665.3,642.7 L666.4,643.2 L667.5,643.7 L668.7,644.1 L669.8,644.6
		L670.9,645.0 L672.0,645.4 L673.2,645.9 L674.3,646.3 L675.4,646.8 L676.5,647.2 L677.7,647.6 L678.8,648.1
		L679.9,648.5 L681.0,648.9 L682.2,649.4 L683.3,649.8 L684.4,650.2 L685.5,650.6 L686.7,651.1 L687.8,651.5
		L688.9,651.9 L690.0,652.3 L691.2,652.7 L692.3,653.1 L693.4,653.5 L694.5,653.9 L695.7,654.3 L696.8,654.7
		L697.9,655.1 L699.0,655.5 L700.2,655.9 L701.3,656.3 L702.4,656.7 L703.5,657.1 L704.7,657.5 L705.8,657.9
		L706.9,658.3 L708.0,658.6 L709.2,659.0 L710.3,659.4 L711.4,659.8 L712.5,660.1 L713.7,660.5 L714.8,660.8
		L715.9,661.2 L717.1,661.6 L718.2,661.9 L719.3,662.3 L720.4,662.6 L721.6,663.0 L722.7,663.3 L723.8,663.7
		L724.9,664.0 L726.1,664.4 L727.2,664.7 L728.3,665.0 L729.4,665.4 L730.6,665.7 L731.7,666.0 L732.8,666.3
		L733.9,666.6 L735.1,667.0 L736.2,667.3 L737.3,667.6 L738.4,667.9 L739.6,668.2 L740.7,668.5 L741.8,668.8
		L742.9,669.1 L744.1,669.4 L745.2,669.7 L746.3,670.0 L747.4,670.3 L748.6,670.5 L749.7,670.8 L750.8,671.1
		L751.9,671.4 L753.1,671.6 L754.2,671.9 L755.3,672.2 L756.4,672.4 L757.6,672.7 L758.7,672.9 L759.8,673.2
		L760.9,673.4 L762.1,673.7 L763.2,673.9 L764.3,674.2 L765.4,674.4 L766.6,674.6 L767.7,674.9 L768.8,675.1
		L769.9,675.3 L771.1,675.5 L772.2,675.7 L773.3,676.0 L774.4,676.2 L775.6,676.4 L776.7,676.6 L777.8,676.8
		L778.9,677.0 L780.1,677.1 L781.2,677.3 L782.3,677.5 L783.5,677.7 L784.6,677.9 L785.7,678.0 L786.8,678.2
		L788.0,678.4 L789.1,678.5 L790.2,678.7 L791.3,678.8 L792.5,679.0 L793.6,679.1 L794.7,679.3 L795.8,679.4
		L797.0,679.6 L798.1,679.7 L799.2,679.8 L800.3,679.9 L801.5,680.1 L802.6,680.2 L803.7,680.3 L804.8,680.4
		L806.0,680.5 L807.1,680.6 L808.2,680.7 L809.3,680.8 L810.5,680.9 L811.6,681.0 L812.7,681.0 L813.8,681.1
		L815.0,681.2 L816.1,681.3 L817.2,681.3 L818.3,681.4 L819.5,681.5 L820.6,681.5 L821.7,681.6 L822.8,681.6
		L824.0,681.6 L825.1,681.7 L826.2,681.7 L827.3,681.7 L828.5,681.8 L829.6,681.8 L830.7,681.8 L831.8,681.8
		L833.0,681.8 L834.1,681.8 L835.2,681.8 L836.3,681.8 L837.5,681.8 L838.6,681.8 L839.7,681.8 L840.8,681.8
		L842.0,681.8 L843.1,681.7 L844.2,681.7 L845.3,681.7 L846.5,681.6 L847.6,681.6 L848.7,681.5 L849.9,681.5
		L851.0,681.4 L852.1,681.4 L853.2,681.3 L854.4,681.2 L855.5,681.2 L856.6,681.1 L857.7,681.0 L858.9,680.9
		L860.0,680.9 L861.1,680.8 L862.2,680.7 L863.4,680.6 L864.5,680.5 L865.6,680.4 L866.7,680.3 L867.9,680.1
		L869.0,680.0 L870.1,679.9 L871.2,679.8 L872.4,679.7 L873.5,679.5 L874.6,679.4 L875.7,679.3 L876.9,679.1
		L878.0,679.0 L879.1,678.8 L880.2,678.7 L881.4,678.5 L882.5,678.3 L883.6,678.2 L884.7,678.0 L885.9,677.8
		L887.0,677.7 L888.1,677.5 L889.2,677.3 L890.4,677.1 L891.5,676.9 L892.6,676.7 L893.7,676.5 L894.9,676.3
		L896.0,676.1 L897.1,675.9 L898.2,675.7 L899.4,675.5 L900.5,675.3 L901.6,675.1 L902.7,674.9 L903.9,674.6
		L905.0,674.4 L906.1,674.2 L907.2,673.9 L908.4,673.7 L909.5,673.5 L910.6,673.2 L911.7,673.0 L912.9,672.7
		L914.0,672.5 L915.1,672.2 L916.2,672.0 L917.4,671.7 L918.5,671.5 L919.6,671.2 L920.8,670.9 L921.9,670.7
		L923.0,670.4 L924.1,670.1 L925.3,669.8 L926.4,669.5 L927.5,669.3 L928.6,669.0 L929.8,668.7 L930.9,668.4
		L932.0,668.1 L933.1,667.8 L934.3,667.5 L935.4,667.2 L936.5,666.9 L937.6,666.6 L938.8,666.3 L939.9,666.0
		L941.0,665.7 L942.1,665.4 L943.3,665.1 L944.4,664.7 L945.5,664.4 L946.6,664.1 L947.8,663.8 L948.9,663.5
		L950.0,663.1 L951.1,662.8 L952.3,662.5 L953.4,662.1 L954.5,661.8 L955.6,661.5 L956.8,661.1 L957.9,660.8
		L959.0,660.4 L960.1,660.1 L961.3,659.8 L962.4,659.4 L963.5,659.1 L964.6,658.7 L965.8,658.4 L966.9,658.0
		L968.0,657.7 L969.1,657.3 L970.3,657.0 L971.4,656.6 L972.5,656.3 L973.6,655.9 L974.8,655.5 L975.9,655.2
		L977.0,654.8 L978.1,654.5 L979.3,654.1 L980.4,653.7 L981.5,653.4 L982.6,653.0 L983.8,652.6 L984.9,652.3
		L986.0,651.9 L987.2,651.5 L988.3,651.1 L989.4,650.8 L990.5,650.4 L991.7,650.0 L992.8,649.7 L993.9,649.3
		L995.0,648.9 L996.2,648.5 L997.3,648.2 L998.4,647.8 L999.5,647.4 L1000.7,647.0 L1001.8,646.6 L1002.9,646.3
		L1004.0,645.9 L1005.2,645.5 L1006.3,645.1 L1007.4,644.7 L1008.5,644.4 L1009.7,644.0 L1010.8,643.6 L1011.9,643.2
		L1013.0,642.8 L1014.2,642.5 L1015.3,642.1 L1016.4,641.7 L1017.5,641.3 L1018.7,640.9 L1019.8,640.6 L1020.9,640.2
		L1022.0,639.8 L1023.2,639.4 L1024.3,639.0 L1025.4,638.7 L1026.5,638.3 L1027.7,637.9 L1028.8,637.5 L1029.9,637.1
		L1031.0,636.8 L1032.2,636.4 L1033.3,636.0 L1034.4,635.6 L1035.5,635.2 L1036.7,634.9 L1037.8,634.5 L1038.9,634.1
		L1040.0,633.7 L1041.2,633.4 L1042.3,633.0 L1043.4,632.6 L1044.5,632.2 L1045.7,631.9 L1046.8,631.5 L1047.9,631.1
		L1049.0,630.7 L1050.2,630.4 L1051.3,630.0 L1052.4,629.6 L1053.6,629.3 L1054.7,628.9 L1055.8,628.5 L1056.9,628.1
		L1058.1,627.8 L1059.2,627.4 L1060.3,627.1 L1061.4,626.7 L1062.6,626.3 L1063.7,626.0 L1064.8,625.6 L1065.9,625.2
		L1067.1,624.9 L1068.2,624.5 L1069.3,624.2 L1070.4,623.8 L1071.6,623.5 L1072.7,623.1 L1073.8,622.8 L1074.9,622.4
		L1076.1,622.1 L1077.2,621.7 L1078.3,621.4 L1079.4,621.0 L1080.6,620.7 L1081.7,620.3 L1082.8,620.0 L1083.9,619.6
		L1085.1,619.3 L1086.2,619.0 L1087.3,618.6 L1088.4,618.3 L1089.6,617.9 L1090.7,617.6 L1091.8,617.3 L1092.9,616.9
		L1094.1,616.6 L1095.2,616.3 L1096.3,616.0 L1097.4,615.6 L1098.6,615.3 L1099.7,615.0 L1100.8,614.7 L1101.9,614.4
		L1103.1,614.0 L1104.2,613.7 L1105.3,613.4 L1106.4,613.1 L1107.6,612.8 L1108.7,612.5 L1109.8,612.2 L1110.9,611.9
		L1112.1,611.6 L1113.2,611.3 L1114.3,611.0 L1115.4,610.7 L1116.6,610.4 L1117.7,610.1 L1118.8,609.8 L1120.0,609.5
		L1121.1,609.2 L1122.2,608.9 L1123.3,608.6 L1124.5,608.3 L1125.6,608.0 L1126.7,607.8 L1127.8,607.5 L1129.0,607.2
		L1130.1,606.9 L1131.2,606.7 L1132.3,606.4 L1133.5,606.1 L1134.6,605.9 L1135.7,605.6 L1136.8,605.3 L1138.0,605.1
		L1139.1,604.8 L1140.2,604.5 L1141.3,604.3 L1142.5,604.0 L1143.6,603.8 L1144.7,603.5 L1145.8,603.3 L1147.0,603.1
		L1148.1,602.8 L1149.2,602.6 L1150.3,602.3 L1151.5,602.1 L1152.6,601.9 L1153.7,601.6 L1154.8,601.4 L1156.0,601.2
		L1157.1,601.0 L1158.2,600.7 L1159.3,600.5 L1160.5,600.3 L1161.6,600.1 L1162.7,599.9 L1163.8,599.7 L1165.0,599.4
		L1166.1,599.2 L1167.2,599.0 L1168.3,598.8 L1169.5,598.6 L1170.6,598.4 L1171.7,598.2 L1172.8,598.1 L1174.0,597.9
		L1175.1,597.7 L1176.2,597.5 L1177.3,597.3 L1178.5,597.1 L1179.6,597.0 L1180.7,596.8 L1181.8,596.6 L1183.0,596.4
		L1184.1,596.3 L1185.2,596.1 L1186.3,595.9 L1187.5,595.8 L1188.6,595.6 L1189.7,595.5 L1190.9,595.3 L1192.0,595.2
		L1193.1,595.0 L1194.2,594.9 L1195.4,594.7 L1196.5,594.6 L1197.6,594.4 L1198.7,594.3 L1199.9,594.2 L1201.0,594.0
		L1202.1,593.9 L1203.2,593.8 L1204.4,593.7 L1205.5,593.6 L1206.6,593.4 L1207.7,593.3 L1208.9,593.2 L1210.0,593.1
		L1211.1,593.0 L1212.2,592.9 L1213.4,592.8 L1214.5,592.7 L1215.6,592.6 L1216.7,592.5 L1217.9,592.4 L1219.0,592.3
		L1220.1,592.2 L1221.2,592.2 L1222.4,592.1 L1223.5,592.0 L1224.6,591.9 L1225.7,591.9 L1226.9,591.8 L1228.0,591.7
		L1229.1,591.7 L1230.2,591.6 L1231.4,591.5 L1232.5,591.5 L1233.6,591.4 L1234.7,591.4 L1235.9,591.3 L1237.0,591.3
		L1238.1,591.2 L1239.2,591.2 L1240.4,591.2 L1241.5,591.1 L1242.6,591.1 L1243.7,591.1 L1244.9,591.0 L1246.0,591.0
		L1247.1,591.0 L1248.2,591.0 L1249.4,591.0 L1250.5,591.0 L1251.6,590.9 L1252.7,590.9 L1253.9,590.9 L1255.0,590.9
		 '/></g>
	</g>
	<g id="gnuplot_plot_6" ><title>gnuplot_plot_6</title>
<g fill="none" color="black" stroke="currentColor" stroke-width="1.00" stroke-linecap="butt" stroke-linejoin="miter">
	<path stroke='rgb(  0,   0, 255)'  d='M103.7,56.7 L104.8,62.3 L106.0,75.0 L107.1,88.1 L108.2,98.5 L109.3,106.4 L110.5,112.6 L111.6,117.8
		L112.7,122.5 L113.8,126.9 L115.0,131.3 L116.1,135.7 L117.2,140.1 L118.3,144.6 L119.5,149.2 L120.6,153.8
		L121.7,158.4 L122.8,163.1 L124.0,167.8 L125.1,172.5 L126.2,177.2 L127.3,181.9 L128.5,186.5 L129.6,191.1
		L130.7,195.6 L131.8,200.1 L133.0,204.5 L134.1,208.8 L135.2,213.0 L136.3,217.2 L137.5,221.2 L138.6,225.2
		L139.7,229.1 L140.8,232.8 L142.0,236.5 L143.1,240.1 L144.2,243.6 L145.3,247.0 L146.5,250.3 L147.6,253.5
		L148.7,256.6 L149.8,259.6 L151.0,262.6 L152.1,265.4 L153.2,268.2 L154.3,270.9 L155.5,273.5 L156.6,276.0
		L157.7,278.4 L158.8,280.8 L160.0,283.1 L161.1,285.4 L162.2,287.6 L163.3,289.7 L164.5,291.7 L165.6,293.7
		L166.7,295.6 L167.8,297.5 L169.0,299.4 L170.1,301.1 L171.2,302.9 L172.4,304.6 L173.5,306.2 L174.6,307.8
		L175.7,309.4 L176.9,310.9 L178.0,312.4 L179.1,313.9 L180.2,315.3 L181.4,316.7 L182.5,318.1 L183.6,319.4
		L184.7,320.7 L185.9,322.0 L187.0,323.3 L188.1,324.5 L189.2,325.7 L190.4,326.9 L191.5,328.1 L192.6,329.3
		L193.7,330.4 L194.9,331.5 L196.0,332.7 L197.1,333.7 L198.2,334.8 L199.4,335.9 L200.5,337.0 L201.6,338.0
		L202.7,339.0 L203.9,340.1 L205.0,341.1 L206.1,342.1 L207.2,343.1 L208.4,344.1 L209.5,345.0 L210.6,346.0
		L211.7,347.0 L212.9,347.9 L214.0,348.9 L215.1,349.8 L216.2,350.8 L217.4,351.7 L218.5,352.6 L219.6,353.6
		L220.7,354.5 L221.9,355.4 L223.0,356.3 L224.1,357.2 L225.2,358.1 L226.4,359.0 L227.5,359.9 L228.6,360.8
		L229.7,361.7 L230.9,362.6 L232.0,363.5 L233.1,364.4 L234.2,365.3 L235.4,366.2 L236.5,367.1 L237.6,367.9
		L238.7,368.8 L239.9,369.7 L241.0,370.6 L242.1,371.5 L243.3,372.3 L244.4,373.2 L245.5,374.1 L246.6,375.0
		L247.8,375.8 L248.9,376.7 L250.0,377.6 L251.1,378.5 L252.3,379.3 L253.4,380.2 L254.5,381.1 L255.6,381.9
		L256.8,382.8 L257.9,383.7 L259.0,384.5 L260.1,385.4 L261.3,386.3 L262.4,387.1 L263.5,388.0 L264.6,388.9
		L265.8,389.7 L266.9,390.6 L268.0,391.5 L269.1,392.3 L270.3,393.2 L271.4,394.1 L272.5,394.9 L273.6,395.8
		L274.8,396.7 L275.9,397.5 L277.0,398.4 L278.1,399.3 L279.3,400.1 L280.4,401.0 L281.5,401.9 L282.6,402.7
		L283.8,403.6 L284.9,404.5 L286.0,405.3 L287.1,406.2 L288.3,407.1 L289.4,407.9 L290.5,408.8 L291.6,409.7
		L292.8,410.5 L293.9,411.4 L295.0,412.2 L296.1,413.1 L297.3,414.0 L298.4,414.8 L299.5,415.7 L300.6,416.6
		L301.8,417.4 L302.9,418.3 L304.0,419.1 L305.1,420.0 L306.3,420.9 L307.4,421.7 L308.5,422.6 L309.7,423.4
		L310.8,424.3 L311.9,425.2 L313.0,426.0 L314.2,426.9 L315.3,427.7 L316.4,428.6 L317.5,429.5 L318.7,430.3
		L319.8,431.2 L320.9,432.0 L322.0,432.9 L323.2,433.7 L324.3,434.6 L325.4,435.4 L326.5,436.3 L327.7,437.1
		L328.8,438.0 L329.9,438.8 L331.0,439.7 L332.2,440.5 L333.3,441.4 L334.4,442.2 L335.5,443.1 L336.7,443.9
		L337.8,444.8 L338.9,445.6 L340.0,446.5 L341.2,447.3 L342.3,448.2 L343.4,449.0 L344.5,449.9 L345.7,450.7
		L346.8,451.5 L347.9,452.4 L349.0,453.2 L350.2,454.1 L351.3,454.9 L352.4,455.7 L353.5,456.6 L354.7,457.4
		L355.8,458.2 L356.9,459.1 L358.0,459.9 L359.2,460.7 L360.3,461.6 L361.4,462.4 L362.5,463.2 L363.7,464.0
		L364.8,464.9 L365.9,465.7 L367.0,466.5 L368.2,467.3 L369.3,468.2 L370.4,469.0 L371.5,469.8 L372.7,470.6
		L373.8,471.5 L374.9,472.3 L376.1,473.1 L377.2,473.9 L378.3,474.7 L379.4,475.5 L380.6,476.3 L381.7,477.2
		L382.8,478.0 L383.9,478.8 L385.1,479.6 L386.2,480.4 L387.3,481.2 L388.4,482.0 L389.6,482.8 L390.7,483.6
		L391.8,484.4 L392.9,485.2 L394.1,486.0 L395.2,486.8 L396.3,487.6 L397.4,488.4 L398.6,489.2 L399.7,490.0
		L400.8,490.8 L401.9,491.6 L403.1,492.3 L404.2,493.1 L405.3,493.9 L406.4,494.7 L407.6,495.5 L408.7,496.3
		L409.8,497.1 L410.9,497.8 L412.1,498.6 L413.2,499.4 L414.3,500.2 L415.4,500.9 L416.6,501.7 L417.7,502.5
		L418.8,503.3 L419.9,504.0 L421.1,504.8 L422.2,505.6 L423.3,506.3 L424.4,507.1 L425.6,507.9 L426.7,508.6
		L427.8,509.4 L428.9,510.1 L430.1,510.9 L431.2,511.6 L432.3,512.4 L433.4,513.2 L434.6,513.9 L435.7,514.7
		L436.8,515.4 L437.9,516.1 L439.1,516.9 L440.2,517.6 L441.3,518.4 L442.5,519.1 L443.6,519.9 L444.7,520.6
		L445.8,521.3 L447.0,522.1 L448.1,522.8 L449.2,523.5 L450.3,524.3 L451.5,525.0 L452.6,525.7 L453.7,526.5
		L454.8,527.2 L456.0,527.9 L457.1,528.6 L458.2,529.4 L459.3,530.1 L460.5,530.8 L461.6,531.5 L462.7,532.2
		L463.8,532.9 L465.0,533.6 L466.1,534.4 L467.2,535.1 L468.3,535.8 L469.5,536.5 L470.6,537.2 L471.7,537.9
		L472.8,538.6 L474.0,539.3 L475.1,540.0 L476.2,540.7 L477.3,541.4 L478.5,542.1 L479.6,542.8 L480.7,543.5
		L481.8,544.2 L483.0,544.8 L484.1,545.5 L485.2,546.2 L486.3,546.9 L487.5,547.6 L488.6,548.3 L489.7,549.0
		L490.8,549.6 L492.0,550.3 L493.1,551.0 L494.2,551.7 L495.3,552.3 L496.5,553.0 L497.6,553.7 L498.7,554.3
		L499.8,555.0 L501.0,555.7 L502.1,556.3 L503.2,557.0 L504.3,557.7 L505.5,558.3 L506.6,559.0 L507.7,559.6
		L508.8,560.3 L510.0,560.9 L511.1,561.6 L512.2,562.2 L513.4,562.9 L514.5,563.5 L515.6,564.2 L516.7,564.8
		L517.9,565.5 L519.0,566.1 L520.1,566.7 L521.2,567.4 L522.4,568.0 L523.5,568.7 L524.6,569.3 L525.7,569.9
		L526.9,570.6 L528.0,571.2 L529.1,571.8 L530.2,572.4 L531.4,573.1 L532.5,573.7 L533.6,574.3 L534.7,574.9
		L535.9,575.6 L537.0,576.2 L538.1,576.8 L539.2,577.4 L540.4,578.0 L541.5,578.6 L542.6,579.2 L543.7,579.9
		L544.9,580.5 L546.0,581.1 L547.1,581.7 L548.2,582.3 L549.4,582.9 L550.5,583.5 L551.6,584.1 L552.7,584.7
		L553.9,585.3 L555.0,585.9 L556.1,586.5 L557.2,587.1 L558.4,587.6 L559.5,588.2 L560.6,588.8 L561.7,589.4
		L562.9,590.0 L564.0,590.6 L565.1,591.2 L566.2,591.7 L567.4,592.3 L568.5,592.9 L569.6,593.5 L570.7,594.1
		L571.9,594.6 L573.0,595.2 L574.1,595.8 L575.2,596.3 L576.4,596.9 L577.5,597.5 L578.6,598.0 L579.8,598.6
		L580.9,599.2 L582.0,599.7 L583.1,600.3 L584.3,600.8 L585.4,601.4 L586.5,602.0 L587.6,602.5 L588.8,603.1
		L589.9,603.6 L591.0,604.2 L592.1,604.7 L593.3,605.3 L594.4,605.8 L595.5,606.4 L596.6,606.9 L597.8,607.4
		L598.9,608.0 L600.0,608.5 L601.1,609.1 L602.3,609.6 L603.4,610.1 L604.5,610.7 L605.6,611.2 L606.8,611.7
		L607.9,612.3 L609.0,612.8 L610.1,613.3 L611.3,613.8 L612.4,614.4 L613.5,614.9 L614.6,615.4 L615.8,615.9
		L616.9,616.4 L618.0,617.0 L619.1,617.5 L620.3,618.0 L621.4,618.5 L622.5,619.0 L623.6,619.5 L624.8,620.0
		L625.9,620.5 L627.0,621.0 L628.1,621.5 L629.3,622.0 L630.4,622.5 L631.5,623.0 L632.6,623.5 L633.8,624.0
		L634.9,624.5 L636.0,625.0 L637.1,625.5 L638.3,626.0 L639.4,626.5 L640.5,627.0 L641.6,627.5 L642.8,628.0
		L643.9,628.4 L645.0,628.9 L646.2,629.4 L647.3,629.9 L648.4,630.4 L649.5,630.8 L650.7,631.3 L651.8,631.8
		L652.9,632.3 L654.0,632.7 L655.2,633.2 L656.3,633.7 L657.4,634.1 L658.5,634.6 L659.7,635.1 L660.8,635.5
		L661.9,636.0 L663.0,636.4 L664.2,636.9 L665.3,637.3 L666.4,637.8 L667.5,638.3 L668.7,638.7 L669.8,639.2
		L670.9,639.6 L672.0,640.0 L673.2,640.5 L674.3,640.9 L675.4,641.4 L676.5,641.8 L677.7,642.2 L678.8,642.7
		L679.9,643.1 L681.0,643.5 L682.2,644.0 L683.3,644.4 L684.4,644.8 L685.5,645.2 L686.7,645.7 L687.8,646.1
		L688.9,646.5 L690.0,646.9 L691.2,647.3 L692.3,647.8 L693.4,648.2 L694.5,648.6 L695.7,649.0 L696.8,649.4
		L697.9,649.8 L699.0,650.2 L700.2,650.6 L701.3,651.0 L702.4,651.4 L703.5,651.8 L704.7,652.2 L705.8,652.6
		L706.9,652.9 L708.0,653.3 L709.2,653.7 L710.3,654.1 L711.4,654.5 L712.5,654.9 L713.7,655.2 L714.8,655.6
		L715.9,656.0 L717.1,656.3 L718.2,656.7 L719.3,657.1 L720.4,657.4 L721.6,657.8 L722.7,658.2 L723.8,658.5
		L724.9,658.9 L726.1,659.2 L727.2,659.6 L728.3,659.9 L729.4,660.3 L730.6,660.6 L731.7,660.9 L732.8,661.3
		L733.9,661.6 L735.1,661.9 L736.2,662.3 L737.3,662.6 L738.4,662.9 L739.6,663.2 L740.7,663.6 L741.8,663.9
		L742.9,664.2 L744.1,664.5 L745.2,664.8 L746.3,665.1 L747.4,665.4 L748.6,665.7 L749.7,666.0 L750.8,666.3
		L751.9,666.6 L753.1,666.9 L754.2,667.2 L755.3,667.5 L756.4,667.7 L757.6,668.0 L758.7,668.3 L759.8,668.6
		L760.9,668.8 L762.1,669.1 L763.2,669.4 L764.3,669.6 L765.4,669.9 L766.6,670.1 L767.7,670.4 L768.8,670.6
		L769.9,670.9 L771.1,671.1 L772.2,671.3 L773.3,671.6 L774.4,671.8 L775.6,672.0 L776.7,672.3 L777.8,672.5
		L778.9,672.7 L780.1,672.9 L781.2,673.1 L782.3,673.3 L783.5,673.5 L784.6,673.7 L785.7,673.9 L786.8,674.1
		L788.0,674.3 L789.1,674.5 L790.2,674.7 L791.3,674.9 L792.5,675.0 L793.6,675.2 L794.7,675.4 L795.8,675.5
		L797.0,675.7 L798.1,675.9 L799.2,676.0 L800.3,676.2 L801.5,676.3 L802.6,676.4 L803.7,676.6 L804.8,676.7
		L806.0,676.8 L807.1,677.0 L808.2,677.1 L809.3,677.2 L810.5,677.3 L811.6,677.4 L812.7,677.5 L813.8,677.6
		L815.0,677.7 L816.1,677.8 L817.2,677.9 L818.3,678.0 L819.5,678.1 L820.6,678.2 L821.7,678.2 L822.8,678.3
		L824.0,678.4 L825.1,678.4 L826.2,678.5 L827.3,678.5 L828.5,678.6 L829.6,678.6 L830.7,678.7 L831.8,678.7
		L833.0,678.7 L834.1,678.8 L835.2,678.8 L836.3,678.8 L837.5,678.8 L838.6,678.8 L839.7,678.8 L840.8,678.8
		L842.0,678.8 L843.1,678.8 L844.2,678.8 L845.3,678.8 L846.5,678.8 L847.6,678.7 L848.7,678.7 L849.9,678.7
		L851.0,678.6 L852.1,678.6 L853.2,678.5 L854.4,678.5 L855.5,678.4 L856.6,678.4 L857.7,678.3 L858.9,678.2
		L860.0,678.2 L861.1,678.1 L862.2,678.0 L863.4,677.9 L864.5,677.8 L865.6,677.7 L866.7,677.6 L867.9,677.5
		L869.0,677.4 L870.1,677.3 L871.2,677.2 L872.4,677.1 L873.5,677.0 L874.6,676.8 L875.7,676.7 L876.9,676.6
		L878.0,676.4 L879.1,676.3 L880.2,676.1 L881.4,676.0 L882.5,675.8 L883.6,675.6 L884.7,675.5 L885.9,675.3
		L887.0,675.1 L888.1,675.0 L889.2,674.8 L890.4,674.6 L891.5,674.4 L892.6,674.2 L893.7,674.0 L894.9,673.8
		L896.0,673.6 L897.1,673.4 L898.2,673.2 L899.4,673.0 L900.5,672.7 L901.6,672.5 L902.7,672.3 L903.9,672.1
		L905.0,671.8 L906.1,671.6 L907.2,671.4 L908.4,671.1 L909.5,670.9 L910.6,670.6 L911.7,670.3 L912.9,670.1
		L914.0,669.8 L915.1,669.6 L916.2,669.3 L917.4,669.0 L918.5,668.7 L919.6,668.5 L920.8,668.2 L921.9,667.9
		L923.0,667.6 L924.1,667.3 L925.3,667.0 L926.4,666.7 L927.5,666.4 L928.6,666.1 L929.8,665.8 L930.9,665.5
		L932.0,665.2 L933.1,664.9 L934.3,664.6 L935.4,664.2 L936.5,663.9 L937.6,663.6 L938.8,663.3 L939.9,662.9
		L941.0,662.6 L942.1,662.3 L943.3,661.9 L944.4,661.6 L945.5,661.2 L946.6,660.9 L947.8,660.6 L948.9,660.2
		L950.0,659.9 L951.1,659.5 L952.3,659.1 L953.4,658.8 L954.5,658.4 L955.6,658.1 L956.8,657.7 L957.9,657.3
		L959.0,657.0 L960.1,656.6 L961.3,656.2 L962.4,655.8 L963.5,655.5 L964.6,655.1 L965.8,654.7 L966.9,654.3
		L968.0,653.9 L969.1,653.6 L970.3,653.2 L971.4,652.8 L972.5,652.4 L973.6,652.0 L974.8,651.6 L975.9,651.2
		L977.0,650.8 L978.1,650.4 L979.3,650.0 L980.4,649.6 L981.5,649.2 L982.6,648.8 L983.8,648.4 L984.9,648.0
		L986.0,647.6 L987.2,647.2 L988.3,646.8 L989.4,646.4 L990.5,646.0 L991.7,645.6 L992.8,645.2 L993.9,644.8
		L995.0,644.4 L996.2,644.0 L997.3,643.6 L998.4,643.1 L999.5,642.7 L1000.7,642.3 L1001.8,641.9 L1002.9,641.5
		L1004.0,641.1 L1005.2,640.7 L1006.3,640.2 L1007.4,639.8 L1008.5,639.4 L1009.7,639.0 L1010.8,638.6 L1011.9,638.2
		L1013.0,637.7 L1014.2,637.3 L1015.3,636.9 L1016.4,636.5 L1017.5,636.1 L1018.7,635.7 L1019.8,635.2 L1020.9,634.8
		L1022.0,634.4 L1023.2,634.0 L1024.3,633.6 L1025.4,633.1 L1026.5,632.7 L1027.7,632.3 L1028.8,631.9 L1029.9,631.5
		L1031.0,631.1 L1032.2,630.6 L1033.3,630.2 L1034.4,629.8 L1035.5,629.4 L1036.7,629.0 L1037.8,628.6 L1038.9,628.2
		L1040.0,627.7 L1041.2,627.3 L1042.3,626.9 L1043.4,626.5 L1044.5,626.1 L1045.7,625.7 L1046.8,625.3 L1047.9,624.9
		L1049.0,624.5 L1050.2,624.1 L1051.3,623.7 L1052.4,623.2 L1053.6,622.8 L1054.7,622.4 L1055.8,622.0 L1056.9,621.6
		L1058.1,621.2 L1059.2,620.8 L1060.3,620.4 L1061.4,620.0 L1062.6,619.6 L1063.7,619.2 L1064.8,618.8 L1065.9,618.4
		L1067.1,618.1 L1068.2,617.7 L1069.3,617.3 L1070.4,616.9 L1071.6,616.5 L1072.7,616.1 L1073.8,615.7 L1074.9,615.3
		L1076.1,615.0 L1077.2,614.6 L1078.3,614.2 L1079.4,613.8 L1080.6,613.4 L1081.7,613.1 L1082.8,612.7 L1083.9,612.3
		L1085.1,611.9 L1086.2,611.6 L1087.3,611.2 L1088.4,610.8 L1089.6,610.5 L1090.7,610.1 L1091.8,609.7 L1092.9,609.4
		L1094.1,609.0 L1095.2,608.7 L1096.3,608.3 L1097.4,607.9 L1098.6,607.6 L1099.7,607.2 L1100.8,606.9 L1101.9,606.5
		L1103.1,606.2 L1104.2,605.8 L1105.3,605.5 L1106.4,605.2 L1107.6,604.8 L1108.7,604.5 L1109.8,604.1 L1110.9,603.8
		L1112.1,603.5 L1113.2,603.2 L1114.3,602.8 L1115.4,602.5 L1116.6,602.2 L1117.7,601.9 L1118.8,601.5 L1120.0,601.2
		L1121.1,600.9 L1122.2,600.6 L1123.3,600.3 L1124.5,600.0 L1125.6,599.7 L1126.7,599.4 L1127.8,599.0 L1129.0,598.7
		L1130.1,598.4 L1131.2,598.1 L1132.3,597.9 L1133.5,597.6 L1134.6,597.3 L1135.7,597.0 L1136.8,596.7 L1138.0,596.4
		L1139.1,596.1 L1140.2,595.9 L1141.3,595.6 L1142.5,595.3 L1143.6,595.0 L1144.7,594.8 L1145.8,594.5 L1147.0,594.2
		L1148.1,594.0 L1149.2,593.7 L1150.3,593.4 L1151.5,593.2 L1152.6,592.9 L1153.7,592.7 L1154.8,592.4 L1156.0,592.2
		L1157.1,591.9 L1158.2,591.7 L1159.3,591.5 L1160.5,591.2 L1161.6,591.0 L1162.7,590.8 L1163.8,590.5 L1165.0,590.3
		L1166.1,590.1 L1167.2,589.9 L1168.3,589.6 L1169.5,589.4 L1170.6,589.2 L1171.7,589.0 L1172.8,588.8 L1174.0,588.6
		L1175.1,588.4 L1176.2,588.2 L1177.3,588.0 L1178.5,587.8 L1179.6,587.6 L1180.7,587.4 L1181.8,587.2 L1183.0,587.0
		L1184.1,586.8 L1185.2,586.7 L1186.3,586.5 L1187.5,586.3 L1188.6,586.1 L1189.7,586.0 L1190.9,585.8 L1192.0,585.7
		L1193.1,585.5 L1194.2,585.3 L1195.4,585.2 L1196.5,585.0 L1197.6,584.9 L1198.7,584.7 L1199.9,584.6 L1201.0,584.4
		L1202.1,584.3 L1203.2,584.2 L1204.4,584.0 L1205.5,583.9 L1206.6,583.8 L1207.7,583.7 L1208.9,583.5 L1210.0,583.4
		L1211.1,583.3 L1212.2,583.2 L1213.4,583.1 L1214.5,583.0 L1215.6,582.9 L1216.7,582.8 L1217.9,582.7 L1219.0,582.6
		L1220.1,582.5 L1221.2,582.4 L1222.4,582.3 L1223.5,582.2 L1224.6,582.1 L1225.7,582.1 L1226.9,582.0 L1228.0,581.9
		L1229.1,581.9 L1230.2,581.8 L1231.4,581.7 L1232.5,581.7 L1233.6,581.6 L1234.7,581.5 L1235.9,581.5 L1237.0,581.4
		L1238.1,581.4 L1239.2,581.4 L1240.4,581.3 L1241.5,581.3 L1242.6,581.3 L1243.7,581.2 L1244.9,581.2 L1246.0,581.2
		L1247.1,581.1 L1248.2,581.1 L1249.4,581.1 L1250.5,581.1 L1251.6,581.1 L1252.7,581.1 L1253.9,581.1 L1255.0,581.1
		 '/></g>
	</g>
<g fill="none" color="white" stroke="rgb(  0,   0, 255)" stroke-width="2.00" stroke-linecap="butt" stroke-linejoin="miter">
</g>
<g fill="none" color="black" stroke="currentColor" stroke-width="2.00" stroke-linecap="butt" stroke-linejoin="miter">
</g>
<g fill="none" color="black" stroke="black" stroke-width="1.00" stroke-linecap="butt" stroke-linejoin="miter">
</g>
<g fill="none" color="black" stroke="currentColor" stroke-width="1.00" stroke-linecap="butt" stroke-linejoin="miter">
	<path stroke='black'  d='M103.7,54.1 L103.7,684.0 L1255.0,684.0 L1255.0,54.1 L103.7,54.1 Z  '/></g>
<g fill="none" color="black" stroke="currentColor" stroke-width="1.00" stroke-linecap="butt" stroke-linejoin="miter">
</g>
</g>
</svg>

