<?xml version="1.0" encoding="utf-8"  standalone="no"?>
<svg 
 width="1280" height="720"
 viewBox="0 0 1280 720"
 xmlns="http://www.w3.org/2000/svg"
 xmlns:xlink="http://www.w3.org/1999/xlink"
>

<title>Gnuplot</title>
<desc>Produced by GNUPLOT 5.0 patchlevel 6 </desc>

<g id="gnuplot_canvas">

<rect x="0" y="0" width="1280" height="720" fill="none"/>
<defs>

	<circle id='gpDot' r='0.5' stroke-width='0.5'/>
	<path id='gpPt0' stroke-width='0.222' stroke='currentColor' d='M-1,0 h2 M0,-1 v2'/>
	<path id='gpPt1' stroke-width='0.222' stroke='currentColor' d='M-1,-1 L1,1 M1,-1 L-1,1'/>
	<path id='gpPt2' stroke-width='0.222' stroke='currentColor' d='M-1,0 L1,0 M0,-1 L0,1 M-1,-1 L1,1 M-1,1 L1,-1'/>
	<rect id='gpPt3' stroke-width='0.222' stroke='currentColor' x='-1' y='-1' width='2' height='2'/>
	<rect id='gpPt4' stroke-width='0.222' stroke='currentColor' fill='currentColor' x='-1' y='-1' width='2' height='2'/>
	<circle id='gpPt5' stroke-width='0.222' stroke='currentColor' cx='0' cy='0' r='1'/>
	<use xlink:href='#gpPt5' id='gpPt6' fill='currentColor' stroke='none'/>
	<path id='gpPt7' stroke-width='0.222' stroke='currentColor' d='M0,-1.33 L-1.33,0.67 L1.33,0.67 z'/>
	<use xlink:href='#gpPt7' id='gpPt8' fill='currentColor' stroke='none'/>
	<use xlink:href='#gpPt7' id='gpPt9' stroke='currentColor' transform='rotate(180)'/>
	<use xlink:href='#gpPt9' id='gpPt10' fill='currentColor' stroke='none'/>
	<use xlink:href='#gpPt3' id='gpPt11' stroke='currentColor' transform='rotate(45)'/>
	<use xlink:href='#gpPt11' id='gpPt12' fill='currentColor' stroke='none'/>
	<path id='gpPt13' stroke-width='0.222' stroke='currentColor' d='M0,1.330 L1.265,0.411 L0.782,-1.067 L-0.782,-1.076 L-1.265,0.411 z'/>
	<use xlink:href='#gpPt13' id='gpPt14' fill='currentColor' stroke='none'/>
	<filter id='textbox' filterUnits='objectBoundingBox' x='0' y='0' height='1' width='1'>
	  <feFlood flood-color='white' flood-opacity='1' result='bgnd'/>
	  <feComposite in='SourceGraphic' in2='bgnd' operator='atop'/>
	</filter>
	<filter id='greybox' filterUnits='objectBoundingBox' x='0' y='0' height='1' width='1'>
	  <feFlood flood-color='lightgrey' flood-opacity='1' result='grey'/>
	  <feComposite in='SourceGraphic' in2='grey' operator='atop'/>
	</filter>
</defs>
<g fill="none" color="white" stroke="currentColor" stroke-width="1.00" stroke-linecap="butt" stroke-linejoin="miter">
</g>
<g fill="none" color="black" stroke="currentColor" stroke-width="1.00" stroke-linecap="butt" stroke-linejoin="miter">
	<path stroke='black'  d='M87.1,682.3 L96.1,682.3 M1255.0,682.3 L1246.0,682.3  '/>	<g transform="translate(78.8,686.2)" stroke="none" fill="black" font-family="Arial" font-size="12.00"  text-anchor="end">
		<text><tspan font-family="Arial" > 0.1015</tspan></text>
	</g>
</g>
<g fill="none" color="black" stroke="currentColor" stroke-width="1.00" stroke-linecap="butt" stroke-linejoin="miter">
	<path stroke='black'  d='M87.1,368.2 L96.1,368.2 M1255.0,368.2 L1246.0,368.2  '/>	<g transform="translate(78.8,372.1)" stroke="none" fill="black" font-family="Arial" font-size="12.00"  text-anchor="end">
		<text><tspan font-family="Arial" > 53.8974</tspan></text>
	</g>
</g>
<g fill="none" color="black" stroke="currentColor" stroke-width="1.00" stroke-linecap="butt" stroke-linejoin="miter">
	<path stroke='black'  d='M87.1,54.1 L96.1,54.1 M1255.0,54.1 L1246.0,54.1  '/>	<g transform="translate(78.8,58.0)" stroke="none" fill="black" font-family="Arial" font-size="12.00"  text-anchor="end">
		<text><tspan font-family="Arial" > 28620</tspan></text>
	</g>
</g>
<g fill="none" color="black" stroke="currentColor" stroke-width="1.00" stroke-linecap="butt" stroke-linejoin="miter">
	<path stroke='black'  d='M87.1,684.0 L87.1,675.0 M87.1,54.1 L87.1,63.1  '/>	<g transform="translate(87.1,705.9)" stroke="none" fill="black" font-family="Arial" font-size="12.00"  text-anchor="middle">
		<text><tspan font-family="Arial" > 0</tspan></text>
	</g>
</g>
<g fill="none" color="black" stroke="currentColor" stroke-width="1.00" stroke-linecap="butt" stroke-linejoin="miter">
	<path stroke='black'  d='M671.1,684.0 L671.1,675.0 M671.1,54.1 L671.1,63.1  '/>	<g transform="translate(671.1,705.9)" stroke="none" fill="black" font-family="Arial" font-size="12.00"  text-anchor="middle">
		<text><tspan font-family="Arial" >pi/2</tspan></text>
	</g>
</g>
<g fill="none" color="black" stroke="currentColor" stroke-width="1.00" stroke-linecap="butt" stroke-linejoin="miter">
	<path stroke='black'  d='M1255.0,684.0 L1255.0,675.0 M1255.0,54.1 L1255.0,63.1  '/>	<g transform="translate(1255.0,705.9)" stroke="none" fill="black" font-family="Arial" font-size="12.00"  text-anchor="middle">
		<text><tspan font-family="Arial" >pi</tspan></text>
	</g>
</g>
<g fill="none" color="black" stroke="currentColor" stroke-width="1.00" stroke-linecap="butt" stroke-linejoin="miter">
</g>
<g fill="none" color="black" stroke="currentColor" stroke-width="1.00" stroke-linecap="butt" stroke-linejoin="miter">
	<path stroke='black'  d='M87.1,54.1 L87.1,684.0 L1255.0,684.0 L1255.0,54.1 L87.1,54.1 Z  '/></g>
<g fill="none" color="black" stroke="currentColor" stroke-width="1.00" stroke-linecap="butt" stroke-linejoin="miter">
	<g transform="translate(671.0,31.0)" stroke="none" fill="black" font-family="Arial" font-size="12.00"  text-anchor="middle">
		<text><tspan font-family="Arial" >Material 49, with 4 components</tspan></text>
	</g>
</g>
	<g id="gnuplot_plot_1" ><title>scattering function</title>
<g fill="none" color="black" stroke="currentColor" stroke-width="1.00" stroke-linecap="butt" stroke-linejoin="miter">
	<g transform="translate(1187.9,76.0)" stroke="none" fill="black" font-family="Arial" font-size="12.00"  text-anchor="end">
		<text><tspan font-family="Arial" >scattering function</tspan></text>
	</g>
</g>
<g fill="none" color="black" stroke="currentColor" stroke-width="1.00" stroke-linecap="butt" stroke-linejoin="miter">
	<use xlink:href='#gpPt5' transform='translate(87.1,81.9) scale(2.25)' color='rgb(255,   0,   0)'/>
	<use xlink:href='#gpPt5' transform='translate(87.7,82.3) scale(2.25)' color='rgb(255,   0,   0)'/>
	<use xlink:href='#gpPt5' transform='translate(88.4,83.4) scale(2.25)' color='rgb(255,   0,   0)'/>
	<use xlink:href='#gpPt5' transform='translate(89.0,85.4) scale(2.25)' color='rgb(255,   0,   0)'/>
	<use xlink:href='#gpPt5' transform='translate(89.7,88.0) scale(2.25)' color='rgb(255,   0,   0)'/>
	<use xlink:href='#gpPt5' transform='translate(90.3,91.5) scale(2.25)' color='rgb(255,   0,   0)'/>
	<use xlink:href='#gpPt5' transform='translate(91.0,95.6) scale(2.25)' color='rgb(255,   0,   0)'/>
	<use xlink:href='#gpPt5' transform='translate(91.6,100.4) scale(2.25)' color='rgb(255,   0,   0)'/>
	<use xlink:href='#gpPt5' transform='translate(92.3,105.8) scale(2.25)' color='rgb(255,   0,   0)'/>
	<use xlink:href='#gpPt5' transform='translate(92.9,111.8) scale(2.25)' color='rgb(255,   0,   0)'/>
	<use xlink:href='#gpPt5' transform='translate(93.6,118.4) scale(2.25)' color='rgb(255,   0,   0)'/>
	<use xlink:href='#gpPt5' transform='translate(94.2,125.5) scale(2.25)' color='rgb(255,   0,   0)'/>
	<use xlink:href='#gpPt5' transform='translate(94.9,133.0) scale(2.25)' color='rgb(255,   0,   0)'/>
	<use xlink:href='#gpPt5' transform='translate(95.5,141.0) scale(2.25)' color='rgb(255,   0,   0)'/>
	<use xlink:href='#gpPt5' transform='translate(96.2,149.2) scale(2.25)' color='rgb(255,   0,   0)'/>
	<use xlink:href='#gpPt5' transform='translate(96.8,157.7) scale(2.25)' color='rgb(255,   0,   0)'/>
	<use xlink:href='#gpPt5' transform='translate(97.5,166.4) scale(2.25)' color='rgb(255,   0,   0)'/>
	<use xlink:href='#gpPt5' transform='translate(98.1,175.2) scale(2.25)' color='rgb(255,   0,   0)'/>
	<use xlink:href='#gpPt5' transform='translate(98.8,184.1) scale(2.25)' color='rgb(255,   0,   0)'/>
	<use xlink:href='#gpPt5' transform='translate(99.4,192.9) scale(2.25)' color='rgb(255,   0,   0)'/>
	<use xlink:href='#gpPt5' transform='translate(100.1,201.6) scale(2.25)' color='rgb(255,   0,   0)'/>
	<use xlink:href='#gpPt5' transform='translate(106.6,272.7) scale(2.25)' color='rgb(255,   0,   0)'/>
	<use xlink:href='#gpPt5' transform='translate(113.1,312.2) scale(2.25)' color='rgb(255,   0,   0)'/>
	<use xlink:href='#gpPt5' transform='translate(119.5,336.9) scale(2.25)' color='rgb(255,   0,   0)'/>
	<use xlink:href='#gpPt5' transform='translate(126.0,353.0) scale(2.25)' color='rgb(255,   0,   0)'/>
	<use xlink:href='#gpPt5' transform='translate(139.0,372.9) scale(2.25)' color='rgb(255,   0,   0)'/>
	<use xlink:href='#gpPt5' transform='translate(152.0,385.4) scale(2.25)' color='rgb(255,   0,   0)'/>
	<use xlink:href='#gpPt5' transform='translate(165.0,392.3) scale(2.25)' color='rgb(255,   0,   0)'/>
	<use xlink:href='#gpPt5' transform='translate(177.9,400.7) scale(2.25)' color='rgb(255,   0,   0)'/>
	<use xlink:href='#gpPt5' transform='translate(190.9,405.7) scale(2.25)' color='rgb(255,   0,   0)'/>
	<use xlink:href='#gpPt5' transform='translate(203.9,411.3) scale(2.25)' color='rgb(255,   0,   0)'/>
	<use xlink:href='#gpPt5' transform='translate(216.9,418.3) scale(2.25)' color='rgb(255,   0,   0)'/>
	<use xlink:href='#gpPt5' transform='translate(229.8,424.1) scale(2.25)' color='rgb(255,   0,   0)'/>
	<use xlink:href='#gpPt5' transform='translate(242.8,429.4) scale(2.25)' color='rgb(255,   0,   0)'/>
	<use xlink:href='#gpPt5' transform='translate(255.8,435.7) scale(2.25)' color='rgb(255,   0,   0)'/>
	<use xlink:href='#gpPt5' transform='translate(268.8,442.4) scale(2.25)' color='rgb(255,   0,   0)'/>
	<use xlink:href='#gpPt5' transform='translate(281.8,449.8) scale(2.25)' color='rgb(255,   0,   0)'/>
	<use xlink:href='#gpPt5' transform='translate(294.7,455.6) scale(2.25)' color='rgb(255,   0,   0)'/>
	<use xlink:href='#gpPt5' transform='translate(307.7,462.0) scale(2.25)' color='rgb(255,   0,   0)'/>
	<use xlink:href='#gpPt5' transform='translate(320.7,467.6) scale(2.25)' color='rgb(255,   0,   0)'/>
	<use xlink:href='#gpPt5' transform='translate(333.7,475.1) scale(2.25)' color='rgb(255,   0,   0)'/>
	<use xlink:href='#gpPt5' transform='translate(346.6,481.4) scale(2.25)' color='rgb(255,   0,   0)'/>
	<use xlink:href='#gpPt5' transform='translate(359.6,489.3) scale(2.25)' color='rgb(255,   0,   0)'/>
	<use xlink:href='#gpPt5' transform='translate(372.6,494.9) scale(2.25)' color='rgb(255,   0,   0)'/>
	<use xlink:href='#gpPt5' transform='translate(385.6,503.1) scale(2.25)' color='rgb(255,   0,   0)'/>
	<use xlink:href='#gpPt5' transform='translate(398.5,509.6) scale(2.25)' color='rgb(255,   0,   0)'/>
	<use xlink:href='#gpPt5' transform='translate(411.5,515.4) scale(2.25)' color='rgb(255,   0,   0)'/>
	<use xlink:href='#gpPt5' transform='translate(424.5,523.6) scale(2.25)' color='rgb(255,   0,   0)'/>
	<use xlink:href='#gpPt5' transform='translate(437.5,532.3) scale(2.25)' color='rgb(255,   0,   0)'/>
	<use xlink:href='#gpPt5' transform='translate(450.4,538.4) scale(2.25)' color='rgb(255,   0,   0)'/>
	<use xlink:href='#gpPt5' transform='translate(463.4,544.7) scale(2.25)' color='rgb(255,   0,   0)'/>
	<use xlink:href='#gpPt5' transform='translate(476.4,551.2) scale(2.25)' color='rgb(255,   0,   0)'/>
	<use xlink:href='#gpPt5' transform='translate(489.4,558.8) scale(2.25)' color='rgb(255,   0,   0)'/>
	<use xlink:href='#gpPt5' transform='translate(502.4,565.3) scale(2.25)' color='rgb(255,   0,   0)'/>
	<use xlink:href='#gpPt5' transform='translate(515.3,575.3) scale(2.25)' color='rgb(255,   0,   0)'/>
	<use xlink:href='#gpPt5' transform='translate(528.3,582.0) scale(2.25)' color='rgb(255,   0,   0)'/>
	<use xlink:href='#gpPt5' transform='translate(541.3,587.4) scale(2.25)' color='rgb(255,   0,   0)'/>
	<use xlink:href='#gpPt5' transform='translate(554.3,596.2) scale(2.25)' color='rgb(255,   0,   0)'/>
	<use xlink:href='#gpPt5' transform='translate(567.2,602.5) scale(2.25)' color='rgb(255,   0,   0)'/>
	<use xlink:href='#gpPt5' transform='translate(580.2,611.8) scale(2.25)' color='rgb(255,   0,   0)'/>
	<use xlink:href='#gpPt5' transform='translate(593.2,621.6) scale(2.25)' color='rgb(255,   0,   0)'/>
	<use xlink:href='#gpPt5' transform='translate(606.2,629.8) scale(2.25)' color='rgb(255,   0,   0)'/>
	<use xlink:href='#gpPt5' transform='translate(619.1,635.3) scale(2.25)' color='rgb(255,   0,   0)'/>
	<use xlink:href='#gpPt5' transform='translate(632.1,641.7) scale(2.25)' color='rgb(255,   0,   0)'/>
	<use xlink:href='#gpPt5' transform='translate(645.1,648.4) scale(2.25)' color='rgb(255,   0,   0)'/>
	<use xlink:href='#gpPt5' transform='translate(658.1,650.5) scale(2.25)' color='rgb(255,   0,   0)'/>
	<use xlink:href='#gpPt5' transform='translate(671.1,653.3) scale(2.25)' color='rgb(255,   0,   0)'/>
	<use xlink:href='#gpPt5' transform='translate(684.0,661.8) scale(2.25)' color='rgb(255,   0,   0)'/>
	<use xlink:href='#gpPt5' transform='translate(697.0,669.4) scale(2.25)' color='rgb(255,   0,   0)'/>
	<use xlink:href='#gpPt5' transform='translate(710.0,672.4) scale(2.25)' color='rgb(255,   0,   0)'/>
	<use xlink:href='#gpPt5' transform='translate(723.0,671.7) scale(2.25)' color='rgb(255,   0,   0)'/>
	<use xlink:href='#gpPt5' transform='translate(735.9,665.9) scale(2.25)' color='rgb(255,   0,   0)'/>
	<use xlink:href='#gpPt5' transform='translate(748.9,667.4) scale(2.25)' color='rgb(255,   0,   0)'/>
	<use xlink:href='#gpPt5' transform='translate(761.9,673.2) scale(2.25)' color='rgb(255,   0,   0)'/>
	<use xlink:href='#gpPt5' transform='translate(774.9,676.7) scale(2.25)' color='rgb(255,   0,   0)'/>
	<use xlink:href='#gpPt5' transform='translate(787.8,675.9) scale(2.25)' color='rgb(255,   0,   0)'/>
	<use xlink:href='#gpPt5' transform='translate(800.8,676.8) scale(2.25)' color='rgb(255,   0,   0)'/>
	<use xlink:href='#gpPt5' transform='translate(813.8,668.9) scale(2.25)' color='rgb(255,   0,   0)'/>
	<use xlink:href='#gpPt5' transform='translate(826.8,671.2) scale(2.25)' color='rgb(255,   0,   0)'/>
	<use xlink:href='#gpPt5' transform='translate(839.7,661.7) scale(2.25)' color='rgb(255,   0,   0)'/>
	<use xlink:href='#gpPt5' transform='translate(852.7,654.7) scale(2.25)' color='rgb(255,   0,   0)'/>
	<use xlink:href='#gpPt5' transform='translate(865.7,643.8) scale(2.25)' color='rgb(255,   0,   0)'/>
	<use xlink:href='#gpPt5' transform='translate(878.7,639.2) scale(2.25)' color='rgb(255,   0,   0)'/>
	<use xlink:href='#gpPt5' transform='translate(891.7,640.2) scale(2.25)' color='rgb(255,   0,   0)'/>
	<use xlink:href='#gpPt5' transform='translate(904.6,639.5) scale(2.25)' color='rgb(255,   0,   0)'/>
	<use xlink:href='#gpPt5' transform='translate(917.6,647.4) scale(2.25)' color='rgb(255,   0,   0)'/>
	<use xlink:href='#gpPt5' transform='translate(930.6,634.8) scale(2.25)' color='rgb(255,   0,   0)'/>
	<use xlink:href='#gpPt5' transform='translate(943.6,628.2) scale(2.25)' color='rgb(255,   0,   0)'/>
	<use xlink:href='#gpPt5' transform='translate(956.5,613.9) scale(2.25)' color='rgb(255,   0,   0)'/>
	<use xlink:href='#gpPt5' transform='translate(969.5,591.4) scale(2.25)' color='rgb(255,   0,   0)'/>
	<use xlink:href='#gpPt5' transform='translate(982.5,573.9) scale(2.25)' color='rgb(255,   0,   0)'/>
	<use xlink:href='#gpPt5' transform='translate(995.5,558.2) scale(2.25)' color='rgb(255,   0,   0)'/>
	<use xlink:href='#gpPt5' transform='translate(1008.4,547.9) scale(2.25)' color='rgb(255,   0,   0)'/>
	<use xlink:href='#gpPt5' transform='translate(1021.4,555.5) scale(2.25)' color='rgb(255,   0,   0)'/>
	<use xlink:href='#gpPt5' transform='translate(1034.4,565.2) scale(2.25)' color='rgb(255,   0,   0)'/>
	<use xlink:href='#gpPt5' transform='translate(1047.4,580.7) scale(2.25)' color='rgb(255,   0,   0)'/>
	<use xlink:href='#gpPt5' transform='translate(1060.3,583.0) scale(2.25)' color='rgb(255,   0,   0)'/>
	<use xlink:href='#gpPt5' transform='translate(1073.3,585.7) scale(2.25)' color='rgb(255,   0,   0)'/>
	<use xlink:href='#gpPt5' transform='translate(1086.3,582.5) scale(2.25)' color='rgb(255,   0,   0)'/>
	<use xlink:href='#gpPt5' transform='translate(1099.3,584.8) scale(2.25)' color='rgb(255,   0,   0)'/>
	<use xlink:href='#gpPt5' transform='translate(1112.3,589.7) scale(2.25)' color='rgb(255,   0,   0)'/>
	<use xlink:href='#gpPt5' transform='translate(1125.2,587.9) scale(2.25)' color='rgb(255,   0,   0)'/>
	<use xlink:href='#gpPt5' transform='translate(1138.2,586.2) scale(2.25)' color='rgb(255,   0,   0)'/>
	<use xlink:href='#gpPt5' transform='translate(1151.2,587.4) scale(2.25)' color='rgb(255,   0,   0)'/>
	<use xlink:href='#gpPt5' transform='translate(1164.2,594.7) scale(2.25)' color='rgb(255,   0,   0)'/>
	<use xlink:href='#gpPt5' transform='translate(1177.1,586.6) scale(2.25)' color='rgb(255,   0,   0)'/>
	<use xlink:href='#gpPt5' transform='translate(1190.1,585.3) scale(2.25)' color='rgb(255,   0,   0)'/>
	<use xlink:href='#gpPt5' transform='translate(1203.1,577.4) scale(2.25)' color='rgb(255,   0,   0)'/>
	<use xlink:href='#gpPt5' transform='translate(1216.1,569.4) scale(2.25)' color='rgb(255,   0,   0)'/>
	<use xlink:href='#gpPt5' transform='translate(1229.0,549.2) scale(2.25)' color='rgb(255,   0,   0)'/>
	<use xlink:href='#gpPt5' transform='translate(1242.0,528.6) scale(2.25)' color='rgb(255,   0,   0)'/>
	<use xlink:href='#gpPt5' transform='translate(1255.0,498.3) scale(2.25)' color='rgb(255,   0,   0)'/>
	<use xlink:href='#gpPt5' transform='translate(1217.3,72.1) scale(2.25)' color='rgb(255,   0,   0)'/>
</g>
	</g>
	<g id="gnuplot_plot_2" ><title>gnuplot_plot_2</title>
<g fill="none" color="black" stroke="currentColor" stroke-width="1.00" stroke-linecap="butt" stroke-linejoin="miter">
	<use xlink:href='#gpPt5' transform='translate(87.1,73.5) scale(2.25)' color='rgb(  0, 100,   0)'/>
	<use xlink:href='#gpPt5' transform='translate(87.7,74.0) scale(2.25)' color='rgb(  0, 100,   0)'/>
	<use xlink:href='#gpPt5' transform='translate(88.4,75.4) scale(2.25)' color='rgb(  0, 100,   0)'/>
	<use xlink:href='#gpPt5' transform='translate(89.0,77.7) scale(2.25)' color='rgb(  0, 100,   0)'/>
	<use xlink:href='#gpPt5' transform='translate(89.7,80.9) scale(2.25)' color='rgb(  0, 100,   0)'/>
	<use xlink:href='#gpPt5' transform='translate(90.3,84.9) scale(2.25)' color='rgb(  0, 100,   0)'/>
	<use xlink:href='#gpPt5' transform='translate(91.0,89.8) scale(2.25)' color='rgb(  0, 100,   0)'/>
	<use xlink:href='#gpPt5' transform='translate(91.6,95.4) scale(2.25)' color='rgb(  0, 100,   0)'/>
	<use xlink:href='#gpPt5' transform='translate(92.3,101.8) scale(2.25)' color='rgb(  0, 100,   0)'/>
	<use xlink:href='#gpPt5' transform='translate(92.9,108.8) scale(2.25)' color='rgb(  0, 100,   0)'/>
	<use xlink:href='#gpPt5' transform='translate(93.6,116.5) scale(2.25)' color='rgb(  0, 100,   0)'/>
	<use xlink:href='#gpPt5' transform='translate(94.2,124.7) scale(2.25)' color='rgb(  0, 100,   0)'/>
	<use xlink:href='#gpPt5' transform='translate(94.9,133.3) scale(2.25)' color='rgb(  0, 100,   0)'/>
	<use xlink:href='#gpPt5' transform='translate(95.5,142.4) scale(2.25)' color='rgb(  0, 100,   0)'/>
	<use xlink:href='#gpPt5' transform='translate(96.2,151.7) scale(2.25)' color='rgb(  0, 100,   0)'/>
	<use xlink:href='#gpPt5' transform='translate(96.8,161.3) scale(2.25)' color='rgb(  0, 100,   0)'/>
	<use xlink:href='#gpPt5' transform='translate(97.5,170.9) scale(2.25)' color='rgb(  0, 100,   0)'/>
	<use xlink:href='#gpPt5' transform='translate(98.1,180.6) scale(2.25)' color='rgb(  0, 100,   0)'/>
	<use xlink:href='#gpPt5' transform='translate(98.8,190.1) scale(2.25)' color='rgb(  0, 100,   0)'/>
	<use xlink:href='#gpPt5' transform='translate(99.4,199.5) scale(2.25)' color='rgb(  0, 100,   0)'/>
	<use xlink:href='#gpPt5' transform='translate(100.1,208.7) scale(2.25)' color='rgb(  0, 100,   0)'/>
	<use xlink:href='#gpPt5' transform='translate(106.6,278.3) scale(2.25)' color='rgb(  0, 100,   0)'/>
	<use xlink:href='#gpPt5' transform='translate(113.1,315.5) scale(2.25)' color='rgb(  0, 100,   0)'/>
	<use xlink:href='#gpPt5' transform='translate(119.5,338.7) scale(2.25)' color='rgb(  0, 100,   0)'/>
	<use xlink:href='#gpPt5' transform='translate(126.0,355.1) scale(2.25)' color='rgb(  0, 100,   0)'/>
	<use xlink:href='#gpPt5' transform='translate(139.0,375.4) scale(2.25)' color='rgb(  0, 100,   0)'/>
	<use xlink:href='#gpPt5' transform='translate(152.0,385.8) scale(2.25)' color='rgb(  0, 100,   0)'/>
	<use xlink:href='#gpPt5' transform='translate(165.0,393.3) scale(2.25)' color='rgb(  0, 100,   0)'/>
	<use xlink:href='#gpPt5' transform='translate(177.9,400.2) scale(2.25)' color='rgb(  0, 100,   0)'/>
	<use xlink:href='#gpPt5' transform='translate(190.9,405.8) scale(2.25)' color='rgb(  0, 100,   0)'/>
	<use xlink:href='#gpPt5' transform='translate(203.9,412.0) scale(2.25)' color='rgb(  0, 100,   0)'/>
	<use xlink:href='#gpPt5' transform='translate(216.9,418.3) scale(2.25)' color='rgb(  0, 100,   0)'/>
	<use xlink:href='#gpPt5' transform='translate(229.8,423.7) scale(2.25)' color='rgb(  0, 100,   0)'/>
	<use xlink:href='#gpPt5' transform='translate(242.8,429.2) scale(2.25)' color='rgb(  0, 100,   0)'/>
	<use xlink:href='#gpPt5' transform='translate(255.8,436.6) scale(2.25)' color='rgb(  0, 100,   0)'/>
	<use xlink:href='#gpPt5' transform='translate(268.8,444.0) scale(2.25)' color='rgb(  0, 100,   0)'/>
	<use xlink:href='#gpPt5' transform='translate(281.8,449.9) scale(2.25)' color='rgb(  0, 100,   0)'/>
	<use xlink:href='#gpPt5' transform='translate(294.7,455.6) scale(2.25)' color='rgb(  0, 100,   0)'/>
	<use xlink:href='#gpPt5' transform='translate(307.7,461.0) scale(2.25)' color='rgb(  0, 100,   0)'/>
	<use xlink:href='#gpPt5' transform='translate(320.7,469.1) scale(2.25)' color='rgb(  0, 100,   0)'/>
	<use xlink:href='#gpPt5' transform='translate(333.7,475.1) scale(2.25)' color='rgb(  0, 100,   0)'/>
	<use xlink:href='#gpPt5' transform='translate(346.6,483.9) scale(2.25)' color='rgb(  0, 100,   0)'/>
	<use xlink:href='#gpPt5' transform='translate(359.6,489.9) scale(2.25)' color='rgb(  0, 100,   0)'/>
	<use xlink:href='#gpPt5' transform='translate(372.6,497.8) scale(2.25)' color='rgb(  0, 100,   0)'/>
	<use xlink:href='#gpPt5' transform='translate(385.6,502.8) scale(2.25)' color='rgb(  0, 100,   0)'/>
	<use xlink:href='#gpPt5' transform='translate(398.5,509.6) scale(2.25)' color='rgb(  0, 100,   0)'/>
	<use xlink:href='#gpPt5' transform='translate(411.5,518.9) scale(2.25)' color='rgb(  0, 100,   0)'/>
	<use xlink:href='#gpPt5' transform='translate(424.5,522.2) scale(2.25)' color='rgb(  0, 100,   0)'/>
	<use xlink:href='#gpPt5' transform='translate(437.5,528.4) scale(2.25)' color='rgb(  0, 100,   0)'/>
	<use xlink:href='#gpPt5' transform='translate(450.4,536.1) scale(2.25)' color='rgb(  0, 100,   0)'/>
	<use xlink:href='#gpPt5' transform='translate(463.4,546.1) scale(2.25)' color='rgb(  0, 100,   0)'/>
	<use xlink:href='#gpPt5' transform='translate(476.4,555.4) scale(2.25)' color='rgb(  0, 100,   0)'/>
	<use xlink:href='#gpPt5' transform='translate(489.4,564.0) scale(2.25)' color='rgb(  0, 100,   0)'/>
	<use xlink:href='#gpPt5' transform='translate(502.4,572.5) scale(2.25)' color='rgb(  0, 100,   0)'/>
	<use xlink:href='#gpPt5' transform='translate(515.3,579.9) scale(2.25)' color='rgb(  0, 100,   0)'/>
	<use xlink:href='#gpPt5' transform='translate(528.3,588.6) scale(2.25)' color='rgb(  0, 100,   0)'/>
	<use xlink:href='#gpPt5' transform='translate(541.3,596.2) scale(2.25)' color='rgb(  0, 100,   0)'/>
	<use xlink:href='#gpPt5' transform='translate(554.3,603.3) scale(2.25)' color='rgb(  0, 100,   0)'/>
	<use xlink:href='#gpPt5' transform='translate(567.2,615.5) scale(2.25)' color='rgb(  0, 100,   0)'/>
	<use xlink:href='#gpPt5' transform='translate(580.2,620.8) scale(2.25)' color='rgb(  0, 100,   0)'/>
	<use xlink:href='#gpPt5' transform='translate(593.2,623.3) scale(2.25)' color='rgb(  0, 100,   0)'/>
	<use xlink:href='#gpPt5' transform='translate(606.2,629.4) scale(2.25)' color='rgb(  0, 100,   0)'/>
	<use xlink:href='#gpPt5' transform='translate(619.1,637.8) scale(2.25)' color='rgb(  0, 100,   0)'/>
	<use xlink:href='#gpPt5' transform='translate(632.1,643.8) scale(2.25)' color='rgb(  0, 100,   0)'/>
	<use xlink:href='#gpPt5' transform='translate(645.1,651.7) scale(2.25)' color='rgb(  0, 100,   0)'/>
	<use xlink:href='#gpPt5' transform='translate(658.1,660.8) scale(2.25)' color='rgb(  0, 100,   0)'/>
	<use xlink:href='#gpPt5' transform='translate(671.1,662.5) scale(2.25)' color='rgb(  0, 100,   0)'/>
	<use xlink:href='#gpPt5' transform='translate(684.0,666.2) scale(2.25)' color='rgb(  0, 100,   0)'/>
	<use xlink:href='#gpPt5' transform='translate(697.0,667.2) scale(2.25)' color='rgb(  0, 100,   0)'/>
	<use xlink:href='#gpPt5' transform='translate(710.0,669.4) scale(2.25)' color='rgb(  0, 100,   0)'/>
	<use xlink:href='#gpPt5' transform='translate(723.0,678.5) scale(2.25)' color='rgb(  0, 100,   0)'/>
	<use xlink:href='#gpPt5' transform='translate(735.9,678.7) scale(2.25)' color='rgb(  0, 100,   0)'/>
	<use xlink:href='#gpPt5' transform='translate(748.9,676.3) scale(2.25)' color='rgb(  0, 100,   0)'/>
	<use xlink:href='#gpPt5' transform='translate(761.9,677.6) scale(2.25)' color='rgb(  0, 100,   0)'/>
	<use xlink:href='#gpPt5' transform='translate(774.9,678.1) scale(2.25)' color='rgb(  0, 100,   0)'/>
	<use xlink:href='#gpPt5' transform='translate(787.8,676.7) scale(2.25)' color='rgb(  0, 100,   0)'/>
	<use xlink:href='#gpPt5' transform='translate(800.8,672.3) scale(2.25)' color='rgb(  0, 100,   0)'/>
	<use xlink:href='#gpPt5' transform='translate(813.8,672.4) scale(2.25)' color='rgb(  0, 100,   0)'/>
	<use xlink:href='#gpPt5' transform='translate(826.8,669.4) scale(2.25)' color='rgb(  0, 100,   0)'/>
	<use xlink:href='#gpPt5' transform='translate(839.7,661.2) scale(2.25)' color='rgb(  0, 100,   0)'/>
	<use xlink:href='#gpPt5' transform='translate(852.7,653.2) scale(2.25)' color='rgb(  0, 100,   0)'/>
	<use xlink:href='#gpPt5' transform='translate(865.7,644.2) scale(2.25)' color='rgb(  0, 100,   0)'/>
	<use xlink:href='#gpPt5' transform='translate(878.7,639.8) scale(2.25)' color='rgb(  0, 100,   0)'/>
	<use xlink:href='#gpPt5' transform='translate(891.7,639.2) scale(2.25)' color='rgb(  0, 100,   0)'/>
	<use xlink:href='#gpPt5' transform='translate(904.6,649.3) scale(2.25)' color='rgb(  0, 100,   0)'/>
	<use xlink:href='#gpPt5' transform='translate(917.6,644.3) scale(2.25)' color='rgb(  0, 100,   0)'/>
	<use xlink:href='#gpPt5' transform='translate(930.6,643.6) scale(2.25)' color='rgb(  0, 100,   0)'/>
	<use xlink:href='#gpPt5' transform='translate(943.6,633.2) scale(2.25)' color='rgb(  0, 100,   0)'/>
	<use xlink:href='#gpPt5' transform='translate(956.5,617.4) scale(2.25)' color='rgb(  0, 100,   0)'/>
	<use xlink:href='#gpPt5' transform='translate(969.5,593.9) scale(2.25)' color='rgb(  0, 100,   0)'/>
	<use xlink:href='#gpPt5' transform='translate(982.5,571.4) scale(2.25)' color='rgb(  0, 100,   0)'/>
	<use xlink:href='#gpPt5' transform='translate(995.5,554.8) scale(2.25)' color='rgb(  0, 100,   0)'/>
	<use xlink:href='#gpPt5' transform='translate(1008.4,547.5) scale(2.25)' color='rgb(  0, 100,   0)'/>
	<use xlink:href='#gpPt5' transform='translate(1021.4,553.7) scale(2.25)' color='rgb(  0, 100,   0)'/>
	<use xlink:href='#gpPt5' transform='translate(1034.4,568.7) scale(2.25)' color='rgb(  0, 100,   0)'/>
	<use xlink:href='#gpPt5' transform='translate(1047.4,583.5) scale(2.25)' color='rgb(  0, 100,   0)'/>
	<use xlink:href='#gpPt5' transform='translate(1060.3,582.6) scale(2.25)' color='rgb(  0, 100,   0)'/>
	<use xlink:href='#gpPt5' transform='translate(1073.3,583.6) scale(2.25)' color='rgb(  0, 100,   0)'/>
	<use xlink:href='#gpPt5' transform='translate(1086.3,582.9) scale(2.25)' color='rgb(  0, 100,   0)'/>
	<use xlink:href='#gpPt5' transform='translate(1099.3,589.0) scale(2.25)' color='rgb(  0, 100,   0)'/>
	<use xlink:href='#gpPt5' transform='translate(1112.3,590.9) scale(2.25)' color='rgb(  0, 100,   0)'/>
	<use xlink:href='#gpPt5' transform='translate(1125.2,590.7) scale(2.25)' color='rgb(  0, 100,   0)'/>
	<use xlink:href='#gpPt5' transform='translate(1138.2,589.9) scale(2.25)' color='rgb(  0, 100,   0)'/>
	<use xlink:href='#gpPt5' transform='translate(1151.2,592.6) scale(2.25)' color='rgb(  0, 100,   0)'/>
	<use xlink:href='#gpPt5' transform='translate(1164.2,593.0) scale(2.25)' color='rgb(  0, 100,   0)'/>
	<use xlink:href='#gpPt5' transform='translate(1177.1,586.3) scale(2.25)' color='rgb(  0, 100,   0)'/>
	<use xlink:href='#gpPt5' transform='translate(1190.1,587.7) scale(2.25)' color='rgb(  0, 100,   0)'/>
	<use xlink:href='#gpPt5' transform='translate(1203.1,583.6) scale(2.25)' color='rgb(  0, 100,   0)'/>
	<use xlink:href='#gpPt5' transform='translate(1216.1,572.6) scale(2.25)' color='rgb(  0, 100,   0)'/>
	<use xlink:href='#gpPt5' transform='translate(1229.0,558.8) scale(2.25)' color='rgb(  0, 100,   0)'/>
	<use xlink:href='#gpPt5' transform='translate(1242.0,530.4) scale(2.25)' color='rgb(  0, 100,   0)'/>
	<use xlink:href='#gpPt5' transform='translate(1255.0,504.9) scale(2.25)' color='rgb(  0, 100,   0)'/>
</g>
	</g>
	<g id="gnuplot_plot_3" ><title>gnuplot_plot_3</title>
<g fill="none" color="black" stroke="currentColor" stroke-width="1.00" stroke-linecap="butt" stroke-linejoin="miter">
	<use xlink:href='#gpPt5' transform='translate(87.1,54.1) scale(2.25)' color='rgb(  0,   0, 255)'/>
	<use xlink:href='#gpPt5' transform='translate(87.7,54.8) scale(2.25)' color='rgb(  0,   0, 255)'/>
	<use xlink:href='#gpPt5' transform='translate(88.4,56.8) scale(2.25)' color='rgb(  0,   0, 255)'/>
	<use xlink:href='#gpPt5' transform='translate(89.0,60.2) scale(2.25)' color='rgb(  0,   0, 255)'/>
	<use xlink:href='#gpPt5' transform='translate(89.7,64.9) scale(2.25)' color='rgb(  0,   0, 255)'/>
	<use xlink:href='#gpPt5' transform='translate(90.3,70.9) scale(2.25)' color='rgb(  0,   0, 255)'/>
	<use xlink:href='#gpPt5' transform='translate(91.0,77.9) scale(2.25)' color='rgb(  0,   0, 255)'/>
	<use xlink:href='#gpPt5' transform='translate(91.6,86.0) scale(2.25)' color='rgb(  0,   0, 255)'/>
	<use xlink:href='#gpPt5' transform='translate(92.3,95.1) scale(2.25)' color='rgb(  0,   0, 255)'/>
	<use xlink:href='#gpPt5' transform='translate(92.9,105.1) scale(2.25)' color='rgb(  0,   0, 255)'/>
	<use xlink:href='#gpPt5' transform='translate(93.6,115.7) scale(2.25)' color='rgb(  0,   0, 255)'/>
	<use xlink:href='#gpPt5' transform='translate(94.2,126.8) scale(2.25)' color='rgb(  0,   0, 255)'/>
	<use xlink:href='#gpPt5' transform='translate(94.9,138.4) scale(2.25)' color='rgb(  0,   0, 255)'/>
	<use xlink:href='#gpPt5' transform='translate(95.5,150.2) scale(2.25)' color='rgb(  0,   0, 255)'/>
	<use xlink:href='#gpPt5' transform='translate(96.2,162.0) scale(2.25)' color='rgb(  0,   0, 255)'/>
	<use xlink:href='#gpPt5' transform='translate(96.8,173.7) scale(2.25)' color='rgb(  0,   0, 255)'/>
	<use xlink:href='#gpPt5' transform='translate(97.5,185.1) scale(2.25)' color='rgb(  0,   0, 255)'/>
	<use xlink:href='#gpPt5' transform='translate(98.1,196.1) scale(2.25)' color='rgb(  0,   0, 255)'/>
	<use xlink:href='#gpPt5' transform='translate(98.8,206.6) scale(2.25)' color='rgb(  0,   0, 255)'/>
	<use xlink:href='#gpPt5' transform='translate(99.4,216.5) scale(2.25)' color='rgb(  0,   0, 255)'/>
	<use xlink:href='#gpPt5' transform='translate(100.1,225.7) scale(2.25)' color='rgb(  0,   0, 255)'/>
	<use xlink:href='#gpPt5' transform='translate(106.6,288.3) scale(2.25)' color='rgb(  0,   0, 255)'/>
	<use xlink:href='#gpPt5' transform='translate(113.1,322.9) scale(2.25)' color='rgb(  0,   0, 255)'/>
	<use xlink:href='#gpPt5' transform='translate(119.5,345.7) scale(2.25)' color='rgb(  0,   0, 255)'/>
	<use xlink:href='#gpPt5' transform='translate(126.0,360.7) scale(2.25)' color='rgb(  0,   0, 255)'/>
	<use xlink:href='#gpPt5' transform='translate(139.0,378.2) scale(2.25)' color='rgb(  0,   0, 255)'/>
	<use xlink:href='#gpPt5' transform='translate(152.0,388.2) scale(2.25)' color='rgb(  0,   0, 255)'/>
	<use xlink:href='#gpPt5' transform='translate(165.0,395.9) scale(2.25)' color='rgb(  0,   0, 255)'/>
	<use xlink:href='#gpPt5' transform='translate(177.9,401.4) scale(2.25)' color='rgb(  0,   0, 255)'/>
	<use xlink:href='#gpPt5' transform='translate(190.9,407.3) scale(2.25)' color='rgb(  0,   0, 255)'/>
	<use xlink:href='#gpPt5' transform='translate(203.9,413.6) scale(2.25)' color='rgb(  0,   0, 255)'/>
	<use xlink:href='#gpPt5' transform='translate(216.9,418.6) scale(2.25)' color='rgb(  0,   0, 255)'/>
	<use xlink:href='#gpPt5' transform='translate(229.8,424.3) scale(2.25)' color='rgb(  0,   0, 255)'/>
	<use xlink:href='#gpPt5' transform='translate(242.8,431.3) scale(2.25)' color='rgb(  0,   0, 255)'/>
	<use xlink:href='#gpPt5' transform='translate(255.8,436.7) scale(2.25)' color='rgb(  0,   0, 255)'/>
	<use xlink:href='#gpPt5' transform='translate(268.8,442.1) scale(2.25)' color='rgb(  0,   0, 255)'/>
	<use xlink:href='#gpPt5' transform='translate(281.8,447.6) scale(2.25)' color='rgb(  0,   0, 255)'/>
	<use xlink:href='#gpPt5' transform='translate(294.7,456.9) scale(2.25)' color='rgb(  0,   0, 255)'/>
	<use xlink:href='#gpPt5' transform='translate(307.7,463.0) scale(2.25)' color='rgb(  0,   0, 255)'/>
	<use xlink:href='#gpPt5' transform='translate(320.7,467.1) scale(2.25)' color='rgb(  0,   0, 255)'/>
	<use xlink:href='#gpPt5' transform='translate(333.7,476.6) scale(2.25)' color='rgb(  0,   0, 255)'/>
	<use xlink:href='#gpPt5' transform='translate(346.6,480.5) scale(2.25)' color='rgb(  0,   0, 255)'/>
	<use xlink:href='#gpPt5' transform='translate(359.6,489.7) scale(2.25)' color='rgb(  0,   0, 255)'/>
	<use xlink:href='#gpPt5' transform='translate(372.6,496.3) scale(2.25)' color='rgb(  0,   0, 255)'/>
	<use xlink:href='#gpPt5' transform='translate(385.6,500.6) scale(2.25)' color='rgb(  0,   0, 255)'/>
	<use xlink:href='#gpPt5' transform='translate(398.5,511.8) scale(2.25)' color='rgb(  0,   0, 255)'/>
	<use xlink:href='#gpPt5' transform='translate(411.5,516.0) scale(2.25)' color='rgb(  0,   0, 255)'/>
	<use xlink:href='#gpPt5' transform='translate(424.5,521.0) scale(2.25)' color='rgb(  0,   0, 255)'/>
	<use xlink:href='#gpPt5' transform='translate(437.5,532.2) scale(2.25)' color='rgb(  0,   0, 255)'/>
	<use xlink:href='#gpPt5' transform='translate(450.4,543.4) scale(2.25)' color='rgb(  0,   0, 255)'/>
	<use xlink:href='#gpPt5' transform='translate(463.4,551.1) scale(2.25)' color='rgb(  0,   0, 255)'/>
	<use xlink:href='#gpPt5' transform='translate(476.4,558.3) scale(2.25)' color='rgb(  0,   0, 255)'/>
	<use xlink:href='#gpPt5' transform='translate(489.4,563.8) scale(2.25)' color='rgb(  0,   0, 255)'/>
	<use xlink:href='#gpPt5' transform='translate(502.4,571.3) scale(2.25)' color='rgb(  0,   0, 255)'/>
	<use xlink:href='#gpPt5' transform='translate(515.3,579.0) scale(2.25)' color='rgb(  0,   0, 255)'/>
	<use xlink:href='#gpPt5' transform='translate(528.3,588.2) scale(2.25)' color='rgb(  0,   0, 255)'/>
	<use xlink:href='#gpPt5' transform='translate(541.3,594.9) scale(2.25)' color='rgb(  0,   0, 255)'/>
	<use xlink:href='#gpPt5' transform='translate(554.3,604.2) scale(2.25)' color='rgb(  0,   0, 255)'/>
	<use xlink:href='#gpPt5' transform='translate(567.2,615.9) scale(2.25)' color='rgb(  0,   0, 255)'/>
	<use xlink:href='#gpPt5' transform='translate(580.2,622.7) scale(2.25)' color='rgb(  0,   0, 255)'/>
	<use xlink:href='#gpPt5' transform='translate(593.2,628.6) scale(2.25)' color='rgb(  0,   0, 255)'/>
	<use xlink:href='#gpPt5' transform='translate(606.2,638.2) scale(2.25)' color='rgb(  0,   0, 255)'/>
	<use xlink:href='#gpPt5' transform='translate(619.1,640.7) scale(2.25)' color='rgb(  0,   0, 255)'/>
	<use xlink:href='#gpPt5' transform='translate(632.1,649.1) scale(2.25)' color='rgb(  0,   0, 255)'/>
	<use xlink:href='#gpPt5' transform='translate(645.1,659.1) scale(2.25)' color='rgb(  0,   0, 255)'/>
	<use xlink:href='#gpPt5' transform='translate(658.1,663.2) scale(2.25)' color='rgb(  0,   0, 255)'/>
	<use xlink:href='#gpPt5' transform='translate(671.1,664.0) scale(2.25)' color='rgb(  0,   0, 255)'/>
	<use xlink:href='#gpPt5' transform='translate(684.0,670.2) scale(2.25)' color='rgb(  0,   0, 255)'/>
	<use xlink:href='#gpPt5' transform='translate(697.0,677.5) scale(2.25)' color='rgb(  0,   0, 255)'/>
	<use xlink:href='#gpPt5' transform='translate(710.0,681.6) scale(2.25)' color='rgb(  0,   0, 255)'/>
	<use xlink:href='#gpPt5' transform='translate(723.0,681.0) scale(2.25)' color='rgb(  0,   0, 255)'/>
	<use xlink:href='#gpPt5' transform='translate(735.9,682.3) scale(2.25)' color='rgb(  0,   0, 255)'/>
	<use xlink:href='#gpPt5' transform='translate(748.9,679.0) scale(2.25)' color='rgb(  0,   0, 255)'/>
	<use xlink:href='#gpPt5' transform='translate(761.9,678.0) scale(2.25)' color='rgb(  0,   0, 255)'/>
	<use xlink:href='#gpPt5' transform='translate(774.9,675.4) scale(2.25)' color='rgb(  0,   0, 255)'/>
	<use xlink:href='#gpPt5' transform='translate(787.8,675.7) scale(2.25)' color='rgb(  0,   0, 255)'/>
	<use xlink:href='#gpPt5' transform='translate(800.8,681.0) scale(2.25)' color='rgb(  0,   0, 255)'/>
	<use xlink:href='#gpPt5' transform='translate(813.8,679.4) scale(2.25)' color='rgb(  0,   0, 255)'/>
	<use xlink:href='#gpPt5' transform='translate(826.8,669.3) scale(2.25)' color='rgb(  0,   0, 255)'/>
	<use xlink:href='#gpPt5' transform='translate(839.7,661.9) scale(2.25)' color='rgb(  0,   0, 255)'/>
	<use xlink:href='#gpPt5' transform='translate(852.7,650.1) scale(2.25)' color='rgb(  0,   0, 255)'/>
	<use xlink:href='#gpPt5' transform='translate(865.7,643.5) scale(2.25)' color='rgb(  0,   0, 255)'/>
	<use xlink:href='#gpPt5' transform='translate(878.7,642.9) scale(2.25)' color='rgb(  0,   0, 255)'/>
	<use xlink:href='#gpPt5' transform='translate(891.7,643.0) scale(2.25)' color='rgb(  0,   0, 255)'/>
	<use xlink:href='#gpPt5' transform='translate(904.6,641.0) scale(2.25)' color='rgb(  0,   0, 255)'/>
	<use xlink:href='#gpPt5' transform='translate(917.6,644.1) scale(2.25)' color='rgb(  0,   0, 255)'/>
	<use xlink:href='#gpPt5' transform='translate(930.6,655.5) scale(2.25)' color='rgb(  0,   0, 255)'/>
	<use xlink:href='#gpPt5' transform='translate(943.6,638.6) scale(2.25)' color='rgb(  0,   0, 255)'/>
	<use xlink:href='#gpPt5' transform='translate(956.5,632.5) scale(2.25)' color='rgb(  0,   0, 255)'/>
	<use xlink:href='#gpPt5' transform='translate(969.5,606.0) scale(2.25)' color='rgb(  0,   0, 255)'/>
	<use xlink:href='#gpPt5' transform='translate(982.5,578.7) scale(2.25)' color='rgb(  0,   0, 255)'/>
	<use xlink:href='#gpPt5' transform='translate(995.5,555.1) scale(2.25)' color='rgb(  0,   0, 255)'/>
	<use xlink:href='#gpPt5' transform='translate(1008.4,547.3) scale(2.25)' color='rgb(  0,   0, 255)'/>
	<use xlink:href='#gpPt5' transform='translate(1021.4,551.6) scale(2.25)' color='rgb(  0,   0, 255)'/>
	<use xlink:href='#gpPt5' transform='translate(1034.4,572.7) scale(2.25)' color='rgb(  0,   0, 255)'/>
	<use xlink:href='#gpPt5' transform='translate(1047.4,581.1) scale(2.25)' color='rgb(  0,   0, 255)'/>
	<use xlink:href='#gpPt5' transform='translate(1060.3,584.8) scale(2.25)' color='rgb(  0,   0, 255)'/>
	<use xlink:href='#gpPt5' transform='translate(1073.3,582.4) scale(2.25)' color='rgb(  0,   0, 255)'/>
	<use xlink:href='#gpPt5' transform='translate(1086.3,587.2) scale(2.25)' color='rgb(  0,   0, 255)'/>
	<use xlink:href='#gpPt5' transform='translate(1099.3,587.2) scale(2.25)' color='rgb(  0,   0, 255)'/>
	<use xlink:href='#gpPt5' transform='translate(1112.3,589.3) scale(2.25)' color='rgb(  0,   0, 255)'/>
	<use xlink:href='#gpPt5' transform='translate(1125.2,595.2) scale(2.25)' color='rgb(  0,   0, 255)'/>
	<use xlink:href='#gpPt5' transform='translate(1138.2,594.5) scale(2.25)' color='rgb(  0,   0, 255)'/>
	<use xlink:href='#gpPt5' transform='translate(1151.2,591.6) scale(2.25)' color='rgb(  0,   0, 255)'/>
	<use xlink:href='#gpPt5' transform='translate(1164.2,592.1) scale(2.25)' color='rgb(  0,   0, 255)'/>
	<use xlink:href='#gpPt5' transform='translate(1177.1,597.0) scale(2.25)' color='rgb(  0,   0, 255)'/>
	<use xlink:href='#gpPt5' transform='translate(1190.1,592.0) scale(2.25)' color='rgb(  0,   0, 255)'/>
	<use xlink:href='#gpPt5' transform='translate(1203.1,594.0) scale(2.25)' color='rgb(  0,   0, 255)'/>
	<use xlink:href='#gpPt5' transform='translate(1216.1,583.2) scale(2.25)' color='rgb(  0,   0, 255)'/>
	<use xlink:href='#gpPt5' transform='translate(1229.0,565.9) scale(2.25)' color='rgb(  0,   0, 255)'/>
	<use xlink:href='#gpPt5' transform='translate(1242.0,533.4) scale(2.25)' color='rgb(  0,   0, 255)'/>
	<use xlink:href='#gpPt5' transform='translate(1255.0,520.0) scale(2.25)' color='rgb(  0,   0, 255)'/>
</g>
	</g>
	<g id="gnuplot_plot_4" ><title>fit</title>
<g fill="none" color="black" stroke="currentColor" stroke-width="1.00" stroke-linecap="butt" stroke-linejoin="miter">
	<g transform="translate(1187.9,94.0)" stroke="none" fill="black" font-family="Arial" font-size="12.00"  text-anchor="end">
		<text><tspan font-family="Arial" >fit</tspan></text>
	</g>
</g>
<g fill="none" color="black" stroke="currentColor" stroke-width="1.00" stroke-linecap="butt" stroke-linejoin="miter">
	<path stroke='rgb(255,   0,   0)'  d='M1196.2,90.1 L1238.4,90.1 M87.1,62.1 L88.2,65.5 L89.4,74.9 L90.5,88.3 L91.7,103.8 L92.8,119.9
		L93.9,135.7 L95.1,150.9 L96.2,165.3 L97.4,178.7 L98.5,191.3 L99.7,203.0 L100.8,214.0 L101.9,224.3
		L103.1,233.9 L104.2,242.9 L105.4,251.3 L106.5,259.3 L107.6,266.7 L108.8,273.8 L109.9,280.4 L111.1,286.6
		L112.2,292.5 L113.4,298.1 L114.5,303.4 L115.6,308.4 L116.8,313.1 L117.9,317.6 L119.1,321.8 L120.2,325.8
		L121.3,329.6 L122.5,333.1 L123.6,336.5 L124.8,339.7 L125.9,342.8 L127.1,345.7 L128.2,348.4 L129.3,351.0
		L130.5,353.5 L131.6,355.9 L132.8,358.1 L133.9,360.2 L135.0,362.2 L136.2,364.1 L137.3,366.0 L138.5,367.7
		L139.6,369.4 L140.8,371.0 L141.9,372.5 L143.0,373.9 L144.2,375.3 L145.3,376.7 L146.5,377.9 L147.6,379.2
		L148.7,380.3 L149.9,381.5 L151.0,382.6 L152.2,383.6 L153.3,384.6 L154.5,385.6 L155.6,386.6 L156.7,387.5
		L157.9,388.4 L159.0,389.2 L160.2,390.1 L161.3,390.9 L162.4,391.7 L163.6,392.5 L164.7,393.2 L165.9,394.0
		L167.0,394.7 L168.2,395.4 L169.3,396.1 L170.4,396.8 L171.6,397.4 L172.7,398.1 L173.9,398.7 L175.0,399.4
		L176.1,400.0 L177.3,400.6 L178.4,401.2 L179.6,401.8 L180.7,402.4 L181.9,403.0 L183.0,403.5 L184.1,404.1
		L185.3,404.7 L186.4,405.2 L187.6,405.8 L188.7,406.4 L189.8,406.9 L191.0,407.4 L192.1,408.0 L193.3,408.5
		L194.4,409.1 L195.6,409.6 L196.7,410.1 L197.8,410.7 L199.0,411.2 L200.1,411.7 L201.3,412.2 L202.4,412.7
		L203.5,413.3 L204.7,413.8 L205.8,414.3 L207.0,414.8 L208.1,415.3 L209.3,415.8 L210.4,416.4 L211.5,416.9
		L212.7,417.4 L213.8,417.9 L215.0,418.4 L216.1,418.9 L217.2,419.4 L218.4,419.9 L219.5,420.5 L220.7,421.0
		L221.8,421.5 L223.0,422.0 L224.1,422.5 L225.2,423.0 L226.4,423.5 L227.5,424.0 L228.7,424.6 L229.8,425.1
		L230.9,425.6 L232.1,426.1 L233.2,426.6 L234.4,427.1 L235.5,427.7 L236.7,428.2 L237.8,428.7 L238.9,429.2
		L240.1,429.7 L241.2,430.2 L242.4,430.8 L243.5,431.3 L244.6,431.8 L245.8,432.3 L246.9,432.9 L248.1,433.4
		L249.2,433.9 L250.4,434.4 L251.5,435.0 L252.6,435.5 L253.8,436.0 L254.9,436.6 L256.1,437.1 L257.2,437.6
		L258.3,438.1 L259.5,438.7 L260.6,439.2 L261.8,439.7 L262.9,440.3 L264.1,440.8 L265.2,441.4 L266.3,441.9
		L267.5,442.4 L268.6,443.0 L269.8,443.5 L270.9,444.1 L272.0,444.6 L273.2,445.1 L274.3,445.7 L275.5,446.2
		L276.6,446.8 L277.8,447.3 L278.9,447.9 L280.0,448.4 L281.2,449.0 L282.3,449.5 L283.5,450.1 L284.6,450.6
		L285.7,451.2 L286.9,451.7 L288.0,452.3 L289.2,452.8 L290.3,453.4 L291.5,453.9 L292.6,454.5 L293.7,455.0
		L294.9,455.6 L296.0,456.2 L297.2,456.7 L298.3,457.3 L299.4,457.8 L300.6,458.4 L301.7,459.0 L302.9,459.5
		L304.0,460.1 L305.2,460.7 L306.3,461.2 L307.4,461.8 L308.6,462.4 L309.7,462.9 L310.9,463.5 L312.0,464.1
		L313.1,464.6 L314.3,465.2 L315.4,465.8 L316.6,466.3 L317.7,466.9 L318.9,467.5 L320.0,468.0 L321.1,468.6
		L322.3,469.2 L323.4,469.8 L324.6,470.3 L325.7,470.9 L326.8,471.5 L328.0,472.1 L329.1,472.6 L330.3,473.2
		L331.4,473.8 L332.6,474.4 L333.7,475.0 L334.8,475.5 L336.0,476.1 L337.1,476.7 L338.3,477.3 L339.4,477.9
		L340.5,478.5 L341.7,479.0 L342.8,479.6 L344.0,480.2 L345.1,480.8 L346.3,481.4 L347.4,482.0 L348.5,482.5
		L349.7,483.1 L350.8,483.7 L352.0,484.3 L353.1,484.9 L354.2,485.5 L355.4,486.1 L356.5,486.7 L357.7,487.3
		L358.8,487.9 L360.0,488.4 L361.1,489.0 L362.2,489.6 L363.4,490.2 L364.5,490.8 L365.7,491.4 L366.8,492.0
		L367.9,492.6 L369.1,493.2 L370.2,493.8 L371.4,494.4 L372.5,495.0 L373.7,495.6 L374.8,496.2 L375.9,496.8
		L377.1,497.4 L378.2,498.0 L379.4,498.6 L380.5,499.2 L381.6,499.8 L382.8,500.4 L383.9,501.0 L385.1,501.6
		L386.2,502.2 L387.4,502.8 L388.5,503.4 L389.6,504.0 L390.8,504.6 L391.9,505.2 L393.1,505.8 L394.2,506.4
		L395.3,507.0 L396.5,507.6 L397.6,508.2 L398.8,508.8 L399.9,509.5 L401.1,510.1 L402.2,510.7 L403.3,511.3
		L404.5,511.9 L405.6,512.5 L406.8,513.1 L407.9,513.7 L409.0,514.3 L410.2,514.9 L411.3,515.6 L412.5,516.2
		L413.6,516.8 L414.8,517.4 L415.9,518.0 L417.0,518.6 L418.2,519.2 L419.3,519.9 L420.5,520.5 L421.6,521.1
		L422.7,521.7 L423.9,522.3 L425.0,523.0 L426.2,523.6 L427.3,524.2 L428.5,524.8 L429.6,525.4 L430.7,526.1
		L431.9,526.7 L433.0,527.3 L434.2,527.9 L435.3,528.5 L436.4,529.2 L437.6,529.8 L438.7,530.4 L439.9,531.0
		L441.0,531.7 L442.2,532.3 L443.3,532.9 L444.4,533.5 L445.6,534.2 L446.7,534.8 L447.9,535.4 L449.0,536.1
		L450.1,536.7 L451.3,537.3 L452.4,537.9 L453.6,538.6 L454.7,539.2 L455.9,539.8 L457.0,540.5 L458.1,541.1
		L459.3,541.7 L460.4,542.4 L461.6,543.0 L462.7,543.6 L463.8,544.3 L465.0,544.9 L466.1,545.6 L467.3,546.2
		L468.4,546.8 L469.6,547.5 L470.7,548.1 L471.8,548.7 L473.0,549.4 L474.1,550.0 L475.3,550.7 L476.4,551.3
		L477.5,552.0 L478.7,552.6 L479.8,553.2 L481.0,553.9 L482.1,554.5 L483.2,555.2 L484.4,555.8 L485.5,556.5
		L486.7,557.1 L487.8,557.8 L489.0,558.4 L490.1,559.1 L491.2,559.7 L492.4,560.4 L493.5,561.0 L494.7,561.7
		L495.8,562.3 L496.9,563.0 L498.1,563.6 L499.2,564.3 L500.4,564.9 L501.5,565.6 L502.7,566.2 L503.8,566.9
		L504.9,567.6 L506.1,568.2 L507.2,568.9 L508.4,569.5 L509.5,570.2 L510.6,570.9 L511.8,571.5 L512.9,572.2
		L514.1,572.8 L515.2,573.5 L516.4,574.2 L517.5,574.8 L518.6,575.5 L519.8,576.2 L520.9,576.8 L522.1,577.5
		L523.2,578.2 L524.3,578.8 L525.5,579.5 L526.6,580.2 L527.8,580.8 L528.9,581.5 L530.1,582.2 L531.2,582.9
		L532.3,583.5 L533.5,584.2 L534.6,584.9 L535.8,585.6 L536.9,586.2 L538.0,586.9 L539.2,587.6 L540.3,588.3
		L541.5,588.9 L542.6,589.6 L543.8,590.3 L544.9,591.0 L546.0,591.7 L547.2,592.3 L548.3,593.0 L549.5,593.7
		L550.6,594.4 L551.7,595.1 L552.9,595.7 L554.0,596.4 L555.2,597.1 L556.3,597.8 L557.5,598.5 L558.6,599.2
		L559.7,599.9 L560.9,600.5 L562.0,601.2 L563.2,601.9 L564.3,602.6 L565.4,603.3 L566.6,604.0 L567.7,604.7
		L568.9,605.4 L570.0,606.1 L571.2,606.7 L572.3,607.4 L573.4,608.1 L574.6,608.8 L575.7,609.5 L576.9,610.2
		L578.0,610.9 L579.1,611.6 L580.3,612.3 L581.4,613.0 L582.6,613.7 L583.7,614.4 L584.9,615.1 L586.0,615.7
		L587.1,616.4 L588.3,617.1 L589.4,617.8 L590.6,618.5 L591.7,619.2 L592.8,619.9 L594.0,620.6 L595.1,621.3
		L596.3,622.0 L597.4,622.7 L598.6,623.4 L599.7,624.1 L600.8,624.7 L602.0,625.4 L603.1,626.1 L604.3,626.8
		L605.4,627.5 L606.5,628.2 L607.7,628.9 L608.8,629.6 L610.0,630.3 L611.1,630.9 L612.3,631.6 L613.4,632.3
		L614.5,633.0 L615.7,633.7 L616.8,634.4 L618.0,635.0 L619.1,635.7 L620.2,636.4 L621.4,637.1 L622.5,637.7
		L623.7,638.4 L624.8,639.1 L626.0,639.8 L627.1,640.4 L628.2,641.1 L629.4,641.7 L630.5,642.4 L631.7,643.1
		L632.8,643.7 L633.9,644.4 L635.1,645.0 L636.2,645.7 L637.4,646.3 L638.5,647.0 L639.7,647.6 L640.8,648.3
		L641.9,648.9 L643.1,649.5 L644.2,650.2 L645.4,650.8 L646.5,651.4 L647.6,652.0 L648.8,652.6 L649.9,653.3
		L651.1,653.9 L652.2,654.5 L653.4,655.1 L654.5,655.7 L655.6,656.3 L656.8,656.8 L657.9,657.4 L659.1,658.0
		L660.2,658.6 L661.3,659.1 L662.5,659.7 L663.6,660.3 L664.8,660.8 L665.9,661.4 L667.1,661.9 L668.2,662.4
		L669.3,663.0 L670.5,663.5 L671.6,664.0 L672.8,664.5 L673.9,665.0 L675.0,665.5 L676.2,666.0 L677.3,666.5
		L678.5,667.0 L679.6,667.4 L680.8,667.9 L681.9,668.3 L683.0,668.8 L684.2,669.2 L685.3,669.6 L686.5,670.1
		L687.6,670.5 L688.7,670.9 L689.9,671.3 L691.0,671.7 L692.2,672.0 L693.3,672.4 L694.5,672.8 L695.6,673.1
		L696.7,673.5 L697.9,673.8 L699.0,674.1 L700.2,674.4 L701.3,674.7 L702.4,675.0 L703.6,675.3 L704.7,675.6
		L705.9,675.8 L707.0,676.1 L708.2,676.3 L709.3,676.6 L710.4,676.8 L711.6,677.0 L712.7,677.2 L713.9,677.4
		L715.0,677.6 L716.1,677.7 L717.3,677.9 L718.4,678.1 L719.6,678.2 L720.7,678.3 L721.9,678.4 L723.0,678.6
		L724.1,678.6 L725.3,678.7 L726.4,678.8 L727.6,678.9 L728.7,678.9 L729.8,679.0 L731.0,679.0 L732.1,679.0
		L733.3,679.1 L734.4,679.1 L735.6,679.1 L736.7,679.0 L737.8,679.0 L739.0,679.0 L740.1,678.9 L741.3,678.9
		L742.4,678.8 L743.5,678.7 L744.7,678.7 L745.8,678.6 L747.0,678.5 L748.1,678.4 L749.3,678.2 L750.4,678.1
		L751.5,678.0 L752.7,677.8 L753.8,677.7 L755.0,677.5 L756.1,677.3 L757.2,677.2 L758.4,677.0 L759.5,676.8
		L760.7,676.6 L761.8,676.4 L763.0,676.2 L764.1,675.9 L765.2,675.7 L766.4,675.5 L767.5,675.2 L768.7,675.0
		L769.8,674.7 L770.9,674.5 L772.1,674.2 L773.2,673.9 L774.4,673.7 L775.5,673.4 L776.7,673.1 L777.8,672.8
		L778.9,672.5 L780.1,672.2 L781.2,671.9 L782.4,671.6 L783.5,671.2 L784.6,670.9 L785.8,670.6 L786.9,670.3
		L788.1,669.9 L789.2,669.6 L790.4,669.2 L791.5,668.9 L792.6,668.5 L793.8,668.2 L794.9,667.8 L796.1,667.4
		L797.2,667.1 L798.3,666.7 L799.5,666.3 L800.6,666.0 L801.8,665.6 L802.9,665.2 L804.1,664.8 L805.2,664.4
		L806.3,664.1 L807.5,663.7 L808.6,663.3 L809.8,662.9 L810.9,662.5 L812.0,662.1 L813.2,661.7 L814.3,661.3
		L815.5,660.9 L816.6,660.5 L817.8,660.1 L818.9,659.7 L820.0,659.3 L821.2,658.9 L822.3,658.4 L823.5,658.0
		L824.6,657.6 L825.7,657.2 L826.9,656.8 L828.0,656.4 L829.2,656.0 L830.3,655.5 L831.5,655.1 L832.6,654.7
		L833.7,654.3 L834.9,653.9 L836.0,653.5 L837.2,653.0 L838.3,652.6 L839.4,652.2 L840.6,651.8 L841.7,651.4
		L842.9,650.9 L844.0,650.5 L845.2,650.1 L846.3,649.7 L847.4,649.3 L848.6,648.8 L849.7,648.4 L850.9,648.0
		L852.0,647.6 L853.1,647.2 L854.3,646.7 L855.4,646.3 L856.6,645.9 L857.7,645.5 L858.9,645.1 L860.0,644.7
		L861.1,644.2 L862.3,643.8 L863.4,643.4 L864.6,643.0 L865.7,642.6 L866.8,642.2 L868.0,641.7 L869.1,641.3
		L870.3,640.9 L871.4,640.5 L872.5,640.1 L873.7,639.7 L874.8,639.3 L876.0,638.9 L877.1,638.5 L878.3,638.0
		L879.4,637.6 L880.5,637.2 L881.7,636.8 L882.8,636.4 L884.0,636.0 L885.1,635.6 L886.2,635.2 L887.4,634.8
		L888.5,634.4 L889.7,634.0 L890.8,633.6 L892.0,633.2 L893.1,632.8 L894.2,632.4 L895.4,632.0 L896.5,631.6
		L897.7,631.2 L898.8,630.8 L899.9,630.4 L901.1,630.1 L902.2,629.7 L903.4,629.3 L904.5,628.9 L905.7,628.5
		L906.8,628.1 L907.9,627.7 L909.1,627.3 L910.2,627.0 L911.4,626.6 L912.5,626.2 L913.6,625.8 L914.8,625.4
		L915.9,625.1 L917.1,624.7 L918.2,624.3 L919.4,623.9 L920.5,623.5 L921.6,623.2 L922.8,622.8 L923.9,622.4
		L925.1,622.1 L926.2,621.7 L927.3,621.3 L928.5,621.0 L929.6,620.6 L930.8,620.2 L931.9,619.9 L933.1,619.5
		L934.2,619.1 L935.3,618.8 L936.5,618.4 L937.6,618.1 L938.8,617.7 L939.9,617.3 L941.0,617.0 L942.2,616.6
		L943.3,616.3 L944.5,615.9 L945.6,615.6 L946.8,615.2 L947.9,614.9 L949.0,614.5 L950.2,614.2 L951.3,613.8
		L952.5,613.5 L953.6,613.1 L954.7,612.8 L955.9,612.5 L957.0,612.1 L958.2,611.8 L959.3,611.4 L960.5,611.1
		L961.6,610.8 L962.7,610.4 L963.9,610.1 L965.0,609.8 L966.2,609.4 L967.3,609.1 L968.4,608.8 L969.6,608.4
		L970.7,608.1 L971.9,607.8 L973.0,607.4 L974.2,607.1 L975.3,606.8 L976.4,606.5 L977.6,606.2 L978.7,605.8
		L979.9,605.5 L981.0,605.2 L982.1,604.9 L983.3,604.6 L984.4,604.2 L985.6,603.9 L986.7,603.6 L987.9,603.3
		L989.0,603.0 L990.1,602.7 L991.3,602.4 L992.4,602.1 L993.6,601.8 L994.7,601.5 L995.8,601.1 L997.0,600.8
		L998.1,600.5 L999.3,600.2 L1000.4,599.9 L1001.6,599.6 L1002.7,599.3 L1003.8,599.0 L1005.0,598.7 L1006.1,598.5
		L1007.3,598.2 L1008.4,597.9 L1009.5,597.6 L1010.7,597.3 L1011.8,597.0 L1013.0,596.7 L1014.1,596.4 L1015.3,596.1
		L1016.4,595.8 L1017.5,595.6 L1018.7,595.3 L1019.8,595.0 L1021.0,594.7 L1022.1,594.4 L1023.2,594.2 L1024.4,593.9
		L1025.5,593.6 L1026.7,593.3 L1027.8,593.1 L1029.0,592.8 L1030.1,592.5 L1031.2,592.2 L1032.4,592.0 L1033.5,591.7
		L1034.7,591.4 L1035.8,591.2 L1036.9,590.9 L1038.1,590.6 L1039.2,590.4 L1040.4,590.1 L1041.5,589.8 L1042.7,589.6
		L1043.8,589.3 L1044.9,589.1 L1046.1,588.8 L1047.2,588.6 L1048.4,588.3 L1049.5,588.0 L1050.6,587.8 L1051.8,587.5
		L1052.9,587.3 L1054.1,587.0 L1055.2,586.8 L1056.4,586.6 L1057.5,586.3 L1058.6,586.1 L1059.8,585.8 L1060.9,585.6
		L1062.1,585.3 L1063.2,585.1 L1064.3,584.9 L1065.5,584.6 L1066.6,584.4 L1067.8,584.2 L1068.9,583.9 L1070.1,583.7
		L1071.2,583.5 L1072.3,583.2 L1073.5,583.0 L1074.6,582.8 L1075.8,582.5 L1076.9,582.3 L1078.0,582.1 L1079.2,581.9
		L1080.3,581.6 L1081.5,581.4 L1082.6,581.2 L1083.8,581.0 L1084.9,580.8 L1086.0,580.6 L1087.2,580.3 L1088.3,580.1
		L1089.5,579.9 L1090.6,579.7 L1091.7,579.5 L1092.9,579.3 L1094.0,579.1 L1095.2,578.9 L1096.3,578.7 L1097.5,578.5
		L1098.6,578.3 L1099.7,578.1 L1100.9,577.9 L1102.0,577.7 L1103.2,577.5 L1104.3,577.3 L1105.4,577.1 L1106.6,576.9
		L1107.7,576.7 L1108.9,576.5 L1110.0,576.3 L1111.2,576.1 L1112.3,575.9 L1113.4,575.8 L1114.6,575.6 L1115.7,575.4
		L1116.9,575.2 L1118.0,575.0 L1119.1,574.8 L1120.3,574.7 L1121.4,574.5 L1122.6,574.3 L1123.7,574.1 L1124.9,574.0
		L1126.0,573.8 L1127.1,573.6 L1128.3,573.5 L1129.4,573.3 L1130.6,573.1 L1131.7,573.0 L1132.8,572.8 L1134.0,572.6
		L1135.1,572.5 L1136.3,572.3 L1137.4,572.2 L1138.6,572.0 L1139.7,571.9 L1140.8,571.7 L1142.0,571.6 L1143.1,571.4
		L1144.3,571.3 L1145.4,571.1 L1146.5,571.0 L1147.7,570.8 L1148.8,570.7 L1150.0,570.5 L1151.1,570.4 L1152.3,570.2
		L1153.4,570.1 L1154.5,570.0 L1155.7,569.8 L1156.8,569.7 L1158.0,569.6 L1159.1,569.4 L1160.2,569.3 L1161.4,569.2
		L1162.5,569.1 L1163.7,568.9 L1164.8,568.8 L1166.0,568.7 L1167.1,568.6 L1168.2,568.4 L1169.4,568.3 L1170.5,568.2
		L1171.7,568.1 L1172.8,568.0 L1173.9,567.9 L1175.1,567.8 L1176.2,567.7 L1177.4,567.5 L1178.5,567.4 L1179.7,567.3
		L1180.8,567.2 L1181.9,567.1 L1183.1,567.0 L1184.2,566.9 L1185.4,566.8 L1186.5,566.7 L1187.6,566.7 L1188.8,566.6
		L1189.9,566.5 L1191.1,566.4 L1192.2,566.3 L1193.4,566.2 L1194.5,566.1 L1195.6,566.0 L1196.8,566.0 L1197.9,565.9
		L1199.1,565.8 L1200.2,565.7 L1201.3,565.6 L1202.5,565.6 L1203.6,565.5 L1204.8,565.4 L1205.9,565.4 L1207.1,565.3
		L1208.2,565.2 L1209.3,565.2 L1210.5,565.1 L1211.6,565.0 L1212.8,565.0 L1213.9,564.9 L1215.0,564.9 L1216.2,564.8
		L1217.3,564.8 L1218.5,564.7 L1219.6,564.7 L1220.8,564.6 L1221.9,564.6 L1223.0,564.5 L1224.2,564.5 L1225.3,564.4
		L1226.5,564.4 L1227.6,564.3 L1228.7,564.3 L1229.9,564.3 L1231.0,564.2 L1232.2,564.2 L1233.3,564.2 L1234.5,564.1
		L1235.6,564.1 L1236.7,564.1 L1237.9,564.1 L1239.0,564.0 L1240.2,564.0 L1241.3,564.0 L1242.4,564.0 L1243.6,564.0
		L1244.7,563.9 L1245.9,563.9 L1247.0,563.9 L1248.2,563.9 L1249.3,563.9 L1250.4,563.9 L1251.6,563.9 L1252.7,563.9
		L1253.9,563.9 L1255.0,563.9  '/></g>
	</g>
	<g id="gnuplot_plot_5" ><title>gnuplot_plot_5</title>
<g fill="none" color="black" stroke="currentColor" stroke-width="1.00" stroke-linecap="butt" stroke-linejoin="miter">
	<path stroke='rgb(  0, 100,   0)'  d='M87.1,59.4 L88.2,62.8 L89.4,72.2 L90.5,85.6 L91.7,101.0 L92.8,117.1 L93.9,133.0 L95.1,148.2
		L96.2,162.6 L97.4,176.0 L98.5,188.6 L99.7,200.4 L100.8,211.4 L101.9,221.6 L103.1,231.3 L104.2,240.3
		L105.4,248.8 L106.5,256.7 L107.6,264.2 L108.8,271.3 L109.9,278.0 L111.1,284.3 L112.2,290.2 L113.4,295.9
		L114.5,301.2 L115.6,306.2 L116.8,311.0 L117.9,315.5 L119.1,319.8 L120.2,323.9 L121.3,327.7 L122.5,331.3
		L123.6,334.8 L124.8,338.1 L125.9,341.2 L127.1,344.2 L128.2,347.0 L129.3,349.6 L130.5,352.2 L131.6,354.6
		L132.8,356.9 L133.9,359.1 L135.0,361.1 L136.2,363.1 L137.3,365.0 L138.5,366.8 L139.6,368.5 L140.8,370.2
		L141.9,371.7 L143.0,373.2 L144.2,374.7 L145.3,376.1 L146.5,377.4 L147.6,378.6 L148.7,379.9 L149.9,381.0
		L151.0,382.2 L152.2,383.3 L153.3,384.3 L154.5,385.3 L155.6,386.3 L156.7,387.3 L157.9,388.2 L159.0,389.1
		L160.2,390.0 L161.3,390.8 L162.4,391.6 L163.6,392.4 L164.7,393.2 L165.9,394.0 L167.0,394.7 L168.2,395.5
		L169.3,396.2 L170.4,396.9 L171.6,397.6 L172.7,398.2 L173.9,398.9 L175.0,399.5 L176.1,400.2 L177.3,400.8
		L178.4,401.4 L179.6,402.1 L180.7,402.7 L181.9,403.3 L183.0,403.9 L184.1,404.4 L185.3,405.0 L186.4,405.6
		L187.6,406.2 L188.7,406.7 L189.8,407.3 L191.0,407.9 L192.1,408.4 L193.3,409.0 L194.4,409.5 L195.6,410.0
		L196.7,410.6 L197.8,411.1 L199.0,411.7 L200.1,412.2 L201.3,412.7 L202.4,413.3 L203.5,413.8 L204.7,414.3
		L205.8,414.8 L207.0,415.4 L208.1,415.9 L209.3,416.4 L210.4,416.9 L211.5,417.4 L212.7,418.0 L213.8,418.5
		L215.0,419.0 L216.1,419.5 L217.2,420.0 L218.4,420.6 L219.5,421.1 L220.7,421.6 L221.8,422.1 L223.0,422.6
		L224.1,423.1 L225.2,423.7 L226.4,424.2 L227.5,424.7 L228.7,425.2 L229.8,425.7 L230.9,426.3 L232.1,426.8
		L233.2,427.3 L234.4,427.8 L235.5,428.3 L236.7,428.9 L237.8,429.4 L238.9,429.9 L240.1,430.4 L241.2,431.0
		L242.4,431.5 L243.5,432.0 L244.6,432.5 L245.8,433.1 L246.9,433.6 L248.1,434.1 L249.2,434.7 L250.4,435.2
		L251.5,435.7 L252.6,436.2 L253.8,436.8 L254.9,437.3 L256.1,437.9 L257.2,438.4 L258.3,438.9 L259.5,439.5
		L260.6,440.0 L261.8,440.5 L262.9,441.1 L264.1,441.6 L265.2,442.2 L266.3,442.7 L267.5,443.2 L268.6,443.8
		L269.8,444.3 L270.9,444.9 L272.0,445.4 L273.2,446.0 L274.3,446.5 L275.5,447.1 L276.6,447.6 L277.8,448.2
		L278.9,448.7 L280.0,449.3 L281.2,449.8 L282.3,450.4 L283.5,450.9 L284.6,451.5 L285.7,452.0 L286.9,452.6
		L288.0,453.1 L289.2,453.7 L290.3,454.3 L291.5,454.8 L292.6,455.4 L293.7,455.9 L294.9,456.5 L296.0,457.1
		L297.2,457.6 L298.3,458.2 L299.4,458.7 L300.6,459.3 L301.7,459.9 L302.9,460.4 L304.0,461.0 L305.2,461.6
		L306.3,462.1 L307.4,462.7 L308.6,463.3 L309.7,463.8 L310.9,464.4 L312.0,465.0 L313.1,465.6 L314.3,466.1
		L315.4,466.7 L316.6,467.3 L317.7,467.9 L318.9,468.4 L320.0,469.0 L321.1,469.6 L322.3,470.2 L323.4,470.7
		L324.6,471.3 L325.7,471.9 L326.8,472.5 L328.0,473.1 L329.1,473.6 L330.3,474.2 L331.4,474.8 L332.6,475.4
		L333.7,476.0 L334.8,476.5 L336.0,477.1 L337.1,477.7 L338.3,478.3 L339.4,478.9 L340.5,479.5 L341.7,480.1
		L342.8,480.7 L344.0,481.2 L345.1,481.8 L346.3,482.4 L347.4,483.0 L348.5,483.6 L349.7,484.2 L350.8,484.8
		L352.0,485.4 L353.1,486.0 L354.2,486.6 L355.4,487.2 L356.5,487.7 L357.7,488.3 L358.8,488.9 L360.0,489.5
		L361.1,490.1 L362.2,490.7 L363.4,491.3 L364.5,491.9 L365.7,492.5 L366.8,493.1 L367.9,493.7 L369.1,494.3
		L370.2,494.9 L371.4,495.5 L372.5,496.1 L373.7,496.7 L374.8,497.3 L375.9,497.9 L377.1,498.5 L378.2,499.1
		L379.4,499.7 L380.5,500.3 L381.6,501.0 L382.8,501.6 L383.9,502.2 L385.1,502.8 L386.2,503.4 L387.4,504.0
		L388.5,504.6 L389.6,505.2 L390.8,505.8 L391.9,506.4 L393.1,507.0 L394.2,507.6 L395.3,508.3 L396.5,508.9
		L397.6,509.5 L398.8,510.1 L399.9,510.7 L401.1,511.3 L402.2,511.9 L403.3,512.6 L404.5,513.2 L405.6,513.8
		L406.8,514.4 L407.9,515.0 L409.0,515.6 L410.2,516.3 L411.3,516.9 L412.5,517.5 L413.6,518.1 L414.8,518.7
		L415.9,519.4 L417.0,520.0 L418.2,520.6 L419.3,521.2 L420.5,521.8 L421.6,522.5 L422.7,523.1 L423.9,523.7
		L425.0,524.3 L426.2,525.0 L427.3,525.6 L428.5,526.2 L429.6,526.8 L430.7,527.5 L431.9,528.1 L433.0,528.7
		L434.2,529.4 L435.3,530.0 L436.4,530.6 L437.6,531.2 L438.7,531.9 L439.9,532.5 L441.0,533.1 L442.2,533.8
		L443.3,534.4 L444.4,535.0 L445.6,535.7 L446.7,536.3 L447.9,536.9 L449.0,537.6 L450.1,538.2 L451.3,538.9
		L452.4,539.5 L453.6,540.1 L454.7,540.8 L455.9,541.4 L457.0,542.1 L458.1,542.7 L459.3,543.3 L460.4,544.0
		L461.6,544.6 L462.7,545.3 L463.8,545.9 L465.0,546.6 L466.1,547.2 L467.3,547.9 L468.4,548.5 L469.6,549.1
		L470.7,549.8 L471.8,550.4 L473.0,551.1 L474.1,551.7 L475.3,552.4 L476.4,553.0 L477.5,553.7 L478.7,554.4
		L479.8,555.0 L481.0,555.7 L482.1,556.3 L483.2,557.0 L484.4,557.6 L485.5,558.3 L486.7,558.9 L487.8,559.6
		L489.0,560.3 L490.1,560.9 L491.2,561.6 L492.4,562.2 L493.5,562.9 L494.7,563.6 L495.8,564.2 L496.9,564.9
		L498.1,565.6 L499.2,566.2 L500.4,566.9 L501.5,567.6 L502.7,568.2 L503.8,568.9 L504.9,569.6 L506.1,570.2
		L507.2,570.9 L508.4,571.6 L509.5,572.3 L510.6,572.9 L511.8,573.6 L512.9,574.3 L514.1,574.9 L515.2,575.6
		L516.4,576.3 L517.5,577.0 L518.6,577.7 L519.8,578.3 L520.9,579.0 L522.1,579.7 L523.2,580.4 L524.3,581.1
		L525.5,581.7 L526.6,582.4 L527.8,583.1 L528.9,583.8 L530.1,584.5 L531.2,585.2 L532.3,585.9 L533.5,586.6
		L534.6,587.2 L535.8,587.9 L536.9,588.6 L538.0,589.3 L539.2,590.0 L540.3,590.7 L541.5,591.4 L542.6,592.1
		L543.8,592.8 L544.9,593.5 L546.0,594.2 L547.2,594.9 L548.3,595.6 L549.5,596.3 L550.6,597.0 L551.7,597.7
		L552.9,598.4 L554.0,599.1 L555.2,599.8 L556.3,600.5 L557.5,601.2 L558.6,601.9 L559.7,602.6 L560.9,603.3
		L562.0,604.0 L563.2,604.7 L564.3,605.4 L565.4,606.1 L566.6,606.8 L567.7,607.6 L568.9,608.3 L570.0,609.0
		L571.2,609.7 L572.3,610.4 L573.4,611.1 L574.6,611.8 L575.7,612.5 L576.9,613.3 L578.0,614.0 L579.1,614.7
		L580.3,615.4 L581.4,616.1 L582.6,616.8 L583.7,617.5 L584.9,618.3 L586.0,619.0 L587.1,619.7 L588.3,620.4
		L589.4,621.1 L590.6,621.8 L591.7,622.6 L592.8,623.3 L594.0,624.0 L595.1,624.7 L596.3,625.4 L597.4,626.2
		L598.6,626.9 L599.7,627.6 L600.8,628.3 L602.0,629.0 L603.1,629.7 L604.3,630.5 L605.4,631.2 L606.5,631.9
		L607.7,632.6 L608.8,633.3 L610.0,634.0 L611.1,634.7 L612.3,635.5 L613.4,636.2 L614.5,636.9 L615.7,637.6
		L616.8,638.3 L618.0,639.0 L619.1,639.7 L620.2,640.4 L621.4,641.1 L622.5,641.8 L623.7,642.5 L624.8,643.2
		L626.0,643.9 L627.1,644.6 L628.2,645.3 L629.4,646.0 L630.5,646.7 L631.7,647.4 L632.8,648.1 L633.9,648.8
		L635.1,649.4 L636.2,650.1 L637.4,650.8 L638.5,651.5 L639.7,652.2 L640.8,652.8 L641.9,653.5 L643.1,654.1
		L644.2,654.8 L645.4,655.5 L646.5,656.1 L647.6,656.8 L648.8,657.4 L649.9,658.0 L651.1,658.7 L652.2,659.3
		L653.4,659.9 L654.5,660.6 L655.6,661.2 L656.8,661.8 L657.9,662.4 L659.1,663.0 L660.2,663.6 L661.3,664.2
		L662.5,664.8 L663.6,665.4 L664.8,665.9 L665.9,666.5 L667.1,667.1 L668.2,667.6 L669.3,668.2 L670.5,668.7
		L671.6,669.3 L672.8,669.8 L673.9,670.3 L675.0,670.8 L676.2,671.3 L677.3,671.8 L678.5,672.3 L679.6,672.8
		L680.8,673.3 L681.9,673.7 L683.0,674.2 L684.2,674.7 L685.3,675.1 L686.5,675.5 L687.6,675.9 L688.7,676.4
		L689.9,676.8 L691.0,677.2 L692.2,677.5 L693.3,677.9 L694.5,678.3 L695.6,678.6 L696.7,679.0 L697.9,679.3
		L699.0,679.6 L700.2,679.9 L701.3,680.2 L702.4,680.5 L703.6,680.8 L704.7,681.1 L705.9,681.3 L707.0,681.6
		L708.2,681.8 L709.3,682.0 L710.4,682.2 L711.6,682.4 L712.7,682.6 L713.9,682.8 L715.0,682.9 L716.1,683.1
		L717.3,683.2 L718.4,683.4 L719.6,683.5 L720.7,683.6 L721.9,683.7 L723.0,683.7 L724.1,683.8 L725.3,683.9
		L726.4,683.9 L727.6,684.0 L728.7,684.0 L729.8,684.0 L731.0,684.0 L732.1,684.0 L733.3,684.0 L734.4,683.9
		L735.6,683.9 L736.7,683.8 L737.8,683.8 L739.0,683.7 L740.1,683.6 L741.3,683.5 L742.4,683.4 L743.5,683.3
		L744.7,683.2 L745.8,683.0 L747.0,682.9 L748.1,682.7 L749.3,682.6 L750.4,682.4 L751.5,682.2 L752.7,682.0
		L753.8,681.8 L755.0,681.6 L756.1,681.4 L757.2,681.2 L758.4,681.0 L759.5,680.7 L760.7,680.5 L761.8,680.2
		L763.0,680.0 L764.1,679.7 L765.2,679.4 L766.4,679.1 L767.5,678.9 L768.7,678.6 L769.8,678.3 L770.9,677.9
		L772.1,677.6 L773.2,677.3 L774.4,677.0 L775.5,676.7 L776.7,676.3 L777.8,676.0 L778.9,675.6 L780.1,675.3
		L781.2,674.9 L782.4,674.6 L783.5,674.2 L784.6,673.8 L785.8,673.5 L786.9,673.1 L788.1,672.7 L789.2,672.3
		L790.4,671.9 L791.5,671.5 L792.6,671.1 L793.8,670.7 L794.9,670.3 L796.1,669.9 L797.2,669.5 L798.3,669.1
		L799.5,668.7 L800.6,668.3 L801.8,667.9 L802.9,667.5 L804.1,667.0 L805.2,666.6 L806.3,666.2 L807.5,665.8
		L808.6,665.3 L809.8,664.9 L810.9,664.5 L812.0,664.1 L813.2,663.6 L814.3,663.2 L815.5,662.8 L816.6,662.3
		L817.8,661.9 L818.9,661.4 L820.0,661.0 L821.2,660.6 L822.3,660.1 L823.5,659.7 L824.6,659.2 L825.7,658.8
		L826.9,658.3 L828.0,657.9 L829.2,657.5 L830.3,657.0 L831.5,656.6 L832.6,656.1 L833.7,655.7 L834.9,655.2
		L836.0,654.8 L837.2,654.3 L838.3,653.9 L839.4,653.5 L840.6,653.0 L841.7,652.6 L842.9,652.1 L844.0,651.7
		L845.2,651.2 L846.3,650.8 L847.4,650.4 L848.6,649.9 L849.7,649.5 L850.9,649.0 L852.0,648.6 L853.1,648.1
		L854.3,647.7 L855.4,647.3 L856.6,646.8 L857.7,646.4 L858.9,646.0 L860.0,645.5 L861.1,645.1 L862.3,644.6
		L863.4,644.2 L864.6,643.8 L865.7,643.3 L866.8,642.9 L868.0,642.5 L869.1,642.1 L870.3,641.6 L871.4,641.2
		L872.5,640.8 L873.7,640.3 L874.8,639.9 L876.0,639.5 L877.1,639.1 L878.3,638.6 L879.4,638.2 L880.5,637.8
		L881.7,637.4 L882.8,637.0 L884.0,636.5 L885.1,636.1 L886.2,635.7 L887.4,635.3 L888.5,634.9 L889.7,634.5
		L890.8,634.1 L892.0,633.6 L893.1,633.2 L894.2,632.8 L895.4,632.4 L896.5,632.0 L897.7,631.6 L898.8,631.2
		L899.9,630.8 L901.1,630.4 L902.2,630.0 L903.4,629.6 L904.5,629.2 L905.7,628.8 L906.8,628.4 L907.9,628.0
		L909.1,627.6 L910.2,627.2 L911.4,626.8 L912.5,626.4 L913.6,626.0 L914.8,625.7 L915.9,625.3 L917.1,624.9
		L918.2,624.5 L919.4,624.1 L920.5,623.7 L921.6,623.3 L922.8,623.0 L923.9,622.6 L925.1,622.2 L926.2,621.8
		L927.3,621.5 L928.5,621.1 L929.6,620.7 L930.8,620.3 L931.9,620.0 L933.1,619.6 L934.2,619.2 L935.3,618.9
		L936.5,618.5 L937.6,618.1 L938.8,617.8 L939.9,617.4 L941.0,617.0 L942.2,616.7 L943.3,616.3 L944.5,616.0
		L945.6,615.6 L946.8,615.2 L947.9,614.9 L949.0,614.5 L950.2,614.2 L951.3,613.8 L952.5,613.5 L953.6,613.1
		L954.7,612.8 L955.9,612.4 L957.0,612.1 L958.2,611.7 L959.3,611.4 L960.5,611.0 L961.6,610.7 L962.7,610.4
		L963.9,610.0 L965.0,609.7 L966.2,609.3 L967.3,609.0 L968.4,608.7 L969.6,608.3 L970.7,608.0 L971.9,607.7
		L973.0,607.3 L974.2,607.0 L975.3,606.7 L976.4,606.4 L977.6,606.0 L978.7,605.7 L979.9,605.4 L981.0,605.1
		L982.1,604.7 L983.3,604.4 L984.4,604.1 L985.6,603.8 L986.7,603.5 L987.9,603.2 L989.0,602.8 L990.1,602.5
		L991.3,602.2 L992.4,601.9 L993.6,601.6 L994.7,601.3 L995.8,601.0 L997.0,600.7 L998.1,600.4 L999.3,600.1
		L1000.4,599.7 L1001.6,599.4 L1002.7,599.1 L1003.8,598.8 L1005.0,598.5 L1006.1,598.2 L1007.3,598.0 L1008.4,597.7
		L1009.5,597.4 L1010.7,597.1 L1011.8,596.8 L1013.0,596.5 L1014.1,596.2 L1015.3,595.9 L1016.4,595.6 L1017.5,595.3
		L1018.7,595.0 L1019.8,594.8 L1021.0,594.5 L1022.1,594.2 L1023.2,593.9 L1024.4,593.6 L1025.5,593.4 L1026.7,593.1
		L1027.8,592.8 L1029.0,592.5 L1030.1,592.2 L1031.2,592.0 L1032.4,591.7 L1033.5,591.4 L1034.7,591.2 L1035.8,590.9
		L1036.9,590.6 L1038.1,590.4 L1039.2,590.1 L1040.4,589.8 L1041.5,589.6 L1042.7,589.3 L1043.8,589.0 L1044.9,588.8
		L1046.1,588.5 L1047.2,588.3 L1048.4,588.0 L1049.5,587.8 L1050.6,587.5 L1051.8,587.2 L1052.9,587.0 L1054.1,586.7
		L1055.2,586.5 L1056.4,586.2 L1057.5,586.0 L1058.6,585.8 L1059.8,585.5 L1060.9,585.3 L1062.1,585.0 L1063.2,584.8
		L1064.3,584.5 L1065.5,584.3 L1066.6,584.1 L1067.8,583.8 L1068.9,583.6 L1070.1,583.4 L1071.2,583.1 L1072.3,582.9
		L1073.5,582.7 L1074.6,582.4 L1075.8,582.2 L1076.9,582.0 L1078.0,581.8 L1079.2,581.5 L1080.3,581.3 L1081.5,581.1
		L1082.6,580.9 L1083.8,580.7 L1084.9,580.4 L1086.0,580.2 L1087.2,580.0 L1088.3,579.8 L1089.5,579.6 L1090.6,579.4
		L1091.7,579.2 L1092.9,578.9 L1094.0,578.7 L1095.2,578.5 L1096.3,578.3 L1097.5,578.1 L1098.6,577.9 L1099.7,577.7
		L1100.9,577.5 L1102.0,577.3 L1103.2,577.1 L1104.3,576.9 L1105.4,576.7 L1106.6,576.5 L1107.7,576.3 L1108.9,576.1
		L1110.0,576.0 L1111.2,575.8 L1112.3,575.6 L1113.4,575.4 L1114.6,575.2 L1115.7,575.0 L1116.9,574.8 L1118.0,574.7
		L1119.1,574.5 L1120.3,574.3 L1121.4,574.1 L1122.6,573.9 L1123.7,573.8 L1124.9,573.6 L1126.0,573.4 L1127.1,573.3
		L1128.3,573.1 L1129.4,572.9 L1130.6,572.8 L1131.7,572.6 L1132.8,572.4 L1134.0,572.3 L1135.1,572.1 L1136.3,571.9
		L1137.4,571.8 L1138.6,571.6 L1139.7,571.5 L1140.8,571.3 L1142.0,571.2 L1143.1,571.0 L1144.3,570.9 L1145.4,570.7
		L1146.5,570.6 L1147.7,570.4 L1148.8,570.3 L1150.0,570.1 L1151.1,570.0 L1152.3,569.9 L1153.4,569.7 L1154.5,569.6
		L1155.7,569.4 L1156.8,569.3 L1158.0,569.2 L1159.1,569.0 L1160.2,568.9 L1161.4,568.8 L1162.5,568.7 L1163.7,568.5
		L1164.8,568.4 L1166.0,568.3 L1167.1,568.2 L1168.2,568.1 L1169.4,567.9 L1170.5,567.8 L1171.7,567.7 L1172.8,567.6
		L1173.9,567.5 L1175.1,567.4 L1176.2,567.3 L1177.4,567.1 L1178.5,567.0 L1179.7,566.9 L1180.8,566.8 L1181.9,566.7
		L1183.1,566.6 L1184.2,566.5 L1185.4,566.4 L1186.5,566.3 L1187.6,566.2 L1188.8,566.2 L1189.9,566.1 L1191.1,566.0
		L1192.2,565.9 L1193.4,565.8 L1194.5,565.7 L1195.6,565.6 L1196.8,565.6 L1197.9,565.5 L1199.1,565.4 L1200.2,565.3
		L1201.3,565.2 L1202.5,565.2 L1203.6,565.1 L1204.8,565.0 L1205.9,565.0 L1207.1,564.9 L1208.2,564.8 L1209.3,564.8
		L1210.5,564.7 L1211.6,564.6 L1212.8,564.6 L1213.9,564.5 L1215.0,564.5 L1216.2,564.4 L1217.3,564.3 L1218.5,564.3
		L1219.6,564.2 L1220.8,564.2 L1221.9,564.1 L1223.0,564.1 L1224.2,564.1 L1225.3,564.0 L1226.5,564.0 L1227.6,563.9
		L1228.7,563.9 L1229.9,563.9 L1231.0,563.8 L1232.2,563.8 L1233.3,563.8 L1234.5,563.7 L1235.6,563.7 L1236.7,563.7
		L1237.9,563.7 L1239.0,563.6 L1240.2,563.6 L1241.3,563.6 L1242.4,563.6 L1243.6,563.6 L1244.7,563.5 L1245.9,563.5
		L1247.0,563.5 L1248.2,563.5 L1249.3,563.5 L1250.4,563.5 L1251.6,563.5 L1252.7,563.5 L1253.9,563.5 L1255.0,563.5
		 '/></g>
	</g>
	<g id="gnuplot_plot_6" ><title>gnuplot_plot_6</title>
<g fill="none" color="black" stroke="currentColor" stroke-width="1.00" stroke-linecap="butt" stroke-linejoin="miter">
	<path stroke='rgb(  0,   0, 255)'  d='M87.1,59.4 L88.2,62.8 L89.4,72.2 L90.5,85.6 L91.7,101.0 L92.8,117.1 L93.9,133.0 L95.1,148.2
		L96.2,162.6 L97.4,176.1 L98.5,188.7 L99.7,200.4 L100.8,211.4 L101.9,221.7 L103.1,231.4 L104.2,240.4
		L105.4,248.9 L106.5,256.9 L107.6,264.4 L108.8,271.5 L109.9,278.2 L111.1,284.5 L112.2,290.5 L113.4,296.2
		L114.5,301.6 L115.6,306.6 L116.8,311.4 L117.9,316.0 L119.1,320.3 L120.2,324.4 L121.3,328.3 L122.5,332.0
		L123.6,335.5 L124.8,338.8 L125.9,342.0 L127.1,345.0 L128.2,347.8 L129.3,350.6 L130.5,353.1 L131.6,355.6
		L132.8,357.9 L133.9,360.2 L135.0,362.3 L136.2,364.3 L137.3,366.2 L138.5,368.1 L139.6,369.8 L140.8,371.5
		L141.9,373.1 L143.0,374.7 L144.2,376.1 L145.3,377.5 L146.5,378.9 L147.6,380.2 L148.7,381.5 L149.9,382.7
		L151.0,383.8 L152.2,384.9 L153.3,386.0 L154.5,387.1 L155.6,388.1 L156.7,389.0 L157.9,390.0 L159.0,390.9
		L160.2,391.8 L161.3,392.7 L162.4,393.5 L163.6,394.3 L164.7,395.1 L165.9,395.9 L167.0,396.7 L168.2,397.4
		L169.3,398.2 L170.4,398.9 L171.6,399.6 L172.7,400.3 L173.9,400.9 L175.0,401.6 L176.1,402.3 L177.3,402.9
		L178.4,403.5 L179.6,404.2 L180.7,404.8 L181.9,405.4 L183.0,406.0 L184.1,406.6 L185.3,407.2 L186.4,407.8
		L187.6,408.3 L188.7,408.9 L189.8,409.5 L191.0,410.0 L192.1,410.6 L193.3,411.2 L194.4,411.7 L195.6,412.3
		L196.7,412.8 L197.8,413.4 L199.0,413.9 L200.1,414.4 L201.3,415.0 L202.4,415.5 L203.5,416.0 L204.7,416.6
		L205.8,417.1 L207.0,417.6 L208.1,418.2 L209.3,418.7 L210.4,419.2 L211.5,419.7 L212.7,420.3 L213.8,420.8
		L215.0,421.3 L216.1,421.8 L217.2,422.3 L218.4,422.9 L219.5,423.4 L220.7,423.9 L221.8,424.4 L223.0,424.9
		L224.1,425.5 L225.2,426.0 L226.4,426.5 L227.5,427.0 L228.7,427.5 L229.8,428.1 L230.9,428.6 L232.1,429.1
		L233.2,429.6 L234.4,430.2 L235.5,430.7 L236.7,431.2 L237.8,431.7 L238.9,432.3 L240.1,432.8 L241.2,433.3
		L242.4,433.8 L243.5,434.4 L244.6,434.9 L245.8,435.4 L246.9,435.9 L248.1,436.5 L249.2,437.0 L250.4,437.5
		L251.5,438.1 L252.6,438.6 L253.8,439.1 L254.9,439.7 L256.1,440.2 L257.2,440.7 L258.3,441.3 L259.5,441.8
		L260.6,442.4 L261.8,442.9 L262.9,443.4 L264.1,444.0 L265.2,444.5 L266.3,445.1 L267.5,445.6 L268.6,446.1
		L269.8,446.7 L270.9,447.2 L272.0,447.8 L273.2,448.3 L274.3,448.9 L275.5,449.4 L276.6,450.0 L277.8,450.5
		L278.9,451.1 L280.0,451.6 L281.2,452.2 L282.3,452.7 L283.5,453.3 L284.6,453.8 L285.7,454.4 L286.9,454.9
		L288.0,455.5 L289.2,456.0 L290.3,456.6 L291.5,457.2 L292.6,457.7 L293.7,458.3 L294.9,458.8 L296.0,459.4
		L297.2,460.0 L298.3,460.5 L299.4,461.1 L300.6,461.7 L301.7,462.2 L302.9,462.8 L304.0,463.3 L305.2,463.9
		L306.3,464.5 L307.4,465.0 L308.6,465.6 L309.7,466.2 L310.9,466.8 L312.0,467.3 L313.1,467.9 L314.3,468.5
		L315.4,469.0 L316.6,469.6 L317.7,470.2 L318.9,470.8 L320.0,471.3 L321.1,471.9 L322.3,472.5 L323.4,473.1
		L324.6,473.6 L325.7,474.2 L326.8,474.8 L328.0,475.4 L329.1,476.0 L330.3,476.5 L331.4,477.1 L332.6,477.7
		L333.7,478.3 L334.8,478.9 L336.0,479.4 L337.1,480.0 L338.3,480.6 L339.4,481.2 L340.5,481.8 L341.7,482.4
		L342.8,483.0 L344.0,483.5 L345.1,484.1 L346.3,484.7 L347.4,485.3 L348.5,485.9 L349.7,486.5 L350.8,487.1
		L352.0,487.7 L353.1,488.2 L354.2,488.8 L355.4,489.4 L356.5,490.0 L357.7,490.6 L358.8,491.2 L360.0,491.8
		L361.1,492.4 L362.2,493.0 L363.4,493.6 L364.5,494.2 L365.7,494.8 L366.8,495.4 L367.9,496.0 L369.1,496.6
		L370.2,497.2 L371.4,497.8 L372.5,498.4 L373.7,499.0 L374.8,499.6 L375.9,500.2 L377.1,500.8 L378.2,501.4
		L379.4,502.0 L380.5,502.6 L381.6,503.2 L382.8,503.8 L383.9,504.4 L385.1,505.0 L386.2,505.6 L387.4,506.2
		L388.5,506.8 L389.6,507.4 L390.8,508.0 L391.9,508.6 L393.1,509.2 L394.2,509.8 L395.3,510.4 L396.5,511.1
		L397.6,511.7 L398.8,512.3 L399.9,512.9 L401.1,513.5 L402.2,514.1 L403.3,514.7 L404.5,515.3 L405.6,515.9
		L406.8,516.6 L407.9,517.2 L409.0,517.8 L410.2,518.4 L411.3,519.0 L412.5,519.6 L413.6,520.2 L414.8,520.9
		L415.9,521.5 L417.0,522.1 L418.2,522.7 L419.3,523.3 L420.5,524.0 L421.6,524.6 L422.7,525.2 L423.9,525.8
		L425.0,526.4 L426.2,527.1 L427.3,527.7 L428.5,528.3 L429.6,528.9 L430.7,529.5 L431.9,530.2 L433.0,530.8
		L434.2,531.4 L435.3,532.0 L436.4,532.7 L437.6,533.3 L438.7,533.9 L439.9,534.5 L441.0,535.2 L442.2,535.8
		L443.3,536.4 L444.4,537.1 L445.6,537.7 L446.7,538.3 L447.9,539.0 L449.0,539.6 L450.1,540.2 L451.3,540.9
		L452.4,541.5 L453.6,542.1 L454.7,542.8 L455.9,543.4 L457.0,544.0 L458.1,544.7 L459.3,545.3 L460.4,545.9
		L461.6,546.6 L462.7,547.2 L463.8,547.9 L465.0,548.5 L466.1,549.1 L467.3,549.8 L468.4,550.4 L469.6,551.1
		L470.7,551.7 L471.8,552.3 L473.0,553.0 L474.1,553.6 L475.3,554.3 L476.4,554.9 L477.5,555.6 L478.7,556.2
		L479.8,556.9 L481.0,557.5 L482.1,558.2 L483.2,558.8 L484.4,559.5 L485.5,560.1 L486.7,560.8 L487.8,561.4
		L489.0,562.1 L490.1,562.7 L491.2,563.4 L492.4,564.0 L493.5,564.7 L494.7,565.3 L495.8,566.0 L496.9,566.6
		L498.1,567.3 L499.2,568.0 L500.4,568.6 L501.5,569.3 L502.7,569.9 L503.8,570.6 L504.9,571.3 L506.1,571.9
		L507.2,572.6 L508.4,573.2 L509.5,573.9 L510.6,574.6 L511.8,575.2 L512.9,575.9 L514.1,576.6 L515.2,577.2
		L516.4,577.9 L517.5,578.6 L518.6,579.3 L519.8,579.9 L520.9,580.6 L522.1,581.3 L523.2,581.9 L524.3,582.6
		L525.5,583.3 L526.6,584.0 L527.8,584.6 L528.9,585.3 L530.1,586.0 L531.2,586.7 L532.3,587.3 L533.5,588.0
		L534.6,588.7 L535.8,589.4 L536.9,590.1 L538.0,590.7 L539.2,591.4 L540.3,592.1 L541.5,592.8 L542.6,593.5
		L543.8,594.2 L544.9,594.8 L546.0,595.5 L547.2,596.2 L548.3,596.9 L549.5,597.6 L550.6,598.3 L551.7,599.0
		L552.9,599.6 L554.0,600.3 L555.2,601.0 L556.3,601.7 L557.5,602.4 L558.6,603.1 L559.7,603.8 L560.9,604.5
		L562.0,605.2 L563.2,605.9 L564.3,606.6 L565.4,607.3 L566.6,608.0 L567.7,608.7 L568.9,609.4 L570.0,610.1
		L571.2,610.8 L572.3,611.4 L573.4,612.1 L574.6,612.8 L575.7,613.5 L576.9,614.2 L578.0,614.9 L579.1,615.6
		L580.3,616.3 L581.4,617.0 L582.6,617.7 L583.7,618.4 L584.9,619.1 L586.0,619.8 L587.1,620.5 L588.3,621.2
		L589.4,621.9 L590.6,622.6 L591.7,623.3 L592.8,624.0 L594.0,624.8 L595.1,625.5 L596.3,626.2 L597.4,626.9
		L598.6,627.6 L599.7,628.3 L600.8,629.0 L602.0,629.7 L603.1,630.3 L604.3,631.0 L605.4,631.7 L606.5,632.4
		L607.7,633.1 L608.8,633.8 L610.0,634.5 L611.1,635.2 L612.3,635.9 L613.4,636.6 L614.5,637.3 L615.7,638.0
		L616.8,638.7 L618.0,639.4 L619.1,640.1 L620.2,640.7 L621.4,641.4 L622.5,642.1 L623.7,642.8 L624.8,643.5
		L626.0,644.2 L627.1,644.8 L628.2,645.5 L629.4,646.2 L630.5,646.8 L631.7,647.5 L632.8,648.2 L633.9,648.8
		L635.1,649.5 L636.2,650.2 L637.4,650.8 L638.5,651.5 L639.7,652.1 L640.8,652.8 L641.9,653.4 L643.1,654.1
		L644.2,654.7 L645.4,655.3 L646.5,656.0 L647.6,656.6 L648.8,657.2 L649.9,657.8 L651.1,658.5 L652.2,659.1
		L653.4,659.7 L654.5,660.3 L655.6,660.9 L656.8,661.5 L657.9,662.1 L659.1,662.7 L660.2,663.2 L661.3,663.8
		L662.5,664.4 L663.6,664.9 L664.8,665.5 L665.9,666.1 L667.1,666.6 L668.2,667.1 L669.3,667.7 L670.5,668.2
		L671.6,668.7 L672.8,669.2 L673.9,669.8 L675.0,670.3 L676.2,670.8 L677.3,671.2 L678.5,671.7 L679.6,672.2
		L680.8,672.7 L681.9,673.1 L683.0,673.6 L684.2,674.0 L685.3,674.4 L686.5,674.9 L687.6,675.3 L688.7,675.7
		L689.9,676.1 L691.0,676.5 L692.2,676.8 L693.3,677.2 L694.5,677.6 L695.6,677.9 L696.7,678.3 L697.9,678.6
		L699.0,678.9 L700.2,679.2 L701.3,679.5 L702.4,679.8 L703.6,680.1 L704.7,680.4 L705.9,680.6 L707.0,680.9
		L708.2,681.1 L709.3,681.3 L710.4,681.6 L711.6,681.8 L712.7,682.0 L713.9,682.2 L715.0,682.3 L716.1,682.5
		L717.3,682.6 L718.4,682.8 L719.6,682.9 L720.7,683.0 L721.9,683.2 L723.0,683.3 L724.1,683.3 L725.3,683.4
		L726.4,683.5 L727.6,683.5 L728.7,683.6 L729.8,683.6 L731.0,683.7 L732.1,683.7 L733.3,683.7 L734.4,683.7
		L735.6,683.6 L736.7,683.6 L737.8,683.6 L739.0,683.5 L740.1,683.5 L741.3,683.4 L742.4,683.3 L743.5,683.2
		L744.7,683.1 L745.8,683.0 L747.0,682.9 L748.1,682.8 L749.3,682.7 L750.4,682.5 L751.5,682.4 L752.7,682.2
		L753.8,682.1 L755.0,681.9 L756.1,681.7 L757.2,681.5 L758.4,681.3 L759.5,681.1 L760.7,680.9 L761.8,680.7
		L763.0,680.4 L764.1,680.2 L765.2,679.9 L766.4,679.7 L767.5,679.4 L768.7,679.2 L769.8,678.9 L770.9,678.6
		L772.1,678.3 L773.2,678.1 L774.4,677.8 L775.5,677.5 L776.7,677.2 L777.8,676.9 L778.9,676.5 L780.1,676.2
		L781.2,675.9 L782.4,675.6 L783.5,675.2 L784.6,674.9 L785.8,674.5 L786.9,674.2 L788.1,673.8 L789.2,673.5
		L790.4,673.1 L791.5,672.8 L792.6,672.4 L793.8,672.0 L794.9,671.7 L796.1,671.3 L797.2,670.9 L798.3,670.5
		L799.5,670.1 L800.6,669.8 L801.8,669.4 L802.9,669.0 L804.1,668.6 L805.2,668.2 L806.3,667.8 L807.5,667.4
		L808.6,667.0 L809.8,666.6 L810.9,666.2 L812.0,665.8 L813.2,665.4 L814.3,664.9 L815.5,664.5 L816.6,664.1
		L817.8,663.7 L818.9,663.3 L820.0,662.9 L821.2,662.4 L822.3,662.0 L823.5,661.6 L824.6,661.2 L825.7,660.8
		L826.9,660.3 L828.0,659.9 L829.2,659.5 L830.3,659.1 L831.5,658.6 L832.6,658.2 L833.7,657.8 L834.9,657.4
		L836.0,656.9 L837.2,656.5 L838.3,656.1 L839.4,655.6 L840.6,655.2 L841.7,654.8 L842.9,654.4 L844.0,653.9
		L845.2,653.5 L846.3,653.1 L847.4,652.6 L848.6,652.2 L849.7,651.8 L850.9,651.4 L852.0,650.9 L853.1,650.5
		L854.3,650.1 L855.4,649.7 L856.6,649.2 L857.7,648.8 L858.9,648.4 L860.0,648.0 L861.1,647.5 L862.3,647.1
		L863.4,646.7 L864.6,646.3 L865.7,645.9 L866.8,645.4 L868.0,645.0 L869.1,644.6 L870.3,644.2 L871.4,643.8
		L872.5,643.3 L873.7,642.9 L874.8,642.5 L876.0,642.1 L877.1,641.7 L878.3,641.3 L879.4,640.9 L880.5,640.4
		L881.7,640.0 L882.8,639.6 L884.0,639.2 L885.1,638.8 L886.2,638.4 L887.4,638.0 L888.5,637.6 L889.7,637.2
		L890.8,636.8 L892.0,636.4 L893.1,636.0 L894.2,635.6 L895.4,635.2 L896.5,634.8 L897.7,634.4 L898.8,634.0
		L899.9,633.6 L901.1,633.2 L902.2,632.8 L903.4,632.4 L904.5,632.0 L905.7,631.6 L906.8,631.2 L907.9,630.9
		L909.1,630.5 L910.2,630.1 L911.4,629.7 L912.5,629.3 L913.6,628.9 L914.8,628.5 L915.9,628.2 L917.1,627.8
		L918.2,627.4 L919.4,627.0 L920.5,626.6 L921.6,626.3 L922.8,625.9 L923.9,625.5 L925.1,625.1 L926.2,624.8
		L927.3,624.4 L928.5,624.0 L929.6,623.7 L930.8,623.3 L931.9,622.9 L933.1,622.6 L934.2,622.2 L935.3,621.8
		L936.5,621.5 L937.6,621.1 L938.8,620.8 L939.9,620.4 L941.0,620.0 L942.2,619.7 L943.3,619.3 L944.5,619.0
		L945.6,618.6 L946.8,618.3 L947.9,617.9 L949.0,617.6 L950.2,617.2 L951.3,616.9 L952.5,616.5 L953.6,616.2
		L954.7,615.8 L955.9,615.5 L957.0,615.1 L958.2,614.8 L959.3,614.5 L960.5,614.1 L961.6,613.8 L962.7,613.4
		L963.9,613.1 L965.0,612.8 L966.2,612.4 L967.3,612.1 L968.4,611.8 L969.6,611.4 L970.7,611.1 L971.9,610.8
		L973.0,610.5 L974.2,610.1 L975.3,609.8 L976.4,609.5 L977.6,609.2 L978.7,608.8 L979.9,608.5 L981.0,608.2
		L982.1,607.9 L983.3,607.6 L984.4,607.2 L985.6,606.9 L986.7,606.6 L987.9,606.3 L989.0,606.0 L990.1,605.7
		L991.3,605.4 L992.4,605.0 L993.6,604.7 L994.7,604.4 L995.8,604.1 L997.0,603.8 L998.1,603.5 L999.3,603.2
		L1000.4,602.9 L1001.6,602.6 L1002.7,602.3 L1003.8,602.0 L1005.0,601.7 L1006.1,601.4 L1007.3,601.1 L1008.4,600.8
		L1009.5,600.5 L1010.7,600.2 L1011.8,600.0 L1013.0,599.7 L1014.1,599.4 L1015.3,599.1 L1016.4,598.8 L1017.5,598.5
		L1018.7,598.2 L1019.8,598.0 L1021.0,597.7 L1022.1,597.4 L1023.2,597.1 L1024.4,596.8 L1025.5,596.6 L1026.7,596.3
		L1027.8,596.0 L1029.0,595.7 L1030.1,595.5 L1031.2,595.2 L1032.4,594.9 L1033.5,594.6 L1034.7,594.4 L1035.8,594.1
		L1036.9,593.8 L1038.1,593.6 L1039.2,593.3 L1040.4,593.1 L1041.5,592.8 L1042.7,592.5 L1043.8,592.3 L1044.9,592.0
		L1046.1,591.8 L1047.2,591.5 L1048.4,591.2 L1049.5,591.0 L1050.6,590.7 L1051.8,590.5 L1052.9,590.2 L1054.1,590.0
		L1055.2,589.7 L1056.4,589.5 L1057.5,589.2 L1058.6,589.0 L1059.8,588.8 L1060.9,588.5 L1062.1,588.3 L1063.2,588.0
		L1064.3,587.8 L1065.5,587.6 L1066.6,587.3 L1067.8,587.1 L1068.9,586.9 L1070.1,586.6 L1071.2,586.4 L1072.3,586.2
		L1073.5,585.9 L1074.6,585.7 L1075.8,585.5 L1076.9,585.2 L1078.0,585.0 L1079.2,584.8 L1080.3,584.6 L1081.5,584.4
		L1082.6,584.1 L1083.8,583.9 L1084.9,583.7 L1086.0,583.5 L1087.2,583.3 L1088.3,583.1 L1089.5,582.8 L1090.6,582.6
		L1091.7,582.4 L1092.9,582.2 L1094.0,582.0 L1095.2,581.8 L1096.3,581.6 L1097.5,581.4 L1098.6,581.2 L1099.7,581.0
		L1100.9,580.8 L1102.0,580.6 L1103.2,580.4 L1104.3,580.2 L1105.4,580.0 L1106.6,579.8 L1107.7,579.6 L1108.9,579.4
		L1110.0,579.2 L1111.2,579.0 L1112.3,578.9 L1113.4,578.7 L1114.6,578.5 L1115.7,578.3 L1116.9,578.1 L1118.0,577.9
		L1119.1,577.8 L1120.3,577.6 L1121.4,577.4 L1122.6,577.2 L1123.7,577.1 L1124.9,576.9 L1126.0,576.7 L1127.1,576.5
		L1128.3,576.4 L1129.4,576.2 L1130.6,576.0 L1131.7,575.9 L1132.8,575.7 L1134.0,575.6 L1135.1,575.4 L1136.3,575.2
		L1137.4,575.1 L1138.6,574.9 L1139.7,574.8 L1140.8,574.6 L1142.0,574.5 L1143.1,574.3 L1144.3,574.2 L1145.4,574.0
		L1146.5,573.9 L1147.7,573.7 L1148.8,573.6 L1150.0,573.4 L1151.1,573.3 L1152.3,573.2 L1153.4,573.0 L1154.5,572.9
		L1155.7,572.7 L1156.8,572.6 L1158.0,572.5 L1159.1,572.4 L1160.2,572.2 L1161.4,572.1 L1162.5,572.0 L1163.7,571.8
		L1164.8,571.7 L1166.0,571.6 L1167.1,571.5 L1168.2,571.4 L1169.4,571.2 L1170.5,571.1 L1171.7,571.0 L1172.8,570.9
		L1173.9,570.8 L1175.1,570.7 L1176.2,570.6 L1177.4,570.5 L1178.5,570.3 L1179.7,570.2 L1180.8,570.1 L1181.9,570.0
		L1183.1,569.9 L1184.2,569.8 L1185.4,569.7 L1186.5,569.7 L1187.6,569.6 L1188.8,569.5 L1189.9,569.4 L1191.1,569.3
		L1192.2,569.2 L1193.4,569.1 L1194.5,569.0 L1195.6,568.9 L1196.8,568.9 L1197.9,568.8 L1199.1,568.7 L1200.2,568.6
		L1201.3,568.5 L1202.5,568.5 L1203.6,568.4 L1204.8,568.3 L1205.9,568.3 L1207.1,568.2 L1208.2,568.1 L1209.3,568.1
		L1210.5,568.0 L1211.6,567.9 L1212.8,567.9 L1213.9,567.8 L1215.0,567.8 L1216.2,567.7 L1217.3,567.7 L1218.5,567.6
		L1219.6,567.6 L1220.8,567.5 L1221.9,567.5 L1223.0,567.4 L1224.2,567.4 L1225.3,567.3 L1226.5,567.3 L1227.6,567.2
		L1228.7,567.2 L1229.9,567.2 L1231.0,567.1 L1232.2,567.1 L1233.3,567.1 L1234.5,567.0 L1235.6,567.0 L1236.7,567.0
		L1237.9,567.0 L1239.0,566.9 L1240.2,566.9 L1241.3,566.9 L1242.4,566.9 L1243.6,566.9 L1244.7,566.9 L1245.9,566.8
		L1247.0,566.8 L1248.2,566.8 L1249.3,566.8 L1250.4,566.8 L1251.6,566.8 L1252.7,566.8 L1253.9,566.8 L1255.0,566.8
		 '/></g>
	</g>
<g fill="none" color="white" stroke="rgb(  0,   0, 255)" stroke-width="2.00" stroke-linecap="butt" stroke-linejoin="miter">
</g>
<g fill="none" color="black" stroke="currentColor" stroke-width="2.00" stroke-linecap="butt" stroke-linejoin="miter">
</g>
<g fill="none" color="black" stroke="black" stroke-width="1.00" stroke-linecap="butt" stroke-linejoin="miter">
</g>
<g fill="none" color="black" stroke="currentColor" stroke-width="1.00" stroke-linecap="butt" stroke-linejoin="miter">
	<path stroke='black'  d='M87.1,54.1 L87.1,684.0 L1255.0,684.0 L1255.0,54.1 L87.1,54.1 Z  '/></g>
<g fill="none" color="black" stroke="currentColor" stroke-width="1.00" stroke-linecap="butt" stroke-linejoin="miter">
</g>
</g>
</svg>

