<?xml version="1.0" encoding="utf-8"  standalone="no"?>
<svg 
 width="1280" height="720"
 viewBox="0 0 1280 720"
 xmlns="http://www.w3.org/2000/svg"
 xmlns:xlink="http://www.w3.org/1999/xlink"
>

<title>Gnuplot</title>
<desc>Produced by GNUPLOT 5.0 patchlevel 6 </desc>

<g id="gnuplot_canvas">

<rect x="0" y="0" width="1280" height="720" fill="none"/>
<defs>

	<circle id='gpDot' r='0.5' stroke-width='0.5'/>
	<path id='gpPt0' stroke-width='0.222' stroke='currentColor' d='M-1,0 h2 M0,-1 v2'/>
	<path id='gpPt1' stroke-width='0.222' stroke='currentColor' d='M-1,-1 L1,1 M1,-1 L-1,1'/>
	<path id='gpPt2' stroke-width='0.222' stroke='currentColor' d='M-1,0 L1,0 M0,-1 L0,1 M-1,-1 L1,1 M-1,1 L1,-1'/>
	<rect id='gpPt3' stroke-width='0.222' stroke='currentColor' x='-1' y='-1' width='2' height='2'/>
	<rect id='gpPt4' stroke-width='0.222' stroke='currentColor' fill='currentColor' x='-1' y='-1' width='2' height='2'/>
	<circle id='gpPt5' stroke-width='0.222' stroke='currentColor' cx='0' cy='0' r='1'/>
	<use xlink:href='#gpPt5' id='gpPt6' fill='currentColor' stroke='none'/>
	<path id='gpPt7' stroke-width='0.222' stroke='currentColor' d='M0,-1.33 L-1.33,0.67 L1.33,0.67 z'/>
	<use xlink:href='#gpPt7' id='gpPt8' fill='currentColor' stroke='none'/>
	<use xlink:href='#gpPt7' id='gpPt9' stroke='currentColor' transform='rotate(180)'/>
	<use xlink:href='#gpPt9' id='gpPt10' fill='currentColor' stroke='none'/>
	<use xlink:href='#gpPt3' id='gpPt11' stroke='currentColor' transform='rotate(45)'/>
	<use xlink:href='#gpPt11' id='gpPt12' fill='currentColor' stroke='none'/>
	<path id='gpPt13' stroke-width='0.222' stroke='currentColor' d='M0,1.330 L1.265,0.411 L0.782,-1.067 L-0.782,-1.076 L-1.265,0.411 z'/>
	<use xlink:href='#gpPt13' id='gpPt14' fill='currentColor' stroke='none'/>
	<filter id='textbox' filterUnits='objectBoundingBox' x='0' y='0' height='1' width='1'>
	  <feFlood flood-color='white' flood-opacity='1' result='bgnd'/>
	  <feComposite in='SourceGraphic' in2='bgnd' operator='atop'/>
	</filter>
	<filter id='greybox' filterUnits='objectBoundingBox' x='0' y='0' height='1' width='1'>
	  <feFlood flood-color='lightgrey' flood-opacity='1' result='grey'/>
	  <feComposite in='SourceGraphic' in2='grey' operator='atop'/>
	</filter>
</defs>
<g fill="none" color="white" stroke="currentColor" stroke-width="1.00" stroke-linecap="butt" stroke-linejoin="miter">
</g>
<g fill="none" color="black" stroke="currentColor" stroke-width="1.00" stroke-linecap="butt" stroke-linejoin="miter">
	<path stroke='black'  d='M103.7,684.0 L112.7,684.0 M1255.0,684.0 L1246.0,684.0  '/>	<g transform="translate(95.4,687.9)" stroke="none" fill="black" font-family="Arial" font-size="12.00"  text-anchor="end">
		<text><tspan font-family="Arial" > 0.001208</tspan></text>
	</g>
</g>
<g fill="none" color="black" stroke="currentColor" stroke-width="1.00" stroke-linecap="butt" stroke-linejoin="miter">
	<path stroke='black'  d='M103.7,369.0 L112.7,369.0 M1255.0,369.0 L1246.0,369.0  '/>	<g transform="translate(95.4,372.9)" stroke="none" fill="black" font-family="Arial" font-size="12.00"  text-anchor="end">
		<text><tspan font-family="Arial" > 0.0358175</tspan></text>
	</g>
</g>
<g fill="none" color="black" stroke="currentColor" stroke-width="1.00" stroke-linecap="butt" stroke-linejoin="miter">
	<path stroke='black'  d='M103.7,54.1 L112.7,54.1 M1255.0,54.1 L1246.0,54.1  '/>	<g transform="translate(95.4,58.0)" stroke="none" fill="black" font-family="Arial" font-size="12.00"  text-anchor="end">
		<text><tspan font-family="Arial" > 1.062</tspan></text>
	</g>
</g>
<g fill="none" color="black" stroke="currentColor" stroke-width="1.00" stroke-linecap="butt" stroke-linejoin="miter">
	<path stroke='black'  d='M103.7,684.0 L103.7,675.0 M103.7,54.1 L103.7,63.1  '/>	<g transform="translate(103.7,705.9)" stroke="none" fill="black" font-family="Arial" font-size="12.00"  text-anchor="middle">
		<text><tspan font-family="Arial" > 0</tspan></text>
	</g>
</g>
<g fill="none" color="black" stroke="currentColor" stroke-width="1.00" stroke-linecap="butt" stroke-linejoin="miter">
	<path stroke='black'  d='M679.4,684.0 L679.4,675.0 M679.4,54.1 L679.4,63.1  '/>	<g transform="translate(679.4,705.9)" stroke="none" fill="black" font-family="Arial" font-size="12.00"  text-anchor="middle">
		<text><tspan font-family="Arial" >pi/2</tspan></text>
	</g>
</g>
<g fill="none" color="black" stroke="currentColor" stroke-width="1.00" stroke-linecap="butt" stroke-linejoin="miter">
	<path stroke='black'  d='M1255.0,684.0 L1255.0,675.0 M1255.0,54.1 L1255.0,63.1  '/>	<g transform="translate(1255.0,705.9)" stroke="none" fill="black" font-family="Arial" font-size="12.00"  text-anchor="middle">
		<text><tspan font-family="Arial" >pi</tspan></text>
	</g>
</g>
<g fill="none" color="black" stroke="currentColor" stroke-width="1.00" stroke-linecap="butt" stroke-linejoin="miter">
</g>
<g fill="none" color="black" stroke="currentColor" stroke-width="1.00" stroke-linecap="butt" stroke-linejoin="miter">
	<path stroke='black'  d='M103.7,54.1 L103.7,684.0 L1255.0,684.0 L1255.0,54.1 L103.7,54.1 Z  '/></g>
<g fill="none" color="black" stroke="currentColor" stroke-width="1.00" stroke-linecap="butt" stroke-linejoin="miter">
	<g transform="translate(679.3,31.0)" stroke="none" fill="black" font-family="Arial" font-size="12.00"  text-anchor="middle">
		<text><tspan font-family="Arial" >Material 22, with 4 components</tspan></text>
	</g>
</g>
	<g id="gnuplot_plot_1" ><title>scattering function</title>
<g fill="none" color="black" stroke="currentColor" stroke-width="1.00" stroke-linecap="butt" stroke-linejoin="miter">
	<g transform="translate(1187.9,76.0)" stroke="none" fill="black" font-family="Arial" font-size="12.00"  text-anchor="end">
		<text><tspan font-family="Arial" >scattering function</tspan></text>
	</g>
</g>
<g fill="none" color="black" stroke="currentColor" stroke-width="1.00" stroke-linecap="butt" stroke-linejoin="miter">
	<use xlink:href='#gpPt5' transform='translate(103.7,106.3) scale(2.25)' color='rgb(255,   0,   0)'/>
	<use xlink:href='#gpPt5' transform='translate(104.3,107.1) scale(2.25)' color='rgb(255,   0,   0)'/>
	<use xlink:href='#gpPt5' transform='translate(105.0,109.4) scale(2.25)' color='rgb(255,   0,   0)'/>
	<use xlink:href='#gpPt5' transform='translate(105.6,113.2) scale(2.25)' color='rgb(255,   0,   0)'/>
	<use xlink:href='#gpPt5' transform='translate(106.3,118.3) scale(2.25)' color='rgb(255,   0,   0)'/>
	<use xlink:href='#gpPt5' transform='translate(106.9,124.5) scale(2.25)' color='rgb(255,   0,   0)'/>
	<use xlink:href='#gpPt5' transform='translate(107.5,131.6) scale(2.25)' color='rgb(255,   0,   0)'/>
	<use xlink:href='#gpPt5' transform='translate(108.2,139.2) scale(2.25)' color='rgb(255,   0,   0)'/>
	<use xlink:href='#gpPt5' transform='translate(108.8,146.9) scale(2.25)' color='rgb(255,   0,   0)'/>
	<use xlink:href='#gpPt5' transform='translate(109.5,154.7) scale(2.25)' color='rgb(255,   0,   0)'/>
	<use xlink:href='#gpPt5' transform='translate(110.1,162.2) scale(2.25)' color='rgb(255,   0,   0)'/>
	<use xlink:href='#gpPt5' transform='translate(110.7,169.3) scale(2.25)' color='rgb(255,   0,   0)'/>
	<use xlink:href='#gpPt5' transform='translate(111.4,175.9) scale(2.25)' color='rgb(255,   0,   0)'/>
	<use xlink:href='#gpPt5' transform='translate(112.0,182.1) scale(2.25)' color='rgb(255,   0,   0)'/>
	<use xlink:href='#gpPt5' transform='translate(112.7,187.8) scale(2.25)' color='rgb(255,   0,   0)'/>
	<use xlink:href='#gpPt5' transform='translate(113.3,193.2) scale(2.25)' color='rgb(255,   0,   0)'/>
	<use xlink:href='#gpPt5' transform='translate(113.9,198.3) scale(2.25)' color='rgb(255,   0,   0)'/>
	<use xlink:href='#gpPt5' transform='translate(114.6,203.1) scale(2.25)' color='rgb(255,   0,   0)'/>
	<use xlink:href='#gpPt5' transform='translate(115.2,207.7) scale(2.25)' color='rgb(255,   0,   0)'/>
	<use xlink:href='#gpPt5' transform='translate(115.9,212.0) scale(2.25)' color='rgb(255,   0,   0)'/>
	<use xlink:href='#gpPt5' transform='translate(116.5,216.0) scale(2.25)' color='rgb(255,   0,   0)'/>
	<use xlink:href='#gpPt5' transform='translate(122.9,245.9) scale(2.25)' color='rgb(255,   0,   0)'/>
	<use xlink:href='#gpPt5' transform='translate(129.3,263.4) scale(2.25)' color='rgb(255,   0,   0)'/>
	<use xlink:href='#gpPt5' transform='translate(135.7,274.6) scale(2.25)' color='rgb(255,   0,   0)'/>
	<use xlink:href='#gpPt5' transform='translate(142.1,282.5) scale(2.25)' color='rgb(255,   0,   0)'/>
	<use xlink:href='#gpPt5' transform='translate(154.9,294.0) scale(2.25)' color='rgb(255,   0,   0)'/>
	<use xlink:href='#gpPt5' transform='translate(167.7,303.1) scale(2.25)' color='rgb(255,   0,   0)'/>
	<use xlink:href='#gpPt5' transform='translate(180.5,311.7) scale(2.25)' color='rgb(255,   0,   0)'/>
	<use xlink:href='#gpPt5' transform='translate(193.2,320.2) scale(2.25)' color='rgb(255,   0,   0)'/>
	<use xlink:href='#gpPt5' transform='translate(206.0,328.8) scale(2.25)' color='rgb(255,   0,   0)'/>
	<use xlink:href='#gpPt5' transform='translate(218.8,337.6) scale(2.25)' color='rgb(255,   0,   0)'/>
	<use xlink:href='#gpPt5' transform='translate(231.6,346.5) scale(2.25)' color='rgb(255,   0,   0)'/>
	<use xlink:href='#gpPt5' transform='translate(244.4,355.6) scale(2.25)' color='rgb(255,   0,   0)'/>
	<use xlink:href='#gpPt5' transform='translate(257.2,364.8) scale(2.25)' color='rgb(255,   0,   0)'/>
	<use xlink:href='#gpPt5' transform='translate(270.0,374.2) scale(2.25)' color='rgb(255,   0,   0)'/>
	<use xlink:href='#gpPt5' transform='translate(282.8,383.6) scale(2.25)' color='rgb(255,   0,   0)'/>
	<use xlink:href='#gpPt5' transform='translate(295.6,393.1) scale(2.25)' color='rgb(255,   0,   0)'/>
	<use xlink:href='#gpPt5' transform='translate(308.4,402.6) scale(2.25)' color='rgb(255,   0,   0)'/>
	<use xlink:href='#gpPt5' transform='translate(321.2,412.1) scale(2.25)' color='rgb(255,   0,   0)'/>
	<use xlink:href='#gpPt5' transform='translate(334.0,421.6) scale(2.25)' color='rgb(255,   0,   0)'/>
	<use xlink:href='#gpPt5' transform='translate(346.8,431.0) scale(2.25)' color='rgb(255,   0,   0)'/>
	<use xlink:href='#gpPt5' transform='translate(359.5,440.5) scale(2.25)' color='rgb(255,   0,   0)'/>
	<use xlink:href='#gpPt5' transform='translate(372.3,449.9) scale(2.25)' color='rgb(255,   0,   0)'/>
	<use xlink:href='#gpPt5' transform='translate(385.1,459.2) scale(2.25)' color='rgb(255,   0,   0)'/>
	<use xlink:href='#gpPt5' transform='translate(397.9,468.5) scale(2.25)' color='rgb(255,   0,   0)'/>
	<use xlink:href='#gpPt5' transform='translate(410.7,477.7) scale(2.25)' color='rgb(255,   0,   0)'/>
	<use xlink:href='#gpPt5' transform='translate(423.5,486.8) scale(2.25)' color='rgb(255,   0,   0)'/>
	<use xlink:href='#gpPt5' transform='translate(436.3,495.8) scale(2.25)' color='rgb(255,   0,   0)'/>
	<use xlink:href='#gpPt5' transform='translate(449.1,504.7) scale(2.25)' color='rgb(255,   0,   0)'/>
	<use xlink:href='#gpPt5' transform='translate(461.9,513.4) scale(2.25)' color='rgb(255,   0,   0)'/>
	<use xlink:href='#gpPt5' transform='translate(474.7,522.0) scale(2.25)' color='rgb(255,   0,   0)'/>
	<use xlink:href='#gpPt5' transform='translate(487.5,530.5) scale(2.25)' color='rgb(255,   0,   0)'/>
	<use xlink:href='#gpPt5' transform='translate(500.3,538.9) scale(2.25)' color='rgb(255,   0,   0)'/>
	<use xlink:href='#gpPt5' transform='translate(513.1,547.1) scale(2.25)' color='rgb(255,   0,   0)'/>
	<use xlink:href='#gpPt5' transform='translate(525.8,555.2) scale(2.25)' color='rgb(255,   0,   0)'/>
	<use xlink:href='#gpPt5' transform='translate(538.6,563.1) scale(2.25)' color='rgb(255,   0,   0)'/>
	<use xlink:href='#gpPt5' transform='translate(551.4,570.8) scale(2.25)' color='rgb(255,   0,   0)'/>
	<use xlink:href='#gpPt5' transform='translate(564.2,578.4) scale(2.25)' color='rgb(255,   0,   0)'/>
	<use xlink:href='#gpPt5' transform='translate(577.0,585.8) scale(2.25)' color='rgb(255,   0,   0)'/>
	<use xlink:href='#gpPt5' transform='translate(589.8,593.0) scale(2.25)' color='rgb(255,   0,   0)'/>
	<use xlink:href='#gpPt5' transform='translate(602.6,599.9) scale(2.25)' color='rgb(255,   0,   0)'/>
	<use xlink:href='#gpPt5' transform='translate(615.4,606.7) scale(2.25)' color='rgb(255,   0,   0)'/>
	<use xlink:href='#gpPt5' transform='translate(628.2,613.1) scale(2.25)' color='rgb(255,   0,   0)'/>
	<use xlink:href='#gpPt5' transform='translate(641.0,619.4) scale(2.25)' color='rgb(255,   0,   0)'/>
	<use xlink:href='#gpPt5' transform='translate(653.8,625.4) scale(2.25)' color='rgb(255,   0,   0)'/>
	<use xlink:href='#gpPt5' transform='translate(666.6,631.3) scale(2.25)' color='rgb(255,   0,   0)'/>
	<use xlink:href='#gpPt5' transform='translate(679.4,636.8) scale(2.25)' color='rgb(255,   0,   0)'/>
	<use xlink:href='#gpPt5' transform='translate(692.1,642.0) scale(2.25)' color='rgb(255,   0,   0)'/>
	<use xlink:href='#gpPt5' transform='translate(704.9,647.0) scale(2.25)' color='rgb(255,   0,   0)'/>
	<use xlink:href='#gpPt5' transform='translate(717.7,651.6) scale(2.25)' color='rgb(255,   0,   0)'/>
	<use xlink:href='#gpPt5' transform='translate(730.5,656.0) scale(2.25)' color='rgb(255,   0,   0)'/>
	<use xlink:href='#gpPt5' transform='translate(743.3,660.0) scale(2.25)' color='rgb(255,   0,   0)'/>
	<use xlink:href='#gpPt5' transform='translate(756.1,663.8) scale(2.25)' color='rgb(255,   0,   0)'/>
	<use xlink:href='#gpPt5' transform='translate(768.9,667.2) scale(2.25)' color='rgb(255,   0,   0)'/>
	<use xlink:href='#gpPt5' transform='translate(781.7,670.3) scale(2.25)' color='rgb(255,   0,   0)'/>
	<use xlink:href='#gpPt5' transform='translate(794.5,673.1) scale(2.25)' color='rgb(255,   0,   0)'/>
	<use xlink:href='#gpPt5' transform='translate(807.3,675.6) scale(2.25)' color='rgb(255,   0,   0)'/>
	<use xlink:href='#gpPt5' transform='translate(820.1,677.7) scale(2.25)' color='rgb(255,   0,   0)'/>
	<use xlink:href='#gpPt5' transform='translate(832.9,679.4) scale(2.25)' color='rgb(255,   0,   0)'/>
	<use xlink:href='#gpPt5' transform='translate(845.6,681.0) scale(2.25)' color='rgb(255,   0,   0)'/>
	<use xlink:href='#gpPt5' transform='translate(858.4,682.2) scale(2.25)' color='rgb(255,   0,   0)'/>
	<use xlink:href='#gpPt5' transform='translate(871.2,683.1) scale(2.25)' color='rgb(255,   0,   0)'/>
	<use xlink:href='#gpPt5' transform='translate(884.0,683.6) scale(2.25)' color='rgb(255,   0,   0)'/>
	<use xlink:href='#gpPt5' transform='translate(896.8,683.9) scale(2.25)' color='rgb(255,   0,   0)'/>
	<use xlink:href='#gpPt5' transform='translate(909.6,684.0) scale(2.25)' color='rgb(255,   0,   0)'/>
	<use xlink:href='#gpPt5' transform='translate(922.4,683.8) scale(2.25)' color='rgb(255,   0,   0)'/>
	<use xlink:href='#gpPt5' transform='translate(935.2,683.3) scale(2.25)' color='rgb(255,   0,   0)'/>
	<use xlink:href='#gpPt5' transform='translate(948.0,682.6) scale(2.25)' color='rgb(255,   0,   0)'/>
	<use xlink:href='#gpPt5' transform='translate(960.8,681.6) scale(2.25)' color='rgb(255,   0,   0)'/>
	<use xlink:href='#gpPt5' transform='translate(973.6,680.5) scale(2.25)' color='rgb(255,   0,   0)'/>
	<use xlink:href='#gpPt5' transform='translate(986.4,679.1) scale(2.25)' color='rgb(255,   0,   0)'/>
	<use xlink:href='#gpPt5' transform='translate(999.2,677.5) scale(2.25)' color='rgb(255,   0,   0)'/>
	<use xlink:href='#gpPt5' transform='translate(1011.9,675.8) scale(2.25)' color='rgb(255,   0,   0)'/>
	<use xlink:href='#gpPt5' transform='translate(1024.7,673.9) scale(2.25)' color='rgb(255,   0,   0)'/>
	<use xlink:href='#gpPt5' transform='translate(1037.5,671.9) scale(2.25)' color='rgb(255,   0,   0)'/>
	<use xlink:href='#gpPt5' transform='translate(1050.3,669.8) scale(2.25)' color='rgb(255,   0,   0)'/>
	<use xlink:href='#gpPt5' transform='translate(1063.1,667.5) scale(2.25)' color='rgb(255,   0,   0)'/>
	<use xlink:href='#gpPt5' transform='translate(1075.9,665.3) scale(2.25)' color='rgb(255,   0,   0)'/>
	<use xlink:href='#gpPt5' transform='translate(1088.7,663.0) scale(2.25)' color='rgb(255,   0,   0)'/>
	<use xlink:href='#gpPt5' transform='translate(1101.5,660.8) scale(2.25)' color='rgb(255,   0,   0)'/>
	<use xlink:href='#gpPt5' transform='translate(1114.3,658.7) scale(2.25)' color='rgb(255,   0,   0)'/>
	<use xlink:href='#gpPt5' transform='translate(1127.1,656.9) scale(2.25)' color='rgb(255,   0,   0)'/>
	<use xlink:href='#gpPt5' transform='translate(1139.9,655.5) scale(2.25)' color='rgb(255,   0,   0)'/>
	<use xlink:href='#gpPt5' transform='translate(1152.7,654.4) scale(2.25)' color='rgb(255,   0,   0)'/>
	<use xlink:href='#gpPt5' transform='translate(1165.5,653.5) scale(2.25)' color='rgb(255,   0,   0)'/>
	<use xlink:href='#gpPt5' transform='translate(1178.2,652.6) scale(2.25)' color='rgb(255,   0,   0)'/>
	<use xlink:href='#gpPt5' transform='translate(1191.0,651.4) scale(2.25)' color='rgb(255,   0,   0)'/>
	<use xlink:href='#gpPt5' transform='translate(1203.8,649.7) scale(2.25)' color='rgb(255,   0,   0)'/>
	<use xlink:href='#gpPt5' transform='translate(1216.6,647.5) scale(2.25)' color='rgb(255,   0,   0)'/>
	<use xlink:href='#gpPt5' transform='translate(1229.4,645.4) scale(2.25)' color='rgb(255,   0,   0)'/>
	<use xlink:href='#gpPt5' transform='translate(1242.2,644.1) scale(2.25)' color='rgb(255,   0,   0)'/>
	<use xlink:href='#gpPt5' transform='translate(1255.0,643.1) scale(2.25)' color='rgb(255,   0,   0)'/>
	<use xlink:href='#gpPt5' transform='translate(1217.3,72.1) scale(2.25)' color='rgb(255,   0,   0)'/>
</g>
	</g>
	<g id="gnuplot_plot_2" ><title>gnuplot_plot_2</title>
<g fill="none" color="black" stroke="currentColor" stroke-width="1.00" stroke-linecap="butt" stroke-linejoin="miter">
	<use xlink:href='#gpPt5' transform='translate(103.7,90.5) scale(2.25)' color='rgb(  0, 100,   0)'/>
	<use xlink:href='#gpPt5' transform='translate(104.3,91.4) scale(2.25)' color='rgb(  0, 100,   0)'/>
	<use xlink:href='#gpPt5' transform='translate(105.0,94.2) scale(2.25)' color='rgb(  0, 100,   0)'/>
	<use xlink:href='#gpPt5' transform='translate(105.6,98.6) scale(2.25)' color='rgb(  0, 100,   0)'/>
	<use xlink:href='#gpPt5' transform='translate(106.3,104.6) scale(2.25)' color='rgb(  0, 100,   0)'/>
	<use xlink:href='#gpPt5' transform='translate(106.9,111.8) scale(2.25)' color='rgb(  0, 100,   0)'/>
	<use xlink:href='#gpPt5' transform='translate(107.5,119.7) scale(2.25)' color='rgb(  0, 100,   0)'/>
	<use xlink:href='#gpPt5' transform='translate(108.2,128.2) scale(2.25)' color='rgb(  0, 100,   0)'/>
	<use xlink:href='#gpPt5' transform='translate(108.8,136.7) scale(2.25)' color='rgb(  0, 100,   0)'/>
	<use xlink:href='#gpPt5' transform='translate(109.5,144.9) scale(2.25)' color='rgb(  0, 100,   0)'/>
	<use xlink:href='#gpPt5' transform='translate(110.1,152.7) scale(2.25)' color='rgb(  0, 100,   0)'/>
	<use xlink:href='#gpPt5' transform='translate(110.7,159.9) scale(2.25)' color='rgb(  0, 100,   0)'/>
	<use xlink:href='#gpPt5' transform='translate(111.4,166.6) scale(2.25)' color='rgb(  0, 100,   0)'/>
	<use xlink:href='#gpPt5' transform='translate(112.0,172.7) scale(2.25)' color='rgb(  0, 100,   0)'/>
	<use xlink:href='#gpPt5' transform='translate(112.7,178.5) scale(2.25)' color='rgb(  0, 100,   0)'/>
	<use xlink:href='#gpPt5' transform='translate(113.3,183.9) scale(2.25)' color='rgb(  0, 100,   0)'/>
	<use xlink:href='#gpPt5' transform='translate(113.9,189.0) scale(2.25)' color='rgb(  0, 100,   0)'/>
	<use xlink:href='#gpPt5' transform='translate(114.6,193.8) scale(2.25)' color='rgb(  0, 100,   0)'/>
	<use xlink:href='#gpPt5' transform='translate(115.2,198.3) scale(2.25)' color='rgb(  0, 100,   0)'/>
	<use xlink:href='#gpPt5' transform='translate(115.9,202.5) scale(2.25)' color='rgb(  0, 100,   0)'/>
	<use xlink:href='#gpPt5' transform='translate(116.5,206.4) scale(2.25)' color='rgb(  0, 100,   0)'/>
	<use xlink:href='#gpPt5' transform='translate(122.9,234.8) scale(2.25)' color='rgb(  0, 100,   0)'/>
	<use xlink:href='#gpPt5' transform='translate(129.3,250.9) scale(2.25)' color='rgb(  0, 100,   0)'/>
	<use xlink:href='#gpPt5' transform='translate(135.7,261.2) scale(2.25)' color='rgb(  0, 100,   0)'/>
	<use xlink:href='#gpPt5' transform='translate(142.1,268.5) scale(2.25)' color='rgb(  0, 100,   0)'/>
	<use xlink:href='#gpPt5' transform='translate(154.9,279.4) scale(2.25)' color='rgb(  0, 100,   0)'/>
	<use xlink:href='#gpPt5' transform='translate(167.7,288.5) scale(2.25)' color='rgb(  0, 100,   0)'/>
	<use xlink:href='#gpPt5' transform='translate(180.5,297.2) scale(2.25)' color='rgb(  0, 100,   0)'/>
	<use xlink:href='#gpPt5' transform='translate(193.2,305.9) scale(2.25)' color='rgb(  0, 100,   0)'/>
	<use xlink:href='#gpPt5' transform='translate(206.0,314.7) scale(2.25)' color='rgb(  0, 100,   0)'/>
	<use xlink:href='#gpPt5' transform='translate(218.8,323.8) scale(2.25)' color='rgb(  0, 100,   0)'/>
	<use xlink:href='#gpPt5' transform='translate(231.6,333.0) scale(2.25)' color='rgb(  0, 100,   0)'/>
	<use xlink:href='#gpPt5' transform='translate(244.4,342.4) scale(2.25)' color='rgb(  0, 100,   0)'/>
	<use xlink:href='#gpPt5' transform='translate(257.2,351.9) scale(2.25)' color='rgb(  0, 100,   0)'/>
	<use xlink:href='#gpPt5' transform='translate(270.0,361.4) scale(2.25)' color='rgb(  0, 100,   0)'/>
	<use xlink:href='#gpPt5' transform='translate(282.8,371.1) scale(2.25)' color='rgb(  0, 100,   0)'/>
	<use xlink:href='#gpPt5' transform='translate(295.6,380.8) scale(2.25)' color='rgb(  0, 100,   0)'/>
	<use xlink:href='#gpPt5' transform='translate(308.4,390.5) scale(2.25)' color='rgb(  0, 100,   0)'/>
	<use xlink:href='#gpPt5' transform='translate(321.2,400.3) scale(2.25)' color='rgb(  0, 100,   0)'/>
	<use xlink:href='#gpPt5' transform='translate(334.0,410.0) scale(2.25)' color='rgb(  0, 100,   0)'/>
	<use xlink:href='#gpPt5' transform='translate(346.8,419.6) scale(2.25)' color='rgb(  0, 100,   0)'/>
	<use xlink:href='#gpPt5' transform='translate(359.5,429.2) scale(2.25)' color='rgb(  0, 100,   0)'/>
	<use xlink:href='#gpPt5' transform='translate(372.3,438.9) scale(2.25)' color='rgb(  0, 100,   0)'/>
	<use xlink:href='#gpPt5' transform='translate(385.1,448.3) scale(2.25)' color='rgb(  0, 100,   0)'/>
	<use xlink:href='#gpPt5' transform='translate(397.9,457.7) scale(2.25)' color='rgb(  0, 100,   0)'/>
	<use xlink:href='#gpPt5' transform='translate(410.7,467.1) scale(2.25)' color='rgb(  0, 100,   0)'/>
	<use xlink:href='#gpPt5' transform='translate(423.5,476.3) scale(2.25)' color='rgb(  0, 100,   0)'/>
	<use xlink:href='#gpPt5' transform='translate(436.3,485.4) scale(2.25)' color='rgb(  0, 100,   0)'/>
	<use xlink:href='#gpPt5' transform='translate(449.1,494.4) scale(2.25)' color='rgb(  0, 100,   0)'/>
	<use xlink:href='#gpPt5' transform='translate(461.9,503.3) scale(2.25)' color='rgb(  0, 100,   0)'/>
	<use xlink:href='#gpPt5' transform='translate(474.7,512.0) scale(2.25)' color='rgb(  0, 100,   0)'/>
	<use xlink:href='#gpPt5' transform='translate(487.5,520.6) scale(2.25)' color='rgb(  0, 100,   0)'/>
	<use xlink:href='#gpPt5' transform='translate(500.3,529.1) scale(2.25)' color='rgb(  0, 100,   0)'/>
	<use xlink:href='#gpPt5' transform='translate(513.1,537.4) scale(2.25)' color='rgb(  0, 100,   0)'/>
	<use xlink:href='#gpPt5' transform='translate(525.8,545.5) scale(2.25)' color='rgb(  0, 100,   0)'/>
	<use xlink:href='#gpPt5' transform='translate(538.6,553.5) scale(2.25)' color='rgb(  0, 100,   0)'/>
	<use xlink:href='#gpPt5' transform='translate(551.4,561.3) scale(2.25)' color='rgb(  0, 100,   0)'/>
	<use xlink:href='#gpPt5' transform='translate(564.2,568.9) scale(2.25)' color='rgb(  0, 100,   0)'/>
	<use xlink:href='#gpPt5' transform='translate(577.0,576.3) scale(2.25)' color='rgb(  0, 100,   0)'/>
	<use xlink:href='#gpPt5' transform='translate(589.8,583.5) scale(2.25)' color='rgb(  0, 100,   0)'/>
	<use xlink:href='#gpPt5' transform='translate(602.6,590.5) scale(2.25)' color='rgb(  0, 100,   0)'/>
	<use xlink:href='#gpPt5' transform='translate(615.4,597.3) scale(2.25)' color='rgb(  0, 100,   0)'/>
	<use xlink:href='#gpPt5' transform='translate(628.2,603.9) scale(2.25)' color='rgb(  0, 100,   0)'/>
	<use xlink:href='#gpPt5' transform='translate(641.0,610.2) scale(2.25)' color='rgb(  0, 100,   0)'/>
	<use xlink:href='#gpPt5' transform='translate(653.8,616.3) scale(2.25)' color='rgb(  0, 100,   0)'/>
	<use xlink:href='#gpPt5' transform='translate(666.6,622.1) scale(2.25)' color='rgb(  0, 100,   0)'/>
	<use xlink:href='#gpPt5' transform='translate(679.4,627.6) scale(2.25)' color='rgb(  0, 100,   0)'/>
	<use xlink:href='#gpPt5' transform='translate(692.1,632.9) scale(2.25)' color='rgb(  0, 100,   0)'/>
	<use xlink:href='#gpPt5' transform='translate(704.9,637.9) scale(2.25)' color='rgb(  0, 100,   0)'/>
	<use xlink:href='#gpPt5' transform='translate(717.7,642.6) scale(2.25)' color='rgb(  0, 100,   0)'/>
	<use xlink:href='#gpPt5' transform='translate(730.5,646.9) scale(2.25)' color='rgb(  0, 100,   0)'/>
	<use xlink:href='#gpPt5' transform='translate(743.3,651.0) scale(2.25)' color='rgb(  0, 100,   0)'/>
	<use xlink:href='#gpPt5' transform='translate(756.1,654.7) scale(2.25)' color='rgb(  0, 100,   0)'/>
	<use xlink:href='#gpPt5' transform='translate(768.9,658.2) scale(2.25)' color='rgb(  0, 100,   0)'/>
	<use xlink:href='#gpPt5' transform='translate(781.7,661.3) scale(2.25)' color='rgb(  0, 100,   0)'/>
	<use xlink:href='#gpPt5' transform='translate(794.5,664.1) scale(2.25)' color='rgb(  0, 100,   0)'/>
	<use xlink:href='#gpPt5' transform='translate(807.3,666.6) scale(2.25)' color='rgb(  0, 100,   0)'/>
	<use xlink:href='#gpPt5' transform='translate(820.1,668.7) scale(2.25)' color='rgb(  0, 100,   0)'/>
	<use xlink:href='#gpPt5' transform='translate(832.9,670.6) scale(2.25)' color='rgb(  0, 100,   0)'/>
	<use xlink:href='#gpPt5' transform='translate(845.6,672.1) scale(2.25)' color='rgb(  0, 100,   0)'/>
	<use xlink:href='#gpPt5' transform='translate(858.4,673.3) scale(2.25)' color='rgb(  0, 100,   0)'/>
	<use xlink:href='#gpPt5' transform='translate(871.2,674.2) scale(2.25)' color='rgb(  0, 100,   0)'/>
	<use xlink:href='#gpPt5' transform='translate(884.0,674.8) scale(2.25)' color='rgb(  0, 100,   0)'/>
	<use xlink:href='#gpPt5' transform='translate(896.8,675.1) scale(2.25)' color='rgb(  0, 100,   0)'/>
	<use xlink:href='#gpPt5' transform='translate(909.6,675.1) scale(2.25)' color='rgb(  0, 100,   0)'/>
	<use xlink:href='#gpPt5' transform='translate(922.4,674.9) scale(2.25)' color='rgb(  0, 100,   0)'/>
	<use xlink:href='#gpPt5' transform='translate(935.2,674.4) scale(2.25)' color='rgb(  0, 100,   0)'/>
	<use xlink:href='#gpPt5' transform='translate(948.0,673.5) scale(2.25)' color='rgb(  0, 100,   0)'/>
	<use xlink:href='#gpPt5' transform='translate(960.8,672.6) scale(2.25)' color='rgb(  0, 100,   0)'/>
	<use xlink:href='#gpPt5' transform='translate(973.6,671.3) scale(2.25)' color='rgb(  0, 100,   0)'/>
	<use xlink:href='#gpPt5' transform='translate(986.4,669.9) scale(2.25)' color='rgb(  0, 100,   0)'/>
	<use xlink:href='#gpPt5' transform='translate(999.2,668.2) scale(2.25)' color='rgb(  0, 100,   0)'/>
	<use xlink:href='#gpPt5' transform='translate(1011.9,666.3) scale(2.25)' color='rgb(  0, 100,   0)'/>
	<use xlink:href='#gpPt5' transform='translate(1024.7,664.3) scale(2.25)' color='rgb(  0, 100,   0)'/>
	<use xlink:href='#gpPt5' transform='translate(1037.5,662.2) scale(2.25)' color='rgb(  0, 100,   0)'/>
	<use xlink:href='#gpPt5' transform='translate(1050.3,659.9) scale(2.25)' color='rgb(  0, 100,   0)'/>
	<use xlink:href='#gpPt5' transform='translate(1063.1,657.7) scale(2.25)' color='rgb(  0, 100,   0)'/>
	<use xlink:href='#gpPt5' transform='translate(1075.9,655.3) scale(2.25)' color='rgb(  0, 100,   0)'/>
	<use xlink:href='#gpPt5' transform='translate(1088.7,653.0) scale(2.25)' color='rgb(  0, 100,   0)'/>
	<use xlink:href='#gpPt5' transform='translate(1101.5,650.7) scale(2.25)' color='rgb(  0, 100,   0)'/>
	<use xlink:href='#gpPt5' transform='translate(1114.3,648.7) scale(2.25)' color='rgb(  0, 100,   0)'/>
	<use xlink:href='#gpPt5' transform='translate(1127.1,646.8) scale(2.25)' color='rgb(  0, 100,   0)'/>
	<use xlink:href='#gpPt5' transform='translate(1139.9,645.4) scale(2.25)' color='rgb(  0, 100,   0)'/>
	<use xlink:href='#gpPt5' transform='translate(1152.7,644.5) scale(2.25)' color='rgb(  0, 100,   0)'/>
	<use xlink:href='#gpPt5' transform='translate(1165.5,644.0) scale(2.25)' color='rgb(  0, 100,   0)'/>
	<use xlink:href='#gpPt5' transform='translate(1178.2,643.4) scale(2.25)' color='rgb(  0, 100,   0)'/>
	<use xlink:href='#gpPt5' transform='translate(1191.0,642.4) scale(2.25)' color='rgb(  0, 100,   0)'/>
	<use xlink:href='#gpPt5' transform='translate(1203.8,640.6) scale(2.25)' color='rgb(  0, 100,   0)'/>
	<use xlink:href='#gpPt5' transform='translate(1216.6,638.3) scale(2.25)' color='rgb(  0, 100,   0)'/>
	<use xlink:href='#gpPt5' transform='translate(1229.4,636.0) scale(2.25)' color='rgb(  0, 100,   0)'/>
	<use xlink:href='#gpPt5' transform='translate(1242.2,634.2) scale(2.25)' color='rgb(  0, 100,   0)'/>
	<use xlink:href='#gpPt5' transform='translate(1255.0,633.1) scale(2.25)' color='rgb(  0, 100,   0)'/>
</g>
	</g>
	<g id="gnuplot_plot_3" ><title>gnuplot_plot_3</title>
<g fill="none" color="black" stroke="currentColor" stroke-width="1.00" stroke-linecap="butt" stroke-linejoin="miter">
	<use xlink:href='#gpPt5' transform='translate(103.7,54.1) scale(2.25)' color='rgb(  0,   0, 255)'/>
	<use xlink:href='#gpPt5' transform='translate(104.3,55.5) scale(2.25)' color='rgb(  0,   0, 255)'/>
	<use xlink:href='#gpPt5' transform='translate(105.0,59.6) scale(2.25)' color='rgb(  0,   0, 255)'/>
	<use xlink:href='#gpPt5' transform='translate(105.6,66.1) scale(2.25)' color='rgb(  0,   0, 255)'/>
	<use xlink:href='#gpPt5' transform='translate(106.3,74.5) scale(2.25)' color='rgb(  0,   0, 255)'/>
	<use xlink:href='#gpPt5' transform='translate(106.9,84.2) scale(2.25)' color='rgb(  0,   0, 255)'/>
	<use xlink:href='#gpPt5' transform='translate(107.5,94.5) scale(2.25)' color='rgb(  0,   0, 255)'/>
	<use xlink:href='#gpPt5' transform='translate(108.2,104.8) scale(2.25)' color='rgb(  0,   0, 255)'/>
	<use xlink:href='#gpPt5' transform='translate(108.8,114.4) scale(2.25)' color='rgb(  0,   0, 255)'/>
	<use xlink:href='#gpPt5' transform='translate(109.5,123.3) scale(2.25)' color='rgb(  0,   0, 255)'/>
	<use xlink:href='#gpPt5' transform='translate(110.1,131.3) scale(2.25)' color='rgb(  0,   0, 255)'/>
	<use xlink:href='#gpPt5' transform='translate(110.7,138.7) scale(2.25)' color='rgb(  0,   0, 255)'/>
	<use xlink:href='#gpPt5' transform='translate(111.4,145.4) scale(2.25)' color='rgb(  0,   0, 255)'/>
	<use xlink:href='#gpPt5' transform='translate(112.0,151.7) scale(2.25)' color='rgb(  0,   0, 255)'/>
	<use xlink:href='#gpPt5' transform='translate(112.7,157.5) scale(2.25)' color='rgb(  0,   0, 255)'/>
	<use xlink:href='#gpPt5' transform='translate(113.3,162.8) scale(2.25)' color='rgb(  0,   0, 255)'/>
	<use xlink:href='#gpPt5' transform='translate(113.9,167.8) scale(2.25)' color='rgb(  0,   0, 255)'/>
	<use xlink:href='#gpPt5' transform='translate(114.6,172.3) scale(2.25)' color='rgb(  0,   0, 255)'/>
	<use xlink:href='#gpPt5' transform='translate(115.2,176.5) scale(2.25)' color='rgb(  0,   0, 255)'/>
	<use xlink:href='#gpPt5' transform='translate(115.9,180.4) scale(2.25)' color='rgb(  0,   0, 255)'/>
	<use xlink:href='#gpPt5' transform='translate(116.5,184.0) scale(2.25)' color='rgb(  0,   0, 255)'/>
	<use xlink:href='#gpPt5' transform='translate(122.9,208.8) scale(2.25)' color='rgb(  0,   0, 255)'/>
	<use xlink:href='#gpPt5' transform='translate(129.3,222.1) scale(2.25)' color='rgb(  0,   0, 255)'/>
	<use xlink:href='#gpPt5' transform='translate(135.7,230.6) scale(2.25)' color='rgb(  0,   0, 255)'/>
	<use xlink:href='#gpPt5' transform='translate(142.1,237.0) scale(2.25)' color='rgb(  0,   0, 255)'/>
	<use xlink:href='#gpPt5' transform='translate(154.9,247.2) scale(2.25)' color='rgb(  0,   0, 255)'/>
	<use xlink:href='#gpPt5' transform='translate(167.7,256.5) scale(2.25)' color='rgb(  0,   0, 255)'/>
	<use xlink:href='#gpPt5' transform='translate(180.5,265.8) scale(2.25)' color='rgb(  0,   0, 255)'/>
	<use xlink:href='#gpPt5' transform='translate(193.2,275.1) scale(2.25)' color='rgb(  0,   0, 255)'/>
	<use xlink:href='#gpPt5' transform='translate(206.0,284.7) scale(2.25)' color='rgb(  0,   0, 255)'/>
	<use xlink:href='#gpPt5' transform='translate(218.8,294.4) scale(2.25)' color='rgb(  0,   0, 255)'/>
	<use xlink:href='#gpPt5' transform='translate(231.6,304.2) scale(2.25)' color='rgb(  0,   0, 255)'/>
	<use xlink:href='#gpPt5' transform='translate(244.4,314.2) scale(2.25)' color='rgb(  0,   0, 255)'/>
	<use xlink:href='#gpPt5' transform='translate(257.2,324.3) scale(2.25)' color='rgb(  0,   0, 255)'/>
	<use xlink:href='#gpPt5' transform='translate(270.0,334.4) scale(2.25)' color='rgb(  0,   0, 255)'/>
	<use xlink:href='#gpPt5' transform='translate(282.8,344.6) scale(2.25)' color='rgb(  0,   0, 255)'/>
	<use xlink:href='#gpPt5' transform='translate(295.6,354.8) scale(2.25)' color='rgb(  0,   0, 255)'/>
	<use xlink:href='#gpPt5' transform='translate(308.4,365.0) scale(2.25)' color='rgb(  0,   0, 255)'/>
	<use xlink:href='#gpPt5' transform='translate(321.2,375.2) scale(2.25)' color='rgb(  0,   0, 255)'/>
	<use xlink:href='#gpPt5' transform='translate(334.0,385.3) scale(2.25)' color='rgb(  0,   0, 255)'/>
	<use xlink:href='#gpPt5' transform='translate(346.8,395.4) scale(2.25)' color='rgb(  0,   0, 255)'/>
	<use xlink:href='#gpPt5' transform='translate(359.5,405.4) scale(2.25)' color='rgb(  0,   0, 255)'/>
	<use xlink:href='#gpPt5' transform='translate(372.3,415.3) scale(2.25)' color='rgb(  0,   0, 255)'/>
	<use xlink:href='#gpPt5' transform='translate(385.1,425.2) scale(2.25)' color='rgb(  0,   0, 255)'/>
	<use xlink:href='#gpPt5' transform='translate(397.9,434.9) scale(2.25)' color='rgb(  0,   0, 255)'/>
	<use xlink:href='#gpPt5' transform='translate(410.7,444.5) scale(2.25)' color='rgb(  0,   0, 255)'/>
	<use xlink:href='#gpPt5' transform='translate(423.5,454.0) scale(2.25)' color='rgb(  0,   0, 255)'/>
	<use xlink:href='#gpPt5' transform='translate(436.3,463.4) scale(2.25)' color='rgb(  0,   0, 255)'/>
	<use xlink:href='#gpPt5' transform='translate(449.1,472.6) scale(2.25)' color='rgb(  0,   0, 255)'/>
	<use xlink:href='#gpPt5' transform='translate(461.9,481.8) scale(2.25)' color='rgb(  0,   0, 255)'/>
	<use xlink:href='#gpPt5' transform='translate(474.7,490.6) scale(2.25)' color='rgb(  0,   0, 255)'/>
	<use xlink:href='#gpPt5' transform='translate(487.5,499.4) scale(2.25)' color='rgb(  0,   0, 255)'/>
	<use xlink:href='#gpPt5' transform='translate(500.3,508.0) scale(2.25)' color='rgb(  0,   0, 255)'/>
	<use xlink:href='#gpPt5' transform='translate(513.1,516.5) scale(2.25)' color='rgb(  0,   0, 255)'/>
	<use xlink:href='#gpPt5' transform='translate(525.8,524.7) scale(2.25)' color='rgb(  0,   0, 255)'/>
	<use xlink:href='#gpPt5' transform='translate(538.6,532.8) scale(2.25)' color='rgb(  0,   0, 255)'/>
	<use xlink:href='#gpPt5' transform='translate(551.4,540.7) scale(2.25)' color='rgb(  0,   0, 255)'/>
	<use xlink:href='#gpPt5' transform='translate(564.2,548.5) scale(2.25)' color='rgb(  0,   0, 255)'/>
	<use xlink:href='#gpPt5' transform='translate(577.0,555.9) scale(2.25)' color='rgb(  0,   0, 255)'/>
	<use xlink:href='#gpPt5' transform='translate(589.8,563.2) scale(2.25)' color='rgb(  0,   0, 255)'/>
	<use xlink:href='#gpPt5' transform='translate(602.6,570.3) scale(2.25)' color='rgb(  0,   0, 255)'/>
	<use xlink:href='#gpPt5' transform='translate(615.4,577.1) scale(2.25)' color='rgb(  0,   0, 255)'/>
	<use xlink:href='#gpPt5' transform='translate(628.2,583.8) scale(2.25)' color='rgb(  0,   0, 255)'/>
	<use xlink:href='#gpPt5' transform='translate(641.0,590.1) scale(2.25)' color='rgb(  0,   0, 255)'/>
	<use xlink:href='#gpPt5' transform='translate(653.8,596.2) scale(2.25)' color='rgb(  0,   0, 255)'/>
	<use xlink:href='#gpPt5' transform='translate(666.6,602.1) scale(2.25)' color='rgb(  0,   0, 255)'/>
	<use xlink:href='#gpPt5' transform='translate(679.4,607.6) scale(2.25)' color='rgb(  0,   0, 255)'/>
	<use xlink:href='#gpPt5' transform='translate(692.1,612.9) scale(2.25)' color='rgb(  0,   0, 255)'/>
	<use xlink:href='#gpPt5' transform='translate(704.9,618.0) scale(2.25)' color='rgb(  0,   0, 255)'/>
	<use xlink:href='#gpPt5' transform='translate(717.7,622.6) scale(2.25)' color='rgb(  0,   0, 255)'/>
	<use xlink:href='#gpPt5' transform='translate(730.5,627.1) scale(2.25)' color='rgb(  0,   0, 255)'/>
	<use xlink:href='#gpPt5' transform='translate(743.3,631.2) scale(2.25)' color='rgb(  0,   0, 255)'/>
	<use xlink:href='#gpPt5' transform='translate(756.1,634.9) scale(2.25)' color='rgb(  0,   0, 255)'/>
	<use xlink:href='#gpPt5' transform='translate(768.9,638.4) scale(2.25)' color='rgb(  0,   0, 255)'/>
	<use xlink:href='#gpPt5' transform='translate(781.7,641.6) scale(2.25)' color='rgb(  0,   0, 255)'/>
	<use xlink:href='#gpPt5' transform='translate(794.5,644.3) scale(2.25)' color='rgb(  0,   0, 255)'/>
	<use xlink:href='#gpPt5' transform='translate(807.3,646.8) scale(2.25)' color='rgb(  0,   0, 255)'/>
	<use xlink:href='#gpPt5' transform='translate(820.1,649.0) scale(2.25)' color='rgb(  0,   0, 255)'/>
	<use xlink:href='#gpPt5' transform='translate(832.9,650.8) scale(2.25)' color='rgb(  0,   0, 255)'/>
	<use xlink:href='#gpPt5' transform='translate(845.6,652.4) scale(2.25)' color='rgb(  0,   0, 255)'/>
	<use xlink:href='#gpPt5' transform='translate(858.4,653.6) scale(2.25)' color='rgb(  0,   0, 255)'/>
	<use xlink:href='#gpPt5' transform='translate(871.2,654.4) scale(2.25)' color='rgb(  0,   0, 255)'/>
	<use xlink:href='#gpPt5' transform='translate(884.0,655.0) scale(2.25)' color='rgb(  0,   0, 255)'/>
	<use xlink:href='#gpPt5' transform='translate(896.8,655.2) scale(2.25)' color='rgb(  0,   0, 255)'/>
	<use xlink:href='#gpPt5' transform='translate(909.6,655.1) scale(2.25)' color='rgb(  0,   0, 255)'/>
	<use xlink:href='#gpPt5' transform='translate(922.4,654.8) scale(2.25)' color='rgb(  0,   0, 255)'/>
	<use xlink:href='#gpPt5' transform='translate(935.2,654.1) scale(2.25)' color='rgb(  0,   0, 255)'/>
	<use xlink:href='#gpPt5' transform='translate(948.0,653.2) scale(2.25)' color='rgb(  0,   0, 255)'/>
	<use xlink:href='#gpPt5' transform='translate(960.8,652.0) scale(2.25)' color='rgb(  0,   0, 255)'/>
	<use xlink:href='#gpPt5' transform='translate(973.6,650.5) scale(2.25)' color='rgb(  0,   0, 255)'/>
	<use xlink:href='#gpPt5' transform='translate(986.4,648.8) scale(2.25)' color='rgb(  0,   0, 255)'/>
	<use xlink:href='#gpPt5' transform='translate(999.2,646.8) scale(2.25)' color='rgb(  0,   0, 255)'/>
	<use xlink:href='#gpPt5' transform='translate(1011.9,644.6) scale(2.25)' color='rgb(  0,   0, 255)'/>
	<use xlink:href='#gpPt5' transform='translate(1024.7,642.3) scale(2.25)' color='rgb(  0,   0, 255)'/>
	<use xlink:href='#gpPt5' transform='translate(1037.5,639.7) scale(2.25)' color='rgb(  0,   0, 255)'/>
	<use xlink:href='#gpPt5' transform='translate(1050.3,637.1) scale(2.25)' color='rgb(  0,   0, 255)'/>
	<use xlink:href='#gpPt5' transform='translate(1063.1,634.4) scale(2.25)' color='rgb(  0,   0, 255)'/>
	<use xlink:href='#gpPt5' transform='translate(1075.9,631.6) scale(2.25)' color='rgb(  0,   0, 255)'/>
	<use xlink:href='#gpPt5' transform='translate(1088.7,629.0) scale(2.25)' color='rgb(  0,   0, 255)'/>
	<use xlink:href='#gpPt5' transform='translate(1101.5,626.5) scale(2.25)' color='rgb(  0,   0, 255)'/>
	<use xlink:href='#gpPt5' transform='translate(1114.3,624.2) scale(2.25)' color='rgb(  0,   0, 255)'/>
	<use xlink:href='#gpPt5' transform='translate(1127.1,622.5) scale(2.25)' color='rgb(  0,   0, 255)'/>
	<use xlink:href='#gpPt5' transform='translate(1139.9,621.3) scale(2.25)' color='rgb(  0,   0, 255)'/>
	<use xlink:href='#gpPt5' transform='translate(1152.7,620.9) scale(2.25)' color='rgb(  0,   0, 255)'/>
	<use xlink:href='#gpPt5' transform='translate(1165.5,620.9) scale(2.25)' color='rgb(  0,   0, 255)'/>
	<use xlink:href='#gpPt5' transform='translate(1178.2,620.9) scale(2.25)' color='rgb(  0,   0, 255)'/>
	<use xlink:href='#gpPt5' transform='translate(1191.0,620.4) scale(2.25)' color='rgb(  0,   0, 255)'/>
	<use xlink:href='#gpPt5' transform='translate(1203.8,619.1) scale(2.25)' color='rgb(  0,   0, 255)'/>
	<use xlink:href='#gpPt5' transform='translate(1216.6,616.5) scale(2.25)' color='rgb(  0,   0, 255)'/>
	<use xlink:href='#gpPt5' transform='translate(1229.4,613.5) scale(2.25)' color='rgb(  0,   0, 255)'/>
	<use xlink:href='#gpPt5' transform='translate(1242.2,611.1) scale(2.25)' color='rgb(  0,   0, 255)'/>
	<use xlink:href='#gpPt5' transform='translate(1255.0,609.7) scale(2.25)' color='rgb(  0,   0, 255)'/>
</g>
	</g>
	<g id="gnuplot_plot_4" ><title>fit</title>
<g fill="none" color="black" stroke="currentColor" stroke-width="1.00" stroke-linecap="butt" stroke-linejoin="miter">
	<g transform="translate(1187.9,94.0)" stroke="none" fill="black" font-family="Arial" font-size="12.00"  text-anchor="end">
		<text><tspan font-family="Arial" >fit</tspan></text>
	</g>
</g>
<g fill="none" color="black" stroke="currentColor" stroke-width="1.00" stroke-linecap="butt" stroke-linejoin="miter">
	<path stroke='rgb(255,   0,   0)'  d='M1196.2,90.1 L1238.4,90.1 M103.7,105.8 L104.8,108.0 L106.0,114.4 L107.1,124.1 L108.2,136.2 L109.3,149.7
		L110.5,163.5 L111.6,177.0 L112.7,189.9 L113.8,201.7 L115.0,212.3 L116.1,221.8 L117.2,230.1 L118.3,237.4
		L119.5,243.8 L120.6,249.3 L121.7,254.1 L122.8,258.2 L124.0,261.8 L125.1,264.9 L126.2,267.7 L127.3,270.1
		L128.5,272.2 L129.6,274.1 L130.7,275.7 L131.8,277.2 L133.0,278.6 L134.1,279.8 L135.2,280.9 L136.3,281.9
		L137.5,282.9 L138.6,283.8 L139.7,284.6 L140.8,285.4 L142.0,286.1 L143.1,286.8 L144.2,287.5 L145.3,288.1
		L146.5,288.7 L147.6,289.3 L148.7,289.9 L149.8,290.5 L151.0,291.1 L152.1,291.6 L153.2,292.2 L154.3,292.7
		L155.5,293.2 L156.6,293.8 L157.7,294.3 L158.8,294.8 L160.0,295.4 L161.1,295.9 L162.2,296.4 L163.3,297.0
		L164.5,297.5 L165.6,298.0 L166.7,298.6 L167.8,299.1 L169.0,299.6 L170.1,300.2 L171.2,300.8 L172.4,301.3
		L173.5,301.9 L174.6,302.4 L175.7,303.0 L176.9,303.6 L178.0,304.2 L179.1,304.7 L180.2,305.3 L181.4,305.9
		L182.5,306.5 L183.6,307.1 L184.7,307.7 L185.9,308.3 L187.0,309.0 L188.1,309.6 L189.2,310.2 L190.4,310.8
		L191.5,311.5 L192.6,312.1 L193.7,312.8 L194.9,313.4 L196.0,314.1 L197.1,314.8 L198.2,315.4 L199.4,316.1
		L200.5,316.8 L201.6,317.5 L202.7,318.1 L203.9,318.8 L205.0,319.5 L206.1,320.2 L207.2,321.0 L208.4,321.7
		L209.5,322.4 L210.6,323.1 L211.7,323.8 L212.9,324.6 L214.0,325.3 L215.1,326.0 L216.2,326.8 L217.4,327.5
		L218.5,328.3 L219.6,329.0 L220.7,329.8 L221.9,330.6 L223.0,331.3 L224.1,332.1 L225.2,332.9 L226.4,333.7
		L227.5,334.5 L228.6,335.2 L229.7,336.0 L230.9,336.8 L232.0,337.6 L233.1,338.4 L234.2,339.3 L235.4,340.1
		L236.5,340.9 L237.6,341.7 L238.7,342.5 L239.9,343.3 L241.0,344.2 L242.1,345.0 L243.3,345.8 L244.4,346.7
		L245.5,347.5 L246.6,348.3 L247.8,349.2 L248.9,350.0 L250.0,350.9 L251.1,351.7 L252.3,352.6 L253.4,353.5
		L254.5,354.3 L255.6,355.2 L256.8,356.1 L257.9,356.9 L259.0,357.8 L260.1,358.7 L261.3,359.5 L262.4,360.4
		L263.5,361.3 L264.6,362.2 L265.8,363.1 L266.9,363.9 L268.0,364.8 L269.1,365.7 L270.3,366.6 L271.4,367.5
		L272.5,368.4 L273.6,369.3 L274.8,370.2 L275.9,371.1 L277.0,372.0 L278.1,372.9 L279.3,373.8 L280.4,374.7
		L281.5,375.6 L282.6,376.5 L283.8,377.4 L284.9,378.3 L286.0,379.3 L287.1,380.2 L288.3,381.1 L289.4,382.0
		L290.5,382.9 L291.6,383.8 L292.8,384.7 L293.9,385.7 L295.0,386.6 L296.1,387.5 L297.3,388.4 L298.4,389.3
		L299.5,390.3 L300.6,391.2 L301.8,392.1 L302.9,393.0 L304.0,394.0 L305.1,394.9 L306.3,395.8 L307.4,396.7
		L308.5,397.7 L309.7,398.6 L310.8,399.5 L311.9,400.5 L313.0,401.4 L314.2,402.3 L315.3,403.2 L316.4,404.2
		L317.5,405.1 L318.7,406.0 L319.8,407.0 L320.9,407.9 L322.0,408.8 L323.2,409.7 L324.3,410.7 L325.4,411.6
		L326.5,412.5 L327.7,413.5 L328.8,414.4 L329.9,415.3 L331.0,416.2 L332.2,417.2 L333.3,418.1 L334.4,419.0
		L335.5,420.0 L336.7,420.9 L337.8,421.8 L338.9,422.7 L340.0,423.7 L341.2,424.6 L342.3,425.5 L343.4,426.4
		L344.5,427.4 L345.7,428.3 L346.8,429.2 L347.9,430.1 L349.0,431.1 L350.2,432.0 L351.3,432.9 L352.4,433.8
		L353.5,434.7 L354.7,435.6 L355.8,436.6 L356.9,437.5 L358.0,438.4 L359.2,439.3 L360.3,440.2 L361.4,441.1
		L362.5,442.1 L363.7,443.0 L364.8,443.9 L365.9,444.8 L367.0,445.7 L368.2,446.6 L369.3,447.5 L370.4,448.4
		L371.5,449.3 L372.7,450.2 L373.8,451.1 L374.9,452.0 L376.1,452.9 L377.2,453.8 L378.3,454.7 L379.4,455.6
		L380.6,456.5 L381.7,457.4 L382.8,458.3 L383.9,459.2 L385.1,460.1 L386.2,461.0 L387.3,461.9 L388.4,462.8
		L389.6,463.7 L390.7,464.5 L391.8,465.4 L392.9,466.3 L394.1,467.2 L395.2,468.1 L396.3,469.0 L397.4,469.8
		L398.6,470.7 L399.7,471.6 L400.8,472.5 L401.9,473.3 L403.1,474.2 L404.2,475.1 L405.3,475.9 L406.4,476.8
		L407.6,477.7 L408.7,478.5 L409.8,479.4 L410.9,480.3 L412.1,481.1 L413.2,482.0 L414.3,482.8 L415.4,483.7
		L416.6,484.5 L417.7,485.4 L418.8,486.3 L419.9,487.1 L421.1,488.0 L422.2,488.8 L423.3,489.6 L424.4,490.5
		L425.6,491.3 L426.7,492.2 L427.8,493.0 L428.9,493.8 L430.1,494.7 L431.2,495.5 L432.3,496.3 L433.4,497.2
		L434.6,498.0 L435.7,498.8 L436.8,499.7 L437.9,500.5 L439.1,501.3 L440.2,502.1 L441.3,503.0 L442.5,503.8
		L443.6,504.6 L444.7,505.4 L445.8,506.2 L447.0,507.0 L448.1,507.8 L449.2,508.6 L450.3,509.4 L451.5,510.3
		L452.6,511.1 L453.7,511.9 L454.8,512.7 L456.0,513.5 L457.1,514.3 L458.2,515.0 L459.3,515.8 L460.5,516.6
		L461.6,517.4 L462.7,518.2 L463.8,519.0 L465.0,519.8 L466.1,520.6 L467.2,521.3 L468.3,522.1 L469.5,522.9
		L470.6,523.7 L471.7,524.4 L472.8,525.2 L474.0,526.0 L475.1,526.8 L476.2,527.5 L477.3,528.3 L478.5,529.0
		L479.6,529.8 L480.7,530.6 L481.8,531.3 L483.0,532.1 L484.1,532.8 L485.2,533.6 L486.3,534.3 L487.5,535.1
		L488.6,535.8 L489.7,536.6 L490.8,537.3 L492.0,538.1 L493.1,538.8 L494.2,539.5 L495.3,540.3 L496.5,541.0
		L497.6,541.7 L498.7,542.5 L499.8,543.2 L501.0,543.9 L502.1,544.7 L503.2,545.4 L504.3,546.1 L505.5,546.8
		L506.6,547.5 L507.7,548.3 L508.8,549.0 L510.0,549.7 L511.1,550.4 L512.2,551.1 L513.4,551.8 L514.5,552.5
		L515.6,553.2 L516.7,553.9 L517.9,554.6 L519.0,555.3 L520.1,556.0 L521.2,556.7 L522.4,557.4 L523.5,558.1
		L524.6,558.8 L525.7,559.5 L526.9,560.1 L528.0,560.8 L529.1,561.5 L530.2,562.2 L531.4,562.9 L532.5,563.5
		L533.6,564.2 L534.7,564.9 L535.9,565.6 L537.0,566.2 L538.1,566.9 L539.2,567.6 L540.4,568.2 L541.5,568.9
		L542.6,569.5 L543.7,570.2 L544.9,570.9 L546.0,571.5 L547.1,572.2 L548.2,572.8 L549.4,573.5 L550.5,574.1
		L551.6,574.7 L552.7,575.4 L553.9,576.0 L555.0,576.7 L556.1,577.3 L557.2,577.9 L558.4,578.6 L559.5,579.2
		L560.6,579.8 L561.7,580.5 L562.9,581.1 L564.0,581.7 L565.1,582.3 L566.2,582.9 L567.4,583.6 L568.5,584.2
		L569.6,584.8 L570.7,585.4 L571.9,586.0 L573.0,586.6 L574.1,587.2 L575.2,587.8 L576.4,588.4 L577.5,589.0
		L578.6,589.6 L579.8,590.2 L580.9,590.8 L582.0,591.4 L583.1,592.0 L584.3,592.6 L585.4,593.2 L586.5,593.8
		L587.6,594.4 L588.8,594.9 L589.9,595.5 L591.0,596.1 L592.1,596.7 L593.3,597.3 L594.4,597.8 L595.5,598.4
		L596.6,599.0 L597.8,599.5 L598.9,600.1 L600.0,600.7 L601.1,601.2 L602.3,601.8 L603.4,602.4 L604.5,602.9
		L605.6,603.5 L606.8,604.0 L607.9,604.6 L609.0,605.1 L610.1,605.7 L611.3,606.2 L612.4,606.8 L613.5,607.3
		L614.6,607.8 L615.8,608.4 L616.9,608.9 L618.0,609.4 L619.1,610.0 L620.3,610.5 L621.4,611.0 L622.5,611.6
		L623.6,612.1 L624.8,612.6 L625.9,613.1 L627.0,613.6 L628.1,614.2 L629.3,614.7 L630.4,615.2 L631.5,615.7
		L632.6,616.2 L633.8,616.7 L634.9,617.2 L636.0,617.7 L637.1,618.2 L638.3,618.7 L639.4,619.2 L640.5,619.7
		L641.6,620.2 L642.8,620.7 L643.9,621.2 L645.0,621.7 L646.2,622.2 L647.3,622.7 L648.4,623.2 L649.5,623.6
		L650.7,624.1 L651.8,624.6 L652.9,625.1 L654.0,625.5 L655.2,626.0 L656.3,626.5 L657.4,627.0 L658.5,627.4
		L659.7,627.9 L660.8,628.4 L661.9,628.8 L663.0,629.3 L664.2,629.7 L665.3,630.2 L666.4,630.6 L667.5,631.1
		L668.7,631.5 L669.8,632.0 L670.9,632.4 L672.0,632.9 L673.2,633.3 L674.3,633.8 L675.4,634.2 L676.5,634.6
		L677.7,635.1 L678.8,635.5 L679.9,635.9 L681.0,636.4 L682.2,636.8 L683.3,637.2 L684.4,637.6 L685.5,638.1
		L686.7,638.5 L687.8,638.9 L688.9,639.3 L690.0,639.7 L691.2,640.1 L692.3,640.6 L693.4,641.0 L694.5,641.4
		L695.7,641.8 L696.8,642.2 L697.9,642.6 L699.0,643.0 L700.2,643.4 L701.3,643.8 L702.4,644.2 L703.5,644.6
		L704.7,645.0 L705.8,645.3 L706.9,645.7 L708.0,646.1 L709.2,646.5 L710.3,646.9 L711.4,647.3 L712.5,647.6
		L713.7,648.0 L714.8,648.4 L715.9,648.7 L717.1,649.1 L718.2,649.5 L719.3,649.8 L720.4,650.2 L721.6,650.6
		L722.7,650.9 L723.8,651.3 L724.9,651.6 L726.1,652.0 L727.2,652.3 L728.3,652.7 L729.4,653.0 L730.6,653.4
		L731.7,653.7 L732.8,654.1 L733.9,654.4 L735.1,654.8 L736.2,655.1 L737.3,655.4 L738.4,655.8 L739.6,656.1
		L740.7,656.4 L741.8,656.7 L742.9,657.1 L744.1,657.4 L745.2,657.7 L746.3,658.0 L747.4,658.4 L748.6,658.7
		L749.7,659.0 L750.8,659.3 L751.9,659.6 L753.1,659.9 L754.2,660.2 L755.3,660.5 L756.4,660.8 L757.6,661.1
		L758.7,661.4 L759.8,661.7 L760.9,662.0 L762.1,662.3 L763.2,662.6 L764.3,662.9 L765.4,663.2 L766.6,663.4
		L767.7,663.7 L768.8,664.0 L769.9,664.3 L771.1,664.6 L772.2,664.8 L773.3,665.1 L774.4,665.4 L775.6,665.6
		L776.7,665.9 L777.8,666.2 L778.9,666.4 L780.1,666.7 L781.2,667.0 L782.3,667.2 L783.5,667.5 L784.6,667.7
		L785.7,668.0 L786.8,668.2 L788.0,668.5 L789.1,668.7 L790.2,669.0 L791.3,669.2 L792.5,669.4 L793.6,669.7
		L794.7,669.9 L795.8,670.1 L797.0,670.4 L798.1,670.6 L799.2,670.8 L800.3,671.0 L801.5,671.3 L802.6,671.5
		L803.7,671.7 L804.8,671.9 L806.0,672.1 L807.1,672.4 L808.2,672.6 L809.3,672.8 L810.5,673.0 L811.6,673.2
		L812.7,673.4 L813.8,673.6 L815.0,673.8 L816.1,674.0 L817.2,674.2 L818.3,674.4 L819.5,674.6 L820.6,674.7
		L821.7,674.9 L822.8,675.1 L824.0,675.3 L825.1,675.5 L826.2,675.7 L827.3,675.8 L828.5,676.0 L829.6,676.2
		L830.7,676.4 L831.8,676.5 L833.0,676.7 L834.1,676.9 L835.2,677.0 L836.3,677.2 L837.5,677.3 L838.6,677.5
		L839.7,677.6 L840.8,677.8 L842.0,677.9 L843.1,678.1 L844.2,678.2 L845.3,678.4 L846.5,678.5 L847.6,678.7
		L848.7,678.8 L849.9,678.9 L851.0,679.1 L852.1,679.2 L853.2,679.3 L854.4,679.5 L855.5,679.6 L856.6,679.7
		L857.7,679.8 L858.9,679.9 L860.0,680.1 L861.1,680.2 L862.2,680.3 L863.4,680.4 L864.5,680.5 L865.6,680.6
		L866.7,680.7 L867.9,680.8 L869.0,680.9 L870.1,681.0 L871.2,681.1 L872.4,681.2 L873.5,681.3 L874.6,681.4
		L875.7,681.5 L876.9,681.6 L878.0,681.6 L879.1,681.7 L880.2,681.8 L881.4,681.9 L882.5,682.0 L883.6,682.0
		L884.7,682.1 L885.9,682.2 L887.0,682.2 L888.1,682.3 L889.2,682.4 L890.4,682.4 L891.5,682.5 L892.6,682.6
		L893.7,682.6 L894.9,682.7 L896.0,682.7 L897.1,682.8 L898.2,682.8 L899.4,682.9 L900.5,682.9 L901.6,682.9
		L902.7,683.0 L903.9,683.0 L905.0,683.1 L906.1,683.1 L907.2,683.1 L908.4,683.1 L909.5,683.2 L910.6,683.2
		L911.7,683.2 L912.9,683.2 L914.0,683.3 L915.1,683.3 L916.2,683.3 L917.4,683.3 L918.5,683.3 L919.6,683.3
		L920.8,683.3 L921.9,683.3 L923.0,683.3 L924.1,683.3 L925.3,683.3 L926.4,683.3 L927.5,683.3 L928.6,683.3
		L929.8,683.3 L930.9,683.3 L932.0,683.3 L933.1,683.3 L934.3,683.3 L935.4,683.2 L936.5,683.2 L937.6,683.2
		L938.8,683.2 L939.9,683.1 L941.0,683.1 L942.1,683.1 L943.3,683.0 L944.4,683.0 L945.5,683.0 L946.6,682.9
		L947.8,682.9 L948.9,682.9 L950.0,682.8 L951.1,682.8 L952.3,682.7 L953.4,682.7 L954.5,682.6 L955.6,682.6
		L956.8,682.5 L957.9,682.4 L959.0,682.4 L960.1,682.3 L961.3,682.3 L962.4,682.2 L963.5,682.1 L964.6,682.1
		L965.8,682.0 L966.9,681.9 L968.0,681.9 L969.1,681.8 L970.3,681.7 L971.4,681.6 L972.5,681.5 L973.6,681.5
		L974.8,681.4 L975.9,681.3 L977.0,681.2 L978.1,681.1 L979.3,681.0 L980.4,680.9 L981.5,680.8 L982.6,680.7
		L983.8,680.6 L984.9,680.5 L986.0,680.4 L987.2,680.3 L988.3,680.2 L989.4,680.1 L990.5,680.0 L991.7,679.9
		L992.8,679.8 L993.9,679.7 L995.0,679.6 L996.2,679.4 L997.3,679.3 L998.4,679.2 L999.5,679.1 L1000.7,679.0
		L1001.8,678.8 L1002.9,678.7 L1004.0,678.6 L1005.2,678.5 L1006.3,678.3 L1007.4,678.2 L1008.5,678.1 L1009.7,677.9
		L1010.8,677.8 L1011.9,677.7 L1013.0,677.5 L1014.2,677.4 L1015.3,677.2 L1016.4,677.1 L1017.5,677.0 L1018.7,676.8
		L1019.8,676.7 L1020.9,676.5 L1022.0,676.4 L1023.2,676.2 L1024.3,676.1 L1025.4,675.9 L1026.5,675.7 L1027.7,675.6
		L1028.8,675.4 L1029.9,675.3 L1031.0,675.1 L1032.2,675.0 L1033.3,674.8 L1034.4,674.6 L1035.5,674.5 L1036.7,674.3
		L1037.8,674.1 L1038.9,674.0 L1040.0,673.8 L1041.2,673.6 L1042.3,673.5 L1043.4,673.3 L1044.5,673.1 L1045.7,672.9
		L1046.8,672.8 L1047.9,672.6 L1049.0,672.4 L1050.2,672.2 L1051.3,672.1 L1052.4,671.9 L1053.6,671.7 L1054.7,671.5
		L1055.8,671.3 L1056.9,671.2 L1058.1,671.0 L1059.2,670.8 L1060.3,670.6 L1061.4,670.4 L1062.6,670.2 L1063.7,670.0
		L1064.8,669.9 L1065.9,669.7 L1067.1,669.5 L1068.2,669.3 L1069.3,669.1 L1070.4,668.9 L1071.6,668.7 L1072.7,668.5
		L1073.8,668.3 L1074.9,668.1 L1076.1,667.9 L1077.2,667.7 L1078.3,667.6 L1079.4,667.4 L1080.6,667.2 L1081.7,667.0
		L1082.8,666.8 L1083.9,666.6 L1085.1,666.4 L1086.2,666.2 L1087.3,666.0 L1088.4,665.8 L1089.6,665.6 L1090.7,665.4
		L1091.8,665.2 L1092.9,665.0 L1094.1,664.8 L1095.2,664.6 L1096.3,664.4 L1097.4,664.2 L1098.6,664.0 L1099.7,663.8
		L1100.8,663.6 L1101.9,663.4 L1103.1,663.2 L1104.2,663.0 L1105.3,662.8 L1106.4,662.6 L1107.6,662.4 L1108.7,662.2
		L1109.8,662.0 L1110.9,661.8 L1112.1,661.6 L1113.2,661.4 L1114.3,661.2 L1115.4,661.0 L1116.6,660.8 L1117.7,660.6
		L1118.8,660.4 L1120.0,660.2 L1121.1,660.0 L1122.2,659.8 L1123.3,659.6 L1124.5,659.5 L1125.6,659.3 L1126.7,659.1
		L1127.8,658.9 L1129.0,658.7 L1130.1,658.5 L1131.2,658.3 L1132.3,658.1 L1133.5,657.9 L1134.6,657.7 L1135.7,657.5
		L1136.8,657.4 L1138.0,657.2 L1139.1,657.0 L1140.2,656.8 L1141.3,656.6 L1142.5,656.4 L1143.6,656.2 L1144.7,656.1
		L1145.8,655.9 L1147.0,655.7 L1148.1,655.5 L1149.2,655.4 L1150.3,655.2 L1151.5,655.0 L1152.6,654.8 L1153.7,654.7
		L1154.8,654.5 L1156.0,654.3 L1157.1,654.1 L1158.2,654.0 L1159.3,653.8 L1160.5,653.6 L1161.6,653.5 L1162.7,653.3
		L1163.8,653.1 L1165.0,653.0 L1166.1,652.8 L1167.2,652.7 L1168.3,652.5 L1169.5,652.4 L1170.6,652.2 L1171.7,652.0
		L1172.8,651.9 L1174.0,651.7 L1175.1,651.6 L1176.2,651.4 L1177.3,651.3 L1178.5,651.2 L1179.6,651.0 L1180.7,650.9
		L1181.8,650.7 L1183.0,650.6 L1184.1,650.5 L1185.2,650.3 L1186.3,650.2 L1187.5,650.1 L1188.6,649.9 L1189.7,649.8
		L1190.9,649.7 L1192.0,649.6 L1193.1,649.4 L1194.2,649.3 L1195.4,649.2 L1196.5,649.1 L1197.6,649.0 L1198.7,648.9
		L1199.9,648.8 L1201.0,648.7 L1202.1,648.5 L1203.2,648.4 L1204.4,648.3 L1205.5,648.2 L1206.6,648.1 L1207.7,648.0
		L1208.9,648.0 L1210.0,647.9 L1211.1,647.8 L1212.2,647.7 L1213.4,647.6 L1214.5,647.5 L1215.6,647.4 L1216.7,647.4
		L1217.9,647.3 L1219.0,647.2 L1220.1,647.1 L1221.2,647.1 L1222.4,647.0 L1223.5,646.9 L1224.6,646.9 L1225.7,646.8
		L1226.9,646.7 L1228.0,646.7 L1229.1,646.6 L1230.2,646.6 L1231.4,646.5 L1232.5,646.5 L1233.6,646.4 L1234.7,646.4
		L1235.9,646.3 L1237.0,646.3 L1238.1,646.3 L1239.2,646.2 L1240.4,646.2 L1241.5,646.2 L1242.6,646.1 L1243.7,646.1
		L1244.9,646.1 L1246.0,646.1 L1247.1,646.1 L1248.2,646.0 L1249.4,646.0 L1250.5,646.0 L1251.6,646.0 L1252.7,646.0
		L1253.9,646.0 L1255.0,646.0  '/></g>
	</g>
	<g id="gnuplot_plot_5" ><title>gnuplot_plot_5</title>
<g fill="none" color="black" stroke="currentColor" stroke-width="1.00" stroke-linecap="butt" stroke-linejoin="miter">
	<path stroke='rgb(  0, 100,   0)'  d='M103.7,93.9 L104.8,96.1 L106.0,102.5 L107.1,112.3 L108.2,124.4 L109.3,137.8 L110.5,151.7 L111.6,165.2
		L112.7,178.1 L113.8,189.9 L115.0,200.5 L116.1,210.0 L117.2,218.4 L118.3,225.7 L119.5,232.0 L120.6,237.5
		L121.7,242.3 L122.8,246.5 L124.0,250.1 L125.1,253.2 L126.2,255.9 L127.3,258.4 L128.5,260.5 L129.6,262.3
		L130.7,264.0 L131.8,265.5 L133.0,266.9 L134.1,268.1 L135.2,269.2 L136.3,270.2 L137.5,271.2 L138.6,272.1
		L139.7,272.9 L140.8,273.7 L142.0,274.4 L143.1,275.1 L144.2,275.8 L145.3,276.4 L146.5,277.1 L147.6,277.7
		L148.7,278.2 L149.8,278.8 L151.0,279.4 L152.1,279.9 L153.2,280.5 L154.3,281.0 L155.5,281.6 L156.6,282.1
		L157.7,282.6 L158.8,283.2 L160.0,283.7 L161.1,284.2 L162.2,284.8 L163.3,285.3 L164.5,285.8 L165.6,286.4
		L166.7,286.9 L167.8,287.5 L169.0,288.0 L170.1,288.6 L171.2,289.1 L172.4,289.7 L173.5,290.2 L174.6,290.8
		L175.7,291.4 L176.9,292.0 L178.0,292.5 L179.1,293.1 L180.2,293.7 L181.4,294.3 L182.5,294.9 L183.6,295.5
		L184.7,296.1 L185.9,296.7 L187.0,297.4 L188.1,298.0 L189.2,298.6 L190.4,299.3 L191.5,299.9 L192.6,300.5
		L193.7,301.2 L194.9,301.9 L196.0,302.5 L197.1,303.2 L198.2,303.9 L199.4,304.5 L200.5,305.2 L201.6,305.9
		L202.7,306.6 L203.9,307.3 L205.0,308.0 L206.1,308.7 L207.2,309.4 L208.4,310.1 L209.5,310.9 L210.6,311.6
		L211.7,312.3 L212.9,313.0 L214.0,313.8 L215.1,314.5 L216.2,315.3 L217.4,316.0 L218.5,316.8 L219.6,317.5
		L220.7,318.3 L221.9,319.1 L223.0,319.9 L224.1,320.6 L225.2,321.4 L226.4,322.2 L227.5,323.0 L228.6,323.8
		L229.7,324.6 L230.9,325.4 L232.0,326.2 L233.1,327.0 L234.2,327.8 L235.4,328.6 L236.5,329.4 L237.6,330.3
		L238.7,331.1 L239.9,331.9 L241.0,332.7 L242.1,333.6 L243.3,334.4 L244.4,335.3 L245.5,336.1 L246.6,337.0
		L247.8,337.8 L248.9,338.7 L250.0,339.5 L251.1,340.4 L252.3,341.2 L253.4,342.1 L254.5,343.0 L255.6,343.8
		L256.8,344.7 L257.9,345.6 L259.0,346.4 L260.1,347.3 L261.3,348.2 L262.4,349.1 L263.5,350.0 L264.6,350.9
		L265.8,351.7 L266.9,352.6 L268.0,353.5 L269.1,354.4 L270.3,355.3 L271.4,356.2 L272.5,357.1 L273.6,358.0
		L274.8,358.9 L275.9,359.8 L277.0,360.7 L278.1,361.6 L279.3,362.6 L280.4,363.5 L281.5,364.4 L282.6,365.3
		L283.8,366.2 L284.9,367.1 L286.0,368.0 L287.1,369.0 L288.3,369.9 L289.4,370.8 L290.5,371.7 L291.6,372.6
		L292.8,373.6 L293.9,374.5 L295.0,375.4 L296.1,376.3 L297.3,377.3 L298.4,378.2 L299.5,379.1 L300.6,380.1
		L301.8,381.0 L302.9,381.9 L304.0,382.8 L305.1,383.8 L306.3,384.7 L307.4,385.6 L308.5,386.6 L309.7,387.5
		L310.8,388.4 L311.9,389.4 L313.0,390.3 L314.2,391.2 L315.3,392.2 L316.4,393.1 L317.5,394.0 L318.7,395.0
		L319.8,395.9 L320.9,396.9 L322.0,397.8 L323.2,398.7 L324.3,399.7 L325.4,400.6 L326.5,401.5 L327.7,402.5
		L328.8,403.4 L329.9,404.3 L331.0,405.3 L332.2,406.2 L333.3,407.1 L334.4,408.1 L335.5,409.0 L336.7,409.9
		L337.8,410.9 L338.9,411.8 L340.0,412.7 L341.2,413.7 L342.3,414.6 L343.4,415.5 L344.5,416.5 L345.7,417.4
		L346.8,418.3 L347.9,419.3 L349.0,420.2 L350.2,421.1 L351.3,422.0 L352.4,423.0 L353.5,423.9 L354.7,424.8
		L355.8,425.7 L356.9,426.7 L358.0,427.6 L359.2,428.5 L360.3,429.4 L361.4,430.3 L362.5,431.3 L363.7,432.2
		L364.8,433.1 L365.9,434.0 L367.0,434.9 L368.2,435.9 L369.3,436.8 L370.4,437.7 L371.5,438.6 L372.7,439.5
		L373.8,440.4 L374.9,441.3 L376.1,442.2 L377.2,443.1 L378.3,444.0 L379.4,444.9 L380.6,445.9 L381.7,446.8
		L382.8,447.7 L383.9,448.6 L385.1,449.5 L386.2,450.4 L387.3,451.3 L388.4,452.1 L389.6,453.0 L390.7,453.9
		L391.8,454.8 L392.9,455.7 L394.1,456.6 L395.2,457.5 L396.3,458.4 L397.4,459.3 L398.6,460.2 L399.7,461.0
		L400.8,461.9 L401.9,462.8 L403.1,463.7 L404.2,464.6 L405.3,465.4 L406.4,466.3 L407.6,467.2 L408.7,468.0
		L409.8,468.9 L410.9,469.8 L412.1,470.7 L413.2,471.5 L414.3,472.4 L415.4,473.2 L416.6,474.1 L417.7,475.0
		L418.8,475.8 L419.9,476.7 L421.1,477.5 L422.2,478.4 L423.3,479.2 L424.4,480.1 L425.6,480.9 L426.7,481.8
		L427.8,482.6 L428.9,483.5 L430.1,484.3 L431.2,485.2 L432.3,486.0 L433.4,486.9 L434.6,487.7 L435.7,488.5
		L436.8,489.4 L437.9,490.2 L439.1,491.0 L440.2,491.9 L441.3,492.7 L442.5,493.5 L443.6,494.3 L444.7,495.1
		L445.8,496.0 L447.0,496.8 L448.1,497.6 L449.2,498.4 L450.3,499.2 L451.5,500.0 L452.6,500.9 L453.7,501.7
		L454.8,502.5 L456.0,503.3 L457.1,504.1 L458.2,504.9 L459.3,505.7 L460.5,506.5 L461.6,507.3 L462.7,508.1
		L463.8,508.9 L465.0,509.7 L466.1,510.5 L467.2,511.2 L468.3,512.0 L469.5,512.8 L470.6,513.6 L471.7,514.4
		L472.8,515.2 L474.0,515.9 L475.1,516.7 L476.2,517.5 L477.3,518.3 L478.5,519.0 L479.6,519.8 L480.7,520.6
		L481.8,521.3 L483.0,522.1 L484.1,522.8 L485.2,523.6 L486.3,524.4 L487.5,525.1 L488.6,525.9 L489.7,526.6
		L490.8,527.4 L492.0,528.1 L493.1,528.9 L494.2,529.6 L495.3,530.4 L496.5,531.1 L497.6,531.8 L498.7,532.6
		L499.8,533.3 L501.0,534.1 L502.1,534.8 L503.2,535.5 L504.3,536.2 L505.5,537.0 L506.6,537.7 L507.7,538.4
		L508.8,539.1 L510.0,539.9 L511.1,540.6 L512.2,541.3 L513.4,542.0 L514.5,542.7 L515.6,543.4 L516.7,544.1
		L517.9,544.8 L519.0,545.6 L520.1,546.3 L521.2,547.0 L522.4,547.7 L523.5,548.4 L524.6,549.0 L525.7,549.7
		L526.9,550.4 L528.0,551.1 L529.1,551.8 L530.2,552.5 L531.4,553.2 L532.5,553.9 L533.6,554.5 L534.7,555.2
		L535.9,555.9 L537.0,556.6 L538.1,557.2 L539.2,557.9 L540.4,558.6 L541.5,559.3 L542.6,559.9 L543.7,560.6
		L544.9,561.2 L546.0,561.9 L547.1,562.6 L548.2,563.2 L549.4,563.9 L550.5,564.5 L551.6,565.2 L552.7,565.8
		L553.9,566.5 L555.0,567.1 L556.1,567.8 L557.2,568.4 L558.4,569.0 L559.5,569.7 L560.6,570.3 L561.7,571.0
		L562.9,571.6 L564.0,572.2 L565.1,572.8 L566.2,573.5 L567.4,574.1 L568.5,574.7 L569.6,575.3 L570.7,576.0
		L571.9,576.6 L573.0,577.2 L574.1,577.8 L575.2,578.4 L576.4,579.0 L577.5,579.6 L578.6,580.2 L579.8,580.8
		L580.9,581.4 L582.0,582.0 L583.1,582.6 L584.3,583.2 L585.4,583.8 L586.5,584.4 L587.6,585.0 L588.8,585.6
		L589.9,586.2 L591.0,586.8 L592.1,587.4 L593.3,587.9 L594.4,588.5 L595.5,589.1 L596.6,589.7 L597.8,590.2
		L598.9,590.8 L600.0,591.4 L601.1,591.9 L602.3,592.5 L603.4,593.1 L604.5,593.6 L605.6,594.2 L606.8,594.8
		L607.9,595.3 L609.0,595.9 L610.1,596.4 L611.3,597.0 L612.4,597.5 L613.5,598.1 L614.6,598.6 L615.8,599.2
		L616.9,599.7 L618.0,600.2 L619.1,600.8 L620.3,601.3 L621.4,601.8 L622.5,602.4 L623.6,602.9 L624.8,603.4
		L625.9,604.0 L627.0,604.5 L628.1,605.0 L629.3,605.5 L630.4,606.0 L631.5,606.6 L632.6,607.1 L633.8,607.6
		L634.9,608.1 L636.0,608.6 L637.1,609.1 L638.3,609.6 L639.4,610.1 L640.5,610.6 L641.6,611.1 L642.8,611.6
		L643.9,612.1 L645.0,612.6 L646.2,613.1 L647.3,613.6 L648.4,614.1 L649.5,614.6 L650.7,615.1 L651.8,615.5
		L652.9,616.0 L654.0,616.5 L655.2,617.0 L656.3,617.5 L657.4,617.9 L658.5,618.4 L659.7,618.9 L660.8,619.3
		L661.9,619.8 L663.0,620.3 L664.2,620.7 L665.3,621.2 L666.4,621.6 L667.5,622.1 L668.7,622.6 L669.8,623.0
		L670.9,623.5 L672.0,623.9 L673.2,624.3 L674.3,624.8 L675.4,625.2 L676.5,625.7 L677.7,626.1 L678.8,626.6
		L679.9,627.0 L681.0,627.4 L682.2,627.9 L683.3,628.3 L684.4,628.7 L685.5,629.1 L686.7,629.6 L687.8,630.0
		L688.9,630.4 L690.0,630.8 L691.2,631.2 L692.3,631.6 L693.4,632.1 L694.5,632.5 L695.7,632.9 L696.8,633.3
		L697.9,633.7 L699.0,634.1 L700.2,634.5 L701.3,634.9 L702.4,635.3 L703.5,635.7 L704.7,636.1 L705.8,636.5
		L706.9,636.8 L708.0,637.2 L709.2,637.6 L710.3,638.0 L711.4,638.4 L712.5,638.8 L713.7,639.1 L714.8,639.5
		L715.9,639.9 L717.1,640.3 L718.2,640.6 L719.3,641.0 L720.4,641.4 L721.6,641.7 L722.7,642.1 L723.8,642.4
		L724.9,642.8 L726.1,643.2 L727.2,643.5 L728.3,643.9 L729.4,644.2 L730.6,644.6 L731.7,644.9 L732.8,645.2
		L733.9,645.6 L735.1,645.9 L736.2,646.3 L737.3,646.6 L738.4,646.9 L739.6,647.3 L740.7,647.6 L741.8,647.9
		L742.9,648.3 L744.1,648.6 L745.2,648.9 L746.3,649.2 L747.4,649.5 L748.6,649.9 L749.7,650.2 L750.8,650.5
		L751.9,650.8 L753.1,651.1 L754.2,651.4 L755.3,651.7 L756.4,652.0 L757.6,652.3 L758.7,652.6 L759.8,652.9
		L760.9,653.2 L762.1,653.5 L763.2,653.8 L764.3,654.1 L765.4,654.4 L766.6,654.6 L767.7,654.9 L768.8,655.2
		L769.9,655.5 L771.1,655.8 L772.2,656.0 L773.3,656.3 L774.4,656.6 L775.6,656.8 L776.7,657.1 L777.8,657.4
		L778.9,657.6 L780.1,657.9 L781.2,658.1 L782.3,658.4 L783.5,658.7 L784.6,658.9 L785.7,659.2 L786.8,659.4
		L788.0,659.7 L789.1,659.9 L790.2,660.1 L791.3,660.4 L792.5,660.6 L793.6,660.8 L794.7,661.1 L795.8,661.3
		L797.0,661.5 L798.1,661.8 L799.2,662.0 L800.3,662.2 L801.5,662.4 L802.6,662.7 L803.7,662.9 L804.8,663.1
		L806.0,663.3 L807.1,663.5 L808.2,663.7 L809.3,663.9 L810.5,664.1 L811.6,664.3 L812.7,664.5 L813.8,664.7
		L815.0,664.9 L816.1,665.1 L817.2,665.3 L818.3,665.5 L819.5,665.7 L820.6,665.9 L821.7,666.1 L822.8,666.2
		L824.0,666.4 L825.1,666.6 L826.2,666.8 L827.3,667.0 L828.5,667.1 L829.6,667.3 L830.7,667.5 L831.8,667.6
		L833.0,667.8 L834.1,668.0 L835.2,668.1 L836.3,668.3 L837.5,668.4 L838.6,668.6 L839.7,668.7 L840.8,668.9
		L842.0,669.0 L843.1,669.2 L844.2,669.3 L845.3,669.4 L846.5,669.6 L847.6,669.7 L848.7,669.9 L849.9,670.0
		L851.0,670.1 L852.1,670.2 L853.2,670.4 L854.4,670.5 L855.5,670.6 L856.6,670.7 L857.7,670.8 L858.9,671.0
		L860.0,671.1 L861.1,671.2 L862.2,671.3 L863.4,671.4 L864.5,671.5 L865.6,671.6 L866.7,671.7 L867.9,671.8
		L869.0,671.9 L870.1,672.0 L871.2,672.1 L872.4,672.2 L873.5,672.3 L874.6,672.3 L875.7,672.4 L876.9,672.5
		L878.0,672.6 L879.1,672.7 L880.2,672.7 L881.4,672.8 L882.5,672.9 L883.6,673.0 L884.7,673.0 L885.9,673.1
		L887.0,673.2 L888.1,673.2 L889.2,673.3 L890.4,673.3 L891.5,673.4 L892.6,673.4 L893.7,673.5 L894.9,673.5
		L896.0,673.6 L897.1,673.6 L898.2,673.7 L899.4,673.7 L900.5,673.7 L901.6,673.8 L902.7,673.8 L903.9,673.8
		L905.0,673.9 L906.1,673.9 L907.2,673.9 L908.4,673.9 L909.5,674.0 L910.6,674.0 L911.7,674.0 L912.9,674.0
		L914.0,674.0 L915.1,674.0 L916.2,674.0 L917.4,674.0 L918.5,674.0 L919.6,674.0 L920.8,674.0 L921.9,674.0
		L923.0,674.0 L924.1,674.0 L925.3,674.0 L926.4,674.0 L927.5,674.0 L928.6,674.0 L929.8,674.0 L930.9,674.0
		L932.0,673.9 L933.1,673.9 L934.3,673.9 L935.4,673.9 L936.5,673.8 L937.6,673.8 L938.8,673.8 L939.9,673.7
		L941.0,673.7 L942.1,673.7 L943.3,673.6 L944.4,673.6 L945.5,673.5 L946.6,673.5 L947.8,673.4 L948.9,673.4
		L950.0,673.3 L951.1,673.3 L952.3,673.2 L953.4,673.2 L954.5,673.1 L955.6,673.1 L956.8,673.0 L957.9,672.9
		L959.0,672.9 L960.1,672.8 L961.3,672.7 L962.4,672.7 L963.5,672.6 L964.6,672.5 L965.8,672.4 L966.9,672.3
		L968.0,672.3 L969.1,672.2 L970.3,672.1 L971.4,672.0 L972.5,671.9 L973.6,671.8 L974.8,671.7 L975.9,671.6
		L977.0,671.5 L978.1,671.5 L979.3,671.4 L980.4,671.3 L981.5,671.1 L982.6,671.0 L983.8,670.9 L984.9,670.8
		L986.0,670.7 L987.2,670.6 L988.3,670.5 L989.4,670.4 L990.5,670.3 L991.7,670.1 L992.8,670.0 L993.9,669.9
		L995.0,669.8 L996.2,669.7 L997.3,669.5 L998.4,669.4 L999.5,669.3 L1000.7,669.1 L1001.8,669.0 L1002.9,668.9
		L1004.0,668.7 L1005.2,668.6 L1006.3,668.5 L1007.4,668.3 L1008.5,668.2 L1009.7,668.0 L1010.8,667.9 L1011.9,667.8
		L1013.0,667.6 L1014.2,667.5 L1015.3,667.3 L1016.4,667.2 L1017.5,667.0 L1018.7,666.9 L1019.8,666.7 L1020.9,666.5
		L1022.0,666.4 L1023.2,666.2 L1024.3,666.1 L1025.4,665.9 L1026.5,665.7 L1027.7,665.6 L1028.8,665.4 L1029.9,665.2
		L1031.0,665.1 L1032.2,664.9 L1033.3,664.7 L1034.4,664.6 L1035.5,664.4 L1036.7,664.2 L1037.8,664.0 L1038.9,663.9
		L1040.0,663.7 L1041.2,663.5 L1042.3,663.3 L1043.4,663.2 L1044.5,663.0 L1045.7,662.8 L1046.8,662.6 L1047.9,662.4
		L1049.0,662.2 L1050.2,662.1 L1051.3,661.9 L1052.4,661.7 L1053.6,661.5 L1054.7,661.3 L1055.8,661.1 L1056.9,660.9
		L1058.1,660.7 L1059.2,660.5 L1060.3,660.4 L1061.4,660.2 L1062.6,660.0 L1063.7,659.8 L1064.8,659.6 L1065.9,659.4
		L1067.1,659.2 L1068.2,659.0 L1069.3,658.8 L1070.4,658.6 L1071.6,658.4 L1072.7,658.2 L1073.8,658.0 L1074.9,657.8
		L1076.1,657.6 L1077.2,657.4 L1078.3,657.2 L1079.4,657.0 L1080.6,656.8 L1081.7,656.6 L1082.8,656.4 L1083.9,656.2
		L1085.1,656.0 L1086.2,655.8 L1087.3,655.6 L1088.4,655.4 L1089.6,655.1 L1090.7,654.9 L1091.8,654.7 L1092.9,654.5
		L1094.1,654.3 L1095.2,654.1 L1096.3,653.9 L1097.4,653.7 L1098.6,653.5 L1099.7,653.3 L1100.8,653.1 L1101.9,652.9
		L1103.1,652.7 L1104.2,652.5 L1105.3,652.3 L1106.4,652.1 L1107.6,651.9 L1108.7,651.7 L1109.8,651.4 L1110.9,651.2
		L1112.1,651.0 L1113.2,650.8 L1114.3,650.6 L1115.4,650.4 L1116.6,650.2 L1117.7,650.0 L1118.8,649.8 L1120.0,649.6
		L1121.1,649.4 L1122.2,649.2 L1123.3,649.0 L1124.5,648.8 L1125.6,648.6 L1126.7,648.4 L1127.8,648.2 L1129.0,648.0
		L1130.1,647.8 L1131.2,647.6 L1132.3,647.4 L1133.5,647.2 L1134.6,647.0 L1135.7,646.8 L1136.8,646.7 L1138.0,646.5
		L1139.1,646.3 L1140.2,646.1 L1141.3,645.9 L1142.5,645.7 L1143.6,645.5 L1144.7,645.3 L1145.8,645.1 L1147.0,645.0
		L1148.1,644.8 L1149.2,644.6 L1150.3,644.4 L1151.5,644.2 L1152.6,644.1 L1153.7,643.9 L1154.8,643.7 L1156.0,643.5
		L1157.1,643.3 L1158.2,643.2 L1159.3,643.0 L1160.5,642.8 L1161.6,642.7 L1162.7,642.5 L1163.8,642.3 L1165.0,642.2
		L1166.1,642.0 L1167.2,641.8 L1168.3,641.7 L1169.5,641.5 L1170.6,641.4 L1171.7,641.2 L1172.8,641.0 L1174.0,640.9
		L1175.1,640.7 L1176.2,640.6 L1177.3,640.4 L1178.5,640.3 L1179.6,640.1 L1180.7,640.0 L1181.8,639.9 L1183.0,639.7
		L1184.1,639.6 L1185.2,639.4 L1186.3,639.3 L1187.5,639.2 L1188.6,639.0 L1189.7,638.9 L1190.9,638.8 L1192.0,638.7
		L1193.1,638.5 L1194.2,638.4 L1195.4,638.3 L1196.5,638.2 L1197.6,638.1 L1198.7,637.9 L1199.9,637.8 L1201.0,637.7
		L1202.1,637.6 L1203.2,637.5 L1204.4,637.4 L1205.5,637.3 L1206.6,637.2 L1207.7,637.1 L1208.9,637.0 L1210.0,636.9
		L1211.1,636.8 L1212.2,636.7 L1213.4,636.6 L1214.5,636.6 L1215.6,636.5 L1216.7,636.4 L1217.9,636.3 L1219.0,636.2
		L1220.1,636.2 L1221.2,636.1 L1222.4,636.0 L1223.5,635.9 L1224.6,635.9 L1225.7,635.8 L1226.9,635.8 L1228.0,635.7
		L1229.1,635.6 L1230.2,635.6 L1231.4,635.5 L1232.5,635.5 L1233.6,635.4 L1234.7,635.4 L1235.9,635.4 L1237.0,635.3
		L1238.1,635.3 L1239.2,635.2 L1240.4,635.2 L1241.5,635.2 L1242.6,635.2 L1243.7,635.1 L1244.9,635.1 L1246.0,635.1
		L1247.1,635.1 L1248.2,635.1 L1249.4,635.0 L1250.5,635.0 L1251.6,635.0 L1252.7,635.0 L1253.9,635.0 L1255.0,635.0
		 '/></g>
	</g>
	<g id="gnuplot_plot_6" ><title>gnuplot_plot_6</title>
<g fill="none" color="black" stroke="currentColor" stroke-width="1.00" stroke-linecap="butt" stroke-linejoin="miter">
	<path stroke='rgb(  0,   0, 255)'  d='M103.7,68.8 L104.8,71.0 L106.0,77.4 L107.1,87.1 L108.2,99.2 L109.3,112.5 L110.5,126.2 L111.6,139.7
		L112.7,152.4 L113.8,164.0 L115.0,174.6 L116.1,183.9 L117.2,192.1 L118.3,199.3 L119.5,205.6 L120.6,211.0
		L121.7,215.7 L122.8,219.7 L124.0,223.3 L125.1,226.3 L126.2,229.0 L127.3,231.4 L128.5,233.4 L129.6,235.3
		L130.7,236.9 L131.8,238.4 L133.0,239.7 L134.1,240.9 L135.2,242.0 L136.3,243.0 L137.5,244.0 L138.6,244.8
		L139.7,245.6 L140.8,246.4 L142.0,247.1 L143.1,247.8 L144.2,248.5 L145.3,249.1 L146.5,249.7 L147.6,250.3
		L148.7,250.9 L149.8,251.5 L151.0,252.1 L152.1,252.6 L153.2,253.2 L154.3,253.7 L155.5,254.3 L156.6,254.8
		L157.7,255.3 L158.8,255.9 L160.0,256.4 L161.1,256.9 L162.2,257.5 L163.3,258.0 L164.5,258.5 L165.6,259.1
		L166.7,259.6 L167.8,260.2 L169.0,260.7 L170.1,261.3 L171.2,261.8 L172.4,262.4 L173.5,263.0 L174.6,263.5
		L175.7,264.1 L176.9,264.7 L178.0,265.3 L179.1,265.9 L180.2,266.5 L181.4,267.1 L182.5,267.7 L183.6,268.3
		L184.7,268.9 L185.9,269.5 L187.0,270.2 L188.1,270.8 L189.2,271.4 L190.4,272.1 L191.5,272.7 L192.6,273.4
		L193.7,274.0 L194.9,274.7 L196.0,275.4 L197.1,276.1 L198.2,276.7 L199.4,277.4 L200.5,278.1 L201.6,278.8
		L202.7,279.5 L203.9,280.2 L205.0,280.9 L206.1,281.6 L207.2,282.4 L208.4,283.1 L209.5,283.8 L210.6,284.6
		L211.7,285.3 L212.9,286.0 L214.0,286.8 L215.1,287.5 L216.2,288.3 L217.4,289.1 L218.5,289.8 L219.6,290.6
		L220.7,291.4 L221.9,292.2 L223.0,292.9 L224.1,293.7 L225.2,294.5 L226.4,295.3 L227.5,296.1 L228.6,296.9
		L229.7,297.7 L230.9,298.5 L232.0,299.4 L233.1,300.2 L234.2,301.0 L235.4,301.8 L236.5,302.7 L237.6,303.5
		L238.7,304.3 L239.9,305.2 L241.0,306.0 L242.1,306.9 L243.3,307.7 L244.4,308.6 L245.5,309.4 L246.6,310.3
		L247.8,311.1 L248.9,312.0 L250.0,312.9 L251.1,313.7 L252.3,314.6 L253.4,315.5 L254.5,316.4 L255.6,317.2
		L256.8,318.1 L257.9,319.0 L259.0,319.9 L260.1,320.8 L261.3,321.7 L262.4,322.6 L263.5,323.5 L264.6,324.4
		L265.8,325.3 L266.9,326.2 L268.0,327.1 L269.1,328.0 L270.3,328.9 L271.4,329.8 L272.5,330.7 L273.6,331.7
		L274.8,332.6 L275.9,333.5 L277.0,334.4 L278.1,335.3 L279.3,336.3 L280.4,337.2 L281.5,338.1 L282.6,339.0
		L283.8,340.0 L284.9,340.9 L286.0,341.8 L287.1,342.8 L288.3,343.7 L289.4,344.6 L290.5,345.6 L291.6,346.5
		L292.8,347.5 L293.9,348.4 L295.0,349.3 L296.1,350.3 L297.3,351.2 L298.4,352.2 L299.5,353.1 L300.6,354.1
		L301.8,355.0 L302.9,355.9 L304.0,356.9 L305.1,357.8 L306.3,358.8 L307.4,359.7 L308.5,360.7 L309.7,361.6
		L310.8,362.6 L311.9,363.5 L313.0,364.5 L314.2,365.4 L315.3,366.4 L316.4,367.3 L317.5,368.3 L318.7,369.2
		L319.8,370.2 L320.9,371.2 L322.0,372.1 L323.2,373.1 L324.3,374.0 L325.4,375.0 L326.5,375.9 L327.7,376.9
		L328.8,377.8 L329.9,378.8 L331.0,379.7 L332.2,380.7 L333.3,381.6 L334.4,382.6 L335.5,383.5 L336.7,384.5
		L337.8,385.4 L338.9,386.4 L340.0,387.3 L341.2,388.3 L342.3,389.2 L343.4,390.2 L344.5,391.1 L345.7,392.1
		L346.8,393.0 L347.9,394.0 L349.0,394.9 L350.2,395.9 L351.3,396.8 L352.4,397.8 L353.5,398.7 L354.7,399.6
		L355.8,400.6 L356.9,401.5 L358.0,402.5 L359.2,403.4 L360.3,404.4 L361.4,405.3 L362.5,406.2 L363.7,407.2
		L364.8,408.1 L365.9,409.0 L367.0,410.0 L368.2,410.9 L369.3,411.8 L370.4,412.8 L371.5,413.7 L372.7,414.6
		L373.8,415.6 L374.9,416.5 L376.1,417.4 L377.2,418.4 L378.3,419.3 L379.4,420.2 L380.6,421.1 L381.7,422.1
		L382.8,423.0 L383.9,423.9 L385.1,424.8 L386.2,425.7 L387.3,426.6 L388.4,427.6 L389.6,428.5 L390.7,429.4
		L391.8,430.3 L392.9,431.2 L394.1,432.1 L395.2,433.0 L396.3,433.9 L397.4,434.8 L398.6,435.7 L399.7,436.7
		L400.8,437.6 L401.9,438.5 L403.1,439.4 L404.2,440.2 L405.3,441.1 L406.4,442.0 L407.6,442.9 L408.7,443.8
		L409.8,444.7 L410.9,445.6 L412.1,446.5 L413.2,447.4 L414.3,448.3 L415.4,449.2 L416.6,450.0 L417.7,450.9
		L418.8,451.8 L419.9,452.7 L421.1,453.6 L422.2,454.4 L423.3,455.3 L424.4,456.2 L425.6,457.0 L426.7,457.9
		L427.8,458.8 L428.9,459.6 L430.1,460.5 L431.2,461.4 L432.3,462.2 L433.4,463.1 L434.6,463.9 L435.7,464.8
		L436.8,465.7 L437.9,466.5 L439.1,467.4 L440.2,468.2 L441.3,469.1 L442.5,469.9 L443.6,470.8 L444.7,471.6
		L445.8,472.4 L447.0,473.3 L448.1,474.1 L449.2,475.0 L450.3,475.8 L451.5,476.6 L452.6,477.5 L453.7,478.3
		L454.8,479.1 L456.0,479.9 L457.1,480.8 L458.2,481.6 L459.3,482.4 L460.5,483.2 L461.6,484.1 L462.7,484.9
		L463.8,485.7 L465.0,486.5 L466.1,487.3 L467.2,488.1 L468.3,488.9 L469.5,489.7 L470.6,490.5 L471.7,491.3
		L472.8,492.1 L474.0,492.9 L475.1,493.7 L476.2,494.5 L477.3,495.3 L478.5,496.1 L479.6,496.9 L480.7,497.7
		L481.8,498.5 L483.0,499.3 L484.1,500.0 L485.2,500.8 L486.3,501.6 L487.5,502.4 L488.6,503.2 L489.7,503.9
		L490.8,504.7 L492.0,505.5 L493.1,506.2 L494.2,507.0 L495.3,507.8 L496.5,508.5 L497.6,509.3 L498.7,510.1
		L499.8,510.8 L501.0,511.6 L502.1,512.3 L503.2,513.1 L504.3,513.8 L505.5,514.6 L506.6,515.3 L507.7,516.1
		L508.8,516.8 L510.0,517.5 L511.1,518.3 L512.2,519.0 L513.4,519.8 L514.5,520.5 L515.6,521.2 L516.7,522.0
		L517.9,522.7 L519.0,523.4 L520.1,524.1 L521.2,524.9 L522.4,525.6 L523.5,526.3 L524.6,527.0 L525.7,527.7
		L526.9,528.4 L528.0,529.1 L529.1,529.9 L530.2,530.6 L531.4,531.3 L532.5,532.0 L533.6,532.7 L534.7,533.4
		L535.9,534.1 L537.0,534.8 L538.1,535.5 L539.2,536.1 L540.4,536.8 L541.5,537.5 L542.6,538.2 L543.7,538.9
		L544.9,539.6 L546.0,540.3 L547.1,540.9 L548.2,541.6 L549.4,542.3 L550.5,543.0 L551.6,543.6 L552.7,544.3
		L553.9,545.0 L555.0,545.6 L556.1,546.3 L557.2,547.0 L558.4,547.6 L559.5,548.3 L560.6,548.9 L561.7,549.6
		L562.9,550.2 L564.0,550.9 L565.1,551.5 L566.2,552.2 L567.4,552.8 L568.5,553.5 L569.6,554.1 L570.7,554.7
		L571.9,555.4 L573.0,556.0 L574.1,556.6 L575.2,557.3 L576.4,557.9 L577.5,558.5 L578.6,559.2 L579.8,559.8
		L580.9,560.4 L582.0,561.0 L583.1,561.6 L584.3,562.3 L585.4,562.9 L586.5,563.5 L587.6,564.1 L588.8,564.7
		L589.9,565.3 L591.0,565.9 L592.1,566.5 L593.3,567.1 L594.4,567.7 L595.5,568.3 L596.6,568.9 L597.8,569.5
		L598.9,570.1 L600.0,570.7 L601.1,571.2 L602.3,571.8 L603.4,572.4 L604.5,573.0 L605.6,573.6 L606.8,574.1
		L607.9,574.7 L609.0,575.3 L610.1,575.9 L611.3,576.4 L612.4,577.0 L613.5,577.6 L614.6,578.1 L615.8,578.7
		L616.9,579.2 L618.0,579.8 L619.1,580.4 L620.3,580.9 L621.4,581.5 L622.5,582.0 L623.6,582.6 L624.8,583.1
		L625.9,583.6 L627.0,584.2 L628.1,584.7 L629.3,585.3 L630.4,585.8 L631.5,586.3 L632.6,586.9 L633.8,587.4
		L634.9,587.9 L636.0,588.4 L637.1,589.0 L638.3,589.5 L639.4,590.0 L640.5,590.5 L641.6,591.0 L642.8,591.6
		L643.9,592.1 L645.0,592.6 L646.2,593.1 L647.3,593.6 L648.4,594.1 L649.5,594.6 L650.7,595.1 L651.8,595.6
		L652.9,596.1 L654.0,596.6 L655.2,597.1 L656.3,597.6 L657.4,598.0 L658.5,598.5 L659.7,599.0 L660.8,599.5
		L661.9,600.0 L663.0,600.5 L664.2,600.9 L665.3,601.4 L666.4,601.9 L667.5,602.3 L668.7,602.8 L669.8,603.3
		L670.9,603.7 L672.0,604.2 L673.2,604.7 L674.3,605.1 L675.4,605.6 L676.5,606.0 L677.7,606.5 L678.8,606.9
		L679.9,607.4 L681.0,607.8 L682.2,608.3 L683.3,608.7 L684.4,609.2 L685.5,609.6 L686.7,610.0 L687.8,610.5
		L688.9,610.9 L690.0,611.3 L691.2,611.7 L692.3,612.2 L693.4,612.6 L694.5,613.0 L695.7,613.4 L696.8,613.9
		L697.9,614.3 L699.0,614.7 L700.2,615.1 L701.3,615.5 L702.4,615.9 L703.5,616.3 L704.7,616.7 L705.8,617.1
		L706.9,617.5 L708.0,617.9 L709.2,618.3 L710.3,618.7 L711.4,619.1 L712.5,619.5 L713.7,619.9 L714.8,620.3
		L715.9,620.6 L717.1,621.0 L718.2,621.4 L719.3,621.8 L720.4,622.1 L721.6,622.5 L722.7,622.9 L723.8,623.3
		L724.9,623.6 L726.1,624.0 L727.2,624.3 L728.3,624.7 L729.4,625.1 L730.6,625.4 L731.7,625.8 L732.8,626.1
		L733.9,626.5 L735.1,626.8 L736.2,627.2 L737.3,627.5 L738.4,627.8 L739.6,628.2 L740.7,628.5 L741.8,628.9
		L742.9,629.2 L744.1,629.5 L745.2,629.8 L746.3,630.2 L747.4,630.5 L748.6,630.8 L749.7,631.1 L750.8,631.5
		L751.9,631.8 L753.1,632.1 L754.2,632.4 L755.3,632.7 L756.4,633.0 L757.6,633.3 L758.7,633.6 L759.8,633.9
		L760.9,634.2 L762.1,634.5 L763.2,634.8 L764.3,635.1 L765.4,635.4 L766.6,635.7 L767.7,636.0 L768.8,636.3
		L769.9,636.5 L771.1,636.8 L772.2,637.1 L773.3,637.4 L774.4,637.6 L775.6,637.9 L776.7,638.2 L777.8,638.4
		L778.9,638.7 L780.1,639.0 L781.2,639.2 L782.3,639.5 L783.5,639.7 L784.6,640.0 L785.7,640.2 L786.8,640.5
		L788.0,640.7 L789.1,641.0 L790.2,641.2 L791.3,641.5 L792.5,641.7 L793.6,641.9 L794.7,642.2 L795.8,642.4
		L797.0,642.6 L798.1,642.9 L799.2,643.1 L800.3,643.3 L801.5,643.5 L802.6,643.8 L803.7,644.0 L804.8,644.2
		L806.0,644.4 L807.1,644.6 L808.2,644.8 L809.3,645.0 L810.5,645.2 L811.6,645.4 L812.7,645.6 L813.8,645.8
		L815.0,646.0 L816.1,646.2 L817.2,646.4 L818.3,646.6 L819.5,646.8 L820.6,647.0 L821.7,647.1 L822.8,647.3
		L824.0,647.5 L825.1,647.7 L826.2,647.8 L827.3,648.0 L828.5,648.2 L829.6,648.3 L830.7,648.5 L831.8,648.7
		L833.0,648.8 L834.1,649.0 L835.2,649.1 L836.3,649.3 L837.5,649.4 L838.6,649.6 L839.7,649.7 L840.8,649.9
		L842.0,650.0 L843.1,650.2 L844.2,650.3 L845.3,650.4 L846.5,650.6 L847.6,650.7 L848.7,650.8 L849.9,650.9
		L851.0,651.1 L852.1,651.2 L853.2,651.3 L854.4,651.4 L855.5,651.5 L856.6,651.6 L857.7,651.8 L858.9,651.9
		L860.0,652.0 L861.1,652.1 L862.2,652.2 L863.4,652.3 L864.5,652.4 L865.6,652.5 L866.7,652.6 L867.9,652.6
		L869.0,652.7 L870.1,652.8 L871.2,652.9 L872.4,653.0 L873.5,653.1 L874.6,653.1 L875.7,653.2 L876.9,653.3
		L878.0,653.3 L879.1,653.4 L880.2,653.5 L881.4,653.5 L882.5,653.6 L883.6,653.7 L884.7,653.7 L885.9,653.8
		L887.0,653.8 L888.1,653.9 L889.2,653.9 L890.4,654.0 L891.5,654.0 L892.6,654.0 L893.7,654.1 L894.9,654.1
		L896.0,654.2 L897.1,654.2 L898.2,654.2 L899.4,654.2 L900.5,654.3 L901.6,654.3 L902.7,654.3 L903.9,654.3
		L905.0,654.4 L906.1,654.4 L907.2,654.4 L908.4,654.4 L909.5,654.4 L910.6,654.4 L911.7,654.4 L912.9,654.4
		L914.0,654.4 L915.1,654.4 L916.2,654.4 L917.4,654.4 L918.5,654.4 L919.6,654.4 L920.8,654.4 L921.9,654.3
		L923.0,654.3 L924.1,654.3 L925.3,654.3 L926.4,654.3 L927.5,654.2 L928.6,654.2 L929.8,654.2 L930.9,654.1
		L932.0,654.1 L933.1,654.1 L934.3,654.0 L935.4,654.0 L936.5,653.9 L937.6,653.9 L938.8,653.9 L939.9,653.8
		L941.0,653.7 L942.1,653.7 L943.3,653.6 L944.4,653.6 L945.5,653.5 L946.6,653.5 L947.8,653.4 L948.9,653.3
		L950.0,653.3 L951.1,653.2 L952.3,653.1 L953.4,653.1 L954.5,653.0 L955.6,652.9 L956.8,652.8 L957.9,652.7
		L959.0,652.7 L960.1,652.6 L961.3,652.5 L962.4,652.4 L963.5,652.3 L964.6,652.2 L965.8,652.1 L966.9,652.0
		L968.0,651.9 L969.1,651.8 L970.3,651.7 L971.4,651.6 L972.5,651.5 L973.6,651.4 L974.8,651.3 L975.9,651.2
		L977.0,651.1 L978.1,651.0 L979.3,650.8 L980.4,650.7 L981.5,650.6 L982.6,650.5 L983.8,650.4 L984.9,650.2
		L986.0,650.1 L987.2,650.0 L988.3,649.8 L989.4,649.7 L990.5,649.6 L991.7,649.4 L992.8,649.3 L993.9,649.2
		L995.0,649.0 L996.2,648.9 L997.3,648.7 L998.4,648.6 L999.5,648.4 L1000.7,648.3 L1001.8,648.1 L1002.9,648.0
		L1004.0,647.8 L1005.2,647.7 L1006.3,647.5 L1007.4,647.4 L1008.5,647.2 L1009.7,647.0 L1010.8,646.9 L1011.9,646.7
		L1013.0,646.6 L1014.2,646.4 L1015.3,646.2 L1016.4,646.1 L1017.5,645.9 L1018.7,645.7 L1019.8,645.5 L1020.9,645.4
		L1022.0,645.2 L1023.2,645.0 L1024.3,644.8 L1025.4,644.7 L1026.5,644.5 L1027.7,644.3 L1028.8,644.1 L1029.9,643.9
		L1031.0,643.7 L1032.2,643.6 L1033.3,643.4 L1034.4,643.2 L1035.5,643.0 L1036.7,642.8 L1037.8,642.6 L1038.9,642.4
		L1040.0,642.2 L1041.2,642.0 L1042.3,641.8 L1043.4,641.6 L1044.5,641.4 L1045.7,641.2 L1046.8,641.0 L1047.9,640.8
		L1049.0,640.6 L1050.2,640.4 L1051.3,640.2 L1052.4,640.0 L1053.6,639.8 L1054.7,639.6 L1055.8,639.4 L1056.9,639.2
		L1058.1,639.0 L1059.2,638.8 L1060.3,638.6 L1061.4,638.3 L1062.6,638.1 L1063.7,637.9 L1064.8,637.7 L1065.9,637.5
		L1067.1,637.3 L1068.2,637.1 L1069.3,636.9 L1070.4,636.6 L1071.6,636.4 L1072.7,636.2 L1073.8,636.0 L1074.9,635.8
		L1076.1,635.6 L1077.2,635.3 L1078.3,635.1 L1079.4,634.9 L1080.6,634.7 L1081.7,634.5 L1082.8,634.2 L1083.9,634.0
		L1085.1,633.8 L1086.2,633.6 L1087.3,633.4 L1088.4,633.1 L1089.6,632.9 L1090.7,632.7 L1091.8,632.5 L1092.9,632.3
		L1094.1,632.0 L1095.2,631.8 L1096.3,631.6 L1097.4,631.4 L1098.6,631.2 L1099.7,630.9 L1100.8,630.7 L1101.9,630.5
		L1103.1,630.3 L1104.2,630.1 L1105.3,629.8 L1106.4,629.6 L1107.6,629.4 L1108.7,629.2 L1109.8,629.0 L1110.9,628.7
		L1112.1,628.5 L1113.2,628.3 L1114.3,628.1 L1115.4,627.9 L1116.6,627.6 L1117.7,627.4 L1118.8,627.2 L1120.0,627.0
		L1121.1,626.8 L1122.2,626.6 L1123.3,626.4 L1124.5,626.1 L1125.6,625.9 L1126.7,625.7 L1127.8,625.5 L1129.0,625.3
		L1130.1,625.1 L1131.2,624.9 L1132.3,624.7 L1133.5,624.5 L1134.6,624.3 L1135.7,624.1 L1136.8,623.8 L1138.0,623.6
		L1139.1,623.4 L1140.2,623.2 L1141.3,623.0 L1142.5,622.8 L1143.6,622.6 L1144.7,622.4 L1145.8,622.2 L1147.0,622.0
		L1148.1,621.9 L1149.2,621.7 L1150.3,621.5 L1151.5,621.3 L1152.6,621.1 L1153.7,620.9 L1154.8,620.7 L1156.0,620.5
		L1157.1,620.3 L1158.2,620.2 L1159.3,620.0 L1160.5,619.8 L1161.6,619.6 L1162.7,619.4 L1163.8,619.3 L1165.0,619.1
		L1166.1,618.9 L1167.2,618.7 L1168.3,618.6 L1169.5,618.4 L1170.6,618.2 L1171.7,618.1 L1172.8,617.9 L1174.0,617.7
		L1175.1,617.6 L1176.2,617.4 L1177.3,617.3 L1178.5,617.1 L1179.6,617.0 L1180.7,616.8 L1181.8,616.7 L1183.0,616.5
		L1184.1,616.4 L1185.2,616.2 L1186.3,616.1 L1187.5,615.9 L1188.6,615.8 L1189.7,615.7 L1190.9,615.5 L1192.0,615.4
		L1193.1,615.3 L1194.2,615.1 L1195.4,615.0 L1196.5,614.9 L1197.6,614.8 L1198.7,614.6 L1199.9,614.5 L1201.0,614.4
		L1202.1,614.3 L1203.2,614.2 L1204.4,614.1 L1205.5,614.0 L1206.6,613.9 L1207.7,613.7 L1208.9,613.6 L1210.0,613.5
		L1211.1,613.5 L1212.2,613.4 L1213.4,613.3 L1214.5,613.2 L1215.6,613.1 L1216.7,613.0 L1217.9,612.9 L1219.0,612.8
		L1220.1,612.8 L1221.2,612.7 L1222.4,612.6 L1223.5,612.5 L1224.6,612.5 L1225.7,612.4 L1226.9,612.3 L1228.0,612.3
		L1229.1,612.2 L1230.2,612.2 L1231.4,612.1 L1232.5,612.1 L1233.6,612.0 L1234.7,612.0 L1235.9,611.9 L1237.0,611.9
		L1238.1,611.8 L1239.2,611.8 L1240.4,611.8 L1241.5,611.7 L1242.6,611.7 L1243.7,611.7 L1244.9,611.7 L1246.0,611.6
		L1247.1,611.6 L1248.2,611.6 L1249.4,611.6 L1250.5,611.6 L1251.6,611.6 L1252.7,611.6 L1253.9,611.6 L1255.0,611.6
		 '/></g>
	</g>
<g fill="none" color="white" stroke="rgb(  0,   0, 255)" stroke-width="2.00" stroke-linecap="butt" stroke-linejoin="miter">
</g>
<g fill="none" color="black" stroke="currentColor" stroke-width="2.00" stroke-linecap="butt" stroke-linejoin="miter">
</g>
<g fill="none" color="black" stroke="black" stroke-width="1.00" stroke-linecap="butt" stroke-linejoin="miter">
</g>
<g fill="none" color="black" stroke="currentColor" stroke-width="1.00" stroke-linecap="butt" stroke-linejoin="miter">
	<path stroke='black'  d='M103.7,54.1 L103.7,684.0 L1255.0,684.0 L1255.0,54.1 L103.7,54.1 Z  '/></g>
<g fill="none" color="black" stroke="currentColor" stroke-width="1.00" stroke-linecap="butt" stroke-linejoin="miter">
</g>
</g>
</svg>

