<?xml version="1.0" encoding="utf-8"  standalone="no"?>
<svg 
 width="1280" height="720"
 viewBox="0 0 1280 720"
 xmlns="http://www.w3.org/2000/svg"
 xmlns:xlink="http://www.w3.org/1999/xlink"
>

<title>Gnuplot</title>
<desc>Produced by GNUPLOT 5.0 patchlevel 6 </desc>

<g id="gnuplot_canvas">

<rect x="0" y="0" width="1280" height="720" fill="none"/>
<defs>

	<circle id='gpDot' r='0.5' stroke-width='0.5'/>
	<path id='gpPt0' stroke-width='0.222' stroke='currentColor' d='M-1,0 h2 M0,-1 v2'/>
	<path id='gpPt1' stroke-width='0.222' stroke='currentColor' d='M-1,-1 L1,1 M1,-1 L-1,1'/>
	<path id='gpPt2' stroke-width='0.222' stroke='currentColor' d='M-1,0 L1,0 M0,-1 L0,1 M-1,-1 L1,1 M-1,1 L1,-1'/>
	<rect id='gpPt3' stroke-width='0.222' stroke='currentColor' x='-1' y='-1' width='2' height='2'/>
	<rect id='gpPt4' stroke-width='0.222' stroke='currentColor' fill='currentColor' x='-1' y='-1' width='2' height='2'/>
	<circle id='gpPt5' stroke-width='0.222' stroke='currentColor' cx='0' cy='0' r='1'/>
	<use xlink:href='#gpPt5' id='gpPt6' fill='currentColor' stroke='none'/>
	<path id='gpPt7' stroke-width='0.222' stroke='currentColor' d='M0,-1.33 L-1.33,0.67 L1.33,0.67 z'/>
	<use xlink:href='#gpPt7' id='gpPt8' fill='currentColor' stroke='none'/>
	<use xlink:href='#gpPt7' id='gpPt9' stroke='currentColor' transform='rotate(180)'/>
	<use xlink:href='#gpPt9' id='gpPt10' fill='currentColor' stroke='none'/>
	<use xlink:href='#gpPt3' id='gpPt11' stroke='currentColor' transform='rotate(45)'/>
	<use xlink:href='#gpPt11' id='gpPt12' fill='currentColor' stroke='none'/>
	<path id='gpPt13' stroke-width='0.222' stroke='currentColor' d='M0,1.330 L1.265,0.411 L0.782,-1.067 L-0.782,-1.076 L-1.265,0.411 z'/>
	<use xlink:href='#gpPt13' id='gpPt14' fill='currentColor' stroke='none'/>
	<filter id='textbox' filterUnits='objectBoundingBox' x='0' y='0' height='1' width='1'>
	  <feFlood flood-color='white' flood-opacity='1' result='bgnd'/>
	  <feComposite in='SourceGraphic' in2='bgnd' operator='atop'/>
	</filter>
	<filter id='greybox' filterUnits='objectBoundingBox' x='0' y='0' height='1' width='1'>
	  <feFlood flood-color='lightgrey' flood-opacity='1' result='grey'/>
	  <feComposite in='SourceGraphic' in2='grey' operator='atop'/>
	</filter>
</defs>
<g fill="none" color="white" stroke="currentColor" stroke-width="1.00" stroke-linecap="butt" stroke-linejoin="miter">
</g>
<g fill="none" color="black" stroke="currentColor" stroke-width="1.00" stroke-linecap="butt" stroke-linejoin="miter">
	<path stroke='black'  d='M95.4,683.3 L104.4,683.3 M1255.0,683.3 L1246.0,683.3  '/>	<g transform="translate(87.1,687.2)" stroke="none" fill="black" font-family="Arial" font-size="12.00"  text-anchor="end">
		<text><tspan font-family="Arial" > 0.002438</tspan></text>
	</g>
</g>
<g fill="none" color="black" stroke="currentColor" stroke-width="1.00" stroke-linecap="butt" stroke-linejoin="miter">
	<path stroke='black'  d='M95.4,368.7 L104.4,368.7 M1255.0,368.7 L1246.0,368.7  '/>	<g transform="translate(87.1,372.6)" stroke="none" fill="black" font-family="Arial" font-size="12.00"  text-anchor="end">
		<text><tspan font-family="Arial" > 0.07877</tspan></text>
	</g>
</g>
<g fill="none" color="black" stroke="currentColor" stroke-width="1.00" stroke-linecap="butt" stroke-linejoin="miter">
	<path stroke='black'  d='M95.4,54.1 L104.4,54.1 M1255.0,54.1 L1246.0,54.1  '/>	<g transform="translate(87.1,58.0)" stroke="none" fill="black" font-family="Arial" font-size="12.00"  text-anchor="end">
		<text><tspan font-family="Arial" > 2.545</tspan></text>
	</g>
</g>
<g fill="none" color="black" stroke="currentColor" stroke-width="1.00" stroke-linecap="butt" stroke-linejoin="miter">
	<path stroke='black'  d='M95.4,684.0 L95.4,675.0 M95.4,54.1 L95.4,63.1  '/>	<g transform="translate(95.4,705.9)" stroke="none" fill="black" font-family="Arial" font-size="12.00"  text-anchor="middle">
		<text><tspan font-family="Arial" > 0</tspan></text>
	</g>
</g>
<g fill="none" color="black" stroke="currentColor" stroke-width="1.00" stroke-linecap="butt" stroke-linejoin="miter">
	<path stroke='black'  d='M675.2,684.0 L675.2,675.0 M675.2,54.1 L675.2,63.1  '/>	<g transform="translate(675.2,705.9)" stroke="none" fill="black" font-family="Arial" font-size="12.00"  text-anchor="middle">
		<text><tspan font-family="Arial" >pi/2</tspan></text>
	</g>
</g>
<g fill="none" color="black" stroke="currentColor" stroke-width="1.00" stroke-linecap="butt" stroke-linejoin="miter">
	<path stroke='black'  d='M1255.0,684.0 L1255.0,675.0 M1255.0,54.1 L1255.0,63.1  '/>	<g transform="translate(1255.0,705.9)" stroke="none" fill="black" font-family="Arial" font-size="12.00"  text-anchor="middle">
		<text><tspan font-family="Arial" >pi</tspan></text>
	</g>
</g>
<g fill="none" color="black" stroke="currentColor" stroke-width="1.00" stroke-linecap="butt" stroke-linejoin="miter">
</g>
<g fill="none" color="black" stroke="currentColor" stroke-width="1.00" stroke-linecap="butt" stroke-linejoin="miter">
	<path stroke='black'  d='M95.4,54.1 L95.4,684.0 L1255.0,684.0 L1255.0,54.1 L95.4,54.1 Z  '/></g>
<g fill="none" color="black" stroke="currentColor" stroke-width="1.00" stroke-linecap="butt" stroke-linejoin="miter">
	<g transform="translate(675.2,31.0)" stroke="none" fill="black" font-family="Arial" font-size="12.00"  text-anchor="middle">
		<text><tspan font-family="Arial" >Material 23, with 8 components</tspan></text>
	</g>
</g>
	<g id="gnuplot_plot_1" ><title>scattering function</title>
<g fill="none" color="black" stroke="currentColor" stroke-width="1.00" stroke-linecap="butt" stroke-linejoin="miter">
	<g transform="translate(1187.9,76.0)" stroke="none" fill="black" font-family="Arial" font-size="12.00"  text-anchor="end">
		<text><tspan font-family="Arial" >scattering function</tspan></text>
	</g>
</g>
<g fill="none" color="black" stroke="currentColor" stroke-width="1.00" stroke-linecap="butt" stroke-linejoin="miter">
	<use xlink:href='#gpPt5' transform='translate(95.4,104.8) scale(2.25)' color='rgb(255,   0,   0)'/>
	<use xlink:href='#gpPt5' transform='translate(96.0,105.7) scale(2.25)' color='rgb(255,   0,   0)'/>
	<use xlink:href='#gpPt5' transform='translate(96.7,108.0) scale(2.25)' color='rgb(255,   0,   0)'/>
	<use xlink:href='#gpPt5' transform='translate(97.3,111.9) scale(2.25)' color='rgb(255,   0,   0)'/>
	<use xlink:href='#gpPt5' transform='translate(98.0,117.1) scale(2.25)' color='rgb(255,   0,   0)'/>
	<use xlink:href='#gpPt5' transform='translate(98.6,123.5) scale(2.25)' color='rgb(255,   0,   0)'/>
	<use xlink:href='#gpPt5' transform='translate(99.3,130.7) scale(2.25)' color='rgb(255,   0,   0)'/>
	<use xlink:href='#gpPt5' transform='translate(99.9,138.5) scale(2.25)' color='rgb(255,   0,   0)'/>
	<use xlink:href='#gpPt5' transform='translate(100.6,146.5) scale(2.25)' color='rgb(255,   0,   0)'/>
	<use xlink:href='#gpPt5' transform='translate(101.2,154.6) scale(2.25)' color='rgb(255,   0,   0)'/>
	<use xlink:href='#gpPt5' transform='translate(101.8,162.5) scale(2.25)' color='rgb(255,   0,   0)'/>
	<use xlink:href='#gpPt5' transform='translate(102.5,170.0) scale(2.25)' color='rgb(255,   0,   0)'/>
	<use xlink:href='#gpPt5' transform='translate(103.1,177.0) scale(2.25)' color='rgb(255,   0,   0)'/>
	<use xlink:href='#gpPt5' transform='translate(103.8,183.6) scale(2.25)' color='rgb(255,   0,   0)'/>
	<use xlink:href='#gpPt5' transform='translate(104.4,189.7) scale(2.25)' color='rgb(255,   0,   0)'/>
	<use xlink:href='#gpPt5' transform='translate(105.1,195.5) scale(2.25)' color='rgb(255,   0,   0)'/>
	<use xlink:href='#gpPt5' transform='translate(105.7,201.1) scale(2.25)' color='rgb(255,   0,   0)'/>
	<use xlink:href='#gpPt5' transform='translate(106.4,206.3) scale(2.25)' color='rgb(255,   0,   0)'/>
	<use xlink:href='#gpPt5' transform='translate(107.0,211.3) scale(2.25)' color='rgb(255,   0,   0)'/>
	<use xlink:href='#gpPt5' transform='translate(107.6,216.1) scale(2.25)' color='rgb(255,   0,   0)'/>
	<use xlink:href='#gpPt5' transform='translate(108.3,220.6) scale(2.25)' color='rgb(255,   0,   0)'/>
	<use xlink:href='#gpPt5' transform='translate(114.7,254.6) scale(2.25)' color='rgb(255,   0,   0)'/>
	<use xlink:href='#gpPt5' transform='translate(121.2,275.2) scale(2.25)' color='rgb(255,   0,   0)'/>
	<use xlink:href='#gpPt5' transform='translate(127.6,288.6) scale(2.25)' color='rgb(255,   0,   0)'/>
	<use xlink:href='#gpPt5' transform='translate(134.1,297.9) scale(2.25)' color='rgb(255,   0,   0)'/>
	<use xlink:href='#gpPt5' transform='translate(146.9,310.8) scale(2.25)' color='rgb(255,   0,   0)'/>
	<use xlink:href='#gpPt5' transform='translate(159.8,320.6) scale(2.25)' color='rgb(255,   0,   0)'/>
	<use xlink:href='#gpPt5' transform='translate(172.7,329.3) scale(2.25)' color='rgb(255,   0,   0)'/>
	<use xlink:href='#gpPt5' transform='translate(185.6,337.7) scale(2.25)' color='rgb(255,   0,   0)'/>
	<use xlink:href='#gpPt5' transform='translate(198.5,346.2) scale(2.25)' color='rgb(255,   0,   0)'/>
	<use xlink:href='#gpPt5' transform='translate(211.4,354.8) scale(2.25)' color='rgb(255,   0,   0)'/>
	<use xlink:href='#gpPt5' transform='translate(224.2,363.4) scale(2.25)' color='rgb(255,   0,   0)'/>
	<use xlink:href='#gpPt5' transform='translate(237.1,372.2) scale(2.25)' color='rgb(255,   0,   0)'/>
	<use xlink:href='#gpPt5' transform='translate(250.0,381.1) scale(2.25)' color='rgb(255,   0,   0)'/>
	<use xlink:href='#gpPt5' transform='translate(262.9,390.1) scale(2.25)' color='rgb(255,   0,   0)'/>
	<use xlink:href='#gpPt5' transform='translate(275.8,399.1) scale(2.25)' color='rgb(255,   0,   0)'/>
	<use xlink:href='#gpPt5' transform='translate(288.7,408.2) scale(2.25)' color='rgb(255,   0,   0)'/>
	<use xlink:href='#gpPt5' transform='translate(301.6,417.3) scale(2.25)' color='rgb(255,   0,   0)'/>
	<use xlink:href='#gpPt5' transform='translate(314.4,426.4) scale(2.25)' color='rgb(255,   0,   0)'/>
	<use xlink:href='#gpPt5' transform='translate(327.3,435.5) scale(2.25)' color='rgb(255,   0,   0)'/>
	<use xlink:href='#gpPt5' transform='translate(340.2,444.6) scale(2.25)' color='rgb(255,   0,   0)'/>
	<use xlink:href='#gpPt5' transform='translate(353.1,453.6) scale(2.25)' color='rgb(255,   0,   0)'/>
	<use xlink:href='#gpPt5' transform='translate(366.0,462.6) scale(2.25)' color='rgb(255,   0,   0)'/>
	<use xlink:href='#gpPt5' transform='translate(378.9,471.5) scale(2.25)' color='rgb(255,   0,   0)'/>
	<use xlink:href='#gpPt5' transform='translate(391.7,480.4) scale(2.25)' color='rgb(255,   0,   0)'/>
	<use xlink:href='#gpPt5' transform='translate(404.6,489.1) scale(2.25)' color='rgb(255,   0,   0)'/>
	<use xlink:href='#gpPt5' transform='translate(417.5,497.8) scale(2.25)' color='rgb(255,   0,   0)'/>
	<use xlink:href='#gpPt5' transform='translate(430.4,506.4) scale(2.25)' color='rgb(255,   0,   0)'/>
	<use xlink:href='#gpPt5' transform='translate(443.3,514.8) scale(2.25)' color='rgb(255,   0,   0)'/>
	<use xlink:href='#gpPt5' transform='translate(456.2,523.1) scale(2.25)' color='rgb(255,   0,   0)'/>
	<use xlink:href='#gpPt5' transform='translate(469.0,531.3) scale(2.25)' color='rgb(255,   0,   0)'/>
	<use xlink:href='#gpPt5' transform='translate(481.9,539.4) scale(2.25)' color='rgb(255,   0,   0)'/>
	<use xlink:href='#gpPt5' transform='translate(494.8,547.4) scale(2.25)' color='rgb(255,   0,   0)'/>
	<use xlink:href='#gpPt5' transform='translate(507.7,555.2) scale(2.25)' color='rgb(255,   0,   0)'/>
	<use xlink:href='#gpPt5' transform='translate(520.6,562.9) scale(2.25)' color='rgb(255,   0,   0)'/>
	<use xlink:href='#gpPt5' transform='translate(533.5,570.4) scale(2.25)' color='rgb(255,   0,   0)'/>
	<use xlink:href='#gpPt5' transform='translate(546.4,577.7) scale(2.25)' color='rgb(255,   0,   0)'/>
	<use xlink:href='#gpPt5' transform='translate(559.2,584.9) scale(2.25)' color='rgb(255,   0,   0)'/>
	<use xlink:href='#gpPt5' transform='translate(572.1,591.9) scale(2.25)' color='rgb(255,   0,   0)'/>
	<use xlink:href='#gpPt5' transform='translate(585.0,598.7) scale(2.25)' color='rgb(255,   0,   0)'/>
	<use xlink:href='#gpPt5' transform='translate(597.9,605.2) scale(2.25)' color='rgb(255,   0,   0)'/>
	<use xlink:href='#gpPt5' transform='translate(610.8,611.6) scale(2.25)' color='rgb(255,   0,   0)'/>
	<use xlink:href='#gpPt5' transform='translate(623.7,617.8) scale(2.25)' color='rgb(255,   0,   0)'/>
	<use xlink:href='#gpPt5' transform='translate(636.5,623.7) scale(2.25)' color='rgb(255,   0,   0)'/>
	<use xlink:href='#gpPt5' transform='translate(649.4,629.4) scale(2.25)' color='rgb(255,   0,   0)'/>
	<use xlink:href='#gpPt5' transform='translate(662.3,634.8) scale(2.25)' color='rgb(255,   0,   0)'/>
	<use xlink:href='#gpPt5' transform='translate(675.2,640.0) scale(2.25)' color='rgb(255,   0,   0)'/>
	<use xlink:href='#gpPt5' transform='translate(688.1,644.9) scale(2.25)' color='rgb(255,   0,   0)'/>
	<use xlink:href='#gpPt5' transform='translate(701.0,649.6) scale(2.25)' color='rgb(255,   0,   0)'/>
	<use xlink:href='#gpPt5' transform='translate(713.9,653.9) scale(2.25)' color='rgb(255,   0,   0)'/>
	<use xlink:href='#gpPt5' transform='translate(726.7,658.0) scale(2.25)' color='rgb(255,   0,   0)'/>
	<use xlink:href='#gpPt5' transform='translate(739.6,661.7) scale(2.25)' color='rgb(255,   0,   0)'/>
	<use xlink:href='#gpPt5' transform='translate(752.5,665.2) scale(2.25)' color='rgb(255,   0,   0)'/>
	<use xlink:href='#gpPt5' transform='translate(765.4,668.3) scale(2.25)' color='rgb(255,   0,   0)'/>
	<use xlink:href='#gpPt5' transform='translate(778.3,671.2) scale(2.25)' color='rgb(255,   0,   0)'/>
	<use xlink:href='#gpPt5' transform='translate(791.2,673.7) scale(2.25)' color='rgb(255,   0,   0)'/>
	<use xlink:href='#gpPt5' transform='translate(804.0,676.0) scale(2.25)' color='rgb(255,   0,   0)'/>
	<use xlink:href='#gpPt5' transform='translate(816.9,677.9) scale(2.25)' color='rgb(255,   0,   0)'/>
	<use xlink:href='#gpPt5' transform='translate(829.8,679.5) scale(2.25)' color='rgb(255,   0,   0)'/>
	<use xlink:href='#gpPt5' transform='translate(842.7,680.8) scale(2.25)' color='rgb(255,   0,   0)'/>
	<use xlink:href='#gpPt5' transform='translate(855.6,681.9) scale(2.25)' color='rgb(255,   0,   0)'/>
	<use xlink:href='#gpPt5' transform='translate(868.5,682.6) scale(2.25)' color='rgb(255,   0,   0)'/>
	<use xlink:href='#gpPt5' transform='translate(881.4,683.1) scale(2.25)' color='rgb(255,   0,   0)'/>
	<use xlink:href='#gpPt5' transform='translate(894.2,683.3) scale(2.25)' color='rgb(255,   0,   0)'/>
	<use xlink:href='#gpPt5' transform='translate(907.1,683.3) scale(2.25)' color='rgb(255,   0,   0)'/>
	<use xlink:href='#gpPt5' transform='translate(920.0,683.0) scale(2.25)' color='rgb(255,   0,   0)'/>
	<use xlink:href='#gpPt5' transform='translate(932.9,682.6) scale(2.25)' color='rgb(255,   0,   0)'/>
	<use xlink:href='#gpPt5' transform='translate(945.8,681.9) scale(2.25)' color='rgb(255,   0,   0)'/>
	<use xlink:href='#gpPt5' transform='translate(958.7,680.9) scale(2.25)' color='rgb(255,   0,   0)'/>
	<use xlink:href='#gpPt5' transform='translate(971.5,679.8) scale(2.25)' color='rgb(255,   0,   0)'/>
	<use xlink:href='#gpPt5' transform='translate(984.4,678.5) scale(2.25)' color='rgb(255,   0,   0)'/>
	<use xlink:href='#gpPt5' transform='translate(997.3,677.0) scale(2.25)' color='rgb(255,   0,   0)'/>
	<use xlink:href='#gpPt5' transform='translate(1010.2,675.4) scale(2.25)' color='rgb(255,   0,   0)'/>
	<use xlink:href='#gpPt5' transform='translate(1023.1,673.6) scale(2.25)' color='rgb(255,   0,   0)'/>
	<use xlink:href='#gpPt5' transform='translate(1036.0,671.7) scale(2.25)' color='rgb(255,   0,   0)'/>
	<use xlink:href='#gpPt5' transform='translate(1048.8,669.7) scale(2.25)' color='rgb(255,   0,   0)'/>
	<use xlink:href='#gpPt5' transform='translate(1061.7,667.6) scale(2.25)' color='rgb(255,   0,   0)'/>
	<use xlink:href='#gpPt5' transform='translate(1074.6,665.5) scale(2.25)' color='rgb(255,   0,   0)'/>
	<use xlink:href='#gpPt5' transform='translate(1087.5,663.3) scale(2.25)' color='rgb(255,   0,   0)'/>
	<use xlink:href='#gpPt5' transform='translate(1100.4,661.1) scale(2.25)' color='rgb(255,   0,   0)'/>
	<use xlink:href='#gpPt5' transform='translate(1113.3,659.0) scale(2.25)' color='rgb(255,   0,   0)'/>
	<use xlink:href='#gpPt5' transform='translate(1126.2,657.1) scale(2.25)' color='rgb(255,   0,   0)'/>
	<use xlink:href='#gpPt5' transform='translate(1139.0,655.7) scale(2.25)' color='rgb(255,   0,   0)'/>
	<use xlink:href='#gpPt5' transform='translate(1151.9,654.4) scale(2.25)' color='rgb(255,   0,   0)'/>
	<use xlink:href='#gpPt5' transform='translate(1164.8,653.4) scale(2.25)' color='rgb(255,   0,   0)'/>
	<use xlink:href='#gpPt5' transform='translate(1177.7,652.4) scale(2.25)' color='rgb(255,   0,   0)'/>
	<use xlink:href='#gpPt5' transform='translate(1190.6,651.2) scale(2.25)' color='rgb(255,   0,   0)'/>
	<use xlink:href='#gpPt5' transform='translate(1203.5,649.5) scale(2.25)' color='rgb(255,   0,   0)'/>
	<use xlink:href='#gpPt5' transform='translate(1216.3,647.4) scale(2.25)' color='rgb(255,   0,   0)'/>
	<use xlink:href='#gpPt5' transform='translate(1229.2,645.5) scale(2.25)' color='rgb(255,   0,   0)'/>
	<use xlink:href='#gpPt5' transform='translate(1242.1,644.6) scale(2.25)' color='rgb(255,   0,   0)'/>
	<use xlink:href='#gpPt5' transform='translate(1255.0,643.6) scale(2.25)' color='rgb(255,   0,   0)'/>
	<use xlink:href='#gpPt5' transform='translate(1217.3,72.1) scale(2.25)' color='rgb(255,   0,   0)'/>
</g>
	</g>
	<g id="gnuplot_plot_2" ><title>gnuplot_plot_2</title>
<g fill="none" color="black" stroke="currentColor" stroke-width="1.00" stroke-linecap="butt" stroke-linejoin="miter">
	<use xlink:href='#gpPt5' transform='translate(95.4,89.5) scale(2.25)' color='rgb(  0, 100,   0)'/>
	<use xlink:href='#gpPt5' transform='translate(96.0,90.4) scale(2.25)' color='rgb(  0, 100,   0)'/>
	<use xlink:href='#gpPt5' transform='translate(96.7,93.2) scale(2.25)' color='rgb(  0, 100,   0)'/>
	<use xlink:href='#gpPt5' transform='translate(97.3,97.8) scale(2.25)' color='rgb(  0, 100,   0)'/>
	<use xlink:href='#gpPt5' transform='translate(98.0,103.9) scale(2.25)' color='rgb(  0, 100,   0)'/>
	<use xlink:href='#gpPt5' transform='translate(98.6,111.2) scale(2.25)' color='rgb(  0, 100,   0)'/>
	<use xlink:href='#gpPt5' transform='translate(99.3,119.4) scale(2.25)' color='rgb(  0, 100,   0)'/>
	<use xlink:href='#gpPt5' transform='translate(99.9,128.2) scale(2.25)' color='rgb(  0, 100,   0)'/>
	<use xlink:href='#gpPt5' transform='translate(100.6,137.0) scale(2.25)' color='rgb(  0, 100,   0)'/>
	<use xlink:href='#gpPt5' transform='translate(101.2,145.6) scale(2.25)' color='rgb(  0, 100,   0)'/>
	<use xlink:href='#gpPt5' transform='translate(101.8,153.8) scale(2.25)' color='rgb(  0, 100,   0)'/>
	<use xlink:href='#gpPt5' transform='translate(102.5,161.4) scale(2.25)' color='rgb(  0, 100,   0)'/>
	<use xlink:href='#gpPt5' transform='translate(103.1,168.6) scale(2.25)' color='rgb(  0, 100,   0)'/>
	<use xlink:href='#gpPt5' transform='translate(103.8,175.2) scale(2.25)' color='rgb(  0, 100,   0)'/>
	<use xlink:href='#gpPt5' transform='translate(104.4,181.4) scale(2.25)' color='rgb(  0, 100,   0)'/>
	<use xlink:href='#gpPt5' transform='translate(105.1,187.3) scale(2.25)' color='rgb(  0, 100,   0)'/>
	<use xlink:href='#gpPt5' transform='translate(105.7,192.9) scale(2.25)' color='rgb(  0, 100,   0)'/>
	<use xlink:href='#gpPt5' transform='translate(106.4,198.2) scale(2.25)' color='rgb(  0, 100,   0)'/>
	<use xlink:href='#gpPt5' transform='translate(107.0,203.2) scale(2.25)' color='rgb(  0, 100,   0)'/>
	<use xlink:href='#gpPt5' transform='translate(107.6,207.9) scale(2.25)' color='rgb(  0, 100,   0)'/>
	<use xlink:href='#gpPt5' transform='translate(108.3,212.4) scale(2.25)' color='rgb(  0, 100,   0)'/>
	<use xlink:href='#gpPt5' transform='translate(114.7,245.0) scale(2.25)' color='rgb(  0, 100,   0)'/>
	<use xlink:href='#gpPt5' transform='translate(121.2,264.2) scale(2.25)' color='rgb(  0, 100,   0)'/>
	<use xlink:href='#gpPt5' transform='translate(127.6,276.4) scale(2.25)' color='rgb(  0, 100,   0)'/>
	<use xlink:href='#gpPt5' transform='translate(134.1,285.0) scale(2.25)' color='rgb(  0, 100,   0)'/>
	<use xlink:href='#gpPt5' transform='translate(146.9,297.1) scale(2.25)' color='rgb(  0, 100,   0)'/>
	<use xlink:href='#gpPt5' transform='translate(159.8,306.6) scale(2.25)' color='rgb(  0, 100,   0)'/>
	<use xlink:href='#gpPt5' transform='translate(172.7,315.3) scale(2.25)' color='rgb(  0, 100,   0)'/>
	<use xlink:href='#gpPt5' transform='translate(185.6,323.9) scale(2.25)' color='rgb(  0, 100,   0)'/>
	<use xlink:href='#gpPt5' transform='translate(198.5,332.5) scale(2.25)' color='rgb(  0, 100,   0)'/>
	<use xlink:href='#gpPt5' transform='translate(211.4,341.3) scale(2.25)' color='rgb(  0, 100,   0)'/>
	<use xlink:href='#gpPt5' transform='translate(224.2,350.2) scale(2.25)' color='rgb(  0, 100,   0)'/>
	<use xlink:href='#gpPt5' transform='translate(237.1,359.2) scale(2.25)' color='rgb(  0, 100,   0)'/>
	<use xlink:href='#gpPt5' transform='translate(250.0,368.4) scale(2.25)' color='rgb(  0, 100,   0)'/>
	<use xlink:href='#gpPt5' transform='translate(262.9,377.6) scale(2.25)' color='rgb(  0, 100,   0)'/>
	<use xlink:href='#gpPt5' transform='translate(275.8,386.8) scale(2.25)' color='rgb(  0, 100,   0)'/>
	<use xlink:href='#gpPt5' transform='translate(288.7,396.1) scale(2.25)' color='rgb(  0, 100,   0)'/>
	<use xlink:href='#gpPt5' transform='translate(301.6,405.4) scale(2.25)' color='rgb(  0, 100,   0)'/>
	<use xlink:href='#gpPt5' transform='translate(314.4,414.7) scale(2.25)' color='rgb(  0, 100,   0)'/>
	<use xlink:href='#gpPt5' transform='translate(327.3,424.0) scale(2.25)' color='rgb(  0, 100,   0)'/>
	<use xlink:href='#gpPt5' transform='translate(340.2,433.2) scale(2.25)' color='rgb(  0, 100,   0)'/>
	<use xlink:href='#gpPt5' transform='translate(353.1,442.4) scale(2.25)' color='rgb(  0, 100,   0)'/>
	<use xlink:href='#gpPt5' transform='translate(366.0,451.6) scale(2.25)' color='rgb(  0, 100,   0)'/>
	<use xlink:href='#gpPt5' transform='translate(378.9,460.7) scale(2.25)' color='rgb(  0, 100,   0)'/>
	<use xlink:href='#gpPt5' transform='translate(391.7,469.6) scale(2.25)' color='rgb(  0, 100,   0)'/>
	<use xlink:href='#gpPt5' transform='translate(404.6,478.5) scale(2.25)' color='rgb(  0, 100,   0)'/>
	<use xlink:href='#gpPt5' transform='translate(417.5,487.2) scale(2.25)' color='rgb(  0, 100,   0)'/>
	<use xlink:href='#gpPt5' transform='translate(430.4,495.9) scale(2.25)' color='rgb(  0, 100,   0)'/>
	<use xlink:href='#gpPt5' transform='translate(443.3,504.4) scale(2.25)' color='rgb(  0, 100,   0)'/>
	<use xlink:href='#gpPt5' transform='translate(456.2,512.9) scale(2.25)' color='rgb(  0, 100,   0)'/>
	<use xlink:href='#gpPt5' transform='translate(469.0,521.2) scale(2.25)' color='rgb(  0, 100,   0)'/>
	<use xlink:href='#gpPt5' transform='translate(481.9,529.3) scale(2.25)' color='rgb(  0, 100,   0)'/>
	<use xlink:href='#gpPt5' transform='translate(494.8,537.3) scale(2.25)' color='rgb(  0, 100,   0)'/>
	<use xlink:href='#gpPt5' transform='translate(507.7,545.2) scale(2.25)' color='rgb(  0, 100,   0)'/>
	<use xlink:href='#gpPt5' transform='translate(520.6,553.0) scale(2.25)' color='rgb(  0, 100,   0)'/>
	<use xlink:href='#gpPt5' transform='translate(533.5,560.5) scale(2.25)' color='rgb(  0, 100,   0)'/>
	<use xlink:href='#gpPt5' transform='translate(546.4,567.9) scale(2.25)' color='rgb(  0, 100,   0)'/>
	<use xlink:href='#gpPt5' transform='translate(559.2,575.1) scale(2.25)' color='rgb(  0, 100,   0)'/>
	<use xlink:href='#gpPt5' transform='translate(572.1,582.1) scale(2.25)' color='rgb(  0, 100,   0)'/>
	<use xlink:href='#gpPt5' transform='translate(585.0,588.9) scale(2.25)' color='rgb(  0, 100,   0)'/>
	<use xlink:href='#gpPt5' transform='translate(597.9,595.6) scale(2.25)' color='rgb(  0, 100,   0)'/>
	<use xlink:href='#gpPt5' transform='translate(610.8,602.0) scale(2.25)' color='rgb(  0, 100,   0)'/>
	<use xlink:href='#gpPt5' transform='translate(623.7,608.2) scale(2.25)' color='rgb(  0, 100,   0)'/>
	<use xlink:href='#gpPt5' transform='translate(636.5,614.1) scale(2.25)' color='rgb(  0, 100,   0)'/>
	<use xlink:href='#gpPt5' transform='translate(649.4,619.9) scale(2.25)' color='rgb(  0, 100,   0)'/>
	<use xlink:href='#gpPt5' transform='translate(662.3,625.3) scale(2.25)' color='rgb(  0, 100,   0)'/>
	<use xlink:href='#gpPt5' transform='translate(675.2,630.5) scale(2.25)' color='rgb(  0, 100,   0)'/>
	<use xlink:href='#gpPt5' transform='translate(688.1,635.4) scale(2.25)' color='rgb(  0, 100,   0)'/>
	<use xlink:href='#gpPt5' transform='translate(701.0,640.1) scale(2.25)' color='rgb(  0, 100,   0)'/>
	<use xlink:href='#gpPt5' transform='translate(713.9,644.4) scale(2.25)' color='rgb(  0, 100,   0)'/>
	<use xlink:href='#gpPt5' transform='translate(726.7,648.5) scale(2.25)' color='rgb(  0, 100,   0)'/>
	<use xlink:href='#gpPt5' transform='translate(739.6,652.3) scale(2.25)' color='rgb(  0, 100,   0)'/>
	<use xlink:href='#gpPt5' transform='translate(752.5,655.7) scale(2.25)' color='rgb(  0, 100,   0)'/>
	<use xlink:href='#gpPt5' transform='translate(765.4,658.9) scale(2.25)' color='rgb(  0, 100,   0)'/>
	<use xlink:href='#gpPt5' transform='translate(778.3,661.7) scale(2.25)' color='rgb(  0, 100,   0)'/>
	<use xlink:href='#gpPt5' transform='translate(791.2,664.3) scale(2.25)' color='rgb(  0, 100,   0)'/>
	<use xlink:href='#gpPt5' transform='translate(804.0,666.5) scale(2.25)' color='rgb(  0, 100,   0)'/>
	<use xlink:href='#gpPt5' transform='translate(816.9,668.5) scale(2.25)' color='rgb(  0, 100,   0)'/>
	<use xlink:href='#gpPt5' transform='translate(829.8,670.1) scale(2.25)' color='rgb(  0, 100,   0)'/>
	<use xlink:href='#gpPt5' transform='translate(842.7,671.5) scale(2.25)' color='rgb(  0, 100,   0)'/>
	<use xlink:href='#gpPt5' transform='translate(855.6,672.5) scale(2.25)' color='rgb(  0, 100,   0)'/>
	<use xlink:href='#gpPt5' transform='translate(868.5,673.3) scale(2.25)' color='rgb(  0, 100,   0)'/>
	<use xlink:href='#gpPt5' transform='translate(881.4,673.8) scale(2.25)' color='rgb(  0, 100,   0)'/>
	<use xlink:href='#gpPt5' transform='translate(894.2,674.0) scale(2.25)' color='rgb(  0, 100,   0)'/>
	<use xlink:href='#gpPt5' transform='translate(907.1,674.0) scale(2.25)' color='rgb(  0, 100,   0)'/>
	<use xlink:href='#gpPt5' transform='translate(920.0,673.7) scale(2.25)' color='rgb(  0, 100,   0)'/>
	<use xlink:href='#gpPt5' transform='translate(932.9,673.2) scale(2.25)' color='rgb(  0, 100,   0)'/>
	<use xlink:href='#gpPt5' transform='translate(945.8,672.4) scale(2.25)' color='rgb(  0, 100,   0)'/>
	<use xlink:href='#gpPt5' transform='translate(958.7,671.5) scale(2.25)' color='rgb(  0, 100,   0)'/>
	<use xlink:href='#gpPt5' transform='translate(971.5,670.3) scale(2.25)' color='rgb(  0, 100,   0)'/>
	<use xlink:href='#gpPt5' transform='translate(984.4,669.0) scale(2.25)' color='rgb(  0, 100,   0)'/>
	<use xlink:href='#gpPt5' transform='translate(997.3,667.4) scale(2.25)' color='rgb(  0, 100,   0)'/>
	<use xlink:href='#gpPt5' transform='translate(1010.2,665.7) scale(2.25)' color='rgb(  0, 100,   0)'/>
	<use xlink:href='#gpPt5' transform='translate(1023.1,663.9) scale(2.25)' color='rgb(  0, 100,   0)'/>
	<use xlink:href='#gpPt5' transform='translate(1036.0,661.9) scale(2.25)' color='rgb(  0, 100,   0)'/>
	<use xlink:href='#gpPt5' transform='translate(1048.8,659.8) scale(2.25)' color='rgb(  0, 100,   0)'/>
	<use xlink:href='#gpPt5' transform='translate(1061.7,657.6) scale(2.25)' color='rgb(  0, 100,   0)'/>
	<use xlink:href='#gpPt5' transform='translate(1074.6,655.4) scale(2.25)' color='rgb(  0, 100,   0)'/>
	<use xlink:href='#gpPt5' transform='translate(1087.5,653.2) scale(2.25)' color='rgb(  0, 100,   0)'/>
	<use xlink:href='#gpPt5' transform='translate(1100.4,651.0) scale(2.25)' color='rgb(  0, 100,   0)'/>
	<use xlink:href='#gpPt5' transform='translate(1113.3,649.0) scale(2.25)' color='rgb(  0, 100,   0)'/>
	<use xlink:href='#gpPt5' transform='translate(1126.2,647.2) scale(2.25)' color='rgb(  0, 100,   0)'/>
	<use xlink:href='#gpPt5' transform='translate(1139.0,645.6) scale(2.25)' color='rgb(  0, 100,   0)'/>
	<use xlink:href='#gpPt5' transform='translate(1151.9,644.6) scale(2.25)' color='rgb(  0, 100,   0)'/>
	<use xlink:href='#gpPt5' transform='translate(1164.8,644.1) scale(2.25)' color='rgb(  0, 100,   0)'/>
	<use xlink:href='#gpPt5' transform='translate(1177.7,643.3) scale(2.25)' color='rgb(  0, 100,   0)'/>
	<use xlink:href='#gpPt5' transform='translate(1190.6,642.2) scale(2.25)' color='rgb(  0, 100,   0)'/>
	<use xlink:href='#gpPt5' transform='translate(1203.5,640.5) scale(2.25)' color='rgb(  0, 100,   0)'/>
	<use xlink:href='#gpPt5' transform='translate(1216.3,638.4) scale(2.25)' color='rgb(  0, 100,   0)'/>
	<use xlink:href='#gpPt5' transform='translate(1229.2,636.3) scale(2.25)' color='rgb(  0, 100,   0)'/>
	<use xlink:href='#gpPt5' transform='translate(1242.1,634.8) scale(2.25)' color='rgb(  0, 100,   0)'/>
	<use xlink:href='#gpPt5' transform='translate(1255.0,633.7) scale(2.25)' color='rgb(  0, 100,   0)'/>
</g>
	</g>
	<g id="gnuplot_plot_3" ><title>gnuplot_plot_3</title>
<g fill="none" color="black" stroke="currentColor" stroke-width="1.00" stroke-linecap="butt" stroke-linejoin="miter">
	<use xlink:href='#gpPt5' transform='translate(95.4,54.1) scale(2.25)' color='rgb(  0,   0, 255)'/>
	<use xlink:href='#gpPt5' transform='translate(96.0,55.5) scale(2.25)' color='rgb(  0,   0, 255)'/>
	<use xlink:href='#gpPt5' transform='translate(96.7,59.7) scale(2.25)' color='rgb(  0,   0, 255)'/>
	<use xlink:href='#gpPt5' transform='translate(97.3,66.3) scale(2.25)' color='rgb(  0,   0, 255)'/>
	<use xlink:href='#gpPt5' transform='translate(98.0,74.9) scale(2.25)' color='rgb(  0,   0, 255)'/>
	<use xlink:href='#gpPt5' transform='translate(98.6,84.9) scale(2.25)' color='rgb(  0,   0, 255)'/>
	<use xlink:href='#gpPt5' transform='translate(99.3,95.6) scale(2.25)' color='rgb(  0,   0, 255)'/>
	<use xlink:href='#gpPt5' transform='translate(99.9,106.3) scale(2.25)' color='rgb(  0,   0, 255)'/>
	<use xlink:href='#gpPt5' transform='translate(100.6,116.5) scale(2.25)' color='rgb(  0,   0, 255)'/>
	<use xlink:href='#gpPt5' transform='translate(101.2,125.9) scale(2.25)' color='rgb(  0,   0, 255)'/>
	<use xlink:href='#gpPt5' transform='translate(101.8,134.5) scale(2.25)' color='rgb(  0,   0, 255)'/>
	<use xlink:href='#gpPt5' transform='translate(102.5,142.4) scale(2.25)' color='rgb(  0,   0, 255)'/>
	<use xlink:href='#gpPt5' transform='translate(103.1,149.7) scale(2.25)' color='rgb(  0,   0, 255)'/>
	<use xlink:href='#gpPt5' transform='translate(103.8,156.6) scale(2.25)' color='rgb(  0,   0, 255)'/>
	<use xlink:href='#gpPt5' transform='translate(104.4,163.0) scale(2.25)' color='rgb(  0,   0, 255)'/>
	<use xlink:href='#gpPt5' transform='translate(105.1,169.0) scale(2.25)' color='rgb(  0,   0, 255)'/>
	<use xlink:href='#gpPt5' transform='translate(105.7,174.6) scale(2.25)' color='rgb(  0,   0, 255)'/>
	<use xlink:href='#gpPt5' transform='translate(106.4,179.7) scale(2.25)' color='rgb(  0,   0, 255)'/>
	<use xlink:href='#gpPt5' transform='translate(107.0,184.5) scale(2.25)' color='rgb(  0,   0, 255)'/>
	<use xlink:href='#gpPt5' transform='translate(107.6,188.9) scale(2.25)' color='rgb(  0,   0, 255)'/>
	<use xlink:href='#gpPt5' transform='translate(108.3,193.1) scale(2.25)' color='rgb(  0,   0, 255)'/>
	<use xlink:href='#gpPt5' transform='translate(114.7,222.3) scale(2.25)' color='rgb(  0,   0, 255)'/>
	<use xlink:href='#gpPt5' transform='translate(121.2,238.2) scale(2.25)' color='rgb(  0,   0, 255)'/>
	<use xlink:href='#gpPt5' transform='translate(127.6,248.2) scale(2.25)' color='rgb(  0,   0, 255)'/>
	<use xlink:href='#gpPt5' transform='translate(134.1,255.3) scale(2.25)' color='rgb(  0,   0, 255)'/>
	<use xlink:href='#gpPt5' transform='translate(146.9,266.3) scale(2.25)' color='rgb(  0,   0, 255)'/>
	<use xlink:href='#gpPt5' transform='translate(159.8,275.7) scale(2.25)' color='rgb(  0,   0, 255)'/>
	<use xlink:href='#gpPt5' transform='translate(172.7,284.8) scale(2.25)' color='rgb(  0,   0, 255)'/>
	<use xlink:href='#gpPt5' transform='translate(185.6,293.9) scale(2.25)' color='rgb(  0,   0, 255)'/>
	<use xlink:href='#gpPt5' transform='translate(198.5,303.1) scale(2.25)' color='rgb(  0,   0, 255)'/>
	<use xlink:href='#gpPt5' transform='translate(211.4,312.5) scale(2.25)' color='rgb(  0,   0, 255)'/>
	<use xlink:href='#gpPt5' transform='translate(224.2,321.9) scale(2.25)' color='rgb(  0,   0, 255)'/>
	<use xlink:href='#gpPt5' transform='translate(237.1,331.5) scale(2.25)' color='rgb(  0,   0, 255)'/>
	<use xlink:href='#gpPt5' transform='translate(250.0,341.2) scale(2.25)' color='rgb(  0,   0, 255)'/>
	<use xlink:href='#gpPt5' transform='translate(262.9,350.8) scale(2.25)' color='rgb(  0,   0, 255)'/>
	<use xlink:href='#gpPt5' transform='translate(275.8,360.6) scale(2.25)' color='rgb(  0,   0, 255)'/>
	<use xlink:href='#gpPt5' transform='translate(288.7,370.4) scale(2.25)' color='rgb(  0,   0, 255)'/>
	<use xlink:href='#gpPt5' transform='translate(301.6,380.1) scale(2.25)' color='rgb(  0,   0, 255)'/>
	<use xlink:href='#gpPt5' transform='translate(314.4,389.8) scale(2.25)' color='rgb(  0,   0, 255)'/>
	<use xlink:href='#gpPt5' transform='translate(327.3,399.4) scale(2.25)' color='rgb(  0,   0, 255)'/>
	<use xlink:href='#gpPt5' transform='translate(340.2,409.0) scale(2.25)' color='rgb(  0,   0, 255)'/>
	<use xlink:href='#gpPt5' transform='translate(353.1,418.6) scale(2.25)' color='rgb(  0,   0, 255)'/>
	<use xlink:href='#gpPt5' transform='translate(366.0,427.9) scale(2.25)' color='rgb(  0,   0, 255)'/>
	<use xlink:href='#gpPt5' transform='translate(378.9,437.3) scale(2.25)' color='rgb(  0,   0, 255)'/>
	<use xlink:href='#gpPt5' transform='translate(391.7,446.5) scale(2.25)' color='rgb(  0,   0, 255)'/>
	<use xlink:href='#gpPt5' transform='translate(404.6,455.7) scale(2.25)' color='rgb(  0,   0, 255)'/>
	<use xlink:href='#gpPt5' transform='translate(417.5,464.6) scale(2.25)' color='rgb(  0,   0, 255)'/>
	<use xlink:href='#gpPt5' transform='translate(430.4,473.5) scale(2.25)' color='rgb(  0,   0, 255)'/>
	<use xlink:href='#gpPt5' transform='translate(443.3,482.3) scale(2.25)' color='rgb(  0,   0, 255)'/>
	<use xlink:href='#gpPt5' transform='translate(456.2,490.9) scale(2.25)' color='rgb(  0,   0, 255)'/>
	<use xlink:href='#gpPt5' transform='translate(469.0,499.3) scale(2.25)' color='rgb(  0,   0, 255)'/>
	<use xlink:href='#gpPt5' transform='translate(481.9,507.6) scale(2.25)' color='rgb(  0,   0, 255)'/>
	<use xlink:href='#gpPt5' transform='translate(494.8,515.8) scale(2.25)' color='rgb(  0,   0, 255)'/>
	<use xlink:href='#gpPt5' transform='translate(507.7,523.8) scale(2.25)' color='rgb(  0,   0, 255)'/>
	<use xlink:href='#gpPt5' transform='translate(520.6,531.5) scale(2.25)' color='rgb(  0,   0, 255)'/>
	<use xlink:href='#gpPt5' transform='translate(533.5,539.2) scale(2.25)' color='rgb(  0,   0, 255)'/>
	<use xlink:href='#gpPt5' transform='translate(546.4,546.6) scale(2.25)' color='rgb(  0,   0, 255)'/>
	<use xlink:href='#gpPt5' transform='translate(559.2,553.9) scale(2.25)' color='rgb(  0,   0, 255)'/>
	<use xlink:href='#gpPt5' transform='translate(572.1,561.0) scale(2.25)' color='rgb(  0,   0, 255)'/>
	<use xlink:href='#gpPt5' transform='translate(585.0,567.8) scale(2.25)' color='rgb(  0,   0, 255)'/>
	<use xlink:href='#gpPt5' transform='translate(597.9,574.5) scale(2.25)' color='rgb(  0,   0, 255)'/>
	<use xlink:href='#gpPt5' transform='translate(610.8,580.9) scale(2.25)' color='rgb(  0,   0, 255)'/>
	<use xlink:href='#gpPt5' transform='translate(623.7,587.2) scale(2.25)' color='rgb(  0,   0, 255)'/>
	<use xlink:href='#gpPt5' transform='translate(636.5,593.1) scale(2.25)' color='rgb(  0,   0, 255)'/>
	<use xlink:href='#gpPt5' transform='translate(649.4,598.8) scale(2.25)' color='rgb(  0,   0, 255)'/>
	<use xlink:href='#gpPt5' transform='translate(662.3,604.3) scale(2.25)' color='rgb(  0,   0, 255)'/>
	<use xlink:href='#gpPt5' transform='translate(675.2,609.5) scale(2.25)' color='rgb(  0,   0, 255)'/>
	<use xlink:href='#gpPt5' transform='translate(688.1,614.5) scale(2.25)' color='rgb(  0,   0, 255)'/>
	<use xlink:href='#gpPt5' transform='translate(701.0,619.1) scale(2.25)' color='rgb(  0,   0, 255)'/>
	<use xlink:href='#gpPt5' transform='translate(713.9,623.5) scale(2.25)' color='rgb(  0,   0, 255)'/>
	<use xlink:href='#gpPt5' transform='translate(726.7,627.6) scale(2.25)' color='rgb(  0,   0, 255)'/>
	<use xlink:href='#gpPt5' transform='translate(739.6,631.4) scale(2.25)' color='rgb(  0,   0, 255)'/>
	<use xlink:href='#gpPt5' transform='translate(752.5,634.9) scale(2.25)' color='rgb(  0,   0, 255)'/>
	<use xlink:href='#gpPt5' transform='translate(765.4,638.0) scale(2.25)' color='rgb(  0,   0, 255)'/>
	<use xlink:href='#gpPt5' transform='translate(778.3,640.9) scale(2.25)' color='rgb(  0,   0, 255)'/>
	<use xlink:href='#gpPt5' transform='translate(791.2,643.4) scale(2.25)' color='rgb(  0,   0, 255)'/>
	<use xlink:href='#gpPt5' transform='translate(804.0,645.7) scale(2.25)' color='rgb(  0,   0, 255)'/>
	<use xlink:href='#gpPt5' transform='translate(816.9,647.7) scale(2.25)' color='rgb(  0,   0, 255)'/>
	<use xlink:href='#gpPt5' transform='translate(829.8,649.4) scale(2.25)' color='rgb(  0,   0, 255)'/>
	<use xlink:href='#gpPt5' transform='translate(842.7,650.7) scale(2.25)' color='rgb(  0,   0, 255)'/>
	<use xlink:href='#gpPt5' transform='translate(855.6,651.8) scale(2.25)' color='rgb(  0,   0, 255)'/>
	<use xlink:href='#gpPt5' transform='translate(868.5,652.5) scale(2.25)' color='rgb(  0,   0, 255)'/>
	<use xlink:href='#gpPt5' transform='translate(881.4,653.0) scale(2.25)' color='rgb(  0,   0, 255)'/>
	<use xlink:href='#gpPt5' transform='translate(894.2,653.2) scale(2.25)' color='rgb(  0,   0, 255)'/>
	<use xlink:href='#gpPt5' transform='translate(907.1,653.1) scale(2.25)' color='rgb(  0,   0, 255)'/>
	<use xlink:href='#gpPt5' transform='translate(920.0,652.8) scale(2.25)' color='rgb(  0,   0, 255)'/>
	<use xlink:href='#gpPt5' transform='translate(932.9,652.2) scale(2.25)' color='rgb(  0,   0, 255)'/>
	<use xlink:href='#gpPt5' transform='translate(945.8,651.4) scale(2.25)' color='rgb(  0,   0, 255)'/>
	<use xlink:href='#gpPt5' transform='translate(958.7,650.2) scale(2.25)' color='rgb(  0,   0, 255)'/>
	<use xlink:href='#gpPt5' transform='translate(971.5,648.9) scale(2.25)' color='rgb(  0,   0, 255)'/>
	<use xlink:href='#gpPt5' transform='translate(984.4,647.3) scale(2.25)' color='rgb(  0,   0, 255)'/>
	<use xlink:href='#gpPt5' transform='translate(997.3,645.6) scale(2.25)' color='rgb(  0,   0, 255)'/>
	<use xlink:href='#gpPt5' transform='translate(1010.2,643.6) scale(2.25)' color='rgb(  0,   0, 255)'/>
	<use xlink:href='#gpPt5' transform='translate(1023.1,641.5) scale(2.25)' color='rgb(  0,   0, 255)'/>
	<use xlink:href='#gpPt5' transform='translate(1036.0,639.3) scale(2.25)' color='rgb(  0,   0, 255)'/>
	<use xlink:href='#gpPt5' transform='translate(1048.8,636.8) scale(2.25)' color='rgb(  0,   0, 255)'/>
	<use xlink:href='#gpPt5' transform='translate(1061.7,634.4) scale(2.25)' color='rgb(  0,   0, 255)'/>
	<use xlink:href='#gpPt5' transform='translate(1074.6,631.9) scale(2.25)' color='rgb(  0,   0, 255)'/>
	<use xlink:href='#gpPt5' transform='translate(1087.5,629.5) scale(2.25)' color='rgb(  0,   0, 255)'/>
	<use xlink:href='#gpPt5' transform='translate(1100.4,627.2) scale(2.25)' color='rgb(  0,   0, 255)'/>
	<use xlink:href='#gpPt5' transform='translate(1113.3,625.1) scale(2.25)' color='rgb(  0,   0, 255)'/>
	<use xlink:href='#gpPt5' transform='translate(1126.2,623.3) scale(2.25)' color='rgb(  0,   0, 255)'/>
	<use xlink:href='#gpPt5' transform='translate(1139.0,622.1) scale(2.25)' color='rgb(  0,   0, 255)'/>
	<use xlink:href='#gpPt5' transform='translate(1151.9,621.6) scale(2.25)' color='rgb(  0,   0, 255)'/>
	<use xlink:href='#gpPt5' transform='translate(1164.8,621.5) scale(2.25)' color='rgb(  0,   0, 255)'/>
	<use xlink:href='#gpPt5' transform='translate(1177.7,621.3) scale(2.25)' color='rgb(  0,   0, 255)'/>
	<use xlink:href='#gpPt5' transform='translate(1190.6,620.7) scale(2.25)' color='rgb(  0,   0, 255)'/>
	<use xlink:href='#gpPt5' transform='translate(1203.5,619.4) scale(2.25)' color='rgb(  0,   0, 255)'/>
	<use xlink:href='#gpPt5' transform='translate(1216.3,617.1) scale(2.25)' color='rgb(  0,   0, 255)'/>
	<use xlink:href='#gpPt5' transform='translate(1229.2,614.5) scale(2.25)' color='rgb(  0,   0, 255)'/>
	<use xlink:href='#gpPt5' transform='translate(1242.1,612.5) scale(2.25)' color='rgb(  0,   0, 255)'/>
	<use xlink:href='#gpPt5' transform='translate(1255.0,611.3) scale(2.25)' color='rgb(  0,   0, 255)'/>
</g>
	</g>
	<g id="gnuplot_plot_4" ><title>fit</title>
<g fill="none" color="black" stroke="currentColor" stroke-width="1.00" stroke-linecap="butt" stroke-linejoin="miter">
	<g transform="translate(1187.9,94.0)" stroke="none" fill="black" font-family="Arial" font-size="12.00"  text-anchor="end">
		<text><tspan font-family="Arial" >fit</tspan></text>
	</g>
</g>
<g fill="none" color="black" stroke="currentColor" stroke-width="1.00" stroke-linecap="butt" stroke-linejoin="miter">
	<path stroke='rgb(255,   0,   0)'  d='M1196.2,90.1 L1238.4,90.1 M95.4,101.2 L96.5,104.6 L97.7,113.8 L98.8,126.7 L99.9,141.0 L101.1,155.1
		L102.2,168.1 L103.3,179.8 L104.5,190.2 L105.6,199.6 L106.7,208.0 L107.9,215.7 L109.0,222.8 L110.1,229.3
		L111.3,235.4 L112.4,241.0 L113.5,246.3 L114.7,251.2 L115.8,255.8 L116.9,260.1 L118.1,264.1 L119.2,267.9
		L120.3,271.4 L121.5,274.7 L122.6,277.7 L123.7,280.5 L124.9,283.2 L126.0,285.7 L127.1,288.0 L128.3,290.2
		L129.4,292.2 L130.5,294.1 L131.7,295.9 L132.8,297.6 L133.9,299.2 L135.1,300.7 L136.2,302.2 L137.3,303.5
		L138.5,304.8 L139.6,306.0 L140.7,307.2 L141.9,308.3 L143.0,309.4 L144.1,310.5 L145.3,311.4 L146.4,312.4
		L147.5,313.3 L148.7,314.3 L149.8,315.1 L150.9,316.0 L152.1,316.8 L153.2,317.7 L154.3,318.5 L155.5,319.2
		L156.6,320.0 L157.7,320.8 L158.9,321.5 L160.0,322.3 L161.1,323.0 L162.3,323.7 L163.4,324.4 L164.5,325.2
		L165.7,325.9 L166.8,326.6 L167.9,327.3 L169.1,328.0 L170.2,328.6 L171.3,329.3 L172.5,330.0 L173.6,330.7
		L174.7,331.4 L175.9,332.1 L177.0,332.8 L178.1,333.4 L179.3,334.1 L180.4,334.8 L181.5,335.5 L182.7,336.2
		L183.8,336.9 L184.9,337.6 L186.1,338.2 L187.2,338.9 L188.3,339.6 L189.5,340.3 L190.6,341.0 L191.7,341.7
		L192.9,342.4 L194.0,343.1 L195.2,343.8 L196.3,344.5 L197.4,345.2 L198.6,345.9 L199.7,346.6 L200.8,347.4
		L202.0,348.1 L203.1,348.8 L204.2,349.5 L205.4,350.2 L206.5,350.9 L207.6,351.7 L208.8,352.4 L209.9,353.1
		L211.0,353.9 L212.2,354.6 L213.3,355.3 L214.4,356.1 L215.6,356.8 L216.7,357.6 L217.8,358.3 L219.0,359.0
		L220.1,359.8 L221.2,360.5 L222.4,361.3 L223.5,362.1 L224.6,362.8 L225.8,363.6 L226.9,364.3 L228.0,365.1
		L229.2,365.9 L230.3,366.6 L231.4,367.4 L232.6,368.2 L233.7,368.9 L234.8,369.7 L236.0,370.5 L237.1,371.3
		L238.2,372.0 L239.4,372.8 L240.5,373.6 L241.6,374.4 L242.8,375.2 L243.9,375.9 L245.0,376.7 L246.2,377.5
		L247.3,378.3 L248.4,379.1 L249.6,379.9 L250.7,380.7 L251.8,381.5 L253.0,382.3 L254.1,383.1 L255.2,383.9
		L256.4,384.7 L257.5,385.5 L258.6,386.3 L259.8,387.1 L260.9,387.9 L262.0,388.7 L263.2,389.5 L264.3,390.3
		L265.4,391.1 L266.6,391.9 L267.7,392.7 L268.8,393.5 L270.0,394.3 L271.1,395.1 L272.2,395.9 L273.4,396.7
		L274.5,397.6 L275.6,398.4 L276.8,399.2 L277.9,400.0 L279.0,400.8 L280.2,401.6 L281.3,402.4 L282.4,403.2
		L283.6,404.1 L284.7,404.9 L285.8,405.7 L287.0,406.5 L288.1,407.3 L289.2,408.1 L290.4,409.0 L291.5,409.8
		L292.6,410.6 L293.8,411.4 L294.9,412.2 L296.0,413.0 L297.2,413.9 L298.3,414.7 L299.4,415.5 L300.6,416.3
		L301.7,417.1 L302.8,418.0 L304.0,418.8 L305.1,419.6 L306.2,420.4 L307.4,421.2 L308.5,422.0 L309.6,422.9
		L310.8,423.7 L311.9,424.5 L313.0,425.3 L314.2,426.1 L315.3,427.0 L316.4,427.8 L317.6,428.6 L318.7,429.4
		L319.8,430.2 L321.0,431.0 L322.1,431.8 L323.2,432.7 L324.4,433.5 L325.5,434.3 L326.6,435.1 L327.8,435.9
		L328.9,436.7 L330.0,437.5 L331.2,438.4 L332.3,439.2 L333.4,440.0 L334.6,440.8 L335.7,441.6 L336.8,442.4
		L338.0,443.2 L339.1,444.0 L340.2,444.8 L341.4,445.7 L342.5,446.5 L343.6,447.3 L344.8,448.1 L345.9,448.9
		L347.0,449.7 L348.2,450.5 L349.3,451.3 L350.4,452.1 L351.6,452.9 L352.7,453.7 L353.8,454.5 L355.0,455.3
		L356.1,456.1 L357.2,456.9 L358.4,457.7 L359.5,458.5 L360.6,459.3 L361.8,460.1 L362.9,460.9 L364.0,461.7
		L365.2,462.5 L366.3,463.3 L367.4,464.1 L368.6,464.9 L369.7,465.7 L370.8,466.5 L372.0,467.3 L373.1,468.1
		L374.2,468.9 L375.4,469.6 L376.5,470.4 L377.6,471.2 L378.8,472.0 L379.9,472.8 L381.0,473.6 L382.2,474.4
		L383.3,475.1 L384.4,475.9 L385.6,476.7 L386.7,477.5 L387.9,478.3 L389.0,479.1 L390.1,479.8 L391.3,480.6
		L392.4,481.4 L393.5,482.2 L394.7,482.9 L395.8,483.7 L396.9,484.5 L398.1,485.3 L399.2,486.0 L400.3,486.8
		L401.5,487.6 L402.6,488.3 L403.7,489.1 L404.9,489.9 L406.0,490.6 L407.1,491.4 L408.3,492.2 L409.4,492.9
		L410.5,493.7 L411.7,494.5 L412.8,495.2 L413.9,496.0 L415.1,496.7 L416.2,497.5 L417.3,498.3 L418.5,499.0
		L419.6,499.8 L420.7,500.5 L421.9,501.3 L423.0,502.0 L424.1,502.8 L425.3,503.5 L426.4,504.3 L427.5,505.0
		L428.7,505.8 L429.8,506.5 L430.9,507.3 L432.1,508.0 L433.2,508.8 L434.3,509.5 L435.5,510.2 L436.6,511.0
		L437.7,511.7 L438.9,512.5 L440.0,513.2 L441.1,513.9 L442.3,514.7 L443.4,515.4 L444.5,516.1 L445.7,516.9
		L446.8,517.6 L447.9,518.3 L449.1,519.1 L450.2,519.8 L451.3,520.5 L452.5,521.2 L453.6,522.0 L454.7,522.7
		L455.9,523.4 L457.0,524.1 L458.1,524.8 L459.3,525.6 L460.4,526.3 L461.5,527.0 L462.7,527.7 L463.8,528.4
		L464.9,529.1 L466.1,529.9 L467.2,530.6 L468.3,531.3 L469.5,532.0 L470.6,532.7 L471.7,533.4 L472.9,534.1
		L474.0,534.8 L475.1,535.5 L476.3,536.2 L477.4,536.9 L478.5,537.6 L479.7,538.3 L480.8,539.0 L481.9,539.7
		L483.1,540.4 L484.2,541.1 L485.3,541.8 L486.5,542.5 L487.6,543.2 L488.7,543.9 L489.9,544.6 L491.0,545.3
		L492.1,545.9 L493.3,546.6 L494.4,547.3 L495.5,548.0 L496.7,548.7 L497.8,549.4 L498.9,550.0 L500.1,550.7
		L501.2,551.4 L502.3,552.1 L503.5,552.7 L504.6,553.4 L505.7,554.1 L506.9,554.8 L508.0,555.4 L509.1,556.1
		L510.3,556.8 L511.4,557.4 L512.5,558.1 L513.7,558.8 L514.8,559.4 L515.9,560.1 L517.1,560.8 L518.2,561.4
		L519.3,562.1 L520.5,562.7 L521.6,563.4 L522.7,564.0 L523.9,564.7 L525.0,565.3 L526.1,566.0 L527.3,566.6
		L528.4,567.3 L529.5,567.9 L530.7,568.6 L531.8,569.2 L532.9,569.9 L534.1,570.5 L535.2,571.2 L536.3,571.8
		L537.5,572.4 L538.6,573.1 L539.7,573.7 L540.9,574.3 L542.0,575.0 L543.1,575.6 L544.3,576.2 L545.4,576.9
		L546.5,577.5 L547.7,578.1 L548.8,578.7 L549.9,579.4 L551.1,580.0 L552.2,580.6 L553.3,581.2 L554.5,581.9
		L555.6,582.5 L556.7,583.1 L557.9,583.7 L559.0,584.3 L560.1,584.9 L561.3,585.5 L562.4,586.1 L563.5,586.8
		L564.7,587.4 L565.8,588.0 L566.9,588.6 L568.1,589.2 L569.2,589.8 L570.3,590.4 L571.5,591.0 L572.6,591.6
		L573.7,592.2 L574.9,592.8 L576.0,593.3 L577.1,593.9 L578.3,594.5 L579.4,595.1 L580.6,595.7 L581.7,596.3
		L582.8,596.9 L584.0,597.5 L585.1,598.0 L586.2,598.6 L587.4,599.2 L588.5,599.8 L589.6,600.3 L590.8,600.9
		L591.9,601.5 L593.0,602.1 L594.2,602.6 L595.3,603.2 L596.4,603.8 L597.6,604.3 L598.7,604.9 L599.8,605.5
		L601.0,606.0 L602.1,606.6 L603.2,607.1 L604.4,607.7 L605.5,608.2 L606.6,608.8 L607.8,609.3 L608.9,609.9
		L610.0,610.4 L611.2,611.0 L612.3,611.5 L613.4,612.1 L614.6,612.6 L615.7,613.2 L616.8,613.7 L618.0,614.2
		L619.1,614.8 L620.2,615.3 L621.4,615.8 L622.5,616.4 L623.6,616.9 L624.8,617.4 L625.9,617.9 L627.0,618.5
		L628.2,619.0 L629.3,619.5 L630.4,620.0 L631.6,620.6 L632.7,621.1 L633.8,621.6 L635.0,622.1 L636.1,622.6
		L637.2,623.1 L638.4,623.6 L639.5,624.1 L640.6,624.6 L641.8,625.1 L642.9,625.6 L644.0,626.1 L645.2,626.6
		L646.3,627.1 L647.4,627.6 L648.6,628.1 L649.7,628.6 L650.8,629.1 L652.0,629.6 L653.1,630.1 L654.2,630.5
		L655.4,631.0 L656.5,631.5 L657.6,632.0 L658.8,632.5 L659.9,632.9 L661.0,633.4 L662.2,633.9 L663.3,634.3
		L664.4,634.8 L665.6,635.3 L666.7,635.7 L667.8,636.2 L669.0,636.7 L670.1,637.1 L671.2,637.6 L672.4,638.0
		L673.5,638.5 L674.6,638.9 L675.8,639.4 L676.9,639.8 L678.0,640.3 L679.2,640.7 L680.3,641.1 L681.4,641.6
		L682.6,642.0 L683.7,642.5 L684.8,642.9 L686.0,643.3 L687.1,643.7 L688.2,644.2 L689.4,644.6 L690.5,645.0
		L691.6,645.4 L692.8,645.9 L693.9,646.3 L695.0,646.7 L696.2,647.1 L697.3,647.5 L698.4,647.9 L699.6,648.3
		L700.7,648.7 L701.8,649.1 L703.0,649.5 L704.1,649.9 L705.2,650.3 L706.4,650.7 L707.5,651.1 L708.6,651.5
		L709.8,651.9 L710.9,652.3 L712.0,652.7 L713.2,653.0 L714.3,653.4 L715.4,653.8 L716.6,654.2 L717.7,654.6
		L718.8,654.9 L720.0,655.3 L721.1,655.7 L722.2,656.0 L723.4,656.4 L724.5,656.7 L725.6,657.1 L726.8,657.5
		L727.9,657.8 L729.0,658.2 L730.2,658.5 L731.3,658.9 L732.4,659.2 L733.6,659.6 L734.7,659.9 L735.8,660.2
		L737.0,660.6 L738.1,660.9 L739.2,661.2 L740.4,661.6 L741.5,661.9 L742.6,662.2 L743.8,662.5 L744.9,662.9
		L746.0,663.2 L747.2,663.5 L748.3,663.8 L749.4,664.1 L750.6,664.4 L751.7,664.7 L752.8,665.0 L754.0,665.3
		L755.1,665.6 L756.2,665.9 L757.4,666.2 L758.5,666.5 L759.6,666.8 L760.8,667.1 L761.9,667.4 L763.0,667.7
		L764.2,667.9 L765.3,668.2 L766.4,668.5 L767.6,668.8 L768.7,669.0 L769.8,669.3 L771.0,669.6 L772.1,669.8
		L773.3,670.1 L774.4,670.4 L775.5,670.6 L776.7,670.9 L777.8,671.1 L778.9,671.4 L780.1,671.6 L781.2,671.9
		L782.3,672.1 L783.5,672.4 L784.6,672.6 L785.7,672.8 L786.9,673.1 L788.0,673.3 L789.1,673.5 L790.3,673.7
		L791.4,674.0 L792.5,674.2 L793.7,674.4 L794.8,674.6 L795.9,674.8 L797.1,675.0 L798.2,675.2 L799.3,675.5
		L800.5,675.7 L801.6,675.9 L802.7,676.1 L803.9,676.3 L805.0,676.4 L806.1,676.6 L807.3,676.8 L808.4,677.0
		L809.5,677.2 L810.7,677.4 L811.8,677.6 L812.9,677.7 L814.1,677.9 L815.2,678.1 L816.3,678.2 L817.5,678.4
		L818.6,678.6 L819.7,678.7 L820.9,678.9 L822.0,679.0 L823.1,679.2 L824.3,679.4 L825.4,679.5 L826.5,679.6
		L827.7,679.8 L828.8,679.9 L829.9,680.1 L831.1,680.2 L832.2,680.3 L833.3,680.5 L834.5,680.6 L835.6,680.7
		L836.7,680.9 L837.9,681.0 L839.0,681.1 L840.1,681.2 L841.3,681.3 L842.4,681.4 L843.5,681.5 L844.7,681.7
		L845.8,681.8 L846.9,681.9 L848.1,682.0 L849.2,682.1 L850.3,682.2 L851.5,682.2 L852.6,682.3 L853.7,682.4
		L854.9,682.5 L856.0,682.6 L857.1,682.7 L858.3,682.7 L859.4,682.8 L860.5,682.9 L861.7,683.0 L862.8,683.0
		L863.9,683.1 L865.1,683.2 L866.2,683.2 L867.3,683.3 L868.5,683.3 L869.6,683.4 L870.7,683.4 L871.9,683.5
		L873.0,683.5 L874.1,683.6 L875.3,683.6 L876.4,683.7 L877.5,683.7 L878.7,683.7 L879.8,683.8 L880.9,683.8
		L882.1,683.8 L883.2,683.9 L884.3,683.9 L885.5,683.9 L886.6,683.9 L887.7,683.9 L888.9,684.0 L890.0,684.0
		L891.1,684.0 L892.3,684.0 L893.4,684.0 L894.5,684.0 L895.7,684.0 L896.8,684.0 L897.9,684.0 L899.1,684.0
		L900.2,684.0 L901.3,684.0 L902.5,684.0 L903.6,683.9 L904.7,683.9 L905.9,683.9 L907.0,683.9 L908.1,683.9
		L909.3,683.8 L910.4,683.8 L911.5,683.8 L912.7,683.8 L913.8,683.7 L914.9,683.7 L916.1,683.7 L917.2,683.6
		L918.3,683.6 L919.5,683.5 L920.6,683.5 L921.7,683.4 L922.9,683.4 L924.0,683.3 L925.1,683.3 L926.3,683.2
		L927.4,683.2 L928.5,683.1 L929.7,683.1 L930.8,683.0 L931.9,682.9 L933.1,682.9 L934.2,682.8 L935.3,682.7
		L936.5,682.7 L937.6,682.6 L938.7,682.5 L939.9,682.4 L941.0,682.4 L942.1,682.3 L943.3,682.2 L944.4,682.1
		L945.5,682.0 L946.7,681.9 L947.8,681.9 L948.9,681.8 L950.1,681.7 L951.2,681.6 L952.3,681.5 L953.5,681.4
		L954.6,681.3 L955.7,681.2 L956.9,681.1 L958.0,681.0 L959.1,680.9 L960.3,680.8 L961.4,680.7 L962.5,680.5
		L963.7,680.4 L964.8,680.3 L966.0,680.2 L967.1,680.1 L968.2,680.0 L969.4,679.9 L970.5,679.7 L971.6,679.6
		L972.8,679.5 L973.9,679.4 L975.0,679.2 L976.2,679.1 L977.3,679.0 L978.4,678.9 L979.6,678.7 L980.7,678.6
		L981.8,678.5 L983.0,678.3 L984.1,678.2 L985.2,678.1 L986.4,677.9 L987.5,677.8 L988.6,677.6 L989.8,677.5
		L990.9,677.3 L992.0,677.2 L993.2,677.1 L994.3,676.9 L995.4,676.8 L996.6,676.6 L997.7,676.5 L998.8,676.3
		L1000.0,676.2 L1001.1,676.0 L1002.2,675.8 L1003.4,675.7 L1004.5,675.5 L1005.6,675.4 L1006.8,675.2 L1007.9,675.1
		L1009.0,674.9 L1010.2,674.7 L1011.3,674.6 L1012.4,674.4 L1013.6,674.3 L1014.7,674.1 L1015.8,673.9 L1017.0,673.8
		L1018.1,673.6 L1019.2,673.4 L1020.4,673.3 L1021.5,673.1 L1022.6,672.9 L1023.8,672.7 L1024.9,672.6 L1026.0,672.4
		L1027.2,672.2 L1028.3,672.1 L1029.4,671.9 L1030.6,671.7 L1031.7,671.5 L1032.8,671.4 L1034.0,671.2 L1035.1,671.0
		L1036.2,670.8 L1037.4,670.7 L1038.5,670.5 L1039.6,670.3 L1040.8,670.1 L1041.9,669.9 L1043.0,669.8 L1044.2,669.6
		L1045.3,669.4 L1046.4,669.2 L1047.6,669.0 L1048.7,668.9 L1049.8,668.7 L1051.0,668.5 L1052.1,668.3 L1053.2,668.1
		L1054.4,668.0 L1055.5,667.8 L1056.6,667.6 L1057.8,667.4 L1058.9,667.2 L1060.0,667.0 L1061.2,666.9 L1062.3,666.7
		L1063.4,666.5 L1064.6,666.3 L1065.7,666.1 L1066.8,665.9 L1068.0,665.7 L1069.1,665.6 L1070.2,665.4 L1071.4,665.2
		L1072.5,665.0 L1073.6,664.8 L1074.8,664.6 L1075.9,664.5 L1077.0,664.3 L1078.2,664.1 L1079.3,663.9 L1080.4,663.7
		L1081.6,663.5 L1082.7,663.4 L1083.8,663.2 L1085.0,663.0 L1086.1,662.8 L1087.2,662.6 L1088.4,662.4 L1089.5,662.3
		L1090.6,662.1 L1091.8,661.9 L1092.9,661.7 L1094.0,661.5 L1095.2,661.4 L1096.3,661.2 L1097.4,661.0 L1098.6,660.8
		L1099.7,660.6 L1100.8,660.5 L1102.0,660.3 L1103.1,660.1 L1104.2,659.9 L1105.4,659.8 L1106.5,659.6 L1107.6,659.4
		L1108.8,659.2 L1109.9,659.1 L1111.0,658.9 L1112.2,658.7 L1113.3,658.5 L1114.4,658.4 L1115.6,658.2 L1116.7,658.0
		L1117.8,657.9 L1119.0,657.7 L1120.1,657.5 L1121.2,657.4 L1122.4,657.2 L1123.5,657.0 L1124.6,656.9 L1125.8,656.7
		L1126.9,656.5 L1128.0,656.4 L1129.2,656.2 L1130.3,656.1 L1131.4,655.9 L1132.6,655.7 L1133.7,655.6 L1134.8,655.4
		L1136.0,655.3 L1137.1,655.1 L1138.2,655.0 L1139.4,654.8 L1140.5,654.6 L1141.6,654.5 L1142.8,654.3 L1143.9,654.2
		L1145.0,654.0 L1146.2,653.9 L1147.3,653.8 L1148.4,653.6 L1149.6,653.5 L1150.7,653.3 L1151.8,653.2 L1153.0,653.0
		L1154.1,652.9 L1155.2,652.8 L1156.4,652.6 L1157.5,652.5 L1158.7,652.4 L1159.8,652.2 L1160.9,652.1 L1162.1,652.0
		L1163.2,651.8 L1164.3,651.7 L1165.5,651.6 L1166.6,651.4 L1167.7,651.3 L1168.9,651.2 L1170.0,651.1 L1171.1,651.0
		L1172.3,650.8 L1173.4,650.7 L1174.5,650.6 L1175.7,650.5 L1176.8,650.4 L1177.9,650.3 L1179.1,650.1 L1180.2,650.0
		L1181.3,649.9 L1182.5,649.8 L1183.6,649.7 L1184.7,649.6 L1185.9,649.5 L1187.0,649.4 L1188.1,649.3 L1189.3,649.2
		L1190.4,649.1 L1191.5,649.0 L1192.7,648.9 L1193.8,648.8 L1194.9,648.7 L1196.1,648.7 L1197.2,648.6 L1198.3,648.5
		L1199.5,648.4 L1200.6,648.3 L1201.7,648.2 L1202.9,648.1 L1204.0,648.1 L1205.1,648.0 L1206.3,647.9 L1207.4,647.8
		L1208.5,647.8 L1209.7,647.7 L1210.8,647.6 L1211.9,647.6 L1213.1,647.5 L1214.2,647.4 L1215.3,647.4 L1216.5,647.3
		L1217.6,647.3 L1218.7,647.2 L1219.9,647.1 L1221.0,647.1 L1222.1,647.0 L1223.3,647.0 L1224.4,646.9 L1225.5,646.9
		L1226.7,646.9 L1227.8,646.8 L1228.9,646.8 L1230.1,646.7 L1231.2,646.7 L1232.3,646.7 L1233.5,646.6 L1234.6,646.6
		L1235.7,646.6 L1236.9,646.5 L1238.0,646.5 L1239.1,646.5 L1240.3,646.5 L1241.4,646.4 L1242.5,646.4 L1243.7,646.4
		L1244.8,646.4 L1245.9,646.4 L1247.1,646.3 L1248.2,646.3 L1249.3,646.3 L1250.5,646.3 L1251.6,646.3 L1252.7,646.3
		L1253.9,646.3 L1255.0,646.3  '/></g>
	</g>
	<g id="gnuplot_plot_5" ><title>gnuplot_plot_5</title>
<g fill="none" color="black" stroke="currentColor" stroke-width="1.00" stroke-linecap="butt" stroke-linejoin="miter">
	<path stroke='rgb(  0, 100,   0)'  d='M95.4,87.2 L96.5,90.7 L97.7,100.5 L98.8,114.3 L99.9,129.6 L101.1,144.8 L102.2,158.8 L103.3,171.4
		L104.5,182.5 L105.6,192.3 L106.7,201.1 L107.9,209.0 L109.0,216.1 L110.1,222.5 L111.3,228.4 L112.4,233.8
		L113.5,238.9 L114.7,243.5 L115.8,247.7 L116.9,251.7 L118.1,255.4 L119.2,258.8 L120.3,261.9 L121.5,264.8
		L122.6,267.5 L123.7,270.1 L124.9,272.4 L126.0,274.6 L127.1,276.6 L128.3,278.5 L129.4,280.3 L130.5,282.0
		L131.7,283.6 L132.8,285.1 L133.9,286.5 L135.1,287.8 L136.2,289.1 L137.3,290.3 L138.5,291.4 L139.6,292.5
		L140.7,293.6 L141.9,294.6 L143.0,295.5 L144.1,296.5 L145.3,297.4 L146.4,298.3 L147.5,299.1 L148.7,300.0
		L149.8,300.8 L150.9,301.6 L152.1,302.4 L153.2,303.2 L154.3,303.9 L155.5,304.7 L156.6,305.4 L157.7,306.2
		L158.9,306.9 L160.0,307.6 L161.1,308.3 L162.3,309.0 L163.4,309.7 L164.5,310.5 L165.7,311.2 L166.8,311.8
		L167.9,312.5 L169.1,313.2 L170.2,313.9 L171.3,314.6 L172.5,315.3 L173.6,316.0 L174.7,316.7 L175.9,317.4
		L177.0,318.1 L178.1,318.8 L179.3,319.5 L180.4,320.2 L181.5,320.9 L182.7,321.6 L183.8,322.3 L184.9,323.0
		L186.1,323.7 L187.2,324.4 L188.3,325.2 L189.5,325.9 L190.6,326.6 L191.7,327.3 L192.9,328.0 L194.0,328.8
		L195.2,329.5 L196.3,330.2 L197.4,330.9 L198.6,331.7 L199.7,332.4 L200.8,333.2 L202.0,333.9 L203.1,334.6
		L204.2,335.4 L205.4,336.1 L206.5,336.9 L207.6,337.6 L208.8,338.4 L209.9,339.2 L211.0,339.9 L212.2,340.7
		L213.3,341.4 L214.4,342.2 L215.6,343.0 L216.7,343.8 L217.8,344.5 L219.0,345.3 L220.1,346.1 L221.2,346.9
		L222.4,347.7 L223.5,348.4 L224.6,349.2 L225.8,350.0 L226.9,350.8 L228.0,351.6 L229.2,352.4 L230.3,353.2
		L231.4,354.0 L232.6,354.8 L233.7,355.6 L234.8,356.4 L236.0,357.2 L237.1,358.0 L238.2,358.8 L239.4,359.6
		L240.5,360.4 L241.6,361.2 L242.8,362.1 L243.9,362.9 L245.0,363.7 L246.2,364.5 L247.3,365.3 L248.4,366.1
		L249.6,367.0 L250.7,367.8 L251.8,368.6 L253.0,369.4 L254.1,370.3 L255.2,371.1 L256.4,371.9 L257.5,372.7
		L258.6,373.6 L259.8,374.4 L260.9,375.2 L262.0,376.0 L263.2,376.9 L264.3,377.7 L265.4,378.5 L266.6,379.4
		L267.7,380.2 L268.8,381.0 L270.0,381.9 L271.1,382.7 L272.2,383.6 L273.4,384.4 L274.5,385.2 L275.6,386.1
		L276.8,386.9 L277.9,387.7 L279.0,388.6 L280.2,389.4 L281.3,390.3 L282.4,391.1 L283.6,391.9 L284.7,392.8
		L285.8,393.6 L287.0,394.5 L288.1,395.3 L289.2,396.1 L290.4,397.0 L291.5,397.8 L292.6,398.7 L293.8,399.5
		L294.9,400.4 L296.0,401.2 L297.2,402.0 L298.3,402.9 L299.4,403.7 L300.6,404.6 L301.7,405.4 L302.8,406.2
		L304.0,407.1 L305.1,407.9 L306.2,408.8 L307.4,409.6 L308.5,410.4 L309.6,411.3 L310.8,412.1 L311.9,413.0
		L313.0,413.8 L314.2,414.6 L315.3,415.5 L316.4,416.3 L317.6,417.2 L318.7,418.0 L319.8,418.8 L321.0,419.7
		L322.1,420.5 L323.2,421.3 L324.4,422.2 L325.5,423.0 L326.6,423.8 L327.8,424.7 L328.9,425.5 L330.0,426.3
		L331.2,427.2 L332.3,428.0 L333.4,428.8 L334.6,429.7 L335.7,430.5 L336.8,431.3 L338.0,432.2 L339.1,433.0
		L340.2,433.8 L341.4,434.6 L342.5,435.5 L343.6,436.3 L344.8,437.1 L345.9,437.9 L347.0,438.8 L348.2,439.6
		L349.3,440.4 L350.4,441.2 L351.6,442.0 L352.7,442.9 L353.8,443.7 L355.0,444.5 L356.1,445.3 L357.2,446.1
		L358.4,447.0 L359.5,447.8 L360.6,448.6 L361.8,449.4 L362.9,450.2 L364.0,451.0 L365.2,451.8 L366.3,452.7
		L367.4,453.5 L368.6,454.3 L369.7,455.1 L370.8,455.9 L372.0,456.7 L373.1,457.5 L374.2,458.3 L375.4,459.1
		L376.5,459.9 L377.6,460.7 L378.8,461.5 L379.9,462.3 L381.0,463.1 L382.2,463.9 L383.3,464.7 L384.4,465.5
		L385.6,466.3 L386.7,467.1 L387.9,467.9 L389.0,468.7 L390.1,469.5 L391.3,470.3 L392.4,471.1 L393.5,471.9
		L394.7,472.7 L395.8,473.4 L396.9,474.2 L398.1,475.0 L399.2,475.8 L400.3,476.6 L401.5,477.4 L402.6,478.1
		L403.7,478.9 L404.9,479.7 L406.0,480.5 L407.1,481.3 L408.3,482.0 L409.4,482.8 L410.5,483.6 L411.7,484.4
		L412.8,485.1 L413.9,485.9 L415.1,486.7 L416.2,487.5 L417.3,488.2 L418.5,489.0 L419.6,489.8 L420.7,490.5
		L421.9,491.3 L423.0,492.1 L424.1,492.8 L425.3,493.6 L426.4,494.3 L427.5,495.1 L428.7,495.9 L429.8,496.6
		L430.9,497.4 L432.1,498.1 L433.2,498.9 L434.3,499.6 L435.5,500.4 L436.6,501.1 L437.7,501.9 L438.9,502.6
		L440.0,503.4 L441.1,504.1 L442.3,504.9 L443.4,505.6 L444.5,506.4 L445.7,507.1 L446.8,507.8 L447.9,508.6
		L449.1,509.3 L450.2,510.1 L451.3,510.8 L452.5,511.5 L453.6,512.3 L454.7,513.0 L455.9,513.7 L457.0,514.5
		L458.1,515.2 L459.3,515.9 L460.4,516.6 L461.5,517.4 L462.7,518.1 L463.8,518.8 L464.9,519.5 L466.1,520.3
		L467.2,521.0 L468.3,521.7 L469.5,522.4 L470.6,523.1 L471.7,523.9 L472.9,524.6 L474.0,525.3 L475.1,526.0
		L476.3,526.7 L477.4,527.4 L478.5,528.1 L479.7,528.8 L480.8,529.5 L481.9,530.2 L483.1,530.9 L484.2,531.6
		L485.3,532.4 L486.5,533.1 L487.6,533.7 L488.7,534.4 L489.9,535.1 L491.0,535.8 L492.1,536.5 L493.3,537.2
		L494.4,537.9 L495.5,538.6 L496.7,539.3 L497.8,540.0 L498.9,540.7 L500.1,541.4 L501.2,542.0 L502.3,542.7
		L503.5,543.4 L504.6,544.1 L505.7,544.8 L506.9,545.4 L508.0,546.1 L509.1,546.8 L510.3,547.5 L511.4,548.1
		L512.5,548.8 L513.7,549.5 L514.8,550.2 L515.9,550.8 L517.1,551.5 L518.2,552.2 L519.3,552.8 L520.5,553.5
		L521.6,554.1 L522.7,554.8 L523.9,555.5 L525.0,556.1 L526.1,556.8 L527.3,557.4 L528.4,558.1 L529.5,558.7
		L530.7,559.4 L531.8,560.0 L532.9,560.7 L534.1,561.3 L535.2,562.0 L536.3,562.6 L537.5,563.3 L538.6,563.9
		L539.7,564.5 L540.9,565.2 L542.0,565.8 L543.1,566.5 L544.3,567.1 L545.4,567.7 L546.5,568.4 L547.7,569.0
		L548.8,569.6 L549.9,570.2 L551.1,570.9 L552.2,571.5 L553.3,572.1 L554.5,572.7 L555.6,573.4 L556.7,574.0
		L557.9,574.6 L559.0,575.2 L560.1,575.8 L561.3,576.4 L562.4,577.1 L563.5,577.7 L564.7,578.3 L565.8,578.9
		L566.9,579.5 L568.1,580.1 L569.2,580.7 L570.3,581.3 L571.5,581.9 L572.6,582.5 L573.7,583.1 L574.9,583.7
		L576.0,584.3 L577.1,584.9 L578.3,585.5 L579.4,586.1 L580.6,586.7 L581.7,587.2 L582.8,587.8 L584.0,588.4
		L585.1,589.0 L586.2,589.6 L587.4,590.2 L588.5,590.7 L589.6,591.3 L590.8,591.9 L591.9,592.5 L593.0,593.0
		L594.2,593.6 L595.3,594.2 L596.4,594.7 L597.6,595.3 L598.7,595.9 L599.8,596.4 L601.0,597.0 L602.1,597.6
		L603.2,598.1 L604.4,598.7 L605.5,599.2 L606.6,599.8 L607.8,600.3 L608.9,600.9 L610.0,601.4 L611.2,602.0
		L612.3,602.5 L613.4,603.1 L614.6,603.6 L615.7,604.2 L616.8,604.7 L618.0,605.2 L619.1,605.8 L620.2,606.3
		L621.4,606.8 L622.5,607.4 L623.6,607.9 L624.8,608.4 L625.9,609.0 L627.0,609.5 L628.2,610.0 L629.3,610.5
		L630.4,611.0 L631.6,611.6 L632.7,612.1 L633.8,612.6 L635.0,613.1 L636.1,613.6 L637.2,614.1 L638.4,614.6
		L639.5,615.1 L640.6,615.6 L641.8,616.1 L642.9,616.6 L644.0,617.1 L645.2,617.6 L646.3,618.1 L647.4,618.6
		L648.6,619.1 L649.7,619.6 L650.8,620.1 L652.0,620.6 L653.1,621.1 L654.2,621.5 L655.4,622.0 L656.5,622.5
		L657.6,623.0 L658.8,623.4 L659.9,623.9 L661.0,624.4 L662.2,624.9 L663.3,625.3 L664.4,625.8 L665.6,626.3
		L666.7,626.7 L667.8,627.2 L669.0,627.6 L670.1,628.1 L671.2,628.5 L672.4,629.0 L673.5,629.4 L674.6,629.9
		L675.8,630.3 L676.9,630.8 L678.0,631.2 L679.2,631.7 L680.3,632.1 L681.4,632.5 L682.6,633.0 L683.7,633.4
		L684.8,633.8 L686.0,634.3 L687.1,634.7 L688.2,635.1 L689.4,635.5 L690.5,636.0 L691.6,636.4 L692.8,636.8
		L693.9,637.2 L695.0,637.6 L696.2,638.0 L697.3,638.4 L698.4,638.9 L699.6,639.3 L700.7,639.7 L701.8,640.1
		L703.0,640.5 L704.1,640.9 L705.2,641.3 L706.4,641.6 L707.5,642.0 L708.6,642.4 L709.8,642.8 L710.9,643.2
		L712.0,643.6 L713.2,643.9 L714.3,644.3 L715.4,644.7 L716.6,645.1 L717.7,645.4 L718.8,645.8 L720.0,646.2
		L721.1,646.5 L722.2,646.9 L723.4,647.3 L724.5,647.6 L725.6,648.0 L726.8,648.3 L727.9,648.7 L729.0,649.0
		L730.2,649.4 L731.3,649.7 L732.4,650.1 L733.6,650.4 L734.7,650.7 L735.8,651.1 L737.0,651.4 L738.1,651.7
		L739.2,652.1 L740.4,652.4 L741.5,652.7 L742.6,653.0 L743.8,653.4 L744.9,653.7 L746.0,654.0 L747.2,654.3
		L748.3,654.6 L749.4,654.9 L750.6,655.2 L751.7,655.5 L752.8,655.8 L754.0,656.1 L755.1,656.4 L756.2,656.7
		L757.4,657.0 L758.5,657.3 L759.6,657.6 L760.8,657.9 L761.9,658.2 L763.0,658.4 L764.2,658.7 L765.3,659.0
		L766.4,659.3 L767.6,659.5 L768.7,659.8 L769.8,660.1 L771.0,660.3 L772.1,660.6 L773.3,660.9 L774.4,661.1
		L775.5,661.4 L776.7,661.6 L777.8,661.9 L778.9,662.1 L780.1,662.4 L781.2,662.6 L782.3,662.8 L783.5,663.1
		L784.6,663.3 L785.7,663.5 L786.9,663.8 L788.0,664.0 L789.1,664.2 L790.3,664.4 L791.4,664.7 L792.5,664.9
		L793.7,665.1 L794.8,665.3 L795.9,665.5 L797.1,665.7 L798.2,665.9 L799.3,666.1 L800.5,666.3 L801.6,666.5
		L802.7,666.7 L803.9,666.9 L805.0,667.1 L806.1,667.3 L807.3,667.5 L808.4,667.7 L809.5,667.9 L810.7,668.0
		L811.8,668.2 L812.9,668.4 L814.1,668.6 L815.2,668.7 L816.3,668.9 L817.5,669.1 L818.6,669.2 L819.7,669.4
		L820.9,669.5 L822.0,669.7 L823.1,669.8 L824.3,670.0 L825.4,670.1 L826.5,670.3 L827.7,670.4 L828.8,670.6
		L829.9,670.7 L831.1,670.8 L832.2,671.0 L833.3,671.1 L834.5,671.2 L835.6,671.3 L836.7,671.5 L837.9,671.6
		L839.0,671.7 L840.1,671.8 L841.3,671.9 L842.4,672.0 L843.5,672.1 L844.7,672.3 L845.8,672.4 L846.9,672.5
		L848.1,672.6 L849.2,672.6 L850.3,672.7 L851.5,672.8 L852.6,672.9 L853.7,673.0 L854.9,673.1 L856.0,673.2
		L857.1,673.3 L858.3,673.3 L859.4,673.4 L860.5,673.5 L861.7,673.5 L862.8,673.6 L863.9,673.7 L865.1,673.7
		L866.2,673.8 L867.3,673.9 L868.5,673.9 L869.6,674.0 L870.7,674.0 L871.9,674.1 L873.0,674.1 L874.1,674.2
		L875.3,674.2 L876.4,674.2 L877.5,674.3 L878.7,674.3 L879.8,674.3 L880.9,674.4 L882.1,674.4 L883.2,674.4
		L884.3,674.5 L885.5,674.5 L886.6,674.5 L887.7,674.5 L888.9,674.5 L890.0,674.5 L891.1,674.5 L892.3,674.6
		L893.4,674.6 L894.5,674.6 L895.7,674.6 L896.8,674.6 L897.9,674.6 L899.1,674.6 L900.2,674.5 L901.3,674.5
		L902.5,674.5 L903.6,674.5 L904.7,674.5 L905.9,674.5 L907.0,674.5 L908.1,674.4 L909.3,674.4 L910.4,674.4
		L911.5,674.4 L912.7,674.3 L913.8,674.3 L914.9,674.3 L916.1,674.2 L917.2,674.2 L918.3,674.2 L919.5,674.1
		L920.6,674.1 L921.7,674.0 L922.9,674.0 L924.0,673.9 L925.1,673.9 L926.3,673.8 L927.4,673.8 L928.5,673.7
		L929.7,673.7 L930.8,673.6 L931.9,673.5 L933.1,673.5 L934.2,673.4 L935.3,673.3 L936.5,673.3 L937.6,673.2
		L938.7,673.1 L939.9,673.0 L941.0,673.0 L942.1,672.9 L943.3,672.8 L944.4,672.7 L945.5,672.6 L946.7,672.5
		L947.8,672.5 L948.9,672.4 L950.1,672.3 L951.2,672.2 L952.3,672.1 L953.5,672.0 L954.6,671.9 L955.7,671.8
		L956.9,671.7 L958.0,671.6 L959.1,671.5 L960.3,671.4 L961.4,671.3 L962.5,671.2 L963.7,671.1 L964.8,671.0
		L966.0,670.8 L967.1,670.7 L968.2,670.6 L969.4,670.5 L970.5,670.4 L971.6,670.3 L972.8,670.1 L973.9,670.0
		L975.0,669.9 L976.2,669.8 L977.3,669.6 L978.4,669.5 L979.6,669.4 L980.7,669.3 L981.8,669.1 L983.0,669.0
		L984.1,668.9 L985.2,668.7 L986.4,668.6 L987.5,668.4 L988.6,668.3 L989.8,668.2 L990.9,668.0 L992.0,667.9
		L993.2,667.7 L994.3,667.6 L995.4,667.5 L996.6,667.3 L997.7,667.2 L998.8,667.0 L1000.0,666.9 L1001.1,666.7
		L1002.2,666.6 L1003.4,666.4 L1004.5,666.3 L1005.6,666.1 L1006.8,665.9 L1007.9,665.8 L1009.0,665.6 L1010.2,665.5
		L1011.3,665.3 L1012.4,665.1 L1013.6,665.0 L1014.7,664.8 L1015.8,664.7 L1017.0,664.5 L1018.1,664.3 L1019.2,664.2
		L1020.4,664.0 L1021.5,663.8 L1022.6,663.7 L1023.8,663.5 L1024.9,663.3 L1026.0,663.2 L1027.2,663.0 L1028.3,662.8
		L1029.4,662.7 L1030.6,662.5 L1031.7,662.3 L1032.8,662.1 L1034.0,662.0 L1035.1,661.8 L1036.2,661.6 L1037.4,661.4
		L1038.5,661.3 L1039.6,661.1 L1040.8,660.9 L1041.9,660.7 L1043.0,660.6 L1044.2,660.4 L1045.3,660.2 L1046.4,660.0
		L1047.6,659.9 L1048.7,659.7 L1049.8,659.5 L1051.0,659.3 L1052.1,659.1 L1053.2,659.0 L1054.4,658.8 L1055.5,658.6
		L1056.6,658.4 L1057.8,658.2 L1058.9,658.1 L1060.0,657.9 L1061.2,657.7 L1062.3,657.5 L1063.4,657.3 L1064.6,657.2
		L1065.7,657.0 L1066.8,656.8 L1068.0,656.6 L1069.1,656.4 L1070.2,656.2 L1071.4,656.1 L1072.5,655.9 L1073.6,655.7
		L1074.8,655.5 L1075.9,655.3 L1077.0,655.2 L1078.2,655.0 L1079.3,654.8 L1080.4,654.6 L1081.6,654.4 L1082.7,654.3
		L1083.8,654.1 L1085.0,653.9 L1086.1,653.7 L1087.2,653.5 L1088.4,653.4 L1089.5,653.2 L1090.6,653.0 L1091.8,652.8
		L1092.9,652.6 L1094.0,652.5 L1095.2,652.3 L1096.3,652.1 L1097.4,651.9 L1098.6,651.8 L1099.7,651.6 L1100.8,651.4
		L1102.0,651.2 L1103.1,651.0 L1104.2,650.9 L1105.4,650.7 L1106.5,650.5 L1107.6,650.4 L1108.8,650.2 L1109.9,650.0
		L1111.0,649.8 L1112.2,649.7 L1113.3,649.5 L1114.4,649.3 L1115.6,649.2 L1116.7,649.0 L1117.8,648.8 L1119.0,648.7
		L1120.1,648.5 L1121.2,648.3 L1122.4,648.2 L1123.5,648.0 L1124.6,647.8 L1125.8,647.7 L1126.9,647.5 L1128.0,647.4
		L1129.2,647.2 L1130.3,647.0 L1131.4,646.9 L1132.6,646.7 L1133.7,646.6 L1134.8,646.4 L1136.0,646.3 L1137.1,646.1
		L1138.2,646.0 L1139.4,645.8 L1140.5,645.6 L1141.6,645.5 L1142.8,645.4 L1143.9,645.2 L1145.0,645.1 L1146.2,644.9
		L1147.3,644.8 L1148.4,644.6 L1149.6,644.5 L1150.7,644.3 L1151.8,644.2 L1153.0,644.1 L1154.1,643.9 L1155.2,643.8
		L1156.4,643.6 L1157.5,643.5 L1158.7,643.4 L1159.8,643.2 L1160.9,643.1 L1162.1,643.0 L1163.2,642.9 L1164.3,642.7
		L1165.5,642.6 L1166.6,642.5 L1167.7,642.4 L1168.9,642.2 L1170.0,642.1 L1171.1,642.0 L1172.3,641.9 L1173.4,641.8
		L1174.5,641.6 L1175.7,641.5 L1176.8,641.4 L1177.9,641.3 L1179.1,641.2 L1180.2,641.1 L1181.3,641.0 L1182.5,640.9
		L1183.6,640.8 L1184.7,640.7 L1185.9,640.6 L1187.0,640.5 L1188.1,640.4 L1189.3,640.3 L1190.4,640.2 L1191.5,640.1
		L1192.7,640.0 L1193.8,639.9 L1194.9,639.8 L1196.1,639.7 L1197.2,639.6 L1198.3,639.5 L1199.5,639.5 L1200.6,639.4
		L1201.7,639.3 L1202.9,639.2 L1204.0,639.1 L1205.1,639.1 L1206.3,639.0 L1207.4,638.9 L1208.5,638.8 L1209.7,638.8
		L1210.8,638.7 L1211.9,638.6 L1213.1,638.6 L1214.2,638.5 L1215.3,638.5 L1216.5,638.4 L1217.6,638.3 L1218.7,638.3
		L1219.9,638.2 L1221.0,638.2 L1222.1,638.1 L1223.3,638.1 L1224.4,638.0 L1225.5,638.0 L1226.7,637.9 L1227.8,637.9
		L1228.9,637.9 L1230.1,637.8 L1231.2,637.8 L1232.3,637.7 L1233.5,637.7 L1234.6,637.7 L1235.7,637.6 L1236.9,637.6
		L1238.0,637.6 L1239.1,637.6 L1240.3,637.5 L1241.4,637.5 L1242.5,637.5 L1243.7,637.5 L1244.8,637.5 L1245.9,637.4
		L1247.1,637.4 L1248.2,637.4 L1249.3,637.4 L1250.5,637.4 L1251.6,637.4 L1252.7,637.4 L1253.9,637.4 L1255.0,637.4
		 '/></g>
	</g>
	<g id="gnuplot_plot_6" ><title>gnuplot_plot_6</title>
<g fill="none" color="black" stroke="currentColor" stroke-width="1.00" stroke-linecap="butt" stroke-linejoin="miter">
	<path stroke='rgb(  0,   0, 255)'  d='M95.4,57.7 L96.5,61.6 L97.7,72.3 L98.8,87.4 L99.9,104.4 L101.1,121.4 L102.2,137.1 L103.3,151.2
		L104.5,163.5 L105.6,174.1 L106.7,183.4 L107.9,191.5 L109.0,198.5 L110.1,204.7 L111.3,210.3 L112.4,215.2
		L113.5,219.6 L114.7,223.5 L115.8,227.1 L116.9,230.4 L118.1,233.3 L119.2,236.0 L120.3,238.4 L121.5,240.7
		L122.6,242.8 L123.7,244.7 L124.9,246.5 L126.0,248.1 L127.1,249.7 L128.3,251.1 L129.4,252.4 L130.5,253.7
		L131.7,254.9 L132.8,256.1 L133.9,257.1 L135.1,258.2 L136.2,259.2 L137.3,260.1 L138.5,261.0 L139.6,261.9
		L140.7,262.8 L141.9,263.6 L143.0,264.5 L144.1,265.3 L145.3,266.0 L146.4,266.8 L147.5,267.6 L148.7,268.3
		L149.8,269.1 L150.9,269.8 L152.1,270.5 L153.2,271.3 L154.3,272.0 L155.5,272.7 L156.6,273.4 L157.7,274.1
		L158.9,274.8 L160.0,275.6 L161.1,276.3 L162.3,277.0 L163.4,277.7 L164.5,278.4 L165.7,279.1 L166.8,279.8
		L167.9,280.6 L169.1,281.3 L170.2,282.0 L171.3,282.7 L172.5,283.5 L173.6,284.2 L174.7,284.9 L175.9,285.7
		L177.0,286.4 L178.1,287.2 L179.3,287.9 L180.4,288.7 L181.5,289.4 L182.7,290.2 L183.8,290.9 L184.9,291.7
		L186.1,292.5 L187.2,293.2 L188.3,294.0 L189.5,294.8 L190.6,295.6 L191.7,296.3 L192.9,297.1 L194.0,297.9
		L195.2,298.7 L196.3,299.5 L197.4,300.3 L198.6,301.1 L199.7,301.9 L200.8,302.7 L202.0,303.5 L203.1,304.3
		L204.2,305.2 L205.4,306.0 L206.5,306.8 L207.6,307.6 L208.8,308.5 L209.9,309.3 L211.0,310.1 L212.2,311.0
		L213.3,311.8 L214.4,312.6 L215.6,313.5 L216.7,314.3 L217.8,315.2 L219.0,316.0 L220.1,316.9 L221.2,317.7
		L222.4,318.6 L223.5,319.4 L224.6,320.3 L225.8,321.1 L226.9,322.0 L228.0,322.9 L229.2,323.7 L230.3,324.6
		L231.4,325.5 L232.6,326.3 L233.7,327.2 L234.8,328.1 L236.0,328.9 L237.1,329.8 L238.2,330.7 L239.4,331.6
		L240.5,332.5 L241.6,333.3 L242.8,334.2 L243.9,335.1 L245.0,336.0 L246.2,336.9 L247.3,337.7 L248.4,338.6
		L249.6,339.5 L250.7,340.4 L251.8,341.3 L253.0,342.2 L254.1,343.1 L255.2,343.9 L256.4,344.8 L257.5,345.7
		L258.6,346.6 L259.8,347.5 L260.9,348.4 L262.0,349.3 L263.2,350.2 L264.3,351.1 L265.4,351.9 L266.6,352.8
		L267.7,353.7 L268.8,354.6 L270.0,355.5 L271.1,356.4 L272.2,357.3 L273.4,358.2 L274.5,359.1 L275.6,360.0
		L276.8,360.9 L277.9,361.8 L279.0,362.6 L280.2,363.5 L281.3,364.4 L282.4,365.3 L283.6,366.2 L284.7,367.1
		L285.8,368.0 L287.0,368.9 L288.1,369.8 L289.2,370.7 L290.4,371.5 L291.5,372.4 L292.6,373.3 L293.8,374.2
		L294.9,375.1 L296.0,376.0 L297.2,376.9 L298.3,377.8 L299.4,378.6 L300.6,379.5 L301.7,380.4 L302.8,381.3
		L304.0,382.2 L305.1,383.1 L306.2,383.9 L307.4,384.8 L308.5,385.7 L309.6,386.6 L310.8,387.5 L311.9,388.3
		L313.0,389.2 L314.2,390.1 L315.3,391.0 L316.4,391.8 L317.6,392.7 L318.7,393.6 L319.8,394.5 L321.0,395.3
		L322.1,396.2 L323.2,397.1 L324.4,397.9 L325.5,398.8 L326.6,399.7 L327.8,400.5 L328.9,401.4 L330.0,402.3
		L331.2,403.1 L332.3,404.0 L333.4,404.9 L334.6,405.7 L335.7,406.6 L336.8,407.4 L338.0,408.3 L339.1,409.2
		L340.2,410.0 L341.4,410.9 L342.5,411.7 L343.6,412.6 L344.8,413.4 L345.9,414.3 L347.0,415.1 L348.2,416.0
		L349.3,416.8 L350.4,417.7 L351.6,418.5 L352.7,419.4 L353.8,420.2 L355.0,421.1 L356.1,421.9 L357.2,422.7
		L358.4,423.6 L359.5,424.4 L360.6,425.3 L361.8,426.1 L362.9,426.9 L364.0,427.8 L365.2,428.6 L366.3,429.4
		L367.4,430.3 L368.6,431.1 L369.7,431.9 L370.8,432.8 L372.0,433.6 L373.1,434.4 L374.2,435.2 L375.4,436.1
		L376.5,436.9 L377.6,437.7 L378.8,438.5 L379.9,439.3 L381.0,440.2 L382.2,441.0 L383.3,441.8 L384.4,442.6
		L385.6,443.4 L386.7,444.2 L387.9,445.0 L389.0,445.8 L390.1,446.7 L391.3,447.5 L392.4,448.3 L393.5,449.1
		L394.7,449.9 L395.8,450.7 L396.9,451.5 L398.1,452.3 L399.2,453.1 L400.3,453.9 L401.5,454.7 L402.6,455.5
		L403.7,456.3 L404.9,457.1 L406.0,457.8 L407.1,458.6 L408.3,459.4 L409.4,460.2 L410.5,461.0 L411.7,461.8
		L412.8,462.6 L413.9,463.4 L415.1,464.1 L416.2,464.9 L417.3,465.7 L418.5,466.5 L419.6,467.3 L420.7,468.0
		L421.9,468.8 L423.0,469.6 L424.1,470.4 L425.3,471.1 L426.4,471.9 L427.5,472.7 L428.7,473.4 L429.8,474.2
		L430.9,475.0 L432.1,475.7 L433.2,476.5 L434.3,477.3 L435.5,478.0 L436.6,478.8 L437.7,479.5 L438.9,480.3
		L440.0,481.0 L441.1,481.8 L442.3,482.6 L443.4,483.3 L444.5,484.1 L445.7,484.8 L446.8,485.6 L447.9,486.3
		L449.1,487.0 L450.2,487.8 L451.3,488.5 L452.5,489.3 L453.6,490.0 L454.7,490.8 L455.9,491.5 L457.0,492.2
		L458.1,493.0 L459.3,493.7 L460.4,494.4 L461.5,495.2 L462.7,495.9 L463.8,496.6 L464.9,497.4 L466.1,498.1
		L467.2,498.8 L468.3,499.5 L469.5,500.3 L470.6,501.0 L471.7,501.7 L472.9,502.4 L474.0,503.1 L475.1,503.9
		L476.3,504.6 L477.4,505.3 L478.5,506.0 L479.7,506.7 L480.8,507.4 L481.9,508.1 L483.1,508.8 L484.2,509.6
		L485.3,510.3 L486.5,511.0 L487.6,511.7 L488.7,512.4 L489.9,513.1 L491.0,513.8 L492.1,514.5 L493.3,515.2
		L494.4,515.9 L495.5,516.6 L496.7,517.2 L497.8,517.9 L498.9,518.6 L500.1,519.3 L501.2,520.0 L502.3,520.7
		L503.5,521.4 L504.6,522.1 L505.7,522.8 L506.9,523.4 L508.0,524.1 L509.1,524.8 L510.3,525.5 L511.4,526.1
		L512.5,526.8 L513.7,527.5 L514.8,528.2 L515.9,528.8 L517.1,529.5 L518.2,530.2 L519.3,530.9 L520.5,531.5
		L521.6,532.2 L522.7,532.8 L523.9,533.5 L525.0,534.2 L526.1,534.8 L527.3,535.5 L528.4,536.1 L529.5,536.8
		L530.7,537.5 L531.8,538.1 L532.9,538.8 L534.1,539.4 L535.2,540.1 L536.3,540.7 L537.5,541.4 L538.6,542.0
		L539.7,542.6 L540.9,543.3 L542.0,543.9 L543.1,544.6 L544.3,545.2 L545.4,545.8 L546.5,546.5 L547.7,547.1
		L548.8,547.8 L549.9,548.4 L551.1,549.0 L552.2,549.6 L553.3,550.3 L554.5,550.9 L555.6,551.5 L556.7,552.1
		L557.9,552.8 L559.0,553.4 L560.1,554.0 L561.3,554.6 L562.4,555.2 L563.5,555.9 L564.7,556.5 L565.8,557.1
		L566.9,557.7 L568.1,558.3 L569.2,558.9 L570.3,559.5 L571.5,560.1 L572.6,560.7 L573.7,561.3 L574.9,561.9
		L576.0,562.5 L577.1,563.1 L578.3,563.7 L579.4,564.3 L580.6,564.9 L581.7,565.5 L582.8,566.1 L584.0,566.7
		L585.1,567.3 L586.2,567.9 L587.4,568.5 L588.5,569.0 L589.6,569.6 L590.8,570.2 L591.9,570.8 L593.0,571.4
		L594.2,571.9 L595.3,572.5 L596.4,573.1 L597.6,573.7 L598.7,574.2 L599.8,574.8 L601.0,575.4 L602.1,575.9
		L603.2,576.5 L604.4,577.0 L605.5,577.6 L606.6,578.2 L607.8,578.7 L608.9,579.3 L610.0,579.8 L611.2,580.4
		L612.3,580.9 L613.4,581.5 L614.6,582.0 L615.7,582.6 L616.8,583.1 L618.0,583.7 L619.1,584.2 L620.2,584.8
		L621.4,585.3 L622.5,585.8 L623.6,586.4 L624.8,586.9 L625.9,587.4 L627.0,588.0 L628.2,588.5 L629.3,589.0
		L630.4,589.5 L631.6,590.1 L632.7,590.6 L633.8,591.1 L635.0,591.6 L636.1,592.1 L637.2,592.7 L638.4,593.2
		L639.5,593.7 L640.6,594.2 L641.8,594.7 L642.9,595.2 L644.0,595.7 L645.2,596.2 L646.3,596.7 L647.4,597.2
		L648.6,597.7 L649.7,598.2 L650.8,598.7 L652.0,599.2 L653.1,599.7 L654.2,600.2 L655.4,600.7 L656.5,601.1
		L657.6,601.6 L658.8,602.1 L659.9,602.6 L661.0,603.1 L662.2,603.5 L663.3,604.0 L664.4,604.5 L665.6,605.0
		L666.7,605.4 L667.8,605.9 L669.0,606.4 L670.1,606.8 L671.2,607.3 L672.4,607.7 L673.5,608.2 L674.6,608.6
		L675.8,609.1 L676.9,609.6 L678.0,610.0 L679.2,610.4 L680.3,610.9 L681.4,611.3 L682.6,611.8 L683.7,612.2
		L684.8,612.7 L686.0,613.1 L687.1,613.5 L688.2,614.0 L689.4,614.4 L690.5,614.8 L691.6,615.2 L692.8,615.7
		L693.9,616.1 L695.0,616.5 L696.2,616.9 L697.3,617.3 L698.4,617.7 L699.6,618.2 L700.7,618.6 L701.8,619.0
		L703.0,619.4 L704.1,619.8 L705.2,620.2 L706.4,620.6 L707.5,621.0 L708.6,621.4 L709.8,621.8 L710.9,622.1
		L712.0,622.5 L713.2,622.9 L714.3,623.3 L715.4,623.7 L716.6,624.1 L717.7,624.4 L718.8,624.8 L720.0,625.2
		L721.1,625.5 L722.2,625.9 L723.4,626.3 L724.5,626.6 L725.6,627.0 L726.8,627.4 L727.9,627.7 L729.0,628.1
		L730.2,628.4 L731.3,628.8 L732.4,629.1 L733.6,629.5 L734.7,629.8 L735.8,630.1 L737.0,630.5 L738.1,630.8
		L739.2,631.2 L740.4,631.5 L741.5,631.8 L742.6,632.1 L743.8,632.5 L744.9,632.8 L746.0,633.1 L747.2,633.4
		L748.3,633.7 L749.4,634.0 L750.6,634.4 L751.7,634.7 L752.8,635.0 L754.0,635.3 L755.1,635.6 L756.2,635.9
		L757.4,636.2 L758.5,636.5 L759.6,636.7 L760.8,637.0 L761.9,637.3 L763.0,637.6 L764.2,637.9 L765.3,638.2
		L766.4,638.4 L767.6,638.7 L768.7,639.0 L769.8,639.3 L771.0,639.5 L772.1,639.8 L773.3,640.0 L774.4,640.3
		L775.5,640.6 L776.7,640.8 L777.8,641.1 L778.9,641.3 L780.1,641.6 L781.2,641.8 L782.3,642.0 L783.5,642.3
		L784.6,642.5 L785.7,642.7 L786.9,643.0 L788.0,643.2 L789.1,643.4 L790.3,643.7 L791.4,643.9 L792.5,644.1
		L793.7,644.3 L794.8,644.5 L795.9,644.7 L797.1,644.9 L798.2,645.1 L799.3,645.3 L800.5,645.5 L801.6,645.7
		L802.7,645.9 L803.9,646.1 L805.0,646.3 L806.1,646.5 L807.3,646.7 L808.4,646.9 L809.5,647.1 L810.7,647.2
		L811.8,647.4 L812.9,647.6 L814.1,647.8 L815.2,647.9 L816.3,648.1 L817.5,648.2 L818.6,648.4 L819.7,648.6
		L820.9,648.7 L822.0,648.9 L823.1,649.0 L824.3,649.2 L825.4,649.3 L826.5,649.4 L827.7,649.6 L828.8,649.7
		L829.9,649.9 L831.1,650.0 L832.2,650.1 L833.3,650.2 L834.5,650.4 L835.6,650.5 L836.7,650.6 L837.9,650.7
		L839.0,650.8 L840.1,650.9 L841.3,651.1 L842.4,651.2 L843.5,651.3 L844.7,651.4 L845.8,651.5 L846.9,651.6
		L848.1,651.7 L849.2,651.7 L850.3,651.8 L851.5,651.9 L852.6,652.0 L853.7,652.1 L854.9,652.2 L856.0,652.2
		L857.1,652.3 L858.3,652.4 L859.4,652.4 L860.5,652.5 L861.7,652.6 L862.8,652.6 L863.9,652.7 L865.1,652.7
		L866.2,652.8 L867.3,652.9 L868.5,652.9 L869.6,652.9 L870.7,653.0 L871.9,653.0 L873.0,653.1 L874.1,653.1
		L875.3,653.1 L876.4,653.2 L877.5,653.2 L878.7,653.2 L879.8,653.3 L880.9,653.3 L882.1,653.3 L883.2,653.3
		L884.3,653.3 L885.5,653.3 L886.6,653.4 L887.7,653.4 L888.9,653.4 L890.0,653.4 L891.1,653.4 L892.3,653.4
		L893.4,653.4 L894.5,653.4 L895.7,653.4 L896.8,653.3 L897.9,653.3 L899.1,653.3 L900.2,653.3 L901.3,653.3
		L902.5,653.3 L903.6,653.2 L904.7,653.2 L905.9,653.2 L907.0,653.2 L908.1,653.1 L909.3,653.1 L910.4,653.1
		L911.5,653.0 L912.7,653.0 L913.8,652.9 L914.9,652.9 L916.1,652.9 L917.2,652.8 L918.3,652.8 L919.5,652.7
		L920.6,652.6 L921.7,652.6 L922.9,652.5 L924.0,652.5 L925.1,652.4 L926.3,652.3 L927.4,652.3 L928.5,652.2
		L929.7,652.1 L930.8,652.1 L931.9,652.0 L933.1,651.9 L934.2,651.8 L935.3,651.8 L936.5,651.7 L937.6,651.6
		L938.7,651.5 L939.9,651.4 L941.0,651.3 L942.1,651.3 L943.3,651.2 L944.4,651.1 L945.5,651.0 L946.7,650.9
		L947.8,650.8 L948.9,650.7 L950.1,650.6 L951.2,650.5 L952.3,650.4 L953.5,650.3 L954.6,650.2 L955.7,650.0
		L956.9,649.9 L958.0,649.8 L959.1,649.7 L960.3,649.6 L961.4,649.5 L962.5,649.4 L963.7,649.2 L964.8,649.1
		L966.0,649.0 L967.1,648.9 L968.2,648.7 L969.4,648.6 L970.5,648.5 L971.6,648.4 L972.8,648.2 L973.9,648.1
		L975.0,648.0 L976.2,647.8 L977.3,647.7 L978.4,647.5 L979.6,647.4 L980.7,647.3 L981.8,647.1 L983.0,647.0
		L984.1,646.8 L985.2,646.7 L986.4,646.5 L987.5,646.4 L988.6,646.2 L989.8,646.1 L990.9,645.9 L992.0,645.8
		L993.2,645.6 L994.3,645.5 L995.4,645.3 L996.6,645.2 L997.7,645.0 L998.8,644.9 L1000.0,644.7 L1001.1,644.5
		L1002.2,644.4 L1003.4,644.2 L1004.5,644.0 L1005.6,643.9 L1006.8,643.7 L1007.9,643.6 L1009.0,643.4 L1010.2,643.2
		L1011.3,643.1 L1012.4,642.9 L1013.6,642.7 L1014.7,642.5 L1015.8,642.4 L1017.0,642.2 L1018.1,642.0 L1019.2,641.9
		L1020.4,641.7 L1021.5,641.5 L1022.6,641.3 L1023.8,641.2 L1024.9,641.0 L1026.0,640.8 L1027.2,640.6 L1028.3,640.4
		L1029.4,640.3 L1030.6,640.1 L1031.7,639.9 L1032.8,639.7 L1034.0,639.5 L1035.1,639.4 L1036.2,639.2 L1037.4,639.0
		L1038.5,638.8 L1039.6,638.6 L1040.8,638.4 L1041.9,638.3 L1043.0,638.1 L1044.2,637.9 L1045.3,637.7 L1046.4,637.5
		L1047.6,637.3 L1048.7,637.2 L1049.8,637.0 L1051.0,636.8 L1052.1,636.6 L1053.2,636.4 L1054.4,636.2 L1055.5,636.0
		L1056.6,635.9 L1057.8,635.7 L1058.9,635.5 L1060.0,635.3 L1061.2,635.1 L1062.3,634.9 L1063.4,634.7 L1064.6,634.5
		L1065.7,634.4 L1066.8,634.2 L1068.0,634.0 L1069.1,633.8 L1070.2,633.6 L1071.4,633.4 L1072.5,633.2 L1073.6,633.1
		L1074.8,632.9 L1075.9,632.7 L1077.0,632.5 L1078.2,632.3 L1079.3,632.1 L1080.4,631.9 L1081.6,631.8 L1082.7,631.6
		L1083.8,631.4 L1085.0,631.2 L1086.1,631.0 L1087.2,630.8 L1088.4,630.6 L1089.5,630.5 L1090.6,630.3 L1091.8,630.1
		L1092.9,629.9 L1094.0,629.7 L1095.2,629.6 L1096.3,629.4 L1097.4,629.2 L1098.6,629.0 L1099.7,628.8 L1100.8,628.7
		L1102.0,628.5 L1103.1,628.3 L1104.2,628.1 L1105.4,627.9 L1106.5,627.8 L1107.6,627.6 L1108.8,627.4 L1109.9,627.2
		L1111.0,627.1 L1112.2,626.9 L1113.3,626.7 L1114.4,626.6 L1115.6,626.4 L1116.7,626.2 L1117.8,626.0 L1119.0,625.9
		L1120.1,625.7 L1121.2,625.5 L1122.4,625.4 L1123.5,625.2 L1124.6,625.0 L1125.8,624.9 L1126.9,624.7 L1128.0,624.6
		L1129.2,624.4 L1130.3,624.2 L1131.4,624.1 L1132.6,623.9 L1133.7,623.8 L1134.8,623.6 L1136.0,623.5 L1137.1,623.3
		L1138.2,623.1 L1139.4,623.0 L1140.5,622.8 L1141.6,622.7 L1142.8,622.5 L1143.9,622.4 L1145.0,622.2 L1146.2,622.1
		L1147.3,622.0 L1148.4,621.8 L1149.6,621.7 L1150.7,621.5 L1151.8,621.4 L1153.0,621.2 L1154.1,621.1 L1155.2,621.0
		L1156.4,620.8 L1157.5,620.7 L1158.7,620.6 L1159.8,620.4 L1160.9,620.3 L1162.1,620.2 L1163.2,620.0 L1164.3,619.9
		L1165.5,619.8 L1166.6,619.7 L1167.7,619.5 L1168.9,619.4 L1170.0,619.3 L1171.1,619.2 L1172.3,619.1 L1173.4,618.9
		L1174.5,618.8 L1175.7,618.7 L1176.8,618.6 L1177.9,618.5 L1179.1,618.4 L1180.2,618.3 L1181.3,618.2 L1182.5,618.1
		L1183.6,617.9 L1184.7,617.8 L1185.9,617.7 L1187.0,617.6 L1188.1,617.5 L1189.3,617.5 L1190.4,617.4 L1191.5,617.3
		L1192.7,617.2 L1193.8,617.1 L1194.9,617.0 L1196.1,616.9 L1197.2,616.8 L1198.3,616.7 L1199.5,616.6 L1200.6,616.6
		L1201.7,616.5 L1202.9,616.4 L1204.0,616.3 L1205.1,616.3 L1206.3,616.2 L1207.4,616.1 L1208.5,616.0 L1209.7,616.0
		L1210.8,615.9 L1211.9,615.8 L1213.1,615.8 L1214.2,615.7 L1215.3,615.6 L1216.5,615.6 L1217.6,615.5 L1218.7,615.5
		L1219.9,615.4 L1221.0,615.4 L1222.1,615.3 L1223.3,615.3 L1224.4,615.2 L1225.5,615.2 L1226.7,615.1 L1227.8,615.1
		L1228.9,615.0 L1230.1,615.0 L1231.2,615.0 L1232.3,614.9 L1233.5,614.9 L1234.6,614.9 L1235.7,614.8 L1236.9,614.8
		L1238.0,614.8 L1239.1,614.8 L1240.3,614.7 L1241.4,614.7 L1242.5,614.7 L1243.7,614.7 L1244.8,614.7 L1245.9,614.6
		L1247.1,614.6 L1248.2,614.6 L1249.3,614.6 L1250.5,614.6 L1251.6,614.6 L1252.7,614.6 L1253.9,614.6 L1255.0,614.6
		 '/></g>
	</g>
<g fill="none" color="white" stroke="rgb(  0,   0, 255)" stroke-width="2.00" stroke-linecap="butt" stroke-linejoin="miter">
</g>
<g fill="none" color="black" stroke="currentColor" stroke-width="2.00" stroke-linecap="butt" stroke-linejoin="miter">
</g>
<g fill="none" color="black" stroke="black" stroke-width="1.00" stroke-linecap="butt" stroke-linejoin="miter">
</g>
<g fill="none" color="black" stroke="currentColor" stroke-width="1.00" stroke-linecap="butt" stroke-linejoin="miter">
	<path stroke='black'  d='M95.4,54.1 L95.4,684.0 L1255.0,684.0 L1255.0,54.1 L95.4,54.1 Z  '/></g>
<g fill="none" color="black" stroke="currentColor" stroke-width="1.00" stroke-linecap="butt" stroke-linejoin="miter">
</g>
</g>
</svg>

