<?xml version="1.0" encoding="utf-8"  standalone="no"?>
<svg 
 width="1280" height="720"
 viewBox="0 0 1280 720"
 xmlns="http://www.w3.org/2000/svg"
 xmlns:xlink="http://www.w3.org/1999/xlink"
>

<title>Gnuplot</title>
<desc>Produced by GNUPLOT 5.0 patchlevel 6 </desc>

<g id="gnuplot_canvas">

<rect x="0" y="0" width="1280" height="720" fill="none"/>
<defs>

	<circle id='gpDot' r='0.5' stroke-width='0.5'/>
	<path id='gpPt0' stroke-width='0.222' stroke='currentColor' d='M-1,0 h2 M0,-1 v2'/>
	<path id='gpPt1' stroke-width='0.222' stroke='currentColor' d='M-1,-1 L1,1 M1,-1 L-1,1'/>
	<path id='gpPt2' stroke-width='0.222' stroke='currentColor' d='M-1,0 L1,0 M0,-1 L0,1 M-1,-1 L1,1 M-1,1 L1,-1'/>
	<rect id='gpPt3' stroke-width='0.222' stroke='currentColor' x='-1' y='-1' width='2' height='2'/>
	<rect id='gpPt4' stroke-width='0.222' stroke='currentColor' fill='currentColor' x='-1' y='-1' width='2' height='2'/>
	<circle id='gpPt5' stroke-width='0.222' stroke='currentColor' cx='0' cy='0' r='1'/>
	<use xlink:href='#gpPt5' id='gpPt6' fill='currentColor' stroke='none'/>
	<path id='gpPt7' stroke-width='0.222' stroke='currentColor' d='M0,-1.33 L-1.33,0.67 L1.33,0.67 z'/>
	<use xlink:href='#gpPt7' id='gpPt8' fill='currentColor' stroke='none'/>
	<use xlink:href='#gpPt7' id='gpPt9' stroke='currentColor' transform='rotate(180)'/>
	<use xlink:href='#gpPt9' id='gpPt10' fill='currentColor' stroke='none'/>
	<use xlink:href='#gpPt3' id='gpPt11' stroke='currentColor' transform='rotate(45)'/>
	<use xlink:href='#gpPt11' id='gpPt12' fill='currentColor' stroke='none'/>
	<path id='gpPt13' stroke-width='0.222' stroke='currentColor' d='M0,1.330 L1.265,0.411 L0.782,-1.067 L-0.782,-1.076 L-1.265,0.411 z'/>
	<use xlink:href='#gpPt13' id='gpPt14' fill='currentColor' stroke='none'/>
	<filter id='textbox' filterUnits='objectBoundingBox' x='0' y='0' height='1' width='1'>
	  <feFlood flood-color='white' flood-opacity='1' result='bgnd'/>
	  <feComposite in='SourceGraphic' in2='bgnd' operator='atop'/>
	</filter>
	<filter id='greybox' filterUnits='objectBoundingBox' x='0' y='0' height='1' width='1'>
	  <feFlood flood-color='lightgrey' flood-opacity='1' result='grey'/>
	  <feComposite in='SourceGraphic' in2='grey' operator='atop'/>
	</filter>
</defs>
<g fill="none" color="white" stroke="currentColor" stroke-width="1.00" stroke-linecap="butt" stroke-linejoin="miter">
</g>
<g fill="none" color="black" stroke="currentColor" stroke-width="1.00" stroke-linecap="butt" stroke-linejoin="miter">
	<path stroke='black'  d='M53.9,370.0 L62.9,370.0 M1255.0,370.0 L1246.0,370.0  '/>	<g transform="translate(45.6,373.9)" stroke="none" fill="black" font-family="Arial" font-size="12.00"  text-anchor="end">
		<text><tspan font-family="Arial" > 0.5</tspan></text>
	</g>
</g>
<g fill="none" color="black" stroke="currentColor" stroke-width="1.00" stroke-linecap="butt" stroke-linejoin="miter">
	<path stroke='black'  d='M53.9,55.0 L62.9,55.0 M1255.0,55.0 L1246.0,55.0  '/>	<g transform="translate(45.6,58.9)" stroke="none" fill="black" font-family="Arial" font-size="12.00"  text-anchor="end">
		<text><tspan font-family="Arial" > 1</tspan></text>
	</g>
</g>
<g fill="none" color="black" stroke="currentColor" stroke-width="1.00" stroke-linecap="butt" stroke-linejoin="miter">
	<path stroke='black'  d='M53.9,684.0 L53.9,675.0 M53.9,54.1 L53.9,63.1  '/>	<g transform="translate(53.9,705.9)" stroke="none" fill="black" font-family="Arial" font-size="12.00"  text-anchor="middle">
		<text><tspan font-family="Arial" > 0</tspan></text>
	</g>
</g>
<g fill="none" color="black" stroke="currentColor" stroke-width="1.00" stroke-linecap="butt" stroke-linejoin="miter">
	<path stroke='black'  d='M654.5,684.0 L654.5,675.0 M654.5,54.1 L654.5,63.1  '/>	<g transform="translate(654.5,705.9)" stroke="none" fill="black" font-family="Arial" font-size="12.00"  text-anchor="middle">
		<text><tspan font-family="Arial" >pi/2</tspan></text>
	</g>
</g>
<g fill="none" color="black" stroke="currentColor" stroke-width="1.00" stroke-linecap="butt" stroke-linejoin="miter">
	<path stroke='black'  d='M1255.0,684.0 L1255.0,675.0 M1255.0,54.1 L1255.0,63.1  '/>	<g transform="translate(1255.0,705.9)" stroke="none" fill="black" font-family="Arial" font-size="12.00"  text-anchor="middle">
		<text><tspan font-family="Arial" >pi</tspan></text>
	</g>
</g>
<g fill="none" color="black" stroke="currentColor" stroke-width="1.00" stroke-linecap="butt" stroke-linejoin="miter">
</g>
<g fill="none" color="black" stroke="currentColor" stroke-width="1.00" stroke-linecap="butt" stroke-linejoin="miter">
	<path stroke='black'  d='M53.9,54.1 L53.9,684.0 L1255.0,684.0 L1255.0,54.1 L53.9,54.1 Z  '/></g>
<g fill="none" color="black" stroke="currentColor" stroke-width="1.00" stroke-linecap="butt" stroke-linejoin="miter">
	<g transform="translate(654.4,31.0)" stroke="none" fill="black" font-family="Arial" font-size="12.00"  text-anchor="middle">
		<text><tspan font-family="Arial" >Material 4, with 2 components</tspan></text>
	</g>
</g>
	<g id="gnuplot_plot_1" ><title>scattering function</title>
<g fill="none" color="black" stroke="currentColor" stroke-width="1.00" stroke-linecap="butt" stroke-linejoin="miter">
	<g transform="translate(1187.9,76.0)" stroke="none" fill="black" font-family="Arial" font-size="12.00"  text-anchor="end">
		<text><tspan font-family="Arial" >scattering function</tspan></text>
	</g>
</g>
<g fill="none" color="black" stroke="currentColor" stroke-width="1.00" stroke-linecap="butt" stroke-linejoin="miter">
	<use xlink:href='#gpPt5' transform='translate(55.1,55.0) scale(2.25)' color='rgb(255,   0,   0)'/>
	<use xlink:href='#gpPt5' transform='translate(92.1,70.0) scale(2.25)' color='rgb(255,   0,   0)'/>
	<use xlink:href='#gpPt5' transform='translate(118.0,107.6) scale(2.25)' color='rgb(255,   0,   0)'/>
	<use xlink:href='#gpPt5' transform='translate(140.2,142.9) scale(2.25)' color='rgb(255,   0,   0)'/>
	<use xlink:href='#gpPt5' transform='translate(176.0,223.4) scale(2.25)' color='rgb(255,   0,   0)'/>
	<use xlink:href='#gpPt5' transform='translate(214.2,309.7) scale(2.25)' color='rgb(255,   0,   0)'/>
	<use xlink:href='#gpPt5' transform='translate(251.2,384.8) scale(2.25)' color='rgb(255,   0,   0)'/>
	<use xlink:href='#gpPt5' transform='translate(282.0,436.8) scale(2.25)' color='rgb(255,   0,   0)'/>
	<use xlink:href='#gpPt5' transform='translate(326.4,502.7) scale(2.25)' color='rgb(255,   0,   0)'/>
	<use xlink:href='#gpPt5' transform='translate(364.7,549.4) scale(2.25)' color='rgb(255,   0,   0)'/>
	<use xlink:href='#gpPt5' transform='translate(395.5,580.5) scale(2.25)' color='rgb(255,   0,   0)'/>
	<use xlink:href='#gpPt5' transform='translate(459.6,621.2) scale(2.25)' color='rgb(255,   0,   0)'/>
	<use xlink:href='#gpPt5' transform='translate(513.9,646.4) scale(2.25)' color='rgb(255,   0,   0)'/>
	<use xlink:href='#gpPt5' transform='translate(579.2,666.8) scale(2.25)' color='rgb(255,   0,   0)'/>
	<use xlink:href='#gpPt5' transform='translate(670.5,680.2) scale(2.25)' color='rgb(255,   0,   0)'/>
	<use xlink:href='#gpPt5' transform='translate(732.1,684.0) scale(2.25)' color='rgb(255,   0,   0)'/>
	<use xlink:href='#gpPt5' transform='translate(795.0,682.4) scale(2.25)' color='rgb(255,   0,   0)'/>
	<use xlink:href='#gpPt5' transform='translate(865.3,679.2) scale(2.25)' color='rgb(255,   0,   0)'/>
	<use xlink:href='#gpPt5' transform='translate(947.9,673.3) scale(2.25)' color='rgb(255,   0,   0)'/>
	<use xlink:href='#gpPt5' transform='translate(1020.7,666.3) scale(2.25)' color='rgb(255,   0,   0)'/>
	<use xlink:href='#gpPt5' transform='translate(1093.5,657.7) scale(2.25)' color='rgb(255,   0,   0)'/>
	<use xlink:href='#gpPt5' transform='translate(1165.0,652.9) scale(2.25)' color='rgb(255,   0,   0)'/>
	<use xlink:href='#gpPt5' transform='translate(1226.6,651.1) scale(2.25)' color='rgb(255,   0,   0)'/>
	<use xlink:href='#gpPt5' transform='translate(1255.0,651.3) scale(2.25)' color='rgb(255,   0,   0)'/>
	<use xlink:href='#gpPt5' transform='translate(1217.3,72.1) scale(2.25)' color='rgb(255,   0,   0)'/>
</g>
	</g>
	<g id="gnuplot_plot_2" ><title>fit</title>
<g fill="none" color="black" stroke="currentColor" stroke-width="1.00" stroke-linecap="butt" stroke-linejoin="miter">
	<g transform="translate(1187.9,94.0)" stroke="none" fill="black" font-family="Arial" font-size="12.00"  text-anchor="end">
		<text><tspan font-family="Arial" >fit</tspan></text>
	</g>
</g>
<g fill="none" color="black" stroke="currentColor" stroke-width="1.00" stroke-linecap="butt" stroke-linejoin="miter">
	<path stroke='rgb(255,   0,   0)'  d='M1196.2,90.1 L1238.4,90.1 M53.9,54.1 L55.1,54.1 L56.2,54.2 L57.4,54.3 L58.6,54.4 L59.8,54.6
		L60.9,54.8 L62.1,55.1 L63.3,55.4 L64.5,55.7 L65.6,56.1 L66.8,56.5 L68.0,57.0 L69.2,57.5
		L70.3,58.0 L71.5,58.6 L72.7,59.2 L73.9,59.9 L75.0,60.6 L76.2,61.3 L77.4,62.1 L78.6,62.9
		L79.7,63.8 L80.9,64.6 L82.1,65.6 L83.3,66.5 L84.4,67.5 L85.6,68.6 L86.8,69.6 L87.9,70.7
		L89.1,71.9 L90.3,73.0 L91.5,74.3 L92.6,75.5 L93.8,76.8 L95.0,78.1 L96.2,79.4 L97.3,80.8
		L98.5,82.2 L99.7,83.7 L100.9,85.2 L102.0,86.7 L103.2,88.2 L104.4,89.8 L105.6,91.4 L106.7,93.0
		L107.9,94.7 L109.1,96.4 L110.3,98.1 L111.4,99.8 L112.6,101.6 L113.8,103.4 L115.0,105.3 L116.1,107.1
		L117.3,109.0 L118.5,110.9 L119.6,112.8 L120.8,114.8 L122.0,116.8 L123.2,118.8 L124.3,120.8 L125.5,122.9
		L126.7,124.9 L127.9,127.0 L129.0,129.2 L130.2,131.3 L131.4,133.5 L132.6,135.6 L133.7,137.8 L134.9,140.1
		L136.1,142.3 L137.3,144.5 L138.4,146.8 L139.6,149.1 L140.8,151.4 L142.0,153.7 L143.1,156.1 L144.3,158.4
		L145.5,160.8 L146.7,163.2 L147.8,165.6 L149.0,168.0 L150.2,170.4 L151.3,172.8 L152.5,175.3 L153.7,177.7
		L154.9,180.2 L156.0,182.7 L157.2,185.2 L158.4,187.6 L159.6,190.2 L160.7,192.7 L161.9,195.2 L163.1,197.7
		L164.3,200.3 L165.4,202.8 L166.6,205.4 L167.8,207.9 L169.0,210.5 L170.1,213.0 L171.3,215.6 L172.5,218.2
		L173.7,220.8 L174.8,223.4 L176.0,226.0 L177.2,228.6 L178.4,231.1 L179.5,233.7 L180.7,236.3 L181.9,239.0
		L183.1,241.6 L184.2,244.2 L185.4,246.8 L186.6,249.4 L187.7,252.0 L188.9,254.6 L190.1,257.2 L191.3,259.8
		L192.4,262.4 L193.6,265.0 L194.8,267.6 L196.0,270.2 L197.1,272.8 L198.3,275.4 L199.5,277.9 L200.7,280.5
		L201.8,283.1 L203.0,285.7 L204.2,288.3 L205.4,290.8 L206.5,293.4 L207.7,295.9 L208.9,298.5 L210.1,301.0
		L211.2,303.6 L212.4,306.1 L213.6,308.6 L214.8,311.2 L215.9,313.7 L217.1,316.2 L218.3,318.7 L219.4,321.2
		L220.6,323.7 L221.8,326.2 L223.0,328.6 L224.1,331.1 L225.3,333.6 L226.5,336.0 L227.7,338.5 L228.8,340.9
		L230.0,343.3 L231.2,345.7 L232.4,348.1 L233.5,350.5 L234.7,352.9 L235.9,355.3 L237.1,357.7 L238.2,360.0
		L239.4,362.4 L240.6,364.7 L241.8,367.1 L242.9,369.4 L244.1,371.7 L245.3,374.0 L246.5,376.3 L247.6,378.6
		L248.8,380.9 L250.0,383.1 L251.1,385.4 L252.3,387.6 L253.5,389.8 L254.7,392.1 L255.8,394.3 L257.0,396.5
		L258.2,398.6 L259.4,400.8 L260.5,403.0 L261.7,405.1 L262.9,407.3 L264.1,409.4 L265.2,411.5 L266.4,413.6
		L267.6,415.7 L268.8,417.8 L269.9,419.9 L271.1,422.0 L272.3,424.0 L273.5,426.1 L274.6,428.1 L275.8,430.1
		L277.0,432.1 L278.2,434.1 L279.3,436.1 L280.5,438.1 L281.7,440.0 L282.8,442.0 L284.0,443.9 L285.2,445.8
		L286.4,447.7 L287.5,449.6 L288.7,451.5 L289.9,453.4 L291.1,455.3 L292.2,457.1 L293.4,459.0 L294.6,460.8
		L295.8,462.6 L296.9,464.5 L298.1,466.3 L299.3,468.0 L300.5,469.8 L301.6,471.6 L302.8,473.3 L304.0,475.1
		L305.2,476.8 L306.3,478.5 L307.5,480.2 L308.7,481.9 L309.9,483.6 L311.0,485.3 L312.2,487.0 L313.4,488.6
		L314.5,490.3 L315.7,491.9 L316.9,493.5 L318.1,495.1 L319.2,496.7 L320.4,498.3 L321.6,499.9 L322.8,501.5
		L323.9,503.0 L325.1,504.6 L326.3,506.1 L327.5,507.6 L328.6,509.1 L329.8,510.6 L331.0,512.1 L332.2,513.6
		L333.3,515.1 L334.5,516.5 L335.7,518.0 L336.9,519.4 L338.0,520.8 L339.2,522.3 L340.4,523.7 L341.6,525.1
		L342.7,526.5 L343.9,527.8 L345.1,529.2 L346.2,530.6 L347.4,531.9 L348.6,533.3 L349.8,534.6 L350.9,535.9
		L352.1,537.2 L353.3,538.5 L354.5,539.8 L355.6,541.1 L356.8,542.4 L358.0,543.6 L359.2,544.9 L360.3,546.1
		L361.5,547.4 L362.7,548.6 L363.9,549.8 L365.0,551.0 L366.2,552.2 L367.4,553.4 L368.6,554.6 L369.7,555.8
		L370.9,556.9 L372.1,558.1 L373.3,559.2 L374.4,560.4 L375.6,561.5 L376.8,562.6 L378.0,563.8 L379.1,564.9
		L380.3,566.0 L381.5,567.0 L382.6,568.1 L383.8,569.2 L385.0,570.3 L386.2,571.3 L387.3,572.4 L388.5,573.4
		L389.7,574.4 L390.9,575.5 L392.0,576.5 L393.2,577.5 L394.4,578.5 L395.6,579.5 L396.7,580.5 L397.9,581.4
		L399.1,582.4 L400.3,583.4 L401.4,584.3 L402.6,585.3 L403.8,586.2 L405.0,587.1 L406.1,588.1 L407.3,589.0
		L408.5,589.9 L409.7,590.8 L410.8,591.7 L412.0,592.6 L413.2,593.5 L414.3,594.3 L415.5,595.2 L416.7,596.1
		L417.9,596.9 L419.0,597.8 L420.2,598.6 L421.4,599.4 L422.6,600.3 L423.7,601.1 L424.9,601.9 L426.1,602.7
		L427.3,603.5 L428.4,604.3 L429.6,605.1 L430.8,605.9 L432.0,606.7 L433.1,607.4 L434.3,608.2 L435.5,609.0
		L436.7,609.7 L437.8,610.5 L439.0,611.2 L440.2,611.9 L441.4,612.7 L442.5,613.4 L443.7,614.1 L444.9,614.8
		L446.0,615.5 L447.2,616.2 L448.4,616.9 L449.6,617.6 L450.7,618.3 L451.9,619.0 L453.1,619.7 L454.3,620.3
		L455.4,621.0 L456.6,621.6 L457.8,622.3 L459.0,622.9 L460.1,623.6 L461.3,624.2 L462.5,624.8 L463.7,625.5
		L464.8,626.1 L466.0,626.7 L467.2,627.3 L468.4,627.9 L469.5,628.5 L470.7,629.1 L471.9,629.7 L473.1,630.3
		L474.2,630.9 L475.4,631.5 L476.6,632.0 L477.7,632.6 L478.9,633.2 L480.1,633.7 L481.3,634.3 L482.4,634.8
		L483.6,635.4 L484.8,635.9 L486.0,636.4 L487.1,637.0 L488.3,637.5 L489.5,638.0 L490.7,638.5 L491.8,639.0
		L493.0,639.5 L494.2,640.0 L495.4,640.5 L496.5,641.0 L497.7,641.5 L498.9,642.0 L500.1,642.5 L501.2,643.0
		L502.4,643.4 L503.6,643.9 L504.8,644.4 L505.9,644.8 L507.1,645.3 L508.3,645.8 L509.4,646.2 L510.6,646.7
		L511.8,647.1 L513.0,647.5 L514.1,648.0 L515.3,648.4 L516.5,648.8 L517.7,649.3 L518.8,649.7 L520.0,650.1
		L521.2,650.5 L522.4,650.9 L523.5,651.3 L524.7,651.7 L525.9,652.1 L527.1,652.5 L528.2,652.9 L529.4,653.3
		L530.6,653.7 L531.8,654.1 L532.9,654.5 L534.1,654.8 L535.3,655.2 L536.5,655.6 L537.6,655.9 L538.8,656.3
		L540.0,656.7 L541.1,657.0 L542.3,657.4 L543.5,657.7 L544.7,658.1 L545.8,658.4 L547.0,658.7 L548.2,659.1
		L549.4,659.4 L550.5,659.7 L551.7,660.1 L552.9,660.4 L554.1,660.7 L555.2,661.0 L556.4,661.3 L557.6,661.7
		L558.8,662.0 L559.9,662.3 L561.1,662.6 L562.3,662.9 L563.5,663.2 L564.6,663.5 L565.8,663.8 L567.0,664.1
		L568.2,664.3 L569.3,664.6 L570.5,664.9 L571.7,665.2 L572.9,665.5 L574.0,665.7 L575.2,666.0 L576.4,666.3
		L577.5,666.5 L578.7,666.8 L579.9,667.1 L581.1,667.3 L582.2,667.6 L583.4,667.8 L584.6,668.1 L585.8,668.3
		L586.9,668.6 L588.1,668.8 L589.3,669.1 L590.5,669.3 L591.6,669.5 L592.8,669.8 L594.0,670.0 L595.2,670.2
		L596.3,670.4 L597.5,670.7 L598.7,670.9 L599.9,671.1 L601.0,671.3 L602.2,671.5 L603.4,671.7 L604.6,672.0
		L605.7,672.2 L606.9,672.4 L608.1,672.6 L609.2,672.8 L610.4,673.0 L611.6,673.2 L612.8,673.4 L613.9,673.6
		L615.1,673.7 L616.3,673.9 L617.5,674.1 L618.6,674.3 L619.8,674.5 L621.0,674.7 L622.2,674.8 L623.3,675.0
		L624.5,675.2 L625.7,675.4 L626.9,675.5 L628.0,675.7 L629.2,675.9 L630.4,676.0 L631.6,676.2 L632.7,676.3
		L633.9,676.5 L635.1,676.6 L636.3,676.8 L637.4,677.0 L638.6,677.1 L639.8,677.2 L640.9,677.4 L642.1,677.5
		L643.3,677.7 L644.5,677.8 L645.6,678.0 L646.8,678.1 L648.0,678.2 L649.2,678.4 L650.3,678.5 L651.5,678.6
		L652.7,678.7 L653.9,678.9 L655.0,679.0 L656.2,679.1 L657.4,679.2 L658.6,679.4 L659.7,679.5 L660.9,679.6
		L662.1,679.7 L663.3,679.8 L664.4,679.9 L665.6,680.0 L666.8,680.1 L668.0,680.2 L669.1,680.3 L670.3,680.5
		L671.5,680.6 L672.6,680.6 L673.8,680.7 L675.0,680.8 L676.2,680.9 L677.3,681.0 L678.5,681.1 L679.7,681.2
		L680.9,681.3 L682.0,681.4 L683.2,681.5 L684.4,681.5 L685.6,681.6 L686.7,681.7 L687.9,681.8 L689.1,681.9
		L690.3,681.9 L691.4,682.0 L692.6,682.1 L693.8,682.2 L695.0,682.2 L696.1,682.3 L697.3,682.4 L698.5,682.4
		L699.7,682.5 L700.8,682.6 L702.0,682.6 L703.2,682.7 L704.3,682.7 L705.5,682.8 L706.7,682.8 L707.9,682.9
		L709.0,682.9 L710.2,683.0 L711.4,683.0 L712.6,683.1 L713.7,683.1 L714.9,683.2 L716.1,683.2 L717.3,683.3
		L718.4,683.3 L719.6,683.4 L720.8,683.4 L722.0,683.4 L723.1,683.5 L724.3,683.5 L725.5,683.5 L726.7,683.6
		L727.8,683.6 L729.0,683.6 L730.2,683.7 L731.4,683.7 L732.5,683.7 L733.7,683.7 L734.9,683.8 L736.0,683.8
		L737.2,683.8 L738.4,683.8 L739.6,683.9 L740.7,683.9 L741.9,683.9 L743.1,683.9 L744.3,683.9 L745.4,683.9
		L746.6,683.9 L747.8,684.0 L749.0,684.0 L750.1,684.0 L751.3,684.0 L752.5,684.0 L753.7,684.0 L754.8,684.0
		L756.0,684.0 L757.2,684.0 L758.4,684.0 L759.5,684.0 L760.7,684.0 L761.9,684.0 L763.1,684.0 L764.2,684.0
		L765.4,684.0 L766.6,684.0 L767.8,684.0 L768.9,684.0 L770.1,683.9 L771.3,683.9 L772.4,683.9 L773.6,683.9
		L774.8,683.9 L776.0,683.9 L777.1,683.9 L778.3,683.8 L779.5,683.8 L780.7,683.8 L781.8,683.8 L783.0,683.8
		L784.2,683.7 L785.4,683.7 L786.5,683.7 L787.7,683.7 L788.9,683.6 L790.1,683.6 L791.2,683.6 L792.4,683.6
		L793.6,683.5 L794.8,683.5 L795.9,683.5 L797.1,683.4 L798.3,683.4 L799.5,683.4 L800.6,683.3 L801.8,683.3
		L803.0,683.3 L804.1,683.2 L805.3,683.2 L806.5,683.1 L807.7,683.1 L808.8,683.1 L810.0,683.0 L811.2,683.0
		L812.4,682.9 L813.5,682.9 L814.7,682.8 L815.9,682.8 L817.1,682.7 L818.2,682.7 L819.4,682.6 L820.6,682.6
		L821.8,682.5 L822.9,682.5 L824.1,682.4 L825.3,682.4 L826.5,682.3 L827.6,682.3 L828.8,682.2 L830.0,682.2
		L831.2,682.1 L832.3,682.0 L833.5,682.0 L834.7,681.9 L835.8,681.9 L837.0,681.8 L838.2,681.7 L839.4,681.7
		L840.5,681.6 L841.7,681.6 L842.9,681.5 L844.1,681.4 L845.2,681.4 L846.4,681.3 L847.6,681.2 L848.8,681.1
		L849.9,681.1 L851.1,681.0 L852.3,680.9 L853.5,680.9 L854.6,680.8 L855.8,680.7 L857.0,680.6 L858.2,680.6
		L859.3,680.5 L860.5,680.4 L861.7,680.3 L862.9,680.3 L864.0,680.2 L865.2,680.1 L866.4,680.0 L867.5,680.0
		L868.7,679.9 L869.9,679.8 L871.1,679.7 L872.2,679.6 L873.4,679.5 L874.6,679.5 L875.8,679.4 L876.9,679.3
		L878.1,679.2 L879.3,679.1 L880.5,679.0 L881.6,678.9 L882.8,678.9 L884.0,678.8 L885.2,678.7 L886.3,678.6
		L887.5,678.5 L888.7,678.4 L889.9,678.3 L891.0,678.2 L892.2,678.1 L893.4,678.0 L894.6,677.9 L895.7,677.8
		L896.9,677.8 L898.1,677.7 L899.2,677.6 L900.4,677.5 L901.6,677.4 L902.8,677.3 L903.9,677.2 L905.1,677.1
		L906.3,677.0 L907.5,676.9 L908.6,676.8 L909.8,676.7 L911.0,676.6 L912.2,676.5 L913.3,676.4 L914.5,676.3
		L915.7,676.2 L916.9,676.1 L918.0,676.0 L919.2,675.9 L920.4,675.8 L921.6,675.7 L922.7,675.5 L923.9,675.4
		L925.1,675.3 L926.3,675.2 L927.4,675.1 L928.6,675.0 L929.8,674.9 L930.9,674.8 L932.1,674.7 L933.3,674.6
		L934.5,674.5 L935.6,674.4 L936.8,674.3 L938.0,674.1 L939.2,674.0 L940.3,673.9 L941.5,673.8 L942.7,673.7
		L943.9,673.6 L945.0,673.5 L946.2,673.4 L947.4,673.3 L948.6,673.1 L949.7,673.0 L950.9,672.9 L952.1,672.8
		L953.3,672.7 L954.4,672.6 L955.6,672.5 L956.8,672.3 L958.0,672.2 L959.1,672.1 L960.3,672.0 L961.5,671.9
		L962.7,671.8 L963.8,671.7 L965.0,671.5 L966.2,671.4 L967.3,671.3 L968.5,671.2 L969.7,671.1 L970.9,671.0
		L972.0,670.8 L973.2,670.7 L974.4,670.6 L975.6,670.5 L976.7,670.4 L977.9,670.2 L979.1,670.1 L980.3,670.0
		L981.4,669.9 L982.6,669.8 L983.8,669.7 L985.0,669.5 L986.1,669.4 L987.3,669.3 L988.5,669.2 L989.7,669.1
		L990.8,668.9 L992.0,668.8 L993.2,668.7 L994.4,668.6 L995.5,668.5 L996.7,668.3 L997.9,668.2 L999.0,668.1
		L1000.2,668.0 L1001.4,667.9 L1002.6,667.7 L1003.7,667.6 L1004.9,667.5 L1006.1,667.4 L1007.3,667.2 L1008.4,667.1
		L1009.6,667.0 L1010.8,666.9 L1012.0,666.8 L1013.1,666.6 L1014.3,666.5 L1015.5,666.4 L1016.7,666.3 L1017.8,666.2
		L1019.0,666.0 L1020.2,665.9 L1021.4,665.8 L1022.5,665.7 L1023.7,665.6 L1024.9,665.4 L1026.1,665.3 L1027.2,665.2
		L1028.4,665.1 L1029.6,665.0 L1030.7,664.8 L1031.9,664.7 L1033.1,664.6 L1034.3,664.5 L1035.4,664.4 L1036.6,664.2
		L1037.8,664.1 L1039.0,664.0 L1040.1,663.9 L1041.3,663.8 L1042.5,663.7 L1043.7,663.5 L1044.8,663.4 L1046.0,663.3
		L1047.2,663.2 L1048.4,663.1 L1049.5,663.0 L1050.7,662.8 L1051.9,662.7 L1053.1,662.6 L1054.2,662.5 L1055.4,662.4
		L1056.6,662.3 L1057.8,662.1 L1058.9,662.0 L1060.1,661.9 L1061.3,661.8 L1062.4,661.7 L1063.6,661.6 L1064.8,661.5
		L1066.0,661.3 L1067.1,661.2 L1068.3,661.1 L1069.5,661.0 L1070.7,660.9 L1071.8,660.8 L1073.0,660.7 L1074.2,660.6
		L1075.4,660.4 L1076.5,660.3 L1077.7,660.2 L1078.9,660.1 L1080.1,660.0 L1081.2,659.9 L1082.4,659.8 L1083.6,659.7
		L1084.8,659.6 L1085.9,659.5 L1087.1,659.4 L1088.3,659.3 L1089.5,659.1 L1090.6,659.0 L1091.8,658.9 L1093.0,658.8
		L1094.1,658.7 L1095.3,658.6 L1096.5,658.5 L1097.7,658.4 L1098.8,658.3 L1100.0,658.2 L1101.2,658.1 L1102.4,658.0
		L1103.5,657.9 L1104.7,657.8 L1105.9,657.7 L1107.1,657.6 L1108.2,657.5 L1109.4,657.4 L1110.6,657.3 L1111.8,657.2
		L1112.9,657.1 L1114.1,657.0 L1115.3,656.9 L1116.5,656.8 L1117.6,656.7 L1118.8,656.6 L1120.0,656.6 L1121.2,656.5
		L1122.3,656.4 L1123.5,656.3 L1124.7,656.2 L1125.8,656.1 L1127.0,656.0 L1128.2,655.9 L1129.4,655.8 L1130.5,655.7
		L1131.7,655.7 L1132.9,655.6 L1134.1,655.5 L1135.2,655.4 L1136.4,655.3 L1137.6,655.2 L1138.8,655.1 L1139.9,655.1
		L1141.1,655.0 L1142.3,654.9 L1143.5,654.8 L1144.6,654.7 L1145.8,654.7 L1147.0,654.6 L1148.2,654.5 L1149.3,654.4
		L1150.5,654.3 L1151.7,654.3 L1152.9,654.2 L1154.0,654.1 L1155.2,654.1 L1156.4,654.0 L1157.6,653.9 L1158.7,653.8
		L1159.9,653.8 L1161.1,653.7 L1162.2,653.6 L1163.4,653.6 L1164.6,653.5 L1165.8,653.4 L1166.9,653.4 L1168.1,653.3
		L1169.3,653.2 L1170.5,653.2 L1171.6,653.1 L1172.8,653.0 L1174.0,653.0 L1175.2,652.9 L1176.3,652.9 L1177.5,652.8
		L1178.7,652.7 L1179.9,652.7 L1181.0,652.6 L1182.2,652.6 L1183.4,652.5 L1184.6,652.5 L1185.7,652.4 L1186.9,652.4
		L1188.1,652.3 L1189.3,652.2 L1190.4,652.2 L1191.6,652.2 L1192.8,652.1 L1193.9,652.1 L1195.1,652.0 L1196.3,652.0
		L1197.5,651.9 L1198.6,651.9 L1199.8,651.8 L1201.0,651.8 L1202.2,651.7 L1203.3,651.7 L1204.5,651.7 L1205.7,651.6
		L1206.9,651.6 L1208.0,651.6 L1209.2,651.5 L1210.4,651.5 L1211.6,651.4 L1212.7,651.4 L1213.9,651.4 L1215.1,651.3
		L1216.3,651.3 L1217.4,651.3 L1218.6,651.3 L1219.8,651.2 L1221.0,651.2 L1222.1,651.2 L1223.3,651.2 L1224.5,651.1
		L1225.6,651.1 L1226.8,651.1 L1228.0,651.1 L1229.2,651.0 L1230.3,651.0 L1231.5,651.0 L1232.7,651.0 L1233.9,651.0
		L1235.0,650.9 L1236.2,650.9 L1237.4,650.9 L1238.6,650.9 L1239.7,650.9 L1240.9,650.9 L1242.1,650.9 L1243.3,650.9
		L1244.4,650.9 L1245.6,650.8 L1246.8,650.8 L1248.0,650.8 L1249.1,650.8 L1250.3,650.8 L1251.5,650.8 L1252.7,650.8
		L1253.8,650.8 L1255.0,650.8  '/></g>
	</g>
<g fill="none" color="white" stroke="rgb(255,   0,   0)" stroke-width="2.00" stroke-linecap="butt" stroke-linejoin="miter">
</g>
<g fill="none" color="black" stroke="currentColor" stroke-width="2.00" stroke-linecap="butt" stroke-linejoin="miter">
</g>
<g fill="none" color="black" stroke="black" stroke-width="1.00" stroke-linecap="butt" stroke-linejoin="miter">
</g>
<g fill="none" color="black" stroke="currentColor" stroke-width="1.00" stroke-linecap="butt" stroke-linejoin="miter">
	<path stroke='black'  d='M53.9,54.1 L53.9,684.0 L1255.0,684.0 L1255.0,54.1 L53.9,54.1 Z  '/></g>
<g fill="none" color="black" stroke="currentColor" stroke-width="1.00" stroke-linecap="butt" stroke-linejoin="miter">
</g>
</g>
</svg>

