<?xml version="1.0" encoding="utf-8"  standalone="no"?>
<svg 
 width="1280" height="720"
 viewBox="0 0 1280 720"
 xmlns="http://www.w3.org/2000/svg"
 xmlns:xlink="http://www.w3.org/1999/xlink"
>

<title>Gnuplot</title>
<desc>Produced by GNUPLOT 5.0 patchlevel 6 </desc>

<g id="gnuplot_canvas">

<rect x="0" y="0" width="1280" height="720" fill="none"/>
<defs>

	<circle id='gpDot' r='0.5' stroke-width='0.5'/>
	<path id='gpPt0' stroke-width='0.222' stroke='currentColor' d='M-1,0 h2 M0,-1 v2'/>
	<path id='gpPt1' stroke-width='0.222' stroke='currentColor' d='M-1,-1 L1,1 M1,-1 L-1,1'/>
	<path id='gpPt2' stroke-width='0.222' stroke='currentColor' d='M-1,0 L1,0 M0,-1 L0,1 M-1,-1 L1,1 M-1,1 L1,-1'/>
	<rect id='gpPt3' stroke-width='0.222' stroke='currentColor' x='-1' y='-1' width='2' height='2'/>
	<rect id='gpPt4' stroke-width='0.222' stroke='currentColor' fill='currentColor' x='-1' y='-1' width='2' height='2'/>
	<circle id='gpPt5' stroke-width='0.222' stroke='currentColor' cx='0' cy='0' r='1'/>
	<use xlink:href='#gpPt5' id='gpPt6' fill='currentColor' stroke='none'/>
	<path id='gpPt7' stroke-width='0.222' stroke='currentColor' d='M0,-1.33 L-1.33,0.67 L1.33,0.67 z'/>
	<use xlink:href='#gpPt7' id='gpPt8' fill='currentColor' stroke='none'/>
	<use xlink:href='#gpPt7' id='gpPt9' stroke='currentColor' transform='rotate(180)'/>
	<use xlink:href='#gpPt9' id='gpPt10' fill='currentColor' stroke='none'/>
	<use xlink:href='#gpPt3' id='gpPt11' stroke='currentColor' transform='rotate(45)'/>
	<use xlink:href='#gpPt11' id='gpPt12' fill='currentColor' stroke='none'/>
	<path id='gpPt13' stroke-width='0.222' stroke='currentColor' d='M0,1.330 L1.265,0.411 L0.782,-1.067 L-0.782,-1.076 L-1.265,0.411 z'/>
	<use xlink:href='#gpPt13' id='gpPt14' fill='currentColor' stroke='none'/>
	<filter id='textbox' filterUnits='objectBoundingBox' x='0' y='0' height='1' width='1'>
	  <feFlood flood-color='white' flood-opacity='1' result='bgnd'/>
	  <feComposite in='SourceGraphic' in2='bgnd' operator='atop'/>
	</filter>
	<filter id='greybox' filterUnits='objectBoundingBox' x='0' y='0' height='1' width='1'>
	  <feFlood flood-color='lightgrey' flood-opacity='1' result='grey'/>
	  <feComposite in='SourceGraphic' in2='grey' operator='atop'/>
	</filter>
</defs>
<g fill="none" color="white" stroke="currentColor" stroke-width="1.00" stroke-linecap="butt" stroke-linejoin="miter">
</g>
<g fill="none" color="black" stroke="currentColor" stroke-width="1.00" stroke-linecap="butt" stroke-linejoin="miter">
	<path stroke='black'  d='M87.1,684.0 L96.1,684.0 M1255.0,684.0 L1246.0,684.0  '/>	<g transform="translate(78.8,687.9)" stroke="none" fill="black" font-family="Arial" font-size="12.00"  text-anchor="end">
		<text><tspan font-family="Arial" > 0.1015</tspan></text>
	</g>
</g>
<g fill="none" color="black" stroke="currentColor" stroke-width="1.00" stroke-linecap="butt" stroke-linejoin="miter">
	<path stroke='black'  d='M87.1,369.0 L96.1,369.0 M1255.0,369.0 L1246.0,369.0  '/>	<g transform="translate(78.8,372.9)" stroke="none" fill="black" font-family="Arial" font-size="12.00"  text-anchor="end">
		<text><tspan font-family="Arial" > 53.8974</tspan></text>
	</g>
</g>
<g fill="none" color="black" stroke="currentColor" stroke-width="1.00" stroke-linecap="butt" stroke-linejoin="miter">
	<path stroke='black'  d='M87.1,54.1 L96.1,54.1 M1255.0,54.1 L1246.0,54.1  '/>	<g transform="translate(78.8,58.0)" stroke="none" fill="black" font-family="Arial" font-size="12.00"  text-anchor="end">
		<text><tspan font-family="Arial" > 28620</tspan></text>
	</g>
</g>
<g fill="none" color="black" stroke="currentColor" stroke-width="1.00" stroke-linecap="butt" stroke-linejoin="miter">
	<path stroke='black'  d='M87.1,684.0 L87.1,675.0 M87.1,54.1 L87.1,63.1  '/>	<g transform="translate(87.1,705.9)" stroke="none" fill="black" font-family="Arial" font-size="12.00"  text-anchor="middle">
		<text><tspan font-family="Arial" > 0</tspan></text>
	</g>
</g>
<g fill="none" color="black" stroke="currentColor" stroke-width="1.00" stroke-linecap="butt" stroke-linejoin="miter">
	<path stroke='black'  d='M671.1,684.0 L671.1,675.0 M671.1,54.1 L671.1,63.1  '/>	<g transform="translate(671.1,705.9)" stroke="none" fill="black" font-family="Arial" font-size="12.00"  text-anchor="middle">
		<text><tspan font-family="Arial" >pi/2</tspan></text>
	</g>
</g>
<g fill="none" color="black" stroke="currentColor" stroke-width="1.00" stroke-linecap="butt" stroke-linejoin="miter">
	<path stroke='black'  d='M1255.0,684.0 L1255.0,675.0 M1255.0,54.1 L1255.0,63.1  '/>	<g transform="translate(1255.0,705.9)" stroke="none" fill="black" font-family="Arial" font-size="12.00"  text-anchor="middle">
		<text><tspan font-family="Arial" >pi</tspan></text>
	</g>
</g>
<g fill="none" color="black" stroke="currentColor" stroke-width="1.00" stroke-linecap="butt" stroke-linejoin="miter">
</g>
<g fill="none" color="black" stroke="currentColor" stroke-width="1.00" stroke-linecap="butt" stroke-linejoin="miter">
	<path stroke='black'  d='M87.1,54.1 L87.1,684.0 L1255.0,684.0 L1255.0,54.1 L87.1,54.1 Z  '/></g>
<g fill="none" color="black" stroke="currentColor" stroke-width="1.00" stroke-linecap="butt" stroke-linejoin="miter">
	<g transform="translate(671.0,31.0)" stroke="none" fill="black" font-family="Arial" font-size="12.00"  text-anchor="middle">
		<text><tspan font-family="Arial" >Material 49, with 4 components</tspan></text>
	</g>
</g>
	<g id="gnuplot_plot_1" ><title>scattering function</title>
<g fill="none" color="black" stroke="currentColor" stroke-width="1.00" stroke-linecap="butt" stroke-linejoin="miter">
	<g transform="translate(1187.9,76.0)" stroke="none" fill="black" font-family="Arial" font-size="12.00"  text-anchor="end">
		<text><tspan font-family="Arial" >scattering function</tspan></text>
	</g>
</g>
<g fill="none" color="black" stroke="currentColor" stroke-width="1.00" stroke-linecap="butt" stroke-linejoin="miter">
	<use xlink:href='#gpPt5' transform='translate(87.1,82.0) scale(2.25)' color='rgb(255,   0,   0)'/>
	<use xlink:href='#gpPt5' transform='translate(87.7,82.4) scale(2.25)' color='rgb(255,   0,   0)'/>
	<use xlink:href='#gpPt5' transform='translate(88.4,83.5) scale(2.25)' color='rgb(255,   0,   0)'/>
	<use xlink:href='#gpPt5' transform='translate(89.0,85.4) scale(2.25)' color='rgb(255,   0,   0)'/>
	<use xlink:href='#gpPt5' transform='translate(89.7,88.1) scale(2.25)' color='rgb(255,   0,   0)'/>
	<use xlink:href='#gpPt5' transform='translate(90.3,91.6) scale(2.25)' color='rgb(255,   0,   0)'/>
	<use xlink:href='#gpPt5' transform='translate(91.0,95.7) scale(2.25)' color='rgb(255,   0,   0)'/>
	<use xlink:href='#gpPt5' transform='translate(91.6,100.5) scale(2.25)' color='rgb(255,   0,   0)'/>
	<use xlink:href='#gpPt5' transform='translate(92.3,105.9) scale(2.25)' color='rgb(255,   0,   0)'/>
	<use xlink:href='#gpPt5' transform='translate(92.9,112.0) scale(2.25)' color='rgb(255,   0,   0)'/>
	<use xlink:href='#gpPt5' transform='translate(93.6,118.6) scale(2.25)' color='rgb(255,   0,   0)'/>
	<use xlink:href='#gpPt5' transform='translate(94.2,125.7) scale(2.25)' color='rgb(255,   0,   0)'/>
	<use xlink:href='#gpPt5' transform='translate(94.9,133.3) scale(2.25)' color='rgb(255,   0,   0)'/>
	<use xlink:href='#gpPt5' transform='translate(95.5,141.2) scale(2.25)' color='rgb(255,   0,   0)'/>
	<use xlink:href='#gpPt5' transform='translate(96.2,149.5) scale(2.25)' color='rgb(255,   0,   0)'/>
	<use xlink:href='#gpPt5' transform='translate(96.8,158.0) scale(2.25)' color='rgb(255,   0,   0)'/>
	<use xlink:href='#gpPt5' transform='translate(97.5,166.7) scale(2.25)' color='rgb(255,   0,   0)'/>
	<use xlink:href='#gpPt5' transform='translate(98.1,175.6) scale(2.25)' color='rgb(255,   0,   0)'/>
	<use xlink:href='#gpPt5' transform='translate(98.8,184.4) scale(2.25)' color='rgb(255,   0,   0)'/>
	<use xlink:href='#gpPt5' transform='translate(99.4,193.3) scale(2.25)' color='rgb(255,   0,   0)'/>
	<use xlink:href='#gpPt5' transform='translate(100.1,202.0) scale(2.25)' color='rgb(255,   0,   0)'/>
	<use xlink:href='#gpPt5' transform='translate(106.6,273.2) scale(2.25)' color='rgb(255,   0,   0)'/>
	<use xlink:href='#gpPt5' transform='translate(113.1,312.9) scale(2.25)' color='rgb(255,   0,   0)'/>
	<use xlink:href='#gpPt5' transform='translate(119.5,337.6) scale(2.25)' color='rgb(255,   0,   0)'/>
	<use xlink:href='#gpPt5' transform='translate(126.0,353.8) scale(2.25)' color='rgb(255,   0,   0)'/>
	<use xlink:href='#gpPt5' transform='translate(139.0,373.8) scale(2.25)' color='rgb(255,   0,   0)'/>
	<use xlink:href='#gpPt5' transform='translate(152.0,386.3) scale(2.25)' color='rgb(255,   0,   0)'/>
	<use xlink:href='#gpPt5' transform='translate(165.0,393.2) scale(2.25)' color='rgb(255,   0,   0)'/>
	<use xlink:href='#gpPt5' transform='translate(177.9,401.7) scale(2.25)' color='rgb(255,   0,   0)'/>
	<use xlink:href='#gpPt5' transform='translate(190.9,406.7) scale(2.25)' color='rgb(255,   0,   0)'/>
	<use xlink:href='#gpPt5' transform='translate(203.9,412.3) scale(2.25)' color='rgb(255,   0,   0)'/>
	<use xlink:href='#gpPt5' transform='translate(216.9,419.2) scale(2.25)' color='rgb(255,   0,   0)'/>
	<use xlink:href='#gpPt5' transform='translate(229.8,425.1) scale(2.25)' color='rgb(255,   0,   0)'/>
	<use xlink:href='#gpPt5' transform='translate(242.8,430.4) scale(2.25)' color='rgb(255,   0,   0)'/>
	<use xlink:href='#gpPt5' transform='translate(255.8,436.7) scale(2.25)' color='rgb(255,   0,   0)'/>
	<use xlink:href='#gpPt5' transform='translate(268.8,443.4) scale(2.25)' color='rgb(255,   0,   0)'/>
	<use xlink:href='#gpPt5' transform='translate(281.8,450.9) scale(2.25)' color='rgb(255,   0,   0)'/>
	<use xlink:href='#gpPt5' transform='translate(294.7,456.7) scale(2.25)' color='rgb(255,   0,   0)'/>
	<use xlink:href='#gpPt5' transform='translate(307.7,463.1) scale(2.25)' color='rgb(255,   0,   0)'/>
	<use xlink:href='#gpPt5' transform='translate(320.7,468.7) scale(2.25)' color='rgb(255,   0,   0)'/>
	<use xlink:href='#gpPt5' transform='translate(333.7,476.2) scale(2.25)' color='rgb(255,   0,   0)'/>
	<use xlink:href='#gpPt5' transform='translate(346.6,482.6) scale(2.25)' color='rgb(255,   0,   0)'/>
	<use xlink:href='#gpPt5' transform='translate(359.6,490.5) scale(2.25)' color='rgb(255,   0,   0)'/>
	<use xlink:href='#gpPt5' transform='translate(372.6,496.0) scale(2.25)' color='rgb(255,   0,   0)'/>
	<use xlink:href='#gpPt5' transform='translate(385.6,504.4) scale(2.25)' color='rgb(255,   0,   0)'/>
	<use xlink:href='#gpPt5' transform='translate(398.5,510.9) scale(2.25)' color='rgb(255,   0,   0)'/>
	<use xlink:href='#gpPt5' transform='translate(411.5,516.6) scale(2.25)' color='rgb(255,   0,   0)'/>
	<use xlink:href='#gpPt5' transform='translate(424.5,524.9) scale(2.25)' color='rgb(255,   0,   0)'/>
	<use xlink:href='#gpPt5' transform='translate(437.5,533.6) scale(2.25)' color='rgb(255,   0,   0)'/>
	<use xlink:href='#gpPt5' transform='translate(450.4,539.7) scale(2.25)' color='rgb(255,   0,   0)'/>
	<use xlink:href='#gpPt5' transform='translate(463.4,546.0) scale(2.25)' color='rgb(255,   0,   0)'/>
	<use xlink:href='#gpPt5' transform='translate(476.4,552.5) scale(2.25)' color='rgb(255,   0,   0)'/>
	<use xlink:href='#gpPt5' transform='translate(489.4,560.2) scale(2.25)' color='rgb(255,   0,   0)'/>
	<use xlink:href='#gpPt5' transform='translate(502.4,566.6) scale(2.25)' color='rgb(255,   0,   0)'/>
	<use xlink:href='#gpPt5' transform='translate(515.3,576.7) scale(2.25)' color='rgb(255,   0,   0)'/>
	<use xlink:href='#gpPt5' transform='translate(528.3,583.4) scale(2.25)' color='rgb(255,   0,   0)'/>
	<use xlink:href='#gpPt5' transform='translate(541.3,588.8) scale(2.25)' color='rgb(255,   0,   0)'/>
	<use xlink:href='#gpPt5' transform='translate(554.3,597.7) scale(2.25)' color='rgb(255,   0,   0)'/>
	<use xlink:href='#gpPt5' transform='translate(567.2,604.0) scale(2.25)' color='rgb(255,   0,   0)'/>
	<use xlink:href='#gpPt5' transform='translate(580.2,613.3) scale(2.25)' color='rgb(255,   0,   0)'/>
	<use xlink:href='#gpPt5' transform='translate(593.2,623.1) scale(2.25)' color='rgb(255,   0,   0)'/>
	<use xlink:href='#gpPt5' transform='translate(606.2,631.4) scale(2.25)' color='rgb(255,   0,   0)'/>
	<use xlink:href='#gpPt5' transform='translate(619.1,636.9) scale(2.25)' color='rgb(255,   0,   0)'/>
	<use xlink:href='#gpPt5' transform='translate(632.1,643.2) scale(2.25)' color='rgb(255,   0,   0)'/>
	<use xlink:href='#gpPt5' transform='translate(645.1,650.0) scale(2.25)' color='rgb(255,   0,   0)'/>
	<use xlink:href='#gpPt5' transform='translate(658.1,652.1) scale(2.25)' color='rgb(255,   0,   0)'/>
	<use xlink:href='#gpPt5' transform='translate(671.1,654.9) scale(2.25)' color='rgb(255,   0,   0)'/>
	<use xlink:href='#gpPt5' transform='translate(684.0,663.4) scale(2.25)' color='rgb(255,   0,   0)'/>
	<use xlink:href='#gpPt5' transform='translate(697.0,671.0) scale(2.25)' color='rgb(255,   0,   0)'/>
	<use xlink:href='#gpPt5' transform='translate(710.0,674.0) scale(2.25)' color='rgb(255,   0,   0)'/>
	<use xlink:href='#gpPt5' transform='translate(723.0,673.3) scale(2.25)' color='rgb(255,   0,   0)'/>
	<use xlink:href='#gpPt5' transform='translate(735.9,667.5) scale(2.25)' color='rgb(255,   0,   0)'/>
	<use xlink:href='#gpPt5' transform='translate(748.9,669.1) scale(2.25)' color='rgb(255,   0,   0)'/>
	<use xlink:href='#gpPt5' transform='translate(761.9,674.9) scale(2.25)' color='rgb(255,   0,   0)'/>
	<use xlink:href='#gpPt5' transform='translate(774.9,678.3) scale(2.25)' color='rgb(255,   0,   0)'/>
	<use xlink:href='#gpPt5' transform='translate(787.8,677.6) scale(2.25)' color='rgb(255,   0,   0)'/>
	<use xlink:href='#gpPt5' transform='translate(800.8,678.5) scale(2.25)' color='rgb(255,   0,   0)'/>
	<use xlink:href='#gpPt5' transform='translate(813.8,670.5) scale(2.25)' color='rgb(255,   0,   0)'/>
	<use xlink:href='#gpPt5' transform='translate(826.8,672.8) scale(2.25)' color='rgb(255,   0,   0)'/>
	<use xlink:href='#gpPt5' transform='translate(839.7,663.3) scale(2.25)' color='rgb(255,   0,   0)'/>
	<use xlink:href='#gpPt5' transform='translate(852.7,656.3) scale(2.25)' color='rgb(255,   0,   0)'/>
	<use xlink:href='#gpPt5' transform='translate(865.7,645.4) scale(2.25)' color='rgb(255,   0,   0)'/>
	<use xlink:href='#gpPt5' transform='translate(878.7,640.8) scale(2.25)' color='rgb(255,   0,   0)'/>
	<use xlink:href='#gpPt5' transform='translate(891.7,641.8) scale(2.25)' color='rgb(255,   0,   0)'/>
	<use xlink:href='#gpPt5' transform='translate(904.6,641.1) scale(2.25)' color='rgb(255,   0,   0)'/>
	<use xlink:href='#gpPt5' transform='translate(917.6,649.0) scale(2.25)' color='rgb(255,   0,   0)'/>
	<use xlink:href='#gpPt5' transform='translate(930.6,636.4) scale(2.25)' color='rgb(255,   0,   0)'/>
	<use xlink:href='#gpPt5' transform='translate(943.6,629.8) scale(2.25)' color='rgb(255,   0,   0)'/>
	<use xlink:href='#gpPt5' transform='translate(956.5,615.4) scale(2.25)' color='rgb(255,   0,   0)'/>
	<use xlink:href='#gpPt5' transform='translate(969.5,592.8) scale(2.25)' color='rgb(255,   0,   0)'/>
	<use xlink:href='#gpPt5' transform='translate(982.5,575.3) scale(2.25)' color='rgb(255,   0,   0)'/>
	<use xlink:href='#gpPt5' transform='translate(995.5,559.5) scale(2.25)' color='rgb(255,   0,   0)'/>
	<use xlink:href='#gpPt5' transform='translate(1008.4,549.2) scale(2.25)' color='rgb(255,   0,   0)'/>
	<use xlink:href='#gpPt5' transform='translate(1021.4,556.9) scale(2.25)' color='rgb(255,   0,   0)'/>
	<use xlink:href='#gpPt5' transform='translate(1034.4,566.6) scale(2.25)' color='rgb(255,   0,   0)'/>
	<use xlink:href='#gpPt5' transform='translate(1047.4,582.1) scale(2.25)' color='rgb(255,   0,   0)'/>
	<use xlink:href='#gpPt5' transform='translate(1060.3,584.5) scale(2.25)' color='rgb(255,   0,   0)'/>
	<use xlink:href='#gpPt5' transform='translate(1073.3,587.1) scale(2.25)' color='rgb(255,   0,   0)'/>
	<use xlink:href='#gpPt5' transform='translate(1086.3,583.9) scale(2.25)' color='rgb(255,   0,   0)'/>
	<use xlink:href='#gpPt5' transform='translate(1099.3,586.2) scale(2.25)' color='rgb(255,   0,   0)'/>
	<use xlink:href='#gpPt5' transform='translate(1112.3,591.2) scale(2.25)' color='rgb(255,   0,   0)'/>
	<use xlink:href='#gpPt5' transform='translate(1125.2,589.4) scale(2.25)' color='rgb(255,   0,   0)'/>
	<use xlink:href='#gpPt5' transform='translate(1138.2,587.6) scale(2.25)' color='rgb(255,   0,   0)'/>
	<use xlink:href='#gpPt5' transform='translate(1151.2,588.8) scale(2.25)' color='rgb(255,   0,   0)'/>
	<use xlink:href='#gpPt5' transform='translate(1164.2,596.1) scale(2.25)' color='rgb(255,   0,   0)'/>
	<use xlink:href='#gpPt5' transform='translate(1177.1,588.1) scale(2.25)' color='rgb(255,   0,   0)'/>
	<use xlink:href='#gpPt5' transform='translate(1190.1,586.7) scale(2.25)' color='rgb(255,   0,   0)'/>
	<use xlink:href='#gpPt5' transform='translate(1203.1,578.8) scale(2.25)' color='rgb(255,   0,   0)'/>
	<use xlink:href='#gpPt5' transform='translate(1216.1,570.8) scale(2.25)' color='rgb(255,   0,   0)'/>
	<use xlink:href='#gpPt5' transform='translate(1229.0,550.5) scale(2.25)' color='rgb(255,   0,   0)'/>
	<use xlink:href='#gpPt5' transform='translate(1242.0,529.8) scale(2.25)' color='rgb(255,   0,   0)'/>
	<use xlink:href='#gpPt5' transform='translate(1255.0,499.4) scale(2.25)' color='rgb(255,   0,   0)'/>
	<use xlink:href='#gpPt5' transform='translate(1217.3,72.1) scale(2.25)' color='rgb(255,   0,   0)'/>
</g>
	</g>
	<g id="gnuplot_plot_2" ><title>gnuplot_plot_2</title>
<g fill="none" color="black" stroke="currentColor" stroke-width="1.00" stroke-linecap="butt" stroke-linejoin="miter">
	<use xlink:href='#gpPt5' transform='translate(87.1,73.6) scale(2.25)' color='rgb(  0, 100,   0)'/>
	<use xlink:href='#gpPt5' transform='translate(87.7,74.1) scale(2.25)' color='rgb(  0, 100,   0)'/>
	<use xlink:href='#gpPt5' transform='translate(88.4,75.4) scale(2.25)' color='rgb(  0, 100,   0)'/>
	<use xlink:href='#gpPt5' transform='translate(89.0,77.7) scale(2.25)' color='rgb(  0, 100,   0)'/>
	<use xlink:href='#gpPt5' transform='translate(89.7,80.9) scale(2.25)' color='rgb(  0, 100,   0)'/>
	<use xlink:href='#gpPt5' transform='translate(90.3,85.0) scale(2.25)' color='rgb(  0, 100,   0)'/>
	<use xlink:href='#gpPt5' transform='translate(91.0,89.8) scale(2.25)' color='rgb(  0, 100,   0)'/>
	<use xlink:href='#gpPt5' transform='translate(91.6,95.5) scale(2.25)' color='rgb(  0, 100,   0)'/>
	<use xlink:href='#gpPt5' transform='translate(92.3,101.9) scale(2.25)' color='rgb(  0, 100,   0)'/>
	<use xlink:href='#gpPt5' transform='translate(92.9,109.0) scale(2.25)' color='rgb(  0, 100,   0)'/>
	<use xlink:href='#gpPt5' transform='translate(93.6,116.7) scale(2.25)' color='rgb(  0, 100,   0)'/>
	<use xlink:href='#gpPt5' transform='translate(94.2,124.9) scale(2.25)' color='rgb(  0, 100,   0)'/>
	<use xlink:href='#gpPt5' transform='translate(94.9,133.5) scale(2.25)' color='rgb(  0, 100,   0)'/>
	<use xlink:href='#gpPt5' transform='translate(95.5,142.6) scale(2.25)' color='rgb(  0, 100,   0)'/>
	<use xlink:href='#gpPt5' transform='translate(96.2,152.0) scale(2.25)' color='rgb(  0, 100,   0)'/>
	<use xlink:href='#gpPt5' transform='translate(96.8,161.5) scale(2.25)' color='rgb(  0, 100,   0)'/>
	<use xlink:href='#gpPt5' transform='translate(97.5,171.2) scale(2.25)' color='rgb(  0, 100,   0)'/>
	<use xlink:href='#gpPt5' transform='translate(98.1,180.9) scale(2.25)' color='rgb(  0, 100,   0)'/>
	<use xlink:href='#gpPt5' transform='translate(98.8,190.5) scale(2.25)' color='rgb(  0, 100,   0)'/>
	<use xlink:href='#gpPt5' transform='translate(99.4,199.9) scale(2.25)' color='rgb(  0, 100,   0)'/>
	<use xlink:href='#gpPt5' transform='translate(100.1,209.1) scale(2.25)' color='rgb(  0, 100,   0)'/>
	<use xlink:href='#gpPt5' transform='translate(106.6,278.9) scale(2.25)' color='rgb(  0, 100,   0)'/>
	<use xlink:href='#gpPt5' transform='translate(113.1,316.2) scale(2.25)' color='rgb(  0, 100,   0)'/>
	<use xlink:href='#gpPt5' transform='translate(119.5,339.5) scale(2.25)' color='rgb(  0, 100,   0)'/>
	<use xlink:href='#gpPt5' transform='translate(126.0,355.9) scale(2.25)' color='rgb(  0, 100,   0)'/>
	<use xlink:href='#gpPt5' transform='translate(139.0,376.3) scale(2.25)' color='rgb(  0, 100,   0)'/>
	<use xlink:href='#gpPt5' transform='translate(152.0,386.7) scale(2.25)' color='rgb(  0, 100,   0)'/>
	<use xlink:href='#gpPt5' transform='translate(165.0,394.2) scale(2.25)' color='rgb(  0, 100,   0)'/>
	<use xlink:href='#gpPt5' transform='translate(177.9,401.1) scale(2.25)' color='rgb(  0, 100,   0)'/>
	<use xlink:href='#gpPt5' transform='translate(190.9,406.8) scale(2.25)' color='rgb(  0, 100,   0)'/>
	<use xlink:href='#gpPt5' transform='translate(203.9,413.0) scale(2.25)' color='rgb(  0, 100,   0)'/>
	<use xlink:href='#gpPt5' transform='translate(216.9,419.3) scale(2.25)' color='rgb(  0, 100,   0)'/>
	<use xlink:href='#gpPt5' transform='translate(229.8,424.7) scale(2.25)' color='rgb(  0, 100,   0)'/>
	<use xlink:href='#gpPt5' transform='translate(242.8,430.2) scale(2.25)' color='rgb(  0, 100,   0)'/>
	<use xlink:href='#gpPt5' transform='translate(255.8,437.6) scale(2.25)' color='rgb(  0, 100,   0)'/>
	<use xlink:href='#gpPt5' transform='translate(268.8,445.1) scale(2.25)' color='rgb(  0, 100,   0)'/>
	<use xlink:href='#gpPt5' transform='translate(281.8,451.0) scale(2.25)' color='rgb(  0, 100,   0)'/>
	<use xlink:href='#gpPt5' transform='translate(294.7,456.7) scale(2.25)' color='rgb(  0, 100,   0)'/>
	<use xlink:href='#gpPt5' transform='translate(307.7,462.1) scale(2.25)' color='rgb(  0, 100,   0)'/>
	<use xlink:href='#gpPt5' transform='translate(320.7,470.2) scale(2.25)' color='rgb(  0, 100,   0)'/>
	<use xlink:href='#gpPt5' transform='translate(333.7,476.2) scale(2.25)' color='rgb(  0, 100,   0)'/>
	<use xlink:href='#gpPt5' transform='translate(346.6,485.1) scale(2.25)' color='rgb(  0, 100,   0)'/>
	<use xlink:href='#gpPt5' transform='translate(359.6,491.1) scale(2.25)' color='rgb(  0, 100,   0)'/>
	<use xlink:href='#gpPt5' transform='translate(372.6,498.9) scale(2.25)' color='rgb(  0, 100,   0)'/>
	<use xlink:href='#gpPt5' transform='translate(385.6,504.1) scale(2.25)' color='rgb(  0, 100,   0)'/>
	<use xlink:href='#gpPt5' transform='translate(398.5,510.8) scale(2.25)' color='rgb(  0, 100,   0)'/>
	<use xlink:href='#gpPt5' transform='translate(411.5,520.2) scale(2.25)' color='rgb(  0, 100,   0)'/>
	<use xlink:href='#gpPt5' transform='translate(424.5,523.4) scale(2.25)' color='rgb(  0, 100,   0)'/>
	<use xlink:href='#gpPt5' transform='translate(437.5,529.6) scale(2.25)' color='rgb(  0, 100,   0)'/>
	<use xlink:href='#gpPt5' transform='translate(450.4,537.4) scale(2.25)' color='rgb(  0, 100,   0)'/>
	<use xlink:href='#gpPt5' transform='translate(463.4,547.4) scale(2.25)' color='rgb(  0, 100,   0)'/>
	<use xlink:href='#gpPt5' transform='translate(476.4,556.8) scale(2.25)' color='rgb(  0, 100,   0)'/>
	<use xlink:href='#gpPt5' transform='translate(489.4,565.4) scale(2.25)' color='rgb(  0, 100,   0)'/>
	<use xlink:href='#gpPt5' transform='translate(502.4,573.9) scale(2.25)' color='rgb(  0, 100,   0)'/>
	<use xlink:href='#gpPt5' transform='translate(515.3,581.3) scale(2.25)' color='rgb(  0, 100,   0)'/>
	<use xlink:href='#gpPt5' transform='translate(528.3,590.0) scale(2.25)' color='rgb(  0, 100,   0)'/>
	<use xlink:href='#gpPt5' transform='translate(541.3,597.6) scale(2.25)' color='rgb(  0, 100,   0)'/>
	<use xlink:href='#gpPt5' transform='translate(554.3,604.7) scale(2.25)' color='rgb(  0, 100,   0)'/>
	<use xlink:href='#gpPt5' transform='translate(567.2,617.0) scale(2.25)' color='rgb(  0, 100,   0)'/>
	<use xlink:href='#gpPt5' transform='translate(580.2,622.3) scale(2.25)' color='rgb(  0, 100,   0)'/>
	<use xlink:href='#gpPt5' transform='translate(593.2,624.8) scale(2.25)' color='rgb(  0, 100,   0)'/>
	<use xlink:href='#gpPt5' transform='translate(606.2,630.9) scale(2.25)' color='rgb(  0, 100,   0)'/>
	<use xlink:href='#gpPt5' transform='translate(619.1,639.4) scale(2.25)' color='rgb(  0, 100,   0)'/>
	<use xlink:href='#gpPt5' transform='translate(632.1,645.4) scale(2.25)' color='rgb(  0, 100,   0)'/>
	<use xlink:href='#gpPt5' transform='translate(645.1,653.3) scale(2.25)' color='rgb(  0, 100,   0)'/>
	<use xlink:href='#gpPt5' transform='translate(658.1,662.4) scale(2.25)' color='rgb(  0, 100,   0)'/>
	<use xlink:href='#gpPt5' transform='translate(671.1,664.1) scale(2.25)' color='rgb(  0, 100,   0)'/>
	<use xlink:href='#gpPt5' transform='translate(684.0,667.8) scale(2.25)' color='rgb(  0, 100,   0)'/>
	<use xlink:href='#gpPt5' transform='translate(697.0,668.8) scale(2.25)' color='rgb(  0, 100,   0)'/>
	<use xlink:href='#gpPt5' transform='translate(710.0,671.0) scale(2.25)' color='rgb(  0, 100,   0)'/>
	<use xlink:href='#gpPt5' transform='translate(723.0,680.2) scale(2.25)' color='rgb(  0, 100,   0)'/>
	<use xlink:href='#gpPt5' transform='translate(735.9,680.4) scale(2.25)' color='rgb(  0, 100,   0)'/>
	<use xlink:href='#gpPt5' transform='translate(748.9,678.0) scale(2.25)' color='rgb(  0, 100,   0)'/>
	<use xlink:href='#gpPt5' transform='translate(761.9,679.2) scale(2.25)' color='rgb(  0, 100,   0)'/>
	<use xlink:href='#gpPt5' transform='translate(774.9,679.7) scale(2.25)' color='rgb(  0, 100,   0)'/>
	<use xlink:href='#gpPt5' transform='translate(787.8,678.4) scale(2.25)' color='rgb(  0, 100,   0)'/>
	<use xlink:href='#gpPt5' transform='translate(800.8,674.0) scale(2.25)' color='rgb(  0, 100,   0)'/>
	<use xlink:href='#gpPt5' transform='translate(813.8,674.1) scale(2.25)' color='rgb(  0, 100,   0)'/>
	<use xlink:href='#gpPt5' transform='translate(826.8,671.0) scale(2.25)' color='rgb(  0, 100,   0)'/>
	<use xlink:href='#gpPt5' transform='translate(839.7,662.8) scale(2.25)' color='rgb(  0, 100,   0)'/>
	<use xlink:href='#gpPt5' transform='translate(852.7,654.8) scale(2.25)' color='rgb(  0, 100,   0)'/>
	<use xlink:href='#gpPt5' transform='translate(865.7,645.8) scale(2.25)' color='rgb(  0, 100,   0)'/>
	<use xlink:href='#gpPt5' transform='translate(878.7,641.4) scale(2.25)' color='rgb(  0, 100,   0)'/>
	<use xlink:href='#gpPt5' transform='translate(891.7,640.8) scale(2.25)' color='rgb(  0, 100,   0)'/>
	<use xlink:href='#gpPt5' transform='translate(904.6,650.9) scale(2.25)' color='rgb(  0, 100,   0)'/>
	<use xlink:href='#gpPt5' transform='translate(917.6,645.8) scale(2.25)' color='rgb(  0, 100,   0)'/>
	<use xlink:href='#gpPt5' transform='translate(930.6,645.2) scale(2.25)' color='rgb(  0, 100,   0)'/>
	<use xlink:href='#gpPt5' transform='translate(943.6,634.8) scale(2.25)' color='rgb(  0, 100,   0)'/>
	<use xlink:href='#gpPt5' transform='translate(956.5,618.9) scale(2.25)' color='rgb(  0, 100,   0)'/>
	<use xlink:href='#gpPt5' transform='translate(969.5,595.4) scale(2.25)' color='rgb(  0, 100,   0)'/>
	<use xlink:href='#gpPt5' transform='translate(982.5,572.8) scale(2.25)' color='rgb(  0, 100,   0)'/>
	<use xlink:href='#gpPt5' transform='translate(995.5,556.2) scale(2.25)' color='rgb(  0, 100,   0)'/>
	<use xlink:href='#gpPt5' transform='translate(1008.4,548.9) scale(2.25)' color='rgb(  0, 100,   0)'/>
	<use xlink:href='#gpPt5' transform='translate(1021.4,555.0) scale(2.25)' color='rgb(  0, 100,   0)'/>
	<use xlink:href='#gpPt5' transform='translate(1034.4,570.0) scale(2.25)' color='rgb(  0, 100,   0)'/>
	<use xlink:href='#gpPt5' transform='translate(1047.4,584.9) scale(2.25)' color='rgb(  0, 100,   0)'/>
	<use xlink:href='#gpPt5' transform='translate(1060.3,584.0) scale(2.25)' color='rgb(  0, 100,   0)'/>
	<use xlink:href='#gpPt5' transform='translate(1073.3,585.0) scale(2.25)' color='rgb(  0, 100,   0)'/>
	<use xlink:href='#gpPt5' transform='translate(1086.3,584.3) scale(2.25)' color='rgb(  0, 100,   0)'/>
	<use xlink:href='#gpPt5' transform='translate(1099.3,590.4) scale(2.25)' color='rgb(  0, 100,   0)'/>
	<use xlink:href='#gpPt5' transform='translate(1112.3,592.4) scale(2.25)' color='rgb(  0, 100,   0)'/>
	<use xlink:href='#gpPt5' transform='translate(1125.2,592.1) scale(2.25)' color='rgb(  0, 100,   0)'/>
	<use xlink:href='#gpPt5' transform='translate(1138.2,591.3) scale(2.25)' color='rgb(  0, 100,   0)'/>
	<use xlink:href='#gpPt5' transform='translate(1151.2,594.0) scale(2.25)' color='rgb(  0, 100,   0)'/>
	<use xlink:href='#gpPt5' transform='translate(1164.2,594.4) scale(2.25)' color='rgb(  0, 100,   0)'/>
	<use xlink:href='#gpPt5' transform='translate(1177.1,587.8) scale(2.25)' color='rgb(  0, 100,   0)'/>
	<use xlink:href='#gpPt5' transform='translate(1190.1,589.1) scale(2.25)' color='rgb(  0, 100,   0)'/>
	<use xlink:href='#gpPt5' transform='translate(1203.1,585.0) scale(2.25)' color='rgb(  0, 100,   0)'/>
	<use xlink:href='#gpPt5' transform='translate(1216.1,574.0) scale(2.25)' color='rgb(  0, 100,   0)'/>
	<use xlink:href='#gpPt5' transform='translate(1229.0,560.1) scale(2.25)' color='rgb(  0, 100,   0)'/>
	<use xlink:href='#gpPt5' transform='translate(1242.0,531.6) scale(2.25)' color='rgb(  0, 100,   0)'/>
	<use xlink:href='#gpPt5' transform='translate(1255.0,506.1) scale(2.25)' color='rgb(  0, 100,   0)'/>
</g>
	</g>
	<g id="gnuplot_plot_3" ><title>gnuplot_plot_3</title>
<g fill="none" color="black" stroke="currentColor" stroke-width="1.00" stroke-linecap="butt" stroke-linejoin="miter">
	<use xlink:href='#gpPt5' transform='translate(87.1,54.1) scale(2.25)' color='rgb(  0,   0, 255)'/>
	<use xlink:href='#gpPt5' transform='translate(87.7,54.8) scale(2.25)' color='rgb(  0,   0, 255)'/>
	<use xlink:href='#gpPt5' transform='translate(88.4,56.8) scale(2.25)' color='rgb(  0,   0, 255)'/>
	<use xlink:href='#gpPt5' transform='translate(89.0,60.2) scale(2.25)' color='rgb(  0,   0, 255)'/>
	<use xlink:href='#gpPt5' transform='translate(89.7,64.9) scale(2.25)' color='rgb(  0,   0, 255)'/>
	<use xlink:href='#gpPt5' transform='translate(90.3,70.9) scale(2.25)' color='rgb(  0,   0, 255)'/>
	<use xlink:href='#gpPt5' transform='translate(91.0,78.0) scale(2.25)' color='rgb(  0,   0, 255)'/>
	<use xlink:href='#gpPt5' transform='translate(91.6,86.1) scale(2.25)' color='rgb(  0,   0, 255)'/>
	<use xlink:href='#gpPt5' transform='translate(92.3,95.2) scale(2.25)' color='rgb(  0,   0, 255)'/>
	<use xlink:href='#gpPt5' transform='translate(92.9,105.2) scale(2.25)' color='rgb(  0,   0, 255)'/>
	<use xlink:href='#gpPt5' transform='translate(93.6,115.8) scale(2.25)' color='rgb(  0,   0, 255)'/>
	<use xlink:href='#gpPt5' transform='translate(94.2,127.0) scale(2.25)' color='rgb(  0,   0, 255)'/>
	<use xlink:href='#gpPt5' transform='translate(94.9,138.6) scale(2.25)' color='rgb(  0,   0, 255)'/>
	<use xlink:href='#gpPt5' transform='translate(95.5,150.4) scale(2.25)' color='rgb(  0,   0, 255)'/>
	<use xlink:href='#gpPt5' transform='translate(96.2,162.3) scale(2.25)' color='rgb(  0,   0, 255)'/>
	<use xlink:href='#gpPt5' transform='translate(96.8,174.0) scale(2.25)' color='rgb(  0,   0, 255)'/>
	<use xlink:href='#gpPt5' transform='translate(97.5,185.5) scale(2.25)' color='rgb(  0,   0, 255)'/>
	<use xlink:href='#gpPt5' transform='translate(98.1,196.5) scale(2.25)' color='rgb(  0,   0, 255)'/>
	<use xlink:href='#gpPt5' transform='translate(98.8,207.0) scale(2.25)' color='rgb(  0,   0, 255)'/>
	<use xlink:href='#gpPt5' transform='translate(99.4,216.9) scale(2.25)' color='rgb(  0,   0, 255)'/>
	<use xlink:href='#gpPt5' transform='translate(100.1,226.2) scale(2.25)' color='rgb(  0,   0, 255)'/>
	<use xlink:href='#gpPt5' transform='translate(106.6,289.0) scale(2.25)' color='rgb(  0,   0, 255)'/>
	<use xlink:href='#gpPt5' transform='translate(113.1,323.6) scale(2.25)' color='rgb(  0,   0, 255)'/>
	<use xlink:href='#gpPt5' transform='translate(119.5,346.5) scale(2.25)' color='rgb(  0,   0, 255)'/>
	<use xlink:href='#gpPt5' transform='translate(126.0,361.5) scale(2.25)' color='rgb(  0,   0, 255)'/>
	<use xlink:href='#gpPt5' transform='translate(139.0,379.1) scale(2.25)' color='rgb(  0,   0, 255)'/>
	<use xlink:href='#gpPt5' transform='translate(152.0,389.1) scale(2.25)' color='rgb(  0,   0, 255)'/>
	<use xlink:href='#gpPt5' transform='translate(165.0,396.9) scale(2.25)' color='rgb(  0,   0, 255)'/>
	<use xlink:href='#gpPt5' transform='translate(177.9,402.4) scale(2.25)' color='rgb(  0,   0, 255)'/>
	<use xlink:href='#gpPt5' transform='translate(190.9,408.3) scale(2.25)' color='rgb(  0,   0, 255)'/>
	<use xlink:href='#gpPt5' transform='translate(203.9,414.6) scale(2.25)' color='rgb(  0,   0, 255)'/>
	<use xlink:href='#gpPt5' transform='translate(216.9,419.6) scale(2.25)' color='rgb(  0,   0, 255)'/>
	<use xlink:href='#gpPt5' transform='translate(229.8,425.3) scale(2.25)' color='rgb(  0,   0, 255)'/>
	<use xlink:href='#gpPt5' transform='translate(242.8,432.3) scale(2.25)' color='rgb(  0,   0, 255)'/>
	<use xlink:href='#gpPt5' transform='translate(255.8,437.7) scale(2.25)' color='rgb(  0,   0, 255)'/>
	<use xlink:href='#gpPt5' transform='translate(268.8,443.1) scale(2.25)' color='rgb(  0,   0, 255)'/>
	<use xlink:href='#gpPt5' transform='translate(281.8,448.7) scale(2.25)' color='rgb(  0,   0, 255)'/>
	<use xlink:href='#gpPt5' transform='translate(294.7,458.0) scale(2.25)' color='rgb(  0,   0, 255)'/>
	<use xlink:href='#gpPt5' transform='translate(307.7,464.1) scale(2.25)' color='rgb(  0,   0, 255)'/>
	<use xlink:href='#gpPt5' transform='translate(320.7,468.2) scale(2.25)' color='rgb(  0,   0, 255)'/>
	<use xlink:href='#gpPt5' transform='translate(333.7,477.7) scale(2.25)' color='rgb(  0,   0, 255)'/>
	<use xlink:href='#gpPt5' transform='translate(346.6,481.7) scale(2.25)' color='rgb(  0,   0, 255)'/>
	<use xlink:href='#gpPt5' transform='translate(359.6,490.8) scale(2.25)' color='rgb(  0,   0, 255)'/>
	<use xlink:href='#gpPt5' transform='translate(372.6,497.5) scale(2.25)' color='rgb(  0,   0, 255)'/>
	<use xlink:href='#gpPt5' transform='translate(385.6,501.8) scale(2.25)' color='rgb(  0,   0, 255)'/>
	<use xlink:href='#gpPt5' transform='translate(398.5,513.0) scale(2.25)' color='rgb(  0,   0, 255)'/>
	<use xlink:href='#gpPt5' transform='translate(411.5,517.3) scale(2.25)' color='rgb(  0,   0, 255)'/>
	<use xlink:href='#gpPt5' transform='translate(424.5,522.3) scale(2.25)' color='rgb(  0,   0, 255)'/>
	<use xlink:href='#gpPt5' transform='translate(437.5,533.5) scale(2.25)' color='rgb(  0,   0, 255)'/>
	<use xlink:href='#gpPt5' transform='translate(450.4,544.7) scale(2.25)' color='rgb(  0,   0, 255)'/>
	<use xlink:href='#gpPt5' transform='translate(463.4,552.4) scale(2.25)' color='rgb(  0,   0, 255)'/>
	<use xlink:href='#gpPt5' transform='translate(476.4,559.6) scale(2.25)' color='rgb(  0,   0, 255)'/>
	<use xlink:href='#gpPt5' transform='translate(489.4,565.1) scale(2.25)' color='rgb(  0,   0, 255)'/>
	<use xlink:href='#gpPt5' transform='translate(502.4,572.7) scale(2.25)' color='rgb(  0,   0, 255)'/>
	<use xlink:href='#gpPt5' transform='translate(515.3,580.4) scale(2.25)' color='rgb(  0,   0, 255)'/>
	<use xlink:href='#gpPt5' transform='translate(528.3,589.7) scale(2.25)' color='rgb(  0,   0, 255)'/>
	<use xlink:href='#gpPt5' transform='translate(541.3,596.3) scale(2.25)' color='rgb(  0,   0, 255)'/>
	<use xlink:href='#gpPt5' transform='translate(554.3,605.6) scale(2.25)' color='rgb(  0,   0, 255)'/>
	<use xlink:href='#gpPt5' transform='translate(567.2,617.4) scale(2.25)' color='rgb(  0,   0, 255)'/>
	<use xlink:href='#gpPt5' transform='translate(580.2,624.2) scale(2.25)' color='rgb(  0,   0, 255)'/>
	<use xlink:href='#gpPt5' transform='translate(593.2,630.2) scale(2.25)' color='rgb(  0,   0, 255)'/>
	<use xlink:href='#gpPt5' transform='translate(606.2,639.8) scale(2.25)' color='rgb(  0,   0, 255)'/>
	<use xlink:href='#gpPt5' transform='translate(619.1,642.2) scale(2.25)' color='rgb(  0,   0, 255)'/>
	<use xlink:href='#gpPt5' transform='translate(632.1,650.7) scale(2.25)' color='rgb(  0,   0, 255)'/>
	<use xlink:href='#gpPt5' transform='translate(645.1,660.7) scale(2.25)' color='rgb(  0,   0, 255)'/>
	<use xlink:href='#gpPt5' transform='translate(658.1,664.8) scale(2.25)' color='rgb(  0,   0, 255)'/>
	<use xlink:href='#gpPt5' transform='translate(671.1,665.6) scale(2.25)' color='rgb(  0,   0, 255)'/>
	<use xlink:href='#gpPt5' transform='translate(684.0,671.8) scale(2.25)' color='rgb(  0,   0, 255)'/>
	<use xlink:href='#gpPt5' transform='translate(697.0,679.1) scale(2.25)' color='rgb(  0,   0, 255)'/>
	<use xlink:href='#gpPt5' transform='translate(710.0,683.3) scale(2.25)' color='rgb(  0,   0, 255)'/>
	<use xlink:href='#gpPt5' transform='translate(723.0,682.7) scale(2.25)' color='rgb(  0,   0, 255)'/>
	<use xlink:href='#gpPt5' transform='translate(735.9,684.0) scale(2.25)' color='rgb(  0,   0, 255)'/>
	<use xlink:href='#gpPt5' transform='translate(748.9,680.7) scale(2.25)' color='rgb(  0,   0, 255)'/>
	<use xlink:href='#gpPt5' transform='translate(761.9,679.7) scale(2.25)' color='rgb(  0,   0, 255)'/>
	<use xlink:href='#gpPt5' transform='translate(774.9,677.1) scale(2.25)' color='rgb(  0,   0, 255)'/>
	<use xlink:href='#gpPt5' transform='translate(787.8,677.4) scale(2.25)' color='rgb(  0,   0, 255)'/>
	<use xlink:href='#gpPt5' transform='translate(800.8,682.6) scale(2.25)' color='rgb(  0,   0, 255)'/>
	<use xlink:href='#gpPt5' transform='translate(813.8,681.1) scale(2.25)' color='rgb(  0,   0, 255)'/>
	<use xlink:href='#gpPt5' transform='translate(826.8,671.0) scale(2.25)' color='rgb(  0,   0, 255)'/>
	<use xlink:href='#gpPt5' transform='translate(839.7,663.6) scale(2.25)' color='rgb(  0,   0, 255)'/>
	<use xlink:href='#gpPt5' transform='translate(852.7,651.7) scale(2.25)' color='rgb(  0,   0, 255)'/>
	<use xlink:href='#gpPt5' transform='translate(865.7,645.1) scale(2.25)' color='rgb(  0,   0, 255)'/>
	<use xlink:href='#gpPt5' transform='translate(878.7,644.4) scale(2.25)' color='rgb(  0,   0, 255)'/>
	<use xlink:href='#gpPt5' transform='translate(891.7,644.6) scale(2.25)' color='rgb(  0,   0, 255)'/>
	<use xlink:href='#gpPt5' transform='translate(904.6,642.6) scale(2.25)' color='rgb(  0,   0, 255)'/>
	<use xlink:href='#gpPt5' transform='translate(917.6,645.7) scale(2.25)' color='rgb(  0,   0, 255)'/>
	<use xlink:href='#gpPt5' transform='translate(930.6,657.1) scale(2.25)' color='rgb(  0,   0, 255)'/>
	<use xlink:href='#gpPt5' transform='translate(943.6,640.1) scale(2.25)' color='rgb(  0,   0, 255)'/>
	<use xlink:href='#gpPt5' transform='translate(956.5,634.0) scale(2.25)' color='rgb(  0,   0, 255)'/>
	<use xlink:href='#gpPt5' transform='translate(969.5,607.5) scale(2.25)' color='rgb(  0,   0, 255)'/>
	<use xlink:href='#gpPt5' transform='translate(982.5,580.2) scale(2.25)' color='rgb(  0,   0, 255)'/>
	<use xlink:href='#gpPt5' transform='translate(995.5,556.4) scale(2.25)' color='rgb(  0,   0, 255)'/>
	<use xlink:href='#gpPt5' transform='translate(1008.4,548.6) scale(2.25)' color='rgb(  0,   0, 255)'/>
	<use xlink:href='#gpPt5' transform='translate(1021.4,552.9) scale(2.25)' color='rgb(  0,   0, 255)'/>
	<use xlink:href='#gpPt5' transform='translate(1034.4,574.1) scale(2.25)' color='rgb(  0,   0, 255)'/>
	<use xlink:href='#gpPt5' transform='translate(1047.4,582.5) scale(2.25)' color='rgb(  0,   0, 255)'/>
	<use xlink:href='#gpPt5' transform='translate(1060.3,586.2) scale(2.25)' color='rgb(  0,   0, 255)'/>
	<use xlink:href='#gpPt5' transform='translate(1073.3,583.8) scale(2.25)' color='rgb(  0,   0, 255)'/>
	<use xlink:href='#gpPt5' transform='translate(1086.3,588.7) scale(2.25)' color='rgb(  0,   0, 255)'/>
	<use xlink:href='#gpPt5' transform='translate(1099.3,588.6) scale(2.25)' color='rgb(  0,   0, 255)'/>
	<use xlink:href='#gpPt5' transform='translate(1112.3,590.8) scale(2.25)' color='rgb(  0,   0, 255)'/>
	<use xlink:href='#gpPt5' transform='translate(1125.2,596.7) scale(2.25)' color='rgb(  0,   0, 255)'/>
	<use xlink:href='#gpPt5' transform='translate(1138.2,596.0) scale(2.25)' color='rgb(  0,   0, 255)'/>
	<use xlink:href='#gpPt5' transform='translate(1151.2,593.0) scale(2.25)' color='rgb(  0,   0, 255)'/>
	<use xlink:href='#gpPt5' transform='translate(1164.2,593.6) scale(2.25)' color='rgb(  0,   0, 255)'/>
	<use xlink:href='#gpPt5' transform='translate(1177.1,598.5) scale(2.25)' color='rgb(  0,   0, 255)'/>
	<use xlink:href='#gpPt5' transform='translate(1190.1,593.5) scale(2.25)' color='rgb(  0,   0, 255)'/>
	<use xlink:href='#gpPt5' transform='translate(1203.1,595.5) scale(2.25)' color='rgb(  0,   0, 255)'/>
	<use xlink:href='#gpPt5' transform='translate(1216.1,584.6) scale(2.25)' color='rgb(  0,   0, 255)'/>
	<use xlink:href='#gpPt5' transform='translate(1229.0,567.3) scale(2.25)' color='rgb(  0,   0, 255)'/>
	<use xlink:href='#gpPt5' transform='translate(1242.0,534.7) scale(2.25)' color='rgb(  0,   0, 255)'/>
	<use xlink:href='#gpPt5' transform='translate(1255.0,521.3) scale(2.25)' color='rgb(  0,   0, 255)'/>
</g>
	</g>
	<g id="gnuplot_plot_4" ><title>fit</title>
<g fill="none" color="black" stroke="currentColor" stroke-width="1.00" stroke-linecap="butt" stroke-linejoin="miter">
	<g transform="translate(1187.9,94.0)" stroke="none" fill="black" font-family="Arial" font-size="12.00"  text-anchor="end">
		<text><tspan font-family="Arial" >fit</tspan></text>
	</g>
</g>
<g fill="none" color="black" stroke="currentColor" stroke-width="1.00" stroke-linecap="butt" stroke-linejoin="miter">
	<path stroke='rgb(255,   0,   0)'  d='M1196.2,90.1 L1238.4,90.1 M87.1,58.9 L88.2,62.5 L89.4,72.4 L90.5,86.3 L91.7,102.3 L92.8,118.7
		L93.9,134.8 L95.1,150.1 L96.2,164.5 L97.4,177.8 L98.5,190.2 L99.7,201.7 L100.8,212.3 L101.9,222.1
		L103.1,231.2 L104.2,239.6 L105.4,247.5 L106.5,254.7 L107.6,261.5 L108.8,267.7 L109.9,273.6 L111.1,279.0
		L112.2,284.1 L113.4,288.9 L114.5,293.3 L115.6,297.5 L116.8,301.4 L117.9,305.1 L119.1,308.6 L120.2,311.9
		L121.3,315.0 L122.5,318.0 L123.6,320.8 L124.8,323.5 L125.9,326.1 L127.1,328.5 L128.2,330.9 L129.3,333.1
		L130.5,335.3 L131.6,337.4 L132.8,339.5 L133.9,341.4 L135.0,343.4 L136.2,345.2 L137.3,347.1 L138.5,348.8
		L139.6,350.6 L140.8,352.3 L141.9,353.9 L143.0,355.6 L144.2,357.2 L145.3,358.8 L146.5,360.3 L147.6,361.9
		L148.7,363.4 L149.9,364.9 L151.0,366.3 L152.2,367.8 L153.3,369.2 L154.5,370.6 L155.6,372.1 L156.7,373.5
		L157.9,374.8 L159.0,376.2 L160.2,377.6 L161.3,378.9 L162.4,380.2 L163.6,381.6 L164.7,382.9 L165.9,384.2
		L167.0,385.5 L168.2,386.7 L169.3,388.0 L170.4,389.3 L171.6,390.5 L172.7,391.8 L173.9,393.0 L175.0,394.3
		L176.1,395.5 L177.3,396.7 L178.4,397.9 L179.6,399.1 L180.7,400.3 L181.9,401.5 L183.0,402.7 L184.1,403.9
		L185.3,405.0 L186.4,406.2 L187.6,407.4 L188.7,408.5 L189.8,409.7 L191.0,410.8 L192.1,411.9 L193.3,413.0
		L194.4,414.2 L195.6,415.3 L196.7,416.4 L197.8,417.5 L199.0,418.6 L200.1,419.7 L201.3,420.7 L202.4,421.8
		L203.5,422.9 L204.7,423.9 L205.8,425.0 L207.0,426.1 L208.1,427.1 L209.3,428.1 L210.4,429.2 L211.5,430.2
		L212.7,431.2 L213.8,432.3 L215.0,433.3 L216.1,434.3 L217.2,435.3 L218.4,436.3 L219.5,437.3 L220.7,438.3
		L221.8,439.2 L223.0,440.2 L224.1,441.2 L225.2,442.2 L226.4,443.1 L227.5,444.1 L228.7,445.0 L229.8,446.0
		L230.9,446.9 L232.1,447.8 L233.2,448.8 L234.4,449.7 L235.5,450.6 L236.7,451.5 L237.8,452.5 L238.9,453.4
		L240.1,454.3 L241.2,455.2 L242.4,456.1 L243.5,456.9 L244.6,457.8 L245.8,458.7 L246.9,459.6 L248.1,460.5
		L249.2,461.3 L250.4,462.2 L251.5,463.0 L252.6,463.9 L253.8,464.7 L254.9,465.6 L256.1,466.4 L257.2,467.3
		L258.3,468.1 L259.5,468.9 L260.6,469.7 L261.8,470.6 L262.9,471.4 L264.1,472.2 L265.2,473.0 L266.3,473.8
		L267.5,474.6 L268.6,475.4 L269.8,476.2 L270.9,477.0 L272.0,477.8 L273.2,478.5 L274.3,479.3 L275.5,480.1
		L276.6,480.9 L277.8,481.6 L278.9,482.4 L280.0,483.1 L281.2,483.9 L282.3,484.7 L283.5,485.4 L284.6,486.1
		L285.7,486.9 L286.9,487.6 L288.0,488.4 L289.2,489.1 L290.3,489.8 L291.5,490.5 L292.6,491.3 L293.7,492.0
		L294.9,492.7 L296.0,493.4 L297.2,494.1 L298.3,494.8 L299.4,495.5 L300.6,496.2 L301.7,496.9 L302.9,497.6
		L304.0,498.3 L305.2,498.9 L306.3,499.6 L307.4,500.3 L308.6,501.0 L309.7,501.6 L310.9,502.3 L312.0,503.0
		L313.1,503.6 L314.3,504.3 L315.4,505.0 L316.6,505.6 L317.7,506.3 L318.9,506.9 L320.0,507.6 L321.1,508.2
		L322.3,508.8 L323.4,509.5 L324.6,510.1 L325.7,510.7 L326.8,511.4 L328.0,512.0 L329.1,512.6 L330.3,513.2
		L331.4,513.8 L332.6,514.5 L333.7,515.1 L334.8,515.7 L336.0,516.3 L337.1,516.9 L338.3,517.5 L339.4,518.1
		L340.5,518.7 L341.7,519.3 L342.8,519.9 L344.0,520.5 L345.1,521.0 L346.3,521.6 L347.4,522.2 L348.5,522.8
		L349.7,523.4 L350.8,523.9 L352.0,524.5 L353.1,525.1 L354.2,525.6 L355.4,526.2 L356.5,526.8 L357.7,527.3
		L358.8,527.9 L360.0,528.4 L361.1,529.0 L362.2,529.5 L363.4,530.1 L364.5,530.6 L365.7,531.2 L366.8,531.7
		L367.9,532.2 L369.1,532.8 L370.2,533.3 L371.4,533.9 L372.5,534.4 L373.7,534.9 L374.8,535.4 L375.9,536.0
		L377.1,536.5 L378.2,537.0 L379.4,537.5 L380.5,538.0 L381.6,538.5 L382.8,539.1 L383.9,539.6 L385.1,540.1
		L386.2,540.6 L387.4,541.1 L388.5,541.6 L389.6,542.1 L390.8,542.6 L391.9,543.1 L393.1,543.6 L394.2,544.1
		L395.3,544.5 L396.5,545.0 L397.6,545.5 L398.8,546.0 L399.9,546.5 L401.1,547.0 L402.2,547.4 L403.3,547.9
		L404.5,548.4 L405.6,548.9 L406.8,549.3 L407.9,549.8 L409.0,550.3 L410.2,550.7 L411.3,551.2 L412.5,551.7
		L413.6,552.1 L414.8,552.6 L415.9,553.0 L417.0,553.5 L418.2,553.9 L419.3,554.4 L420.5,554.8 L421.6,555.3
		L422.7,555.7 L423.9,556.2 L425.0,556.6 L426.2,557.1 L427.3,557.5 L428.5,557.9 L429.6,558.4 L430.7,558.8
		L431.9,559.2 L433.0,559.7 L434.2,560.1 L435.3,560.5 L436.4,560.9 L437.6,561.4 L438.7,561.8 L439.9,562.2
		L441.0,562.6 L442.2,563.0 L443.3,563.5 L444.4,563.9 L445.6,564.3 L446.7,564.7 L447.9,565.1 L449.0,565.5
		L450.1,565.9 L451.3,566.3 L452.4,566.7 L453.6,567.1 L454.7,567.5 L455.9,567.9 L457.0,568.3 L458.1,568.7
		L459.3,569.1 L460.4,569.5 L461.6,569.9 L462.7,570.3 L463.8,570.7 L465.0,571.1 L466.1,571.5 L467.3,571.9
		L468.4,572.2 L469.6,572.6 L470.7,573.0 L471.8,573.4 L473.0,573.8 L474.1,574.1 L475.3,574.5 L476.4,574.9
		L477.5,575.2 L478.7,575.6 L479.8,576.0 L481.0,576.4 L482.1,576.7 L483.2,577.1 L484.4,577.5 L485.5,577.8
		L486.7,578.2 L487.8,578.5 L489.0,578.9 L490.1,579.3 L491.2,579.6 L492.4,580.0 L493.5,580.3 L494.7,580.7
		L495.8,581.0 L496.9,581.4 L498.1,581.7 L499.2,582.1 L500.4,582.4 L501.5,582.7 L502.7,583.1 L503.8,583.4
		L504.9,583.8 L506.1,584.1 L507.2,584.4 L508.4,584.8 L509.5,585.1 L510.6,585.5 L511.8,585.8 L512.9,586.1
		L514.1,586.4 L515.2,586.8 L516.4,587.1 L517.5,587.4 L518.6,587.8 L519.8,588.1 L520.9,588.4 L522.1,588.7
		L523.2,589.0 L524.3,589.4 L525.5,589.7 L526.6,590.0 L527.8,590.3 L528.9,590.6 L530.1,590.9 L531.2,591.2
		L532.3,591.6 L533.5,591.9 L534.6,592.2 L535.8,592.5 L536.9,592.8 L538.0,593.1 L539.2,593.4 L540.3,593.7
		L541.5,594.0 L542.6,594.3 L543.8,594.6 L544.9,594.9 L546.0,595.2 L547.2,595.5 L548.3,595.8 L549.5,596.1
		L550.6,596.4 L551.7,596.7 L552.9,597.0 L554.0,597.2 L555.2,597.5 L556.3,597.8 L557.5,598.1 L558.6,598.4
		L559.7,598.7 L560.9,598.9 L562.0,599.2 L563.2,599.5 L564.3,599.8 L565.4,600.1 L566.6,600.3 L567.7,600.6
		L568.9,600.9 L570.0,601.2 L571.2,601.4 L572.3,601.7 L573.4,602.0 L574.6,602.2 L575.7,602.5 L576.9,602.8
		L578.0,603.0 L579.1,603.3 L580.3,603.6 L581.4,603.8 L582.6,604.1 L583.7,604.4 L584.9,604.6 L586.0,604.9
		L587.1,605.1 L588.3,605.4 L589.4,605.6 L590.6,605.9 L591.7,606.1 L592.8,606.4 L594.0,606.6 L595.1,606.9
		L596.3,607.1 L597.4,607.4 L598.6,607.6 L599.7,607.9 L600.8,608.1 L602.0,608.4 L603.1,608.6 L604.3,608.8
		L605.4,609.1 L606.5,609.3 L607.7,609.6 L608.8,609.8 L610.0,610.0 L611.1,610.3 L612.3,610.5 L613.4,610.7
		L614.5,611.0 L615.7,611.2 L616.8,611.4 L618.0,611.7 L619.1,611.9 L620.2,612.1 L621.4,612.3 L622.5,612.6
		L623.7,612.8 L624.8,613.0 L626.0,613.2 L627.1,613.4 L628.2,613.7 L629.4,613.9 L630.5,614.1 L631.7,614.3
		L632.8,614.5 L633.9,614.7 L635.1,615.0 L636.2,615.2 L637.4,615.4 L638.5,615.6 L639.7,615.8 L640.8,616.0
		L641.9,616.2 L643.1,616.4 L644.2,616.6 L645.4,616.8 L646.5,617.0 L647.6,617.2 L648.8,617.4 L649.9,617.6
		L651.1,617.8 L652.2,618.0 L653.4,618.2 L654.5,618.4 L655.6,618.6 L656.8,618.8 L657.9,619.0 L659.1,619.2
		L660.2,619.4 L661.3,619.6 L662.5,619.8 L663.6,619.9 L664.8,620.1 L665.9,620.3 L667.1,620.5 L668.2,620.7
		L669.3,620.9 L670.5,621.0 L671.6,621.2 L672.8,621.4 L673.9,621.6 L675.0,621.8 L676.2,621.9 L677.3,622.1
		L678.5,622.3 L679.6,622.5 L680.8,622.6 L681.9,622.8 L683.0,623.0 L684.2,623.1 L685.3,623.3 L686.5,623.5
		L687.6,623.6 L688.7,623.8 L689.9,624.0 L691.0,624.1 L692.2,624.3 L693.3,624.4 L694.5,624.6 L695.6,624.8
		L696.7,624.9 L697.9,625.1 L699.0,625.2 L700.2,625.4 L701.3,625.5 L702.4,625.7 L703.6,625.8 L704.7,626.0
		L705.9,626.1 L707.0,626.3 L708.2,626.4 L709.3,626.6 L710.4,626.7 L711.6,626.9 L712.7,627.0 L713.9,627.1
		L715.0,627.3 L716.1,627.4 L717.3,627.6 L718.4,627.7 L719.6,627.8 L720.7,628.0 L721.9,628.1 L723.0,628.2
		L724.1,628.4 L725.3,628.5 L726.4,628.6 L727.6,628.7 L728.7,628.9 L729.8,629.0 L731.0,629.1 L732.1,629.2
		L733.3,629.4 L734.4,629.5 L735.6,629.6 L736.7,629.7 L737.8,629.8 L739.0,630.0 L740.1,630.1 L741.3,630.2
		L742.4,630.3 L743.5,630.4 L744.7,630.5 L745.8,630.6 L747.0,630.7 L748.1,630.8 L749.3,631.0 L750.4,631.1
		L751.5,631.2 L752.7,631.3 L753.8,631.4 L755.0,631.5 L756.1,631.6 L757.2,631.7 L758.4,631.8 L759.5,631.9
		L760.7,632.0 L761.8,632.0 L763.0,632.1 L764.1,632.2 L765.2,632.3 L766.4,632.4 L767.5,632.5 L768.7,632.6
		L769.8,632.7 L770.9,632.8 L772.1,632.8 L773.2,632.9 L774.4,633.0 L775.5,633.1 L776.7,633.2 L777.8,633.2
		L778.9,633.3 L780.1,633.4 L781.2,633.4 L782.4,633.5 L783.5,633.6 L784.6,633.7 L785.8,633.7 L786.9,633.8
		L788.1,633.9 L789.2,633.9 L790.4,634.0 L791.5,634.0 L792.6,634.1 L793.8,634.2 L794.9,634.2 L796.1,634.3
		L797.2,634.3 L798.3,634.4 L799.5,634.4 L800.6,634.5 L801.8,634.5 L802.9,634.6 L804.1,634.6 L805.2,634.7
		L806.3,634.7 L807.5,634.8 L808.6,634.8 L809.8,634.9 L810.9,634.9 L812.0,634.9 L813.2,635.0 L814.3,635.0
		L815.5,635.0 L816.6,635.1 L817.8,635.1 L818.9,635.1 L820.0,635.2 L821.2,635.2 L822.3,635.2 L823.5,635.2
		L824.6,635.3 L825.7,635.3 L826.9,635.3 L828.0,635.3 L829.2,635.3 L830.3,635.3 L831.5,635.4 L832.6,635.4
		L833.7,635.4 L834.9,635.4 L836.0,635.4 L837.2,635.4 L838.3,635.4 L839.4,635.4 L840.6,635.4 L841.7,635.4
		L842.9,635.4 L844.0,635.4 L845.2,635.4 L846.3,635.4 L847.4,635.4 L848.6,635.4 L849.7,635.4 L850.9,635.4
		L852.0,635.4 L853.1,635.4 L854.3,635.3 L855.4,635.3 L856.6,635.3 L857.7,635.3 L858.9,635.3 L860.0,635.2
		L861.1,635.2 L862.3,635.2 L863.4,635.2 L864.6,635.1 L865.7,635.1 L866.8,635.1 L868.0,635.0 L869.1,635.0
		L870.3,635.0 L871.4,634.9 L872.5,634.9 L873.7,634.8 L874.8,634.8 L876.0,634.7 L877.1,634.7 L878.3,634.6
		L879.4,634.6 L880.5,634.5 L881.7,634.5 L882.8,634.4 L884.0,634.4 L885.1,634.3 L886.2,634.3 L887.4,634.2
		L888.5,634.1 L889.7,634.1 L890.8,634.0 L892.0,633.9 L893.1,633.8 L894.2,633.8 L895.4,633.7 L896.5,633.6
		L897.7,633.5 L898.8,633.5 L899.9,633.4 L901.1,633.3 L902.2,633.2 L903.4,633.1 L904.5,633.0 L905.7,633.0
		L906.8,632.9 L907.9,632.8 L909.1,632.7 L910.2,632.6 L911.4,632.5 L912.5,632.4 L913.6,632.3 L914.8,632.2
		L915.9,632.1 L917.1,631.9 L918.2,631.8 L919.4,631.7 L920.5,631.6 L921.6,631.5 L922.8,631.4 L923.9,631.3
		L925.1,631.1 L926.2,631.0 L927.3,630.9 L928.5,630.8 L929.6,630.6 L930.8,630.5 L931.9,630.4 L933.1,630.2
		L934.2,630.1 L935.3,629.9 L936.5,629.8 L937.6,629.7 L938.8,629.5 L939.9,629.4 L941.0,629.2 L942.2,629.1
		L943.3,628.9 L944.5,628.8 L945.6,628.6 L946.8,628.4 L947.9,628.3 L949.0,628.1 L950.2,628.0 L951.3,627.8
		L952.5,627.6 L953.6,627.5 L954.7,627.3 L955.9,627.1 L957.0,626.9 L958.2,626.7 L959.3,626.6 L960.5,626.4
		L961.6,626.2 L962.7,626.0 L963.9,625.8 L965.0,625.6 L966.2,625.4 L967.3,625.2 L968.4,625.0 L969.6,624.8
		L970.7,624.6 L971.9,624.4 L973.0,624.2 L974.2,624.0 L975.3,623.8 L976.4,623.6 L977.6,623.4 L978.7,623.2
		L979.9,623.0 L981.0,622.7 L982.1,622.5 L983.3,622.3 L984.4,622.1 L985.6,621.8 L986.7,621.6 L987.9,621.4
		L989.0,621.1 L990.1,620.9 L991.3,620.7 L992.4,620.4 L993.6,620.2 L994.7,619.9 L995.8,619.7 L997.0,619.4
		L998.1,619.2 L999.3,618.9 L1000.4,618.7 L1001.6,618.4 L1002.7,618.2 L1003.8,617.9 L1005.0,617.6 L1006.1,617.4
		L1007.3,617.1 L1008.4,616.8 L1009.5,616.6 L1010.7,616.3 L1011.8,616.0 L1013.0,615.7 L1014.1,615.5 L1015.3,615.2
		L1016.4,614.9 L1017.5,614.6 L1018.7,614.3 L1019.8,614.0 L1021.0,613.7 L1022.1,613.4 L1023.2,613.1 L1024.4,612.9
		L1025.5,612.5 L1026.7,612.2 L1027.8,611.9 L1029.0,611.6 L1030.1,611.3 L1031.2,611.0 L1032.4,610.7 L1033.5,610.4
		L1034.7,610.1 L1035.8,609.8 L1036.9,609.4 L1038.1,609.1 L1039.2,608.8 L1040.4,608.5 L1041.5,608.1 L1042.7,607.8
		L1043.8,607.5 L1044.9,607.1 L1046.1,606.8 L1047.2,606.5 L1048.4,606.1 L1049.5,605.8 L1050.6,605.4 L1051.8,605.1
		L1052.9,604.8 L1054.1,604.4 L1055.2,604.1 L1056.4,603.7 L1057.5,603.3 L1058.6,603.0 L1059.8,602.6 L1060.9,602.3
		L1062.1,601.9 L1063.2,601.6 L1064.3,601.2 L1065.5,600.8 L1066.6,600.5 L1067.8,600.1 L1068.9,599.7 L1070.1,599.3
		L1071.2,599.0 L1072.3,598.6 L1073.5,598.2 L1074.6,597.8 L1075.8,597.5 L1076.9,597.1 L1078.0,596.7 L1079.2,596.3
		L1080.3,595.9 L1081.5,595.5 L1082.6,595.2 L1083.8,594.8 L1084.9,594.4 L1086.0,594.0 L1087.2,593.6 L1088.3,593.2
		L1089.5,592.8 L1090.6,592.4 L1091.7,592.0 L1092.9,591.6 L1094.0,591.2 L1095.2,590.8 L1096.3,590.4 L1097.5,590.0
		L1098.6,589.6 L1099.7,589.2 L1100.9,588.8 L1102.0,588.4 L1103.2,588.0 L1104.3,587.6 L1105.4,587.2 L1106.6,586.8
		L1107.7,586.3 L1108.9,585.9 L1110.0,585.5 L1111.2,585.1 L1112.3,584.7 L1113.4,584.3 L1114.6,583.9 L1115.7,583.5
		L1116.9,583.0 L1118.0,582.6 L1119.1,582.2 L1120.3,581.8 L1121.4,581.4 L1122.6,581.0 L1123.7,580.6 L1124.9,580.1
		L1126.0,579.7 L1127.1,579.3 L1128.3,578.9 L1129.4,578.5 L1130.6,578.1 L1131.7,577.6 L1132.8,577.2 L1134.0,576.8
		L1135.1,576.4 L1136.3,576.0 L1137.4,575.6 L1138.6,575.2 L1139.7,574.8 L1140.8,574.3 L1142.0,573.9 L1143.1,573.5
		L1144.3,573.1 L1145.4,572.7 L1146.5,572.3 L1147.7,571.9 L1148.8,571.5 L1150.0,571.1 L1151.1,570.7 L1152.3,570.3
		L1153.4,569.9 L1154.5,569.5 L1155.7,569.1 L1156.8,568.7 L1158.0,568.3 L1159.1,567.9 L1160.2,567.5 L1161.4,567.1
		L1162.5,566.8 L1163.7,566.4 L1164.8,566.0 L1166.0,565.6 L1167.1,565.2 L1168.2,564.9 L1169.4,564.5 L1170.5,564.1
		L1171.7,563.7 L1172.8,563.4 L1173.9,563.0 L1175.1,562.7 L1176.2,562.3 L1177.4,561.9 L1178.5,561.6 L1179.7,561.2
		L1180.8,560.9 L1181.9,560.6 L1183.1,560.2 L1184.2,559.9 L1185.4,559.5 L1186.5,559.2 L1187.6,558.9 L1188.8,558.6
		L1189.9,558.2 L1191.1,557.9 L1192.2,557.6 L1193.4,557.3 L1194.5,557.0 L1195.6,556.7 L1196.8,556.4 L1197.9,556.1
		L1199.1,555.8 L1200.2,555.6 L1201.3,555.3 L1202.5,555.0 L1203.6,554.7 L1204.8,554.5 L1205.9,554.2 L1207.1,554.0
		L1208.2,553.7 L1209.3,553.5 L1210.5,553.2 L1211.6,553.0 L1212.8,552.8 L1213.9,552.6 L1215.0,552.3 L1216.2,552.1
		L1217.3,551.9 L1218.5,551.7 L1219.6,551.5 L1220.8,551.3 L1221.9,551.1 L1223.0,551.0 L1224.2,550.8 L1225.3,550.6
		L1226.5,550.5 L1227.6,550.3 L1228.7,550.2 L1229.9,550.0 L1231.0,549.9 L1232.2,549.7 L1233.3,549.6 L1234.5,549.5
		L1235.6,549.4 L1236.7,549.3 L1237.9,549.2 L1239.0,549.1 L1240.2,549.0 L1241.3,548.9 L1242.4,548.8 L1243.6,548.8
		L1244.7,548.7 L1245.9,548.7 L1247.0,548.6 L1248.2,548.6 L1249.3,548.5 L1250.4,548.5 L1251.6,548.5 L1252.7,548.5
		L1253.9,548.5 L1255.0,548.5  '/></g>
	</g>
	<g id="gnuplot_plot_5" ><title>gnuplot_plot_5</title>
<g fill="none" color="black" stroke="currentColor" stroke-width="1.00" stroke-linecap="butt" stroke-linejoin="miter">
	<path stroke='rgb(  0, 100,   0)'  d='M87.1,60.9 L88.2,64.5 L89.4,74.3 L90.5,88.3 L91.7,104.2 L92.8,120.7 L93.9,136.8 L95.1,152.2
		L96.2,166.6 L97.4,180.0 L98.5,192.4 L99.7,203.9 L100.8,214.6 L101.9,224.5 L103.1,233.7 L104.2,242.2
		L105.4,250.1 L106.5,257.5 L107.6,264.3 L108.8,270.7 L109.9,276.6 L111.1,282.2 L112.2,287.3 L113.4,292.2
		L114.5,296.7 L115.6,301.0 L116.8,305.0 L117.9,308.8 L119.1,312.3 L120.2,315.7 L121.3,318.9 L122.5,321.9
		L123.6,324.7 L124.8,327.5 L125.9,330.1 L127.1,332.5 L128.2,334.9 L129.3,337.2 L130.5,339.4 L131.6,341.5
		L132.8,343.5 L133.9,345.5 L135.0,347.4 L136.2,349.3 L137.3,351.1 L138.5,352.9 L139.6,354.6 L140.8,356.3
		L141.9,357.9 L143.0,359.5 L144.2,361.1 L145.3,362.6 L146.5,364.1 L147.6,365.6 L148.7,367.1 L149.9,368.6
		L151.0,370.0 L152.2,371.4 L153.3,372.8 L154.5,374.2 L155.6,375.6 L156.7,376.9 L157.9,378.2 L159.0,379.6
		L160.2,380.9 L161.3,382.2 L162.4,383.5 L163.6,384.7 L164.7,386.0 L165.9,387.3 L167.0,388.5 L168.2,389.8
		L169.3,391.0 L170.4,392.2 L171.6,393.4 L172.7,394.6 L173.9,395.8 L175.0,397.0 L176.1,398.2 L177.3,399.4
		L178.4,400.5 L179.6,401.7 L180.7,402.8 L181.9,404.0 L183.0,405.1 L184.1,406.3 L185.3,407.4 L186.4,408.5
		L187.6,409.6 L188.7,410.8 L189.8,411.9 L191.0,413.0 L192.1,414.0 L193.3,415.1 L194.4,416.2 L195.6,417.3
		L196.7,418.4 L197.8,419.4 L199.0,420.5 L200.1,421.5 L201.3,422.6 L202.4,423.6 L203.5,424.7 L204.7,425.7
		L205.8,426.7 L207.0,427.7 L208.1,428.8 L209.3,429.8 L210.4,430.8 L211.5,431.8 L212.7,432.8 L213.8,433.8
		L215.0,434.7 L216.1,435.7 L217.2,436.7 L218.4,437.7 L219.5,438.6 L220.7,439.6 L221.8,440.6 L223.0,441.5
		L224.1,442.5 L225.2,443.4 L226.4,444.3 L227.5,445.3 L228.7,446.2 L229.8,447.1 L230.9,448.0 L232.1,448.9
		L233.2,449.9 L234.4,450.8 L235.5,451.7 L236.7,452.6 L237.8,453.4 L238.9,454.3 L240.1,455.2 L241.2,456.1
		L242.4,457.0 L243.5,457.8 L244.6,458.7 L245.8,459.6 L246.9,460.4 L248.1,461.3 L249.2,462.1 L250.4,463.0
		L251.5,463.8 L252.6,464.6 L253.8,465.5 L254.9,466.3 L256.1,467.1 L257.2,467.9 L258.3,468.8 L259.5,469.6
		L260.6,470.4 L261.8,471.2 L262.9,472.0 L264.1,472.8 L265.2,473.6 L266.3,474.4 L267.5,475.2 L268.6,475.9
		L269.8,476.7 L270.9,477.5 L272.0,478.3 L273.2,479.0 L274.3,479.8 L275.5,480.6 L276.6,481.3 L277.8,482.1
		L278.9,482.8 L280.0,483.6 L281.2,484.3 L282.3,485.0 L283.5,485.8 L284.6,486.5 L285.7,487.2 L286.9,488.0
		L288.0,488.7 L289.2,489.4 L290.3,490.1 L291.5,490.8 L292.6,491.5 L293.7,492.2 L294.9,492.9 L296.0,493.6
		L297.2,494.3 L298.3,495.0 L299.4,495.7 L300.6,496.4 L301.7,497.1 L302.9,497.8 L304.0,498.5 L305.2,499.1
		L306.3,499.8 L307.4,500.5 L308.6,501.1 L309.7,501.8 L310.9,502.5 L312.0,503.1 L313.1,503.8 L314.3,504.4
		L315.4,505.1 L316.6,505.7 L317.7,506.4 L318.9,507.0 L320.0,507.6 L321.1,508.3 L322.3,508.9 L323.4,509.5
		L324.6,510.2 L325.7,510.8 L326.8,511.4 L328.0,512.0 L329.1,512.6 L330.3,513.2 L331.4,513.9 L332.6,514.5
		L333.7,515.1 L334.8,515.7 L336.0,516.3 L337.1,516.9 L338.3,517.5 L339.4,518.1 L340.5,518.6 L341.7,519.2
		L342.8,519.8 L344.0,520.4 L345.1,521.0 L346.3,521.6 L347.4,522.1 L348.5,522.7 L349.7,523.3 L350.8,523.8
		L352.0,524.4 L353.1,525.0 L354.2,525.5 L355.4,526.1 L356.5,526.6 L357.7,527.2 L358.8,527.8 L360.0,528.3
		L361.1,528.9 L362.2,529.4 L363.4,529.9 L364.5,530.5 L365.7,531.0 L366.8,531.6 L367.9,532.1 L369.1,532.6
		L370.2,533.2 L371.4,533.7 L372.5,534.2 L373.7,534.7 L374.8,535.3 L375.9,535.8 L377.1,536.3 L378.2,536.8
		L379.4,537.3 L380.5,537.8 L381.6,538.3 L382.8,538.8 L383.9,539.4 L385.1,539.9 L386.2,540.4 L387.4,540.9
		L388.5,541.4 L389.6,541.9 L390.8,542.3 L391.9,542.8 L393.1,543.3 L394.2,543.8 L395.3,544.3 L396.5,544.8
		L397.6,545.3 L398.8,545.8 L399.9,546.2 L401.1,546.7 L402.2,547.2 L403.3,547.7 L404.5,548.1 L405.6,548.6
		L406.8,549.1 L407.9,549.5 L409.0,550.0 L410.2,550.5 L411.3,550.9 L412.5,551.4 L413.6,551.8 L414.8,552.3
		L415.9,552.7 L417.0,553.2 L418.2,553.6 L419.3,554.1 L420.5,554.5 L421.6,555.0 L422.7,555.4 L423.9,555.9
		L425.0,556.3 L426.2,556.7 L427.3,557.2 L428.5,557.6 L429.6,558.1 L430.7,558.5 L431.9,558.9 L433.0,559.3
		L434.2,559.8 L435.3,560.2 L436.4,560.6 L437.6,561.0 L438.7,561.5 L439.9,561.9 L441.0,562.3 L442.2,562.7
		L443.3,563.1 L444.4,563.5 L445.6,564.0 L446.7,564.4 L447.9,564.8 L449.0,565.2 L450.1,565.6 L451.3,566.0
		L452.4,566.4 L453.6,566.8 L454.7,567.2 L455.9,567.6 L457.0,568.0 L458.1,568.4 L459.3,568.8 L460.4,569.2
		L461.6,569.6 L462.7,570.0 L463.8,570.3 L465.0,570.7 L466.1,571.1 L467.3,571.5 L468.4,571.9 L469.6,572.3
		L470.7,572.6 L471.8,573.0 L473.0,573.4 L474.1,573.8 L475.3,574.1 L476.4,574.5 L477.5,574.9 L478.7,575.3
		L479.8,575.6 L481.0,576.0 L482.1,576.4 L483.2,576.7 L484.4,577.1 L485.5,577.4 L486.7,577.8 L487.8,578.2
		L489.0,578.5 L490.1,578.9 L491.2,579.2 L492.4,579.6 L493.5,579.9 L494.7,580.3 L495.8,580.6 L496.9,581.0
		L498.1,581.3 L499.2,581.7 L500.4,582.0 L501.5,582.4 L502.7,582.7 L503.8,583.1 L504.9,583.4 L506.1,583.7
		L507.2,584.1 L508.4,584.4 L509.5,584.7 L510.6,585.1 L511.8,585.4 L512.9,585.7 L514.1,586.1 L515.2,586.4
		L516.4,586.7 L517.5,587.1 L518.6,587.4 L519.8,587.7 L520.9,588.0 L522.1,588.4 L523.2,588.7 L524.3,589.0
		L525.5,589.3 L526.6,589.6 L527.8,589.9 L528.9,590.3 L530.1,590.6 L531.2,590.9 L532.3,591.2 L533.5,591.5
		L534.6,591.8 L535.8,592.1 L536.9,592.4 L538.0,592.7 L539.2,593.0 L540.3,593.3 L541.5,593.6 L542.6,593.9
		L543.8,594.2 L544.9,594.5 L546.0,594.8 L547.2,595.1 L548.3,595.4 L549.5,595.7 L550.6,596.0 L551.7,596.3
		L552.9,596.6 L554.0,596.9 L555.2,597.2 L556.3,597.5 L557.5,597.8 L558.6,598.0 L559.7,598.3 L560.9,598.6
		L562.0,598.9 L563.2,599.2 L564.3,599.4 L565.4,599.7 L566.6,600.0 L567.7,600.3 L568.9,600.6 L570.0,600.8
		L571.2,601.1 L572.3,601.4 L573.4,601.6 L574.6,601.9 L575.7,602.2 L576.9,602.5 L578.0,602.7 L579.1,603.0
		L580.3,603.3 L581.4,603.5 L582.6,603.8 L583.7,604.0 L584.9,604.3 L586.0,604.6 L587.1,604.8 L588.3,605.1
		L589.4,605.3 L590.6,605.6 L591.7,605.8 L592.8,606.1 L594.0,606.3 L595.1,606.6 L596.3,606.8 L597.4,607.1
		L598.6,607.3 L599.7,607.6 L600.8,607.8 L602.0,608.1 L603.1,608.3 L604.3,608.6 L605.4,608.8 L606.5,609.1
		L607.7,609.3 L608.8,609.5 L610.0,609.8 L611.1,610.0 L612.3,610.2 L613.4,610.5 L614.5,610.7 L615.7,610.9
		L616.8,611.2 L618.0,611.4 L619.1,611.6 L620.2,611.9 L621.4,612.1 L622.5,612.3 L623.7,612.5 L624.8,612.8
		L626.0,613.0 L627.1,613.2 L628.2,613.4 L629.4,613.7 L630.5,613.9 L631.7,614.1 L632.8,614.3 L633.9,614.5
		L635.1,614.7 L636.2,615.0 L637.4,615.2 L638.5,615.4 L639.7,615.6 L640.8,615.8 L641.9,616.0 L643.1,616.2
		L644.2,616.4 L645.4,616.6 L646.5,616.8 L647.6,617.1 L648.8,617.3 L649.9,617.5 L651.1,617.7 L652.2,617.9
		L653.4,618.1 L654.5,618.3 L655.6,618.5 L656.8,618.7 L657.9,618.8 L659.1,619.0 L660.2,619.2 L661.3,619.4
		L662.5,619.6 L663.6,619.8 L664.8,620.0 L665.9,620.2 L667.1,620.4 L668.2,620.6 L669.3,620.8 L670.5,620.9
		L671.6,621.1 L672.8,621.3 L673.9,621.5 L675.0,621.7 L676.2,621.8 L677.3,622.0 L678.5,622.2 L679.6,622.4
		L680.8,622.6 L681.9,622.7 L683.0,622.9 L684.2,623.1 L685.3,623.2 L686.5,623.4 L687.6,623.6 L688.7,623.8
		L689.9,623.9 L691.0,624.1 L692.2,624.3 L693.3,624.4 L694.5,624.6 L695.6,624.7 L696.7,624.9 L697.9,625.1
		L699.0,625.2 L700.2,625.4 L701.3,625.5 L702.4,625.7 L703.6,625.9 L704.7,626.0 L705.9,626.2 L707.0,626.3
		L708.2,626.5 L709.3,626.6 L710.4,626.8 L711.6,626.9 L712.7,627.1 L713.9,627.2 L715.0,627.3 L716.1,627.5
		L717.3,627.6 L718.4,627.8 L719.6,627.9 L720.7,628.1 L721.9,628.2 L723.0,628.3 L724.1,628.5 L725.3,628.6
		L726.4,628.7 L727.6,628.9 L728.7,629.0 L729.8,629.1 L731.0,629.3 L732.1,629.4 L733.3,629.5 L734.4,629.7
		L735.6,629.8 L736.7,629.9 L737.8,630.0 L739.0,630.1 L740.1,630.3 L741.3,630.4 L742.4,630.5 L743.5,630.6
		L744.7,630.7 L745.8,630.9 L747.0,631.0 L748.1,631.1 L749.3,631.2 L750.4,631.3 L751.5,631.4 L752.7,631.5
		L753.8,631.6 L755.0,631.8 L756.1,631.9 L757.2,632.0 L758.4,632.1 L759.5,632.2 L760.7,632.3 L761.8,632.4
		L763.0,632.5 L764.1,632.6 L765.2,632.7 L766.4,632.8 L767.5,632.9 L768.7,632.9 L769.8,633.0 L770.9,633.1
		L772.1,633.2 L773.2,633.3 L774.4,633.4 L775.5,633.5 L776.7,633.6 L777.8,633.7 L778.9,633.7 L780.1,633.8
		L781.2,633.9 L782.4,634.0 L783.5,634.1 L784.6,634.1 L785.8,634.2 L786.9,634.3 L788.1,634.4 L789.2,634.4
		L790.4,634.5 L791.5,634.6 L792.6,634.6 L793.8,634.7 L794.9,634.8 L796.1,634.8 L797.2,634.9 L798.3,635.0
		L799.5,635.0 L800.6,635.1 L801.8,635.1 L802.9,635.2 L804.1,635.3 L805.2,635.3 L806.3,635.4 L807.5,635.4
		L808.6,635.5 L809.8,635.5 L810.9,635.6 L812.0,635.6 L813.2,635.7 L814.3,635.7 L815.5,635.7 L816.6,635.8
		L817.8,635.8 L818.9,635.9 L820.0,635.9 L821.2,635.9 L822.3,636.0 L823.5,636.0 L824.6,636.0 L825.7,636.1
		L826.9,636.1 L828.0,636.1 L829.2,636.2 L830.3,636.2 L831.5,636.2 L832.6,636.2 L833.7,636.3 L834.9,636.3
		L836.0,636.3 L837.2,636.3 L838.3,636.3 L839.4,636.3 L840.6,636.3 L841.7,636.4 L842.9,636.4 L844.0,636.4
		L845.2,636.4 L846.3,636.4 L847.4,636.4 L848.6,636.4 L849.7,636.4 L850.9,636.4 L852.0,636.4 L853.1,636.4
		L854.3,636.4 L855.4,636.4 L856.6,636.4 L857.7,636.4 L858.9,636.4 L860.0,636.3 L861.1,636.3 L862.3,636.3
		L863.4,636.3 L864.6,636.3 L865.7,636.3 L866.8,636.2 L868.0,636.2 L869.1,636.2 L870.3,636.2 L871.4,636.1
		L872.5,636.1 L873.7,636.1 L874.8,636.0 L876.0,636.0 L877.1,636.0 L878.3,635.9 L879.4,635.9 L880.5,635.9
		L881.7,635.8 L882.8,635.8 L884.0,635.7 L885.1,635.7 L886.2,635.6 L887.4,635.6 L888.5,635.5 L889.7,635.5
		L890.8,635.4 L892.0,635.4 L893.1,635.3 L894.2,635.2 L895.4,635.2 L896.5,635.1 L897.7,635.1 L898.8,635.0
		L899.9,634.9 L901.1,634.8 L902.2,634.8 L903.4,634.7 L904.5,634.6 L905.7,634.5 L906.8,634.5 L907.9,634.4
		L909.1,634.3 L910.2,634.2 L911.4,634.1 L912.5,634.0 L913.6,634.0 L914.8,633.9 L915.9,633.8 L917.1,633.7
		L918.2,633.6 L919.4,633.5 L920.5,633.4 L921.6,633.3 L922.8,633.2 L923.9,633.1 L925.1,633.0 L926.2,632.8
		L927.3,632.7 L928.5,632.6 L929.6,632.5 L930.8,632.4 L931.9,632.3 L933.1,632.1 L934.2,632.0 L935.3,631.9
		L936.5,631.8 L937.6,631.6 L938.8,631.5 L939.9,631.4 L941.0,631.2 L942.2,631.1 L943.3,631.0 L944.5,630.8
		L945.6,630.7 L946.8,630.5 L947.9,630.4 L949.0,630.2 L950.2,630.1 L951.3,629.9 L952.5,629.8 L953.6,629.6
		L954.7,629.5 L955.9,629.3 L957.0,629.1 L958.2,629.0 L959.3,628.8 L960.5,628.6 L961.6,628.5 L962.7,628.3
		L963.9,628.1 L965.0,627.9 L966.2,627.8 L967.3,627.6 L968.4,627.4 L969.6,627.2 L970.7,627.0 L971.9,626.8
		L973.0,626.6 L974.2,626.5 L975.3,626.3 L976.4,626.1 L977.6,625.9 L978.7,625.7 L979.9,625.5 L981.0,625.3
		L982.1,625.0 L983.3,624.8 L984.4,624.6 L985.6,624.4 L986.7,624.2 L987.9,624.0 L989.0,623.8 L990.1,623.5
		L991.3,623.3 L992.4,623.1 L993.6,622.9 L994.7,622.6 L995.8,622.4 L997.0,622.2 L998.1,621.9 L999.3,621.7
		L1000.4,621.4 L1001.6,621.2 L1002.7,620.9 L1003.8,620.7 L1005.0,620.4 L1006.1,620.2 L1007.3,619.9 L1008.4,619.7
		L1009.5,619.4 L1010.7,619.2 L1011.8,618.9 L1013.0,618.6 L1014.1,618.4 L1015.3,618.1 L1016.4,617.8 L1017.5,617.6
		L1018.7,617.3 L1019.8,617.0 L1021.0,616.7 L1022.1,616.5 L1023.2,616.2 L1024.4,615.9 L1025.5,615.6 L1026.7,615.3
		L1027.8,615.0 L1029.0,614.7 L1030.1,614.4 L1031.2,614.1 L1032.4,613.8 L1033.5,613.5 L1034.7,613.2 L1035.8,612.9
		L1036.9,612.6 L1038.1,612.3 L1039.2,612.0 L1040.4,611.7 L1041.5,611.4 L1042.7,611.1 L1043.8,610.7 L1044.9,610.4
		L1046.1,610.1 L1047.2,609.8 L1048.4,609.4 L1049.5,609.1 L1050.6,608.8 L1051.8,608.4 L1052.9,608.1 L1054.1,607.8
		L1055.2,607.4 L1056.4,607.1 L1057.5,606.8 L1058.6,606.4 L1059.8,606.1 L1060.9,605.7 L1062.1,605.4 L1063.2,605.0
		L1064.3,604.7 L1065.5,604.3 L1066.6,604.0 L1067.8,603.6 L1068.9,603.2 L1070.1,602.9 L1071.2,602.5 L1072.3,602.2
		L1073.5,601.8 L1074.6,601.4 L1075.8,601.1 L1076.9,600.7 L1078.0,600.3 L1079.2,599.9 L1080.3,599.6 L1081.5,599.2
		L1082.6,598.8 L1083.8,598.4 L1084.9,598.1 L1086.0,597.7 L1087.2,597.3 L1088.3,596.9 L1089.5,596.5 L1090.6,596.1
		L1091.7,595.7 L1092.9,595.4 L1094.0,595.0 L1095.2,594.6 L1096.3,594.2 L1097.5,593.8 L1098.6,593.4 L1099.7,593.0
		L1100.9,592.6 L1102.0,592.2 L1103.2,591.8 L1104.3,591.4 L1105.4,591.0 L1106.6,590.6 L1107.7,590.2 L1108.9,589.8
		L1110.0,589.4 L1111.2,589.0 L1112.3,588.6 L1113.4,588.2 L1114.6,587.8 L1115.7,587.4 L1116.9,587.0 L1118.0,586.6
		L1119.1,586.2 L1120.3,585.8 L1121.4,585.4 L1122.6,584.9 L1123.7,584.5 L1124.9,584.1 L1126.0,583.7 L1127.1,583.3
		L1128.3,582.9 L1129.4,582.5 L1130.6,582.1 L1131.7,581.7 L1132.8,581.3 L1134.0,580.9 L1135.1,580.5 L1136.3,580.1
		L1137.4,579.7 L1138.6,579.3 L1139.7,578.8 L1140.8,578.4 L1142.0,578.0 L1143.1,577.6 L1144.3,577.2 L1145.4,576.8
		L1146.5,576.4 L1147.7,576.0 L1148.8,575.6 L1150.0,575.2 L1151.1,574.8 L1152.3,574.5 L1153.4,574.1 L1154.5,573.7
		L1155.7,573.3 L1156.8,572.9 L1158.0,572.5 L1159.1,572.1 L1160.2,571.7 L1161.4,571.3 L1162.5,571.0 L1163.7,570.6
		L1164.8,570.2 L1166.0,569.8 L1167.1,569.5 L1168.2,569.1 L1169.4,568.7 L1170.5,568.4 L1171.7,568.0 L1172.8,567.6
		L1173.9,567.3 L1175.1,566.9 L1176.2,566.6 L1177.4,566.2 L1178.5,565.9 L1179.7,565.5 L1180.8,565.2 L1181.9,564.8
		L1183.1,564.5 L1184.2,564.2 L1185.4,563.9 L1186.5,563.5 L1187.6,563.2 L1188.8,562.9 L1189.9,562.6 L1191.1,562.3
		L1192.2,562.0 L1193.4,561.7 L1194.5,561.4 L1195.6,561.1 L1196.8,560.8 L1197.9,560.5 L1199.1,560.2 L1200.2,559.9
		L1201.3,559.6 L1202.5,559.4 L1203.6,559.1 L1204.8,558.9 L1205.9,558.6 L1207.1,558.3 L1208.2,558.1 L1209.3,557.9
		L1210.5,557.6 L1211.6,557.4 L1212.8,557.2 L1213.9,556.9 L1215.0,556.7 L1216.2,556.5 L1217.3,556.3 L1218.5,556.1
		L1219.6,555.9 L1220.8,555.7 L1221.9,555.5 L1223.0,555.4 L1224.2,555.2 L1225.3,555.0 L1226.5,554.9 L1227.6,554.7
		L1228.7,554.6 L1229.9,554.4 L1231.0,554.3 L1232.2,554.2 L1233.3,554.0 L1234.5,553.9 L1235.6,553.8 L1236.7,553.7
		L1237.9,553.6 L1239.0,553.5 L1240.2,553.4 L1241.3,553.3 L1242.4,553.3 L1243.6,553.2 L1244.7,553.1 L1245.9,553.1
		L1247.0,553.0 L1248.2,553.0 L1249.3,553.0 L1250.4,552.9 L1251.6,552.9 L1252.7,552.9 L1253.9,552.9 L1255.0,552.9
		 '/></g>
	</g>
	<g id="gnuplot_plot_6" ><title>gnuplot_plot_6</title>
<g fill="none" color="black" stroke="currentColor" stroke-width="1.00" stroke-linecap="butt" stroke-linejoin="miter">
	<path stroke='rgb(  0,   0, 255)'  d='M87.1,56.9 L88.2,60.5 L89.4,70.3 L90.5,84.3 L91.7,100.3 L92.8,116.8 L93.9,132.9 L95.1,148.3
		L96.2,162.8 L97.4,176.3 L98.5,188.8 L99.7,200.4 L100.8,211.3 L101.9,221.3 L103.1,230.6 L104.2,239.3
		L105.4,247.4 L106.5,255.0 L107.6,262.0 L108.8,268.6 L109.9,274.8 L111.1,280.6 L112.2,286.0 L113.4,291.1
		L114.5,295.9 L115.6,300.4 L116.8,304.7 L117.9,308.7 L119.1,312.5 L120.2,316.0 L121.3,319.4 L122.5,322.7
		L123.6,325.7 L124.8,328.7 L125.9,331.5 L127.1,334.1 L128.2,336.7 L129.3,339.1 L130.5,341.5 L131.6,343.8
		L132.8,346.0 L133.9,348.1 L135.0,350.1 L136.2,352.1 L137.3,354.1 L138.5,355.9 L139.6,357.8 L140.8,359.5
		L141.9,361.3 L143.0,363.0 L144.2,364.7 L145.3,366.3 L146.5,367.9 L147.6,369.5 L148.7,371.0 L149.9,372.5
		L151.0,374.0 L152.2,375.5 L153.3,377.0 L154.5,378.4 L155.6,379.8 L156.7,381.2 L157.9,382.6 L159.0,384.0
		L160.2,385.3 L161.3,386.7 L162.4,388.0 L163.6,389.3 L164.7,390.6 L165.9,391.9 L167.0,393.2 L168.2,394.5
		L169.3,395.7 L170.4,397.0 L171.6,398.2 L172.7,399.4 L173.9,400.7 L175.0,401.9 L176.1,403.1 L177.3,404.3
		L178.4,405.5 L179.6,406.6 L180.7,407.8 L181.9,409.0 L183.0,410.1 L184.1,411.3 L185.3,412.4 L186.4,413.6
		L187.6,414.7 L188.7,415.8 L189.8,416.9 L191.0,418.1 L192.1,419.2 L193.3,420.3 L194.4,421.4 L195.6,422.4
		L196.7,423.5 L197.8,424.6 L199.0,425.7 L200.1,426.7 L201.3,427.8 L202.4,428.8 L203.5,429.9 L204.7,430.9
		L205.8,432.0 L207.0,433.0 L208.1,434.0 L209.3,435.0 L210.4,436.0 L211.5,437.0 L212.7,438.0 L213.8,439.0
		L215.0,440.0 L216.1,441.0 L217.2,442.0 L218.4,443.0 L219.5,443.9 L220.7,444.9 L221.8,445.9 L223.0,446.8
		L224.1,447.8 L225.2,448.7 L226.4,449.7 L227.5,450.6 L228.7,451.5 L229.8,452.5 L230.9,453.4 L232.1,454.3
		L233.2,455.2 L234.4,456.1 L235.5,457.0 L236.7,457.9 L237.8,458.8 L238.9,459.7 L240.1,460.6 L241.2,461.5
		L242.4,462.3 L243.5,463.2 L244.6,464.1 L245.8,465.0 L246.9,465.8 L248.1,466.7 L249.2,467.5 L250.4,468.4
		L251.5,469.2 L252.6,470.0 L253.8,470.9 L254.9,471.7 L256.1,472.5 L257.2,473.4 L258.3,474.2 L259.5,475.0
		L260.6,475.8 L261.8,476.6 L262.9,477.4 L264.1,478.2 L265.2,479.0 L266.3,479.8 L267.5,480.6 L268.6,481.4
		L269.8,482.1 L270.9,482.9 L272.0,483.7 L273.2,484.5 L274.3,485.2 L275.5,486.0 L276.6,486.7 L277.8,487.5
		L278.9,488.2 L280.0,489.0 L281.2,489.7 L282.3,490.5 L283.5,491.2 L284.6,491.9 L285.7,492.7 L286.9,493.4
		L288.0,494.1 L289.2,494.8 L290.3,495.6 L291.5,496.3 L292.6,497.0 L293.7,497.7 L294.9,498.4 L296.0,499.1
		L297.2,499.8 L298.3,500.5 L299.4,501.2 L300.6,501.9 L301.7,502.5 L302.9,503.2 L304.0,503.9 L305.2,504.6
		L306.3,505.3 L307.4,505.9 L308.6,506.6 L309.7,507.2 L310.9,507.9 L312.0,508.6 L313.1,509.2 L314.3,509.9
		L315.4,510.5 L316.6,511.2 L317.7,511.8 L318.9,512.5 L320.0,513.1 L321.1,513.7 L322.3,514.4 L323.4,515.0
		L324.6,515.6 L325.7,516.2 L326.8,516.9 L328.0,517.5 L329.1,518.1 L330.3,518.7 L331.4,519.3 L332.6,519.9
		L333.7,520.5 L334.8,521.1 L336.0,521.7 L337.1,522.3 L338.3,522.9 L339.4,523.5 L340.5,524.1 L341.7,524.7
		L342.8,525.3 L344.0,525.9 L345.1,526.4 L346.3,527.0 L347.4,527.6 L348.5,528.2 L349.7,528.7 L350.8,529.3
		L352.0,529.9 L353.1,530.4 L354.2,531.0 L355.4,531.6 L356.5,532.1 L357.7,532.7 L358.8,533.2 L360.0,533.8
		L361.1,534.3 L362.2,534.9 L363.4,535.4 L364.5,535.9 L365.7,536.5 L366.8,537.0 L367.9,537.6 L369.1,538.1
		L370.2,538.6 L371.4,539.1 L372.5,539.7 L373.7,540.2 L374.8,540.7 L375.9,541.2 L377.1,541.7 L378.2,542.3
		L379.4,542.8 L380.5,543.3 L381.6,543.8 L382.8,544.3 L383.9,544.8 L385.1,545.3 L386.2,545.8 L387.4,546.3
		L388.5,546.8 L389.6,547.3 L390.8,547.8 L391.9,548.3 L393.1,548.8 L394.2,549.3 L395.3,549.8 L396.5,550.2
		L397.6,550.7 L398.8,551.2 L399.9,551.7 L401.1,552.2 L402.2,552.6 L403.3,553.1 L404.5,553.6 L405.6,554.0
		L406.8,554.5 L407.9,555.0 L409.0,555.4 L410.2,555.9 L411.3,556.4 L412.5,556.8 L413.6,557.3 L414.8,557.7
		L415.9,558.2 L417.0,558.6 L418.2,559.1 L419.3,559.5 L420.5,560.0 L421.6,560.4 L422.7,560.9 L423.9,561.3
		L425.0,561.8 L426.2,562.2 L427.3,562.6 L428.5,563.1 L429.6,563.5 L430.7,563.9 L431.9,564.4 L433.0,564.8
		L434.2,565.2 L435.3,565.6 L436.4,566.1 L437.6,566.5 L438.7,566.9 L439.9,567.3 L441.0,567.7 L442.2,568.2
		L443.3,568.6 L444.4,569.0 L445.6,569.4 L446.7,569.8 L447.9,570.2 L449.0,570.6 L450.1,571.0 L451.3,571.4
		L452.4,571.8 L453.6,572.2 L454.7,572.6 L455.9,573.0 L457.0,573.4 L458.1,573.8 L459.3,574.2 L460.4,574.6
		L461.6,575.0 L462.7,575.4 L463.8,575.8 L465.0,576.1 L466.1,576.5 L467.3,576.9 L468.4,577.3 L469.6,577.7
		L470.7,578.1 L471.8,578.4 L473.0,578.8 L474.1,579.2 L475.3,579.6 L476.4,579.9 L477.5,580.3 L478.7,580.7
		L479.8,581.0 L481.0,581.4 L482.1,581.8 L483.2,582.1 L484.4,582.5 L485.5,582.9 L486.7,583.2 L487.8,583.6
		L489.0,583.9 L490.1,584.3 L491.2,584.6 L492.4,585.0 L493.5,585.3 L494.7,585.7 L495.8,586.0 L496.9,586.4
		L498.1,586.7 L499.2,587.1 L500.4,587.4 L501.5,587.8 L502.7,588.1 L503.8,588.5 L504.9,588.8 L506.1,589.1
		L507.2,589.5 L508.4,589.8 L509.5,590.1 L510.6,590.5 L511.8,590.8 L512.9,591.1 L514.1,591.5 L515.2,591.8
		L516.4,592.1 L517.5,592.4 L518.6,592.8 L519.8,593.1 L520.9,593.4 L522.1,593.7 L523.2,594.0 L524.3,594.4
		L525.5,594.7 L526.6,595.0 L527.8,595.3 L528.9,595.6 L530.1,595.9 L531.2,596.2 L532.3,596.6 L533.5,596.9
		L534.6,597.2 L535.8,597.5 L536.9,597.8 L538.0,598.1 L539.2,598.4 L540.3,598.7 L541.5,599.0 L542.6,599.3
		L543.8,599.6 L544.9,599.9 L546.0,600.2 L547.2,600.5 L548.3,600.8 L549.5,601.1 L550.6,601.4 L551.7,601.6
		L552.9,601.9 L554.0,602.2 L555.2,602.5 L556.3,602.8 L557.5,603.1 L558.6,603.4 L559.7,603.7 L560.9,603.9
		L562.0,604.2 L563.2,604.5 L564.3,604.8 L565.4,605.0 L566.6,605.3 L567.7,605.6 L568.9,605.9 L570.0,606.1
		L571.2,606.4 L572.3,606.7 L573.4,607.0 L574.6,607.2 L575.7,607.5 L576.9,607.8 L578.0,608.0 L579.1,608.3
		L580.3,608.5 L581.4,608.8 L582.6,609.1 L583.7,609.3 L584.9,609.6 L586.0,609.8 L587.1,610.1 L588.3,610.4
		L589.4,610.6 L590.6,610.9 L591.7,611.1 L592.8,611.4 L594.0,611.6 L595.1,611.9 L596.3,612.1 L597.4,612.4
		L598.6,612.6 L599.7,612.9 L600.8,613.1 L602.0,613.3 L603.1,613.6 L604.3,613.8 L605.4,614.1 L606.5,614.3
		L607.7,614.5 L608.8,614.8 L610.0,615.0 L611.1,615.3 L612.3,615.5 L613.4,615.7 L614.5,615.9 L615.7,616.2
		L616.8,616.4 L618.0,616.6 L619.1,616.9 L620.2,617.1 L621.4,617.3 L622.5,617.5 L623.7,617.8 L624.8,618.0
		L626.0,618.2 L627.1,618.4 L628.2,618.6 L629.4,618.9 L630.5,619.1 L631.7,619.3 L632.8,619.5 L633.9,619.7
		L635.1,619.9 L636.2,620.2 L637.4,620.4 L638.5,620.6 L639.7,620.8 L640.8,621.0 L641.9,621.2 L643.1,621.4
		L644.2,621.6 L645.4,621.8 L646.5,622.0 L647.6,622.2 L648.8,622.4 L649.9,622.6 L651.1,622.8 L652.2,623.0
		L653.4,623.2 L654.5,623.4 L655.6,623.6 L656.8,623.8 L657.9,624.0 L659.1,624.2 L660.2,624.4 L661.3,624.6
		L662.5,624.8 L663.6,624.9 L664.8,625.1 L665.9,625.3 L667.1,625.5 L668.2,625.7 L669.3,625.9 L670.5,626.0
		L671.6,626.2 L672.8,626.4 L673.9,626.6 L675.0,626.8 L676.2,626.9 L677.3,627.1 L678.5,627.3 L679.6,627.5
		L680.8,627.6 L681.9,627.8 L683.0,628.0 L684.2,628.1 L685.3,628.3 L686.5,628.5 L687.6,628.6 L688.7,628.8
		L689.9,629.0 L691.0,629.1 L692.2,629.3 L693.3,629.5 L694.5,629.6 L695.6,629.8 L696.7,629.9 L697.9,630.1
		L699.0,630.2 L700.2,630.4 L701.3,630.6 L702.4,630.7 L703.6,630.9 L704.7,631.0 L705.9,631.2 L707.0,631.3
		L708.2,631.5 L709.3,631.6 L710.4,631.7 L711.6,631.9 L712.7,632.0 L713.9,632.2 L715.0,632.3 L716.1,632.5
		L717.3,632.6 L718.4,632.7 L719.6,632.9 L720.7,633.0 L721.9,633.1 L723.0,633.3 L724.1,633.4 L725.3,633.5
		L726.4,633.7 L727.6,633.8 L728.7,633.9 L729.8,634.1 L731.0,634.2 L732.1,634.3 L733.3,634.4 L734.4,634.5
		L735.6,634.7 L736.7,634.8 L737.8,634.9 L739.0,635.0 L740.1,635.1 L741.3,635.3 L742.4,635.4 L743.5,635.5
		L744.7,635.6 L745.8,635.7 L747.0,635.8 L748.1,635.9 L749.3,636.0 L750.4,636.1 L751.5,636.2 L752.7,636.4
		L753.8,636.5 L755.0,636.6 L756.1,636.7 L757.2,636.8 L758.4,636.9 L759.5,637.0 L760.7,637.1 L761.8,637.1
		L763.0,637.2 L764.1,637.3 L765.2,637.4 L766.4,637.5 L767.5,637.6 L768.7,637.7 L769.8,637.8 L770.9,637.9
		L772.1,638.0 L773.2,638.0 L774.4,638.1 L775.5,638.2 L776.7,638.3 L777.8,638.4 L778.9,638.4 L780.1,638.5
		L781.2,638.6 L782.4,638.7 L783.5,638.7 L784.6,638.8 L785.8,638.9 L786.9,638.9 L788.1,639.0 L789.2,639.1
		L790.4,639.1 L791.5,639.2 L792.6,639.3 L793.8,639.3 L794.9,639.4 L796.1,639.4 L797.2,639.5 L798.3,639.6
		L799.5,639.6 L800.6,639.7 L801.8,639.7 L802.9,639.8 L804.1,639.8 L805.2,639.9 L806.3,639.9 L807.5,640.0
		L808.6,640.0 L809.8,640.0 L810.9,640.1 L812.0,640.1 L813.2,640.2 L814.3,640.2 L815.5,640.2 L816.6,640.3
		L817.8,640.3 L818.9,640.3 L820.0,640.4 L821.2,640.4 L822.3,640.4 L823.5,640.5 L824.6,640.5 L825.7,640.5
		L826.9,640.5 L828.0,640.5 L829.2,640.6 L830.3,640.6 L831.5,640.6 L832.6,640.6 L833.7,640.6 L834.9,640.6
		L836.0,640.7 L837.2,640.7 L838.3,640.7 L839.4,640.7 L840.6,640.7 L841.7,640.7 L842.9,640.7 L844.0,640.7
		L845.2,640.7 L846.3,640.7 L847.4,640.7 L848.6,640.7 L849.7,640.7 L850.9,640.7 L852.0,640.7 L853.1,640.6
		L854.3,640.6 L855.4,640.6 L856.6,640.6 L857.7,640.6 L858.9,640.6 L860.0,640.5 L861.1,640.5 L862.3,640.5
		L863.4,640.5 L864.6,640.5 L865.7,640.4 L866.8,640.4 L868.0,640.4 L869.1,640.3 L870.3,640.3 L871.4,640.3
		L872.5,640.2 L873.7,640.2 L874.8,640.1 L876.0,640.1 L877.1,640.1 L878.3,640.0 L879.4,640.0 L880.5,639.9
		L881.7,639.9 L882.8,639.8 L884.0,639.8 L885.1,639.7 L886.2,639.6 L887.4,639.6 L888.5,639.5 L889.7,639.5
		L890.8,639.4 L892.0,639.3 L893.1,639.3 L894.2,639.2 L895.4,639.1 L896.5,639.0 L897.7,639.0 L898.8,638.9
		L899.9,638.8 L901.1,638.7 L902.2,638.7 L903.4,638.6 L904.5,638.5 L905.7,638.4 L906.8,638.3 L907.9,638.2
		L909.1,638.1 L910.2,638.0 L911.4,637.9 L912.5,637.8 L913.6,637.7 L914.8,637.6 L915.9,637.5 L917.1,637.4
		L918.2,637.3 L919.4,637.2 L920.5,637.1 L921.6,637.0 L922.8,636.9 L923.9,636.8 L925.1,636.6 L926.2,636.5
		L927.3,636.4 L928.5,636.3 L929.6,636.1 L930.8,636.0 L931.9,635.9 L933.1,635.8 L934.2,635.6 L935.3,635.5
		L936.5,635.4 L937.6,635.2 L938.8,635.1 L939.9,634.9 L941.0,634.8 L942.2,634.6 L943.3,634.5 L944.5,634.3
		L945.6,634.2 L946.8,634.0 L947.9,633.9 L949.0,633.7 L950.2,633.6 L951.3,633.4 L952.5,633.2 L953.6,633.1
		L954.7,632.9 L955.9,632.7 L957.0,632.5 L958.2,632.4 L959.3,632.2 L960.5,632.0 L961.6,631.8 L962.7,631.7
		L963.9,631.5 L965.0,631.3 L966.2,631.1 L967.3,630.9 L968.4,630.7 L969.6,630.5 L970.7,630.3 L971.9,630.1
		L973.0,629.9 L974.2,629.7 L975.3,629.5 L976.4,629.3 L977.6,629.1 L978.7,628.9 L979.9,628.7 L981.0,628.4
		L982.1,628.2 L983.3,628.0 L984.4,627.8 L985.6,627.6 L986.7,627.3 L987.9,627.1 L989.0,626.9 L990.1,626.6
		L991.3,626.4 L992.4,626.2 L993.6,625.9 L994.7,625.7 L995.8,625.4 L997.0,625.2 L998.1,625.0 L999.3,624.7
		L1000.4,624.5 L1001.6,624.2 L1002.7,623.9 L1003.8,623.7 L1005.0,623.4 L1006.1,623.2 L1007.3,622.9 L1008.4,622.6
		L1009.5,622.4 L1010.7,622.1 L1011.8,621.8 L1013.0,621.6 L1014.1,621.3 L1015.3,621.0 L1016.4,620.7 L1017.5,620.4
		L1018.7,620.2 L1019.8,619.9 L1021.0,619.6 L1022.1,619.3 L1023.2,619.0 L1024.4,618.7 L1025.5,618.4 L1026.7,618.1
		L1027.8,617.8 L1029.0,617.5 L1030.1,617.2 L1031.2,616.9 L1032.4,616.6 L1033.5,616.3 L1034.7,616.0 L1035.8,615.6
		L1036.9,615.3 L1038.1,615.0 L1039.2,614.7 L1040.4,614.4 L1041.5,614.0 L1042.7,613.7 L1043.8,613.4 L1044.9,613.1
		L1046.1,612.7 L1047.2,612.4 L1048.4,612.1 L1049.5,611.7 L1050.6,611.4 L1051.8,611.0 L1052.9,610.7 L1054.1,610.3
		L1055.2,610.0 L1056.4,609.7 L1057.5,609.3 L1058.6,609.0 L1059.8,608.6 L1060.9,608.2 L1062.1,607.9 L1063.2,607.5
		L1064.3,607.2 L1065.5,606.8 L1066.6,606.4 L1067.8,606.1 L1068.9,605.7 L1070.1,605.3 L1071.2,605.0 L1072.3,604.6
		L1073.5,604.2 L1074.6,603.8 L1075.8,603.5 L1076.9,603.1 L1078.0,602.7 L1079.2,602.3 L1080.3,602.0 L1081.5,601.6
		L1082.6,601.2 L1083.8,600.8 L1084.9,600.4 L1086.0,600.0 L1087.2,599.6 L1088.3,599.2 L1089.5,598.8 L1090.6,598.5
		L1091.7,598.1 L1092.9,597.7 L1094.0,597.3 L1095.2,596.9 L1096.3,596.5 L1097.5,596.1 L1098.6,595.7 L1099.7,595.3
		L1100.9,594.9 L1102.0,594.5 L1103.2,594.1 L1104.3,593.6 L1105.4,593.2 L1106.6,592.8 L1107.7,592.4 L1108.9,592.0
		L1110.0,591.6 L1111.2,591.2 L1112.3,590.8 L1113.4,590.4 L1114.6,590.0 L1115.7,589.6 L1116.9,589.1 L1118.0,588.7
		L1119.1,588.3 L1120.3,587.9 L1121.4,587.5 L1122.6,587.1 L1123.7,586.7 L1124.9,586.3 L1126.0,585.8 L1127.1,585.4
		L1128.3,585.0 L1129.4,584.6 L1130.6,584.2 L1131.7,583.8 L1132.8,583.4 L1134.0,583.0 L1135.1,582.5 L1136.3,582.1
		L1137.4,581.7 L1138.6,581.3 L1139.7,580.9 L1140.8,580.5 L1142.0,580.1 L1143.1,579.7 L1144.3,579.3 L1145.4,578.9
		L1146.5,578.5 L1147.7,578.1 L1148.8,577.6 L1150.0,577.2 L1151.1,576.8 L1152.3,576.4 L1153.4,576.1 L1154.5,575.7
		L1155.7,575.3 L1156.8,574.9 L1158.0,574.5 L1159.1,574.1 L1160.2,573.7 L1161.4,573.3 L1162.5,572.9 L1163.7,572.5
		L1164.8,572.2 L1166.0,571.8 L1167.1,571.4 L1168.2,571.0 L1169.4,570.7 L1170.5,570.3 L1171.7,569.9 L1172.8,569.6
		L1173.9,569.2 L1175.1,568.8 L1176.2,568.5 L1177.4,568.1 L1178.5,567.8 L1179.7,567.4 L1180.8,567.1 L1181.9,566.8
		L1183.1,566.4 L1184.2,566.1 L1185.4,565.7 L1186.5,565.4 L1187.6,565.1 L1188.8,564.8 L1189.9,564.5 L1191.1,564.1
		L1192.2,563.8 L1193.4,563.5 L1194.5,563.2 L1195.6,562.9 L1196.8,562.6 L1197.9,562.3 L1199.1,562.1 L1200.2,561.8
		L1201.3,561.5 L1202.5,561.2 L1203.6,561.0 L1204.8,560.7 L1205.9,560.4 L1207.1,560.2 L1208.2,559.9 L1209.3,559.7
		L1210.5,559.5 L1211.6,559.2 L1212.8,559.0 L1213.9,558.8 L1215.0,558.6 L1216.2,558.4 L1217.3,558.1 L1218.5,557.9
		L1219.6,557.8 L1220.8,557.6 L1221.9,557.4 L1223.0,557.2 L1224.2,557.0 L1225.3,556.9 L1226.5,556.7 L1227.6,556.5
		L1228.7,556.4 L1229.9,556.2 L1231.0,556.1 L1232.2,556.0 L1233.3,555.9 L1234.5,555.7 L1235.6,555.6 L1236.7,555.5
		L1237.9,555.4 L1239.0,555.3 L1240.2,555.2 L1241.3,555.2 L1242.4,555.1 L1243.6,555.0 L1244.7,555.0 L1245.9,554.9
		L1247.0,554.8 L1248.2,554.8 L1249.3,554.8 L1250.4,554.7 L1251.6,554.7 L1252.7,554.7 L1253.9,554.7 L1255.0,554.7
		 '/></g>
	</g>
<g fill="none" color="white" stroke="rgb(  0,   0, 255)" stroke-width="2.00" stroke-linecap="butt" stroke-linejoin="miter">
</g>
<g fill="none" color="black" stroke="currentColor" stroke-width="2.00" stroke-linecap="butt" stroke-linejoin="miter">
</g>
<g fill="none" color="black" stroke="black" stroke-width="1.00" stroke-linecap="butt" stroke-linejoin="miter">
</g>
<g fill="none" color="black" stroke="currentColor" stroke-width="1.00" stroke-linecap="butt" stroke-linejoin="miter">
	<path stroke='black'  d='M87.1,54.1 L87.1,684.0 L1255.0,684.0 L1255.0,54.1 L87.1,54.1 Z  '/></g>
<g fill="none" color="black" stroke="currentColor" stroke-width="1.00" stroke-linecap="butt" stroke-linejoin="miter">
</g>
</g>
</svg>

