<?xml version="1.0" encoding="utf-8"  standalone="no"?>
<svg 
 width="1280" height="720"
 viewBox="0 0 1280 720"
 xmlns="http://www.w3.org/2000/svg"
 xmlns:xlink="http://www.w3.org/1999/xlink"
>

<title>Gnuplot</title>
<desc>Produced by GNUPLOT 5.0 patchlevel 6 </desc>

<g id="gnuplot_canvas">

<rect x="0" y="0" width="1280" height="720" fill="none"/>
<defs>

	<circle id='gpDot' r='0.5' stroke-width='0.5'/>
	<path id='gpPt0' stroke-width='0.222' stroke='currentColor' d='M-1,0 h2 M0,-1 v2'/>
	<path id='gpPt1' stroke-width='0.222' stroke='currentColor' d='M-1,-1 L1,1 M1,-1 L-1,1'/>
	<path id='gpPt2' stroke-width='0.222' stroke='currentColor' d='M-1,0 L1,0 M0,-1 L0,1 M-1,-1 L1,1 M-1,1 L1,-1'/>
	<rect id='gpPt3' stroke-width='0.222' stroke='currentColor' x='-1' y='-1' width='2' height='2'/>
	<rect id='gpPt4' stroke-width='0.222' stroke='currentColor' fill='currentColor' x='-1' y='-1' width='2' height='2'/>
	<circle id='gpPt5' stroke-width='0.222' stroke='currentColor' cx='0' cy='0' r='1'/>
	<use xlink:href='#gpPt5' id='gpPt6' fill='currentColor' stroke='none'/>
	<path id='gpPt7' stroke-width='0.222' stroke='currentColor' d='M0,-1.33 L-1.33,0.67 L1.33,0.67 z'/>
	<use xlink:href='#gpPt7' id='gpPt8' fill='currentColor' stroke='none'/>
	<use xlink:href='#gpPt7' id='gpPt9' stroke='currentColor' transform='rotate(180)'/>
	<use xlink:href='#gpPt9' id='gpPt10' fill='currentColor' stroke='none'/>
	<use xlink:href='#gpPt3' id='gpPt11' stroke='currentColor' transform='rotate(45)'/>
	<use xlink:href='#gpPt11' id='gpPt12' fill='currentColor' stroke='none'/>
	<path id='gpPt13' stroke-width='0.222' stroke='currentColor' d='M0,1.330 L1.265,0.411 L0.782,-1.067 L-0.782,-1.076 L-1.265,0.411 z'/>
	<use xlink:href='#gpPt13' id='gpPt14' fill='currentColor' stroke='none'/>
	<filter id='textbox' filterUnits='objectBoundingBox' x='0' y='0' height='1' width='1'>
	  <feFlood flood-color='white' flood-opacity='1' result='bgnd'/>
	  <feComposite in='SourceGraphic' in2='bgnd' operator='atop'/>
	</filter>
	<filter id='greybox' filterUnits='objectBoundingBox' x='0' y='0' height='1' width='1'>
	  <feFlood flood-color='lightgrey' flood-opacity='1' result='grey'/>
	  <feComposite in='SourceGraphic' in2='grey' operator='atop'/>
	</filter>
</defs>
<g fill="none" color="white" stroke="currentColor" stroke-width="1.00" stroke-linecap="butt" stroke-linejoin="miter">
</g>
<g fill="none" color="black" stroke="currentColor" stroke-width="1.00" stroke-linecap="butt" stroke-linejoin="miter">
	<path stroke='black'  d='M87.1,684.0 L96.1,684.0 M1255.0,684.0 L1246.0,684.0  '/>	<g transform="translate(78.8,687.9)" stroke="none" fill="black" font-family="Arial" font-size="12.00"  text-anchor="end">
		<text><tspan font-family="Arial" > 0.01222</tspan></text>
	</g>
</g>
<g fill="none" color="black" stroke="currentColor" stroke-width="1.00" stroke-linecap="butt" stroke-linejoin="miter">
	<path stroke='black'  d='M87.1,371.2 L96.1,371.2 M1255.0,371.2 L1246.0,371.2  '/>	<g transform="translate(78.8,375.1)" stroke="none" fill="black" font-family="Arial" font-size="12.00"  text-anchor="end">
		<text><tspan font-family="Arial" > 10.0977</tspan></text>
	</g>
</g>
<g fill="none" color="black" stroke="currentColor" stroke-width="1.00" stroke-linecap="butt" stroke-linejoin="miter">
	<path stroke='black'  d='M87.1,58.4 L96.1,58.4 M1255.0,58.4 L1246.0,58.4  '/>	<g transform="translate(78.8,62.3)" stroke="none" fill="black" font-family="Arial" font-size="12.00"  text-anchor="end">
		<text><tspan font-family="Arial" > 8344</tspan></text>
	</g>
</g>
<g fill="none" color="black" stroke="currentColor" stroke-width="1.00" stroke-linecap="butt" stroke-linejoin="miter">
	<path stroke='black'  d='M87.1,684.0 L87.1,675.0 M87.1,54.1 L87.1,63.1  '/>	<g transform="translate(87.1,705.9)" stroke="none" fill="black" font-family="Arial" font-size="12.00"  text-anchor="middle">
		<text><tspan font-family="Arial" > 0</tspan></text>
	</g>
</g>
<g fill="none" color="black" stroke="currentColor" stroke-width="1.00" stroke-linecap="butt" stroke-linejoin="miter">
	<path stroke='black'  d='M671.1,684.0 L671.1,675.0 M671.1,54.1 L671.1,63.1  '/>	<g transform="translate(671.1,705.9)" stroke="none" fill="black" font-family="Arial" font-size="12.00"  text-anchor="middle">
		<text><tspan font-family="Arial" >pi/2</tspan></text>
	</g>
</g>
<g fill="none" color="black" stroke="currentColor" stroke-width="1.00" stroke-linecap="butt" stroke-linejoin="miter">
	<path stroke='black'  d='M1255.0,684.0 L1255.0,675.0 M1255.0,54.1 L1255.0,63.1  '/>	<g transform="translate(1255.0,705.9)" stroke="none" fill="black" font-family="Arial" font-size="12.00"  text-anchor="middle">
		<text><tspan font-family="Arial" >pi</tspan></text>
	</g>
</g>
<g fill="none" color="black" stroke="currentColor" stroke-width="1.00" stroke-linecap="butt" stroke-linejoin="miter">
</g>
<g fill="none" color="black" stroke="currentColor" stroke-width="1.00" stroke-linecap="butt" stroke-linejoin="miter">
	<path stroke='black'  d='M87.1,54.1 L87.1,684.0 L1255.0,684.0 L1255.0,54.1 L87.1,54.1 Z  '/></g>
<g fill="none" color="black" stroke="currentColor" stroke-width="1.00" stroke-linecap="butt" stroke-linejoin="miter">
	<g transform="translate(671.0,31.0)" stroke="none" fill="black" font-family="Arial" font-size="12.00"  text-anchor="middle">
		<text><tspan font-family="Arial" >Material 35, with 2 components</tspan></text>
	</g>
</g>
	<g id="gnuplot_plot_1" ><title>scattering function</title>
<g fill="none" color="black" stroke="currentColor" stroke-width="1.00" stroke-linecap="butt" stroke-linejoin="miter">
	<g transform="translate(1187.9,76.0)" stroke="none" fill="black" font-family="Arial" font-size="12.00"  text-anchor="end">
		<text><tspan font-family="Arial" >scattering function</tspan></text>
	</g>
</g>
<g fill="none" color="black" stroke="currentColor" stroke-width="1.00" stroke-linecap="butt" stroke-linejoin="miter">
	<use xlink:href='#gpPt5' transform='translate(87.1,84.4) scale(2.25)' color='rgb(255,   0,   0)'/>
	<use xlink:href='#gpPt5' transform='translate(87.7,85.0) scale(2.25)' color='rgb(255,   0,   0)'/>
	<use xlink:href='#gpPt5' transform='translate(88.4,87.0) scale(2.25)' color='rgb(255,   0,   0)'/>
	<use xlink:href='#gpPt5' transform='translate(89.0,90.3) scale(2.25)' color='rgb(255,   0,   0)'/>
	<use xlink:href='#gpPt5' transform='translate(89.7,94.9) scale(2.25)' color='rgb(255,   0,   0)'/>
	<use xlink:href='#gpPt5' transform='translate(90.3,100.8) scale(2.25)' color='rgb(255,   0,   0)'/>
	<use xlink:href='#gpPt5' transform='translate(91.0,107.9) scale(2.25)' color='rgb(255,   0,   0)'/>
	<use xlink:href='#gpPt5' transform='translate(91.6,116.2) scale(2.25)' color='rgb(255,   0,   0)'/>
	<use xlink:href='#gpPt5' transform='translate(92.3,125.7) scale(2.25)' color='rgb(255,   0,   0)'/>
	<use xlink:href='#gpPt5' transform='translate(92.9,136.3) scale(2.25)' color='rgb(255,   0,   0)'/>
	<use xlink:href='#gpPt5' transform='translate(93.6,147.8) scale(2.25)' color='rgb(255,   0,   0)'/>
	<use xlink:href='#gpPt5' transform='translate(94.2,160.1) scale(2.25)' color='rgb(255,   0,   0)'/>
	<use xlink:href='#gpPt5' transform='translate(94.9,173.1) scale(2.25)' color='rgb(255,   0,   0)'/>
	<use xlink:href='#gpPt5' transform='translate(95.5,186.4) scale(2.25)' color='rgb(255,   0,   0)'/>
	<use xlink:href='#gpPt5' transform='translate(96.2,199.7) scale(2.25)' color='rgb(255,   0,   0)'/>
	<use xlink:href='#gpPt5' transform='translate(96.8,212.8) scale(2.25)' color='rgb(255,   0,   0)'/>
	<use xlink:href='#gpPt5' transform='translate(97.5,225.2) scale(2.25)' color='rgb(255,   0,   0)'/>
	<use xlink:href='#gpPt5' transform='translate(98.1,236.6) scale(2.25)' color='rgb(255,   0,   0)'/>
	<use xlink:href='#gpPt5' transform='translate(98.8,246.8) scale(2.25)' color='rgb(255,   0,   0)'/>
	<use xlink:href='#gpPt5' transform='translate(99.4,255.9) scale(2.25)' color='rgb(255,   0,   0)'/>
	<use xlink:href='#gpPt5' transform='translate(100.1,263.8) scale(2.25)' color='rgb(255,   0,   0)'/>
	<use xlink:href='#gpPt5' transform='translate(106.6,314.2) scale(2.25)' color='rgb(255,   0,   0)'/>
	<use xlink:href='#gpPt5' transform='translate(113.1,345.7) scale(2.25)' color='rgb(255,   0,   0)'/>
	<use xlink:href='#gpPt5' transform='translate(119.5,366.1) scale(2.25)' color='rgb(255,   0,   0)'/>
	<use xlink:href='#gpPt5' transform='translate(126.0,378.2) scale(2.25)' color='rgb(255,   0,   0)'/>
	<use xlink:href='#gpPt5' transform='translate(139.0,393.6) scale(2.25)' color='rgb(255,   0,   0)'/>
	<use xlink:href='#gpPt5' transform='translate(152.0,402.6) scale(2.25)' color='rgb(255,   0,   0)'/>
	<use xlink:href='#gpPt5' transform='translate(165.0,408.6) scale(2.25)' color='rgb(255,   0,   0)'/>
	<use xlink:href='#gpPt5' transform='translate(177.9,415.2) scale(2.25)' color='rgb(255,   0,   0)'/>
	<use xlink:href='#gpPt5' transform='translate(190.9,420.0) scale(2.25)' color='rgb(255,   0,   0)'/>
	<use xlink:href='#gpPt5' transform='translate(203.9,424.7) scale(2.25)' color='rgb(255,   0,   0)'/>
	<use xlink:href='#gpPt5' transform='translate(216.9,431.1) scale(2.25)' color='rgb(255,   0,   0)'/>
	<use xlink:href='#gpPt5' transform='translate(229.8,436.1) scale(2.25)' color='rgb(255,   0,   0)'/>
	<use xlink:href='#gpPt5' transform='translate(242.8,441.1) scale(2.25)' color='rgb(255,   0,   0)'/>
	<use xlink:href='#gpPt5' transform='translate(255.8,446.7) scale(2.25)' color='rgb(255,   0,   0)'/>
	<use xlink:href='#gpPt5' transform='translate(268.8,453.6) scale(2.25)' color='rgb(255,   0,   0)'/>
	<use xlink:href='#gpPt5' transform='translate(281.8,459.8) scale(2.25)' color='rgb(255,   0,   0)'/>
	<use xlink:href='#gpPt5' transform='translate(294.7,465.2) scale(2.25)' color='rgb(255,   0,   0)'/>
	<use xlink:href='#gpPt5' transform='translate(307.7,471.6) scale(2.25)' color='rgb(255,   0,   0)'/>
	<use xlink:href='#gpPt5' transform='translate(320.7,475.7) scale(2.25)' color='rgb(255,   0,   0)'/>
	<use xlink:href='#gpPt5' transform='translate(333.7,486.2) scale(2.25)' color='rgb(255,   0,   0)'/>
	<use xlink:href='#gpPt5' transform='translate(346.6,486.8) scale(2.25)' color='rgb(255,   0,   0)'/>
	<use xlink:href='#gpPt5' transform='translate(359.6,500.0) scale(2.25)' color='rgb(255,   0,   0)'/>
	<use xlink:href='#gpPt5' transform='translate(372.6,500.1) scale(2.25)' color='rgb(255,   0,   0)'/>
	<use xlink:href='#gpPt5' transform='translate(385.6,511.3) scale(2.25)' color='rgb(255,   0,   0)'/>
	<use xlink:href='#gpPt5' transform='translate(398.5,519.1) scale(2.25)' color='rgb(255,   0,   0)'/>
	<use xlink:href='#gpPt5' transform='translate(411.5,519.4) scale(2.25)' color='rgb(255,   0,   0)'/>
	<use xlink:href='#gpPt5' transform='translate(424.5,529.2) scale(2.25)' color='rgb(255,   0,   0)'/>
	<use xlink:href='#gpPt5' transform='translate(437.5,542.0) scale(2.25)' color='rgb(255,   0,   0)'/>
	<use xlink:href='#gpPt5' transform='translate(450.4,547.0) scale(2.25)' color='rgb(255,   0,   0)'/>
	<use xlink:href='#gpPt5' transform='translate(463.4,550.7) scale(2.25)' color='rgb(255,   0,   0)'/>
	<use xlink:href='#gpPt5' transform='translate(476.4,556.3) scale(2.25)' color='rgb(255,   0,   0)'/>
	<use xlink:href='#gpPt5' transform='translate(489.4,562.9) scale(2.25)' color='rgb(255,   0,   0)'/>
	<use xlink:href='#gpPt5' transform='translate(502.4,570.5) scale(2.25)' color='rgb(255,   0,   0)'/>
	<use xlink:href='#gpPt5' transform='translate(515.3,580.4) scale(2.25)' color='rgb(255,   0,   0)'/>
	<use xlink:href='#gpPt5' transform='translate(528.3,587.3) scale(2.25)' color='rgb(255,   0,   0)'/>
	<use xlink:href='#gpPt5' transform='translate(541.3,594.7) scale(2.25)' color='rgb(255,   0,   0)'/>
	<use xlink:href='#gpPt5' transform='translate(554.3,603.4) scale(2.25)' color='rgb(255,   0,   0)'/>
	<use xlink:href='#gpPt5' transform='translate(567.2,610.9) scale(2.25)' color='rgb(255,   0,   0)'/>
	<use xlink:href='#gpPt5' transform='translate(580.2,619.7) scale(2.25)' color='rgb(255,   0,   0)'/>
	<use xlink:href='#gpPt5' transform='translate(593.2,628.7) scale(2.25)' color='rgb(255,   0,   0)'/>
	<use xlink:href='#gpPt5' transform='translate(606.2,637.0) scale(2.25)' color='rgb(255,   0,   0)'/>
	<use xlink:href='#gpPt5' transform='translate(619.1,646.9) scale(2.25)' color='rgb(255,   0,   0)'/>
	<use xlink:href='#gpPt5' transform='translate(632.1,648.3) scale(2.25)' color='rgb(255,   0,   0)'/>
	<use xlink:href='#gpPt5' transform='translate(645.1,658.6) scale(2.25)' color='rgb(255,   0,   0)'/>
	<use xlink:href='#gpPt5' transform='translate(658.1,659.5) scale(2.25)' color='rgb(255,   0,   0)'/>
	<use xlink:href='#gpPt5' transform='translate(671.1,665.7) scale(2.25)' color='rgb(255,   0,   0)'/>
	<use xlink:href='#gpPt5' transform='translate(684.0,668.9) scale(2.25)' color='rgb(255,   0,   0)'/>
	<use xlink:href='#gpPt5' transform='translate(697.0,677.5) scale(2.25)' color='rgb(255,   0,   0)'/>
	<use xlink:href='#gpPt5' transform='translate(710.0,672.8) scale(2.25)' color='rgb(255,   0,   0)'/>
	<use xlink:href='#gpPt5' transform='translate(723.0,676.3) scale(2.25)' color='rgb(255,   0,   0)'/>
	<use xlink:href='#gpPt5' transform='translate(735.9,675.1) scale(2.25)' color='rgb(255,   0,   0)'/>
	<use xlink:href='#gpPt5' transform='translate(748.9,673.1) scale(2.25)' color='rgb(255,   0,   0)'/>
	<use xlink:href='#gpPt5' transform='translate(761.9,678.5) scale(2.25)' color='rgb(255,   0,   0)'/>
	<use xlink:href='#gpPt5' transform='translate(774.9,679.6) scale(2.25)' color='rgb(255,   0,   0)'/>
	<use xlink:href='#gpPt5' transform='translate(787.8,680.6) scale(2.25)' color='rgb(255,   0,   0)'/>
	<use xlink:href='#gpPt5' transform='translate(800.8,679.7) scale(2.25)' color='rgb(255,   0,   0)'/>
	<use xlink:href='#gpPt5' transform='translate(813.8,670.9) scale(2.25)' color='rgb(255,   0,   0)'/>
	<use xlink:href='#gpPt5' transform='translate(826.8,676.6) scale(2.25)' color='rgb(255,   0,   0)'/>
	<use xlink:href='#gpPt5' transform='translate(839.7,668.5) scale(2.25)' color='rgb(255,   0,   0)'/>
	<use xlink:href='#gpPt5' transform='translate(852.7,656.3) scale(2.25)' color='rgb(255,   0,   0)'/>
	<use xlink:href='#gpPt5' transform='translate(865.7,645.7) scale(2.25)' color='rgb(255,   0,   0)'/>
	<use xlink:href='#gpPt5' transform='translate(878.7,638.9) scale(2.25)' color='rgb(255,   0,   0)'/>
	<use xlink:href='#gpPt5' transform='translate(891.7,632.9) scale(2.25)' color='rgb(255,   0,   0)'/>
	<use xlink:href='#gpPt5' transform='translate(904.6,636.2) scale(2.25)' color='rgb(255,   0,   0)'/>
	<use xlink:href='#gpPt5' transform='translate(917.6,648.9) scale(2.25)' color='rgb(255,   0,   0)'/>
	<use xlink:href='#gpPt5' transform='translate(930.6,645.3) scale(2.25)' color='rgb(255,   0,   0)'/>
	<use xlink:href='#gpPt5' transform='translate(943.6,636.6) scale(2.25)' color='rgb(255,   0,   0)'/>
	<use xlink:href='#gpPt5' transform='translate(956.5,625.3) scale(2.25)' color='rgb(255,   0,   0)'/>
	<use xlink:href='#gpPt5' transform='translate(969.5,595.0) scale(2.25)' color='rgb(255,   0,   0)'/>
	<use xlink:href='#gpPt5' transform='translate(982.5,572.6) scale(2.25)' color='rgb(255,   0,   0)'/>
	<use xlink:href='#gpPt5' transform='translate(995.5,554.2) scale(2.25)' color='rgb(255,   0,   0)'/>
	<use xlink:href='#gpPt5' transform='translate(1008.4,547.8) scale(2.25)' color='rgb(255,   0,   0)'/>
	<use xlink:href='#gpPt5' transform='translate(1021.4,564.1) scale(2.25)' color='rgb(255,   0,   0)'/>
	<use xlink:href='#gpPt5' transform='translate(1034.4,581.0) scale(2.25)' color='rgb(255,   0,   0)'/>
	<use xlink:href='#gpPt5' transform='translate(1047.4,583.7) scale(2.25)' color='rgb(255,   0,   0)'/>
	<use xlink:href='#gpPt5' transform='translate(1060.3,582.7) scale(2.25)' color='rgb(255,   0,   0)'/>
	<use xlink:href='#gpPt5' transform='translate(1073.3,588.7) scale(2.25)' color='rgb(255,   0,   0)'/>
	<use xlink:href='#gpPt5' transform='translate(1086.3,585.3) scale(2.25)' color='rgb(255,   0,   0)'/>
	<use xlink:href='#gpPt5' transform='translate(1099.3,592.6) scale(2.25)' color='rgb(255,   0,   0)'/>
	<use xlink:href='#gpPt5' transform='translate(1112.3,594.7) scale(2.25)' color='rgb(255,   0,   0)'/>
	<use xlink:href='#gpPt5' transform='translate(1125.2,595.6) scale(2.25)' color='rgb(255,   0,   0)'/>
	<use xlink:href='#gpPt5' transform='translate(1138.2,594.7) scale(2.25)' color='rgb(255,   0,   0)'/>
	<use xlink:href='#gpPt5' transform='translate(1151.2,596.5) scale(2.25)' color='rgb(255,   0,   0)'/>
	<use xlink:href='#gpPt5' transform='translate(1164.2,602.0) scale(2.25)' color='rgb(255,   0,   0)'/>
	<use xlink:href='#gpPt5' transform='translate(1177.1,595.7) scale(2.25)' color='rgb(255,   0,   0)'/>
	<use xlink:href='#gpPt5' transform='translate(1190.1,597.9) scale(2.25)' color='rgb(255,   0,   0)'/>
	<use xlink:href='#gpPt5' transform='translate(1203.1,591.2) scale(2.25)' color='rgb(255,   0,   0)'/>
	<use xlink:href='#gpPt5' transform='translate(1216.1,589.7) scale(2.25)' color='rgb(255,   0,   0)'/>
	<use xlink:href='#gpPt5' transform='translate(1229.0,574.2) scale(2.25)' color='rgb(255,   0,   0)'/>
	<use xlink:href='#gpPt5' transform='translate(1242.0,547.6) scale(2.25)' color='rgb(255,   0,   0)'/>
	<use xlink:href='#gpPt5' transform='translate(1255.0,508.1) scale(2.25)' color='rgb(255,   0,   0)'/>
	<use xlink:href='#gpPt5' transform='translate(1217.3,72.1) scale(2.25)' color='rgb(255,   0,   0)'/>
</g>
	</g>
	<g id="gnuplot_plot_2" ><title>gnuplot_plot_2</title>
<g fill="none" color="black" stroke="currentColor" stroke-width="1.00" stroke-linecap="butt" stroke-linejoin="miter">
	<use xlink:href='#gpPt5' transform='translate(87.1,76.5) scale(2.25)' color='rgb(  0, 100,   0)'/>
	<use xlink:href='#gpPt5' transform='translate(87.7,77.3) scale(2.25)' color='rgb(  0, 100,   0)'/>
	<use xlink:href='#gpPt5' transform='translate(88.4,79.6) scale(2.25)' color='rgb(  0, 100,   0)'/>
	<use xlink:href='#gpPt5' transform='translate(89.0,83.5) scale(2.25)' color='rgb(  0, 100,   0)'/>
	<use xlink:href='#gpPt5' transform='translate(89.7,89.0) scale(2.25)' color='rgb(  0, 100,   0)'/>
	<use xlink:href='#gpPt5' transform='translate(90.3,95.9) scale(2.25)' color='rgb(  0, 100,   0)'/>
	<use xlink:href='#gpPt5' transform='translate(91.0,104.3) scale(2.25)' color='rgb(  0, 100,   0)'/>
	<use xlink:href='#gpPt5' transform='translate(91.6,114.2) scale(2.25)' color='rgb(  0, 100,   0)'/>
	<use xlink:href='#gpPt5' transform='translate(92.3,125.3) scale(2.25)' color='rgb(  0, 100,   0)'/>
	<use xlink:href='#gpPt5' transform='translate(92.9,137.6) scale(2.25)' color='rgb(  0, 100,   0)'/>
	<use xlink:href='#gpPt5' transform='translate(93.6,151.0) scale(2.25)' color='rgb(  0, 100,   0)'/>
	<use xlink:href='#gpPt5' transform='translate(94.2,165.1) scale(2.25)' color='rgb(  0, 100,   0)'/>
	<use xlink:href='#gpPt5' transform='translate(94.9,179.6) scale(2.25)' color='rgb(  0, 100,   0)'/>
	<use xlink:href='#gpPt5' transform='translate(95.5,194.2) scale(2.25)' color='rgb(  0, 100,   0)'/>
	<use xlink:href='#gpPt5' transform='translate(96.2,208.3) scale(2.25)' color='rgb(  0, 100,   0)'/>
	<use xlink:href='#gpPt5' transform='translate(96.8,221.6) scale(2.25)' color='rgb(  0, 100,   0)'/>
	<use xlink:href='#gpPt5' transform='translate(97.5,233.6) scale(2.25)' color='rgb(  0, 100,   0)'/>
	<use xlink:href='#gpPt5' transform='translate(98.1,244.2) scale(2.25)' color='rgb(  0, 100,   0)'/>
	<use xlink:href='#gpPt5' transform='translate(98.8,253.3) scale(2.25)' color='rgb(  0, 100,   0)'/>
	<use xlink:href='#gpPt5' transform='translate(99.4,261.3) scale(2.25)' color='rgb(  0, 100,   0)'/>
	<use xlink:href='#gpPt5' transform='translate(100.1,268.2) scale(2.25)' color='rgb(  0, 100,   0)'/>
	<use xlink:href='#gpPt5' transform='translate(106.6,317.5) scale(2.25)' color='rgb(  0, 100,   0)'/>
	<use xlink:href='#gpPt5' transform='translate(113.1,348.5) scale(2.25)' color='rgb(  0, 100,   0)'/>
	<use xlink:href='#gpPt5' transform='translate(119.5,368.0) scale(2.25)' color='rgb(  0, 100,   0)'/>
	<use xlink:href='#gpPt5' transform='translate(126.0,380.3) scale(2.25)' color='rgb(  0, 100,   0)'/>
	<use xlink:href='#gpPt5' transform='translate(139.0,395.4) scale(2.25)' color='rgb(  0, 100,   0)'/>
	<use xlink:href='#gpPt5' transform='translate(152.0,403.0) scale(2.25)' color='rgb(  0, 100,   0)'/>
	<use xlink:href='#gpPt5' transform='translate(165.0,408.9) scale(2.25)' color='rgb(  0, 100,   0)'/>
	<use xlink:href='#gpPt5' transform='translate(177.9,414.7) scale(2.25)' color='rgb(  0, 100,   0)'/>
	<use xlink:href='#gpPt5' transform='translate(190.9,419.7) scale(2.25)' color='rgb(  0, 100,   0)'/>
	<use xlink:href='#gpPt5' transform='translate(203.9,424.8) scale(2.25)' color='rgb(  0, 100,   0)'/>
	<use xlink:href='#gpPt5' transform='translate(216.9,430.9) scale(2.25)' color='rgb(  0, 100,   0)'/>
	<use xlink:href='#gpPt5' transform='translate(229.8,435.7) scale(2.25)' color='rgb(  0, 100,   0)'/>
	<use xlink:href='#gpPt5' transform='translate(242.8,441.5) scale(2.25)' color='rgb(  0, 100,   0)'/>
	<use xlink:href='#gpPt5' transform='translate(255.8,447.6) scale(2.25)' color='rgb(  0, 100,   0)'/>
	<use xlink:href='#gpPt5' transform='translate(268.8,454.6) scale(2.25)' color='rgb(  0, 100,   0)'/>
	<use xlink:href='#gpPt5' transform='translate(281.8,460.5) scale(2.25)' color='rgb(  0, 100,   0)'/>
	<use xlink:href='#gpPt5' transform='translate(294.7,464.8) scale(2.25)' color='rgb(  0, 100,   0)'/>
	<use xlink:href='#gpPt5' transform='translate(307.7,469.1) scale(2.25)' color='rgb(  0, 100,   0)'/>
	<use xlink:href='#gpPt5' transform='translate(320.7,480.6) scale(2.25)' color='rgb(  0, 100,   0)'/>
	<use xlink:href='#gpPt5' transform='translate(333.7,480.5) scale(2.25)' color='rgb(  0, 100,   0)'/>
	<use xlink:href='#gpPt5' transform='translate(346.6,494.8) scale(2.25)' color='rgb(  0, 100,   0)'/>
	<use xlink:href='#gpPt5' transform='translate(359.6,495.8) scale(2.25)' color='rgb(  0, 100,   0)'/>
	<use xlink:href='#gpPt5' transform='translate(372.6,508.0) scale(2.25)' color='rgb(  0, 100,   0)'/>
	<use xlink:href='#gpPt5' transform='translate(385.6,509.0) scale(2.25)' color='rgb(  0, 100,   0)'/>
	<use xlink:href='#gpPt5' transform='translate(398.5,514.8) scale(2.25)' color='rgb(  0, 100,   0)'/>
	<use xlink:href='#gpPt5' transform='translate(411.5,528.4) scale(2.25)' color='rgb(  0, 100,   0)'/>
	<use xlink:href='#gpPt5' transform='translate(424.5,527.6) scale(2.25)' color='rgb(  0, 100,   0)'/>
	<use xlink:href='#gpPt5' transform='translate(437.5,532.3) scale(2.25)' color='rgb(  0, 100,   0)'/>
	<use xlink:href='#gpPt5' transform='translate(450.4,540.8) scale(2.25)' color='rgb(  0, 100,   0)'/>
	<use xlink:href='#gpPt5' transform='translate(463.4,551.9) scale(2.25)' color='rgb(  0, 100,   0)'/>
	<use xlink:href='#gpPt5' transform='translate(476.4,562.2) scale(2.25)' color='rgb(  0, 100,   0)'/>
	<use xlink:href='#gpPt5' transform='translate(489.4,570.6) scale(2.25)' color='rgb(  0, 100,   0)'/>
	<use xlink:href='#gpPt5' transform='translate(502.4,577.7) scale(2.25)' color='rgb(  0, 100,   0)'/>
	<use xlink:href='#gpPt5' transform='translate(515.3,585.5) scale(2.25)' color='rgb(  0, 100,   0)'/>
	<use xlink:href='#gpPt5' transform='translate(528.3,593.0) scale(2.25)' color='rgb(  0, 100,   0)'/>
	<use xlink:href='#gpPt5' transform='translate(541.3,599.6) scale(2.25)' color='rgb(  0, 100,   0)'/>
	<use xlink:href='#gpPt5' transform='translate(554.3,610.6) scale(2.25)' color='rgb(  0, 100,   0)'/>
	<use xlink:href='#gpPt5' transform='translate(567.2,621.4) scale(2.25)' color='rgb(  0, 100,   0)'/>
	<use xlink:href='#gpPt5' transform='translate(580.2,628.7) scale(2.25)' color='rgb(  0, 100,   0)'/>
	<use xlink:href='#gpPt5' transform='translate(593.2,631.3) scale(2.25)' color='rgb(  0, 100,   0)'/>
	<use xlink:href='#gpPt5' transform='translate(606.2,636.9) scale(2.25)' color='rgb(  0, 100,   0)'/>
	<use xlink:href='#gpPt5' transform='translate(619.1,646.1) scale(2.25)' color='rgb(  0, 100,   0)'/>
	<use xlink:href='#gpPt5' transform='translate(632.1,651.3) scale(2.25)' color='rgb(  0, 100,   0)'/>
	<use xlink:href='#gpPt5' transform='translate(645.1,660.7) scale(2.25)' color='rgb(  0, 100,   0)'/>
	<use xlink:href='#gpPt5' transform='translate(658.1,666.5) scale(2.25)' color='rgb(  0, 100,   0)'/>
	<use xlink:href='#gpPt5' transform='translate(671.1,669.2) scale(2.25)' color='rgb(  0, 100,   0)'/>
	<use xlink:href='#gpPt5' transform='translate(684.0,671.5) scale(2.25)' color='rgb(  0, 100,   0)'/>
	<use xlink:href='#gpPt5' transform='translate(697.0,677.2) scale(2.25)' color='rgb(  0, 100,   0)'/>
	<use xlink:href='#gpPt5' transform='translate(710.0,676.6) scale(2.25)' color='rgb(  0, 100,   0)'/>
	<use xlink:href='#gpPt5' transform='translate(723.0,684.0) scale(2.25)' color='rgb(  0, 100,   0)'/>
	<use xlink:href='#gpPt5' transform='translate(735.9,681.3) scale(2.25)' color='rgb(  0, 100,   0)'/>
	<use xlink:href='#gpPt5' transform='translate(748.9,676.9) scale(2.25)' color='rgb(  0, 100,   0)'/>
	<use xlink:href='#gpPt5' transform='translate(761.9,681.7) scale(2.25)' color='rgb(  0, 100,   0)'/>
	<use xlink:href='#gpPt5' transform='translate(774.9,679.2) scale(2.25)' color='rgb(  0, 100,   0)'/>
	<use xlink:href='#gpPt5' transform='translate(787.8,675.8) scale(2.25)' color='rgb(  0, 100,   0)'/>
	<use xlink:href='#gpPt5' transform='translate(800.8,670.5) scale(2.25)' color='rgb(  0, 100,   0)'/>
	<use xlink:href='#gpPt5' transform='translate(813.8,673.0) scale(2.25)' color='rgb(  0, 100,   0)'/>
	<use xlink:href='#gpPt5' transform='translate(826.8,674.4) scale(2.25)' color='rgb(  0, 100,   0)'/>
	<use xlink:href='#gpPt5' transform='translate(839.7,666.9) scale(2.25)' color='rgb(  0, 100,   0)'/>
	<use xlink:href='#gpPt5' transform='translate(852.7,655.8) scale(2.25)' color='rgb(  0, 100,   0)'/>
	<use xlink:href='#gpPt5' transform='translate(865.7,647.2) scale(2.25)' color='rgb(  0, 100,   0)'/>
	<use xlink:href='#gpPt5' transform='translate(878.7,637.2) scale(2.25)' color='rgb(  0, 100,   0)'/>
	<use xlink:href='#gpPt5' transform='translate(891.7,633.3) scale(2.25)' color='rgb(  0, 100,   0)'/>
	<use xlink:href='#gpPt5' transform='translate(904.6,644.6) scale(2.25)' color='rgb(  0, 100,   0)'/>
	<use xlink:href='#gpPt5' transform='translate(917.6,636.9) scale(2.25)' color='rgb(  0, 100,   0)'/>
	<use xlink:href='#gpPt5' transform='translate(930.6,643.5) scale(2.25)' color='rgb(  0, 100,   0)'/>
	<use xlink:href='#gpPt5' transform='translate(943.6,651.7) scale(2.25)' color='rgb(  0, 100,   0)'/>
	<use xlink:href='#gpPt5' transform='translate(956.5,625.5) scale(2.25)' color='rgb(  0, 100,   0)'/>
	<use xlink:href='#gpPt5' transform='translate(969.5,599.0) scale(2.25)' color='rgb(  0, 100,   0)'/>
	<use xlink:href='#gpPt5' transform='translate(982.5,572.9) scale(2.25)' color='rgb(  0, 100,   0)'/>
	<use xlink:href='#gpPt5' transform='translate(995.5,550.7) scale(2.25)' color='rgb(  0, 100,   0)'/>
	<use xlink:href='#gpPt5' transform='translate(1008.4,546.0) scale(2.25)' color='rgb(  0, 100,   0)'/>
	<use xlink:href='#gpPt5' transform='translate(1021.4,562.2) scale(2.25)' color='rgb(  0, 100,   0)'/>
	<use xlink:href='#gpPt5' transform='translate(1034.4,581.6) scale(2.25)' color='rgb(  0, 100,   0)'/>
	<use xlink:href='#gpPt5' transform='translate(1047.4,584.1) scale(2.25)' color='rgb(  0, 100,   0)'/>
	<use xlink:href='#gpPt5' transform='translate(1060.3,581.6) scale(2.25)' color='rgb(  0, 100,   0)'/>
	<use xlink:href='#gpPt5' transform='translate(1073.3,585.7) scale(2.25)' color='rgb(  0, 100,   0)'/>
	<use xlink:href='#gpPt5' transform='translate(1086.3,588.4) scale(2.25)' color='rgb(  0, 100,   0)'/>
	<use xlink:href='#gpPt5' transform='translate(1099.3,591.6) scale(2.25)' color='rgb(  0, 100,   0)'/>
	<use xlink:href='#gpPt5' transform='translate(1112.3,595.3) scale(2.25)' color='rgb(  0, 100,   0)'/>
	<use xlink:href='#gpPt5' transform='translate(1125.2,595.8) scale(2.25)' color='rgb(  0, 100,   0)'/>
	<use xlink:href='#gpPt5' transform='translate(1138.2,597.0) scale(2.25)' color='rgb(  0, 100,   0)'/>
	<use xlink:href='#gpPt5' transform='translate(1151.2,600.3) scale(2.25)' color='rgb(  0, 100,   0)'/>
	<use xlink:href='#gpPt5' transform='translate(1164.2,600.4) scale(2.25)' color='rgb(  0, 100,   0)'/>
	<use xlink:href='#gpPt5' transform='translate(1177.1,598.5) scale(2.25)' color='rgb(  0, 100,   0)'/>
	<use xlink:href='#gpPt5' transform='translate(1190.1,601.2) scale(2.25)' color='rgb(  0, 100,   0)'/>
	<use xlink:href='#gpPt5' transform='translate(1203.1,595.5) scale(2.25)' color='rgb(  0, 100,   0)'/>
	<use xlink:href='#gpPt5' transform='translate(1216.1,588.7) scale(2.25)' color='rgb(  0, 100,   0)'/>
	<use xlink:href='#gpPt5' transform='translate(1229.0,577.7) scale(2.25)' color='rgb(  0, 100,   0)'/>
	<use xlink:href='#gpPt5' transform='translate(1242.0,551.1) scale(2.25)' color='rgb(  0, 100,   0)'/>
	<use xlink:href='#gpPt5' transform='translate(1255.0,519.7) scale(2.25)' color='rgb(  0, 100,   0)'/>
</g>
	</g>
	<g id="gnuplot_plot_3" ><title>gnuplot_plot_3</title>
<g fill="none" color="black" stroke="currentColor" stroke-width="1.00" stroke-linecap="butt" stroke-linejoin="miter">
	<use xlink:href='#gpPt5' transform='translate(87.1,58.4) scale(2.25)' color='rgb(  0,   0, 255)'/>
	<use xlink:href='#gpPt5' transform='translate(87.7,59.5) scale(2.25)' color='rgb(  0,   0, 255)'/>
	<use xlink:href='#gpPt5' transform='translate(88.4,63.0) scale(2.25)' color='rgb(  0,   0, 255)'/>
	<use xlink:href='#gpPt5' transform='translate(89.0,68.8) scale(2.25)' color='rgb(  0,   0, 255)'/>
	<use xlink:href='#gpPt5' transform='translate(89.7,76.9) scale(2.25)' color='rgb(  0,   0, 255)'/>
	<use xlink:href='#gpPt5' transform='translate(90.3,87.1) scale(2.25)' color='rgb(  0,   0, 255)'/>
	<use xlink:href='#gpPt5' transform='translate(91.0,99.4) scale(2.25)' color='rgb(  0,   0, 255)'/>
	<use xlink:href='#gpPt5' transform='translate(91.6,113.6) scale(2.25)' color='rgb(  0,   0, 255)'/>
	<use xlink:href='#gpPt5' transform='translate(92.3,129.4) scale(2.25)' color='rgb(  0,   0, 255)'/>
	<use xlink:href='#gpPt5' transform='translate(92.9,146.6) scale(2.25)' color='rgb(  0,   0, 255)'/>
	<use xlink:href='#gpPt5' transform='translate(93.6,164.3) scale(2.25)' color='rgb(  0,   0, 255)'/>
	<use xlink:href='#gpPt5' transform='translate(94.2,182.1) scale(2.25)' color='rgb(  0,   0, 255)'/>
	<use xlink:href='#gpPt5' transform='translate(94.9,198.9) scale(2.25)' color='rgb(  0,   0, 255)'/>
	<use xlink:href='#gpPt5' transform='translate(95.5,214.1) scale(2.25)' color='rgb(  0,   0, 255)'/>
	<use xlink:href='#gpPt5' transform='translate(96.2,227.2) scale(2.25)' color='rgb(  0,   0, 255)'/>
	<use xlink:href='#gpPt5' transform='translate(96.8,238.3) scale(2.25)' color='rgb(  0,   0, 255)'/>
	<use xlink:href='#gpPt5' transform='translate(97.5,247.6) scale(2.25)' color='rgb(  0,   0, 255)'/>
	<use xlink:href='#gpPt5' transform='translate(98.1,255.7) scale(2.25)' color='rgb(  0,   0, 255)'/>
	<use xlink:href='#gpPt5' transform='translate(98.8,262.9) scale(2.25)' color='rgb(  0,   0, 255)'/>
	<use xlink:href='#gpPt5' transform='translate(99.4,269.7) scale(2.25)' color='rgb(  0,   0, 255)'/>
	<use xlink:href='#gpPt5' transform='translate(100.1,276.0) scale(2.25)' color='rgb(  0,   0, 255)'/>
	<use xlink:href='#gpPt5' transform='translate(106.6,325.5) scale(2.25)' color='rgb(  0,   0, 255)'/>
	<use xlink:href='#gpPt5' transform='translate(113.1,354.7) scale(2.25)' color='rgb(  0,   0, 255)'/>
	<use xlink:href='#gpPt5' transform='translate(119.5,373.3) scale(2.25)' color='rgb(  0,   0, 255)'/>
	<use xlink:href='#gpPt5' transform='translate(126.0,384.0) scale(2.25)' color='rgb(  0,   0, 255)'/>
	<use xlink:href='#gpPt5' transform='translate(139.0,397.4) scale(2.25)' color='rgb(  0,   0, 255)'/>
	<use xlink:href='#gpPt5' transform='translate(152.0,405.1) scale(2.25)' color='rgb(  0,   0, 255)'/>
	<use xlink:href='#gpPt5' transform='translate(165.0,411.2) scale(2.25)' color='rgb(  0,   0, 255)'/>
	<use xlink:href='#gpPt5' transform='translate(177.9,416.5) scale(2.25)' color='rgb(  0,   0, 255)'/>
	<use xlink:href='#gpPt5' transform='translate(190.9,421.2) scale(2.25)' color='rgb(  0,   0, 255)'/>
	<use xlink:href='#gpPt5' transform='translate(203.9,426.5) scale(2.25)' color='rgb(  0,   0, 255)'/>
	<use xlink:href='#gpPt5' transform='translate(216.9,432.3) scale(2.25)' color='rgb(  0,   0, 255)'/>
	<use xlink:href='#gpPt5' transform='translate(229.8,438.1) scale(2.25)' color='rgb(  0,   0, 255)'/>
	<use xlink:href='#gpPt5' transform='translate(242.8,445.1) scale(2.25)' color='rgb(  0,   0, 255)'/>
	<use xlink:href='#gpPt5' transform='translate(255.8,449.0) scale(2.25)' color='rgb(  0,   0, 255)'/>
	<use xlink:href='#gpPt5' transform='translate(268.8,452.1) scale(2.25)' color='rgb(  0,   0, 255)'/>
	<use xlink:href='#gpPt5' transform='translate(281.8,456.1) scale(2.25)' color='rgb(  0,   0, 255)'/>
	<use xlink:href='#gpPt5' transform='translate(294.7,469.3) scale(2.25)' color='rgb(  0,   0, 255)'/>
	<use xlink:href='#gpPt5' transform='translate(307.7,472.5) scale(2.25)' color='rgb(  0,   0, 255)'/>
	<use xlink:href='#gpPt5' transform='translate(320.7,474.6) scale(2.25)' color='rgb(  0,   0, 255)'/>
	<use xlink:href='#gpPt5' transform='translate(333.7,486.3) scale(2.25)' color='rgb(  0,   0, 255)'/>
	<use xlink:href='#gpPt5' transform='translate(346.6,488.2) scale(2.25)' color='rgb(  0,   0, 255)'/>
	<use xlink:href='#gpPt5' transform='translate(359.6,499.7) scale(2.25)' color='rgb(  0,   0, 255)'/>
	<use xlink:href='#gpPt5' transform='translate(372.6,504.5) scale(2.25)' color='rgb(  0,   0, 255)'/>
	<use xlink:href='#gpPt5' transform='translate(385.6,506.3) scale(2.25)' color='rgb(  0,   0, 255)'/>
	<use xlink:href='#gpPt5' transform='translate(398.5,518.5) scale(2.25)' color='rgb(  0,   0, 255)'/>
	<use xlink:href='#gpPt5' transform='translate(411.5,521.6) scale(2.25)' color='rgb(  0,   0, 255)'/>
	<use xlink:href='#gpPt5' transform='translate(424.5,526.0) scale(2.25)' color='rgb(  0,   0, 255)'/>
	<use xlink:href='#gpPt5' transform='translate(437.5,535.9) scale(2.25)' color='rgb(  0,   0, 255)'/>
	<use xlink:href='#gpPt5' transform='translate(450.4,547.5) scale(2.25)' color='rgb(  0,   0, 255)'/>
	<use xlink:href='#gpPt5' transform='translate(463.4,553.5) scale(2.25)' color='rgb(  0,   0, 255)'/>
	<use xlink:href='#gpPt5' transform='translate(476.4,561.6) scale(2.25)' color='rgb(  0,   0, 255)'/>
	<use xlink:href='#gpPt5' transform='translate(489.4,568.3) scale(2.25)' color='rgb(  0,   0, 255)'/>
	<use xlink:href='#gpPt5' transform='translate(502.4,577.8) scale(2.25)' color='rgb(  0,   0, 255)'/>
	<use xlink:href='#gpPt5' transform='translate(515.3,586.4) scale(2.25)' color='rgb(  0,   0, 255)'/>
	<use xlink:href='#gpPt5' transform='translate(528.3,594.8) scale(2.25)' color='rgb(  0,   0, 255)'/>
	<use xlink:href='#gpPt5' transform='translate(541.3,603.0) scale(2.25)' color='rgb(  0,   0, 255)'/>
	<use xlink:href='#gpPt5' transform='translate(554.3,609.0) scale(2.25)' color='rgb(  0,   0, 255)'/>
	<use xlink:href='#gpPt5' transform='translate(567.2,619.1) scale(2.25)' color='rgb(  0,   0, 255)'/>
	<use xlink:href='#gpPt5' transform='translate(580.2,628.3) scale(2.25)' color='rgb(  0,   0, 255)'/>
	<use xlink:href='#gpPt5' transform='translate(593.2,637.4) scale(2.25)' color='rgb(  0,   0, 255)'/>
	<use xlink:href='#gpPt5' transform='translate(606.2,643.3) scale(2.25)' color='rgb(  0,   0, 255)'/>
	<use xlink:href='#gpPt5' transform='translate(619.1,647.5) scale(2.25)' color='rgb(  0,   0, 255)'/>
	<use xlink:href='#gpPt5' transform='translate(632.1,659.9) scale(2.25)' color='rgb(  0,   0, 255)'/>
	<use xlink:href='#gpPt5' transform='translate(645.1,663.0) scale(2.25)' color='rgb(  0,   0, 255)'/>
	<use xlink:href='#gpPt5' transform='translate(658.1,667.9) scale(2.25)' color='rgb(  0,   0, 255)'/>
	<use xlink:href='#gpPt5' transform='translate(671.1,667.6) scale(2.25)' color='rgb(  0,   0, 255)'/>
	<use xlink:href='#gpPt5' transform='translate(684.0,678.0) scale(2.25)' color='rgb(  0,   0, 255)'/>
	<use xlink:href='#gpPt5' transform='translate(697.0,680.6) scale(2.25)' color='rgb(  0,   0, 255)'/>
	<use xlink:href='#gpPt5' transform='translate(710.0,680.7) scale(2.25)' color='rgb(  0,   0, 255)'/>
	<use xlink:href='#gpPt5' transform='translate(723.0,682.3) scale(2.25)' color='rgb(  0,   0, 255)'/>
	<use xlink:href='#gpPt5' transform='translate(735.9,683.7) scale(2.25)' color='rgb(  0,   0, 255)'/>
	<use xlink:href='#gpPt5' transform='translate(748.9,682.4) scale(2.25)' color='rgb(  0,   0, 255)'/>
	<use xlink:href='#gpPt5' transform='translate(761.9,681.3) scale(2.25)' color='rgb(  0,   0, 255)'/>
	<use xlink:href='#gpPt5' transform='translate(774.9,679.5) scale(2.25)' color='rgb(  0,   0, 255)'/>
	<use xlink:href='#gpPt5' transform='translate(787.8,673.0) scale(2.25)' color='rgb(  0,   0, 255)'/>
	<use xlink:href='#gpPt5' transform='translate(800.8,680.2) scale(2.25)' color='rgb(  0,   0, 255)'/>
	<use xlink:href='#gpPt5' transform='translate(813.8,677.4) scale(2.25)' color='rgb(  0,   0, 255)'/>
	<use xlink:href='#gpPt5' transform='translate(826.8,672.2) scale(2.25)' color='rgb(  0,   0, 255)'/>
	<use xlink:href='#gpPt5' transform='translate(839.7,670.9) scale(2.25)' color='rgb(  0,   0, 255)'/>
	<use xlink:href='#gpPt5' transform='translate(852.7,657.4) scale(2.25)' color='rgb(  0,   0, 255)'/>
	<use xlink:href='#gpPt5' transform='translate(865.7,645.4) scale(2.25)' color='rgb(  0,   0, 255)'/>
	<use xlink:href='#gpPt5' transform='translate(878.7,637.6) scale(2.25)' color='rgb(  0,   0, 255)'/>
	<use xlink:href='#gpPt5' transform='translate(891.7,634.6) scale(2.25)' color='rgb(  0,   0, 255)'/>
	<use xlink:href='#gpPt5' transform='translate(904.6,639.6) scale(2.25)' color='rgb(  0,   0, 255)'/>
	<use xlink:href='#gpPt5' transform='translate(917.6,641.1) scale(2.25)' color='rgb(  0,   0, 255)'/>
	<use xlink:href='#gpPt5' transform='translate(930.6,655.6) scale(2.25)' color='rgb(  0,   0, 255)'/>
	<use xlink:href='#gpPt5' transform='translate(943.6,650.9) scale(2.25)' color='rgb(  0,   0, 255)'/>
	<use xlink:href='#gpPt5' transform='translate(956.5,647.0) scale(2.25)' color='rgb(  0,   0, 255)'/>
	<use xlink:href='#gpPt5' transform='translate(969.5,609.9) scale(2.25)' color='rgb(  0,   0, 255)'/>
	<use xlink:href='#gpPt5' transform='translate(982.5,576.0) scale(2.25)' color='rgb(  0,   0, 255)'/>
	<use xlink:href='#gpPt5' transform='translate(995.5,548.3) scale(2.25)' color='rgb(  0,   0, 255)'/>
	<use xlink:href='#gpPt5' transform='translate(1008.4,543.8) scale(2.25)' color='rgb(  0,   0, 255)'/>
	<use xlink:href='#gpPt5' transform='translate(1021.4,561.8) scale(2.25)' color='rgb(  0,   0, 255)'/>
	<use xlink:href='#gpPt5' transform='translate(1034.4,583.7) scale(2.25)' color='rgb(  0,   0, 255)'/>
	<use xlink:href='#gpPt5' transform='translate(1047.4,579.2) scale(2.25)' color='rgb(  0,   0, 255)'/>
	<use xlink:href='#gpPt5' transform='translate(1060.3,583.6) scale(2.25)' color='rgb(  0,   0, 255)'/>
	<use xlink:href='#gpPt5' transform='translate(1073.3,587.4) scale(2.25)' color='rgb(  0,   0, 255)'/>
	<use xlink:href='#gpPt5' transform='translate(1086.3,591.8) scale(2.25)' color='rgb(  0,   0, 255)'/>
	<use xlink:href='#gpPt5' transform='translate(1099.3,590.7) scale(2.25)' color='rgb(  0,   0, 255)'/>
	<use xlink:href='#gpPt5' transform='translate(1112.3,595.4) scale(2.25)' color='rgb(  0,   0, 255)'/>
	<use xlink:href='#gpPt5' transform='translate(1125.2,601.6) scale(2.25)' color='rgb(  0,   0, 255)'/>
	<use xlink:href='#gpPt5' transform='translate(1138.2,599.6) scale(2.25)' color='rgb(  0,   0, 255)'/>
	<use xlink:href='#gpPt5' transform='translate(1151.2,602.9) scale(2.25)' color='rgb(  0,   0, 255)'/>
	<use xlink:href='#gpPt5' transform='translate(1164.2,599.1) scale(2.25)' color='rgb(  0,   0, 255)'/>
	<use xlink:href='#gpPt5' transform='translate(1177.1,603.3) scale(2.25)' color='rgb(  0,   0, 255)'/>
	<use xlink:href='#gpPt5' transform='translate(1190.1,606.3) scale(2.25)' color='rgb(  0,   0, 255)'/>
	<use xlink:href='#gpPt5' transform='translate(1203.1,605.1) scale(2.25)' color='rgb(  0,   0, 255)'/>
	<use xlink:href='#gpPt5' transform='translate(1216.1,596.0) scale(2.25)' color='rgb(  0,   0, 255)'/>
	<use xlink:href='#gpPt5' transform='translate(1229.0,586.2) scale(2.25)' color='rgb(  0,   0, 255)'/>
	<use xlink:href='#gpPt5' transform='translate(1242.0,564.0) scale(2.25)' color='rgb(  0,   0, 255)'/>
	<use xlink:href='#gpPt5' transform='translate(1255.0,526.1) scale(2.25)' color='rgb(  0,   0, 255)'/>
</g>
	</g>
	<g id="gnuplot_plot_4" ><title>fit</title>
<g fill="none" color="black" stroke="currentColor" stroke-width="1.00" stroke-linecap="butt" stroke-linejoin="miter">
	<g transform="translate(1187.9,94.0)" stroke="none" fill="black" font-family="Arial" font-size="12.00"  text-anchor="end">
		<text><tspan font-family="Arial" >fit</tspan></text>
	</g>
</g>
<g fill="none" color="black" stroke="currentColor" stroke-width="1.00" stroke-linecap="butt" stroke-linejoin="miter">
	<path stroke='rgb(255,   0,   0)'  d='M1196.2,90.1 L1238.4,90.1 M87.1,54.1 L88.2,62.6 L89.4,83.3 L90.5,108.2 L91.7,132.6 L92.8,155.0
		L93.9,175.1 L95.1,193.1 L96.2,209.2 L97.4,223.7 L98.5,236.9 L99.7,248.8 L100.8,259.7 L101.9,269.7
		L103.1,278.9 L104.2,287.4 L105.4,295.1 L106.5,302.3 L107.6,309.0 L108.8,315.1 L109.9,320.9 L111.1,326.2
		L112.2,331.1 L113.4,335.6 L114.5,339.9 L115.6,343.8 L116.8,347.5 L117.9,350.9 L119.1,354.1 L120.2,357.1
		L121.3,359.9 L122.5,362.5 L123.6,365.0 L124.8,367.3 L125.9,369.5 L127.1,371.5 L128.2,373.4 L129.3,375.3
		L130.5,377.0 L131.6,378.6 L132.8,380.2 L133.9,381.7 L135.0,383.1 L136.2,384.5 L137.3,385.8 L138.5,387.0
		L139.6,388.2 L140.8,389.4 L141.9,390.5 L143.0,391.6 L144.2,392.7 L145.3,393.7 L146.5,394.7 L147.6,395.7
		L148.7,396.7 L149.9,397.6 L151.0,398.5 L152.2,399.4 L153.3,400.3 L154.5,401.1 L155.6,402.0 L156.7,402.8
		L157.9,403.7 L159.0,404.5 L160.2,405.3 L161.3,406.1 L162.4,406.9 L163.6,407.7 L164.7,408.4 L165.9,409.2
		L167.0,410.0 L168.2,410.7 L169.3,411.5 L170.4,412.2 L171.6,413.0 L172.7,413.7 L173.9,414.5 L175.0,415.2
		L176.1,415.9 L177.3,416.6 L178.4,417.4 L179.6,418.1 L180.7,418.8 L181.9,419.5 L183.0,420.2 L184.1,420.9
		L185.3,421.7 L186.4,422.4 L187.6,423.1 L188.7,423.8 L189.8,424.5 L191.0,425.2 L192.1,425.9 L193.3,426.6
		L194.4,427.2 L195.6,427.9 L196.7,428.6 L197.8,429.3 L199.0,430.0 L200.1,430.7 L201.3,431.4 L202.4,432.1
		L203.5,432.7 L204.7,433.4 L205.8,434.1 L207.0,434.8 L208.1,435.5 L209.3,436.1 L210.4,436.8 L211.5,437.5
		L212.7,438.1 L213.8,438.8 L215.0,439.5 L216.1,440.1 L217.2,440.8 L218.4,441.5 L219.5,442.1 L220.7,442.8
		L221.8,443.5 L223.0,444.1 L224.1,444.8 L225.2,445.4 L226.4,446.1 L227.5,446.7 L228.7,447.4 L229.8,448.0
		L230.9,448.7 L232.1,449.3 L233.2,450.0 L234.4,450.6 L235.5,451.3 L236.7,451.9 L237.8,452.5 L238.9,453.2
		L240.1,453.8 L241.2,454.4 L242.4,455.1 L243.5,455.7 L244.6,456.3 L245.8,457.0 L246.9,457.6 L248.1,458.2
		L249.2,458.8 L250.4,459.5 L251.5,460.1 L252.6,460.7 L253.8,461.3 L254.9,461.9 L256.1,462.5 L257.2,463.2
		L258.3,463.8 L259.5,464.4 L260.6,465.0 L261.8,465.6 L262.9,466.2 L264.1,466.8 L265.2,467.4 L266.3,468.0
		L267.5,468.6 L268.6,469.2 L269.8,469.8 L270.9,470.4 L272.0,470.9 L273.2,471.5 L274.3,472.1 L275.5,472.7
		L276.6,473.3 L277.8,473.9 L278.9,474.4 L280.0,475.0 L281.2,475.6 L282.3,476.2 L283.5,476.7 L284.6,477.3
		L285.7,477.9 L286.9,478.4 L288.0,479.0 L289.2,479.6 L290.3,480.1 L291.5,480.7 L292.6,481.2 L293.7,481.8
		L294.9,482.4 L296.0,482.9 L297.2,483.5 L298.3,484.0 L299.4,484.6 L300.6,485.1 L301.7,485.6 L302.9,486.2
		L304.0,486.7 L305.2,487.3 L306.3,487.8 L307.4,488.3 L308.6,488.9 L309.7,489.4 L310.9,489.9 L312.0,490.5
		L313.1,491.0 L314.3,491.5 L315.4,492.0 L316.6,492.6 L317.7,493.1 L318.9,493.6 L320.0,494.1 L321.1,494.6
		L322.3,495.1 L323.4,495.7 L324.6,496.2 L325.7,496.7 L326.8,497.2 L328.0,497.7 L329.1,498.2 L330.3,498.7
		L331.4,499.2 L332.6,499.7 L333.7,500.2 L334.8,500.7 L336.0,501.2 L337.1,501.7 L338.3,502.2 L339.4,502.7
		L340.5,503.1 L341.7,503.6 L342.8,504.1 L344.0,504.6 L345.1,505.1 L346.3,505.6 L347.4,506.0 L348.5,506.5
		L349.7,507.0 L350.8,507.5 L352.0,507.9 L353.1,508.4 L354.2,508.9 L355.4,509.4 L356.5,509.8 L357.7,510.3
		L358.8,510.7 L360.0,511.2 L361.1,511.7 L362.2,512.1 L363.4,512.6 L364.5,513.0 L365.7,513.5 L366.8,514.0
		L367.9,514.4 L369.1,514.9 L370.2,515.3 L371.4,515.7 L372.5,516.2 L373.7,516.6 L374.8,517.1 L375.9,517.5
		L377.1,518.0 L378.2,518.4 L379.4,518.8 L380.5,519.3 L381.6,519.7 L382.8,520.1 L383.9,520.6 L385.1,521.0
		L386.2,521.4 L387.4,521.9 L388.5,522.3 L389.6,522.7 L390.8,523.1 L391.9,523.6 L393.1,524.0 L394.2,524.4
		L395.3,524.8 L396.5,525.2 L397.6,525.7 L398.8,526.1 L399.9,526.5 L401.1,526.9 L402.2,527.3 L403.3,527.7
		L404.5,528.1 L405.6,528.5 L406.8,528.9 L407.9,529.3 L409.0,529.7 L410.2,530.1 L411.3,530.5 L412.5,530.9
		L413.6,531.3 L414.8,531.7 L415.9,532.1 L417.0,532.5 L418.2,532.9 L419.3,533.3 L420.5,533.7 L421.6,534.1
		L422.7,534.5 L423.9,534.9 L425.0,535.2 L426.2,535.6 L427.3,536.0 L428.5,536.4 L429.6,536.8 L430.7,537.2
		L431.9,537.5 L433.0,537.9 L434.2,538.3 L435.3,538.7 L436.4,539.0 L437.6,539.4 L438.7,539.8 L439.9,540.2
		L441.0,540.5 L442.2,540.9 L443.3,541.3 L444.4,541.6 L445.6,542.0 L446.7,542.3 L447.9,542.7 L449.0,543.1
		L450.1,543.4 L451.3,543.8 L452.4,544.1 L453.6,544.5 L454.7,544.9 L455.9,545.2 L457.0,545.6 L458.1,545.9
		L459.3,546.3 L460.4,546.6 L461.6,547.0 L462.7,547.3 L463.8,547.7 L465.0,548.0 L466.1,548.4 L467.3,548.7
		L468.4,549.0 L469.6,549.4 L470.7,549.7 L471.8,550.1 L473.0,550.4 L474.1,550.7 L475.3,551.1 L476.4,551.4
		L477.5,551.7 L478.7,552.1 L479.8,552.4 L481.0,552.7 L482.1,553.1 L483.2,553.4 L484.4,553.7 L485.5,554.1
		L486.7,554.4 L487.8,554.7 L489.0,555.0 L490.1,555.4 L491.2,555.7 L492.4,556.0 L493.5,556.3 L494.7,556.6
		L495.8,557.0 L496.9,557.3 L498.1,557.6 L499.2,557.9 L500.4,558.2 L501.5,558.5 L502.7,558.9 L503.8,559.2
		L504.9,559.5 L506.1,559.8 L507.2,560.1 L508.4,560.4 L509.5,560.7 L510.6,561.0 L511.8,561.3 L512.9,561.6
		L514.1,561.9 L515.2,562.2 L516.4,562.5 L517.5,562.8 L518.6,563.1 L519.8,563.4 L520.9,563.7 L522.1,564.0
		L523.2,564.3 L524.3,564.6 L525.5,564.9 L526.6,565.2 L527.8,565.5 L528.9,565.8 L530.1,566.1 L531.2,566.4
		L532.3,566.7 L533.5,567.0 L534.6,567.3 L535.8,567.5 L536.9,567.8 L538.0,568.1 L539.2,568.4 L540.3,568.7
		L541.5,569.0 L542.6,569.3 L543.8,569.5 L544.9,569.8 L546.0,570.1 L547.2,570.4 L548.3,570.7 L549.5,570.9
		L550.6,571.2 L551.7,571.5 L552.9,571.8 L554.0,572.0 L555.2,572.3 L556.3,572.6 L557.5,572.9 L558.6,573.1
		L559.7,573.4 L560.9,573.7 L562.0,573.9 L563.2,574.2 L564.3,574.5 L565.4,574.7 L566.6,575.0 L567.7,575.3
		L568.9,575.5 L570.0,575.8 L571.2,576.1 L572.3,576.3 L573.4,576.6 L574.6,576.8 L575.7,577.1 L576.9,577.4
		L578.0,577.6 L579.1,577.9 L580.3,578.1 L581.4,578.4 L582.6,578.6 L583.7,578.9 L584.9,579.1 L586.0,579.4
		L587.1,579.6 L588.3,579.9 L589.4,580.2 L590.6,580.4 L591.7,580.6 L592.8,580.9 L594.0,581.1 L595.1,581.4
		L596.3,581.6 L597.4,581.9 L598.6,582.1 L599.7,582.4 L600.8,582.6 L602.0,582.9 L603.1,583.1 L604.3,583.3
		L605.4,583.6 L606.5,583.8 L607.7,584.1 L608.8,584.3 L610.0,584.5 L611.1,584.8 L612.3,585.0 L613.4,585.2
		L614.5,585.5 L615.7,585.7 L616.8,586.0 L618.0,586.2 L619.1,586.4 L620.2,586.6 L621.4,586.9 L622.5,587.1
		L623.7,587.3 L624.8,587.6 L626.0,587.8 L627.1,588.0 L628.2,588.3 L629.4,588.5 L630.5,588.7 L631.7,588.9
		L632.8,589.2 L633.9,589.4 L635.1,589.6 L636.2,589.8 L637.4,590.0 L638.5,590.3 L639.7,590.5 L640.8,590.7
		L641.9,590.9 L643.1,591.1 L644.2,591.4 L645.4,591.6 L646.5,591.8 L647.6,592.0 L648.8,592.2 L649.9,592.4
		L651.1,592.7 L652.2,592.9 L653.4,593.1 L654.5,593.3 L655.6,593.5 L656.8,593.7 L657.9,593.9 L659.1,594.1
		L660.2,594.4 L661.3,594.6 L662.5,594.8 L663.6,595.0 L664.8,595.2 L665.9,595.4 L667.1,595.6 L668.2,595.8
		L669.3,596.0 L670.5,596.2 L671.6,596.4 L672.8,596.6 L673.9,596.8 L675.0,597.0 L676.2,597.2 L677.3,597.4
		L678.5,597.6 L679.6,597.8 L680.8,598.0 L681.9,598.2 L683.0,598.4 L684.2,598.6 L685.3,598.8 L686.5,599.0
		L687.6,599.2 L688.7,599.4 L689.9,599.6 L691.0,599.8 L692.2,600.0 L693.3,600.2 L694.5,600.4 L695.6,600.6
		L696.7,600.7 L697.9,600.9 L699.0,601.1 L700.2,601.3 L701.3,601.5 L702.4,601.7 L703.6,601.9 L704.7,602.1
		L705.9,602.2 L707.0,602.4 L708.2,602.6 L709.3,602.8 L710.4,603.0 L711.6,603.2 L712.7,603.4 L713.9,603.5
		L715.0,603.7 L716.1,603.9 L717.3,604.1 L718.4,604.3 L719.6,604.4 L720.7,604.6 L721.9,604.8 L723.0,605.0
		L724.1,605.2 L725.3,605.3 L726.4,605.5 L727.6,605.7 L728.7,605.9 L729.8,606.0 L731.0,606.2 L732.1,606.4
		L733.3,606.6 L734.4,606.7 L735.6,606.9 L736.7,607.1 L737.8,607.2 L739.0,607.4 L740.1,607.6 L741.3,607.8
		L742.4,607.9 L743.5,608.1 L744.7,608.3 L745.8,608.4 L747.0,608.6 L748.1,608.8 L749.3,608.9 L750.4,609.1
		L751.5,609.3 L752.7,609.4 L753.8,609.6 L755.0,609.8 L756.1,609.9 L757.2,610.1 L758.4,610.2 L759.5,610.4
		L760.7,610.6 L761.8,610.7 L763.0,610.9 L764.1,611.0 L765.2,611.2 L766.4,611.4 L767.5,611.5 L768.7,611.7
		L769.8,611.8 L770.9,612.0 L772.1,612.2 L773.2,612.3 L774.4,612.5 L775.5,612.6 L776.7,612.8 L777.8,612.9
		L778.9,613.1 L780.1,613.2 L781.2,613.4 L782.4,613.5 L783.5,613.7 L784.6,613.8 L785.8,614.0 L786.9,614.1
		L788.1,614.3 L789.2,614.4 L790.4,614.6 L791.5,614.7 L792.6,614.9 L793.8,615.0 L794.9,615.2 L796.1,615.3
		L797.2,615.5 L798.3,615.6 L799.5,615.8 L800.6,615.9 L801.8,616.1 L802.9,616.2 L804.1,616.3 L805.2,616.5
		L806.3,616.6 L807.5,616.8 L808.6,616.9 L809.8,617.0 L810.9,617.2 L812.0,617.3 L813.2,617.5 L814.3,617.6
		L815.5,617.7 L816.6,617.9 L817.8,618.0 L818.9,618.2 L820.0,618.3 L821.2,618.4 L822.3,618.6 L823.5,618.7
		L824.6,618.8 L825.7,619.0 L826.9,619.1 L828.0,619.2 L829.2,619.4 L830.3,619.5 L831.5,619.6 L832.6,619.8
		L833.7,619.9 L834.9,620.0 L836.0,620.2 L837.2,620.3 L838.3,620.4 L839.4,620.6 L840.6,620.7 L841.7,620.8
		L842.9,620.9 L844.0,621.1 L845.2,621.2 L846.3,621.3 L847.4,621.5 L848.6,621.6 L849.7,621.7 L850.9,621.8
		L852.0,622.0 L853.1,622.1 L854.3,622.2 L855.4,622.3 L856.6,622.4 L857.7,622.6 L858.9,622.7 L860.0,622.8
		L861.1,622.9 L862.3,623.1 L863.4,623.2 L864.6,623.3 L865.7,623.4 L866.8,623.5 L868.0,623.7 L869.1,623.8
		L870.3,623.9 L871.4,624.0 L872.5,624.1 L873.7,624.2 L874.8,624.4 L876.0,624.5 L877.1,624.6 L878.3,624.7
		L879.4,624.8 L880.5,624.9 L881.7,625.1 L882.8,625.2 L884.0,625.3 L885.1,625.4 L886.2,625.5 L887.4,625.6
		L888.5,625.7 L889.7,625.8 L890.8,625.9 L892.0,626.1 L893.1,626.2 L894.2,626.3 L895.4,626.4 L896.5,626.5
		L897.7,626.6 L898.8,626.7 L899.9,626.8 L901.1,626.9 L902.2,627.0 L903.4,627.1 L904.5,627.2 L905.7,627.3
		L906.8,627.5 L907.9,627.6 L909.1,627.7 L910.2,627.8 L911.4,627.9 L912.5,628.0 L913.6,628.1 L914.8,628.2
		L915.9,628.3 L917.1,628.4 L918.2,628.5 L919.4,628.6 L920.5,628.7 L921.6,628.8 L922.8,628.9 L923.9,629.0
		L925.1,629.1 L926.2,629.2 L927.3,629.3 L928.5,629.4 L929.6,629.5 L930.8,629.6 L931.9,629.7 L933.1,629.8
		L934.2,629.9 L935.3,630.0 L936.5,630.1 L937.6,630.1 L938.8,630.2 L939.9,630.3 L941.0,630.4 L942.2,630.5
		L943.3,630.6 L944.5,630.7 L945.6,630.8 L946.8,630.9 L947.9,631.0 L949.0,631.1 L950.2,631.2 L951.3,631.3
		L952.5,631.3 L953.6,631.4 L954.7,631.5 L955.9,631.6 L957.0,631.7 L958.2,631.8 L959.3,631.9 L960.5,632.0
		L961.6,632.0 L962.7,632.1 L963.9,632.2 L965.0,632.3 L966.2,632.4 L967.3,632.5 L968.4,632.6 L969.6,632.6
		L970.7,632.7 L971.9,632.8 L973.0,632.9 L974.2,633.0 L975.3,633.1 L976.4,633.1 L977.6,633.2 L978.7,633.3
		L979.9,633.4 L981.0,633.5 L982.1,633.5 L983.3,633.6 L984.4,633.7 L985.6,633.8 L986.7,633.9 L987.9,633.9
		L989.0,634.0 L990.1,634.1 L991.3,634.2 L992.4,634.2 L993.6,634.3 L994.7,634.4 L995.8,634.5 L997.0,634.6
		L998.1,634.6 L999.3,634.7 L1000.4,634.8 L1001.6,634.9 L1002.7,634.9 L1003.8,635.0 L1005.0,635.1 L1006.1,635.1
		L1007.3,635.2 L1008.4,635.3 L1009.5,635.4 L1010.7,635.4 L1011.8,635.5 L1013.0,635.6 L1014.1,635.6 L1015.3,635.7
		L1016.4,635.8 L1017.5,635.8 L1018.7,635.9 L1019.8,636.0 L1021.0,636.1 L1022.1,636.1 L1023.2,636.2 L1024.4,636.3
		L1025.5,636.3 L1026.7,636.4 L1027.8,636.5 L1029.0,636.5 L1030.1,636.6 L1031.2,636.7 L1032.4,636.7 L1033.5,636.8
		L1034.7,636.8 L1035.8,636.9 L1036.9,637.0 L1038.1,637.0 L1039.2,637.1 L1040.4,637.2 L1041.5,637.2 L1042.7,637.3
		L1043.8,637.3 L1044.9,637.4 L1046.1,637.5 L1047.2,637.5 L1048.4,637.6 L1049.5,637.6 L1050.6,637.7 L1051.8,637.8
		L1052.9,637.8 L1054.1,637.9 L1055.2,637.9 L1056.4,638.0 L1057.5,638.0 L1058.6,638.1 L1059.8,638.2 L1060.9,638.2
		L1062.1,638.3 L1063.2,638.3 L1064.3,638.4 L1065.5,638.4 L1066.6,638.5 L1067.8,638.5 L1068.9,638.6 L1070.1,638.6
		L1071.2,638.7 L1072.3,638.8 L1073.5,638.8 L1074.6,638.9 L1075.8,638.9 L1076.9,639.0 L1078.0,639.0 L1079.2,639.1
		L1080.3,639.1 L1081.5,639.2 L1082.6,639.2 L1083.8,639.3 L1084.9,639.3 L1086.0,639.4 L1087.2,639.4 L1088.3,639.5
		L1089.5,639.5 L1090.6,639.5 L1091.7,639.6 L1092.9,639.6 L1094.0,639.7 L1095.2,639.7 L1096.3,639.8 L1097.5,639.8
		L1098.6,639.9 L1099.7,639.9 L1100.9,640.0 L1102.0,640.0 L1103.2,640.0 L1104.3,640.1 L1105.4,640.1 L1106.6,640.2
		L1107.7,640.2 L1108.9,640.3 L1110.0,640.3 L1111.2,640.3 L1112.3,640.4 L1113.4,640.4 L1114.6,640.5 L1115.7,640.5
		L1116.9,640.5 L1118.0,640.6 L1119.1,640.6 L1120.3,640.7 L1121.4,640.7 L1122.6,640.7 L1123.7,640.8 L1124.9,640.8
		L1126.0,640.8 L1127.1,640.9 L1128.3,640.9 L1129.4,640.9 L1130.6,641.0 L1131.7,641.0 L1132.8,641.1 L1134.0,641.1
		L1135.1,641.1 L1136.3,641.2 L1137.4,641.2 L1138.6,641.2 L1139.7,641.3 L1140.8,641.3 L1142.0,641.3 L1143.1,641.4
		L1144.3,641.4 L1145.4,641.4 L1146.5,641.4 L1147.7,641.5 L1148.8,641.5 L1150.0,641.5 L1151.1,641.6 L1152.3,641.6
		L1153.4,641.6 L1154.5,641.7 L1155.7,641.7 L1156.8,641.7 L1158.0,641.7 L1159.1,641.8 L1160.2,641.8 L1161.4,641.8
		L1162.5,641.8 L1163.7,641.9 L1164.8,641.9 L1166.0,641.9 L1167.1,641.9 L1168.2,642.0 L1169.4,642.0 L1170.5,642.0
		L1171.7,642.0 L1172.8,642.1 L1173.9,642.1 L1175.1,642.1 L1176.2,642.1 L1177.4,642.2 L1178.5,642.2 L1179.7,642.2
		L1180.8,642.2 L1181.9,642.2 L1183.1,642.3 L1184.2,642.3 L1185.4,642.3 L1186.5,642.3 L1187.6,642.3 L1188.8,642.4
		L1189.9,642.4 L1191.1,642.4 L1192.2,642.4 L1193.4,642.4 L1194.5,642.4 L1195.6,642.5 L1196.8,642.5 L1197.9,642.5
		L1199.1,642.5 L1200.2,642.5 L1201.3,642.5 L1202.5,642.6 L1203.6,642.6 L1204.8,642.6 L1205.9,642.6 L1207.1,642.6
		L1208.2,642.6 L1209.3,642.6 L1210.5,642.7 L1211.6,642.7 L1212.8,642.7 L1213.9,642.7 L1215.0,642.7 L1216.2,642.7
		L1217.3,642.7 L1218.5,642.7 L1219.6,642.7 L1220.8,642.8 L1221.9,642.8 L1223.0,642.8 L1224.2,642.8 L1225.3,642.8
		L1226.5,642.8 L1227.6,642.8 L1228.7,642.8 L1229.9,642.8 L1231.0,642.8 L1232.2,642.8 L1233.3,642.8 L1234.5,642.8
		L1235.6,642.9 L1236.7,642.9 L1237.9,642.9 L1239.0,642.9 L1240.2,642.9 L1241.3,642.9 L1242.4,642.9 L1243.6,642.9
		L1244.7,642.9 L1245.9,642.9 L1247.0,642.9 L1248.2,642.9 L1249.3,642.9 L1250.4,642.9 L1251.6,642.9 L1252.7,642.9
		L1253.9,642.9 L1255.0,642.9  '/></g>
	</g>
	<g id="gnuplot_plot_5" ><title>gnuplot_plot_5</title>
<g fill="none" color="black" stroke="currentColor" stroke-width="1.00" stroke-linecap="butt" stroke-linejoin="miter">
	<path stroke='rgb(  0, 100,   0)'  d='M87.1,60.2 L88.2,68.7 L89.4,89.4 L90.5,114.2 L91.7,138.6 L92.8,161.0 L93.9,181.1 L95.1,199.0
		L96.2,215.1 L97.4,229.6 L98.5,242.7 L99.7,254.6 L100.8,265.4 L101.9,275.3 L103.1,284.3 L104.2,292.7
		L105.4,300.3 L106.5,307.4 L107.6,313.9 L108.8,319.9 L109.9,325.4 L111.1,330.6 L112.2,335.3 L113.4,339.7
		L114.5,343.8 L115.6,347.5 L116.8,351.0 L117.9,354.3 L119.1,357.3 L120.2,360.1 L121.3,362.8 L122.5,365.2
		L123.6,367.5 L124.8,369.7 L125.9,371.7 L127.1,373.6 L128.2,375.4 L129.3,377.1 L130.5,378.8 L131.6,380.3
		L132.8,381.7 L133.9,383.1 L135.0,384.5 L136.2,385.7 L137.3,387.0 L138.5,388.1 L139.6,389.3 L140.8,390.4
		L141.9,391.4 L143.0,392.4 L144.2,393.4 L145.3,394.4 L146.5,395.4 L147.6,396.3 L148.7,397.2 L149.9,398.1
		L151.0,398.9 L152.2,399.8 L153.3,400.6 L154.5,401.5 L155.6,402.3 L156.7,403.1 L157.9,403.9 L159.0,404.7
		L160.2,405.4 L161.3,406.2 L162.4,407.0 L163.6,407.7 L164.7,408.5 L165.9,409.2 L167.0,410.0 L168.2,410.7
		L169.3,411.4 L170.4,412.2 L171.6,412.9 L172.7,413.6 L173.9,414.3 L175.0,415.1 L176.1,415.8 L177.3,416.5
		L178.4,417.2 L179.6,417.9 L180.7,418.6 L181.9,419.3 L183.0,420.0 L184.1,420.7 L185.3,421.4 L186.4,422.1
		L187.6,422.8 L188.7,423.5 L189.8,424.2 L191.0,424.8 L192.1,425.5 L193.3,426.2 L194.4,426.9 L195.6,427.6
		L196.7,428.3 L197.8,429.0 L199.0,429.6 L200.1,430.3 L201.3,431.0 L202.4,431.7 L203.5,432.3 L204.7,433.0
		L205.8,433.7 L207.0,434.4 L208.1,435.0 L209.3,435.7 L210.4,436.4 L211.5,437.0 L212.7,437.7 L213.8,438.4
		L215.0,439.0 L216.1,439.7 L217.2,440.4 L218.4,441.0 L219.5,441.7 L220.7,442.3 L221.8,443.0 L223.0,443.6
		L224.1,444.3 L225.2,444.9 L226.4,445.6 L227.5,446.2 L228.7,446.9 L229.8,447.5 L230.9,448.2 L232.1,448.8
		L233.2,449.5 L234.4,450.1 L235.5,450.7 L236.7,451.4 L237.8,452.0 L238.9,452.6 L240.1,453.3 L241.2,453.9
		L242.4,454.5 L243.5,455.2 L244.6,455.8 L245.8,456.4 L246.9,457.0 L248.1,457.7 L249.2,458.3 L250.4,458.9
		L251.5,459.5 L252.6,460.1 L253.8,460.8 L254.9,461.4 L256.1,462.0 L257.2,462.6 L258.3,463.2 L259.5,463.8
		L260.6,464.4 L261.8,465.0 L262.9,465.6 L264.1,466.2 L265.2,466.8 L266.3,467.4 L267.5,468.0 L268.6,468.6
		L269.8,469.2 L270.9,469.8 L272.0,470.4 L273.2,470.9 L274.3,471.5 L275.5,472.1 L276.6,472.7 L277.8,473.3
		L278.9,473.8 L280.0,474.4 L281.2,475.0 L282.3,475.6 L283.5,476.1 L284.6,476.7 L285.7,477.3 L286.9,477.8
		L288.0,478.4 L289.2,479.0 L290.3,479.5 L291.5,480.1 L292.6,480.6 L293.7,481.2 L294.9,481.7 L296.0,482.3
		L297.2,482.8 L298.3,483.4 L299.4,483.9 L300.6,484.5 L301.7,485.0 L302.9,485.6 L304.0,486.1 L305.2,486.6
		L306.3,487.2 L307.4,487.7 L308.6,488.3 L309.7,488.8 L310.9,489.3 L312.0,489.8 L313.1,490.4 L314.3,490.9
		L315.4,491.4 L316.6,491.9 L317.7,492.5 L318.9,493.0 L320.0,493.5 L321.1,494.0 L322.3,494.5 L323.4,495.0
		L324.6,495.5 L325.7,496.0 L326.8,496.6 L328.0,497.1 L329.1,497.6 L330.3,498.1 L331.4,498.6 L332.6,499.1
		L333.7,499.6 L334.8,500.1 L336.0,500.6 L337.1,501.0 L338.3,501.5 L339.4,502.0 L340.5,502.5 L341.7,503.0
		L342.8,503.5 L344.0,504.0 L345.1,504.4 L346.3,504.9 L347.4,505.4 L348.5,505.9 L349.7,506.4 L350.8,506.8
		L352.0,507.3 L353.1,507.8 L354.2,508.2 L355.4,508.7 L356.5,509.2 L357.7,509.6 L358.8,510.1 L360.0,510.6
		L361.1,511.0 L362.2,511.5 L363.4,511.9 L364.5,512.4 L365.7,512.8 L366.8,513.3 L367.9,513.8 L369.1,514.2
		L370.2,514.7 L371.4,515.1 L372.5,515.5 L373.7,516.0 L374.8,516.4 L375.9,516.9 L377.1,517.3 L378.2,517.8
		L379.4,518.2 L380.5,518.6 L381.6,519.1 L382.8,519.5 L383.9,519.9 L385.1,520.4 L386.2,520.8 L387.4,521.2
		L388.5,521.6 L389.6,522.1 L390.8,522.5 L391.9,522.9 L393.1,523.3 L394.2,523.7 L395.3,524.2 L396.5,524.6
		L397.6,525.0 L398.8,525.4 L399.9,525.8 L401.1,526.2 L402.2,526.6 L403.3,527.1 L404.5,527.5 L405.6,527.9
		L406.8,528.3 L407.9,528.7 L409.0,529.1 L410.2,529.5 L411.3,529.9 L412.5,530.3 L413.6,530.7 L414.8,531.1
		L415.9,531.5 L417.0,531.9 L418.2,532.3 L419.3,532.6 L420.5,533.0 L421.6,533.4 L422.7,533.8 L423.9,534.2
		L425.0,534.6 L426.2,535.0 L427.3,535.3 L428.5,535.7 L429.6,536.1 L430.7,536.5 L431.9,536.9 L433.0,537.2
		L434.2,537.6 L435.3,538.0 L436.4,538.4 L437.6,538.7 L438.7,539.1 L439.9,539.5 L441.0,539.9 L442.2,540.2
		L443.3,540.6 L444.4,541.0 L445.6,541.3 L446.7,541.7 L447.9,542.0 L449.0,542.4 L450.1,542.8 L451.3,543.1
		L452.4,543.5 L453.6,543.8 L454.7,544.2 L455.9,544.5 L457.0,544.9 L458.1,545.3 L459.3,545.6 L460.4,546.0
		L461.6,546.3 L462.7,546.6 L463.8,547.0 L465.0,547.3 L466.1,547.7 L467.3,548.0 L468.4,548.4 L469.6,548.7
		L470.7,549.1 L471.8,549.4 L473.0,549.7 L474.1,550.1 L475.3,550.4 L476.4,550.7 L477.5,551.1 L478.7,551.4
		L479.8,551.7 L481.0,552.1 L482.1,552.4 L483.2,552.7 L484.4,553.1 L485.5,553.4 L486.7,553.7 L487.8,554.0
		L489.0,554.4 L490.1,554.7 L491.2,555.0 L492.4,555.3 L493.5,555.7 L494.7,556.0 L495.8,556.3 L496.9,556.6
		L498.1,556.9 L499.2,557.2 L500.4,557.6 L501.5,557.9 L502.7,558.2 L503.8,558.5 L504.9,558.8 L506.1,559.1
		L507.2,559.4 L508.4,559.7 L509.5,560.0 L510.6,560.4 L511.8,560.7 L512.9,561.0 L514.1,561.3 L515.2,561.6
		L516.4,561.9 L517.5,562.2 L518.6,562.5 L519.8,562.8 L520.9,563.1 L522.1,563.4 L523.2,563.7 L524.3,564.0
		L525.5,564.3 L526.6,564.5 L527.8,564.8 L528.9,565.1 L530.1,565.4 L531.2,565.7 L532.3,566.0 L533.5,566.3
		L534.6,566.6 L535.8,566.9 L536.9,567.2 L538.0,567.4 L539.2,567.7 L540.3,568.0 L541.5,568.3 L542.6,568.6
		L543.8,568.9 L544.9,569.1 L546.0,569.4 L547.2,569.7 L548.3,570.0 L549.5,570.3 L550.6,570.5 L551.7,570.8
		L552.9,571.1 L554.0,571.4 L555.2,571.6 L556.3,571.9 L557.5,572.2 L558.6,572.4 L559.7,572.7 L560.9,573.0
		L562.0,573.3 L563.2,573.5 L564.3,573.8 L565.4,574.1 L566.6,574.3 L567.7,574.6 L568.9,574.8 L570.0,575.1
		L571.2,575.4 L572.3,575.6 L573.4,575.9 L574.6,576.2 L575.7,576.4 L576.9,576.7 L578.0,576.9 L579.1,577.2
		L580.3,577.4 L581.4,577.7 L582.6,578.0 L583.7,578.2 L584.9,578.5 L586.0,578.7 L587.1,579.0 L588.3,579.2
		L589.4,579.5 L590.6,579.7 L591.7,580.0 L592.8,580.2 L594.0,580.5 L595.1,580.7 L596.3,581.0 L597.4,581.2
		L598.6,581.4 L599.7,581.7 L600.8,581.9 L602.0,582.2 L603.1,582.4 L604.3,582.7 L605.4,582.9 L606.5,583.1
		L607.7,583.4 L608.8,583.6 L610.0,583.9 L611.1,584.1 L612.3,584.3 L613.4,584.6 L614.5,584.8 L615.7,585.0
		L616.8,585.3 L618.0,585.5 L619.1,585.7 L620.2,586.0 L621.4,586.2 L622.5,586.4 L623.7,586.7 L624.8,586.9
		L626.0,587.1 L627.1,587.3 L628.2,587.6 L629.4,587.8 L630.5,588.0 L631.7,588.2 L632.8,588.5 L633.9,588.7
		L635.1,588.9 L636.2,589.1 L637.4,589.4 L638.5,589.6 L639.7,589.8 L640.8,590.0 L641.9,590.2 L643.1,590.5
		L644.2,590.7 L645.4,590.9 L646.5,591.1 L647.6,591.3 L648.8,591.5 L649.9,591.8 L651.1,592.0 L652.2,592.2
		L653.4,592.4 L654.5,592.6 L655.6,592.8 L656.8,593.0 L657.9,593.2 L659.1,593.5 L660.2,593.7 L661.3,593.9
		L662.5,594.1 L663.6,594.3 L664.8,594.5 L665.9,594.7 L667.1,594.9 L668.2,595.1 L669.3,595.3 L670.5,595.5
		L671.6,595.7 L672.8,595.9 L673.9,596.1 L675.0,596.3 L676.2,596.5 L677.3,596.7 L678.5,596.9 L679.6,597.1
		L680.8,597.3 L681.9,597.5 L683.0,597.7 L684.2,597.9 L685.3,598.1 L686.5,598.3 L687.6,598.5 L688.7,598.7
		L689.9,598.9 L691.0,599.1 L692.2,599.3 L693.3,599.5 L694.5,599.7 L695.6,599.9 L696.7,600.1 L697.9,600.2
		L699.0,600.4 L700.2,600.6 L701.3,600.8 L702.4,601.0 L703.6,601.2 L704.7,601.4 L705.9,601.6 L707.0,601.7
		L708.2,601.9 L709.3,602.1 L710.4,602.3 L711.6,602.5 L712.7,602.7 L713.9,602.8 L715.0,603.0 L716.1,603.2
		L717.3,603.4 L718.4,603.6 L719.6,603.8 L720.7,603.9 L721.9,604.1 L723.0,604.3 L724.1,604.5 L725.3,604.6
		L726.4,604.8 L727.6,605.0 L728.7,605.2 L729.8,605.3 L731.0,605.5 L732.1,605.7 L733.3,605.9 L734.4,606.0
		L735.6,606.2 L736.7,606.4 L737.8,606.6 L739.0,606.7 L740.1,606.9 L741.3,607.1 L742.4,607.2 L743.5,607.4
		L744.7,607.6 L745.8,607.7 L747.0,607.9 L748.1,608.1 L749.3,608.2 L750.4,608.4 L751.5,608.6 L752.7,608.7
		L753.8,608.9 L755.0,609.1 L756.1,609.2 L757.2,609.4 L758.4,609.6 L759.5,609.7 L760.7,609.9 L761.8,610.0
		L763.0,610.2 L764.1,610.4 L765.2,610.5 L766.4,610.7 L767.5,610.8 L768.7,611.0 L769.8,611.2 L770.9,611.3
		L772.1,611.5 L773.2,611.6 L774.4,611.8 L775.5,611.9 L776.7,612.1 L777.8,612.2 L778.9,612.4 L780.1,612.5
		L781.2,612.7 L782.4,612.9 L783.5,613.0 L784.6,613.2 L785.8,613.3 L786.9,613.5 L788.1,613.6 L789.2,613.8
		L790.4,613.9 L791.5,614.1 L792.6,614.2 L793.8,614.3 L794.9,614.5 L796.1,614.6 L797.2,614.8 L798.3,614.9
		L799.5,615.1 L800.6,615.2 L801.8,615.4 L802.9,615.5 L804.1,615.7 L805.2,615.8 L806.3,615.9 L807.5,616.1
		L808.6,616.2 L809.8,616.4 L810.9,616.5 L812.0,616.6 L813.2,616.8 L814.3,616.9 L815.5,617.1 L816.6,617.2
		L817.8,617.3 L818.9,617.5 L820.0,617.6 L821.2,617.7 L822.3,617.9 L823.5,618.0 L824.6,618.2 L825.7,618.3
		L826.9,618.4 L828.0,618.6 L829.2,618.7 L830.3,618.8 L831.5,619.0 L832.6,619.1 L833.7,619.2 L834.9,619.3
		L836.0,619.5 L837.2,619.6 L838.3,619.7 L839.4,619.9 L840.6,620.0 L841.7,620.1 L842.9,620.3 L844.0,620.4
		L845.2,620.5 L846.3,620.6 L847.4,620.8 L848.6,620.9 L849.7,621.0 L850.9,621.1 L852.0,621.3 L853.1,621.4
		L854.3,621.5 L855.4,621.6 L856.6,621.8 L857.7,621.9 L858.9,622.0 L860.0,622.1 L861.1,622.2 L862.3,622.4
		L863.4,622.5 L864.6,622.6 L865.7,622.7 L866.8,622.8 L868.0,623.0 L869.1,623.1 L870.3,623.2 L871.4,623.3
		L872.5,623.4 L873.7,623.6 L874.8,623.7 L876.0,623.8 L877.1,623.9 L878.3,624.0 L879.4,624.1 L880.5,624.2
		L881.7,624.4 L882.8,624.5 L884.0,624.6 L885.1,624.7 L886.2,624.8 L887.4,624.9 L888.5,625.0 L889.7,625.1
		L890.8,625.3 L892.0,625.4 L893.1,625.5 L894.2,625.6 L895.4,625.7 L896.5,625.8 L897.7,625.9 L898.8,626.0
		L899.9,626.1 L901.1,626.2 L902.2,626.3 L903.4,626.4 L904.5,626.6 L905.7,626.7 L906.8,626.8 L907.9,626.9
		L909.1,627.0 L910.2,627.1 L911.4,627.2 L912.5,627.3 L913.6,627.4 L914.8,627.5 L915.9,627.6 L917.1,627.7
		L918.2,627.8 L919.4,627.9 L920.5,628.0 L921.6,628.1 L922.8,628.2 L923.9,628.3 L925.1,628.4 L926.2,628.5
		L927.3,628.6 L928.5,628.7 L929.6,628.8 L930.8,628.9 L931.9,629.0 L933.1,629.1 L934.2,629.2 L935.3,629.3
		L936.5,629.4 L937.6,629.5 L938.8,629.6 L939.9,629.6 L941.0,629.7 L942.2,629.8 L943.3,629.9 L944.5,630.0
		L945.6,630.1 L946.8,630.2 L947.9,630.3 L949.0,630.4 L950.2,630.5 L951.3,630.6 L952.5,630.7 L953.6,630.7
		L954.7,630.8 L955.9,630.9 L957.0,631.0 L958.2,631.1 L959.3,631.2 L960.5,631.3 L961.6,631.4 L962.7,631.4
		L963.9,631.5 L965.0,631.6 L966.2,631.7 L967.3,631.8 L968.4,631.9 L969.6,632.0 L970.7,632.0 L971.9,632.1
		L973.0,632.2 L974.2,632.3 L975.3,632.4 L976.4,632.5 L977.6,632.5 L978.7,632.6 L979.9,632.7 L981.0,632.8
		L982.1,632.9 L983.3,632.9 L984.4,633.0 L985.6,633.1 L986.7,633.2 L987.9,633.2 L989.0,633.3 L990.1,633.4
		L991.3,633.5 L992.4,633.6 L993.6,633.6 L994.7,633.7 L995.8,633.8 L997.0,633.9 L998.1,633.9 L999.3,634.0
		L1000.4,634.1 L1001.6,634.2 L1002.7,634.2 L1003.8,634.3 L1005.0,634.4 L1006.1,634.5 L1007.3,634.5 L1008.4,634.6
		L1009.5,634.7 L1010.7,634.7 L1011.8,634.8 L1013.0,634.9 L1014.1,635.0 L1015.3,635.0 L1016.4,635.1 L1017.5,635.2
		L1018.7,635.2 L1019.8,635.3 L1021.0,635.4 L1022.1,635.4 L1023.2,635.5 L1024.4,635.6 L1025.5,635.6 L1026.7,635.7
		L1027.8,635.8 L1029.0,635.8 L1030.1,635.9 L1031.2,636.0 L1032.4,636.0 L1033.5,636.1 L1034.7,636.2 L1035.8,636.2
		L1036.9,636.3 L1038.1,636.3 L1039.2,636.4 L1040.4,636.5 L1041.5,636.5 L1042.7,636.6 L1043.8,636.7 L1044.9,636.7
		L1046.1,636.8 L1047.2,636.8 L1048.4,636.9 L1049.5,637.0 L1050.6,637.0 L1051.8,637.1 L1052.9,637.1 L1054.1,637.2
		L1055.2,637.2 L1056.4,637.3 L1057.5,637.4 L1058.6,637.4 L1059.8,637.5 L1060.9,637.5 L1062.1,637.6 L1063.2,637.6
		L1064.3,637.7 L1065.5,637.7 L1066.6,637.8 L1067.8,637.9 L1068.9,637.9 L1070.1,638.0 L1071.2,638.0 L1072.3,638.1
		L1073.5,638.1 L1074.6,638.2 L1075.8,638.2 L1076.9,638.3 L1078.0,638.3 L1079.2,638.4 L1080.3,638.4 L1081.5,638.5
		L1082.6,638.5 L1083.8,638.6 L1084.9,638.6 L1086.0,638.7 L1087.2,638.7 L1088.3,638.8 L1089.5,638.8 L1090.6,638.9
		L1091.7,638.9 L1092.9,639.0 L1094.0,639.0 L1095.2,639.0 L1096.3,639.1 L1097.5,639.1 L1098.6,639.2 L1099.7,639.2
		L1100.9,639.3 L1102.0,639.3 L1103.2,639.4 L1104.3,639.4 L1105.4,639.4 L1106.6,639.5 L1107.7,639.5 L1108.9,639.6
		L1110.0,639.6 L1111.2,639.6 L1112.3,639.7 L1113.4,639.7 L1114.6,639.8 L1115.7,639.8 L1116.9,639.8 L1118.0,639.9
		L1119.1,639.9 L1120.3,640.0 L1121.4,640.0 L1122.6,640.0 L1123.7,640.1 L1124.9,640.1 L1126.0,640.1 L1127.1,640.2
		L1128.3,640.2 L1129.4,640.3 L1130.6,640.3 L1131.7,640.3 L1132.8,640.4 L1134.0,640.4 L1135.1,640.4 L1136.3,640.5
		L1137.4,640.5 L1138.6,640.5 L1139.7,640.6 L1140.8,640.6 L1142.0,640.6 L1143.1,640.7 L1144.3,640.7 L1145.4,640.7
		L1146.5,640.8 L1147.7,640.8 L1148.8,640.8 L1150.0,640.8 L1151.1,640.9 L1152.3,640.9 L1153.4,640.9 L1154.5,641.0
		L1155.7,641.0 L1156.8,641.0 L1158.0,641.0 L1159.1,641.1 L1160.2,641.1 L1161.4,641.1 L1162.5,641.2 L1163.7,641.2
		L1164.8,641.2 L1166.0,641.2 L1167.1,641.3 L1168.2,641.3 L1169.4,641.3 L1170.5,641.3 L1171.7,641.4 L1172.8,641.4
		L1173.9,641.4 L1175.1,641.4 L1176.2,641.4 L1177.4,641.5 L1178.5,641.5 L1179.7,641.5 L1180.8,641.5 L1181.9,641.5
		L1183.1,641.6 L1184.2,641.6 L1185.4,641.6 L1186.5,641.6 L1187.6,641.6 L1188.8,641.7 L1189.9,641.7 L1191.1,641.7
		L1192.2,641.7 L1193.4,641.7 L1194.5,641.8 L1195.6,641.8 L1196.8,641.8 L1197.9,641.8 L1199.1,641.8 L1200.2,641.8
		L1201.3,641.9 L1202.5,641.9 L1203.6,641.9 L1204.8,641.9 L1205.9,641.9 L1207.1,641.9 L1208.2,641.9 L1209.3,641.9
		L1210.5,642.0 L1211.6,642.0 L1212.8,642.0 L1213.9,642.0 L1215.0,642.0 L1216.2,642.0 L1217.3,642.0 L1218.5,642.0
		L1219.6,642.1 L1220.8,642.1 L1221.9,642.1 L1223.0,642.1 L1224.2,642.1 L1225.3,642.1 L1226.5,642.1 L1227.6,642.1
		L1228.7,642.1 L1229.9,642.1 L1231.0,642.1 L1232.2,642.1 L1233.3,642.1 L1234.5,642.2 L1235.6,642.2 L1236.7,642.2
		L1237.9,642.2 L1239.0,642.2 L1240.2,642.2 L1241.3,642.2 L1242.4,642.2 L1243.6,642.2 L1244.7,642.2 L1245.9,642.2
		L1247.0,642.2 L1248.2,642.2 L1249.3,642.2 L1250.4,642.2 L1251.6,642.2 L1252.7,642.2 L1253.9,642.2 L1255.0,642.2
		 '/></g>
	</g>
	<g id="gnuplot_plot_6" ><title>gnuplot_plot_6</title>
<g fill="none" color="black" stroke="currentColor" stroke-width="1.00" stroke-linecap="butt" stroke-linejoin="miter">
	<path stroke='rgb(  0,   0, 255)'  d='M87.1,58.0 L88.2,66.6 L89.4,87.3 L90.5,112.1 L91.7,136.5 L92.8,158.9 L93.9,179.0 L95.1,197.0
		L96.2,213.1 L97.4,227.6 L98.5,240.8 L99.7,252.7 L100.8,263.6 L101.9,273.6 L103.1,282.8 L104.2,291.2
		L105.4,299.0 L106.5,306.2 L107.6,312.8 L108.8,319.0 L109.9,324.7 L111.1,329.9 L112.2,334.8 L113.4,339.4
		L114.5,343.6 L115.6,347.5 L116.8,351.2 L117.9,354.6 L119.1,357.8 L120.2,360.8 L121.3,363.6 L122.5,366.2
		L123.6,368.6 L124.8,370.9 L125.9,373.1 L127.1,375.1 L128.2,377.0 L129.3,378.8 L130.5,380.5 L131.6,382.2
		L132.8,383.7 L133.9,385.2 L135.0,386.6 L136.2,388.0 L137.3,389.3 L138.5,390.5 L139.6,391.7 L140.8,392.9
		L141.9,394.0 L143.0,395.1 L144.2,396.2 L145.3,397.2 L146.5,398.2 L147.6,399.2 L148.7,400.1 L149.9,401.0
		L151.0,401.9 L152.2,402.8 L153.3,403.7 L154.5,404.6 L155.6,405.4 L156.7,406.3 L157.9,407.1 L159.0,407.9
		L160.2,408.7 L161.3,409.5 L162.4,410.3 L163.6,411.1 L164.7,411.9 L165.9,412.6 L167.0,413.4 L168.2,414.1
		L169.3,414.9 L170.4,415.6 L171.6,416.4 L172.7,417.1 L173.9,417.9 L175.0,418.6 L176.1,419.3 L177.3,420.0
		L178.4,420.8 L179.6,421.5 L180.7,422.2 L181.9,422.9 L183.0,423.6 L184.1,424.3 L185.3,425.0 L186.4,425.7
		L187.6,426.4 L188.7,427.1 L189.8,427.8 L191.0,428.5 L192.1,429.2 L193.3,429.9 L194.4,430.6 L195.6,431.3
		L196.7,432.0 L197.8,432.7 L199.0,433.4 L200.1,434.1 L201.3,434.7 L202.4,435.4 L203.5,436.1 L204.7,436.8
		L205.8,437.5 L207.0,438.1 L208.1,438.8 L209.3,439.5 L210.4,440.2 L211.5,440.8 L212.7,441.5 L213.8,442.2
		L215.0,442.8 L216.1,443.5 L217.2,444.2 L218.4,444.8 L219.5,445.5 L220.7,446.2 L221.8,446.8 L223.0,447.5
		L224.1,448.1 L225.2,448.8 L226.4,449.4 L227.5,450.1 L228.7,450.7 L229.8,451.4 L230.9,452.0 L232.1,452.7
		L233.2,453.3 L234.4,454.0 L235.5,454.6 L236.7,455.3 L237.8,455.9 L238.9,456.5 L240.1,457.2 L241.2,457.8
		L242.4,458.4 L243.5,459.1 L244.6,459.7 L245.8,460.3 L246.9,460.9 L248.1,461.6 L249.2,462.2 L250.4,462.8
		L251.5,463.4 L252.6,464.1 L253.8,464.7 L254.9,465.3 L256.1,465.9 L257.2,466.5 L258.3,467.1 L259.5,467.7
		L260.6,468.3 L261.8,468.9 L262.9,469.5 L264.1,470.1 L265.2,470.7 L266.3,471.3 L267.5,471.9 L268.6,472.5
		L269.8,473.1 L270.9,473.7 L272.0,474.3 L273.2,474.9 L274.3,475.5 L275.5,476.0 L276.6,476.6 L277.8,477.2
		L278.9,477.8 L280.0,478.4 L281.2,478.9 L282.3,479.5 L283.5,480.1 L284.6,480.7 L285.7,481.2 L286.9,481.8
		L288.0,482.4 L289.2,482.9 L290.3,483.5 L291.5,484.0 L292.6,484.6 L293.7,485.1 L294.9,485.7 L296.0,486.3
		L297.2,486.8 L298.3,487.4 L299.4,487.9 L300.6,488.4 L301.7,489.0 L302.9,489.5 L304.0,490.1 L305.2,490.6
		L306.3,491.2 L307.4,491.7 L308.6,492.2 L309.7,492.8 L310.9,493.3 L312.0,493.8 L313.1,494.3 L314.3,494.9
		L315.4,495.4 L316.6,495.9 L317.7,496.4 L318.9,496.9 L320.0,497.5 L321.1,498.0 L322.3,498.5 L323.4,499.0
		L324.6,499.5 L325.7,500.0 L326.8,500.5 L328.0,501.0 L329.1,501.5 L330.3,502.0 L331.4,502.5 L332.6,503.0
		L333.7,503.5 L334.8,504.0 L336.0,504.5 L337.1,505.0 L338.3,505.5 L339.4,506.0 L340.5,506.5 L341.7,507.0
		L342.8,507.5 L344.0,508.0 L345.1,508.4 L346.3,508.9 L347.4,509.4 L348.5,509.9 L349.7,510.3 L350.8,510.8
		L352.0,511.3 L353.1,511.8 L354.2,512.2 L355.4,512.7 L356.5,513.2 L357.7,513.6 L358.8,514.1 L360.0,514.6
		L361.1,515.0 L362.2,515.5 L363.4,515.9 L364.5,516.4 L365.7,516.8 L366.8,517.3 L367.9,517.7 L369.1,518.2
		L370.2,518.6 L371.4,519.1 L372.5,519.5 L373.7,520.0 L374.8,520.4 L375.9,520.9 L377.1,521.3 L378.2,521.7
		L379.4,522.2 L380.5,522.6 L381.6,523.1 L382.8,523.5 L383.9,523.9 L385.1,524.4 L386.2,524.8 L387.4,525.2
		L388.5,525.6 L389.6,526.1 L390.8,526.5 L391.9,526.9 L393.1,527.3 L394.2,527.7 L395.3,528.2 L396.5,528.6
		L397.6,529.0 L398.8,529.4 L399.9,529.8 L401.1,530.2 L402.2,530.6 L403.3,531.1 L404.5,531.5 L405.6,531.9
		L406.8,532.3 L407.9,532.7 L409.0,533.1 L410.2,533.5 L411.3,533.9 L412.5,534.3 L413.6,534.7 L414.8,535.1
		L415.9,535.5 L417.0,535.9 L418.2,536.3 L419.3,536.7 L420.5,537.0 L421.6,537.4 L422.7,537.8 L423.9,538.2
		L425.0,538.6 L426.2,539.0 L427.3,539.4 L428.5,539.7 L429.6,540.1 L430.7,540.5 L431.9,540.9 L433.0,541.3
		L434.2,541.6 L435.3,542.0 L436.4,542.4 L437.6,542.8 L438.7,543.1 L439.9,543.5 L441.0,543.9 L442.2,544.2
		L443.3,544.6 L444.4,545.0 L445.6,545.3 L446.7,545.7 L447.9,546.1 L449.0,546.4 L450.1,546.8 L451.3,547.1
		L452.4,547.5 L453.6,547.8 L454.7,548.2 L455.9,548.6 L457.0,548.9 L458.1,549.3 L459.3,549.6 L460.4,550.0
		L461.6,550.3 L462.7,550.7 L463.8,551.0 L465.0,551.4 L466.1,551.7 L467.3,552.0 L468.4,552.4 L469.6,552.7
		L470.7,553.1 L471.8,553.4 L473.0,553.7 L474.1,554.1 L475.3,554.4 L476.4,554.8 L477.5,555.1 L478.7,555.4
		L479.8,555.8 L481.0,556.1 L482.1,556.4 L483.2,556.7 L484.4,557.1 L485.5,557.4 L486.7,557.7 L487.8,558.1
		L489.0,558.4 L490.1,558.7 L491.2,559.0 L492.4,559.4 L493.5,559.7 L494.7,560.0 L495.8,560.3 L496.9,560.6
		L498.1,560.9 L499.2,561.3 L500.4,561.6 L501.5,561.9 L502.7,562.2 L503.8,562.5 L504.9,562.8 L506.1,563.1
		L507.2,563.4 L508.4,563.8 L509.5,564.1 L510.6,564.4 L511.8,564.7 L512.9,565.0 L514.1,565.3 L515.2,565.6
		L516.4,565.9 L517.5,566.2 L518.6,566.5 L519.8,566.8 L520.9,567.1 L522.1,567.4 L523.2,567.7 L524.3,568.0
		L525.5,568.3 L526.6,568.6 L527.8,568.9 L528.9,569.2 L530.1,569.4 L531.2,569.7 L532.3,570.0 L533.5,570.3
		L534.6,570.6 L535.8,570.9 L536.9,571.2 L538.0,571.5 L539.2,571.7 L540.3,572.0 L541.5,572.3 L542.6,572.6
		L543.8,572.9 L544.9,573.2 L546.0,573.4 L547.2,573.7 L548.3,574.0 L549.5,574.3 L550.6,574.6 L551.7,574.8
		L552.9,575.1 L554.0,575.4 L555.2,575.7 L556.3,575.9 L557.5,576.2 L558.6,576.5 L559.7,576.7 L560.9,577.0
		L562.0,577.3 L563.2,577.5 L564.3,577.8 L565.4,578.1 L566.6,578.3 L567.7,578.6 L568.9,578.9 L570.0,579.1
		L571.2,579.4 L572.3,579.7 L573.4,579.9 L574.6,580.2 L575.7,580.4 L576.9,580.7 L578.0,581.0 L579.1,581.2
		L580.3,581.5 L581.4,581.7 L582.6,582.0 L583.7,582.2 L584.9,582.5 L586.0,582.7 L587.1,583.0 L588.3,583.2
		L589.4,583.5 L590.6,583.7 L591.7,584.0 L592.8,584.2 L594.0,584.5 L595.1,584.7 L596.3,585.0 L597.4,585.2
		L598.6,585.5 L599.7,585.7 L600.8,586.0 L602.0,586.2 L603.1,586.4 L604.3,586.7 L605.4,586.9 L606.5,587.2
		L607.7,587.4 L608.8,587.6 L610.0,587.9 L611.1,588.1 L612.3,588.4 L613.4,588.6 L614.5,588.8 L615.7,589.1
		L616.8,589.3 L618.0,589.5 L619.1,589.8 L620.2,590.0 L621.4,590.2 L622.5,590.5 L623.7,590.7 L624.8,590.9
		L626.0,591.1 L627.1,591.4 L628.2,591.6 L629.4,591.8 L630.5,592.0 L631.7,592.3 L632.8,592.5 L633.9,592.7
		L635.1,592.9 L636.2,593.2 L637.4,593.4 L638.5,593.6 L639.7,593.8 L640.8,594.1 L641.9,594.3 L643.1,594.5
		L644.2,594.7 L645.4,594.9 L646.5,595.1 L647.6,595.4 L648.8,595.6 L649.9,595.8 L651.1,596.0 L652.2,596.2
		L653.4,596.4 L654.5,596.6 L655.6,596.9 L656.8,597.1 L657.9,597.3 L659.1,597.5 L660.2,597.7 L661.3,597.9
		L662.5,598.1 L663.6,598.3 L664.8,598.5 L665.9,598.7 L667.1,598.9 L668.2,599.1 L669.3,599.3 L670.5,599.6
		L671.6,599.8 L672.8,600.0 L673.9,600.2 L675.0,600.4 L676.2,600.6 L677.3,600.8 L678.5,601.0 L679.6,601.2
		L680.8,601.4 L681.9,601.6 L683.0,601.8 L684.2,602.0 L685.3,602.2 L686.5,602.3 L687.6,602.5 L688.7,602.7
		L689.9,602.9 L691.0,603.1 L692.2,603.3 L693.3,603.5 L694.5,603.7 L695.6,603.9 L696.7,604.1 L697.9,604.3
		L699.0,604.5 L700.2,604.7 L701.3,604.8 L702.4,605.0 L703.6,605.2 L704.7,605.4 L705.9,605.6 L707.0,605.8
		L708.2,606.0 L709.3,606.1 L710.4,606.3 L711.6,606.5 L712.7,606.7 L713.9,606.9 L715.0,607.1 L716.1,607.2
		L717.3,607.4 L718.4,607.6 L719.6,607.8 L720.7,608.0 L721.9,608.1 L723.0,608.3 L724.1,608.5 L725.3,608.7
		L726.4,608.8 L727.6,609.0 L728.7,609.2 L729.8,609.4 L731.0,609.6 L732.1,609.7 L733.3,609.9 L734.4,610.1
		L735.6,610.2 L736.7,610.4 L737.8,610.6 L739.0,610.8 L740.1,610.9 L741.3,611.1 L742.4,611.3 L743.5,611.4
		L744.7,611.6 L745.8,611.8 L747.0,611.9 L748.1,612.1 L749.3,612.3 L750.4,612.4 L751.5,612.6 L752.7,612.8
		L753.8,612.9 L755.0,613.1 L756.1,613.3 L757.2,613.4 L758.4,613.6 L759.5,613.7 L760.7,613.9 L761.8,614.1
		L763.0,614.2 L764.1,614.4 L765.2,614.5 L766.4,614.7 L767.5,614.9 L768.7,615.0 L769.8,615.2 L770.9,615.3
		L772.1,615.5 L773.2,615.7 L774.4,615.8 L775.5,616.0 L776.7,616.1 L777.8,616.3 L778.9,616.4 L780.1,616.6
		L781.2,616.7 L782.4,616.9 L783.5,617.0 L784.6,617.2 L785.8,617.3 L786.9,617.5 L788.1,617.6 L789.2,617.8
		L790.4,617.9 L791.5,618.1 L792.6,618.2 L793.8,618.4 L794.9,618.5 L796.1,618.7 L797.2,618.8 L798.3,619.0
		L799.5,619.1 L800.6,619.3 L801.8,619.4 L802.9,619.5 L804.1,619.7 L805.2,619.8 L806.3,620.0 L807.5,620.1
		L808.6,620.3 L809.8,620.4 L810.9,620.5 L812.0,620.7 L813.2,620.8 L814.3,621.0 L815.5,621.1 L816.6,621.2
		L817.8,621.4 L818.9,621.5 L820.0,621.6 L821.2,621.8 L822.3,621.9 L823.5,622.0 L824.6,622.2 L825.7,622.3
		L826.9,622.5 L828.0,622.6 L829.2,622.7 L830.3,622.9 L831.5,623.0 L832.6,623.1 L833.7,623.2 L834.9,623.4
		L836.0,623.5 L837.2,623.6 L838.3,623.8 L839.4,623.9 L840.6,624.0 L841.7,624.2 L842.9,624.3 L844.0,624.4
		L845.2,624.5 L846.3,624.7 L847.4,624.8 L848.6,624.9 L849.7,625.0 L850.9,625.2 L852.0,625.3 L853.1,625.4
		L854.3,625.5 L855.4,625.7 L856.6,625.8 L857.7,625.9 L858.9,626.0 L860.0,626.2 L861.1,626.3 L862.3,626.4
		L863.4,626.5 L864.6,626.6 L865.7,626.8 L866.8,626.9 L868.0,627.0 L869.1,627.1 L870.3,627.2 L871.4,627.4
		L872.5,627.5 L873.7,627.6 L874.8,627.7 L876.0,627.8 L877.1,627.9 L878.3,628.0 L879.4,628.2 L880.5,628.3
		L881.7,628.4 L882.8,628.5 L884.0,628.6 L885.1,628.7 L886.2,628.8 L887.4,629.0 L888.5,629.1 L889.7,629.2
		L890.8,629.3 L892.0,629.4 L893.1,629.5 L894.2,629.6 L895.4,629.7 L896.5,629.8 L897.7,629.9 L898.8,630.1
		L899.9,630.2 L901.1,630.3 L902.2,630.4 L903.4,630.5 L904.5,630.6 L905.7,630.7 L906.8,630.8 L907.9,630.9
		L909.1,631.0 L910.2,631.1 L911.4,631.2 L912.5,631.3 L913.6,631.4 L914.8,631.5 L915.9,631.6 L917.1,631.7
		L918.2,631.8 L919.4,631.9 L920.5,632.0 L921.6,632.1 L922.8,632.2 L923.9,632.3 L925.1,632.4 L926.2,632.5
		L927.3,632.6 L928.5,632.7 L929.6,632.8 L930.8,632.9 L931.9,633.0 L933.1,633.1 L934.2,633.2 L935.3,633.3
		L936.5,633.4 L937.6,633.5 L938.8,633.6 L939.9,633.7 L941.0,633.8 L942.2,633.9 L943.3,634.0 L944.5,634.0
		L945.6,634.1 L946.8,634.2 L947.9,634.3 L949.0,634.4 L950.2,634.5 L951.3,634.6 L952.5,634.7 L953.6,634.8
		L954.7,634.9 L955.9,635.0 L957.0,635.0 L958.2,635.1 L959.3,635.2 L960.5,635.3 L961.6,635.4 L962.7,635.5
		L963.9,635.6 L965.0,635.6 L966.2,635.7 L967.3,635.8 L968.4,635.9 L969.6,636.0 L970.7,636.1 L971.9,636.2
		L973.0,636.2 L974.2,636.3 L975.3,636.4 L976.4,636.5 L977.6,636.6 L978.7,636.6 L979.9,636.7 L981.0,636.8
		L982.1,636.9 L983.3,637.0 L984.4,637.0 L985.6,637.1 L986.7,637.2 L987.9,637.3 L989.0,637.4 L990.1,637.4
		L991.3,637.5 L992.4,637.6 L993.6,637.7 L994.7,637.7 L995.8,637.8 L997.0,637.9 L998.1,638.0 L999.3,638.0
		L1000.4,638.1 L1001.6,638.2 L1002.7,638.3 L1003.8,638.3 L1005.0,638.4 L1006.1,638.5 L1007.3,638.6 L1008.4,638.6
		L1009.5,638.7 L1010.7,638.8 L1011.8,638.8 L1013.0,638.9 L1014.1,639.0 L1015.3,639.1 L1016.4,639.1 L1017.5,639.2
		L1018.7,639.3 L1019.8,639.3 L1021.0,639.4 L1022.1,639.5 L1023.2,639.5 L1024.4,639.6 L1025.5,639.7 L1026.7,639.7
		L1027.8,639.8 L1029.0,639.9 L1030.1,639.9 L1031.2,640.0 L1032.4,640.1 L1033.5,640.1 L1034.7,640.2 L1035.8,640.2
		L1036.9,640.3 L1038.1,640.4 L1039.2,640.4 L1040.4,640.5 L1041.5,640.6 L1042.7,640.6 L1043.8,640.7 L1044.9,640.7
		L1046.1,640.8 L1047.2,640.9 L1048.4,640.9 L1049.5,641.0 L1050.6,641.0 L1051.8,641.1 L1052.9,641.2 L1054.1,641.2
		L1055.2,641.3 L1056.4,641.3 L1057.5,641.4 L1058.6,641.4 L1059.8,641.5 L1060.9,641.6 L1062.1,641.6 L1063.2,641.7
		L1064.3,641.7 L1065.5,641.8 L1066.6,641.8 L1067.8,641.9 L1068.9,641.9 L1070.1,642.0 L1071.2,642.0 L1072.3,642.1
		L1073.5,642.1 L1074.6,642.2 L1075.8,642.3 L1076.9,642.3 L1078.0,642.4 L1079.2,642.4 L1080.3,642.5 L1081.5,642.5
		L1082.6,642.6 L1083.8,642.6 L1084.9,642.7 L1086.0,642.7 L1087.2,642.7 L1088.3,642.8 L1089.5,642.8 L1090.6,642.9
		L1091.7,642.9 L1092.9,643.0 L1094.0,643.0 L1095.2,643.1 L1096.3,643.1 L1097.5,643.2 L1098.6,643.2 L1099.7,643.3
		L1100.9,643.3 L1102.0,643.3 L1103.2,643.4 L1104.3,643.4 L1105.4,643.5 L1106.6,643.5 L1107.7,643.6 L1108.9,643.6
		L1110.0,643.6 L1111.2,643.7 L1112.3,643.7 L1113.4,643.8 L1114.6,643.8 L1115.7,643.8 L1116.9,643.9 L1118.0,643.9
		L1119.1,644.0 L1120.3,644.0 L1121.4,644.0 L1122.6,644.1 L1123.7,644.1 L1124.9,644.1 L1126.0,644.2 L1127.1,644.2
		L1128.3,644.3 L1129.4,644.3 L1130.6,644.3 L1131.7,644.4 L1132.8,644.4 L1134.0,644.4 L1135.1,644.5 L1136.3,644.5
		L1137.4,644.5 L1138.6,644.6 L1139.7,644.6 L1140.8,644.6 L1142.0,644.7 L1143.1,644.7 L1144.3,644.7 L1145.4,644.8
		L1146.5,644.8 L1147.7,644.8 L1148.8,644.8 L1150.0,644.9 L1151.1,644.9 L1152.3,644.9 L1153.4,645.0 L1154.5,645.0
		L1155.7,645.0 L1156.8,645.0 L1158.0,645.1 L1159.1,645.1 L1160.2,645.1 L1161.4,645.2 L1162.5,645.2 L1163.7,645.2
		L1164.8,645.2 L1166.0,645.3 L1167.1,645.3 L1168.2,645.3 L1169.4,645.3 L1170.5,645.4 L1171.7,645.4 L1172.8,645.4
		L1173.9,645.4 L1175.1,645.5 L1176.2,645.5 L1177.4,645.5 L1178.5,645.5 L1179.7,645.5 L1180.8,645.6 L1181.9,645.6
		L1183.1,645.6 L1184.2,645.6 L1185.4,645.6 L1186.5,645.7 L1187.6,645.7 L1188.8,645.7 L1189.9,645.7 L1191.1,645.7
		L1192.2,645.8 L1193.4,645.8 L1194.5,645.8 L1195.6,645.8 L1196.8,645.8 L1197.9,645.8 L1199.1,645.9 L1200.2,645.9
		L1201.3,645.9 L1202.5,645.9 L1203.6,645.9 L1204.8,645.9 L1205.9,645.9 L1207.1,646.0 L1208.2,646.0 L1209.3,646.0
		L1210.5,646.0 L1211.6,646.0 L1212.8,646.0 L1213.9,646.0 L1215.0,646.0 L1216.2,646.1 L1217.3,646.1 L1218.5,646.1
		L1219.6,646.1 L1220.8,646.1 L1221.9,646.1 L1223.0,646.1 L1224.2,646.1 L1225.3,646.1 L1226.5,646.1 L1227.6,646.1
		L1228.7,646.2 L1229.9,646.2 L1231.0,646.2 L1232.2,646.2 L1233.3,646.2 L1234.5,646.2 L1235.6,646.2 L1236.7,646.2
		L1237.9,646.2 L1239.0,646.2 L1240.2,646.2 L1241.3,646.2 L1242.4,646.2 L1243.6,646.2 L1244.7,646.2 L1245.9,646.2
		L1247.0,646.2 L1248.2,646.2 L1249.3,646.2 L1250.4,646.2 L1251.6,646.2 L1252.7,646.2 L1253.9,646.2 L1255.0,646.2
		 '/></g>
	</g>
<g fill="none" color="white" stroke="rgb(  0,   0, 255)" stroke-width="2.00" stroke-linecap="butt" stroke-linejoin="miter">
</g>
<g fill="none" color="black" stroke="currentColor" stroke-width="2.00" stroke-linecap="butt" stroke-linejoin="miter">
</g>
<g fill="none" color="black" stroke="black" stroke-width="1.00" stroke-linecap="butt" stroke-linejoin="miter">
</g>
<g fill="none" color="black" stroke="currentColor" stroke-width="1.00" stroke-linecap="butt" stroke-linejoin="miter">
	<path stroke='black'  d='M87.1,54.1 L87.1,684.0 L1255.0,684.0 L1255.0,54.1 L87.1,54.1 Z  '/></g>
<g fill="none" color="black" stroke="currentColor" stroke-width="1.00" stroke-linecap="butt" stroke-linejoin="miter">
</g>
</g>
</svg>

