<?xml version="1.0" encoding="utf-8"  standalone="no"?>
<svg 
 width="1280" height="720"
 viewBox="0 0 1280 720"
 xmlns="http://www.w3.org/2000/svg"
 xmlns:xlink="http://www.w3.org/1999/xlink"
>

<title>Gnuplot</title>
<desc>Produced by GNUPLOT 5.0 patchlevel 6 </desc>

<g id="gnuplot_canvas">

<rect x="0" y="0" width="1280" height="720" fill="none"/>
<defs>

	<circle id='gpDot' r='0.5' stroke-width='0.5'/>
	<path id='gpPt0' stroke-width='0.222' stroke='currentColor' d='M-1,0 h2 M0,-1 v2'/>
	<path id='gpPt1' stroke-width='0.222' stroke='currentColor' d='M-1,-1 L1,1 M1,-1 L-1,1'/>
	<path id='gpPt2' stroke-width='0.222' stroke='currentColor' d='M-1,0 L1,0 M0,-1 L0,1 M-1,-1 L1,1 M-1,1 L1,-1'/>
	<rect id='gpPt3' stroke-width='0.222' stroke='currentColor' x='-1' y='-1' width='2' height='2'/>
	<rect id='gpPt4' stroke-width='0.222' stroke='currentColor' fill='currentColor' x='-1' y='-1' width='2' height='2'/>
	<circle id='gpPt5' stroke-width='0.222' stroke='currentColor' cx='0' cy='0' r='1'/>
	<use xlink:href='#gpPt5' id='gpPt6' fill='currentColor' stroke='none'/>
	<path id='gpPt7' stroke-width='0.222' stroke='currentColor' d='M0,-1.33 L-1.33,0.67 L1.33,0.67 z'/>
	<use xlink:href='#gpPt7' id='gpPt8' fill='currentColor' stroke='none'/>
	<use xlink:href='#gpPt7' id='gpPt9' stroke='currentColor' transform='rotate(180)'/>
	<use xlink:href='#gpPt9' id='gpPt10' fill='currentColor' stroke='none'/>
	<use xlink:href='#gpPt3' id='gpPt11' stroke='currentColor' transform='rotate(45)'/>
	<use xlink:href='#gpPt11' id='gpPt12' fill='currentColor' stroke='none'/>
	<path id='gpPt13' stroke-width='0.222' stroke='currentColor' d='M0,1.330 L1.265,0.411 L0.782,-1.067 L-0.782,-1.076 L-1.265,0.411 z'/>
	<use xlink:href='#gpPt13' id='gpPt14' fill='currentColor' stroke='none'/>
	<filter id='textbox' filterUnits='objectBoundingBox' x='0' y='0' height='1' width='1'>
	  <feFlood flood-color='white' flood-opacity='1' result='bgnd'/>
	  <feComposite in='SourceGraphic' in2='bgnd' operator='atop'/>
	</filter>
	<filter id='greybox' filterUnits='objectBoundingBox' x='0' y='0' height='1' width='1'>
	  <feFlood flood-color='lightgrey' flood-opacity='1' result='grey'/>
	  <feComposite in='SourceGraphic' in2='grey' operator='atop'/>
	</filter>
</defs>
<g fill="none" color="white" stroke="currentColor" stroke-width="1.00" stroke-linecap="butt" stroke-linejoin="miter">
</g>
<g fill="none" color="black" stroke="currentColor" stroke-width="1.00" stroke-linecap="butt" stroke-linejoin="miter">
	<path stroke='black'  d='M87.1,684.0 L96.1,684.0 M1255.0,684.0 L1246.0,684.0  '/>	<g transform="translate(78.8,687.9)" stroke="none" fill="black" font-family="Arial" font-size="12.00"  text-anchor="end">
		<text><tspan font-family="Arial" > 0.1278</tspan></text>
	</g>
</g>
<g fill="none" color="black" stroke="currentColor" stroke-width="1.00" stroke-linecap="butt" stroke-linejoin="miter">
	<path stroke='black'  d='M87.1,369.0 L96.1,369.0 M1255.0,369.0 L1246.0,369.0  '/>	<g transform="translate(78.8,372.9)" stroke="none" fill="black" font-family="Arial" font-size="12.00"  text-anchor="end">
		<text><tspan font-family="Arial" > 51.3221</tspan></text>
	</g>
</g>
<g fill="none" color="black" stroke="currentColor" stroke-width="1.00" stroke-linecap="butt" stroke-linejoin="miter">
	<path stroke='black'  d='M87.1,54.1 L96.1,54.1 M1255.0,54.1 L1246.0,54.1  '/>	<g transform="translate(78.8,58.0)" stroke="none" fill="black" font-family="Arial" font-size="12.00"  text-anchor="end">
		<text><tspan font-family="Arial" > 20610</tspan></text>
	</g>
</g>
<g fill="none" color="black" stroke="currentColor" stroke-width="1.00" stroke-linecap="butt" stroke-linejoin="miter">
	<path stroke='black'  d='M87.1,684.0 L87.1,675.0 M87.1,54.1 L87.1,63.1  '/>	<g transform="translate(87.1,705.9)" stroke="none" fill="black" font-family="Arial" font-size="12.00"  text-anchor="middle">
		<text><tspan font-family="Arial" > 0</tspan></text>
	</g>
</g>
<g fill="none" color="black" stroke="currentColor" stroke-width="1.00" stroke-linecap="butt" stroke-linejoin="miter">
	<path stroke='black'  d='M671.1,684.0 L671.1,675.0 M671.1,54.1 L671.1,63.1  '/>	<g transform="translate(671.1,705.9)" stroke="none" fill="black" font-family="Arial" font-size="12.00"  text-anchor="middle">
		<text><tspan font-family="Arial" >pi/2</tspan></text>
	</g>
</g>
<g fill="none" color="black" stroke="currentColor" stroke-width="1.00" stroke-linecap="butt" stroke-linejoin="miter">
	<path stroke='black'  d='M1255.0,684.0 L1255.0,675.0 M1255.0,54.1 L1255.0,63.1  '/>	<g transform="translate(1255.0,705.9)" stroke="none" fill="black" font-family="Arial" font-size="12.00"  text-anchor="middle">
		<text><tspan font-family="Arial" >pi</tspan></text>
	</g>
</g>
<g fill="none" color="black" stroke="currentColor" stroke-width="1.00" stroke-linecap="butt" stroke-linejoin="miter">
</g>
<g fill="none" color="black" stroke="currentColor" stroke-width="1.00" stroke-linecap="butt" stroke-linejoin="miter">
	<path stroke='black'  d='M87.1,54.1 L87.1,684.0 L1255.0,684.0 L1255.0,54.1 L87.1,54.1 Z  '/></g>
<g fill="none" color="black" stroke="currentColor" stroke-width="1.00" stroke-linecap="butt" stroke-linejoin="miter">
	<g transform="translate(671.0,31.0)" stroke="none" fill="black" font-family="Arial" font-size="12.00"  text-anchor="middle">
		<text><tspan font-family="Arial" >Material 32, with 1 components</tspan></text>
	</g>
</g>
	<g id="gnuplot_plot_1" ><title>scattering function</title>
<g fill="none" color="black" stroke="currentColor" stroke-width="1.00" stroke-linecap="butt" stroke-linejoin="miter">
	<g transform="translate(1187.9,76.0)" stroke="none" fill="black" font-family="Arial" font-size="12.00"  text-anchor="end">
		<text><tspan font-family="Arial" >scattering function</tspan></text>
	</g>
</g>
<g fill="none" color="black" stroke="currentColor" stroke-width="1.00" stroke-linecap="butt" stroke-linejoin="miter">
	<use xlink:href='#gpPt5' transform='translate(87.1,82.8) scale(2.25)' color='rgb(255,   0,   0)'/>
	<use xlink:href='#gpPt5' transform='translate(87.7,83.0) scale(2.25)' color='rgb(255,   0,   0)'/>
	<use xlink:href='#gpPt5' transform='translate(88.4,83.6) scale(2.25)' color='rgb(255,   0,   0)'/>
	<use xlink:href='#gpPt5' transform='translate(89.0,84.6) scale(2.25)' color='rgb(255,   0,   0)'/>
	<use xlink:href='#gpPt5' transform='translate(89.7,86.0) scale(2.25)' color='rgb(255,   0,   0)'/>
	<use xlink:href='#gpPt5' transform='translate(90.3,87.9) scale(2.25)' color='rgb(255,   0,   0)'/>
	<use xlink:href='#gpPt5' transform='translate(91.0,90.0) scale(2.25)' color='rgb(255,   0,   0)'/>
	<use xlink:href='#gpPt5' transform='translate(91.6,92.6) scale(2.25)' color='rgb(255,   0,   0)'/>
	<use xlink:href='#gpPt5' transform='translate(92.3,95.7) scale(2.25)' color='rgb(255,   0,   0)'/>
	<use xlink:href='#gpPt5' transform='translate(92.9,99.1) scale(2.25)' color='rgb(255,   0,   0)'/>
	<use xlink:href='#gpPt5' transform='translate(93.6,102.9) scale(2.25)' color='rgb(255,   0,   0)'/>
	<use xlink:href='#gpPt5' transform='translate(94.2,107.1) scale(2.25)' color='rgb(255,   0,   0)'/>
	<use xlink:href='#gpPt5' transform='translate(94.9,111.7) scale(2.25)' color='rgb(255,   0,   0)'/>
	<use xlink:href='#gpPt5' transform='translate(95.5,116.7) scale(2.25)' color='rgb(255,   0,   0)'/>
	<use xlink:href='#gpPt5' transform='translate(96.2,122.1) scale(2.25)' color='rgb(255,   0,   0)'/>
	<use xlink:href='#gpPt5' transform='translate(96.8,128.0) scale(2.25)' color='rgb(255,   0,   0)'/>
	<use xlink:href='#gpPt5' transform='translate(97.5,134.1) scale(2.25)' color='rgb(255,   0,   0)'/>
	<use xlink:href='#gpPt5' transform='translate(98.1,140.7) scale(2.25)' color='rgb(255,   0,   0)'/>
	<use xlink:href='#gpPt5' transform='translate(98.8,147.7) scale(2.25)' color='rgb(255,   0,   0)'/>
	<use xlink:href='#gpPt5' transform='translate(99.4,155.0) scale(2.25)' color='rgb(255,   0,   0)'/>
	<use xlink:href='#gpPt5' transform='translate(100.1,162.6) scale(2.25)' color='rgb(255,   0,   0)'/>
	<use xlink:href='#gpPt5' transform='translate(106.6,247.0) scale(2.25)' color='rgb(255,   0,   0)'/>
	<use xlink:href='#gpPt5' transform='translate(113.1,294.6) scale(2.25)' color='rgb(255,   0,   0)'/>
	<use xlink:href='#gpPt5' transform='translate(119.5,317.1) scale(2.25)' color='rgb(255,   0,   0)'/>
	<use xlink:href='#gpPt5' transform='translate(126.0,335.5) scale(2.25)' color='rgb(255,   0,   0)'/>
	<use xlink:href='#gpPt5' transform='translate(139.0,358.1) scale(2.25)' color='rgb(255,   0,   0)'/>
	<use xlink:href='#gpPt5' transform='translate(152.0,372.6) scale(2.25)' color='rgb(255,   0,   0)'/>
	<use xlink:href='#gpPt5' transform='translate(165.0,380.7) scale(2.25)' color='rgb(255,   0,   0)'/>
	<use xlink:href='#gpPt5' transform='translate(177.9,389.8) scale(2.25)' color='rgb(255,   0,   0)'/>
	<use xlink:href='#gpPt5' transform='translate(190.9,394.8) scale(2.25)' color='rgb(255,   0,   0)'/>
	<use xlink:href='#gpPt5' transform='translate(203.9,401.6) scale(2.25)' color='rgb(255,   0,   0)'/>
	<use xlink:href='#gpPt5' transform='translate(216.9,408.5) scale(2.25)' color='rgb(255,   0,   0)'/>
	<use xlink:href='#gpPt5' transform='translate(229.8,414.9) scale(2.25)' color='rgb(255,   0,   0)'/>
	<use xlink:href='#gpPt5' transform='translate(242.8,420.8) scale(2.25)' color='rgb(255,   0,   0)'/>
	<use xlink:href='#gpPt5' transform='translate(255.8,427.7) scale(2.25)' color='rgb(255,   0,   0)'/>
	<use xlink:href='#gpPt5' transform='translate(268.8,433.7) scale(2.25)' color='rgb(255,   0,   0)'/>
	<use xlink:href='#gpPt5' transform='translate(281.8,441.3) scale(2.25)' color='rgb(255,   0,   0)'/>
	<use xlink:href='#gpPt5' transform='translate(294.7,447.6) scale(2.25)' color='rgb(255,   0,   0)'/>
	<use xlink:href='#gpPt5' transform='translate(307.7,455.4) scale(2.25)' color='rgb(255,   0,   0)'/>
	<use xlink:href='#gpPt5' transform='translate(320.7,460.8) scale(2.25)' color='rgb(255,   0,   0)'/>
	<use xlink:href='#gpPt5' transform='translate(333.7,468.4) scale(2.25)' color='rgb(255,   0,   0)'/>
	<use xlink:href='#gpPt5' transform='translate(346.6,476.1) scale(2.25)' color='rgb(255,   0,   0)'/>
	<use xlink:href='#gpPt5' transform='translate(359.6,482.7) scale(2.25)' color='rgb(255,   0,   0)'/>
	<use xlink:href='#gpPt5' transform='translate(372.6,489.5) scale(2.25)' color='rgb(255,   0,   0)'/>
	<use xlink:href='#gpPt5' transform='translate(385.6,497.3) scale(2.25)' color='rgb(255,   0,   0)'/>
	<use xlink:href='#gpPt5' transform='translate(398.5,502.9) scale(2.25)' color='rgb(255,   0,   0)'/>
	<use xlink:href='#gpPt5' transform='translate(411.5,510.9) scale(2.25)' color='rgb(255,   0,   0)'/>
	<use xlink:href='#gpPt5' transform='translate(424.5,518.6) scale(2.25)' color='rgb(255,   0,   0)'/>
	<use xlink:href='#gpPt5' transform='translate(437.5,525.5) scale(2.25)' color='rgb(255,   0,   0)'/>
	<use xlink:href='#gpPt5' transform='translate(450.4,532.2) scale(2.25)' color='rgb(255,   0,   0)'/>
	<use xlink:href='#gpPt5' transform='translate(463.4,540.5) scale(2.25)' color='rgb(255,   0,   0)'/>
	<use xlink:href='#gpPt5' transform='translate(476.4,547.9) scale(2.25)' color='rgb(255,   0,   0)'/>
	<use xlink:href='#gpPt5' transform='translate(489.4,556.8) scale(2.25)' color='rgb(255,   0,   0)'/>
	<use xlink:href='#gpPt5' transform='translate(502.4,561.9) scale(2.25)' color='rgb(255,   0,   0)'/>
	<use xlink:href='#gpPt5' transform='translate(515.3,573.2) scale(2.25)' color='rgb(255,   0,   0)'/>
	<use xlink:href='#gpPt5' transform='translate(528.3,579.1) scale(2.25)' color='rgb(255,   0,   0)'/>
	<use xlink:href='#gpPt5' transform='translate(541.3,583.5) scale(2.25)' color='rgb(255,   0,   0)'/>
	<use xlink:href='#gpPt5' transform='translate(554.3,594.1) scale(2.25)' color='rgb(255,   0,   0)'/>
	<use xlink:href='#gpPt5' transform='translate(567.2,598.8) scale(2.25)' color='rgb(255,   0,   0)'/>
	<use xlink:href='#gpPt5' transform='translate(580.2,607.4) scale(2.25)' color='rgb(255,   0,   0)'/>
	<use xlink:href='#gpPt5' transform='translate(593.2,617.1) scale(2.25)' color='rgb(255,   0,   0)'/>
	<use xlink:href='#gpPt5' transform='translate(606.2,624.1) scale(2.25)' color='rgb(255,   0,   0)'/>
	<use xlink:href='#gpPt5' transform='translate(619.1,628.4) scale(2.25)' color='rgb(255,   0,   0)'/>
	<use xlink:href='#gpPt5' transform='translate(632.1,638.3) scale(2.25)' color='rgb(255,   0,   0)'/>
	<use xlink:href='#gpPt5' transform='translate(645.1,644.6) scale(2.25)' color='rgb(255,   0,   0)'/>
	<use xlink:href='#gpPt5' transform='translate(658.1,645.0) scale(2.25)' color='rgb(255,   0,   0)'/>
	<use xlink:href='#gpPt5' transform='translate(671.1,645.4) scale(2.25)' color='rgb(255,   0,   0)'/>
	<use xlink:href='#gpPt5' transform='translate(684.0,656.9) scale(2.25)' color='rgb(255,   0,   0)'/>
	<use xlink:href='#gpPt5' transform='translate(697.0,665.2) scale(2.25)' color='rgb(255,   0,   0)'/>
	<use xlink:href='#gpPt5' transform='translate(710.0,669.7) scale(2.25)' color='rgb(255,   0,   0)'/>
	<use xlink:href='#gpPt5' transform='translate(723.0,669.1) scale(2.25)' color='rgb(255,   0,   0)'/>
	<use xlink:href='#gpPt5' transform='translate(735.9,662.8) scale(2.25)' color='rgb(255,   0,   0)'/>
	<use xlink:href='#gpPt5' transform='translate(748.9,665.9) scale(2.25)' color='rgb(255,   0,   0)'/>
	<use xlink:href='#gpPt5' transform='translate(761.9,671.0) scale(2.25)' color='rgb(255,   0,   0)'/>
	<use xlink:href='#gpPt5' transform='translate(774.9,674.1) scale(2.25)' color='rgb(255,   0,   0)'/>
	<use xlink:href='#gpPt5' transform='translate(787.8,672.7) scale(2.25)' color='rgb(255,   0,   0)'/>
	<use xlink:href='#gpPt5' transform='translate(800.8,675.1) scale(2.25)' color='rgb(255,   0,   0)'/>
	<use xlink:href='#gpPt5' transform='translate(813.8,664.2) scale(2.25)' color='rgb(255,   0,   0)'/>
	<use xlink:href='#gpPt5' transform='translate(826.8,665.9) scale(2.25)' color='rgb(255,   0,   0)'/>
	<use xlink:href='#gpPt5' transform='translate(839.7,655.3) scale(2.25)' color='rgb(255,   0,   0)'/>
	<use xlink:href='#gpPt5' transform='translate(852.7,654.4) scale(2.25)' color='rgb(255,   0,   0)'/>
	<use xlink:href='#gpPt5' transform='translate(865.7,642.7) scale(2.25)' color='rgb(255,   0,   0)'/>
	<use xlink:href='#gpPt5' transform='translate(878.7,638.5) scale(2.25)' color='rgb(255,   0,   0)'/>
	<use xlink:href='#gpPt5' transform='translate(891.7,642.6) scale(2.25)' color='rgb(255,   0,   0)'/>
	<use xlink:href='#gpPt5' transform='translate(904.6,637.9) scale(2.25)' color='rgb(255,   0,   0)'/>
	<use xlink:href='#gpPt5' transform='translate(917.6,644.8) scale(2.25)' color='rgb(255,   0,   0)'/>
	<use xlink:href='#gpPt5' transform='translate(930.6,627.5) scale(2.25)' color='rgb(255,   0,   0)'/>
	<use xlink:href='#gpPt5' transform='translate(943.6,623.8) scale(2.25)' color='rgb(255,   0,   0)'/>
	<use xlink:href='#gpPt5' transform='translate(956.5,609.7) scale(2.25)' color='rgb(255,   0,   0)'/>
	<use xlink:href='#gpPt5' transform='translate(969.5,589.2) scale(2.25)' color='rgb(255,   0,   0)'/>
	<use xlink:href='#gpPt5' transform='translate(982.5,574.2) scale(2.25)' color='rgb(255,   0,   0)'/>
	<use xlink:href='#gpPt5' transform='translate(995.5,559.1) scale(2.25)' color='rgb(255,   0,   0)'/>
	<use xlink:href='#gpPt5' transform='translate(1008.4,546.7) scale(2.25)' color='rgb(255,   0,   0)'/>
	<use xlink:href='#gpPt5' transform='translate(1021.4,551.1) scale(2.25)' color='rgb(255,   0,   0)'/>
	<use xlink:href='#gpPt5' transform='translate(1034.4,555.8) scale(2.25)' color='rgb(255,   0,   0)'/>
	<use xlink:href='#gpPt5' transform='translate(1047.4,571.7) scale(2.25)' color='rgb(255,   0,   0)'/>
	<use xlink:href='#gpPt5' transform='translate(1060.3,582.2) scale(2.25)' color='rgb(255,   0,   0)'/>
	<use xlink:href='#gpPt5' transform='translate(1073.3,586.3) scale(2.25)' color='rgb(255,   0,   0)'/>
	<use xlink:href='#gpPt5' transform='translate(1086.3,579.4) scale(2.25)' color='rgb(255,   0,   0)'/>
	<use xlink:href='#gpPt5' transform='translate(1099.3,578.6) scale(2.25)' color='rgb(255,   0,   0)'/>
	<use xlink:href='#gpPt5' transform='translate(1112.3,583.6) scale(2.25)' color='rgb(255,   0,   0)'/>
	<use xlink:href='#gpPt5' transform='translate(1125.2,583.0) scale(2.25)' color='rgb(255,   0,   0)'/>
	<use xlink:href='#gpPt5' transform='translate(1138.2,580.3) scale(2.25)' color='rgb(255,   0,   0)'/>
	<use xlink:href='#gpPt5' transform='translate(1151.2,579.5) scale(2.25)' color='rgb(255,   0,   0)'/>
	<use xlink:href='#gpPt5' transform='translate(1164.2,589.6) scale(2.25)' color='rgb(255,   0,   0)'/>
	<use xlink:href='#gpPt5' transform='translate(1177.1,579.3) scale(2.25)' color='rgb(255,   0,   0)'/>
	<use xlink:href='#gpPt5' transform='translate(1190.1,576.8) scale(2.25)' color='rgb(255,   0,   0)'/>
	<use xlink:href='#gpPt5' transform='translate(1203.1,569.6) scale(2.25)' color='rgb(255,   0,   0)'/>
	<use xlink:href='#gpPt5' transform='translate(1216.1,558.0) scale(2.25)' color='rgb(255,   0,   0)'/>
	<use xlink:href='#gpPt5' transform='translate(1229.0,533.2) scale(2.25)' color='rgb(255,   0,   0)'/>
	<use xlink:href='#gpPt5' transform='translate(1242.0,523.5) scale(2.25)' color='rgb(255,   0,   0)'/>
	<use xlink:href='#gpPt5' transform='translate(1255.0,487.4) scale(2.25)' color='rgb(255,   0,   0)'/>
	<use xlink:href='#gpPt5' transform='translate(1217.3,72.1) scale(2.25)' color='rgb(255,   0,   0)'/>
</g>
	</g>
	<g id="gnuplot_plot_2" ><title>gnuplot_plot_2</title>
<g fill="none" color="black" stroke="currentColor" stroke-width="1.00" stroke-linecap="butt" stroke-linejoin="miter">
	<use xlink:href='#gpPt5' transform='translate(87.1,74.4) scale(2.25)' color='rgb(  0, 100,   0)'/>
	<use xlink:href='#gpPt5' transform='translate(87.7,74.6) scale(2.25)' color='rgb(  0, 100,   0)'/>
	<use xlink:href='#gpPt5' transform='translate(88.4,75.3) scale(2.25)' color='rgb(  0, 100,   0)'/>
	<use xlink:href='#gpPt5' transform='translate(89.0,76.5) scale(2.25)' color='rgb(  0, 100,   0)'/>
	<use xlink:href='#gpPt5' transform='translate(89.7,78.2) scale(2.25)' color='rgb(  0, 100,   0)'/>
	<use xlink:href='#gpPt5' transform='translate(90.3,80.3) scale(2.25)' color='rgb(  0, 100,   0)'/>
	<use xlink:href='#gpPt5' transform='translate(91.0,83.0) scale(2.25)' color='rgb(  0, 100,   0)'/>
	<use xlink:href='#gpPt5' transform='translate(91.6,86.0) scale(2.25)' color='rgb(  0, 100,   0)'/>
	<use xlink:href='#gpPt5' transform='translate(92.3,89.6) scale(2.25)' color='rgb(  0, 100,   0)'/>
	<use xlink:href='#gpPt5' transform='translate(92.9,93.6) scale(2.25)' color='rgb(  0, 100,   0)'/>
	<use xlink:href='#gpPt5' transform='translate(93.6,98.2) scale(2.25)' color='rgb(  0, 100,   0)'/>
	<use xlink:href='#gpPt5' transform='translate(94.2,103.2) scale(2.25)' color='rgb(  0, 100,   0)'/>
	<use xlink:href='#gpPt5' transform='translate(94.9,108.6) scale(2.25)' color='rgb(  0, 100,   0)'/>
	<use xlink:href='#gpPt5' transform='translate(95.5,114.6) scale(2.25)' color='rgb(  0, 100,   0)'/>
	<use xlink:href='#gpPt5' transform='translate(96.2,121.0) scale(2.25)' color='rgb(  0, 100,   0)'/>
	<use xlink:href='#gpPt5' transform='translate(96.8,127.8) scale(2.25)' color='rgb(  0, 100,   0)'/>
	<use xlink:href='#gpPt5' transform='translate(97.5,135.2) scale(2.25)' color='rgb(  0, 100,   0)'/>
	<use xlink:href='#gpPt5' transform='translate(98.1,142.9) scale(2.25)' color='rgb(  0, 100,   0)'/>
	<use xlink:href='#gpPt5' transform='translate(98.8,151.1) scale(2.25)' color='rgb(  0, 100,   0)'/>
	<use xlink:href='#gpPt5' transform='translate(99.4,159.6) scale(2.25)' color='rgb(  0, 100,   0)'/>
	<use xlink:href='#gpPt5' transform='translate(100.1,168.5) scale(2.25)' color='rgb(  0, 100,   0)'/>
	<use xlink:href='#gpPt5' transform='translate(106.6,257.6) scale(2.25)' color='rgb(  0, 100,   0)'/>
	<use xlink:href='#gpPt5' transform='translate(113.1,295.9) scale(2.25)' color='rgb(  0, 100,   0)'/>
	<use xlink:href='#gpPt5' transform='translate(119.5,318.6) scale(2.25)' color='rgb(  0, 100,   0)'/>
	<use xlink:href='#gpPt5' transform='translate(126.0,337.5) scale(2.25)' color='rgb(  0, 100,   0)'/>
	<use xlink:href='#gpPt5' transform='translate(139.0,361.0) scale(2.25)' color='rgb(  0, 100,   0)'/>
	<use xlink:href='#gpPt5' transform='translate(152.0,373.2) scale(2.25)' color='rgb(  0, 100,   0)'/>
	<use xlink:href='#gpPt5' transform='translate(165.0,381.6) scale(2.25)' color='rgb(  0, 100,   0)'/>
	<use xlink:href='#gpPt5' transform='translate(177.9,389.5) scale(2.25)' color='rgb(  0, 100,   0)'/>
	<use xlink:href='#gpPt5' transform='translate(190.9,395.6) scale(2.25)' color='rgb(  0, 100,   0)'/>
	<use xlink:href='#gpPt5' transform='translate(203.9,402.4) scale(2.25)' color='rgb(  0, 100,   0)'/>
	<use xlink:href='#gpPt5' transform='translate(216.9,408.7) scale(2.25)' color='rgb(  0, 100,   0)'/>
	<use xlink:href='#gpPt5' transform='translate(229.8,414.5) scale(2.25)' color='rgb(  0, 100,   0)'/>
	<use xlink:href='#gpPt5' transform='translate(242.8,419.9) scale(2.25)' color='rgb(  0, 100,   0)'/>
	<use xlink:href='#gpPt5' transform='translate(255.8,427.4) scale(2.25)' color='rgb(  0, 100,   0)'/>
	<use xlink:href='#gpPt5' transform='translate(268.8,435.4) scale(2.25)' color='rgb(  0, 100,   0)'/>
	<use xlink:href='#gpPt5' transform='translate(281.8,442.2) scale(2.25)' color='rgb(  0, 100,   0)'/>
	<use xlink:href='#gpPt5' transform='translate(294.7,449.0) scale(2.25)' color='rgb(  0, 100,   0)'/>
	<use xlink:href='#gpPt5' transform='translate(307.7,454.3) scale(2.25)' color='rgb(  0, 100,   0)'/>
	<use xlink:href='#gpPt5' transform='translate(320.7,462.0) scale(2.25)' color='rgb(  0, 100,   0)'/>
	<use xlink:href='#gpPt5' transform='translate(333.7,469.5) scale(2.25)' color='rgb(  0, 100,   0)'/>
	<use xlink:href='#gpPt5' transform='translate(346.6,476.5) scale(2.25)' color='rgb(  0, 100,   0)'/>
	<use xlink:href='#gpPt5' transform='translate(359.6,483.8) scale(2.25)' color='rgb(  0, 100,   0)'/>
	<use xlink:href='#gpPt5' transform='translate(372.6,490.1) scale(2.25)' color='rgb(  0, 100,   0)'/>
	<use xlink:href='#gpPt5' transform='translate(385.6,497.0) scale(2.25)' color='rgb(  0, 100,   0)'/>
	<use xlink:href='#gpPt5' transform='translate(398.5,504.2) scale(2.25)' color='rgb(  0, 100,   0)'/>
	<use xlink:href='#gpPt5' transform='translate(411.5,511.4) scale(2.25)' color='rgb(  0, 100,   0)'/>
	<use xlink:href='#gpPt5' transform='translate(424.5,517.3) scale(2.25)' color='rgb(  0, 100,   0)'/>
	<use xlink:href='#gpPt5' transform='translate(437.5,526.2) scale(2.25)' color='rgb(  0, 100,   0)'/>
	<use xlink:href='#gpPt5' transform='translate(450.4,532.4) scale(2.25)' color='rgb(  0, 100,   0)'/>
	<use xlink:href='#gpPt5' transform='translate(463.4,541.1) scale(2.25)' color='rgb(  0, 100,   0)'/>
	<use xlink:href='#gpPt5' transform='translate(476.4,549.3) scale(2.25)' color='rgb(  0, 100,   0)'/>
	<use xlink:href='#gpPt5' transform='translate(489.4,557.1) scale(2.25)' color='rgb(  0, 100,   0)'/>
	<use xlink:href='#gpPt5' transform='translate(502.4,566.5) scale(2.25)' color='rgb(  0, 100,   0)'/>
	<use xlink:href='#gpPt5' transform='translate(515.3,573.5) scale(2.25)' color='rgb(  0, 100,   0)'/>
	<use xlink:href='#gpPt5' transform='translate(528.3,583.8) scale(2.25)' color='rgb(  0, 100,   0)'/>
	<use xlink:href='#gpPt5' transform='translate(541.3,592.4) scale(2.25)' color='rgb(  0, 100,   0)'/>
	<use xlink:href='#gpPt5' transform='translate(554.3,596.7) scale(2.25)' color='rgb(  0, 100,   0)'/>
	<use xlink:href='#gpPt5' transform='translate(567.2,611.5) scale(2.25)' color='rgb(  0, 100,   0)'/>
	<use xlink:href='#gpPt5' transform='translate(580.2,616.3) scale(2.25)' color='rgb(  0, 100,   0)'/>
	<use xlink:href='#gpPt5' transform='translate(593.2,618.1) scale(2.25)' color='rgb(  0, 100,   0)'/>
	<use xlink:href='#gpPt5' transform='translate(606.2,626.5) scale(2.25)' color='rgb(  0, 100,   0)'/>
	<use xlink:href='#gpPt5' transform='translate(619.1,635.6) scale(2.25)' color='rgb(  0, 100,   0)'/>
	<use xlink:href='#gpPt5' transform='translate(632.1,639.4) scale(2.25)' color='rgb(  0, 100,   0)'/>
	<use xlink:href='#gpPt5' transform='translate(645.1,646.3) scale(2.25)' color='rgb(  0, 100,   0)'/>
	<use xlink:href='#gpPt5' transform='translate(658.1,658.5) scale(2.25)' color='rgb(  0, 100,   0)'/>
	<use xlink:href='#gpPt5' transform='translate(671.1,659.7) scale(2.25)' color='rgb(  0, 100,   0)'/>
	<use xlink:href='#gpPt5' transform='translate(684.0,664.2) scale(2.25)' color='rgb(  0, 100,   0)'/>
	<use xlink:href='#gpPt5' transform='translate(697.0,662.8) scale(2.25)' color='rgb(  0, 100,   0)'/>
	<use xlink:href='#gpPt5' transform='translate(710.0,664.7) scale(2.25)' color='rgb(  0, 100,   0)'/>
	<use xlink:href='#gpPt5' transform='translate(723.0,675.9) scale(2.25)' color='rgb(  0, 100,   0)'/>
	<use xlink:href='#gpPt5' transform='translate(735.9,677.4) scale(2.25)' color='rgb(  0, 100,   0)'/>
	<use xlink:href='#gpPt5' transform='translate(748.9,676.1) scale(2.25)' color='rgb(  0, 100,   0)'/>
	<use xlink:href='#gpPt5' transform='translate(761.9,677.8) scale(2.25)' color='rgb(  0, 100,   0)'/>
	<use xlink:href='#gpPt5' transform='translate(774.9,678.9) scale(2.25)' color='rgb(  0, 100,   0)'/>
	<use xlink:href='#gpPt5' transform='translate(787.8,680.0) scale(2.25)' color='rgb(  0, 100,   0)'/>
	<use xlink:href='#gpPt5' transform='translate(800.8,676.0) scale(2.25)' color='rgb(  0, 100,   0)'/>
	<use xlink:href='#gpPt5' transform='translate(813.8,672.3) scale(2.25)' color='rgb(  0, 100,   0)'/>
	<use xlink:href='#gpPt5' transform='translate(826.8,666.3) scale(2.25)' color='rgb(  0, 100,   0)'/>
	<use xlink:href='#gpPt5' transform='translate(839.7,660.2) scale(2.25)' color='rgb(  0, 100,   0)'/>
	<use xlink:href='#gpPt5' transform='translate(852.7,655.5) scale(2.25)' color='rgb(  0, 100,   0)'/>
	<use xlink:href='#gpPt5' transform='translate(865.7,646.3) scale(2.25)' color='rgb(  0, 100,   0)'/>
	<use xlink:href='#gpPt5' transform='translate(878.7,643.7) scale(2.25)' color='rgb(  0, 100,   0)'/>
	<use xlink:href='#gpPt5' transform='translate(891.7,640.8) scale(2.25)' color='rgb(  0, 100,   0)'/>
	<use xlink:href='#gpPt5' transform='translate(904.6,650.3) scale(2.25)' color='rgb(  0, 100,   0)'/>
	<use xlink:href='#gpPt5' transform='translate(917.6,645.1) scale(2.25)' color='rgb(  0, 100,   0)'/>
	<use xlink:href='#gpPt5' transform='translate(930.6,642.9) scale(2.25)' color='rgb(  0, 100,   0)'/>
	<use xlink:href='#gpPt5' transform='translate(943.6,621.6) scale(2.25)' color='rgb(  0, 100,   0)'/>
	<use xlink:href='#gpPt5' transform='translate(956.5,612.0) scale(2.25)' color='rgb(  0, 100,   0)'/>
	<use xlink:href='#gpPt5' transform='translate(969.5,591.7) scale(2.25)' color='rgb(  0, 100,   0)'/>
	<use xlink:href='#gpPt5' transform='translate(982.5,569.3) scale(2.25)' color='rgb(  0, 100,   0)'/>
	<use xlink:href='#gpPt5' transform='translate(995.5,555.2) scale(2.25)' color='rgb(  0, 100,   0)'/>
	<use xlink:href='#gpPt5' transform='translate(1008.4,549.1) scale(2.25)' color='rgb(  0, 100,   0)'/>
	<use xlink:href='#gpPt5' transform='translate(1021.4,549.2) scale(2.25)' color='rgb(  0, 100,   0)'/>
	<use xlink:href='#gpPt5' transform='translate(1034.4,559.5) scale(2.25)' color='rgb(  0, 100,   0)'/>
	<use xlink:href='#gpPt5' transform='translate(1047.4,578.5) scale(2.25)' color='rgb(  0, 100,   0)'/>
	<use xlink:href='#gpPt5' transform='translate(1060.3,586.0) scale(2.25)' color='rgb(  0, 100,   0)'/>
	<use xlink:href='#gpPt5' transform='translate(1073.3,582.7) scale(2.25)' color='rgb(  0, 100,   0)'/>
	<use xlink:href='#gpPt5' transform='translate(1086.3,579.7) scale(2.25)' color='rgb(  0, 100,   0)'/>
	<use xlink:href='#gpPt5' transform='translate(1099.3,586.1) scale(2.25)' color='rgb(  0, 100,   0)'/>
	<use xlink:href='#gpPt5' transform='translate(1112.3,589.0) scale(2.25)' color='rgb(  0, 100,   0)'/>
	<use xlink:href='#gpPt5' transform='translate(1125.2,588.0) scale(2.25)' color='rgb(  0, 100,   0)'/>
	<use xlink:href='#gpPt5' transform='translate(1138.2,587.0) scale(2.25)' color='rgb(  0, 100,   0)'/>
	<use xlink:href='#gpPt5' transform='translate(1151.2,587.2) scale(2.25)' color='rgb(  0, 100,   0)'/>
	<use xlink:href='#gpPt5' transform='translate(1164.2,588.2) scale(2.25)' color='rgb(  0, 100,   0)'/>
	<use xlink:href='#gpPt5' transform='translate(1177.1,580.2) scale(2.25)' color='rgb(  0, 100,   0)'/>
	<use xlink:href='#gpPt5' transform='translate(1190.1,581.7) scale(2.25)' color='rgb(  0, 100,   0)'/>
	<use xlink:href='#gpPt5' transform='translate(1203.1,578.7) scale(2.25)' color='rgb(  0, 100,   0)'/>
	<use xlink:href='#gpPt5' transform='translate(1216.1,562.0) scale(2.25)' color='rgb(  0, 100,   0)'/>
	<use xlink:href='#gpPt5' transform='translate(1229.0,550.3) scale(2.25)' color='rgb(  0, 100,   0)'/>
	<use xlink:href='#gpPt5' transform='translate(1242.0,524.7) scale(2.25)' color='rgb(  0, 100,   0)'/>
	<use xlink:href='#gpPt5' transform='translate(1255.0,497.5) scale(2.25)' color='rgb(  0, 100,   0)'/>
</g>
	</g>
	<g id="gnuplot_plot_3" ><title>gnuplot_plot_3</title>
<g fill="none" color="black" stroke="currentColor" stroke-width="1.00" stroke-linecap="butt" stroke-linejoin="miter">
	<use xlink:href='#gpPt5' transform='translate(87.1,54.1) scale(2.25)' color='rgb(  0,   0, 255)'/>
	<use xlink:href='#gpPt5' transform='translate(87.7,54.4) scale(2.25)' color='rgb(  0,   0, 255)'/>
	<use xlink:href='#gpPt5' transform='translate(88.4,55.5) scale(2.25)' color='rgb(  0,   0, 255)'/>
	<use xlink:href='#gpPt5' transform='translate(89.0,57.3) scale(2.25)' color='rgb(  0,   0, 255)'/>
	<use xlink:href='#gpPt5' transform='translate(89.7,59.7) scale(2.25)' color='rgb(  0,   0, 255)'/>
	<use xlink:href='#gpPt5' transform='translate(90.3,62.9) scale(2.25)' color='rgb(  0,   0, 255)'/>
	<use xlink:href='#gpPt5' transform='translate(91.0,66.8) scale(2.25)' color='rgb(  0,   0, 255)'/>
	<use xlink:href='#gpPt5' transform='translate(91.6,71.4) scale(2.25)' color='rgb(  0,   0, 255)'/>
	<use xlink:href='#gpPt5' transform='translate(92.3,76.7) scale(2.25)' color='rgb(  0,   0, 255)'/>
	<use xlink:href='#gpPt5' transform='translate(92.9,82.7) scale(2.25)' color='rgb(  0,   0, 255)'/>
	<use xlink:href='#gpPt5' transform='translate(93.6,89.4) scale(2.25)' color='rgb(  0,   0, 255)'/>
	<use xlink:href='#gpPt5' transform='translate(94.2,96.9) scale(2.25)' color='rgb(  0,   0, 255)'/>
	<use xlink:href='#gpPt5' transform='translate(94.9,105.0) scale(2.25)' color='rgb(  0,   0, 255)'/>
	<use xlink:href='#gpPt5' transform='translate(95.5,113.8) scale(2.25)' color='rgb(  0,   0, 255)'/>
	<use xlink:href='#gpPt5' transform='translate(96.2,123.2) scale(2.25)' color='rgb(  0,   0, 255)'/>
	<use xlink:href='#gpPt5' transform='translate(96.8,133.2) scale(2.25)' color='rgb(  0,   0, 255)'/>
	<use xlink:href='#gpPt5' transform='translate(97.5,143.9) scale(2.25)' color='rgb(  0,   0, 255)'/>
	<use xlink:href='#gpPt5' transform='translate(98.1,154.9) scale(2.25)' color='rgb(  0,   0, 255)'/>
	<use xlink:href='#gpPt5' transform='translate(98.8,166.4) scale(2.25)' color='rgb(  0,   0, 255)'/>
	<use xlink:href='#gpPt5' transform='translate(99.4,178.1) scale(2.25)' color='rgb(  0,   0, 255)'/>
	<use xlink:href='#gpPt5' transform='translate(100.1,189.9) scale(2.25)' color='rgb(  0,   0, 255)'/>
	<use xlink:href='#gpPt5' transform='translate(106.6,269.2) scale(2.25)' color='rgb(  0,   0, 255)'/>
	<use xlink:href='#gpPt5' transform='translate(113.1,301.4) scale(2.25)' color='rgb(  0,   0, 255)'/>
	<use xlink:href='#gpPt5' transform='translate(119.5,327.0) scale(2.25)' color='rgb(  0,   0, 255)'/>
	<use xlink:href='#gpPt5' transform='translate(126.0,344.5) scale(2.25)' color='rgb(  0,   0, 255)'/>
	<use xlink:href='#gpPt5' transform='translate(139.0,364.4) scale(2.25)' color='rgb(  0,   0, 255)'/>
	<use xlink:href='#gpPt5' transform='translate(152.0,375.6) scale(2.25)' color='rgb(  0,   0, 255)'/>
	<use xlink:href='#gpPt5' transform='translate(165.0,384.7) scale(2.25)' color='rgb(  0,   0, 255)'/>
	<use xlink:href='#gpPt5' transform='translate(177.9,390.1) scale(2.25)' color='rgb(  0,   0, 255)'/>
	<use xlink:href='#gpPt5' transform='translate(190.9,396.9) scale(2.25)' color='rgb(  0,   0, 255)'/>
	<use xlink:href='#gpPt5' transform='translate(203.9,404.0) scale(2.25)' color='rgb(  0,   0, 255)'/>
	<use xlink:href='#gpPt5' transform='translate(216.9,408.4) scale(2.25)' color='rgb(  0,   0, 255)'/>
	<use xlink:href='#gpPt5' transform='translate(229.8,414.4) scale(2.25)' color='rgb(  0,   0, 255)'/>
	<use xlink:href='#gpPt5' transform='translate(242.8,422.2) scale(2.25)' color='rgb(  0,   0, 255)'/>
	<use xlink:href='#gpPt5' transform='translate(255.8,428.2) scale(2.25)' color='rgb(  0,   0, 255)'/>
	<use xlink:href='#gpPt5' transform='translate(268.8,433.7) scale(2.25)' color='rgb(  0,   0, 255)'/>
	<use xlink:href='#gpPt5' transform='translate(281.8,440.1) scale(2.25)' color='rgb(  0,   0, 255)'/>
	<use xlink:href='#gpPt5' transform='translate(294.7,448.3) scale(2.25)' color='rgb(  0,   0, 255)'/>
	<use xlink:href='#gpPt5' transform='translate(307.7,455.6) scale(2.25)' color='rgb(  0,   0, 255)'/>
	<use xlink:href='#gpPt5' transform='translate(320.7,461.7) scale(2.25)' color='rgb(  0,   0, 255)'/>
	<use xlink:href='#gpPt5' transform='translate(333.7,468.8) scale(2.25)' color='rgb(  0,   0, 255)'/>
	<use xlink:href='#gpPt5' transform='translate(346.6,474.8) scale(2.25)' color='rgb(  0,   0, 255)'/>
	<use xlink:href='#gpPt5' transform='translate(359.6,482.3) scale(2.25)' color='rgb(  0,   0, 255)'/>
	<use xlink:href='#gpPt5' transform='translate(372.6,489.5) scale(2.25)' color='rgb(  0,   0, 255)'/>
	<use xlink:href='#gpPt5' transform='translate(385.6,496.8) scale(2.25)' color='rgb(  0,   0, 255)'/>
	<use xlink:href='#gpPt5' transform='translate(398.5,504.6) scale(2.25)' color='rgb(  0,   0, 255)'/>
	<use xlink:href='#gpPt5' transform='translate(411.5,511.7) scale(2.25)' color='rgb(  0,   0, 255)'/>
	<use xlink:href='#gpPt5' transform='translate(424.5,519.2) scale(2.25)' color='rgb(  0,   0, 255)'/>
	<use xlink:href='#gpPt5' transform='translate(437.5,529.3) scale(2.25)' color='rgb(  0,   0, 255)'/>
	<use xlink:href='#gpPt5' transform='translate(450.4,538.7) scale(2.25)' color='rgb(  0,   0, 255)'/>
	<use xlink:href='#gpPt5' transform='translate(463.4,546.6) scale(2.25)' color='rgb(  0,   0, 255)'/>
	<use xlink:href='#gpPt5' transform='translate(476.4,554.2) scale(2.25)' color='rgb(  0,   0, 255)'/>
	<use xlink:href='#gpPt5' transform='translate(489.4,560.8) scale(2.25)' color='rgb(  0,   0, 255)'/>
	<use xlink:href='#gpPt5' transform='translate(502.4,568.3) scale(2.25)' color='rgb(  0,   0, 255)'/>
	<use xlink:href='#gpPt5' transform='translate(515.3,575.2) scale(2.25)' color='rgb(  0,   0, 255)'/>
	<use xlink:href='#gpPt5' transform='translate(528.3,584.8) scale(2.25)' color='rgb(  0,   0, 255)'/>
	<use xlink:href='#gpPt5' transform='translate(541.3,591.4) scale(2.25)' color='rgb(  0,   0, 255)'/>
	<use xlink:href='#gpPt5' transform='translate(554.3,602.0) scale(2.25)' color='rgb(  0,   0, 255)'/>
	<use xlink:href='#gpPt5' transform='translate(567.2,612.9) scale(2.25)' color='rgb(  0,   0, 255)'/>
	<use xlink:href='#gpPt5' transform='translate(580.2,620.0) scale(2.25)' color='rgb(  0,   0, 255)'/>
	<use xlink:href='#gpPt5' transform='translate(593.2,625.7) scale(2.25)' color='rgb(  0,   0, 255)'/>
	<use xlink:href='#gpPt5' transform='translate(606.2,635.9) scale(2.25)' color='rgb(  0,   0, 255)'/>
	<use xlink:href='#gpPt5' transform='translate(619.1,636.7) scale(2.25)' color='rgb(  0,   0, 255)'/>
	<use xlink:href='#gpPt5' transform='translate(632.1,643.1) scale(2.25)' color='rgb(  0,   0, 255)'/>
	<use xlink:href='#gpPt5' transform='translate(645.1,659.6) scale(2.25)' color='rgb(  0,   0, 255)'/>
	<use xlink:href='#gpPt5' transform='translate(658.1,664.3) scale(2.25)' color='rgb(  0,   0, 255)'/>
	<use xlink:href='#gpPt5' transform='translate(671.1,662.3) scale(2.25)' color='rgb(  0,   0, 255)'/>
	<use xlink:href='#gpPt5' transform='translate(684.0,664.3) scale(2.25)' color='rgb(  0,   0, 255)'/>
	<use xlink:href='#gpPt5' transform='translate(697.0,675.9) scale(2.25)' color='rgb(  0,   0, 255)'/>
	<use xlink:href='#gpPt5' transform='translate(710.0,684.0) scale(2.25)' color='rgb(  0,   0, 255)'/>
	<use xlink:href='#gpPt5' transform='translate(723.0,682.9) scale(2.25)' color='rgb(  0,   0, 255)'/>
	<use xlink:href='#gpPt5' transform='translate(735.9,682.8) scale(2.25)' color='rgb(  0,   0, 255)'/>
	<use xlink:href='#gpPt5' transform='translate(748.9,677.6) scale(2.25)' color='rgb(  0,   0, 255)'/>
	<use xlink:href='#gpPt5' transform='translate(761.9,676.4) scale(2.25)' color='rgb(  0,   0, 255)'/>
	<use xlink:href='#gpPt5' transform='translate(774.9,675.9) scale(2.25)' color='rgb(  0,   0, 255)'/>
	<use xlink:href='#gpPt5' transform='translate(787.8,681.6) scale(2.25)' color='rgb(  0,   0, 255)'/>
	<use xlink:href='#gpPt5' transform='translate(800.8,681.6) scale(2.25)' color='rgb(  0,   0, 255)'/>
	<use xlink:href='#gpPt5' transform='translate(813.8,677.9) scale(2.25)' color='rgb(  0,   0, 255)'/>
	<use xlink:href='#gpPt5' transform='translate(826.8,666.5) scale(2.25)' color='rgb(  0,   0, 255)'/>
	<use xlink:href='#gpPt5' transform='translate(839.7,657.5) scale(2.25)' color='rgb(  0,   0, 255)'/>
	<use xlink:href='#gpPt5' transform='translate(852.7,648.8) scale(2.25)' color='rgb(  0,   0, 255)'/>
	<use xlink:href='#gpPt5' transform='translate(865.7,646.8) scale(2.25)' color='rgb(  0,   0, 255)'/>
	<use xlink:href='#gpPt5' transform='translate(878.7,650.7) scale(2.25)' color='rgb(  0,   0, 255)'/>
	<use xlink:href='#gpPt5' transform='translate(891.7,648.3) scale(2.25)' color='rgb(  0,   0, 255)'/>
	<use xlink:href='#gpPt5' transform='translate(904.6,643.5) scale(2.25)' color='rgb(  0,   0, 255)'/>
	<use xlink:href='#gpPt5' transform='translate(917.6,646.4) scale(2.25)' color='rgb(  0,   0, 255)'/>
	<use xlink:href='#gpPt5' transform='translate(930.6,654.7) scale(2.25)' color='rgb(  0,   0, 255)'/>
	<use xlink:href='#gpPt5' transform='translate(943.6,635.4) scale(2.25)' color='rgb(  0,   0, 255)'/>
	<use xlink:href='#gpPt5' transform='translate(956.5,624.2) scale(2.25)' color='rgb(  0,   0, 255)'/>
	<use xlink:href='#gpPt5' transform='translate(969.5,603.7) scale(2.25)' color='rgb(  0,   0, 255)'/>
	<use xlink:href='#gpPt5' transform='translate(982.5,577.9) scale(2.25)' color='rgb(  0,   0, 255)'/>
	<use xlink:href='#gpPt5' transform='translate(995.5,559.6) scale(2.25)' color='rgb(  0,   0, 255)'/>
	<use xlink:href='#gpPt5' transform='translate(1008.4,548.9) scale(2.25)' color='rgb(  0,   0, 255)'/>
	<use xlink:href='#gpPt5' transform='translate(1021.4,547.1) scale(2.25)' color='rgb(  0,   0, 255)'/>
	<use xlink:href='#gpPt5' transform='translate(1034.4,563.7) scale(2.25)' color='rgb(  0,   0, 255)'/>
	<use xlink:href='#gpPt5' transform='translate(1047.4,578.5) scale(2.25)' color='rgb(  0,   0, 255)'/>
	<use xlink:href='#gpPt5' transform='translate(1060.3,587.7) scale(2.25)' color='rgb(  0,   0, 255)'/>
	<use xlink:href='#gpPt5' transform='translate(1073.3,580.3) scale(2.25)' color='rgb(  0,   0, 255)'/>
	<use xlink:href='#gpPt5' transform='translate(1086.3,584.0) scale(2.25)' color='rgb(  0,   0, 255)'/>
	<use xlink:href='#gpPt5' transform='translate(1099.3,585.1) scale(2.25)' color='rgb(  0,   0, 255)'/>
	<use xlink:href='#gpPt5' transform='translate(1112.3,585.2) scale(2.25)' color='rgb(  0,   0, 255)'/>
	<use xlink:href='#gpPt5' transform='translate(1125.2,591.3) scale(2.25)' color='rgb(  0,   0, 255)'/>
	<use xlink:href='#gpPt5' transform='translate(1138.2,592.7) scale(2.25)' color='rgb(  0,   0, 255)'/>
	<use xlink:href='#gpPt5' transform='translate(1151.2,585.7) scale(2.25)' color='rgb(  0,   0, 255)'/>
	<use xlink:href='#gpPt5' transform='translate(1164.2,589.1) scale(2.25)' color='rgb(  0,   0, 255)'/>
	<use xlink:href='#gpPt5' transform='translate(1177.1,593.5) scale(2.25)' color='rgb(  0,   0, 255)'/>
	<use xlink:href='#gpPt5' transform='translate(1190.1,584.9) scale(2.25)' color='rgb(  0,   0, 255)'/>
	<use xlink:href='#gpPt5' transform='translate(1203.1,588.1) scale(2.25)' color='rgb(  0,   0, 255)'/>
	<use xlink:href='#gpPt5' transform='translate(1216.1,575.1) scale(2.25)' color='rgb(  0,   0, 255)'/>
	<use xlink:href='#gpPt5' transform='translate(1229.0,556.8) scale(2.25)' color='rgb(  0,   0, 255)'/>
	<use xlink:href='#gpPt5' transform='translate(1242.0,516.5) scale(2.25)' color='rgb(  0,   0, 255)'/>
	<use xlink:href='#gpPt5' transform='translate(1255.0,516.8) scale(2.25)' color='rgb(  0,   0, 255)'/>
</g>
	</g>
	<g id="gnuplot_plot_4" ><title>fit</title>
<g fill="none" color="black" stroke="currentColor" stroke-width="1.00" stroke-linecap="butt" stroke-linejoin="miter">
	<g transform="translate(1187.9,94.0)" stroke="none" fill="black" font-family="Arial" font-size="12.00"  text-anchor="end">
		<text><tspan font-family="Arial" >fit</tspan></text>
	</g>
</g>
<g fill="none" color="black" stroke="currentColor" stroke-width="1.00" stroke-linecap="butt" stroke-linejoin="miter">
	<path stroke='rgb(255,   0,   0)'  d='M1196.2,90.1 L1238.4,90.1 M87.1,108.2 L88.2,108.3 L89.4,108.9 L90.5,109.8 L91.7,111.1 L92.8,112.7
		L93.9,114.6 L95.1,116.9 L96.2,119.3 L97.4,122.1 L98.5,125.0 L99.7,128.1 L100.8,131.4 L101.9,134.8
		L103.1,138.3 L104.2,142.0 L105.4,145.7 L106.5,149.4 L107.6,153.2 L108.8,157.0 L109.9,160.9 L111.1,164.7
		L112.2,168.5 L113.4,172.4 L114.5,176.2 L115.6,180.0 L116.8,183.7 L117.9,187.4 L119.1,191.1 L120.2,194.8
		L121.3,198.4 L122.5,201.9 L123.6,205.4 L124.8,208.9 L125.9,212.3 L127.1,215.7 L128.2,219.0 L129.3,222.3
		L130.5,225.5 L131.6,228.7 L132.8,231.8 L133.9,234.9 L135.0,238.0 L136.2,241.0 L137.3,243.9 L138.5,246.9
		L139.6,249.7 L140.8,252.6 L141.9,255.4 L143.0,258.1 L144.2,260.8 L145.3,263.5 L146.5,266.1 L147.6,268.7
		L148.7,271.3 L149.9,273.8 L151.0,276.3 L152.2,278.8 L153.3,281.2 L154.5,283.6 L155.6,285.9 L156.7,288.3
		L157.9,290.6 L159.0,292.8 L160.2,295.1 L161.3,297.3 L162.4,299.5 L163.6,301.6 L164.7,303.8 L165.9,305.9
		L167.0,307.9 L168.2,310.0 L169.3,312.0 L170.4,314.0 L171.6,316.0 L172.7,318.0 L173.9,319.9 L175.0,321.8
		L176.1,323.7 L177.3,325.6 L178.4,327.4 L179.6,329.3 L180.7,331.1 L181.9,332.8 L183.0,334.6 L184.1,336.4
		L185.3,338.1 L186.4,339.8 L187.6,341.5 L188.7,343.2 L189.8,344.9 L191.0,346.5 L192.1,348.1 L193.3,349.7
		L194.4,351.3 L195.6,352.9 L196.7,354.5 L197.8,356.0 L199.0,357.6 L200.1,359.1 L201.3,360.6 L202.4,362.1
		L203.5,363.6 L204.7,365.0 L205.8,366.5 L207.0,367.9 L208.1,369.4 L209.3,370.8 L210.4,372.2 L211.5,373.6
		L212.7,374.9 L213.8,376.3 L215.0,377.7 L216.1,379.0 L217.2,380.3 L218.4,381.6 L219.5,383.0 L220.7,384.3
		L221.8,385.5 L223.0,386.8 L224.1,388.1 L225.2,389.3 L226.4,390.6 L227.5,391.8 L228.7,393.0 L229.8,394.3
		L230.9,395.5 L232.1,396.7 L233.2,397.9 L234.4,399.0 L235.5,400.2 L236.7,401.4 L237.8,402.5 L238.9,403.7
		L240.1,404.8 L241.2,405.9 L242.4,407.1 L243.5,408.2 L244.6,409.3 L245.8,410.4 L246.9,411.5 L248.1,412.5
		L249.2,413.6 L250.4,414.7 L251.5,415.7 L252.6,416.8 L253.8,417.8 L254.9,418.9 L256.1,419.9 L257.2,420.9
		L258.3,421.9 L259.5,422.9 L260.6,424.0 L261.8,424.9 L262.9,425.9 L264.1,426.9 L265.2,427.9 L266.3,428.9
		L267.5,429.8 L268.6,430.8 L269.8,431.7 L270.9,432.7 L272.0,433.6 L273.2,434.6 L274.3,435.5 L275.5,436.4
		L276.6,437.3 L277.8,438.2 L278.9,439.2 L280.0,440.1 L281.2,440.9 L282.3,441.8 L283.5,442.7 L284.6,443.6
		L285.7,444.5 L286.9,445.3 L288.0,446.2 L289.2,447.1 L290.3,447.9 L291.5,448.8 L292.6,449.6 L293.7,450.5
		L294.9,451.3 L296.0,452.1 L297.2,452.9 L298.3,453.8 L299.4,454.6 L300.6,455.4 L301.7,456.2 L302.9,457.0
		L304.0,457.8 L305.2,458.6 L306.3,459.4 L307.4,460.2 L308.6,461.0 L309.7,461.7 L310.9,462.5 L312.0,463.3
		L313.1,464.0 L314.3,464.8 L315.4,465.6 L316.6,466.3 L317.7,467.1 L318.9,467.8 L320.0,468.5 L321.1,469.3
		L322.3,470.0 L323.4,470.7 L324.6,471.5 L325.7,472.2 L326.8,472.9 L328.0,473.6 L329.1,474.3 L330.3,475.0
		L331.4,475.8 L332.6,476.5 L333.7,477.2 L334.8,477.8 L336.0,478.5 L337.1,479.2 L338.3,479.9 L339.4,480.6
		L340.5,481.3 L341.7,481.9 L342.8,482.6 L344.0,483.3 L345.1,483.9 L346.3,484.6 L347.4,485.3 L348.5,485.9
		L349.7,486.6 L350.8,487.2 L352.0,487.9 L353.1,488.5 L354.2,489.2 L355.4,489.8 L356.5,490.4 L357.7,491.1
		L358.8,491.7 L360.0,492.3 L361.1,492.9 L362.2,493.6 L363.4,494.2 L364.5,494.8 L365.7,495.4 L366.8,496.0
		L367.9,496.6 L369.1,497.2 L370.2,497.8 L371.4,498.4 L372.5,499.0 L373.7,499.6 L374.8,500.2 L375.9,500.8
		L377.1,501.4 L378.2,502.0 L379.4,502.5 L380.5,503.1 L381.6,503.7 L382.8,504.3 L383.9,504.8 L385.1,505.4
		L386.2,506.0 L387.4,506.5 L388.5,507.1 L389.6,507.7 L390.8,508.2 L391.9,508.8 L393.1,509.3 L394.2,509.9
		L395.3,510.4 L396.5,511.0 L397.6,511.5 L398.8,512.1 L399.9,512.6 L401.1,513.1 L402.2,513.7 L403.3,514.2
		L404.5,514.7 L405.6,515.3 L406.8,515.8 L407.9,516.3 L409.0,516.8 L410.2,517.3 L411.3,517.9 L412.5,518.4
		L413.6,518.9 L414.8,519.4 L415.9,519.9 L417.0,520.4 L418.2,520.9 L419.3,521.4 L420.5,521.9 L421.6,522.4
		L422.7,522.9 L423.9,523.4 L425.0,523.9 L426.2,524.4 L427.3,524.9 L428.5,525.4 L429.6,525.9 L430.7,526.4
		L431.9,526.8 L433.0,527.3 L434.2,527.8 L435.3,528.3 L436.4,528.7 L437.6,529.2 L438.7,529.7 L439.9,530.2
		L441.0,530.6 L442.2,531.1 L443.3,531.6 L444.4,532.0 L445.6,532.5 L446.7,532.9 L447.9,533.4 L449.0,533.9
		L450.1,534.3 L451.3,534.8 L452.4,535.2 L453.6,535.7 L454.7,536.1 L455.9,536.6 L457.0,537.0 L458.1,537.4
		L459.3,537.9 L460.4,538.3 L461.6,538.8 L462.7,539.2 L463.8,539.6 L465.0,540.1 L466.1,540.5 L467.3,540.9
		L468.4,541.4 L469.6,541.8 L470.7,542.2 L471.8,542.6 L473.0,543.1 L474.1,543.5 L475.3,543.9 L476.4,544.3
		L477.5,544.7 L478.7,545.2 L479.8,545.6 L481.0,546.0 L482.1,546.4 L483.2,546.8 L484.4,547.2 L485.5,547.6
		L486.7,548.0 L487.8,548.4 L489.0,548.8 L490.1,549.2 L491.2,549.6 L492.4,550.0 L493.5,550.4 L494.7,550.8
		L495.8,551.2 L496.9,551.6 L498.1,552.0 L499.2,552.4 L500.4,552.8 L501.5,553.2 L502.7,553.5 L503.8,553.9
		L504.9,554.3 L506.1,554.7 L507.2,555.1 L508.4,555.5 L509.5,555.8 L510.6,556.2 L511.8,556.6 L512.9,557.0
		L514.1,557.3 L515.2,557.7 L516.4,558.1 L517.5,558.5 L518.6,558.8 L519.8,559.2 L520.9,559.6 L522.1,559.9
		L523.2,560.3 L524.3,560.6 L525.5,561.0 L526.6,561.4 L527.8,561.7 L528.9,562.1 L530.1,562.4 L531.2,562.8
		L532.3,563.1 L533.5,563.5 L534.6,563.9 L535.8,564.2 L536.9,564.6 L538.0,564.9 L539.2,565.2 L540.3,565.6
		L541.5,565.9 L542.6,566.3 L543.8,566.6 L544.9,567.0 L546.0,567.3 L547.2,567.6 L548.3,568.0 L549.5,568.3
		L550.6,568.7 L551.7,569.0 L552.9,569.3 L554.0,569.7 L555.2,570.0 L556.3,570.3 L557.5,570.7 L558.6,571.0
		L559.7,571.3 L560.9,571.6 L562.0,572.0 L563.2,572.3 L564.3,572.6 L565.4,572.9 L566.6,573.3 L567.7,573.6
		L568.9,573.9 L570.0,574.2 L571.2,574.5 L572.3,574.8 L573.4,575.2 L574.6,575.5 L575.7,575.8 L576.9,576.1
		L578.0,576.4 L579.1,576.7 L580.3,577.0 L581.4,577.3 L582.6,577.6 L583.7,578.0 L584.9,578.3 L586.0,578.6
		L587.1,578.9 L588.3,579.2 L589.4,579.5 L590.6,579.8 L591.7,580.1 L592.8,580.4 L594.0,580.7 L595.1,581.0
		L596.3,581.3 L597.4,581.6 L598.6,581.8 L599.7,582.1 L600.8,582.4 L602.0,582.7 L603.1,583.0 L604.3,583.3
		L605.4,583.6 L606.5,583.9 L607.7,584.2 L608.8,584.5 L610.0,584.7 L611.1,585.0 L612.3,585.3 L613.4,585.6
		L614.5,585.9 L615.7,586.2 L616.8,586.4 L618.0,586.7 L619.1,587.0 L620.2,587.3 L621.4,587.5 L622.5,587.8
		L623.7,588.1 L624.8,588.4 L626.0,588.6 L627.1,588.9 L628.2,589.2 L629.4,589.5 L630.5,589.7 L631.7,590.0
		L632.8,590.3 L633.9,590.5 L635.1,590.8 L636.2,591.1 L637.4,591.3 L638.5,591.6 L639.7,591.9 L640.8,592.1
		L641.9,592.4 L643.1,592.6 L644.2,592.9 L645.4,593.2 L646.5,593.4 L647.6,593.7 L648.8,593.9 L649.9,594.2
		L651.1,594.4 L652.2,594.7 L653.4,594.9 L654.5,595.2 L655.6,595.5 L656.8,595.7 L657.9,596.0 L659.1,596.2
		L660.2,596.5 L661.3,596.7 L662.5,597.0 L663.6,597.2 L664.8,597.4 L665.9,597.7 L667.1,597.9 L668.2,598.2
		L669.3,598.4 L670.5,598.7 L671.6,598.9 L672.8,599.1 L673.9,599.4 L675.0,599.6 L676.2,599.9 L677.3,600.1
		L678.5,600.3 L679.6,600.6 L680.8,600.8 L681.9,601.0 L683.0,601.3 L684.2,601.5 L685.3,601.7 L686.5,602.0
		L687.6,602.2 L688.7,602.4 L689.9,602.7 L691.0,602.9 L692.2,603.1 L693.3,603.4 L694.5,603.6 L695.6,603.8
		L696.7,604.0 L697.9,604.3 L699.0,604.5 L700.2,604.7 L701.3,604.9 L702.4,605.2 L703.6,605.4 L704.7,605.6
		L705.9,605.8 L707.0,606.0 L708.2,606.3 L709.3,606.5 L710.4,606.7 L711.6,606.9 L712.7,607.1 L713.9,607.3
		L715.0,607.6 L716.1,607.8 L717.3,608.0 L718.4,608.2 L719.6,608.4 L720.7,608.6 L721.9,608.8 L723.0,609.0
		L724.1,609.2 L725.3,609.5 L726.4,609.7 L727.6,609.9 L728.7,610.1 L729.8,610.3 L731.0,610.5 L732.1,610.7
		L733.3,610.9 L734.4,611.1 L735.6,611.3 L736.7,611.5 L737.8,611.7 L739.0,611.9 L740.1,612.1 L741.3,612.3
		L742.4,612.5 L743.5,612.7 L744.7,612.9 L745.8,613.1 L747.0,613.3 L748.1,613.5 L749.3,613.7 L750.4,613.9
		L751.5,614.1 L752.7,614.3 L753.8,614.5 L755.0,614.7 L756.1,614.9 L757.2,615.1 L758.4,615.2 L759.5,615.4
		L760.7,615.6 L761.8,615.8 L763.0,616.0 L764.1,616.2 L765.2,616.4 L766.4,616.6 L767.5,616.7 L768.7,616.9
		L769.8,617.1 L770.9,617.3 L772.1,617.5 L773.2,617.7 L774.4,617.9 L775.5,618.0 L776.7,618.2 L777.8,618.4
		L778.9,618.6 L780.1,618.8 L781.2,618.9 L782.4,619.1 L783.5,619.3 L784.6,619.5 L785.8,619.6 L786.9,619.8
		L788.1,620.0 L789.2,620.2 L790.4,620.3 L791.5,620.5 L792.6,620.7 L793.8,620.9 L794.9,621.0 L796.1,621.2
		L797.2,621.4 L798.3,621.6 L799.5,621.7 L800.6,621.9 L801.8,622.1 L802.9,622.2 L804.1,622.4 L805.2,622.6
		L806.3,622.7 L807.5,622.9 L808.6,623.1 L809.8,623.2 L810.9,623.4 L812.0,623.6 L813.2,623.7 L814.3,623.9
		L815.5,624.1 L816.6,624.2 L817.8,624.4 L818.9,624.5 L820.0,624.7 L821.2,624.9 L822.3,625.0 L823.5,625.2
		L824.6,625.3 L825.7,625.5 L826.9,625.6 L828.0,625.8 L829.2,626.0 L830.3,626.1 L831.5,626.3 L832.6,626.4
		L833.7,626.6 L834.9,626.7 L836.0,626.9 L837.2,627.0 L838.3,627.2 L839.4,627.3 L840.6,627.5 L841.7,627.6
		L842.9,627.8 L844.0,627.9 L845.2,628.1 L846.3,628.2 L847.4,628.4 L848.6,628.5 L849.7,628.7 L850.9,628.8
		L852.0,629.0 L853.1,629.1 L854.3,629.3 L855.4,629.4 L856.6,629.5 L857.7,629.7 L858.9,629.8 L860.0,630.0
		L861.1,630.1 L862.3,630.3 L863.4,630.4 L864.6,630.5 L865.7,630.7 L866.8,630.8 L868.0,631.0 L869.1,631.1
		L870.3,631.2 L871.4,631.4 L872.5,631.5 L873.7,631.6 L874.8,631.8 L876.0,631.9 L877.1,632.1 L878.3,632.2
		L879.4,632.3 L880.5,632.5 L881.7,632.6 L882.8,632.7 L884.0,632.9 L885.1,633.0 L886.2,633.1 L887.4,633.2
		L888.5,633.4 L889.7,633.5 L890.8,633.6 L892.0,633.8 L893.1,633.9 L894.2,634.0 L895.4,634.1 L896.5,634.3
		L897.7,634.4 L898.8,634.5 L899.9,634.6 L901.1,634.8 L902.2,634.9 L903.4,635.0 L904.5,635.1 L905.7,635.3
		L906.8,635.4 L907.9,635.5 L909.1,635.6 L910.2,635.8 L911.4,635.9 L912.5,636.0 L913.6,636.1 L914.8,636.2
		L915.9,636.4 L917.1,636.5 L918.2,636.6 L919.4,636.7 L920.5,636.8 L921.6,636.9 L922.8,637.1 L923.9,637.2
		L925.1,637.3 L926.2,637.4 L927.3,637.5 L928.5,637.6 L929.6,637.7 L930.8,637.9 L931.9,638.0 L933.1,638.1
		L934.2,638.2 L935.3,638.3 L936.5,638.4 L937.6,638.5 L938.8,638.6 L939.9,638.7 L941.0,638.9 L942.2,639.0
		L943.3,639.1 L944.5,639.2 L945.6,639.3 L946.8,639.4 L947.9,639.5 L949.0,639.6 L950.2,639.7 L951.3,639.8
		L952.5,639.9 L953.6,640.0 L954.7,640.1 L955.9,640.2 L957.0,640.3 L958.2,640.4 L959.3,640.5 L960.5,640.6
		L961.6,640.7 L962.7,640.8 L963.9,640.9 L965.0,641.0 L966.2,641.1 L967.3,641.2 L968.4,641.3 L969.6,641.4
		L970.7,641.5 L971.9,641.6 L973.0,641.7 L974.2,641.8 L975.3,641.9 L976.4,642.0 L977.6,642.1 L978.7,642.2
		L979.9,642.3 L981.0,642.4 L982.1,642.5 L983.3,642.6 L984.4,642.7 L985.6,642.8 L986.7,642.8 L987.9,642.9
		L989.0,643.0 L990.1,643.1 L991.3,643.2 L992.4,643.3 L993.6,643.4 L994.7,643.5 L995.8,643.6 L997.0,643.6
		L998.1,643.7 L999.3,643.8 L1000.4,643.9 L1001.6,644.0 L1002.7,644.1 L1003.8,644.2 L1005.0,644.2 L1006.1,644.3
		L1007.3,644.4 L1008.4,644.5 L1009.5,644.6 L1010.7,644.7 L1011.8,644.7 L1013.0,644.8 L1014.1,644.9 L1015.3,645.0
		L1016.4,645.1 L1017.5,645.2 L1018.7,645.2 L1019.8,645.3 L1021.0,645.4 L1022.1,645.5 L1023.2,645.5 L1024.4,645.6
		L1025.5,645.7 L1026.7,645.8 L1027.8,645.9 L1029.0,645.9 L1030.1,646.0 L1031.2,646.1 L1032.4,646.2 L1033.5,646.2
		L1034.7,646.3 L1035.8,646.4 L1036.9,646.5 L1038.1,646.5 L1039.2,646.6 L1040.4,646.7 L1041.5,646.7 L1042.7,646.8
		L1043.8,646.9 L1044.9,647.0 L1046.1,647.0 L1047.2,647.1 L1048.4,647.2 L1049.5,647.2 L1050.6,647.3 L1051.8,647.4
		L1052.9,647.4 L1054.1,647.5 L1055.2,647.6 L1056.4,647.6 L1057.5,647.7 L1058.6,647.8 L1059.8,647.8 L1060.9,647.9
		L1062.1,648.0 L1063.2,648.0 L1064.3,648.1 L1065.5,648.2 L1066.6,648.2 L1067.8,648.3 L1068.9,648.3 L1070.1,648.4
		L1071.2,648.5 L1072.3,648.5 L1073.5,648.6 L1074.6,648.6 L1075.8,648.7 L1076.9,648.8 L1078.0,648.8 L1079.2,648.9
		L1080.3,648.9 L1081.5,649.0 L1082.6,649.1 L1083.8,649.1 L1084.9,649.2 L1086.0,649.2 L1087.2,649.3 L1088.3,649.3
		L1089.5,649.4 L1090.6,649.4 L1091.7,649.5 L1092.9,649.6 L1094.0,649.6 L1095.2,649.7 L1096.3,649.7 L1097.5,649.8
		L1098.6,649.8 L1099.7,649.9 L1100.9,649.9 L1102.0,650.0 L1103.2,650.0 L1104.3,650.1 L1105.4,650.1 L1106.6,650.2
		L1107.7,650.2 L1108.9,650.3 L1110.0,650.3 L1111.2,650.4 L1112.3,650.4 L1113.4,650.5 L1114.6,650.5 L1115.7,650.5
		L1116.9,650.6 L1118.0,650.6 L1119.1,650.7 L1120.3,650.7 L1121.4,650.8 L1122.6,650.8 L1123.7,650.9 L1124.9,650.9
		L1126.0,650.9 L1127.1,651.0 L1128.3,651.0 L1129.4,651.1 L1130.6,651.1 L1131.7,651.1 L1132.8,651.2 L1134.0,651.2
		L1135.1,651.3 L1136.3,651.3 L1137.4,651.3 L1138.6,651.4 L1139.7,651.4 L1140.8,651.5 L1142.0,651.5 L1143.1,651.5
		L1144.3,651.6 L1145.4,651.6 L1146.5,651.6 L1147.7,651.7 L1148.8,651.7 L1150.0,651.7 L1151.1,651.8 L1152.3,651.8
		L1153.4,651.8 L1154.5,651.9 L1155.7,651.9 L1156.8,651.9 L1158.0,652.0 L1159.1,652.0 L1160.2,652.0 L1161.4,652.1
		L1162.5,652.1 L1163.7,652.1 L1164.8,652.2 L1166.0,652.2 L1167.1,652.2 L1168.2,652.2 L1169.4,652.3 L1170.5,652.3
		L1171.7,652.3 L1172.8,652.4 L1173.9,652.4 L1175.1,652.4 L1176.2,652.4 L1177.4,652.5 L1178.5,652.5 L1179.7,652.5
		L1180.8,652.5 L1181.9,652.6 L1183.1,652.6 L1184.2,652.6 L1185.4,652.6 L1186.5,652.7 L1187.6,652.7 L1188.8,652.7
		L1189.9,652.7 L1191.1,652.7 L1192.2,652.8 L1193.4,652.8 L1194.5,652.8 L1195.6,652.8 L1196.8,652.8 L1197.9,652.9
		L1199.1,652.9 L1200.2,652.9 L1201.3,652.9 L1202.5,652.9 L1203.6,652.9 L1204.8,653.0 L1205.9,653.0 L1207.1,653.0
		L1208.2,653.0 L1209.3,653.0 L1210.5,653.0 L1211.6,653.1 L1212.8,653.1 L1213.9,653.1 L1215.0,653.1 L1216.2,653.1
		L1217.3,653.1 L1218.5,653.1 L1219.6,653.1 L1220.8,653.2 L1221.9,653.2 L1223.0,653.2 L1224.2,653.2 L1225.3,653.2
		L1226.5,653.2 L1227.6,653.2 L1228.7,653.2 L1229.9,653.2 L1231.0,653.2 L1232.2,653.2 L1233.3,653.3 L1234.5,653.3
		L1235.6,653.3 L1236.7,653.3 L1237.9,653.3 L1239.0,653.3 L1240.2,653.3 L1241.3,653.3 L1242.4,653.3 L1243.6,653.3
		L1244.7,653.3 L1245.9,653.3 L1247.0,653.3 L1248.2,653.3 L1249.3,653.3 L1250.4,653.3 L1251.6,653.3 L1252.7,653.3
		L1253.9,653.3 L1255.0,653.3  '/></g>
	</g>
	<g id="gnuplot_plot_5" ><title>gnuplot_plot_5</title>
<g fill="none" color="black" stroke="currentColor" stroke-width="1.00" stroke-linecap="butt" stroke-linejoin="miter">
	<path stroke='rgb(  0, 100,   0)'  d='M87.1,111.2 L88.2,111.4 L89.4,112.0 L90.5,112.9 L91.7,114.2 L92.8,115.8 L93.9,117.7 L95.1,119.9
		L96.2,122.4 L97.4,125.1 L98.5,128.0 L99.7,131.2 L100.8,134.4 L101.9,137.8 L103.1,141.4 L104.2,145.0
		L105.4,148.7 L106.5,152.5 L107.6,156.3 L108.8,160.1 L109.9,163.9 L111.1,167.8 L112.2,171.6 L113.4,175.4
		L114.5,179.2 L115.6,183.0 L116.8,186.8 L117.9,190.5 L119.1,194.2 L120.2,197.8 L121.3,201.4 L122.5,205.0
		L123.6,208.5 L124.8,211.9 L125.9,215.4 L127.1,218.7 L128.2,222.0 L129.3,225.3 L130.5,228.6 L131.6,231.7
		L132.8,234.9 L133.9,238.0 L135.0,241.0 L136.2,244.0 L137.3,247.0 L138.5,249.9 L139.6,252.8 L140.8,255.6
		L141.9,258.4 L143.0,261.2 L144.2,263.9 L145.3,266.5 L146.5,269.2 L147.6,271.8 L148.7,274.3 L149.9,276.9
		L151.0,279.4 L152.2,281.8 L153.3,284.2 L154.5,286.6 L155.6,289.0 L156.7,291.3 L157.9,293.6 L159.0,295.9
		L160.2,298.1 L161.3,300.3 L162.4,302.5 L163.6,304.7 L164.7,306.8 L165.9,308.9 L167.0,311.0 L168.2,313.0
		L169.3,315.1 L170.4,317.1 L171.6,319.1 L172.7,321.0 L173.9,322.9 L175.0,324.9 L176.1,326.7 L177.3,328.6
		L178.4,330.5 L179.6,332.3 L180.7,334.1 L181.9,335.9 L183.0,337.7 L184.1,339.4 L185.3,341.1 L186.4,342.9
		L187.6,344.6 L188.7,346.2 L189.8,347.9 L191.0,349.5 L192.1,351.2 L193.3,352.8 L194.4,354.4 L195.6,356.0
		L196.7,357.5 L197.8,359.1 L199.0,360.6 L200.1,362.1 L201.3,363.6 L202.4,365.1 L203.5,366.6 L204.7,368.1
		L205.8,369.5 L207.0,371.0 L208.1,372.4 L209.3,373.8 L210.4,375.2 L211.5,376.6 L212.7,378.0 L213.8,379.3
		L215.0,380.7 L216.1,382.0 L217.2,383.4 L218.4,384.7 L219.5,386.0 L220.7,387.3 L221.8,388.6 L223.0,389.9
		L224.1,391.1 L225.2,392.4 L226.4,393.6 L227.5,394.9 L228.7,396.1 L229.8,397.3 L230.9,398.5 L232.1,399.7
		L233.2,400.9 L234.4,402.1 L235.5,403.3 L236.7,404.4 L237.8,405.6 L238.9,406.7 L240.1,407.9 L241.2,409.0
		L242.4,410.1 L243.5,411.2 L244.6,412.3 L245.8,413.4 L246.9,414.5 L248.1,415.6 L249.2,416.7 L250.4,417.7
		L251.5,418.8 L252.6,419.8 L253.8,420.9 L254.9,421.9 L256.1,422.9 L257.2,424.0 L258.3,425.0 L259.5,426.0
		L260.6,427.0 L261.8,428.0 L262.9,429.0 L264.1,430.0 L265.2,430.9 L266.3,431.9 L267.5,432.9 L268.6,433.8
		L269.8,434.8 L270.9,435.7 L272.0,436.7 L273.2,437.6 L274.3,438.5 L275.5,439.5 L276.6,440.4 L277.8,441.3
		L278.9,442.2 L280.0,443.1 L281.2,444.0 L282.3,444.9 L283.5,445.8 L284.6,446.6 L285.7,447.5 L286.9,448.4
		L288.0,449.3 L289.2,450.1 L290.3,451.0 L291.5,451.8 L292.6,452.7 L293.7,453.5 L294.9,454.3 L296.0,455.2
		L297.2,456.0 L298.3,456.8 L299.4,457.6 L300.6,458.4 L301.7,459.2 L302.9,460.0 L304.0,460.8 L305.2,461.6
		L306.3,462.4 L307.4,463.2 L308.6,464.0 L309.7,464.8 L310.9,465.5 L312.0,466.3 L313.1,467.1 L314.3,467.8
		L315.4,468.6 L316.6,469.4 L317.7,470.1 L318.9,470.8 L320.0,471.6 L321.1,472.3 L322.3,473.1 L323.4,473.8
		L324.6,474.5 L325.7,475.2 L326.8,476.0 L328.0,476.7 L329.1,477.4 L330.3,478.1 L331.4,478.8 L332.6,479.5
		L333.7,480.2 L334.8,480.9 L336.0,481.6 L337.1,482.3 L338.3,483.0 L339.4,483.6 L340.5,484.3 L341.7,485.0
		L342.8,485.7 L344.0,486.3 L345.1,487.0 L346.3,487.7 L347.4,488.3 L348.5,489.0 L349.7,489.6 L350.8,490.3
		L352.0,490.9 L353.1,491.6 L354.2,492.2 L355.4,492.8 L356.5,493.5 L357.7,494.1 L358.8,494.7 L360.0,495.4
		L361.1,496.0 L362.2,496.6 L363.4,497.2 L364.5,497.8 L365.7,498.4 L366.8,499.1 L367.9,499.7 L369.1,500.3
		L370.2,500.9 L371.4,501.5 L372.5,502.1 L373.7,502.7 L374.8,503.3 L375.9,503.8 L377.1,504.4 L378.2,505.0
		L379.4,505.6 L380.5,506.2 L381.6,506.7 L382.8,507.3 L383.9,507.9 L385.1,508.5 L386.2,509.0 L387.4,509.6
		L388.5,510.1 L389.6,510.7 L390.8,511.3 L391.9,511.8 L393.1,512.4 L394.2,512.9 L395.3,513.5 L396.5,514.0
		L397.6,514.6 L398.8,515.1 L399.9,515.6 L401.1,516.2 L402.2,516.7 L403.3,517.2 L404.5,517.8 L405.6,518.3
		L406.8,518.8 L407.9,519.3 L409.0,519.9 L410.2,520.4 L411.3,520.9 L412.5,521.4 L413.6,521.9 L414.8,522.4
		L415.9,523.0 L417.0,523.5 L418.2,524.0 L419.3,524.5 L420.5,525.0 L421.6,525.5 L422.7,526.0 L423.9,526.5
		L425.0,527.0 L426.2,527.5 L427.3,527.9 L428.5,528.4 L429.6,528.9 L430.7,529.4 L431.9,529.9 L433.0,530.4
		L434.2,530.8 L435.3,531.3 L436.4,531.8 L437.6,532.3 L438.7,532.7 L439.9,533.2 L441.0,533.7 L442.2,534.1
		L443.3,534.6 L444.4,535.1 L445.6,535.5 L446.7,536.0 L447.9,536.4 L449.0,536.9 L450.1,537.4 L451.3,537.8
		L452.4,538.3 L453.6,538.7 L454.7,539.2 L455.9,539.6 L457.0,540.0 L458.1,540.5 L459.3,540.9 L460.4,541.4
		L461.6,541.8 L462.7,542.2 L463.8,542.7 L465.0,543.1 L466.1,543.5 L467.3,544.0 L468.4,544.4 L469.6,544.8
		L470.7,545.3 L471.8,545.7 L473.0,546.1 L474.1,546.5 L475.3,546.9 L476.4,547.4 L477.5,547.8 L478.7,548.2
		L479.8,548.6 L481.0,549.0 L482.1,549.4 L483.2,549.8 L484.4,550.3 L485.5,550.7 L486.7,551.1 L487.8,551.5
		L489.0,551.9 L490.1,552.3 L491.2,552.7 L492.4,553.1 L493.5,553.5 L494.7,553.9 L495.8,554.3 L496.9,554.6
		L498.1,555.0 L499.2,555.4 L500.4,555.8 L501.5,556.2 L502.7,556.6 L503.8,557.0 L504.9,557.4 L506.1,557.7
		L507.2,558.1 L508.4,558.5 L509.5,558.9 L510.6,559.3 L511.8,559.6 L512.9,560.0 L514.1,560.4 L515.2,560.8
		L516.4,561.1 L517.5,561.5 L518.6,561.9 L519.8,562.2 L520.9,562.6 L522.1,563.0 L523.2,563.3 L524.3,563.7
		L525.5,564.0 L526.6,564.4 L527.8,564.8 L528.9,565.1 L530.1,565.5 L531.2,565.8 L532.3,566.2 L533.5,566.5
		L534.6,566.9 L535.8,567.2 L536.9,567.6 L538.0,567.9 L539.2,568.3 L540.3,568.6 L541.5,569.0 L542.6,569.3
		L543.8,569.7 L544.9,570.0 L546.0,570.4 L547.2,570.7 L548.3,571.0 L549.5,571.4 L550.6,571.7 L551.7,572.0
		L552.9,572.4 L554.0,572.7 L555.2,573.0 L556.3,573.4 L557.5,573.7 L558.6,574.0 L559.7,574.4 L560.9,574.7
		L562.0,575.0 L563.2,575.3 L564.3,575.7 L565.4,576.0 L566.6,576.3 L567.7,576.6 L568.9,576.9 L570.0,577.3
		L571.2,577.6 L572.3,577.9 L573.4,578.2 L574.6,578.5 L575.7,578.8 L576.9,579.1 L578.0,579.5 L579.1,579.8
		L580.3,580.1 L581.4,580.4 L582.6,580.7 L583.7,581.0 L584.9,581.3 L586.0,581.6 L587.1,581.9 L588.3,582.2
		L589.4,582.5 L590.6,582.8 L591.7,583.1 L592.8,583.4 L594.0,583.7 L595.1,584.0 L596.3,584.3 L597.4,584.6
		L598.6,584.9 L599.7,585.2 L600.8,585.5 L602.0,585.8 L603.1,586.1 L604.3,586.4 L605.4,586.6 L606.5,586.9
		L607.7,587.2 L608.8,587.5 L610.0,587.8 L611.1,588.1 L612.3,588.4 L613.4,588.6 L614.5,588.9 L615.7,589.2
		L616.8,589.5 L618.0,589.8 L619.1,590.0 L620.2,590.3 L621.4,590.6 L622.5,590.9 L623.7,591.1 L624.8,591.4
		L626.0,591.7 L627.1,592.0 L628.2,592.2 L629.4,592.5 L630.5,592.8 L631.7,593.0 L632.8,593.3 L633.9,593.6
		L635.1,593.8 L636.2,594.1 L637.4,594.4 L638.5,594.6 L639.7,594.9 L640.8,595.2 L641.9,595.4 L643.1,595.7
		L644.2,595.9 L645.4,596.2 L646.5,596.5 L647.6,596.7 L648.8,597.0 L649.9,597.2 L651.1,597.5 L652.2,597.7
		L653.4,598.0 L654.5,598.2 L655.6,598.5 L656.8,598.8 L657.9,599.0 L659.1,599.3 L660.2,599.5 L661.3,599.7
		L662.5,600.0 L663.6,600.2 L664.8,600.5 L665.9,600.7 L667.1,601.0 L668.2,601.2 L669.3,601.5 L670.5,601.7
		L671.6,601.9 L672.8,602.2 L673.9,602.4 L675.0,602.7 L676.2,602.9 L677.3,603.1 L678.5,603.4 L679.6,603.6
		L680.8,603.9 L681.9,604.1 L683.0,604.3 L684.2,604.6 L685.3,604.8 L686.5,605.0 L687.6,605.3 L688.7,605.5
		L689.9,605.7 L691.0,605.9 L692.2,606.2 L693.3,606.4 L694.5,606.6 L695.6,606.9 L696.7,607.1 L697.9,607.3
		L699.0,607.5 L700.2,607.8 L701.3,608.0 L702.4,608.2 L703.6,608.4 L704.7,608.6 L705.9,608.9 L707.0,609.1
		L708.2,609.3 L709.3,609.5 L710.4,609.7 L711.6,610.0 L712.7,610.2 L713.9,610.4 L715.0,610.6 L716.1,610.8
		L717.3,611.0 L718.4,611.2 L719.6,611.5 L720.7,611.7 L721.9,611.9 L723.0,612.1 L724.1,612.3 L725.3,612.5
		L726.4,612.7 L727.6,612.9 L728.7,613.1 L729.8,613.3 L731.0,613.5 L732.1,613.7 L733.3,613.9 L734.4,614.2
		L735.6,614.4 L736.7,614.6 L737.8,614.8 L739.0,615.0 L740.1,615.2 L741.3,615.4 L742.4,615.6 L743.5,615.8
		L744.7,616.0 L745.8,616.2 L747.0,616.4 L748.1,616.5 L749.3,616.7 L750.4,616.9 L751.5,617.1 L752.7,617.3
		L753.8,617.5 L755.0,617.7 L756.1,617.9 L757.2,618.1 L758.4,618.3 L759.5,618.5 L760.7,618.7 L761.8,618.9
		L763.0,619.0 L764.1,619.2 L765.2,619.4 L766.4,619.6 L767.5,619.8 L768.7,620.0 L769.8,620.2 L770.9,620.3
		L772.1,620.5 L773.2,620.7 L774.4,620.9 L775.5,621.1 L776.7,621.3 L777.8,621.4 L778.9,621.6 L780.1,621.8
		L781.2,622.0 L782.4,622.2 L783.5,622.3 L784.6,622.5 L785.8,622.7 L786.9,622.9 L788.1,623.0 L789.2,623.2
		L790.4,623.4 L791.5,623.6 L792.6,623.7 L793.8,623.9 L794.9,624.1 L796.1,624.3 L797.2,624.4 L798.3,624.6
		L799.5,624.8 L800.6,624.9 L801.8,625.1 L802.9,625.3 L804.1,625.4 L805.2,625.6 L806.3,625.8 L807.5,625.9
		L808.6,626.1 L809.8,626.3 L810.9,626.4 L812.0,626.6 L813.2,626.8 L814.3,626.9 L815.5,627.1 L816.6,627.3
		L817.8,627.4 L818.9,627.6 L820.0,627.7 L821.2,627.9 L822.3,628.1 L823.5,628.2 L824.6,628.4 L825.7,628.5
		L826.9,628.7 L828.0,628.8 L829.2,629.0 L830.3,629.2 L831.5,629.3 L832.6,629.5 L833.7,629.6 L834.9,629.8
		L836.0,629.9 L837.2,630.1 L838.3,630.2 L839.4,630.4 L840.6,630.5 L841.7,630.7 L842.9,630.8 L844.0,631.0
		L845.2,631.1 L846.3,631.3 L847.4,631.4 L848.6,631.6 L849.7,631.7 L850.9,631.9 L852.0,632.0 L853.1,632.2
		L854.3,632.3 L855.4,632.5 L856.6,632.6 L857.7,632.7 L858.9,632.9 L860.0,633.0 L861.1,633.2 L862.3,633.3
		L863.4,633.4 L864.6,633.6 L865.7,633.7 L866.8,633.9 L868.0,634.0 L869.1,634.1 L870.3,634.3 L871.4,634.4
		L872.5,634.6 L873.7,634.7 L874.8,634.8 L876.0,635.0 L877.1,635.1 L878.3,635.2 L879.4,635.4 L880.5,635.5
		L881.7,635.6 L882.8,635.8 L884.0,635.9 L885.1,636.0 L886.2,636.2 L887.4,636.3 L888.5,636.4 L889.7,636.5
		L890.8,636.7 L892.0,636.8 L893.1,636.9 L894.2,637.1 L895.4,637.2 L896.5,637.3 L897.7,637.4 L898.8,637.6
		L899.9,637.7 L901.1,637.8 L902.2,637.9 L903.4,638.1 L904.5,638.2 L905.7,638.3 L906.8,638.4 L907.9,638.6
		L909.1,638.7 L910.2,638.8 L911.4,638.9 L912.5,639.0 L913.6,639.2 L914.8,639.3 L915.9,639.4 L917.1,639.5
		L918.2,639.6 L919.4,639.8 L920.5,639.9 L921.6,640.0 L922.8,640.1 L923.9,640.2 L925.1,640.3 L926.2,640.4
		L927.3,640.6 L928.5,640.7 L929.6,640.8 L930.8,640.9 L931.9,641.0 L933.1,641.1 L934.2,641.2 L935.3,641.3
		L936.5,641.5 L937.6,641.6 L938.8,641.7 L939.9,641.8 L941.0,641.9 L942.2,642.0 L943.3,642.1 L944.5,642.2
		L945.6,642.3 L946.8,642.4 L947.9,642.5 L949.0,642.6 L950.2,642.8 L951.3,642.9 L952.5,643.0 L953.6,643.1
		L954.7,643.2 L955.9,643.3 L957.0,643.4 L958.2,643.5 L959.3,643.6 L960.5,643.7 L961.6,643.8 L962.7,643.9
		L963.9,644.0 L965.0,644.1 L966.2,644.2 L967.3,644.3 L968.4,644.4 L969.6,644.5 L970.7,644.6 L971.9,644.7
		L973.0,644.8 L974.2,644.9 L975.3,645.0 L976.4,645.1 L977.6,645.1 L978.7,645.2 L979.9,645.3 L981.0,645.4
		L982.1,645.5 L983.3,645.6 L984.4,645.7 L985.6,645.8 L986.7,645.9 L987.9,646.0 L989.0,646.1 L990.1,646.2
		L991.3,646.3 L992.4,646.3 L993.6,646.4 L994.7,646.5 L995.8,646.6 L997.0,646.7 L998.1,646.8 L999.3,646.9
		L1000.4,647.0 L1001.6,647.0 L1002.7,647.1 L1003.8,647.2 L1005.0,647.3 L1006.1,647.4 L1007.3,647.5 L1008.4,647.5
		L1009.5,647.6 L1010.7,647.7 L1011.8,647.8 L1013.0,647.9 L1014.1,648.0 L1015.3,648.0 L1016.4,648.1 L1017.5,648.2
		L1018.7,648.3 L1019.8,648.4 L1021.0,648.4 L1022.1,648.5 L1023.2,648.6 L1024.4,648.7 L1025.5,648.7 L1026.7,648.8
		L1027.8,648.9 L1029.0,649.0 L1030.1,649.1 L1031.2,649.1 L1032.4,649.2 L1033.5,649.3 L1034.7,649.4 L1035.8,649.4
		L1036.9,649.5 L1038.1,649.6 L1039.2,649.6 L1040.4,649.7 L1041.5,649.8 L1042.7,649.9 L1043.8,649.9 L1044.9,650.0
		L1046.1,650.1 L1047.2,650.1 L1048.4,650.2 L1049.5,650.3 L1050.6,650.3 L1051.8,650.4 L1052.9,650.5 L1054.1,650.5
		L1055.2,650.6 L1056.4,650.7 L1057.5,650.7 L1058.6,650.8 L1059.8,650.9 L1060.9,650.9 L1062.1,651.0 L1063.2,651.1
		L1064.3,651.1 L1065.5,651.2 L1066.6,651.3 L1067.8,651.3 L1068.9,651.4 L1070.1,651.4 L1071.2,651.5 L1072.3,651.6
		L1073.5,651.6 L1074.6,651.7 L1075.8,651.7 L1076.9,651.8 L1078.0,651.9 L1079.2,651.9 L1080.3,652.0 L1081.5,652.0
		L1082.6,652.1 L1083.8,652.2 L1084.9,652.2 L1086.0,652.3 L1087.2,652.3 L1088.3,652.4 L1089.5,652.4 L1090.6,652.5
		L1091.7,652.5 L1092.9,652.6 L1094.0,652.6 L1095.2,652.7 L1096.3,652.8 L1097.5,652.8 L1098.6,652.9 L1099.7,652.9
		L1100.9,653.0 L1102.0,653.0 L1103.2,653.1 L1104.3,653.1 L1105.4,653.2 L1106.6,653.2 L1107.7,653.3 L1108.9,653.3
		L1110.0,653.4 L1111.2,653.4 L1112.3,653.5 L1113.4,653.5 L1114.6,653.5 L1115.7,653.6 L1116.9,653.6 L1118.0,653.7
		L1119.1,653.7 L1120.3,653.8 L1121.4,653.8 L1122.6,653.9 L1123.7,653.9 L1124.9,653.9 L1126.0,654.0 L1127.1,654.0
		L1128.3,654.1 L1129.4,654.1 L1130.6,654.2 L1131.7,654.2 L1132.8,654.2 L1134.0,654.3 L1135.1,654.3 L1136.3,654.4
		L1137.4,654.4 L1138.6,654.4 L1139.7,654.5 L1140.8,654.5 L1142.0,654.5 L1143.1,654.6 L1144.3,654.6 L1145.4,654.7
		L1146.5,654.7 L1147.7,654.7 L1148.8,654.8 L1150.0,654.8 L1151.1,654.8 L1152.3,654.9 L1153.4,654.9 L1154.5,654.9
		L1155.7,655.0 L1156.8,655.0 L1158.0,655.0 L1159.1,655.1 L1160.2,655.1 L1161.4,655.1 L1162.5,655.1 L1163.7,655.2
		L1164.8,655.2 L1166.0,655.2 L1167.1,655.3 L1168.2,655.3 L1169.4,655.3 L1170.5,655.4 L1171.7,655.4 L1172.8,655.4
		L1173.9,655.4 L1175.1,655.5 L1176.2,655.5 L1177.4,655.5 L1178.5,655.5 L1179.7,655.6 L1180.8,655.6 L1181.9,655.6
		L1183.1,655.6 L1184.2,655.7 L1185.4,655.7 L1186.5,655.7 L1187.6,655.7 L1188.8,655.7 L1189.9,655.8 L1191.1,655.8
		L1192.2,655.8 L1193.4,655.8 L1194.5,655.8 L1195.6,655.9 L1196.8,655.9 L1197.9,655.9 L1199.1,655.9 L1200.2,655.9
		L1201.3,656.0 L1202.5,656.0 L1203.6,656.0 L1204.8,656.0 L1205.9,656.0 L1207.1,656.0 L1208.2,656.1 L1209.3,656.1
		L1210.5,656.1 L1211.6,656.1 L1212.8,656.1 L1213.9,656.1 L1215.0,656.1 L1216.2,656.2 L1217.3,656.2 L1218.5,656.2
		L1219.6,656.2 L1220.8,656.2 L1221.9,656.2 L1223.0,656.2 L1224.2,656.2 L1225.3,656.2 L1226.5,656.3 L1227.6,656.3
		L1228.7,656.3 L1229.9,656.3 L1231.0,656.3 L1232.2,656.3 L1233.3,656.3 L1234.5,656.3 L1235.6,656.3 L1236.7,656.3
		L1237.9,656.3 L1239.0,656.3 L1240.2,656.3 L1241.3,656.3 L1242.4,656.3 L1243.6,656.4 L1244.7,656.4 L1245.9,656.4
		L1247.0,656.4 L1248.2,656.4 L1249.3,656.4 L1250.4,656.4 L1251.6,656.4 L1252.7,656.4 L1253.9,656.4 L1255.0,656.4
		 '/></g>
	</g>
	<g id="gnuplot_plot_6" ><title>gnuplot_plot_6</title>
<g fill="none" color="black" stroke="currentColor" stroke-width="1.00" stroke-linecap="butt" stroke-linejoin="miter">
	<path stroke='rgb(  0,   0, 255)'  d='M87.1,113.2 L88.2,113.4 L89.4,114.0 L90.5,114.9 L91.7,116.2 L92.8,117.8 L93.9,119.7 L95.1,121.9
		L96.2,124.4 L97.4,127.1 L98.5,130.0 L99.7,133.2 L100.8,136.4 L101.9,139.8 L103.1,143.4 L104.2,147.0
		L105.4,150.7 L106.5,154.5 L107.6,158.2 L108.8,162.1 L109.9,165.9 L111.1,169.8 L112.2,173.6 L113.4,177.4
		L114.5,181.2 L115.6,185.0 L116.8,188.8 L117.9,192.5 L119.1,196.2 L120.2,199.8 L121.3,203.4 L122.5,207.0
		L123.6,210.5 L124.8,213.9 L125.9,217.4 L127.1,220.7 L128.2,224.0 L129.3,227.3 L130.5,230.6 L131.6,233.7
		L132.8,236.9 L133.9,240.0 L135.0,243.0 L136.2,246.0 L137.3,249.0 L138.5,251.9 L139.6,254.8 L140.8,257.6
		L141.9,260.4 L143.0,263.2 L144.2,265.9 L145.3,268.5 L146.5,271.2 L147.6,273.8 L148.7,276.3 L149.9,278.9
		L151.0,281.4 L152.2,283.8 L153.3,286.2 L154.5,288.6 L155.6,291.0 L156.7,293.3 L157.9,295.6 L159.0,297.9
		L160.2,300.1 L161.3,302.3 L162.4,304.5 L163.6,306.7 L164.7,308.8 L165.9,310.9 L167.0,313.0 L168.2,315.0
		L169.3,317.1 L170.4,319.1 L171.6,321.1 L172.7,323.0 L173.9,324.9 L175.0,326.9 L176.1,328.7 L177.3,330.6
		L178.4,332.5 L179.6,334.3 L180.7,336.1 L181.9,337.9 L183.0,339.7 L184.1,341.4 L185.3,343.1 L186.4,344.9
		L187.6,346.6 L188.7,348.2 L189.8,349.9 L191.0,351.5 L192.1,353.2 L193.3,354.8 L194.4,356.4 L195.6,358.0
		L196.7,359.5 L197.8,361.1 L199.0,362.6 L200.1,364.1 L201.3,365.6 L202.4,367.1 L203.5,368.6 L204.7,370.1
		L205.8,371.5 L207.0,373.0 L208.1,374.4 L209.3,375.8 L210.4,377.2 L211.5,378.6 L212.7,380.0 L213.8,381.3
		L215.0,382.7 L216.1,384.0 L217.2,385.4 L218.4,386.7 L219.5,388.0 L220.7,389.3 L221.8,390.6 L223.0,391.9
		L224.1,393.1 L225.2,394.4 L226.4,395.6 L227.5,396.9 L228.7,398.1 L229.8,399.3 L230.9,400.5 L232.1,401.7
		L233.2,402.9 L234.4,404.1 L235.5,405.3 L236.7,406.4 L237.8,407.6 L238.9,408.7 L240.1,409.9 L241.2,411.0
		L242.4,412.1 L243.5,413.2 L244.6,414.3 L245.8,415.4 L246.9,416.5 L248.1,417.6 L249.2,418.7 L250.4,419.7
		L251.5,420.8 L252.6,421.8 L253.8,422.9 L254.9,423.9 L256.1,424.9 L257.2,426.0 L258.3,427.0 L259.5,428.0
		L260.6,429.0 L261.8,430.0 L262.9,431.0 L264.1,432.0 L265.2,432.9 L266.3,433.9 L267.5,434.9 L268.6,435.8
		L269.8,436.8 L270.9,437.7 L272.0,438.7 L273.2,439.6 L274.3,440.5 L275.5,441.5 L276.6,442.4 L277.8,443.3
		L278.9,444.2 L280.0,445.1 L281.2,446.0 L282.3,446.9 L283.5,447.8 L284.6,448.6 L285.7,449.5 L286.9,450.4
		L288.0,451.3 L289.2,452.1 L290.3,453.0 L291.5,453.8 L292.6,454.7 L293.7,455.5 L294.9,456.3 L296.0,457.2
		L297.2,458.0 L298.3,458.8 L299.4,459.6 L300.6,460.4 L301.7,461.2 L302.9,462.0 L304.0,462.8 L305.2,463.6
		L306.3,464.4 L307.4,465.2 L308.6,466.0 L309.7,466.8 L310.9,467.5 L312.0,468.3 L313.1,469.1 L314.3,469.8
		L315.4,470.6 L316.6,471.4 L317.7,472.1 L318.9,472.8 L320.0,473.6 L321.1,474.3 L322.3,475.1 L323.4,475.8
		L324.6,476.5 L325.7,477.2 L326.8,478.0 L328.0,478.7 L329.1,479.4 L330.3,480.1 L331.4,480.8 L332.6,481.5
		L333.7,482.2 L334.8,482.9 L336.0,483.6 L337.1,484.3 L338.3,485.0 L339.4,485.6 L340.5,486.3 L341.7,487.0
		L342.8,487.7 L344.0,488.3 L345.1,489.0 L346.3,489.7 L347.4,490.3 L348.5,491.0 L349.7,491.6 L350.8,492.3
		L352.0,492.9 L353.1,493.6 L354.2,494.2 L355.4,494.8 L356.5,495.5 L357.7,496.1 L358.8,496.7 L360.0,497.4
		L361.1,498.0 L362.2,498.6 L363.4,499.2 L364.5,499.8 L365.7,500.4 L366.8,501.1 L367.9,501.7 L369.1,502.3
		L370.2,502.9 L371.4,503.5 L372.5,504.1 L373.7,504.7 L374.8,505.2 L375.9,505.8 L377.1,506.4 L378.2,507.0
		L379.4,507.6 L380.5,508.2 L381.6,508.7 L382.8,509.3 L383.9,509.9 L385.1,510.5 L386.2,511.0 L387.4,511.6
		L388.5,512.1 L389.6,512.7 L390.8,513.3 L391.9,513.8 L393.1,514.4 L394.2,514.9 L395.3,515.5 L396.5,516.0
		L397.6,516.6 L398.8,517.1 L399.9,517.6 L401.1,518.2 L402.2,518.7 L403.3,519.2 L404.5,519.8 L405.6,520.3
		L406.8,520.8 L407.9,521.3 L409.0,521.9 L410.2,522.4 L411.3,522.9 L412.5,523.4 L413.6,523.9 L414.8,524.4
		L415.9,525.0 L417.0,525.5 L418.2,526.0 L419.3,526.5 L420.5,527.0 L421.6,527.5 L422.7,528.0 L423.9,528.5
		L425.0,529.0 L426.2,529.4 L427.3,529.9 L428.5,530.4 L429.6,530.9 L430.7,531.4 L431.9,531.9 L433.0,532.4
		L434.2,532.8 L435.3,533.3 L436.4,533.8 L437.6,534.3 L438.7,534.7 L439.9,535.2 L441.0,535.7 L442.2,536.1
		L443.3,536.6 L444.4,537.1 L445.6,537.5 L446.7,538.0 L447.9,538.4 L449.0,538.9 L450.1,539.4 L451.3,539.8
		L452.4,540.3 L453.6,540.7 L454.7,541.2 L455.9,541.6 L457.0,542.0 L458.1,542.5 L459.3,542.9 L460.4,543.4
		L461.6,543.8 L462.7,544.2 L463.8,544.7 L465.0,545.1 L466.1,545.5 L467.3,546.0 L468.4,546.4 L469.6,546.8
		L470.7,547.3 L471.8,547.7 L473.0,548.1 L474.1,548.5 L475.3,548.9 L476.4,549.4 L477.5,549.8 L478.7,550.2
		L479.8,550.6 L481.0,551.0 L482.1,551.4 L483.2,551.8 L484.4,552.3 L485.5,552.7 L486.7,553.1 L487.8,553.5
		L489.0,553.9 L490.1,554.3 L491.2,554.7 L492.4,555.1 L493.5,555.5 L494.7,555.9 L495.8,556.3 L496.9,556.6
		L498.1,557.0 L499.2,557.4 L500.4,557.8 L501.5,558.2 L502.7,558.6 L503.8,559.0 L504.9,559.4 L506.1,559.7
		L507.2,560.1 L508.4,560.5 L509.5,560.9 L510.6,561.3 L511.8,561.6 L512.9,562.0 L514.1,562.4 L515.2,562.8
		L516.4,563.1 L517.5,563.5 L518.6,563.9 L519.8,564.2 L520.9,564.6 L522.1,565.0 L523.2,565.3 L524.3,565.7
		L525.5,566.0 L526.6,566.4 L527.8,566.8 L528.9,567.1 L530.1,567.5 L531.2,567.8 L532.3,568.2 L533.5,568.5
		L534.6,568.9 L535.8,569.2 L536.9,569.6 L538.0,569.9 L539.2,570.3 L540.3,570.6 L541.5,571.0 L542.6,571.3
		L543.8,571.7 L544.9,572.0 L546.0,572.4 L547.2,572.7 L548.3,573.0 L549.5,573.4 L550.6,573.7 L551.7,574.0
		L552.9,574.4 L554.0,574.7 L555.2,575.0 L556.3,575.4 L557.5,575.7 L558.6,576.0 L559.7,576.4 L560.9,576.7
		L562.0,577.0 L563.2,577.3 L564.3,577.7 L565.4,578.0 L566.6,578.3 L567.7,578.6 L568.9,578.9 L570.0,579.3
		L571.2,579.6 L572.3,579.9 L573.4,580.2 L574.6,580.5 L575.7,580.8 L576.9,581.1 L578.0,581.5 L579.1,581.8
		L580.3,582.1 L581.4,582.4 L582.6,582.7 L583.7,583.0 L584.9,583.3 L586.0,583.6 L587.1,583.9 L588.3,584.2
		L589.4,584.5 L590.6,584.8 L591.7,585.1 L592.8,585.4 L594.0,585.7 L595.1,586.0 L596.3,586.3 L597.4,586.6
		L598.6,586.9 L599.7,587.2 L600.8,587.5 L602.0,587.8 L603.1,588.1 L604.3,588.3 L605.4,588.6 L606.5,588.9
		L607.7,589.2 L608.8,589.5 L610.0,589.8 L611.1,590.1 L612.3,590.4 L613.4,590.6 L614.5,590.9 L615.7,591.2
		L616.8,591.5 L618.0,591.8 L619.1,592.0 L620.2,592.3 L621.4,592.6 L622.5,592.9 L623.7,593.1 L624.8,593.4
		L626.0,593.7 L627.1,594.0 L628.2,594.2 L629.4,594.5 L630.5,594.8 L631.7,595.0 L632.8,595.3 L633.9,595.6
		L635.1,595.8 L636.2,596.1 L637.4,596.4 L638.5,596.6 L639.7,596.9 L640.8,597.2 L641.9,597.4 L643.1,597.7
		L644.2,597.9 L645.4,598.2 L646.5,598.5 L647.6,598.7 L648.8,599.0 L649.9,599.2 L651.1,599.5 L652.2,599.7
		L653.4,600.0 L654.5,600.2 L655.6,600.5 L656.8,600.8 L657.9,601.0 L659.1,601.3 L660.2,601.5 L661.3,601.7
		L662.5,602.0 L663.6,602.2 L664.8,602.5 L665.9,602.7 L667.1,603.0 L668.2,603.2 L669.3,603.5 L670.5,603.7
		L671.6,603.9 L672.8,604.2 L673.9,604.4 L675.0,604.7 L676.2,604.9 L677.3,605.1 L678.5,605.4 L679.6,605.6
		L680.8,605.9 L681.9,606.1 L683.0,606.3 L684.2,606.6 L685.3,606.8 L686.5,607.0 L687.6,607.3 L688.7,607.5
		L689.9,607.7 L691.0,607.9 L692.2,608.2 L693.3,608.4 L694.5,608.6 L695.6,608.9 L696.7,609.1 L697.9,609.3
		L699.0,609.5 L700.2,609.8 L701.3,610.0 L702.4,610.2 L703.6,610.4 L704.7,610.6 L705.9,610.9 L707.0,611.1
		L708.2,611.3 L709.3,611.5 L710.4,611.7 L711.6,612.0 L712.7,612.2 L713.9,612.4 L715.0,612.6 L716.1,612.8
		L717.3,613.0 L718.4,613.2 L719.6,613.5 L720.7,613.7 L721.9,613.9 L723.0,614.1 L724.1,614.3 L725.3,614.5
		L726.4,614.7 L727.6,614.9 L728.7,615.1 L729.8,615.3 L731.0,615.5 L732.1,615.7 L733.3,615.9 L734.4,616.2
		L735.6,616.4 L736.7,616.6 L737.8,616.8 L739.0,617.0 L740.1,617.2 L741.3,617.4 L742.4,617.6 L743.5,617.8
		L744.7,618.0 L745.8,618.2 L747.0,618.4 L748.1,618.5 L749.3,618.7 L750.4,618.9 L751.5,619.1 L752.7,619.3
		L753.8,619.5 L755.0,619.7 L756.1,619.9 L757.2,620.1 L758.4,620.3 L759.5,620.5 L760.7,620.7 L761.8,620.9
		L763.0,621.0 L764.1,621.2 L765.2,621.4 L766.4,621.6 L767.5,621.8 L768.7,622.0 L769.8,622.2 L770.9,622.3
		L772.1,622.5 L773.2,622.7 L774.4,622.9 L775.5,623.1 L776.7,623.3 L777.8,623.4 L778.9,623.6 L780.1,623.8
		L781.2,624.0 L782.4,624.2 L783.5,624.3 L784.6,624.5 L785.8,624.7 L786.9,624.9 L788.1,625.0 L789.2,625.2
		L790.4,625.4 L791.5,625.6 L792.6,625.7 L793.8,625.9 L794.9,626.1 L796.1,626.3 L797.2,626.4 L798.3,626.6
		L799.5,626.8 L800.6,626.9 L801.8,627.1 L802.9,627.3 L804.1,627.4 L805.2,627.6 L806.3,627.8 L807.5,627.9
		L808.6,628.1 L809.8,628.3 L810.9,628.4 L812.0,628.6 L813.2,628.8 L814.3,628.9 L815.5,629.1 L816.6,629.3
		L817.8,629.4 L818.9,629.6 L820.0,629.7 L821.2,629.9 L822.3,630.1 L823.5,630.2 L824.6,630.4 L825.7,630.5
		L826.9,630.7 L828.0,630.8 L829.2,631.0 L830.3,631.2 L831.5,631.3 L832.6,631.5 L833.7,631.6 L834.9,631.8
		L836.0,631.9 L837.2,632.1 L838.3,632.2 L839.4,632.4 L840.6,632.5 L841.7,632.7 L842.9,632.8 L844.0,633.0
		L845.2,633.1 L846.3,633.3 L847.4,633.4 L848.6,633.6 L849.7,633.7 L850.9,633.9 L852.0,634.0 L853.1,634.2
		L854.3,634.3 L855.4,634.4 L856.6,634.6 L857.7,634.7 L858.9,634.9 L860.0,635.0 L861.1,635.2 L862.3,635.3
		L863.4,635.4 L864.6,635.6 L865.7,635.7 L866.8,635.9 L868.0,636.0 L869.1,636.1 L870.3,636.3 L871.4,636.4
		L872.5,636.6 L873.7,636.7 L874.8,636.8 L876.0,637.0 L877.1,637.1 L878.3,637.2 L879.4,637.4 L880.5,637.5
		L881.7,637.6 L882.8,637.8 L884.0,637.9 L885.1,638.0 L886.2,638.2 L887.4,638.3 L888.5,638.4 L889.7,638.5
		L890.8,638.7 L892.0,638.8 L893.1,638.9 L894.2,639.1 L895.4,639.2 L896.5,639.3 L897.7,639.4 L898.8,639.6
		L899.9,639.7 L901.1,639.8 L902.2,639.9 L903.4,640.1 L904.5,640.2 L905.7,640.3 L906.8,640.4 L907.9,640.6
		L909.1,640.7 L910.2,640.8 L911.4,640.9 L912.5,641.0 L913.6,641.2 L914.8,641.3 L915.9,641.4 L917.1,641.5
		L918.2,641.6 L919.4,641.8 L920.5,641.9 L921.6,642.0 L922.8,642.1 L923.9,642.2 L925.1,642.3 L926.2,642.4
		L927.3,642.6 L928.5,642.7 L929.6,642.8 L930.8,642.9 L931.9,643.0 L933.1,643.1 L934.2,643.2 L935.3,643.3
		L936.5,643.5 L937.6,643.6 L938.8,643.7 L939.9,643.8 L941.0,643.9 L942.2,644.0 L943.3,644.1 L944.5,644.2
		L945.6,644.3 L946.8,644.4 L947.9,644.5 L949.0,644.6 L950.2,644.8 L951.3,644.9 L952.5,645.0 L953.6,645.1
		L954.7,645.2 L955.9,645.3 L957.0,645.4 L958.2,645.5 L959.3,645.6 L960.5,645.7 L961.6,645.8 L962.7,645.9
		L963.9,646.0 L965.0,646.1 L966.2,646.2 L967.3,646.3 L968.4,646.4 L969.6,646.5 L970.7,646.6 L971.9,646.7
		L973.0,646.8 L974.2,646.9 L975.3,647.0 L976.4,647.1 L977.6,647.1 L978.7,647.2 L979.9,647.3 L981.0,647.4
		L982.1,647.5 L983.3,647.6 L984.4,647.7 L985.6,647.8 L986.7,647.9 L987.9,648.0 L989.0,648.1 L990.1,648.2
		L991.3,648.3 L992.4,648.3 L993.6,648.4 L994.7,648.5 L995.8,648.6 L997.0,648.7 L998.1,648.8 L999.3,648.9
		L1000.4,649.0 L1001.6,649.0 L1002.7,649.1 L1003.8,649.2 L1005.0,649.3 L1006.1,649.4 L1007.3,649.5 L1008.4,649.5
		L1009.5,649.6 L1010.7,649.7 L1011.8,649.8 L1013.0,649.9 L1014.1,650.0 L1015.3,650.0 L1016.4,650.1 L1017.5,650.2
		L1018.7,650.3 L1019.8,650.4 L1021.0,650.4 L1022.1,650.5 L1023.2,650.6 L1024.4,650.7 L1025.5,650.7 L1026.7,650.8
		L1027.8,650.9 L1029.0,651.0 L1030.1,651.1 L1031.2,651.1 L1032.4,651.2 L1033.5,651.3 L1034.7,651.4 L1035.8,651.4
		L1036.9,651.5 L1038.1,651.6 L1039.2,651.6 L1040.4,651.7 L1041.5,651.8 L1042.7,651.9 L1043.8,651.9 L1044.9,652.0
		L1046.1,652.1 L1047.2,652.1 L1048.4,652.2 L1049.5,652.3 L1050.6,652.3 L1051.8,652.4 L1052.9,652.5 L1054.1,652.5
		L1055.2,652.6 L1056.4,652.7 L1057.5,652.7 L1058.6,652.8 L1059.8,652.9 L1060.9,652.9 L1062.1,653.0 L1063.2,653.1
		L1064.3,653.1 L1065.5,653.2 L1066.6,653.3 L1067.8,653.3 L1068.9,653.4 L1070.1,653.4 L1071.2,653.5 L1072.3,653.6
		L1073.5,653.6 L1074.6,653.7 L1075.8,653.7 L1076.9,653.8 L1078.0,653.9 L1079.2,653.9 L1080.3,654.0 L1081.5,654.0
		L1082.6,654.1 L1083.8,654.2 L1084.9,654.2 L1086.0,654.3 L1087.2,654.3 L1088.3,654.4 L1089.5,654.4 L1090.6,654.5
		L1091.7,654.5 L1092.9,654.6 L1094.0,654.6 L1095.2,654.7 L1096.3,654.8 L1097.5,654.8 L1098.6,654.9 L1099.7,654.9
		L1100.9,655.0 L1102.0,655.0 L1103.2,655.1 L1104.3,655.1 L1105.4,655.2 L1106.6,655.2 L1107.7,655.3 L1108.9,655.3
		L1110.0,655.4 L1111.2,655.4 L1112.3,655.5 L1113.4,655.5 L1114.6,655.5 L1115.7,655.6 L1116.9,655.6 L1118.0,655.7
		L1119.1,655.7 L1120.3,655.8 L1121.4,655.8 L1122.6,655.9 L1123.7,655.9 L1124.9,655.9 L1126.0,656.0 L1127.1,656.0
		L1128.3,656.1 L1129.4,656.1 L1130.6,656.2 L1131.7,656.2 L1132.8,656.2 L1134.0,656.3 L1135.1,656.3 L1136.3,656.4
		L1137.4,656.4 L1138.6,656.4 L1139.7,656.5 L1140.8,656.5 L1142.0,656.5 L1143.1,656.6 L1144.3,656.6 L1145.4,656.7
		L1146.5,656.7 L1147.7,656.7 L1148.8,656.8 L1150.0,656.8 L1151.1,656.8 L1152.3,656.9 L1153.4,656.9 L1154.5,656.9
		L1155.7,657.0 L1156.8,657.0 L1158.0,657.0 L1159.1,657.1 L1160.2,657.1 L1161.4,657.1 L1162.5,657.1 L1163.7,657.2
		L1164.8,657.2 L1166.0,657.2 L1167.1,657.3 L1168.2,657.3 L1169.4,657.3 L1170.5,657.3 L1171.7,657.4 L1172.8,657.4
		L1173.9,657.4 L1175.1,657.5 L1176.2,657.5 L1177.4,657.5 L1178.5,657.5 L1179.7,657.6 L1180.8,657.6 L1181.9,657.6
		L1183.1,657.6 L1184.2,657.7 L1185.4,657.7 L1186.5,657.7 L1187.6,657.7 L1188.8,657.7 L1189.9,657.8 L1191.1,657.8
		L1192.2,657.8 L1193.4,657.8 L1194.5,657.8 L1195.6,657.9 L1196.8,657.9 L1197.9,657.9 L1199.1,657.9 L1200.2,657.9
		L1201.3,658.0 L1202.5,658.0 L1203.6,658.0 L1204.8,658.0 L1205.9,658.0 L1207.1,658.0 L1208.2,658.1 L1209.3,658.1
		L1210.5,658.1 L1211.6,658.1 L1212.8,658.1 L1213.9,658.1 L1215.0,658.1 L1216.2,658.2 L1217.3,658.2 L1218.5,658.2
		L1219.6,658.2 L1220.8,658.2 L1221.9,658.2 L1223.0,658.2 L1224.2,658.2 L1225.3,658.2 L1226.5,658.3 L1227.6,658.3
		L1228.7,658.3 L1229.9,658.3 L1231.0,658.3 L1232.2,658.3 L1233.3,658.3 L1234.5,658.3 L1235.6,658.3 L1236.7,658.3
		L1237.9,658.3 L1239.0,658.3 L1240.2,658.3 L1241.3,658.3 L1242.4,658.3 L1243.6,658.3 L1244.7,658.4 L1245.9,658.4
		L1247.0,658.4 L1248.2,658.4 L1249.3,658.4 L1250.4,658.4 L1251.6,658.4 L1252.7,658.4 L1253.9,658.4 L1255.0,658.4
		 '/></g>
	</g>
<g fill="none" color="white" stroke="rgb(  0,   0, 255)" stroke-width="2.00" stroke-linecap="butt" stroke-linejoin="miter">
</g>
<g fill="none" color="black" stroke="currentColor" stroke-width="2.00" stroke-linecap="butt" stroke-linejoin="miter">
</g>
<g fill="none" color="black" stroke="black" stroke-width="1.00" stroke-linecap="butt" stroke-linejoin="miter">
</g>
<g fill="none" color="black" stroke="currentColor" stroke-width="1.00" stroke-linecap="butt" stroke-linejoin="miter">
	<path stroke='black'  d='M87.1,54.1 L87.1,684.0 L1255.0,684.0 L1255.0,54.1 L87.1,54.1 Z  '/></g>
<g fill="none" color="black" stroke="currentColor" stroke-width="1.00" stroke-linecap="butt" stroke-linejoin="miter">
</g>
</g>
</svg>

