<?xml version="1.0" encoding="utf-8"  standalone="no"?>
<svg 
 width="1280" height="720"
 viewBox="0 0 1280 720"
 xmlns="http://www.w3.org/2000/svg"
 xmlns:xlink="http://www.w3.org/1999/xlink"
>

<title>Gnuplot</title>
<desc>Produced by GNUPLOT 5.0 patchlevel 6 </desc>

<g id="gnuplot_canvas">

<rect x="0" y="0" width="1280" height="720" fill="none"/>
<defs>

	<circle id='gpDot' r='0.5' stroke-width='0.5'/>
	<path id='gpPt0' stroke-width='0.222' stroke='currentColor' d='M-1,0 h2 M0,-1 v2'/>
	<path id='gpPt1' stroke-width='0.222' stroke='currentColor' d='M-1,-1 L1,1 M1,-1 L-1,1'/>
	<path id='gpPt2' stroke-width='0.222' stroke='currentColor' d='M-1,0 L1,0 M0,-1 L0,1 M-1,-1 L1,1 M-1,1 L1,-1'/>
	<rect id='gpPt3' stroke-width='0.222' stroke='currentColor' x='-1' y='-1' width='2' height='2'/>
	<rect id='gpPt4' stroke-width='0.222' stroke='currentColor' fill='currentColor' x='-1' y='-1' width='2' height='2'/>
	<circle id='gpPt5' stroke-width='0.222' stroke='currentColor' cx='0' cy='0' r='1'/>
	<use xlink:href='#gpPt5' id='gpPt6' fill='currentColor' stroke='none'/>
	<path id='gpPt7' stroke-width='0.222' stroke='currentColor' d='M0,-1.33 L-1.33,0.67 L1.33,0.67 z'/>
	<use xlink:href='#gpPt7' id='gpPt8' fill='currentColor' stroke='none'/>
	<use xlink:href='#gpPt7' id='gpPt9' stroke='currentColor' transform='rotate(180)'/>
	<use xlink:href='#gpPt9' id='gpPt10' fill='currentColor' stroke='none'/>
	<use xlink:href='#gpPt3' id='gpPt11' stroke='currentColor' transform='rotate(45)'/>
	<use xlink:href='#gpPt11' id='gpPt12' fill='currentColor' stroke='none'/>
	<path id='gpPt13' stroke-width='0.222' stroke='currentColor' d='M0,1.330 L1.265,0.411 L0.782,-1.067 L-0.782,-1.076 L-1.265,0.411 z'/>
	<use xlink:href='#gpPt13' id='gpPt14' fill='currentColor' stroke='none'/>
	<filter id='textbox' filterUnits='objectBoundingBox' x='0' y='0' height='1' width='1'>
	  <feFlood flood-color='white' flood-opacity='1' result='bgnd'/>
	  <feComposite in='SourceGraphic' in2='bgnd' operator='atop'/>
	</filter>
	<filter id='greybox' filterUnits='objectBoundingBox' x='0' y='0' height='1' width='1'>
	  <feFlood flood-color='lightgrey' flood-opacity='1' result='grey'/>
	  <feComposite in='SourceGraphic' in2='grey' operator='atop'/>
	</filter>
</defs>
<g fill="none" color="white" stroke="currentColor" stroke-width="1.00" stroke-linecap="butt" stroke-linejoin="miter">
</g>
<g fill="none" color="black" stroke="currentColor" stroke-width="1.00" stroke-linecap="butt" stroke-linejoin="miter">
	<path stroke='black'  d='M53.9,683.3 L62.9,683.3 M1255.0,683.3 L1246.0,683.3  '/>	<g transform="translate(45.6,687.2)" stroke="none" fill="black" font-family="Arial" font-size="12.00"  text-anchor="end">
		<text><tspan font-family="Arial" > 0</tspan></text>
	</g>
</g>
<g fill="none" color="black" stroke="currentColor" stroke-width="1.00" stroke-linecap="butt" stroke-linejoin="miter">
	<path stroke='black'  d='M53.9,368.7 L62.9,368.7 M1255.0,368.7 L1246.0,368.7  '/>	<g transform="translate(45.6,372.6)" stroke="none" fill="black" font-family="Arial" font-size="12.00"  text-anchor="end">
		<text><tspan font-family="Arial" > 0.5</tspan></text>
	</g>
</g>
<g fill="none" color="black" stroke="currentColor" stroke-width="1.00" stroke-linecap="butt" stroke-linejoin="miter">
	<path stroke='black'  d='M53.9,54.1 L62.9,54.1 M1255.0,54.1 L1246.0,54.1  '/>	<g transform="translate(45.6,58.0)" stroke="none" fill="black" font-family="Arial" font-size="12.00"  text-anchor="end">
		<text><tspan font-family="Arial" > 1</tspan></text>
	</g>
</g>
<g fill="none" color="black" stroke="currentColor" stroke-width="1.00" stroke-linecap="butt" stroke-linejoin="miter">
	<path stroke='black'  d='M53.9,684.0 L53.9,675.0 M53.9,54.1 L53.9,63.1  '/>	<g transform="translate(53.9,705.9)" stroke="none" fill="black" font-family="Arial" font-size="12.00"  text-anchor="middle">
		<text><tspan font-family="Arial" > 0</tspan></text>
	</g>
</g>
<g fill="none" color="black" stroke="currentColor" stroke-width="1.00" stroke-linecap="butt" stroke-linejoin="miter">
	<path stroke='black'  d='M654.5,684.0 L654.5,675.0 M654.5,54.1 L654.5,63.1  '/>	<g transform="translate(654.5,705.9)" stroke="none" fill="black" font-family="Arial" font-size="12.00"  text-anchor="middle">
		<text><tspan font-family="Arial" >pi/2</tspan></text>
	</g>
</g>
<g fill="none" color="black" stroke="currentColor" stroke-width="1.00" stroke-linecap="butt" stroke-linejoin="miter">
	<path stroke='black'  d='M1255.0,684.0 L1255.0,675.0 M1255.0,54.1 L1255.0,63.1  '/>	<g transform="translate(1255.0,705.9)" stroke="none" fill="black" font-family="Arial" font-size="12.00"  text-anchor="middle">
		<text><tspan font-family="Arial" >pi</tspan></text>
	</g>
</g>
<g fill="none" color="black" stroke="currentColor" stroke-width="1.00" stroke-linecap="butt" stroke-linejoin="miter">
</g>
<g fill="none" color="black" stroke="currentColor" stroke-width="1.00" stroke-linecap="butt" stroke-linejoin="miter">
	<path stroke='black'  d='M53.9,54.1 L53.9,684.0 L1255.0,684.0 L1255.0,54.1 L53.9,54.1 Z  '/></g>
<g fill="none" color="black" stroke="currentColor" stroke-width="1.00" stroke-linecap="butt" stroke-linejoin="miter">
	<g transform="translate(654.4,31.0)" stroke="none" fill="black" font-family="Arial" font-size="12.00"  text-anchor="middle">
		<text><tspan font-family="Arial" >Material 13, with 4 components</tspan></text>
	</g>
</g>
	<g id="gnuplot_plot_1" ><title>scattering function</title>
<g fill="none" color="black" stroke="currentColor" stroke-width="1.00" stroke-linecap="butt" stroke-linejoin="miter">
	<g transform="translate(1187.9,76.0)" stroke="none" fill="black" font-family="Arial" font-size="12.00"  text-anchor="end">
		<text><tspan font-family="Arial" >scattering function</tspan></text>
	</g>
</g>
<g fill="none" color="black" stroke="currentColor" stroke-width="1.00" stroke-linecap="butt" stroke-linejoin="miter">
	<use xlink:href='#gpPt5' transform='translate(56.3,54.1) scale(2.25)' color='rgb(255,   0,   0)'/>
	<use xlink:href='#gpPt5' transform='translate(67.2,124.7) scale(2.25)' color='rgb(255,   0,   0)'/>
	<use xlink:href='#gpPt5' transform='translate(82.5,262.9) scale(2.25)' color='rgb(255,   0,   0)'/>
	<use xlink:href='#gpPt5' transform='translate(97.8,394.9) scale(2.25)' color='rgb(255,   0,   0)'/>
	<use xlink:href='#gpPt5' transform='translate(113.8,507.3) scale(2.25)' color='rgb(255,   0,   0)'/>
	<use xlink:href='#gpPt5' transform='translate(122.0,547.9) scale(2.25)' color='rgb(255,   0,   0)'/>
	<use xlink:href='#gpPt5' transform='translate(135.8,584.4) scale(2.25)' color='rgb(255,   0,   0)'/>
	<use xlink:href='#gpPt5' transform='translate(158.7,625.5) scale(2.25)' color='rgb(255,   0,   0)'/>
	<use xlink:href='#gpPt5' transform='translate(179.2,645.6) scale(2.25)' color='rgb(255,   0,   0)'/>
	<use xlink:href='#gpPt5' transform='translate(211.0,661.5) scale(2.25)' color='rgb(255,   0,   0)'/>
	<use xlink:href='#gpPt5' transform='translate(270.5,674.0) scale(2.25)' color='rgb(255,   0,   0)'/>
	<use xlink:href='#gpPt5' transform='translate(335.6,677.8) scale(2.25)' color='rgb(255,   0,   0)'/>
	<use xlink:href='#gpPt5' transform='translate(405.3,680.6) scale(2.25)' color='rgb(255,   0,   0)'/>
	<use xlink:href='#gpPt5' transform='translate(472.9,681.4) scale(2.25)' color='rgb(255,   0,   0)'/>
	<use xlink:href='#gpPt5' transform='translate(734.8,682.3) scale(2.25)' color='rgb(255,   0,   0)'/>
	<use xlink:href='#gpPt5' transform='translate(993.8,683.3) scale(2.25)' color='rgb(255,   0,   0)'/>
	<use xlink:href='#gpPt5' transform='translate(1255.0,683.0) scale(2.25)' color='rgb(255,   0,   0)'/>
	<use xlink:href='#gpPt5' transform='translate(1217.3,72.1) scale(2.25)' color='rgb(255,   0,   0)'/>
</g>
	</g>
	<g id="gnuplot_plot_2" ><title>fit</title>
<g fill="none" color="black" stroke="currentColor" stroke-width="1.00" stroke-linecap="butt" stroke-linejoin="miter">
	<g transform="translate(1187.9,94.0)" stroke="none" fill="black" font-family="Arial" font-size="12.00"  text-anchor="end">
		<text><tspan font-family="Arial" >fit</tspan></text>
	</g>
</g>
<g fill="none" color="black" stroke="currentColor" stroke-width="1.00" stroke-linecap="butt" stroke-linejoin="miter">
	<path stroke='rgb(255,   0,   0)'  d='M1196.2,90.1 L1238.4,90.1 M53.9,90.1 L55.1,90.5 L56.2,91.7 L57.4,93.6 L58.6,96.3 L59.8,99.7
		L60.9,103.8 L62.1,108.6 L63.3,114.1 L64.5,120.2 L65.6,126.8 L66.8,134.1 L68.0,141.8 L69.2,150.0
		L70.3,158.6 L71.5,167.6 L72.7,177.0 L73.9,186.6 L75.0,196.5 L76.2,206.6 L77.4,216.9 L78.6,227.3
		L79.7,237.9 L80.9,248.4 L82.1,259.0 L83.3,269.6 L84.4,280.2 L85.6,290.7 L86.8,301.2 L87.9,311.5
		L89.1,321.7 L90.3,331.8 L91.5,341.7 L92.6,351.5 L93.8,361.1 L95.0,370.5 L96.2,379.7 L97.3,388.7
		L98.5,397.4 L99.7,406.0 L100.9,414.4 L102.0,422.5 L103.2,430.4 L104.4,438.1 L105.6,445.6 L106.7,452.9
		L107.9,460.0 L109.1,466.8 L110.3,473.4 L111.4,479.9 L112.6,486.1 L113.8,492.2 L115.0,498.0 L116.1,503.7
		L117.3,509.1 L118.5,514.4 L119.6,519.5 L120.8,524.5 L122.0,529.3 L123.2,533.9 L124.3,538.4 L125.5,542.7
		L126.7,546.9 L127.9,550.9 L129.0,554.8 L130.2,558.6 L131.4,562.2 L132.6,565.7 L133.7,569.1 L134.9,572.4
		L136.1,575.6 L137.3,578.6 L138.4,581.6 L139.6,584.4 L140.8,587.2 L142.0,589.9 L143.1,592.5 L144.3,595.0
		L145.5,597.4 L146.7,599.7 L147.8,602.0 L149.0,604.2 L150.2,606.3 L151.3,608.3 L152.5,610.3 L153.7,612.2
		L154.9,614.1 L156.0,615.8 L157.2,617.6 L158.4,619.3 L159.6,620.9 L160.7,622.5 L161.9,624.0 L163.1,625.5
		L164.3,626.9 L165.4,628.3 L166.6,629.6 L167.8,630.9 L169.0,632.2 L170.1,633.4 L171.3,634.6 L172.5,635.8
		L173.7,636.9 L174.8,638.0 L176.0,639.0 L177.2,640.0 L178.4,641.0 L179.5,642.0 L180.7,642.9 L181.9,643.8
		L183.1,644.7 L184.2,645.6 L185.4,646.4 L186.6,647.2 L187.7,648.0 L188.9,648.8 L190.1,649.5 L191.3,650.2
		L192.4,650.9 L193.6,651.6 L194.8,652.3 L196.0,652.9 L197.1,653.6 L198.3,654.2 L199.5,654.8 L200.7,655.4
		L201.8,655.9 L203.0,656.5 L204.2,657.0 L205.4,657.5 L206.5,658.0 L207.7,658.5 L208.9,659.0 L210.1,659.5
		L211.2,660.0 L212.4,660.4 L213.6,660.8 L214.8,661.3 L215.9,661.7 L217.1,662.1 L218.3,662.5 L219.4,662.9
		L220.6,663.2 L221.8,663.6 L223.0,664.0 L224.1,664.3 L225.3,664.7 L226.5,665.0 L227.7,665.3 L228.8,665.6
		L230.0,666.0 L231.2,666.3 L232.4,666.6 L233.5,666.9 L234.7,667.1 L235.9,667.4 L237.1,667.7 L238.2,668.0
		L239.4,668.2 L240.6,668.5 L241.8,668.7 L242.9,669.0 L244.1,669.2 L245.3,669.4 L246.5,669.7 L247.6,669.9
		L248.8,670.1 L250.0,670.3 L251.1,670.5 L252.3,670.7 L253.5,670.9 L254.7,671.1 L255.8,671.3 L257.0,671.5
		L258.2,671.7 L259.4,671.9 L260.5,672.1 L261.7,672.2 L262.9,672.4 L264.1,672.6 L265.2,672.7 L266.4,672.9
		L267.6,673.1 L268.8,673.2 L269.9,673.4 L271.1,673.5 L272.3,673.7 L273.5,673.8 L274.6,673.9 L275.8,674.1
		L277.0,674.2 L278.2,674.3 L279.3,674.5 L280.5,674.6 L281.7,674.7 L282.8,674.8 L284.0,675.0 L285.2,675.1
		L286.4,675.2 L287.5,675.3 L288.7,675.4 L289.9,675.5 L291.1,675.7 L292.2,675.8 L293.4,675.9 L294.6,676.0
		L295.8,676.1 L296.9,676.2 L298.1,676.3 L299.3,676.4 L300.5,676.5 L301.6,676.6 L302.8,676.6 L304.0,676.7
		L305.2,676.8 L306.3,676.9 L307.5,677.0 L308.7,677.1 L309.9,677.2 L311.0,677.2 L312.2,677.3 L313.4,677.4
		L314.5,677.5 L315.7,677.6 L316.9,677.6 L318.1,677.7 L319.2,677.8 L320.4,677.9 L321.6,677.9 L322.8,678.0
		L323.9,678.1 L325.1,678.1 L326.3,678.2 L327.5,678.3 L328.6,678.3 L329.8,678.4 L331.0,678.5 L332.2,678.5
		L333.3,678.6 L334.5,678.6 L335.7,678.7 L336.9,678.8 L338.0,678.8 L339.2,678.9 L340.4,678.9 L341.6,679.0
		L342.7,679.0 L343.9,679.1 L345.1,679.2 L346.2,679.2 L347.4,679.3 L348.6,679.3 L349.8,679.4 L350.9,679.4
		L352.1,679.5 L353.3,679.5 L354.5,679.6 L355.6,679.6 L356.8,679.6 L358.0,679.7 L359.2,679.7 L360.3,679.8
		L361.5,679.8 L362.7,679.9 L363.9,679.9 L365.0,680.0 L366.2,680.0 L367.4,680.0 L368.6,680.1 L369.7,680.1
		L370.9,680.2 L372.1,680.2 L373.3,680.2 L374.4,680.3 L375.6,680.3 L376.8,680.3 L378.0,680.4 L379.1,680.4
		L380.3,680.5 L381.5,680.5 L382.6,680.5 L383.8,680.6 L385.0,680.6 L386.2,680.6 L387.3,680.7 L388.5,680.7
		L389.7,680.7 L390.9,680.8 L392.0,680.8 L393.2,680.8 L394.4,680.9 L395.6,680.9 L396.7,680.9 L397.9,681.0
		L399.1,681.0 L400.3,681.0 L401.4,681.0 L402.6,681.1 L403.8,681.1 L405.0,681.1 L406.1,681.2 L407.3,681.2
		L408.5,681.2 L409.7,681.2 L410.8,681.3 L412.0,681.3 L413.2,681.3 L414.3,681.3 L415.5,681.4 L416.7,681.4
		L417.9,681.4 L419.0,681.4 L420.2,681.5 L421.4,681.5 L422.6,681.5 L423.7,681.5 L424.9,681.6 L426.1,681.6
		L427.3,681.6 L428.4,681.6 L429.6,681.7 L430.8,681.7 L432.0,681.7 L433.1,681.7 L434.3,681.7 L435.5,681.8
		L436.7,681.8 L437.8,681.8 L439.0,681.8 L440.2,681.9 L441.4,681.9 L442.5,681.9 L443.7,681.9 L444.9,681.9
		L446.0,682.0 L447.2,682.0 L448.4,682.0 L449.6,682.0 L450.7,682.0 L451.9,682.1 L453.1,682.1 L454.3,682.1
		L455.4,682.1 L456.6,682.1 L457.8,682.1 L459.0,682.2 L460.1,682.2 L461.3,682.2 L462.5,682.2 L463.7,682.2
		L464.8,682.3 L466.0,682.3 L467.2,682.3 L468.4,682.3 L469.5,682.3 L470.7,682.3 L471.9,682.4 L473.1,682.4
		L474.2,682.4 L475.4,682.4 L476.6,682.4 L477.7,682.4 L478.9,682.4 L480.1,682.5 L481.3,682.5 L482.4,682.5
		L483.6,682.5 L484.8,682.5 L486.0,682.5 L487.1,682.6 L488.3,682.6 L489.5,682.6 L490.7,682.6 L491.8,682.6
		L493.0,682.6 L494.2,682.6 L495.4,682.7 L496.5,682.7 L497.7,682.7 L498.9,682.7 L500.1,682.7 L501.2,682.7
		L502.4,682.7 L503.6,682.7 L504.8,682.8 L505.9,682.8 L507.1,682.8 L508.3,682.8 L509.4,682.8 L510.6,682.8
		L511.8,682.8 L513.0,682.8 L514.1,682.9 L515.3,682.9 L516.5,682.9 L517.7,682.9 L518.8,682.9 L520.0,682.9
		L521.2,682.9 L522.4,682.9 L523.5,683.0 L524.7,683.0 L525.9,683.0 L527.1,683.0 L528.2,683.0 L529.4,683.0
		L530.6,683.0 L531.8,683.0 L532.9,683.0 L534.1,683.0 L535.3,683.1 L536.5,683.1 L537.6,683.1 L538.8,683.1
		L540.0,683.1 L541.1,683.1 L542.3,683.1 L543.5,683.1 L544.7,683.1 L545.8,683.1 L547.0,683.2 L548.2,683.2
		L549.4,683.2 L550.5,683.2 L551.7,683.2 L552.9,683.2 L554.1,683.2 L555.2,683.2 L556.4,683.2 L557.6,683.2
		L558.8,683.3 L559.9,683.3 L561.1,683.3 L562.3,683.3 L563.5,683.3 L564.6,683.3 L565.8,683.3 L567.0,683.3
		L568.2,683.3 L569.3,683.3 L570.5,683.3 L571.7,683.3 L572.9,683.4 L574.0,683.4 L575.2,683.4 L576.4,683.4
		L577.5,683.4 L578.7,683.4 L579.9,683.4 L581.1,683.4 L582.2,683.4 L583.4,683.4 L584.6,683.4 L585.8,683.4
		L586.9,683.4 L588.1,683.5 L589.3,683.5 L590.5,683.5 L591.6,683.5 L592.8,683.5 L594.0,683.5 L595.2,683.5
		L596.3,683.5 L597.5,683.5 L598.7,683.5 L599.9,683.5 L601.0,683.5 L602.2,683.5 L603.4,683.5 L604.6,683.5
		L605.7,683.6 L606.9,683.6 L608.1,683.6 L609.2,683.6 L610.4,683.6 L611.6,683.6 L612.8,683.6 L613.9,683.6
		L615.1,683.6 L616.3,683.6 L617.5,683.6 L618.6,683.6 L619.8,683.6 L621.0,683.6 L622.2,683.6 L623.3,683.6
		L624.5,683.6 L625.7,683.7 L626.9,683.7 L628.0,683.7 L629.2,683.7 L630.4,683.7 L631.6,683.7 L632.7,683.7
		L633.9,683.7 L635.1,683.7 L636.3,683.7 L637.4,683.7 L638.6,683.7 L639.8,683.7 L640.9,683.7 L642.1,683.7
		L643.3,683.7 L644.5,683.7 L645.6,683.7 L646.8,683.7 L648.0,683.7 L649.2,683.8 L650.3,683.8 L651.5,683.8
		L652.7,683.8 L653.9,683.8 L655.0,683.8 L656.2,683.8 L657.4,683.8 L658.6,683.8 L659.7,683.8 L660.9,683.8
		L662.1,683.8 L663.3,683.8 L664.4,683.8 L665.6,683.8 L666.8,683.8 L668.0,683.8 L669.1,683.8 L670.3,683.8
		L671.5,683.8 L672.6,683.8 L673.8,683.8 L675.0,683.8 L676.2,683.8 L677.3,683.8 L678.5,683.8 L679.7,683.9
		L680.9,683.9 L682.0,683.9 L683.2,683.9 L684.4,683.9 L685.6,683.9 L686.7,683.9 L687.9,683.9 L689.1,683.9
		L690.3,683.9 L691.4,683.9 L692.6,683.9 L693.8,683.9 L695.0,683.9 L696.1,683.9 L697.3,683.9 L698.5,683.9
		L699.7,683.9 L700.8,683.9 L702.0,683.9 L703.2,683.9 L704.3,683.9 L705.5,683.9 L706.7,683.9 L707.9,683.9
		L709.0,683.9 L710.2,683.9 L711.4,683.9 L712.6,683.9 L713.7,683.9 L714.9,683.9 L716.1,683.9 L717.3,683.9
		L718.4,683.9 L719.6,683.9 L720.8,683.9 L722.0,683.9 L723.1,683.9 L724.3,683.9 L725.5,683.9 L726.7,684.0
		L727.8,684.0 L729.0,684.0 L730.2,684.0 L731.4,684.0 L732.5,684.0 L733.7,684.0 L734.9,684.0 L736.0,684.0
		L737.2,684.0 L738.4,684.0 L739.6,684.0 L740.7,684.0 L741.9,684.0 L743.1,684.0 L744.3,684.0 L745.4,684.0
		L746.6,684.0 L747.8,684.0 L749.0,684.0 L750.1,684.0 L751.3,684.0 L752.5,684.0 L753.7,684.0 L754.8,684.0
		L756.0,684.0 L757.2,684.0 L758.4,684.0 L759.5,684.0 L760.7,684.0 L761.9,684.0 L763.1,684.0 L764.2,684.0
		L765.4,684.0 L766.6,684.0 L767.8,684.0 L768.9,684.0 L770.1,684.0 L771.3,684.0 L772.4,684.0 L773.6,684.0
		L774.8,684.0 L776.0,684.0 L777.1,684.0 L778.3,684.0 L779.5,684.0 L780.7,684.0 L781.8,684.0 L783.0,684.0
		L784.2,684.0 L785.4,684.0 L786.5,684.0 L787.7,684.0 L788.9,684.0 L790.1,684.0 L791.2,684.0 L792.4,684.0
		L793.6,684.0 L794.8,684.0 L795.9,684.0 L797.1,684.0 L798.3,684.0 L799.5,684.0 L800.6,684.0 L801.8,684.0
		L803.0,684.0 L804.1,684.0 L805.3,684.0 L806.5,684.0 L807.7,684.0 L808.8,684.0 L810.0,684.0 L811.2,684.0
		L812.4,684.0 L813.5,684.0 L814.7,684.0 L815.9,684.0 L817.1,684.0 L818.2,684.0 L819.4,684.0 L820.6,684.0
		L821.8,684.0 L822.9,684.0 L824.1,684.0 L825.3,684.0 L826.5,684.0 L827.6,684.0 L828.8,684.0 L830.0,684.0
		L831.2,684.0 L832.3,684.0 L833.5,684.0 L834.7,684.0 L835.8,684.0 L837.0,684.0 L838.2,684.0 L839.4,684.0
		L840.5,684.0 L841.7,684.0 L842.9,684.0 L844.1,684.0 L845.2,684.0 L846.4,684.0 L847.6,684.0 L848.8,684.0
		L849.9,684.0 L851.1,684.0 L852.3,684.0 L853.5,684.0 L854.6,684.0 L855.8,684.0 L857.0,684.0 L858.2,684.0
		L859.3,684.0 L860.5,684.0 L861.7,684.0 L862.9,684.0 L864.0,684.0 L865.2,684.0 L866.4,684.0 L867.5,684.0
		L868.7,684.0 L869.9,684.0 L871.1,683.9 L872.2,683.9 L873.4,683.9 L874.6,683.9 L875.8,683.9 L876.9,683.9
		L878.1,683.9 L879.3,683.9 L880.5,683.9 L881.6,683.9 L882.8,683.9 L884.0,683.9 L885.2,683.9 L886.3,683.9
		L887.5,683.9 L888.7,683.9 L889.9,683.9 L891.0,683.9 L892.2,683.9 L893.4,683.9 L894.6,683.9 L895.7,683.9
		L896.9,683.9 L898.1,683.9 L899.2,683.9 L900.4,683.9 L901.6,683.9 L902.8,683.9 L903.9,683.9 L905.1,683.9
		L906.3,683.9 L907.5,683.9 L908.6,683.9 L909.8,683.9 L911.0,683.9 L912.2,683.9 L913.3,683.9 L914.5,683.9
		L915.7,683.9 L916.9,683.9 L918.0,683.9 L919.2,683.9 L920.4,683.9 L921.6,683.9 L922.7,683.9 L923.9,683.9
		L925.1,683.9 L926.3,683.9 L927.4,683.9 L928.6,683.9 L929.8,683.9 L930.9,683.9 L932.1,683.9 L933.3,683.9
		L934.5,683.9 L935.6,683.8 L936.8,683.8 L938.0,683.8 L939.2,683.8 L940.3,683.8 L941.5,683.8 L942.7,683.8
		L943.9,683.8 L945.0,683.8 L946.2,683.8 L947.4,683.8 L948.6,683.8 L949.7,683.8 L950.9,683.8 L952.1,683.8
		L953.3,683.8 L954.4,683.8 L955.6,683.8 L956.8,683.8 L958.0,683.8 L959.1,683.8 L960.3,683.8 L961.5,683.8
		L962.7,683.8 L963.8,683.8 L965.0,683.8 L966.2,683.8 L967.3,683.8 L968.5,683.8 L969.7,683.8 L970.9,683.8
		L972.0,683.8 L973.2,683.8 L974.4,683.8 L975.6,683.8 L976.7,683.8 L977.9,683.8 L979.1,683.8 L980.3,683.8
		L981.4,683.8 L982.6,683.8 L983.8,683.8 L985.0,683.8 L986.1,683.8 L987.3,683.7 L988.5,683.7 L989.7,683.7
		L990.8,683.7 L992.0,683.7 L993.2,683.7 L994.4,683.7 L995.5,683.7 L996.7,683.7 L997.9,683.7 L999.0,683.7
		L1000.2,683.7 L1001.4,683.7 L1002.6,683.7 L1003.7,683.7 L1004.9,683.7 L1006.1,683.7 L1007.3,683.7 L1008.4,683.7
		L1009.6,683.7 L1010.8,683.7 L1012.0,683.7 L1013.1,683.7 L1014.3,683.7 L1015.5,683.7 L1016.7,683.7 L1017.8,683.7
		L1019.0,683.7 L1020.2,683.7 L1021.4,683.7 L1022.5,683.7 L1023.7,683.7 L1024.9,683.7 L1026.1,683.7 L1027.2,683.7
		L1028.4,683.7 L1029.6,683.7 L1030.7,683.7 L1031.9,683.7 L1033.1,683.7 L1034.3,683.7 L1035.4,683.7 L1036.6,683.6
		L1037.8,683.6 L1039.0,683.6 L1040.1,683.6 L1041.3,683.6 L1042.5,683.6 L1043.7,683.6 L1044.8,683.6 L1046.0,683.6
		L1047.2,683.6 L1048.4,683.6 L1049.5,683.6 L1050.7,683.6 L1051.9,683.6 L1053.1,683.6 L1054.2,683.6 L1055.4,683.6
		L1056.6,683.6 L1057.8,683.6 L1058.9,683.6 L1060.1,683.6 L1061.3,683.6 L1062.4,683.6 L1063.6,683.6 L1064.8,683.6
		L1066.0,683.6 L1067.1,683.6 L1068.3,683.6 L1069.5,683.6 L1070.7,683.6 L1071.8,683.6 L1073.0,683.6 L1074.2,683.6
		L1075.4,683.6 L1076.5,683.6 L1077.7,683.6 L1078.9,683.6 L1080.1,683.6 L1081.2,683.6 L1082.4,683.6 L1083.6,683.6
		L1084.8,683.6 L1085.9,683.6 L1087.1,683.6 L1088.3,683.6 L1089.5,683.5 L1090.6,683.5 L1091.8,683.5 L1093.0,683.5
		L1094.1,683.5 L1095.3,683.5 L1096.5,683.5 L1097.7,683.5 L1098.8,683.5 L1100.0,683.5 L1101.2,683.5 L1102.4,683.5
		L1103.5,683.5 L1104.7,683.5 L1105.9,683.5 L1107.1,683.5 L1108.2,683.5 L1109.4,683.5 L1110.6,683.5 L1111.8,683.5
		L1112.9,683.5 L1114.1,683.5 L1115.3,683.5 L1116.5,683.5 L1117.6,683.5 L1118.8,683.5 L1120.0,683.5 L1121.2,683.5
		L1122.3,683.5 L1123.5,683.5 L1124.7,683.5 L1125.8,683.5 L1127.0,683.5 L1128.2,683.5 L1129.4,683.5 L1130.5,683.5
		L1131.7,683.5 L1132.9,683.5 L1134.1,683.5 L1135.2,683.5 L1136.4,683.5 L1137.6,683.5 L1138.8,683.5 L1139.9,683.5
		L1141.1,683.5 L1142.3,683.5 L1143.5,683.5 L1144.6,683.5 L1145.8,683.5 L1147.0,683.5 L1148.2,683.5 L1149.3,683.5
		L1150.5,683.5 L1151.7,683.5 L1152.9,683.5 L1154.0,683.5 L1155.2,683.5 L1156.4,683.5 L1157.6,683.4 L1158.7,683.4
		L1159.9,683.4 L1161.1,683.4 L1162.2,683.4 L1163.4,683.4 L1164.6,683.4 L1165.8,683.4 L1166.9,683.4 L1168.1,683.4
		L1169.3,683.4 L1170.5,683.4 L1171.6,683.4 L1172.8,683.4 L1174.0,683.4 L1175.2,683.4 L1176.3,683.4 L1177.5,683.4
		L1178.7,683.4 L1179.9,683.4 L1181.0,683.4 L1182.2,683.4 L1183.4,683.4 L1184.6,683.4 L1185.7,683.4 L1186.9,683.4
		L1188.1,683.4 L1189.3,683.4 L1190.4,683.4 L1191.6,683.4 L1192.8,683.4 L1193.9,683.4 L1195.1,683.4 L1196.3,683.4
		L1197.5,683.4 L1198.6,683.4 L1199.8,683.4 L1201.0,683.4 L1202.2,683.4 L1203.3,683.4 L1204.5,683.4 L1205.7,683.4
		L1206.9,683.4 L1208.0,683.4 L1209.2,683.4 L1210.4,683.4 L1211.6,683.4 L1212.7,683.4 L1213.9,683.4 L1215.1,683.4
		L1216.3,683.4 L1217.4,683.4 L1218.6,683.4 L1219.8,683.4 L1221.0,683.4 L1222.1,683.4 L1223.3,683.4 L1224.5,683.4
		L1225.6,683.4 L1226.8,683.4 L1228.0,683.4 L1229.2,683.4 L1230.3,683.4 L1231.5,683.4 L1232.7,683.4 L1233.9,683.4
		L1235.0,683.4 L1236.2,683.4 L1237.4,683.4 L1238.6,683.4 L1239.7,683.4 L1240.9,683.4 L1242.1,683.4 L1243.3,683.4
		L1244.4,683.4 L1245.6,683.4 L1246.8,683.4 L1248.0,683.4 L1249.1,683.4 L1250.3,683.4 L1251.5,683.4 L1252.7,683.4
		L1253.8,683.4 L1255.0,683.4  '/></g>
	</g>
<g fill="none" color="white" stroke="rgb(255,   0,   0)" stroke-width="2.00" stroke-linecap="butt" stroke-linejoin="miter">
</g>
<g fill="none" color="black" stroke="currentColor" stroke-width="2.00" stroke-linecap="butt" stroke-linejoin="miter">
</g>
<g fill="none" color="black" stroke="black" stroke-width="1.00" stroke-linecap="butt" stroke-linejoin="miter">
</g>
<g fill="none" color="black" stroke="currentColor" stroke-width="1.00" stroke-linecap="butt" stroke-linejoin="miter">
	<path stroke='black'  d='M53.9,54.1 L53.9,684.0 L1255.0,684.0 L1255.0,54.1 L53.9,54.1 Z  '/></g>
<g fill="none" color="black" stroke="currentColor" stroke-width="1.00" stroke-linecap="butt" stroke-linejoin="miter">
</g>
</g>
</svg>

