<?xml version="1.0" encoding="utf-8"  standalone="no"?>
<svg 
 width="1280" height="720"
 viewBox="0 0 1280 720"
 xmlns="http://www.w3.org/2000/svg"
 xmlns:xlink="http://www.w3.org/1999/xlink"
>

<title>Gnuplot</title>
<desc>Produced by GNUPLOT 5.0 patchlevel 6 </desc>

<g id="gnuplot_canvas">

<rect x="0" y="0" width="1280" height="720" fill="none"/>
<defs>

	<circle id='gpDot' r='0.5' stroke-width='0.5'/>
	<path id='gpPt0' stroke-width='0.222' stroke='currentColor' d='M-1,0 h2 M0,-1 v2'/>
	<path id='gpPt1' stroke-width='0.222' stroke='currentColor' d='M-1,-1 L1,1 M1,-1 L-1,1'/>
	<path id='gpPt2' stroke-width='0.222' stroke='currentColor' d='M-1,0 L1,0 M0,-1 L0,1 M-1,-1 L1,1 M-1,1 L1,-1'/>
	<rect id='gpPt3' stroke-width='0.222' stroke='currentColor' x='-1' y='-1' width='2' height='2'/>
	<rect id='gpPt4' stroke-width='0.222' stroke='currentColor' fill='currentColor' x='-1' y='-1' width='2' height='2'/>
	<circle id='gpPt5' stroke-width='0.222' stroke='currentColor' cx='0' cy='0' r='1'/>
	<use xlink:href='#gpPt5' id='gpPt6' fill='currentColor' stroke='none'/>
	<path id='gpPt7' stroke-width='0.222' stroke='currentColor' d='M0,-1.33 L-1.33,0.67 L1.33,0.67 z'/>
	<use xlink:href='#gpPt7' id='gpPt8' fill='currentColor' stroke='none'/>
	<use xlink:href='#gpPt7' id='gpPt9' stroke='currentColor' transform='rotate(180)'/>
	<use xlink:href='#gpPt9' id='gpPt10' fill='currentColor' stroke='none'/>
	<use xlink:href='#gpPt3' id='gpPt11' stroke='currentColor' transform='rotate(45)'/>
	<use xlink:href='#gpPt11' id='gpPt12' fill='currentColor' stroke='none'/>
	<path id='gpPt13' stroke-width='0.222' stroke='currentColor' d='M0,1.330 L1.265,0.411 L0.782,-1.067 L-0.782,-1.076 L-1.265,0.411 z'/>
	<use xlink:href='#gpPt13' id='gpPt14' fill='currentColor' stroke='none'/>
	<filter id='textbox' filterUnits='objectBoundingBox' x='0' y='0' height='1' width='1'>
	  <feFlood flood-color='white' flood-opacity='1' result='bgnd'/>
	  <feComposite in='SourceGraphic' in2='bgnd' operator='atop'/>
	</filter>
	<filter id='greybox' filterUnits='objectBoundingBox' x='0' y='0' height='1' width='1'>
	  <feFlood flood-color='lightgrey' flood-opacity='1' result='grey'/>
	  <feComposite in='SourceGraphic' in2='grey' operator='atop'/>
	</filter>
</defs>
<g fill="none" color="white" stroke="currentColor" stroke-width="1.00" stroke-linecap="butt" stroke-linejoin="miter">
</g>
<g fill="none" color="black" stroke="currentColor" stroke-width="1.00" stroke-linecap="butt" stroke-linejoin="miter">
	<path stroke='black'  d='M103.7,684.0 L112.7,684.0 M1255.0,684.0 L1246.0,684.0  '/>	<g transform="translate(95.4,687.9)" stroke="none" fill="black" font-family="Arial" font-size="12.00"  text-anchor="end">
		<text><tspan font-family="Arial" > 0.0006262</tspan></text>
	</g>
</g>
<g fill="none" color="black" stroke="currentColor" stroke-width="1.00" stroke-linecap="butt" stroke-linejoin="miter">
	<path stroke='black'  d='M103.7,369.0 L112.7,369.0 M1255.0,369.0 L1246.0,369.0  '/>	<g transform="translate(95.4,372.9)" stroke="none" fill="black" font-family="Arial" font-size="12.00"  text-anchor="end">
		<text><tspan font-family="Arial" > 0.0304121</tspan></text>
	</g>
</g>
<g fill="none" color="black" stroke="currentColor" stroke-width="1.00" stroke-linecap="butt" stroke-linejoin="miter">
	<path stroke='black'  d='M103.7,54.1 L112.7,54.1 M1255.0,54.1 L1246.0,54.1  '/>	<g transform="translate(95.4,58.0)" stroke="none" fill="black" font-family="Arial" font-size="12.00"  text-anchor="end">
		<text><tspan font-family="Arial" > 1.477</tspan></text>
	</g>
</g>
<g fill="none" color="black" stroke="currentColor" stroke-width="1.00" stroke-linecap="butt" stroke-linejoin="miter">
	<path stroke='black'  d='M103.7,684.0 L103.7,675.0 M103.7,54.1 L103.7,63.1  '/>	<g transform="translate(103.7,705.9)" stroke="none" fill="black" font-family="Arial" font-size="12.00"  text-anchor="middle">
		<text><tspan font-family="Arial" > 0</tspan></text>
	</g>
</g>
<g fill="none" color="black" stroke="currentColor" stroke-width="1.00" stroke-linecap="butt" stroke-linejoin="miter">
	<path stroke='black'  d='M679.4,684.0 L679.4,675.0 M679.4,54.1 L679.4,63.1  '/>	<g transform="translate(679.4,705.9)" stroke="none" fill="black" font-family="Arial" font-size="12.00"  text-anchor="middle">
		<text><tspan font-family="Arial" >pi/2</tspan></text>
	</g>
</g>
<g fill="none" color="black" stroke="currentColor" stroke-width="1.00" stroke-linecap="butt" stroke-linejoin="miter">
	<path stroke='black'  d='M1255.0,684.0 L1255.0,675.0 M1255.0,54.1 L1255.0,63.1  '/>	<g transform="translate(1255.0,705.9)" stroke="none" fill="black" font-family="Arial" font-size="12.00"  text-anchor="middle">
		<text><tspan font-family="Arial" >pi</tspan></text>
	</g>
</g>
<g fill="none" color="black" stroke="currentColor" stroke-width="1.00" stroke-linecap="butt" stroke-linejoin="miter">
</g>
<g fill="none" color="black" stroke="currentColor" stroke-width="1.00" stroke-linecap="butt" stroke-linejoin="miter">
	<path stroke='black'  d='M103.7,54.1 L103.7,684.0 L1255.0,684.0 L1255.0,54.1 L103.7,54.1 Z  '/></g>
<g fill="none" color="black" stroke="currentColor" stroke-width="1.00" stroke-linecap="butt" stroke-linejoin="miter">
	<g transform="translate(679.3,31.0)" stroke="none" fill="black" font-family="Arial" font-size="12.00"  text-anchor="middle">
		<text><tspan font-family="Arial" >Material 26, with 2 components</tspan></text>
	</g>
</g>
	<g id="gnuplot_plot_1" ><title>scattering function</title>
<g fill="none" color="black" stroke="currentColor" stroke-width="1.00" stroke-linecap="butt" stroke-linejoin="miter">
	<g transform="translate(1187.9,76.0)" stroke="none" fill="black" font-family="Arial" font-size="12.00"  text-anchor="end">
		<text><tspan font-family="Arial" >scattering function</tspan></text>
	</g>
</g>
<g fill="none" color="black" stroke="currentColor" stroke-width="1.00" stroke-linecap="butt" stroke-linejoin="miter">
	<use xlink:href='#gpPt5' transform='translate(103.7,97.2) scale(2.25)' color='rgb(255,   0,   0)'/>
	<use xlink:href='#gpPt5' transform='translate(104.3,99.3) scale(2.25)' color='rgb(255,   0,   0)'/>
	<use xlink:href='#gpPt5' transform='translate(105.0,104.3) scale(2.25)' color='rgb(255,   0,   0)'/>
	<use xlink:href='#gpPt5' transform='translate(105.6,109.7) scale(2.25)' color='rgb(255,   0,   0)'/>
	<use xlink:href='#gpPt5' transform='translate(106.3,114.7) scale(2.25)' color='rgb(255,   0,   0)'/>
	<use xlink:href='#gpPt5' transform='translate(106.9,119.1) scale(2.25)' color='rgb(255,   0,   0)'/>
	<use xlink:href='#gpPt5' transform='translate(107.5,123.1) scale(2.25)' color='rgb(255,   0,   0)'/>
	<use xlink:href='#gpPt5' transform='translate(108.2,126.5) scale(2.25)' color='rgb(255,   0,   0)'/>
	<use xlink:href='#gpPt5' transform='translate(108.8,129.7) scale(2.25)' color='rgb(255,   0,   0)'/>
	<use xlink:href='#gpPt5' transform='translate(109.5,132.5) scale(2.25)' color='rgb(255,   0,   0)'/>
	<use xlink:href='#gpPt5' transform='translate(110.1,135.2) scale(2.25)' color='rgb(255,   0,   0)'/>
	<use xlink:href='#gpPt5' transform='translate(110.7,137.6) scale(2.25)' color='rgb(255,   0,   0)'/>
	<use xlink:href='#gpPt5' transform='translate(111.4,140.0) scale(2.25)' color='rgb(255,   0,   0)'/>
	<use xlink:href='#gpPt5' transform='translate(112.0,142.2) scale(2.25)' color='rgb(255,   0,   0)'/>
	<use xlink:href='#gpPt5' transform='translate(112.7,144.4) scale(2.25)' color='rgb(255,   0,   0)'/>
	<use xlink:href='#gpPt5' transform='translate(113.3,146.6) scale(2.25)' color='rgb(255,   0,   0)'/>
	<use xlink:href='#gpPt5' transform='translate(113.9,148.6) scale(2.25)' color='rgb(255,   0,   0)'/>
	<use xlink:href='#gpPt5' transform='translate(114.6,150.7) scale(2.25)' color='rgb(255,   0,   0)'/>
	<use xlink:href='#gpPt5' transform='translate(115.2,152.7) scale(2.25)' color='rgb(255,   0,   0)'/>
	<use xlink:href='#gpPt5' transform='translate(115.9,154.7) scale(2.25)' color='rgb(255,   0,   0)'/>
	<use xlink:href='#gpPt5' transform='translate(116.5,156.7) scale(2.25)' color='rgb(255,   0,   0)'/>
	<use xlink:href='#gpPt5' transform='translate(122.9,176.0) scale(2.25)' color='rgb(255,   0,   0)'/>
	<use xlink:href='#gpPt5' transform='translate(129.3,194.4) scale(2.25)' color='rgb(255,   0,   0)'/>
	<use xlink:href='#gpPt5' transform='translate(135.7,211.7) scale(2.25)' color='rgb(255,   0,   0)'/>
	<use xlink:href='#gpPt5' transform='translate(142.1,227.9) scale(2.25)' color='rgb(255,   0,   0)'/>
	<use xlink:href='#gpPt5' transform='translate(154.9,256.3) scale(2.25)' color='rgb(255,   0,   0)'/>
	<use xlink:href='#gpPt5' transform='translate(167.7,279.8) scale(2.25)' color='rgb(255,   0,   0)'/>
	<use xlink:href='#gpPt5' transform='translate(180.5,299.7) scale(2.25)' color='rgb(255,   0,   0)'/>
	<use xlink:href='#gpPt5' transform='translate(193.2,316.9) scale(2.25)' color='rgb(255,   0,   0)'/>
	<use xlink:href='#gpPt5' transform='translate(206.0,332.1) scale(2.25)' color='rgb(255,   0,   0)'/>
	<use xlink:href='#gpPt5' transform='translate(218.8,345.8) scale(2.25)' color='rgb(255,   0,   0)'/>
	<use xlink:href='#gpPt5' transform='translate(231.6,358.4) scale(2.25)' color='rgb(255,   0,   0)'/>
	<use xlink:href='#gpPt5' transform='translate(244.4,370.0) scale(2.25)' color='rgb(255,   0,   0)'/>
	<use xlink:href='#gpPt5' transform='translate(257.2,381.0) scale(2.25)' color='rgb(255,   0,   0)'/>
	<use xlink:href='#gpPt5' transform='translate(270.0,391.7) scale(2.25)' color='rgb(255,   0,   0)'/>
	<use xlink:href='#gpPt5' transform='translate(282.8,402.3) scale(2.25)' color='rgb(255,   0,   0)'/>
	<use xlink:href='#gpPt5' transform='translate(295.6,412.7) scale(2.25)' color='rgb(255,   0,   0)'/>
	<use xlink:href='#gpPt5' transform='translate(308.4,422.6) scale(2.25)' color='rgb(255,   0,   0)'/>
	<use xlink:href='#gpPt5' transform='translate(321.2,432.1) scale(2.25)' color='rgb(255,   0,   0)'/>
	<use xlink:href='#gpPt5' transform='translate(334.0,441.8) scale(2.25)' color='rgb(255,   0,   0)'/>
	<use xlink:href='#gpPt5' transform='translate(346.8,451.5) scale(2.25)' color='rgb(255,   0,   0)'/>
	<use xlink:href='#gpPt5' transform='translate(359.5,461.0) scale(2.25)' color='rgb(255,   0,   0)'/>
	<use xlink:href='#gpPt5' transform='translate(372.3,470.3) scale(2.25)' color='rgb(255,   0,   0)'/>
	<use xlink:href='#gpPt5' transform='translate(385.1,479.5) scale(2.25)' color='rgb(255,   0,   0)'/>
	<use xlink:href='#gpPt5' transform='translate(397.9,488.4) scale(2.25)' color='rgb(255,   0,   0)'/>
	<use xlink:href='#gpPt5' transform='translate(410.7,497.4) scale(2.25)' color='rgb(255,   0,   0)'/>
	<use xlink:href='#gpPt5' transform='translate(423.5,506.4) scale(2.25)' color='rgb(255,   0,   0)'/>
	<use xlink:href='#gpPt5' transform='translate(436.3,515.0) scale(2.25)' color='rgb(255,   0,   0)'/>
	<use xlink:href='#gpPt5' transform='translate(449.1,523.2) scale(2.25)' color='rgb(255,   0,   0)'/>
	<use xlink:href='#gpPt5' transform='translate(461.9,531.8) scale(2.25)' color='rgb(255,   0,   0)'/>
	<use xlink:href='#gpPt5' transform='translate(474.7,540.4) scale(2.25)' color='rgb(255,   0,   0)'/>
	<use xlink:href='#gpPt5' transform='translate(487.5,548.7) scale(2.25)' color='rgb(255,   0,   0)'/>
	<use xlink:href='#gpPt5' transform='translate(500.3,556.1) scale(2.25)' color='rgb(255,   0,   0)'/>
	<use xlink:href='#gpPt5' transform='translate(513.1,563.6) scale(2.25)' color='rgb(255,   0,   0)'/>
	<use xlink:href='#gpPt5' transform='translate(525.8,571.7) scale(2.25)' color='rgb(255,   0,   0)'/>
	<use xlink:href='#gpPt5' transform='translate(538.6,579.5) scale(2.25)' color='rgb(255,   0,   0)'/>
	<use xlink:href='#gpPt5' transform='translate(551.4,586.4) scale(2.25)' color='rgb(255,   0,   0)'/>
	<use xlink:href='#gpPt5' transform='translate(564.2,593.2) scale(2.25)' color='rgb(255,   0,   0)'/>
	<use xlink:href='#gpPt5' transform='translate(577.0,600.5) scale(2.25)' color='rgb(255,   0,   0)'/>
	<use xlink:href='#gpPt5' transform='translate(589.8,607.2) scale(2.25)' color='rgb(255,   0,   0)'/>
	<use xlink:href='#gpPt5' transform='translate(602.6,613.1) scale(2.25)' color='rgb(255,   0,   0)'/>
	<use xlink:href='#gpPt5' transform='translate(615.4,619.4) scale(2.25)' color='rgb(255,   0,   0)'/>
	<use xlink:href='#gpPt5' transform='translate(628.2,626.1) scale(2.25)' color='rgb(255,   0,   0)'/>
	<use xlink:href='#gpPt5' transform='translate(641.0,631.9) scale(2.25)' color='rgb(255,   0,   0)'/>
	<use xlink:href='#gpPt5' transform='translate(653.8,636.8) scale(2.25)' color='rgb(255,   0,   0)'/>
	<use xlink:href='#gpPt5' transform='translate(666.6,641.8) scale(2.25)' color='rgb(255,   0,   0)'/>
	<use xlink:href='#gpPt5' transform='translate(679.4,647.3) scale(2.25)' color='rgb(255,   0,   0)'/>
	<use xlink:href='#gpPt5' transform='translate(692.1,651.7) scale(2.25)' color='rgb(255,   0,   0)'/>
	<use xlink:href='#gpPt5' transform='translate(704.9,655.7) scale(2.25)' color='rgb(255,   0,   0)'/>
	<use xlink:href='#gpPt5' transform='translate(717.7,660.3) scale(2.25)' color='rgb(255,   0,   0)'/>
	<use xlink:href='#gpPt5' transform='translate(730.5,664.8) scale(2.25)' color='rgb(255,   0,   0)'/>
	<use xlink:href='#gpPt5' transform='translate(743.3,667.5) scale(2.25)' color='rgb(255,   0,   0)'/>
	<use xlink:href='#gpPt5' transform='translate(756.1,669.8) scale(2.25)' color='rgb(255,   0,   0)'/>
	<use xlink:href='#gpPt5' transform='translate(768.9,673.0) scale(2.25)' color='rgb(255,   0,   0)'/>
	<use xlink:href='#gpPt5' transform='translate(781.7,675.7) scale(2.25)' color='rgb(255,   0,   0)'/>
	<use xlink:href='#gpPt5' transform='translate(794.5,677.3) scale(2.25)' color='rgb(255,   0,   0)'/>
	<use xlink:href='#gpPt5' transform='translate(807.3,679.1) scale(2.25)' color='rgb(255,   0,   0)'/>
	<use xlink:href='#gpPt5' transform='translate(820.1,681.2) scale(2.25)' color='rgb(255,   0,   0)'/>
	<use xlink:href='#gpPt5' transform='translate(832.9,682.1) scale(2.25)' color='rgb(255,   0,   0)'/>
	<use xlink:href='#gpPt5' transform='translate(845.6,682.6) scale(2.25)' color='rgb(255,   0,   0)'/>
	<use xlink:href='#gpPt5' transform='translate(858.4,683.4) scale(2.25)' color='rgb(255,   0,   0)'/>
	<use xlink:href='#gpPt5' transform='translate(871.2,684.0) scale(2.25)' color='rgb(255,   0,   0)'/>
	<use xlink:href='#gpPt5' transform='translate(884.0,683.4) scale(2.25)' color='rgb(255,   0,   0)'/>
	<use xlink:href='#gpPt5' transform='translate(896.8,682.7) scale(2.25)' color='rgb(255,   0,   0)'/>
	<use xlink:href='#gpPt5' transform='translate(909.6,681.4) scale(2.25)' color='rgb(255,   0,   0)'/>
	<use xlink:href='#gpPt5' transform='translate(922.4,679.6) scale(2.25)' color='rgb(255,   0,   0)'/>
	<use xlink:href='#gpPt5' transform='translate(935.2,676.9) scale(2.25)' color='rgb(255,   0,   0)'/>
	<use xlink:href='#gpPt5' transform='translate(948.0,673.1) scale(2.25)' color='rgb(255,   0,   0)'/>
	<use xlink:href='#gpPt5' transform='translate(960.8,668.5) scale(2.25)' color='rgb(255,   0,   0)'/>
	<use xlink:href='#gpPt5' transform='translate(973.6,664.4) scale(2.25)' color='rgb(255,   0,   0)'/>
	<use xlink:href='#gpPt5' transform='translate(986.4,659.6) scale(2.25)' color='rgb(255,   0,   0)'/>
	<use xlink:href='#gpPt5' transform='translate(999.2,653.4) scale(2.25)' color='rgb(255,   0,   0)'/>
	<use xlink:href='#gpPt5' transform='translate(1011.9,646.7) scale(2.25)' color='rgb(255,   0,   0)'/>
	<use xlink:href='#gpPt5' transform='translate(1024.7,640.5) scale(2.25)' color='rgb(255,   0,   0)'/>
	<use xlink:href='#gpPt5' transform='translate(1037.5,634.2) scale(2.25)' color='rgb(255,   0,   0)'/>
	<use xlink:href='#gpPt5' transform='translate(1050.3,629.2) scale(2.25)' color='rgb(255,   0,   0)'/>
	<use xlink:href='#gpPt5' transform='translate(1063.1,625.5) scale(2.25)' color='rgb(255,   0,   0)'/>
	<use xlink:href='#gpPt5' transform='translate(1075.9,622.3) scale(2.25)' color='rgb(255,   0,   0)'/>
	<use xlink:href='#gpPt5' transform='translate(1088.7,618.6) scale(2.25)' color='rgb(255,   0,   0)'/>
	<use xlink:href='#gpPt5' transform='translate(1101.5,615.1) scale(2.25)' color='rgb(255,   0,   0)'/>
	<use xlink:href='#gpPt5' transform='translate(1114.3,612.1) scale(2.25)' color='rgb(255,   0,   0)'/>
	<use xlink:href='#gpPt5' transform='translate(1127.1,609.4) scale(2.25)' color='rgb(255,   0,   0)'/>
	<use xlink:href='#gpPt5' transform='translate(1139.9,606.8) scale(2.25)' color='rgb(255,   0,   0)'/>
	<use xlink:href='#gpPt5' transform='translate(1152.7,604.2) scale(2.25)' color='rgb(255,   0,   0)'/>
	<use xlink:href='#gpPt5' transform='translate(1165.5,601.2) scale(2.25)' color='rgb(255,   0,   0)'/>
	<use xlink:href='#gpPt5' transform='translate(1178.2,599.4) scale(2.25)' color='rgb(255,   0,   0)'/>
	<use xlink:href='#gpPt5' transform='translate(1191.0,600.3) scale(2.25)' color='rgb(255,   0,   0)'/>
	<use xlink:href='#gpPt5' transform='translate(1203.8,605.2) scale(2.25)' color='rgb(255,   0,   0)'/>
	<use xlink:href='#gpPt5' transform='translate(1216.6,610.2) scale(2.25)' color='rgb(255,   0,   0)'/>
	<use xlink:href='#gpPt5' transform='translate(1229.4,606.9) scale(2.25)' color='rgb(255,   0,   0)'/>
	<use xlink:href='#gpPt5' transform='translate(1242.2,595.6) scale(2.25)' color='rgb(255,   0,   0)'/>
	<use xlink:href='#gpPt5' transform='translate(1255.0,585.7) scale(2.25)' color='rgb(255,   0,   0)'/>
	<use xlink:href='#gpPt5' transform='translate(1217.3,72.1) scale(2.25)' color='rgb(255,   0,   0)'/>
</g>
	</g>
	<g id="gnuplot_plot_2" ><title>gnuplot_plot_2</title>
<g fill="none" color="black" stroke="currentColor" stroke-width="1.00" stroke-linecap="butt" stroke-linejoin="miter">
	<use xlink:href='#gpPt5' transform='translate(103.7,84.4) scale(2.25)' color='rgb(  0, 100,   0)'/>
	<use xlink:href='#gpPt5' transform='translate(104.3,87.0) scale(2.25)' color='rgb(  0, 100,   0)'/>
	<use xlink:href='#gpPt5' transform='translate(105.0,92.6) scale(2.25)' color='rgb(  0, 100,   0)'/>
	<use xlink:href='#gpPt5' transform='translate(105.6,98.5) scale(2.25)' color='rgb(  0, 100,   0)'/>
	<use xlink:href='#gpPt5' transform='translate(106.3,103.9) scale(2.25)' color='rgb(  0, 100,   0)'/>
	<use xlink:href='#gpPt5' transform='translate(106.9,108.5) scale(2.25)' color='rgb(  0, 100,   0)'/>
	<use xlink:href='#gpPt5' transform='translate(107.5,112.7) scale(2.25)' color='rgb(  0, 100,   0)'/>
	<use xlink:href='#gpPt5' transform='translate(108.2,116.3) scale(2.25)' color='rgb(  0, 100,   0)'/>
	<use xlink:href='#gpPt5' transform='translate(108.8,119.5) scale(2.25)' color='rgb(  0, 100,   0)'/>
	<use xlink:href='#gpPt5' transform='translate(109.5,122.5) scale(2.25)' color='rgb(  0, 100,   0)'/>
	<use xlink:href='#gpPt5' transform='translate(110.1,125.3) scale(2.25)' color='rgb(  0, 100,   0)'/>
	<use xlink:href='#gpPt5' transform='translate(110.7,127.9) scale(2.25)' color='rgb(  0, 100,   0)'/>
	<use xlink:href='#gpPt5' transform='translate(111.4,130.4) scale(2.25)' color='rgb(  0, 100,   0)'/>
	<use xlink:href='#gpPt5' transform='translate(112.0,132.9) scale(2.25)' color='rgb(  0, 100,   0)'/>
	<use xlink:href='#gpPt5' transform='translate(112.7,135.2) scale(2.25)' color='rgb(  0, 100,   0)'/>
	<use xlink:href='#gpPt5' transform='translate(113.3,137.5) scale(2.25)' color='rgb(  0, 100,   0)'/>
	<use xlink:href='#gpPt5' transform='translate(113.9,139.8) scale(2.25)' color='rgb(  0, 100,   0)'/>
	<use xlink:href='#gpPt5' transform='translate(114.6,142.1) scale(2.25)' color='rgb(  0, 100,   0)'/>
	<use xlink:href='#gpPt5' transform='translate(115.2,144.3) scale(2.25)' color='rgb(  0, 100,   0)'/>
	<use xlink:href='#gpPt5' transform='translate(115.9,146.5) scale(2.25)' color='rgb(  0, 100,   0)'/>
	<use xlink:href='#gpPt5' transform='translate(116.5,148.7) scale(2.25)' color='rgb(  0, 100,   0)'/>
	<use xlink:href='#gpPt5' transform='translate(122.9,170.0) scale(2.25)' color='rgb(  0, 100,   0)'/>
	<use xlink:href='#gpPt5' transform='translate(129.3,190.2) scale(2.25)' color='rgb(  0, 100,   0)'/>
	<use xlink:href='#gpPt5' transform='translate(135.7,208.7) scale(2.25)' color='rgb(  0, 100,   0)'/>
	<use xlink:href='#gpPt5' transform='translate(142.1,225.5) scale(2.25)' color='rgb(  0, 100,   0)'/>
	<use xlink:href='#gpPt5' transform='translate(154.9,254.9) scale(2.25)' color='rgb(  0, 100,   0)'/>
	<use xlink:href='#gpPt5' transform='translate(167.7,279.3) scale(2.25)' color='rgb(  0, 100,   0)'/>
	<use xlink:href='#gpPt5' transform='translate(180.5,299.6) scale(2.25)' color='rgb(  0, 100,   0)'/>
	<use xlink:href='#gpPt5' transform='translate(193.2,316.9) scale(2.25)' color='rgb(  0, 100,   0)'/>
	<use xlink:href='#gpPt5' transform='translate(206.0,331.7) scale(2.25)' color='rgb(  0, 100,   0)'/>
	<use xlink:href='#gpPt5' transform='translate(218.8,344.7) scale(2.25)' color='rgb(  0, 100,   0)'/>
	<use xlink:href='#gpPt5' transform='translate(231.6,356.6) scale(2.25)' color='rgb(  0, 100,   0)'/>
	<use xlink:href='#gpPt5' transform='translate(244.4,368.2) scale(2.25)' color='rgb(  0, 100,   0)'/>
	<use xlink:href='#gpPt5' transform='translate(257.2,379.3) scale(2.25)' color='rgb(  0, 100,   0)'/>
	<use xlink:href='#gpPt5' transform='translate(270.0,389.8) scale(2.25)' color='rgb(  0, 100,   0)'/>
	<use xlink:href='#gpPt5' transform='translate(282.8,399.9) scale(2.25)' color='rgb(  0, 100,   0)'/>
	<use xlink:href='#gpPt5' transform='translate(295.6,409.6) scale(2.25)' color='rgb(  0, 100,   0)'/>
	<use xlink:href='#gpPt5' transform='translate(308.4,419.4) scale(2.25)' color='rgb(  0, 100,   0)'/>
	<use xlink:href='#gpPt5' transform='translate(321.2,429.4) scale(2.25)' color='rgb(  0, 100,   0)'/>
	<use xlink:href='#gpPt5' transform='translate(334.0,439.1) scale(2.25)' color='rgb(  0, 100,   0)'/>
	<use xlink:href='#gpPt5' transform='translate(346.8,448.5) scale(2.25)' color='rgb(  0, 100,   0)'/>
	<use xlink:href='#gpPt5' transform='translate(359.5,457.7) scale(2.25)' color='rgb(  0, 100,   0)'/>
	<use xlink:href='#gpPt5' transform='translate(372.3,466.9) scale(2.25)' color='rgb(  0, 100,   0)'/>
	<use xlink:href='#gpPt5' transform='translate(385.1,476.1) scale(2.25)' color='rgb(  0, 100,   0)'/>
	<use xlink:href='#gpPt5' transform='translate(397.9,485.3) scale(2.25)' color='rgb(  0, 100,   0)'/>
	<use xlink:href='#gpPt5' transform='translate(410.7,494.2) scale(2.25)' color='rgb(  0, 100,   0)'/>
	<use xlink:href='#gpPt5' transform='translate(423.5,502.7) scale(2.25)' color='rgb(  0, 100,   0)'/>
	<use xlink:href='#gpPt5' transform='translate(436.3,511.5) scale(2.25)' color='rgb(  0, 100,   0)'/>
	<use xlink:href='#gpPt5' transform='translate(449.1,520.5) scale(2.25)' color='rgb(  0, 100,   0)'/>
	<use xlink:href='#gpPt5' transform='translate(461.9,528.7) scale(2.25)' color='rgb(  0, 100,   0)'/>
	<use xlink:href='#gpPt5' transform='translate(474.7,536.7) scale(2.25)' color='rgb(  0, 100,   0)'/>
	<use xlink:href='#gpPt5' transform='translate(487.5,544.7) scale(2.25)' color='rgb(  0, 100,   0)'/>
	<use xlink:href='#gpPt5' transform='translate(500.3,553.2) scale(2.25)' color='rgb(  0, 100,   0)'/>
	<use xlink:href='#gpPt5' transform='translate(513.1,561.0) scale(2.25)' color='rgb(  0, 100,   0)'/>
	<use xlink:href='#gpPt5' transform='translate(525.8,568.5) scale(2.25)' color='rgb(  0, 100,   0)'/>
	<use xlink:href='#gpPt5' transform='translate(538.6,575.8) scale(2.25)' color='rgb(  0, 100,   0)'/>
	<use xlink:href='#gpPt5' transform='translate(551.4,583.3) scale(2.25)' color='rgb(  0, 100,   0)'/>
	<use xlink:href='#gpPt5' transform='translate(564.2,590.5) scale(2.25)' color='rgb(  0, 100,   0)'/>
	<use xlink:href='#gpPt5' transform='translate(577.0,597.3) scale(2.25)' color='rgb(  0, 100,   0)'/>
	<use xlink:href='#gpPt5' transform='translate(589.8,603.7) scale(2.25)' color='rgb(  0, 100,   0)'/>
	<use xlink:href='#gpPt5' transform='translate(602.6,610.7) scale(2.25)' color='rgb(  0, 100,   0)'/>
	<use xlink:href='#gpPt5' transform='translate(615.4,617.0) scale(2.25)' color='rgb(  0, 100,   0)'/>
	<use xlink:href='#gpPt5' transform='translate(628.2,622.7) scale(2.25)' color='rgb(  0, 100,   0)'/>
	<use xlink:href='#gpPt5' transform='translate(641.0,628.0) scale(2.25)' color='rgb(  0, 100,   0)'/>
	<use xlink:href='#gpPt5' transform='translate(653.8,634.1) scale(2.25)' color='rgb(  0, 100,   0)'/>
	<use xlink:href='#gpPt5' transform='translate(666.6,639.4) scale(2.25)' color='rgb(  0, 100,   0)'/>
	<use xlink:href='#gpPt5' transform='translate(679.4,644.3) scale(2.25)' color='rgb(  0, 100,   0)'/>
	<use xlink:href='#gpPt5' transform='translate(692.1,648.8) scale(2.25)' color='rgb(  0, 100,   0)'/>
	<use xlink:href='#gpPt5' transform='translate(704.9,653.2) scale(2.25)' color='rgb(  0, 100,   0)'/>
	<use xlink:href='#gpPt5' transform='translate(717.7,656.7) scale(2.25)' color='rgb(  0, 100,   0)'/>
	<use xlink:href='#gpPt5' transform='translate(730.5,660.2) scale(2.25)' color='rgb(  0, 100,   0)'/>
	<use xlink:href='#gpPt5' transform='translate(743.3,664.0) scale(2.25)' color='rgb(  0, 100,   0)'/>
	<use xlink:href='#gpPt5' transform='translate(756.1,667.6) scale(2.25)' color='rgb(  0, 100,   0)'/>
	<use xlink:href='#gpPt5' transform='translate(768.9,669.9) scale(2.25)' color='rgb(  0, 100,   0)'/>
	<use xlink:href='#gpPt5' transform='translate(781.7,672.3) scale(2.25)' color='rgb(  0, 100,   0)'/>
	<use xlink:href='#gpPt5' transform='translate(794.5,674.9) scale(2.25)' color='rgb(  0, 100,   0)'/>
	<use xlink:href='#gpPt5' transform='translate(807.3,677.3) scale(2.25)' color='rgb(  0, 100,   0)'/>
	<use xlink:href='#gpPt5' transform='translate(820.1,678.8) scale(2.25)' color='rgb(  0, 100,   0)'/>
	<use xlink:href='#gpPt5' transform='translate(832.9,680.0) scale(2.25)' color='rgb(  0, 100,   0)'/>
	<use xlink:href='#gpPt5' transform='translate(845.6,681.2) scale(2.25)' color='rgb(  0, 100,   0)'/>
	<use xlink:href='#gpPt5' transform='translate(858.4,682.1) scale(2.25)' color='rgb(  0, 100,   0)'/>
	<use xlink:href='#gpPt5' transform='translate(871.2,681.7) scale(2.25)' color='rgb(  0, 100,   0)'/>
	<use xlink:href='#gpPt5' transform='translate(884.0,681.5) scale(2.25)' color='rgb(  0, 100,   0)'/>
	<use xlink:href='#gpPt5' transform='translate(896.8,680.7) scale(2.25)' color='rgb(  0, 100,   0)'/>
	<use xlink:href='#gpPt5' transform='translate(909.6,678.7) scale(2.25)' color='rgb(  0, 100,   0)'/>
	<use xlink:href='#gpPt5' transform='translate(922.4,676.3) scale(2.25)' color='rgb(  0, 100,   0)'/>
	<use xlink:href='#gpPt5' transform='translate(935.2,674.2) scale(2.25)' color='rgb(  0, 100,   0)'/>
	<use xlink:href='#gpPt5' transform='translate(948.0,671.3) scale(2.25)' color='rgb(  0, 100,   0)'/>
	<use xlink:href='#gpPt5' transform='translate(960.8,667.5) scale(2.25)' color='rgb(  0, 100,   0)'/>
	<use xlink:href='#gpPt5' transform='translate(973.6,662.5) scale(2.25)' color='rgb(  0, 100,   0)'/>
	<use xlink:href='#gpPt5' transform='translate(986.4,656.6) scale(2.25)' color='rgb(  0, 100,   0)'/>
	<use xlink:href='#gpPt5' transform='translate(999.2,650.9) scale(2.25)' color='rgb(  0, 100,   0)'/>
	<use xlink:href='#gpPt5' transform='translate(1011.9,644.5) scale(2.25)' color='rgb(  0, 100,   0)'/>
	<use xlink:href='#gpPt5' transform='translate(1024.7,637.8) scale(2.25)' color='rgb(  0, 100,   0)'/>
	<use xlink:href='#gpPt5' transform='translate(1037.5,631.4) scale(2.25)' color='rgb(  0, 100,   0)'/>
	<use xlink:href='#gpPt5' transform='translate(1050.3,626.1) scale(2.25)' color='rgb(  0, 100,   0)'/>
	<use xlink:href='#gpPt5' transform='translate(1063.1,621.1) scale(2.25)' color='rgb(  0, 100,   0)'/>
	<use xlink:href='#gpPt5' transform='translate(1075.9,616.6) scale(2.25)' color='rgb(  0, 100,   0)'/>
	<use xlink:href='#gpPt5' transform='translate(1088.7,613.5) scale(2.25)' color='rgb(  0, 100,   0)'/>
	<use xlink:href='#gpPt5' transform='translate(1101.5,612.2) scale(2.25)' color='rgb(  0, 100,   0)'/>
	<use xlink:href='#gpPt5' transform='translate(1114.3,610.8) scale(2.25)' color='rgb(  0, 100,   0)'/>
	<use xlink:href='#gpPt5' transform='translate(1127.1,607.6) scale(2.25)' color='rgb(  0, 100,   0)'/>
	<use xlink:href='#gpPt5' transform='translate(1139.9,603.2) scale(2.25)' color='rgb(  0, 100,   0)'/>
	<use xlink:href='#gpPt5' transform='translate(1152.7,599.3) scale(2.25)' color='rgb(  0, 100,   0)'/>
	<use xlink:href='#gpPt5' transform='translate(1165.5,597.5) scale(2.25)' color='rgb(  0, 100,   0)'/>
	<use xlink:href='#gpPt5' transform='translate(1178.2,597.2) scale(2.25)' color='rgb(  0, 100,   0)'/>
	<use xlink:href='#gpPt5' transform='translate(1191.0,600.2) scale(2.25)' color='rgb(  0, 100,   0)'/>
	<use xlink:href='#gpPt5' transform='translate(1203.8,605.1) scale(2.25)' color='rgb(  0, 100,   0)'/>
	<use xlink:href='#gpPt5' transform='translate(1216.6,606.7) scale(2.25)' color='rgb(  0, 100,   0)'/>
	<use xlink:href='#gpPt5' transform='translate(1229.4,601.4) scale(2.25)' color='rgb(  0, 100,   0)'/>
	<use xlink:href='#gpPt5' transform='translate(1242.2,587.3) scale(2.25)' color='rgb(  0, 100,   0)'/>
	<use xlink:href='#gpPt5' transform='translate(1255.0,574.3) scale(2.25)' color='rgb(  0, 100,   0)'/>
</g>
	</g>
	<g id="gnuplot_plot_3" ><title>gnuplot_plot_3</title>
<g fill="none" color="black" stroke="currentColor" stroke-width="1.00" stroke-linecap="butt" stroke-linejoin="miter">
	<use xlink:href='#gpPt5' transform='translate(103.7,54.1) scale(2.25)' color='rgb(  0,   0, 255)'/>
	<use xlink:href='#gpPt5' transform='translate(104.3,57.8) scale(2.25)' color='rgb(  0,   0, 255)'/>
	<use xlink:href='#gpPt5' transform='translate(105.0,65.1) scale(2.25)' color='rgb(  0,   0, 255)'/>
	<use xlink:href='#gpPt5' transform='translate(105.6,72.2) scale(2.25)' color='rgb(  0,   0, 255)'/>
	<use xlink:href='#gpPt5' transform='translate(106.3,78.2) scale(2.25)' color='rgb(  0,   0, 255)'/>
	<use xlink:href='#gpPt5' transform='translate(106.9,83.3) scale(2.25)' color='rgb(  0,   0, 255)'/>
	<use xlink:href='#gpPt5' transform='translate(107.5,87.8) scale(2.25)' color='rgb(  0,   0, 255)'/>
	<use xlink:href='#gpPt5' transform='translate(108.2,91.7) scale(2.25)' color='rgb(  0,   0, 255)'/>
	<use xlink:href='#gpPt5' transform='translate(108.8,95.3) scale(2.25)' color='rgb(  0,   0, 255)'/>
	<use xlink:href='#gpPt5' transform='translate(109.5,98.6) scale(2.25)' color='rgb(  0,   0, 255)'/>
	<use xlink:href='#gpPt5' transform='translate(110.1,101.7) scale(2.25)' color='rgb(  0,   0, 255)'/>
	<use xlink:href='#gpPt5' transform='translate(110.7,104.7) scale(2.25)' color='rgb(  0,   0, 255)'/>
	<use xlink:href='#gpPt5' transform='translate(111.4,107.6) scale(2.25)' color='rgb(  0,   0, 255)'/>
	<use xlink:href='#gpPt5' transform='translate(112.0,110.5) scale(2.25)' color='rgb(  0,   0, 255)'/>
	<use xlink:href='#gpPt5' transform='translate(112.7,113.3) scale(2.25)' color='rgb(  0,   0, 255)'/>
	<use xlink:href='#gpPt5' transform='translate(113.3,116.1) scale(2.25)' color='rgb(  0,   0, 255)'/>
	<use xlink:href='#gpPt5' transform='translate(113.9,118.8) scale(2.25)' color='rgb(  0,   0, 255)'/>
	<use xlink:href='#gpPt5' transform='translate(114.6,121.6) scale(2.25)' color='rgb(  0,   0, 255)'/>
	<use xlink:href='#gpPt5' transform='translate(115.2,124.3) scale(2.25)' color='rgb(  0,   0, 255)'/>
	<use xlink:href='#gpPt5' transform='translate(115.9,127.0) scale(2.25)' color='rgb(  0,   0, 255)'/>
	<use xlink:href='#gpPt5' transform='translate(116.5,129.7) scale(2.25)' color='rgb(  0,   0, 255)'/>
	<use xlink:href='#gpPt5' transform='translate(122.9,155.6) scale(2.25)' color='rgb(  0,   0, 255)'/>
	<use xlink:href='#gpPt5' transform='translate(129.3,179.7) scale(2.25)' color='rgb(  0,   0, 255)'/>
	<use xlink:href='#gpPt5' transform='translate(135.7,201.3) scale(2.25)' color='rgb(  0,   0, 255)'/>
	<use xlink:href='#gpPt5' transform='translate(142.1,220.6) scale(2.25)' color='rgb(  0,   0, 255)'/>
	<use xlink:href='#gpPt5' transform='translate(154.9,252.5) scale(2.25)' color='rgb(  0,   0, 255)'/>
	<use xlink:href='#gpPt5' transform='translate(167.7,277.6) scale(2.25)' color='rgb(  0,   0, 255)'/>
	<use xlink:href='#gpPt5' transform='translate(180.5,297.8) scale(2.25)' color='rgb(  0,   0, 255)'/>
	<use xlink:href='#gpPt5' transform='translate(193.2,314.4) scale(2.25)' color='rgb(  0,   0, 255)'/>
	<use xlink:href='#gpPt5' transform='translate(206.0,328.4) scale(2.25)' color='rgb(  0,   0, 255)'/>
	<use xlink:href='#gpPt5' transform='translate(218.8,340.9) scale(2.25)' color='rgb(  0,   0, 255)'/>
	<use xlink:href='#gpPt5' transform='translate(231.6,352.3) scale(2.25)' color='rgb(  0,   0, 255)'/>
	<use xlink:href='#gpPt5' transform='translate(244.4,363.1) scale(2.25)' color='rgb(  0,   0, 255)'/>
	<use xlink:href='#gpPt5' transform='translate(257.2,373.7) scale(2.25)' color='rgb(  0,   0, 255)'/>
	<use xlink:href='#gpPt5' transform='translate(270.0,383.8) scale(2.25)' color='rgb(  0,   0, 255)'/>
	<use xlink:href='#gpPt5' transform='translate(282.8,393.8) scale(2.25)' color='rgb(  0,   0, 255)'/>
	<use xlink:href='#gpPt5' transform='translate(295.6,403.5) scale(2.25)' color='rgb(  0,   0, 255)'/>
	<use xlink:href='#gpPt5' transform='translate(308.4,412.9) scale(2.25)' color='rgb(  0,   0, 255)'/>
	<use xlink:href='#gpPt5' transform='translate(321.2,422.3) scale(2.25)' color='rgb(  0,   0, 255)'/>
	<use xlink:href='#gpPt5' transform='translate(334.0,431.8) scale(2.25)' color='rgb(  0,   0, 255)'/>
	<use xlink:href='#gpPt5' transform='translate(346.8,441.4) scale(2.25)' color='rgb(  0,   0, 255)'/>
	<use xlink:href='#gpPt5' transform='translate(359.5,450.7) scale(2.25)' color='rgb(  0,   0, 255)'/>
	<use xlink:href='#gpPt5' transform='translate(372.3,459.2) scale(2.25)' color='rgb(  0,   0, 255)'/>
	<use xlink:href='#gpPt5' transform='translate(385.1,468.3) scale(2.25)' color='rgb(  0,   0, 255)'/>
	<use xlink:href='#gpPt5' transform='translate(397.9,477.7) scale(2.25)' color='rgb(  0,   0, 255)'/>
	<use xlink:href='#gpPt5' transform='translate(410.7,486.5) scale(2.25)' color='rgb(  0,   0, 255)'/>
	<use xlink:href='#gpPt5' transform='translate(423.5,494.8) scale(2.25)' color='rgb(  0,   0, 255)'/>
	<use xlink:href='#gpPt5' transform='translate(436.3,503.3) scale(2.25)' color='rgb(  0,   0, 255)'/>
	<use xlink:href='#gpPt5' transform='translate(449.1,511.9) scale(2.25)' color='rgb(  0,   0, 255)'/>
	<use xlink:href='#gpPt5' transform='translate(461.9,520.6) scale(2.25)' color='rgb(  0,   0, 255)'/>
	<use xlink:href='#gpPt5' transform='translate(474.7,529.0) scale(2.25)' color='rgb(  0,   0, 255)'/>
	<use xlink:href='#gpPt5' transform='translate(487.5,536.5) scale(2.25)' color='rgb(  0,   0, 255)'/>
	<use xlink:href='#gpPt5' transform='translate(500.3,544.3) scale(2.25)' color='rgb(  0,   0, 255)'/>
	<use xlink:href='#gpPt5' transform='translate(513.1,552.5) scale(2.25)' color='rgb(  0,   0, 255)'/>
	<use xlink:href='#gpPt5' transform='translate(525.8,560.5) scale(2.25)' color='rgb(  0,   0, 255)'/>
	<use xlink:href='#gpPt5' transform='translate(538.6,567.5) scale(2.25)' color='rgb(  0,   0, 255)'/>
	<use xlink:href='#gpPt5' transform='translate(551.4,574.6) scale(2.25)' color='rgb(  0,   0, 255)'/>
	<use xlink:href='#gpPt5' transform='translate(564.2,582.4) scale(2.25)' color='rgb(  0,   0, 255)'/>
	<use xlink:href='#gpPt5' transform='translate(577.0,589.5) scale(2.25)' color='rgb(  0,   0, 255)'/>
	<use xlink:href='#gpPt5' transform='translate(589.8,595.9) scale(2.25)' color='rgb(  0,   0, 255)'/>
	<use xlink:href='#gpPt5' transform='translate(602.6,601.8) scale(2.25)' color='rgb(  0,   0, 255)'/>
	<use xlink:href='#gpPt5' transform='translate(615.4,608.6) scale(2.25)' color='rgb(  0,   0, 255)'/>
	<use xlink:href='#gpPt5' transform='translate(628.2,615.3) scale(2.25)' color='rgb(  0,   0, 255)'/>
	<use xlink:href='#gpPt5' transform='translate(641.0,621.3) scale(2.25)' color='rgb(  0,   0, 255)'/>
	<use xlink:href='#gpPt5' transform='translate(653.8,625.9) scale(2.25)' color='rgb(  0,   0, 255)'/>
	<use xlink:href='#gpPt5' transform='translate(666.6,631.5) scale(2.25)' color='rgb(  0,   0, 255)'/>
	<use xlink:href='#gpPt5' transform='translate(679.4,637.1) scale(2.25)' color='rgb(  0,   0, 255)'/>
	<use xlink:href='#gpPt5' transform='translate(692.1,641.2) scale(2.25)' color='rgb(  0,   0, 255)'/>
	<use xlink:href='#gpPt5' transform='translate(704.9,645.1) scale(2.25)' color='rgb(  0,   0, 255)'/>
	<use xlink:href='#gpPt5' transform='translate(717.7,649.8) scale(2.25)' color='rgb(  0,   0, 255)'/>
	<use xlink:href='#gpPt5' transform='translate(730.5,653.6) scale(2.25)' color='rgb(  0,   0, 255)'/>
	<use xlink:href='#gpPt5' transform='translate(743.3,656.7) scale(2.25)' color='rgb(  0,   0, 255)'/>
	<use xlink:href='#gpPt5' transform='translate(756.1,659.5) scale(2.25)' color='rgb(  0,   0, 255)'/>
	<use xlink:href='#gpPt5' transform='translate(768.9,662.2) scale(2.25)' color='rgb(  0,   0, 255)'/>
	<use xlink:href='#gpPt5' transform='translate(781.7,664.8) scale(2.25)' color='rgb(  0,   0, 255)'/>
	<use xlink:href='#gpPt5' transform='translate(794.5,667.4) scale(2.25)' color='rgb(  0,   0, 255)'/>
	<use xlink:href='#gpPt5' transform='translate(807.3,669.2) scale(2.25)' color='rgb(  0,   0, 255)'/>
	<use xlink:href='#gpPt5' transform='translate(820.1,670.3) scale(2.25)' color='rgb(  0,   0, 255)'/>
	<use xlink:href='#gpPt5' transform='translate(832.9,672.9) scale(2.25)' color='rgb(  0,   0, 255)'/>
	<use xlink:href='#gpPt5' transform='translate(845.6,674.9) scale(2.25)' color='rgb(  0,   0, 255)'/>
	<use xlink:href='#gpPt5' transform='translate(858.4,675.8) scale(2.25)' color='rgb(  0,   0, 255)'/>
	<use xlink:href='#gpPt5' transform='translate(871.2,676.3) scale(2.25)' color='rgb(  0,   0, 255)'/>
	<use xlink:href='#gpPt5' transform='translate(884.0,676.3) scale(2.25)' color='rgb(  0,   0, 255)'/>
	<use xlink:href='#gpPt5' transform='translate(896.8,674.9) scale(2.25)' color='rgb(  0,   0, 255)'/>
	<use xlink:href='#gpPt5' transform='translate(909.6,673.7) scale(2.25)' color='rgb(  0,   0, 255)'/>
	<use xlink:href='#gpPt5' transform='translate(922.4,672.2) scale(2.25)' color='rgb(  0,   0, 255)'/>
	<use xlink:href='#gpPt5' transform='translate(935.2,669.5) scale(2.25)' color='rgb(  0,   0, 255)'/>
	<use xlink:href='#gpPt5' transform='translate(948.0,666.2) scale(2.25)' color='rgb(  0,   0, 255)'/>
	<use xlink:href='#gpPt5' transform='translate(960.8,661.5) scale(2.25)' color='rgb(  0,   0, 255)'/>
	<use xlink:href='#gpPt5' transform='translate(973.6,657.0) scale(2.25)' color='rgb(  0,   0, 255)'/>
	<use xlink:href='#gpPt5' transform='translate(986.4,652.4) scale(2.25)' color='rgb(  0,   0, 255)'/>
	<use xlink:href='#gpPt5' transform='translate(999.2,645.7) scale(2.25)' color='rgb(  0,   0, 255)'/>
	<use xlink:href='#gpPt5' transform='translate(1011.9,638.3) scale(2.25)' color='rgb(  0,   0, 255)'/>
	<use xlink:href='#gpPt5' transform='translate(1024.7,631.2) scale(2.25)' color='rgb(  0,   0, 255)'/>
	<use xlink:href='#gpPt5' transform='translate(1037.5,622.7) scale(2.25)' color='rgb(  0,   0, 255)'/>
	<use xlink:href='#gpPt5' transform='translate(1050.3,616.5) scale(2.25)' color='rgb(  0,   0, 255)'/>
	<use xlink:href='#gpPt5' transform='translate(1063.1,612.6) scale(2.25)' color='rgb(  0,   0, 255)'/>
	<use xlink:href='#gpPt5' transform='translate(1075.9,607.8) scale(2.25)' color='rgb(  0,   0, 255)'/>
	<use xlink:href='#gpPt5' transform='translate(1088.7,604.2) scale(2.25)' color='rgb(  0,   0, 255)'/>
	<use xlink:href='#gpPt5' transform='translate(1101.5,602.8) scale(2.25)' color='rgb(  0,   0, 255)'/>
	<use xlink:href='#gpPt5' transform='translate(1114.3,600.7) scale(2.25)' color='rgb(  0,   0, 255)'/>
	<use xlink:href='#gpPt5' transform='translate(1127.1,598.3) scale(2.25)' color='rgb(  0,   0, 255)'/>
	<use xlink:href='#gpPt5' transform='translate(1139.9,595.7) scale(2.25)' color='rgb(  0,   0, 255)'/>
	<use xlink:href='#gpPt5' transform='translate(1152.7,592.0) scale(2.25)' color='rgb(  0,   0, 255)'/>
	<use xlink:href='#gpPt5' transform='translate(1165.5,588.7) scale(2.25)' color='rgb(  0,   0, 255)'/>
	<use xlink:href='#gpPt5' transform='translate(1178.2,586.6) scale(2.25)' color='rgb(  0,   0, 255)'/>
	<use xlink:href='#gpPt5' transform='translate(1191.0,586.4) scale(2.25)' color='rgb(  0,   0, 255)'/>
	<use xlink:href='#gpPt5' transform='translate(1203.8,588.3) scale(2.25)' color='rgb(  0,   0, 255)'/>
	<use xlink:href='#gpPt5' transform='translate(1216.6,589.5) scale(2.25)' color='rgb(  0,   0, 255)'/>
	<use xlink:href='#gpPt5' transform='translate(1229.4,584.9) scale(2.25)' color='rgb(  0,   0, 255)'/>
	<use xlink:href='#gpPt5' transform='translate(1242.2,571.7) scale(2.25)' color='rgb(  0,   0, 255)'/>
	<use xlink:href='#gpPt5' transform='translate(1255.0,557.2) scale(2.25)' color='rgb(  0,   0, 255)'/>
</g>
	</g>
	<g id="gnuplot_plot_4" ><title>fit</title>
<g fill="none" color="black" stroke="currentColor" stroke-width="1.00" stroke-linecap="butt" stroke-linejoin="miter">
	<g transform="translate(1187.9,94.0)" stroke="none" fill="black" font-family="Arial" font-size="12.00"  text-anchor="end">
		<text><tspan font-family="Arial" >fit</tspan></text>
	</g>
</g>
<g fill="none" color="black" stroke="currentColor" stroke-width="1.00" stroke-linecap="butt" stroke-linejoin="miter">
	<path stroke='rgb(255,   0,   0)'  d='M1196.2,90.1 L1238.4,90.1 M103.7,134.4 L104.8,134.5 L106.0,134.6 L107.1,134.8 L108.2,135.1 L109.3,135.4
		L110.5,135.9 L111.6,136.4 L112.7,137.0 L113.8,137.7 L115.0,138.4 L116.1,139.2 L117.2,140.1 L118.3,141.1
		L119.5,142.1 L120.6,143.2 L121.7,144.3 L122.8,145.6 L124.0,146.8 L125.1,148.2 L126.2,149.6 L127.3,151.0
		L128.5,152.5 L129.6,154.1 L130.7,155.7 L131.8,157.3 L133.0,159.0 L134.1,160.7 L135.2,162.5 L136.3,164.3
		L137.5,166.2 L138.6,168.0 L139.7,170.0 L140.8,171.9 L142.0,173.9 L143.1,175.8 L144.2,177.9 L145.3,179.9
		L146.5,182.0 L147.6,184.0 L148.7,186.1 L149.8,188.2 L151.0,190.4 L152.1,192.5 L153.2,194.7 L154.3,196.8
		L155.5,199.0 L156.6,201.2 L157.7,203.3 L158.8,205.5 L160.0,207.7 L161.1,209.9 L162.2,212.1 L163.3,214.3
		L164.5,216.5 L165.6,218.8 L166.7,221.0 L167.8,223.2 L169.0,225.4 L170.1,227.6 L171.2,229.8 L172.4,232.0
		L173.5,234.2 L174.6,236.3 L175.7,238.5 L176.9,240.7 L178.0,242.9 L179.1,245.0 L180.2,247.2 L181.4,249.3
		L182.5,251.5 L183.6,253.6 L184.7,255.7 L185.9,257.9 L187.0,260.0 L188.1,262.1 L189.2,264.2 L190.4,266.3
		L191.5,268.3 L192.6,270.4 L193.7,272.5 L194.9,274.5 L196.0,276.5 L197.1,278.6 L198.2,280.6 L199.4,282.6
		L200.5,284.6 L201.6,286.6 L202.7,288.6 L203.9,290.5 L205.0,292.5 L206.1,294.4 L207.2,296.4 L208.4,298.3
		L209.5,300.2 L210.6,302.1 L211.7,304.0 L212.9,305.9 L214.0,307.8 L215.1,309.7 L216.2,311.5 L217.4,313.4
		L218.5,315.2 L219.6,317.0 L220.7,318.8 L221.9,320.6 L223.0,322.4 L224.1,324.2 L225.2,326.0 L226.4,327.7
		L227.5,329.5 L228.6,331.2 L229.7,333.0 L230.9,334.7 L232.0,336.4 L233.1,338.1 L234.2,339.8 L235.4,341.5
		L236.5,343.2 L237.6,344.8 L238.7,346.5 L239.9,348.1 L241.0,349.8 L242.1,351.4 L243.3,353.0 L244.4,354.6
		L245.5,356.3 L246.6,357.8 L247.8,359.4 L248.9,361.0 L250.0,362.6 L251.1,364.1 L252.3,365.7 L253.4,367.2
		L254.5,368.7 L255.6,370.3 L256.8,371.8 L257.9,373.3 L259.0,374.8 L260.1,376.3 L261.3,377.8 L262.4,379.2
		L263.5,380.7 L264.6,382.2 L265.8,383.6 L266.9,385.1 L268.0,386.5 L269.1,387.9 L270.3,389.3 L271.4,390.7
		L272.5,392.1 L273.6,393.5 L274.8,394.9 L275.9,396.3 L277.0,397.7 L278.1,399.1 L279.3,400.4 L280.4,401.8
		L281.5,403.1 L282.6,404.4 L283.8,405.8 L284.9,407.1 L286.0,408.4 L287.1,409.7 L288.3,411.0 L289.4,412.3
		L290.5,413.6 L291.6,414.9 L292.8,416.2 L293.9,417.4 L295.0,418.7 L296.1,420.0 L297.3,421.2 L298.4,422.5
		L299.5,423.7 L300.6,424.9 L301.8,426.2 L302.9,427.4 L304.0,428.6 L305.1,429.8 L306.3,431.0 L307.4,432.2
		L308.5,433.4 L309.7,434.6 L310.8,435.8 L311.9,436.9 L313.0,438.1 L314.2,439.3 L315.3,440.4 L316.4,441.6
		L317.5,442.7 L318.7,443.8 L319.8,445.0 L320.9,446.1 L322.0,447.2 L323.2,448.3 L324.3,449.5 L325.4,450.6
		L326.5,451.7 L327.7,452.8 L328.8,453.8 L329.9,454.9 L331.0,456.0 L332.2,457.1 L333.3,458.2 L334.4,459.2
		L335.5,460.3 L336.7,461.3 L337.8,462.4 L338.9,463.4 L340.0,464.5 L341.2,465.5 L342.3,466.6 L343.4,467.6
		L344.5,468.6 L345.7,469.6 L346.8,470.6 L347.9,471.6 L349.0,472.7 L350.2,473.7 L351.3,474.6 L352.4,475.6
		L353.5,476.6 L354.7,477.6 L355.8,478.6 L356.9,479.6 L358.0,480.5 L359.2,481.5 L360.3,482.5 L361.4,483.4
		L362.5,484.4 L363.7,485.3 L364.8,486.3 L365.9,487.2 L367.0,488.1 L368.2,489.1 L369.3,490.0 L370.4,490.9
		L371.5,491.8 L372.7,492.8 L373.8,493.7 L374.9,494.6 L376.1,495.5 L377.2,496.4 L378.3,497.3 L379.4,498.2
		L380.6,499.1 L381.7,499.9 L382.8,500.8 L383.9,501.7 L385.1,502.6 L386.2,503.5 L387.3,504.3 L388.4,505.2
		L389.6,506.0 L390.7,506.9 L391.8,507.8 L392.9,508.6 L394.1,509.5 L395.2,510.3 L396.3,511.1 L397.4,512.0
		L398.6,512.8 L399.7,513.6 L400.8,514.5 L401.9,515.3 L403.1,516.1 L404.2,516.9 L405.3,517.7 L406.4,518.5
		L407.6,519.3 L408.7,520.1 L409.8,520.9 L410.9,521.7 L412.1,522.5 L413.2,523.3 L414.3,524.1 L415.4,524.9
		L416.6,525.7 L417.7,526.5 L418.8,527.2 L419.9,528.0 L421.1,528.8 L422.2,529.5 L423.3,530.3 L424.4,531.1
		L425.6,531.8 L426.7,532.6 L427.8,533.3 L428.9,534.1 L430.1,534.8 L431.2,535.5 L432.3,536.3 L433.4,537.0
		L434.6,537.8 L435.7,538.5 L436.8,539.2 L437.9,539.9 L439.1,540.7 L440.2,541.4 L441.3,542.1 L442.5,542.8
		L443.6,543.5 L444.7,544.2 L445.8,544.9 L447.0,545.6 L448.1,546.3 L449.2,547.0 L450.3,547.7 L451.5,548.4
		L452.6,549.1 L453.7,549.8 L454.8,550.5 L456.0,551.2 L457.1,551.8 L458.2,552.5 L459.3,553.2 L460.5,553.9
		L461.6,554.5 L462.7,555.2 L463.8,555.9 L465.0,556.5 L466.1,557.2 L467.2,557.8 L468.3,558.5 L469.5,559.1
		L470.6,559.8 L471.7,560.4 L472.8,561.1 L474.0,561.7 L475.1,562.4 L476.2,563.0 L477.3,563.6 L478.5,564.3
		L479.6,564.9 L480.7,565.5 L481.8,566.2 L483.0,566.8 L484.1,567.4 L485.2,568.0 L486.3,568.6 L487.5,569.2
		L488.6,569.9 L489.7,570.5 L490.8,571.1 L492.0,571.7 L493.1,572.3 L494.2,572.9 L495.3,573.5 L496.5,574.1
		L497.6,574.7 L498.7,575.3 L499.8,575.8 L501.0,576.4 L502.1,577.0 L503.2,577.6 L504.3,578.2 L505.5,578.8
		L506.6,579.3 L507.7,579.9 L508.8,580.5 L510.0,581.1 L511.1,581.6 L512.2,582.2 L513.4,582.8 L514.5,583.3
		L515.6,583.9 L516.7,584.4 L517.9,585.0 L519.0,585.5 L520.1,586.1 L521.2,586.6 L522.4,587.2 L523.5,587.7
		L524.6,588.3 L525.7,588.8 L526.9,589.4 L528.0,589.9 L529.1,590.4 L530.2,591.0 L531.4,591.5 L532.5,592.0
		L533.6,592.6 L534.7,593.1 L535.9,593.6 L537.0,594.1 L538.1,594.6 L539.2,595.2 L540.4,595.7 L541.5,596.2
		L542.6,596.7 L543.7,597.2 L544.9,597.7 L546.0,598.2 L547.1,598.7 L548.2,599.2 L549.4,599.7 L550.5,600.2
		L551.6,600.7 L552.7,601.2 L553.9,601.7 L555.0,602.2 L556.1,602.7 L557.2,603.2 L558.4,603.7 L559.5,604.2
		L560.6,604.6 L561.7,605.1 L562.9,605.6 L564.0,606.1 L565.1,606.5 L566.2,607.0 L567.4,607.5 L568.5,608.0
		L569.6,608.4 L570.7,608.9 L571.9,609.4 L573.0,609.8 L574.1,610.3 L575.2,610.7 L576.4,611.2 L577.5,611.7
		L578.6,612.1 L579.8,612.6 L580.9,613.0 L582.0,613.5 L583.1,613.9 L584.3,614.4 L585.4,614.8 L586.5,615.2
		L587.6,615.7 L588.8,616.1 L589.9,616.6 L591.0,617.0 L592.1,617.4 L593.3,617.8 L594.4,618.3 L595.5,618.7
		L596.6,619.1 L597.8,619.6 L598.9,620.0 L600.0,620.4 L601.1,620.8 L602.3,621.2 L603.4,621.7 L604.5,622.1
		L605.6,622.5 L606.8,622.9 L607.9,623.3 L609.0,623.7 L610.1,624.1 L611.3,624.5 L612.4,624.9 L613.5,625.3
		L614.6,625.7 L615.8,626.1 L616.9,626.5 L618.0,626.9 L619.1,627.3 L620.3,627.7 L621.4,628.1 L622.5,628.5
		L623.6,628.9 L624.8,629.2 L625.9,629.6 L627.0,630.0 L628.1,630.4 L629.3,630.8 L630.4,631.1 L631.5,631.5
		L632.6,631.9 L633.8,632.3 L634.9,632.6 L636.0,633.0 L637.1,633.4 L638.3,633.7 L639.4,634.1 L640.5,634.5
		L641.6,634.8 L642.8,635.2 L643.9,635.5 L645.0,635.9 L646.2,636.3 L647.3,636.6 L648.4,637.0 L649.5,637.3
		L650.7,637.7 L651.8,638.0 L652.9,638.3 L654.0,638.7 L655.2,639.0 L656.3,639.4 L657.4,639.7 L658.5,640.0
		L659.7,640.4 L660.8,640.7 L661.9,641.0 L663.0,641.4 L664.2,641.7 L665.3,642.0 L666.4,642.4 L667.5,642.7
		L668.7,643.0 L669.8,643.3 L670.9,643.7 L672.0,644.0 L673.2,644.3 L674.3,644.6 L675.4,644.9 L676.5,645.2
		L677.7,645.5 L678.8,645.8 L679.9,646.2 L681.0,646.5 L682.2,646.8 L683.3,647.1 L684.4,647.4 L685.5,647.7
		L686.7,648.0 L687.8,648.3 L688.9,648.6 L690.0,648.8 L691.2,649.1 L692.3,649.4 L693.4,649.7 L694.5,650.0
		L695.7,650.3 L696.8,650.6 L697.9,650.9 L699.0,651.1 L700.2,651.4 L701.3,651.7 L702.4,652.0 L703.5,652.2
		L704.7,652.5 L705.8,652.8 L706.9,653.1 L708.0,653.3 L709.2,653.6 L710.3,653.9 L711.4,654.1 L712.5,654.4
		L713.7,654.6 L714.8,654.9 L715.9,655.2 L717.1,655.4 L718.2,655.7 L719.3,655.9 L720.4,656.2 L721.6,656.4
		L722.7,656.7 L723.8,656.9 L724.9,657.2 L726.1,657.4 L727.2,657.6 L728.3,657.9 L729.4,658.1 L730.6,658.3
		L731.7,658.6 L732.8,658.8 L733.9,659.0 L735.1,659.3 L736.2,659.5 L737.3,659.7 L738.4,660.0 L739.6,660.2
		L740.7,660.4 L741.8,660.6 L742.9,660.8 L744.1,661.1 L745.2,661.3 L746.3,661.5 L747.4,661.7 L748.6,661.9
		L749.7,662.1 L750.8,662.3 L751.9,662.5 L753.1,662.7 L754.2,662.9 L755.3,663.1 L756.4,663.3 L757.6,663.5
		L758.7,663.7 L759.8,663.9 L760.9,664.1 L762.1,664.3 L763.2,664.5 L764.3,664.7 L765.4,664.9 L766.6,665.0
		L767.7,665.2 L768.8,665.4 L769.9,665.6 L771.1,665.8 L772.2,665.9 L773.3,666.1 L774.4,666.3 L775.6,666.5
		L776.7,666.6 L777.8,666.8 L778.9,667.0 L780.1,667.1 L781.2,667.3 L782.3,667.4 L783.5,667.6 L784.6,667.8
		L785.7,667.9 L786.8,668.1 L788.0,668.2 L789.1,668.4 L790.2,668.5 L791.3,668.7 L792.5,668.8 L793.6,668.9
		L794.7,669.1 L795.8,669.2 L797.0,669.4 L798.1,669.5 L799.2,669.6 L800.3,669.8 L801.5,669.9 L802.6,670.0
		L803.7,670.1 L804.8,670.3 L806.0,670.4 L807.1,670.5 L808.2,670.6 L809.3,670.7 L810.5,670.9 L811.6,671.0
		L812.7,671.1 L813.8,671.2 L815.0,671.3 L816.1,671.4 L817.2,671.5 L818.3,671.6 L819.5,671.7 L820.6,671.8
		L821.7,671.9 L822.8,672.0 L824.0,672.1 L825.1,672.2 L826.2,672.3 L827.3,672.4 L828.5,672.5 L829.6,672.5
		L830.7,672.6 L831.8,672.7 L833.0,672.8 L834.1,672.9 L835.2,672.9 L836.3,673.0 L837.5,673.1 L838.6,673.1
		L839.7,673.2 L840.8,673.3 L842.0,673.3 L843.1,673.4 L844.2,673.4 L845.3,673.5 L846.5,673.6 L847.6,673.6
		L848.7,673.7 L849.9,673.7 L851.0,673.8 L852.1,673.8 L853.2,673.8 L854.4,673.9 L855.5,673.9 L856.6,674.0
		L857.7,674.0 L858.9,674.0 L860.0,674.1 L861.1,674.1 L862.2,674.1 L863.4,674.1 L864.5,674.2 L865.6,674.2
		L866.7,674.2 L867.9,674.2 L869.0,674.2 L870.1,674.2 L871.2,674.2 L872.4,674.2 L873.5,674.3 L874.6,674.3
		L875.7,674.3 L876.9,674.3 L878.0,674.3 L879.1,674.2 L880.2,674.2 L881.4,674.2 L882.5,674.2 L883.6,674.2
		L884.7,674.2 L885.9,674.2 L887.0,674.1 L888.1,674.1 L889.2,674.1 L890.4,674.1 L891.5,674.0 L892.6,674.0
		L893.7,674.0 L894.9,673.9 L896.0,673.9 L897.1,673.9 L898.2,673.8 L899.4,673.8 L900.5,673.7 L901.6,673.7
		L902.7,673.6 L903.9,673.6 L905.0,673.5 L906.1,673.4 L907.2,673.4 L908.4,673.3 L909.5,673.3 L910.6,673.2
		L911.7,673.1 L912.9,673.0 L914.0,673.0 L915.1,672.9 L916.2,672.8 L917.4,672.7 L918.5,672.6 L919.6,672.6
		L920.8,672.5 L921.9,672.4 L923.0,672.3 L924.1,672.2 L925.3,672.1 L926.4,672.0 L927.5,671.9 L928.6,671.8
		L929.8,671.7 L930.9,671.6 L932.0,671.4 L933.1,671.3 L934.3,671.2 L935.4,671.1 L936.5,671.0 L937.6,670.8
		L938.8,670.7 L939.9,670.6 L941.0,670.5 L942.1,670.3 L943.3,670.2 L944.4,670.0 L945.5,669.9 L946.6,669.8
		L947.8,669.6 L948.9,669.5 L950.0,669.3 L951.1,669.2 L952.3,669.0 L953.4,668.8 L954.5,668.7 L955.6,668.5
		L956.8,668.3 L957.9,668.2 L959.0,668.0 L960.1,667.8 L961.3,667.7 L962.4,667.5 L963.5,667.3 L964.6,667.1
		L965.8,666.9 L966.9,666.7 L968.0,666.5 L969.1,666.4 L970.3,666.2 L971.4,666.0 L972.5,665.8 L973.6,665.6
		L974.8,665.3 L975.9,665.1 L977.0,664.9 L978.1,664.7 L979.3,664.5 L980.4,664.3 L981.5,664.1 L982.6,663.8
		L983.8,663.6 L984.9,663.4 L986.0,663.1 L987.2,662.9 L988.3,662.7 L989.4,662.4 L990.5,662.2 L991.7,662.0
		L992.8,661.7 L993.9,661.5 L995.0,661.2 L996.2,661.0 L997.3,660.7 L998.4,660.4 L999.5,660.2 L1000.7,659.9
		L1001.8,659.7 L1002.9,659.4 L1004.0,659.1 L1005.2,658.8 L1006.3,658.6 L1007.4,658.3 L1008.5,658.0 L1009.7,657.7
		L1010.8,657.4 L1011.9,657.2 L1013.0,656.9 L1014.2,656.6 L1015.3,656.3 L1016.4,656.0 L1017.5,655.7 L1018.7,655.4
		L1019.8,655.1 L1020.9,654.8 L1022.0,654.5 L1023.2,654.2 L1024.3,653.9 L1025.4,653.5 L1026.5,653.2 L1027.7,652.9
		L1028.8,652.6 L1029.9,652.3 L1031.0,651.9 L1032.2,651.6 L1033.3,651.3 L1034.4,650.9 L1035.5,650.6 L1036.7,650.3
		L1037.8,649.9 L1038.9,649.6 L1040.0,649.3 L1041.2,648.9 L1042.3,648.6 L1043.4,648.2 L1044.5,647.9 L1045.7,647.5
		L1046.8,647.2 L1047.9,646.8 L1049.0,646.4 L1050.2,646.1 L1051.3,645.7 L1052.4,645.4 L1053.6,645.0 L1054.7,644.6
		L1055.8,644.3 L1056.9,643.9 L1058.1,643.5 L1059.2,643.1 L1060.3,642.8 L1061.4,642.4 L1062.6,642.0 L1063.7,641.6
		L1064.8,641.2 L1065.9,640.8 L1067.1,640.5 L1068.2,640.1 L1069.3,639.7 L1070.4,639.3 L1071.6,638.9 L1072.7,638.5
		L1073.8,638.1 L1074.9,637.7 L1076.1,637.3 L1077.2,636.9 L1078.3,636.5 L1079.4,636.1 L1080.6,635.7 L1081.7,635.3
		L1082.8,634.9 L1083.9,634.5 L1085.1,634.1 L1086.2,633.7 L1087.3,633.3 L1088.4,632.8 L1089.6,632.4 L1090.7,632.0
		L1091.8,631.6 L1092.9,631.2 L1094.1,630.8 L1095.2,630.4 L1096.3,629.9 L1097.4,629.5 L1098.6,629.1 L1099.7,628.7
		L1100.8,628.3 L1101.9,627.8 L1103.1,627.4 L1104.2,627.0 L1105.3,626.6 L1106.4,626.2 L1107.6,625.7 L1108.7,625.3
		L1109.8,624.9 L1110.9,624.5 L1112.1,624.0 L1113.2,623.6 L1114.3,623.2 L1115.4,622.8 L1116.6,622.3 L1117.7,621.9
		L1118.8,621.5 L1120.0,621.1 L1121.1,620.7 L1122.2,620.2 L1123.3,619.8 L1124.5,619.4 L1125.6,619.0 L1126.7,618.5
		L1127.8,618.1 L1129.0,617.7 L1130.1,617.3 L1131.2,616.9 L1132.3,616.4 L1133.5,616.0 L1134.6,615.6 L1135.7,615.2
		L1136.8,614.8 L1138.0,614.4 L1139.1,613.9 L1140.2,613.5 L1141.3,613.1 L1142.5,612.7 L1143.6,612.3 L1144.7,611.9
		L1145.8,611.5 L1147.0,611.1 L1148.1,610.7 L1149.2,610.3 L1150.3,609.9 L1151.5,609.5 L1152.6,609.1 L1153.7,608.7
		L1154.8,608.3 L1156.0,607.9 L1157.1,607.5 L1158.2,607.2 L1159.3,606.8 L1160.5,606.4 L1161.6,606.0 L1162.7,605.6
		L1163.8,605.3 L1165.0,604.9 L1166.1,604.5 L1167.2,604.1 L1168.3,603.8 L1169.5,603.4 L1170.6,603.1 L1171.7,602.7
		L1172.8,602.4 L1174.0,602.0 L1175.1,601.7 L1176.2,601.3 L1177.3,601.0 L1178.5,600.6 L1179.6,600.3 L1180.7,600.0
		L1181.8,599.6 L1183.0,599.3 L1184.1,599.0 L1185.2,598.7 L1186.3,598.4 L1187.5,598.1 L1188.6,597.8 L1189.7,597.4
		L1190.9,597.2 L1192.0,596.9 L1193.1,596.6 L1194.2,596.3 L1195.4,596.0 L1196.5,595.7 L1197.6,595.4 L1198.7,595.2
		L1199.9,594.9 L1201.0,594.7 L1202.1,594.4 L1203.2,594.1 L1204.4,593.9 L1205.5,593.7 L1206.6,593.4 L1207.7,593.2
		L1208.9,593.0 L1210.0,592.7 L1211.1,592.5 L1212.2,592.3 L1213.4,592.1 L1214.5,591.9 L1215.6,591.7 L1216.7,591.5
		L1217.9,591.3 L1219.0,591.1 L1220.1,590.9 L1221.2,590.8 L1222.4,590.6 L1223.5,590.4 L1224.6,590.3 L1225.7,590.1
		L1226.9,590.0 L1228.0,589.8 L1229.1,589.7 L1230.2,589.6 L1231.4,589.4 L1232.5,589.3 L1233.6,589.2 L1234.7,589.1
		L1235.9,589.0 L1237.0,588.9 L1238.1,588.8 L1239.2,588.7 L1240.4,588.7 L1241.5,588.6 L1242.6,588.5 L1243.7,588.5
		L1244.9,588.4 L1246.0,588.3 L1247.1,588.3 L1248.2,588.3 L1249.4,588.2 L1250.5,588.2 L1251.6,588.2 L1252.7,588.2
		L1253.9,588.2 L1255.0,588.2  '/></g>
	</g>
	<g id="gnuplot_plot_5" ><title>gnuplot_plot_5</title>
<g fill="none" color="black" stroke="currentColor" stroke-width="1.00" stroke-linecap="butt" stroke-linejoin="miter">
	<path stroke='rgb(  0, 100,   0)'  d='M103.7,130.5 L104.8,130.5 L106.0,130.7 L107.1,130.9 L108.2,131.2 L109.3,131.5 L110.5,132.0 L111.6,132.5
		L112.7,133.1 L113.8,133.7 L115.0,134.5 L116.1,135.3 L117.2,136.2 L118.3,137.1 L119.5,138.2 L120.6,139.3
		L121.7,140.4 L122.8,141.6 L124.0,142.9 L125.1,144.3 L126.2,145.6 L127.3,147.1 L128.5,148.6 L129.6,150.2
		L130.7,151.8 L131.8,153.4 L133.0,155.1 L134.1,156.8 L135.2,158.6 L136.3,160.4 L137.5,162.2 L138.6,164.1
		L139.7,166.0 L140.8,168.0 L142.0,169.9 L143.1,171.9 L144.2,173.9 L145.3,176.0 L146.5,178.0 L147.6,180.1
		L148.7,182.2 L149.8,184.3 L151.0,186.4 L152.1,188.6 L153.2,190.7 L154.3,192.9 L155.5,195.1 L156.6,197.2
		L157.7,199.4 L158.8,201.6 L160.0,203.8 L161.1,206.0 L162.2,208.2 L163.3,210.4 L164.5,212.6 L165.6,214.8
		L166.7,217.0 L167.8,219.2 L169.0,221.4 L170.1,223.6 L171.2,225.8 L172.4,228.0 L173.5,230.2 L174.6,232.4
		L175.7,234.6 L176.9,236.8 L178.0,238.9 L179.1,241.1 L180.2,243.3 L181.4,245.4 L182.5,247.6 L183.6,249.7
		L184.7,251.8 L185.9,253.9 L187.0,256.1 L188.1,258.2 L189.2,260.2 L190.4,262.3 L191.5,264.4 L192.6,266.5
		L193.7,268.5 L194.9,270.6 L196.0,272.6 L197.1,274.6 L198.2,276.7 L199.4,278.7 L200.5,280.7 L201.6,282.7
		L202.7,284.6 L203.9,286.6 L205.0,288.6 L206.1,290.5 L207.2,292.5 L208.4,294.4 L209.5,296.3 L210.6,298.2
		L211.7,300.1 L212.9,302.0 L214.0,303.9 L215.1,305.7 L216.2,307.6 L217.4,309.4 L218.5,311.3 L219.6,313.1
		L220.7,314.9 L221.9,316.7 L223.0,318.5 L224.1,320.3 L225.2,322.1 L226.4,323.8 L227.5,325.6 L228.6,327.3
		L229.7,329.1 L230.9,330.8 L232.0,332.5 L233.1,334.2 L234.2,335.9 L235.4,337.6 L236.5,339.3 L237.6,340.9
		L238.7,342.6 L239.9,344.2 L241.0,345.9 L242.1,347.5 L243.3,349.1 L244.4,350.7 L245.5,352.3 L246.6,353.9
		L247.8,355.5 L248.9,357.1 L250.0,358.6 L251.1,360.2 L252.3,361.7 L253.4,363.3 L254.5,364.8 L255.6,366.3
		L256.8,367.9 L257.9,369.4 L259.0,370.9 L260.1,372.4 L261.3,373.8 L262.4,375.3 L263.5,376.8 L264.6,378.2
		L265.8,379.7 L266.9,381.1 L268.0,382.6 L269.1,384.0 L270.3,385.4 L271.4,386.8 L272.5,388.2 L273.6,389.6
		L274.8,391.0 L275.9,392.4 L277.0,393.8 L278.1,395.1 L279.3,396.5 L280.4,397.8 L281.5,399.2 L282.6,400.5
		L283.8,401.8 L284.9,403.2 L286.0,404.5 L287.1,405.8 L288.3,407.1 L289.4,408.4 L290.5,409.7 L291.6,411.0
		L292.8,412.2 L293.9,413.5 L295.0,414.8 L296.1,416.0 L297.3,417.3 L298.4,418.5 L299.5,419.8 L300.6,421.0
		L301.8,422.2 L302.9,423.4 L304.0,424.7 L305.1,425.9 L306.3,427.1 L307.4,428.3 L308.5,429.5 L309.7,430.6
		L310.8,431.8 L311.9,433.0 L313.0,434.2 L314.2,435.3 L315.3,436.5 L316.4,437.6 L317.5,438.8 L318.7,439.9
		L319.8,441.0 L320.9,442.2 L322.0,443.3 L323.2,444.4 L324.3,445.5 L325.4,446.6 L326.5,447.7 L327.7,448.8
		L328.8,449.9 L329.9,451.0 L331.0,452.1 L332.2,453.2 L333.3,454.2 L334.4,455.3 L335.5,456.4 L336.7,457.4
		L337.8,458.5 L338.9,459.5 L340.0,460.5 L341.2,461.6 L342.3,462.6 L343.4,463.6 L344.5,464.7 L345.7,465.7
		L346.8,466.7 L347.9,467.7 L349.0,468.7 L350.2,469.7 L351.3,470.7 L352.4,471.7 L353.5,472.7 L354.7,473.7
		L355.8,474.6 L356.9,475.6 L358.0,476.6 L359.2,477.6 L360.3,478.5 L361.4,479.5 L362.5,480.4 L363.7,481.4
		L364.8,482.3 L365.9,483.3 L367.0,484.2 L368.2,485.1 L369.3,486.1 L370.4,487.0 L371.5,487.9 L372.7,488.8
		L373.8,489.7 L374.9,490.6 L376.1,491.5 L377.2,492.4 L378.3,493.3 L379.4,494.2 L380.6,495.1 L381.7,496.0
		L382.8,496.9 L383.9,497.8 L385.1,498.6 L386.2,499.5 L387.3,500.4 L388.4,501.2 L389.6,502.1 L390.7,503.0
		L391.8,503.8 L392.9,504.7 L394.1,505.5 L395.2,506.3 L396.3,507.2 L397.4,508.0 L398.6,508.9 L399.7,509.7
		L400.8,510.5 L401.9,511.3 L403.1,512.1 L404.2,513.0 L405.3,513.8 L406.4,514.6 L407.6,515.4 L408.7,516.2
		L409.8,517.0 L410.9,517.8 L412.1,518.6 L413.2,519.4 L414.3,520.2 L415.4,520.9 L416.6,521.7 L417.7,522.5
		L418.8,523.3 L419.9,524.0 L421.1,524.8 L422.2,525.6 L423.3,526.3 L424.4,527.1 L425.6,527.9 L426.7,528.6
		L427.8,529.4 L428.9,530.1 L430.1,530.8 L431.2,531.6 L432.3,532.3 L433.4,533.1 L434.6,533.8 L435.7,534.5
		L436.8,535.3 L437.9,536.0 L439.1,536.7 L440.2,537.4 L441.3,538.1 L442.5,538.8 L443.6,539.6 L444.7,540.3
		L445.8,541.0 L447.0,541.7 L448.1,542.4 L449.2,543.1 L450.3,543.8 L451.5,544.5 L452.6,545.1 L453.7,545.8
		L454.8,546.5 L456.0,547.2 L457.1,547.9 L458.2,548.6 L459.3,549.2 L460.5,549.9 L461.6,550.6 L462.7,551.2
		L463.8,551.9 L465.0,552.6 L466.1,553.2 L467.2,553.9 L468.3,554.5 L469.5,555.2 L470.6,555.8 L471.7,556.5
		L472.8,557.1 L474.0,557.8 L475.1,558.4 L476.2,559.0 L477.3,559.7 L478.5,560.3 L479.6,560.9 L480.7,561.6
		L481.8,562.2 L483.0,562.8 L484.1,563.4 L485.2,564.0 L486.3,564.7 L487.5,565.3 L488.6,565.9 L489.7,566.5
		L490.8,567.1 L492.0,567.7 L493.1,568.3 L494.2,568.9 L495.3,569.5 L496.5,570.1 L497.6,570.7 L498.7,571.3
		L499.8,571.9 L501.0,572.5 L502.1,573.0 L503.2,573.6 L504.3,574.2 L505.5,574.8 L506.6,575.4 L507.7,575.9
		L508.8,576.5 L510.0,577.1 L511.1,577.6 L512.2,578.2 L513.4,578.8 L514.5,579.3 L515.6,579.9 L516.7,580.4
		L517.9,581.0 L519.0,581.5 L520.1,582.1 L521.2,582.6 L522.4,583.2 L523.5,583.7 L524.6,584.3 L525.7,584.8
		L526.9,585.4 L528.0,585.9 L529.1,586.4 L530.2,587.0 L531.4,587.5 L532.5,588.0 L533.6,588.5 L534.7,589.1
		L535.9,589.6 L537.0,590.1 L538.1,590.6 L539.2,591.2 L540.4,591.7 L541.5,592.2 L542.6,592.7 L543.7,593.2
		L544.9,593.7 L546.0,594.2 L547.1,594.7 L548.2,595.2 L549.4,595.7 L550.5,596.2 L551.6,596.7 L552.7,597.2
		L553.9,597.7 L555.0,598.2 L556.1,598.7 L557.2,599.2 L558.4,599.7 L559.5,600.1 L560.6,600.6 L561.7,601.1
		L562.9,601.6 L564.0,602.1 L565.1,602.5 L566.2,603.0 L567.4,603.5 L568.5,603.9 L569.6,604.4 L570.7,604.9
		L571.9,605.3 L573.0,605.8 L574.1,606.3 L575.2,606.7 L576.4,607.2 L577.5,607.6 L578.6,608.1 L579.8,608.5
		L580.9,609.0 L582.0,609.4 L583.1,609.9 L584.3,610.3 L585.4,610.8 L586.5,611.2 L587.6,611.6 L588.8,612.1
		L589.9,612.5 L591.0,612.9 L592.1,613.4 L593.3,613.8 L594.4,614.2 L595.5,614.7 L596.6,615.1 L597.8,615.5
		L598.9,615.9 L600.0,616.3 L601.1,616.8 L602.3,617.2 L603.4,617.6 L604.5,618.0 L605.6,618.4 L606.8,618.8
		L607.9,619.2 L609.0,619.6 L610.1,620.1 L611.3,620.5 L612.4,620.9 L613.5,621.3 L614.6,621.7 L615.8,622.1
		L616.9,622.4 L618.0,622.8 L619.1,623.2 L620.3,623.6 L621.4,624.0 L622.5,624.4 L623.6,624.8 L624.8,625.2
		L625.9,625.5 L627.0,625.9 L628.1,626.3 L629.3,626.7 L630.4,627.1 L631.5,627.4 L632.6,627.8 L633.8,628.2
		L634.9,628.5 L636.0,628.9 L637.1,629.3 L638.3,629.6 L639.4,630.0 L640.5,630.4 L641.6,630.7 L642.8,631.1
		L643.9,631.4 L645.0,631.8 L646.2,632.1 L647.3,632.5 L648.4,632.8 L649.5,633.2 L650.7,633.5 L651.8,633.9
		L652.9,634.2 L654.0,634.6 L655.2,634.9 L656.3,635.3 L657.4,635.6 L658.5,635.9 L659.7,636.3 L660.8,636.6
		L661.9,636.9 L663.0,637.2 L664.2,637.6 L665.3,637.9 L666.4,638.2 L667.5,638.5 L668.7,638.9 L669.8,639.2
		L670.9,639.5 L672.0,639.8 L673.2,640.1 L674.3,640.5 L675.4,640.8 L676.5,641.1 L677.7,641.4 L678.8,641.7
		L679.9,642.0 L681.0,642.3 L682.2,642.6 L683.3,642.9 L684.4,643.2 L685.5,643.5 L686.7,643.8 L687.8,644.1
		L688.9,644.4 L690.0,644.7 L691.2,645.0 L692.3,645.3 L693.4,645.5 L694.5,645.8 L695.7,646.1 L696.8,646.4
		L697.9,646.7 L699.0,646.9 L700.2,647.2 L701.3,647.5 L702.4,647.8 L703.5,648.0 L704.7,648.3 L705.8,648.6
		L706.9,648.9 L708.0,649.1 L709.2,649.4 L710.3,649.6 L711.4,649.9 L712.5,650.2 L713.7,650.4 L714.8,650.7
		L715.9,650.9 L717.1,651.2 L718.2,651.4 L719.3,651.7 L720.4,651.9 L721.6,652.2 L722.7,652.4 L723.8,652.7
		L724.9,652.9 L726.1,653.2 L727.2,653.4 L728.3,653.6 L729.4,653.9 L730.6,654.1 L731.7,654.3 L732.8,654.6
		L733.9,654.8 L735.1,655.0 L736.2,655.2 L737.3,655.5 L738.4,655.7 L739.6,655.9 L740.7,656.1 L741.8,656.3
		L742.9,656.6 L744.1,656.8 L745.2,657.0 L746.3,657.2 L747.4,657.4 L748.6,657.6 L749.7,657.8 L750.8,658.0
		L751.9,658.2 L753.1,658.4 L754.2,658.6 L755.3,658.8 L756.4,659.0 L757.6,659.2 L758.7,659.4 L759.8,659.6
		L760.9,659.8 L762.1,660.0 L763.2,660.2 L764.3,660.3 L765.4,660.5 L766.6,660.7 L767.7,660.9 L768.8,661.1
		L769.9,661.2 L771.1,661.4 L772.2,661.6 L773.3,661.8 L774.4,661.9 L775.6,662.1 L776.7,662.3 L777.8,662.4
		L778.9,662.6 L780.1,662.7 L781.2,662.9 L782.3,663.1 L783.5,663.2 L784.6,663.4 L785.7,663.5 L786.8,663.7
		L788.0,663.8 L789.1,664.0 L790.2,664.1 L791.3,664.3 L792.5,664.4 L793.6,664.5 L794.7,664.7 L795.8,664.8
		L797.0,664.9 L798.1,665.1 L799.2,665.2 L800.3,665.3 L801.5,665.5 L802.6,665.6 L803.7,665.7 L804.8,665.8
		L806.0,665.9 L807.1,666.1 L808.2,666.2 L809.3,666.3 L810.5,666.4 L811.6,666.5 L812.7,666.6 L813.8,666.7
		L815.0,666.8 L816.1,666.9 L817.2,667.0 L818.3,667.1 L819.5,667.2 L820.6,667.3 L821.7,667.4 L822.8,667.5
		L824.0,667.6 L825.1,667.7 L826.2,667.8 L827.3,667.9 L828.5,667.9 L829.6,668.0 L830.7,668.1 L831.8,668.2
		L833.0,668.2 L834.1,668.3 L835.2,668.4 L836.3,668.5 L837.5,668.5 L838.6,668.6 L839.7,668.6 L840.8,668.7
		L842.0,668.8 L843.1,668.8 L844.2,668.9 L845.3,668.9 L846.5,669.0 L847.6,669.0 L848.7,669.1 L849.9,669.1
		L851.0,669.2 L852.1,669.2 L853.2,669.2 L854.4,669.3 L855.5,669.3 L856.6,669.3 L857.7,669.4 L858.9,669.4
		L860.0,669.4 L861.1,669.4 L862.2,669.5 L863.4,669.5 L864.5,669.5 L865.6,669.5 L866.7,669.5 L867.9,669.5
		L869.0,669.5 L870.1,669.6 L871.2,669.6 L872.4,669.6 L873.5,669.6 L874.6,669.6 L875.7,669.6 L876.9,669.5
		L878.0,669.5 L879.1,669.5 L880.2,669.5 L881.4,669.5 L882.5,669.5 L883.6,669.5 L884.7,669.4 L885.9,669.4
		L887.0,669.4 L888.1,669.4 L889.2,669.3 L890.4,669.3 L891.5,669.3 L892.6,669.2 L893.7,669.2 L894.9,669.2
		L896.0,669.1 L897.1,669.1 L898.2,669.0 L899.4,669.0 L900.5,668.9 L901.6,668.9 L902.7,668.8 L903.9,668.7
		L905.0,668.7 L906.1,668.6 L907.2,668.5 L908.4,668.5 L909.5,668.4 L910.6,668.3 L911.7,668.3 L912.9,668.2
		L914.0,668.1 L915.1,668.0 L916.2,667.9 L917.4,667.8 L918.5,667.8 L919.6,667.7 L920.8,667.6 L921.9,667.5
		L923.0,667.4 L924.1,667.3 L925.3,667.2 L926.4,667.1 L927.5,666.9 L928.6,666.8 L929.8,666.7 L930.9,666.6
		L932.0,666.5 L933.1,666.4 L934.3,666.2 L935.4,666.1 L936.5,666.0 L937.6,665.9 L938.8,665.7 L939.9,665.6
		L941.0,665.5 L942.1,665.3 L943.3,665.2 L944.4,665.0 L945.5,664.9 L946.6,664.7 L947.8,664.6 L948.9,664.4
		L950.0,664.3 L951.1,664.1 L952.3,663.9 L953.4,663.8 L954.5,663.6 L955.6,663.4 L956.8,663.3 L957.9,663.1
		L959.0,662.9 L960.1,662.7 L961.3,662.6 L962.4,662.4 L963.5,662.2 L964.6,662.0 L965.8,661.8 L966.9,661.6
		L968.0,661.4 L969.1,661.2 L970.3,661.0 L971.4,660.8 L972.5,660.6 L973.6,660.4 L974.8,660.2 L975.9,660.0
		L977.0,659.7 L978.1,659.5 L979.3,659.3 L980.4,659.1 L981.5,658.8 L982.6,658.6 L983.8,658.4 L984.9,658.2
		L986.0,657.9 L987.2,657.7 L988.3,657.4 L989.4,657.2 L990.5,656.9 L991.7,656.7 L992.8,656.4 L993.9,656.2
		L995.0,655.9 L996.2,655.7 L997.3,655.4 L998.4,655.1 L999.5,654.9 L1000.7,654.6 L1001.8,654.3 L1002.9,654.1
		L1004.0,653.8 L1005.2,653.5 L1006.3,653.2 L1007.4,653.0 L1008.5,652.7 L1009.7,652.4 L1010.8,652.1 L1011.9,651.8
		L1013.0,651.5 L1014.2,651.2 L1015.3,650.9 L1016.4,650.6 L1017.5,650.3 L1018.7,650.0 L1019.8,649.7 L1020.9,649.4
		L1022.0,649.1 L1023.2,648.7 L1024.3,648.4 L1025.4,648.1 L1026.5,647.8 L1027.7,647.5 L1028.8,647.1 L1029.9,646.8
		L1031.0,646.5 L1032.2,646.1 L1033.3,645.8 L1034.4,645.5 L1035.5,645.1 L1036.7,644.8 L1037.8,644.4 L1038.9,644.1
		L1040.0,643.7 L1041.2,643.4 L1042.3,643.0 L1043.4,642.7 L1044.5,642.3 L1045.7,642.0 L1046.8,641.6 L1047.9,641.3
		L1049.0,640.9 L1050.2,640.5 L1051.3,640.2 L1052.4,639.8 L1053.6,639.4 L1054.7,639.0 L1055.8,638.7 L1056.9,638.3
		L1058.1,637.9 L1059.2,637.5 L1060.3,637.1 L1061.4,636.8 L1062.6,636.4 L1063.7,636.0 L1064.8,635.6 L1065.9,635.2
		L1067.1,634.8 L1068.2,634.4 L1069.3,634.0 L1070.4,633.6 L1071.6,633.2 L1072.7,632.8 L1073.8,632.4 L1074.9,632.0
		L1076.1,631.6 L1077.2,631.2 L1078.3,630.8 L1079.4,630.4 L1080.6,630.0 L1081.7,629.6 L1082.8,629.2 L1083.9,628.8
		L1085.1,628.4 L1086.2,627.9 L1087.3,627.5 L1088.4,627.1 L1089.6,626.7 L1090.7,626.3 L1091.8,625.9 L1092.9,625.4
		L1094.1,625.0 L1095.2,624.6 L1096.3,624.2 L1097.4,623.8 L1098.6,623.3 L1099.7,622.9 L1100.8,622.5 L1101.9,622.1
		L1103.1,621.6 L1104.2,621.2 L1105.3,620.8 L1106.4,620.4 L1107.6,619.9 L1108.7,619.5 L1109.8,619.1 L1110.9,618.6
		L1112.1,618.2 L1113.2,617.8 L1114.3,617.4 L1115.4,616.9 L1116.6,616.5 L1117.7,616.1 L1118.8,615.7 L1120.0,615.2
		L1121.1,614.8 L1122.2,614.4 L1123.3,613.9 L1124.5,613.5 L1125.6,613.1 L1126.7,612.7 L1127.8,612.2 L1129.0,611.8
		L1130.1,611.4 L1131.2,611.0 L1132.3,610.5 L1133.5,610.1 L1134.6,609.7 L1135.7,609.3 L1136.8,608.9 L1138.0,608.5
		L1139.1,608.0 L1140.2,607.6 L1141.3,607.2 L1142.5,606.8 L1143.6,606.4 L1144.7,606.0 L1145.8,605.6 L1147.0,605.2
		L1148.1,604.8 L1149.2,604.3 L1150.3,603.9 L1151.5,603.5 L1152.6,603.1 L1153.7,602.8 L1154.8,602.4 L1156.0,602.0
		L1157.1,601.6 L1158.2,601.2 L1159.3,600.8 L1160.5,600.4 L1161.6,600.0 L1162.7,599.7 L1163.8,599.3 L1165.0,598.9
		L1166.1,598.5 L1167.2,598.2 L1168.3,597.8 L1169.5,597.4 L1170.6,597.1 L1171.7,596.7 L1172.8,596.4 L1174.0,596.0
		L1175.1,595.7 L1176.2,595.3 L1177.3,595.0 L1178.5,594.6 L1179.6,594.3 L1180.7,594.0 L1181.8,593.6 L1183.0,593.3
		L1184.1,593.0 L1185.2,592.7 L1186.3,592.3 L1187.5,592.0 L1188.6,591.7 L1189.7,591.4 L1190.9,591.1 L1192.0,590.8
		L1193.1,590.5 L1194.2,590.2 L1195.4,590.0 L1196.5,589.7 L1197.6,589.4 L1198.7,589.1 L1199.9,588.9 L1201.0,588.6
		L1202.1,588.3 L1203.2,588.1 L1204.4,587.8 L1205.5,587.6 L1206.6,587.4 L1207.7,587.1 L1208.9,586.9 L1210.0,586.7
		L1211.1,586.4 L1212.2,586.2 L1213.4,586.0 L1214.5,585.8 L1215.6,585.6 L1216.7,585.4 L1217.9,585.2 L1219.0,585.0
		L1220.1,584.9 L1221.2,584.7 L1222.4,584.5 L1223.5,584.4 L1224.6,584.2 L1225.7,584.1 L1226.9,583.9 L1228.0,583.8
		L1229.1,583.6 L1230.2,583.5 L1231.4,583.4 L1232.5,583.3 L1233.6,583.1 L1234.7,583.0 L1235.9,582.9 L1237.0,582.8
		L1238.1,582.7 L1239.2,582.7 L1240.4,582.6 L1241.5,582.5 L1242.6,582.4 L1243.7,582.4 L1244.9,582.3 L1246.0,582.3
		L1247.1,582.2 L1248.2,582.2 L1249.4,582.1 L1250.5,582.1 L1251.6,582.1 L1252.7,582.1 L1253.9,582.1 L1255.0,582.1
		 '/></g>
	</g>
	<g id="gnuplot_plot_6" ><title>gnuplot_plot_6</title>
<g fill="none" color="black" stroke="currentColor" stroke-width="1.00" stroke-linecap="butt" stroke-linejoin="miter">
	<path stroke='rgb(  0,   0, 255)'  d='M103.7,118.6 L104.8,118.6 L106.0,118.7 L107.1,118.9 L108.2,119.2 L109.3,119.6 L110.5,120.0 L111.6,120.5
		L112.7,121.1 L113.8,121.8 L115.0,122.5 L116.1,123.3 L117.2,124.2 L118.3,125.2 L119.5,126.2 L120.6,127.3
		L121.7,128.5 L122.8,129.7 L124.0,131.0 L125.1,132.3 L126.2,133.7 L127.3,135.1 L128.5,136.6 L129.6,138.2
		L130.7,139.8 L131.8,141.4 L133.0,143.1 L134.1,144.9 L135.2,146.6 L136.3,148.4 L137.5,150.3 L138.6,152.2
		L139.7,154.1 L140.8,156.0 L142.0,158.0 L143.1,160.0 L144.2,162.0 L145.3,164.0 L146.5,166.1 L147.6,168.2
		L148.7,170.3 L149.8,172.4 L151.0,174.5 L152.1,176.6 L153.2,178.8 L154.3,180.9 L155.5,183.1 L156.6,185.3
		L157.7,187.5 L158.8,189.7 L160.0,191.9 L161.1,194.1 L162.2,196.3 L163.3,198.5 L164.5,200.7 L165.6,202.9
		L166.7,205.1 L167.8,207.3 L169.0,209.5 L170.1,211.7 L171.2,213.9 L172.4,216.1 L173.5,218.3 L174.6,220.5
		L175.7,222.6 L176.9,224.8 L178.0,227.0 L179.1,229.2 L180.2,231.3 L181.4,233.5 L182.5,235.6 L183.6,237.7
		L184.7,239.9 L185.9,242.0 L187.0,244.1 L188.1,246.2 L189.2,248.3 L190.4,250.4 L191.5,252.5 L192.6,254.5
		L193.7,256.6 L194.9,258.6 L196.0,260.7 L197.1,262.7 L198.2,264.7 L199.4,266.7 L200.5,268.7 L201.6,270.7
		L202.7,272.7 L203.9,274.7 L205.0,276.6 L206.1,278.6 L207.2,280.5 L208.4,282.4 L209.5,284.3 L210.6,286.3
		L211.7,288.1 L212.9,290.0 L214.0,291.9 L215.1,293.8 L216.2,295.6 L217.4,297.5 L218.5,299.3 L219.6,301.1
		L220.7,302.9 L221.9,304.8 L223.0,306.5 L224.1,308.3 L225.2,310.1 L226.4,311.9 L227.5,313.6 L228.6,315.4
		L229.7,317.1 L230.9,318.8 L232.0,320.5 L233.1,322.2 L234.2,323.9 L235.4,325.6 L236.5,327.3 L237.6,329.0
		L238.7,330.6 L239.9,332.3 L241.0,333.9 L242.1,335.5 L243.3,337.2 L244.4,338.8 L245.5,340.4 L246.6,342.0
		L247.8,343.6 L248.9,345.1 L250.0,346.7 L251.1,348.3 L252.3,349.8 L253.4,351.3 L254.5,352.9 L255.6,354.4
		L256.8,355.9 L257.9,357.4 L259.0,358.9 L260.1,360.4 L261.3,361.9 L262.4,363.4 L263.5,364.8 L264.6,366.3
		L265.8,367.7 L266.9,369.2 L268.0,370.6 L269.1,372.0 L270.3,373.5 L271.4,374.9 L272.5,376.3 L273.6,377.7
		L274.8,379.1 L275.9,380.4 L277.0,381.8 L278.1,383.2 L279.3,384.5 L280.4,385.9 L281.5,387.2 L282.6,388.6
		L283.8,389.9 L284.9,391.2 L286.0,392.5 L287.1,393.9 L288.3,395.2 L289.4,396.5 L290.5,397.7 L291.6,399.0
		L292.8,400.3 L293.9,401.6 L295.0,402.8 L296.1,404.1 L297.3,405.3 L298.4,406.6 L299.5,407.8 L300.6,409.1
		L301.8,410.3 L302.9,411.5 L304.0,412.7 L305.1,413.9 L306.3,415.1 L307.4,416.3 L308.5,417.5 L309.7,418.7
		L310.8,419.9 L311.9,421.1 L313.0,422.2 L314.2,423.4 L315.3,424.5 L316.4,425.7 L317.5,426.8 L318.7,428.0
		L319.8,429.1 L320.9,430.2 L322.0,431.4 L323.2,432.5 L324.3,433.6 L325.4,434.7 L326.5,435.8 L327.7,436.9
		L328.8,438.0 L329.9,439.1 L331.0,440.1 L332.2,441.2 L333.3,442.3 L334.4,443.4 L335.5,444.4 L336.7,445.5
		L337.8,446.5 L338.9,447.6 L340.0,448.6 L341.2,449.7 L342.3,450.7 L343.4,451.7 L344.5,452.7 L345.7,453.8
		L346.8,454.8 L347.9,455.8 L349.0,456.8 L350.2,457.8 L351.3,458.8 L352.4,459.8 L353.5,460.8 L354.7,461.7
		L355.8,462.7 L356.9,463.7 L358.0,464.7 L359.2,465.6 L360.3,466.6 L361.4,467.5 L362.5,468.5 L363.7,469.5
		L364.8,470.4 L365.9,471.3 L367.0,472.3 L368.2,473.2 L369.3,474.1 L370.4,475.1 L371.5,476.0 L372.7,476.9
		L373.8,477.8 L374.9,478.7 L376.1,479.6 L377.2,480.5 L378.3,481.4 L379.4,482.3 L380.6,483.2 L381.7,484.1
		L382.8,485.0 L383.9,485.8 L385.1,486.7 L386.2,487.6 L387.3,488.5 L388.4,489.3 L389.6,490.2 L390.7,491.0
		L391.8,491.9 L392.9,492.7 L394.1,493.6 L395.2,494.4 L396.3,495.3 L397.4,496.1 L398.6,496.9 L399.7,497.8
		L400.8,498.6 L401.9,499.4 L403.1,500.2 L404.2,501.1 L405.3,501.9 L406.4,502.7 L407.6,503.5 L408.7,504.3
		L409.8,505.1 L410.9,505.9 L412.1,506.7 L413.2,507.5 L414.3,508.3 L415.4,509.0 L416.6,509.8 L417.7,510.6
		L418.8,511.4 L419.9,512.1 L421.1,512.9 L422.2,513.7 L423.3,514.4 L424.4,515.2 L425.6,516.0 L426.7,516.7
		L427.8,517.5 L428.9,518.2 L430.1,519.0 L431.2,519.7 L432.3,520.4 L433.4,521.2 L434.6,521.9 L435.7,522.6
		L436.8,523.4 L437.9,524.1 L439.1,524.8 L440.2,525.5 L441.3,526.3 L442.5,527.0 L443.6,527.7 L444.7,528.4
		L445.8,529.1 L447.0,529.8 L448.1,530.5 L449.2,531.2 L450.3,531.9 L451.5,532.6 L452.6,533.3 L453.7,534.0
		L454.8,534.6 L456.0,535.3 L457.1,536.0 L458.2,536.7 L459.3,537.4 L460.5,538.0 L461.6,538.7 L462.7,539.4
		L463.8,540.0 L465.0,540.7 L466.1,541.4 L467.2,542.0 L468.3,542.7 L469.5,543.3 L470.6,544.0 L471.7,544.6
		L472.8,545.3 L474.0,545.9 L475.1,546.5 L476.2,547.2 L477.3,547.8 L478.5,548.4 L479.6,549.1 L480.7,549.7
		L481.8,550.3 L483.0,551.0 L484.1,551.6 L485.2,552.2 L486.3,552.8 L487.5,553.4 L488.6,554.0 L489.7,554.6
		L490.8,555.3 L492.0,555.9 L493.1,556.5 L494.2,557.1 L495.3,557.7 L496.5,558.3 L497.6,558.9 L498.7,559.4
		L499.8,560.0 L501.0,560.6 L502.1,561.2 L503.2,561.8 L504.3,562.4 L505.5,563.0 L506.6,563.5 L507.7,564.1
		L508.8,564.7 L510.0,565.2 L511.1,565.8 L512.2,566.4 L513.4,566.9 L514.5,567.5 L515.6,568.1 L516.7,568.6
		L517.9,569.2 L519.0,569.7 L520.1,570.3 L521.2,570.8 L522.4,571.4 L523.5,571.9 L524.6,572.5 L525.7,573.0
		L526.9,573.6 L528.0,574.1 L529.1,574.6 L530.2,575.2 L531.4,575.7 L532.5,576.2 L533.6,576.8 L534.7,577.3
		L535.9,577.8 L537.0,578.3 L538.1,578.9 L539.2,579.4 L540.4,579.9 L541.5,580.4 L542.6,580.9 L543.7,581.4
		L544.9,581.9 L546.0,582.4 L547.1,582.9 L548.2,583.5 L549.4,584.0 L550.5,584.5 L551.6,584.9 L552.7,585.4
		L553.9,585.9 L555.0,586.4 L556.1,586.9 L557.2,587.4 L558.4,587.9 L559.5,588.4 L560.6,588.9 L561.7,589.3
		L562.9,589.8 L564.0,590.3 L565.1,590.8 L566.2,591.3 L567.4,591.7 L568.5,592.2 L569.6,592.7 L570.7,593.1
		L571.9,593.6 L573.0,594.1 L574.1,594.5 L575.2,595.0 L576.4,595.4 L577.5,595.9 L578.6,596.4 L579.8,596.8
		L580.9,597.3 L582.0,597.7 L583.1,598.2 L584.3,598.6 L585.4,599.0 L586.5,599.5 L587.6,599.9 L588.8,600.4
		L589.9,600.8 L591.0,601.2 L592.1,601.7 L593.3,602.1 L594.4,602.5 L595.5,603.0 L596.6,603.4 L597.8,603.8
		L598.9,604.2 L600.0,604.7 L601.1,605.1 L602.3,605.5 L603.4,605.9 L604.5,606.3 L605.6,606.8 L606.8,607.2
		L607.9,607.6 L609.0,608.0 L610.1,608.4 L611.3,608.8 L612.4,609.2 L613.5,609.6 L614.6,610.0 L615.8,610.4
		L616.9,610.8 L618.0,611.2 L619.1,611.6 L620.3,612.0 L621.4,612.4 L622.5,612.8 L623.6,613.2 L624.8,613.5
		L625.9,613.9 L627.0,614.3 L628.1,614.7 L629.3,615.1 L630.4,615.4 L631.5,615.8 L632.6,616.2 L633.8,616.6
		L634.9,616.9 L636.0,617.3 L637.1,617.7 L638.3,618.1 L639.4,618.4 L640.5,618.8 L641.6,619.1 L642.8,619.5
		L643.9,619.9 L645.0,620.2 L646.2,620.6 L647.3,620.9 L648.4,621.3 L649.5,621.6 L650.7,622.0 L651.8,622.3
		L652.9,622.7 L654.0,623.0 L655.2,623.4 L656.3,623.7 L657.4,624.0 L658.5,624.4 L659.7,624.7 L660.8,625.1
		L661.9,625.4 L663.0,625.7 L664.2,626.1 L665.3,626.4 L666.4,626.7 L667.5,627.0 L668.7,627.4 L669.8,627.7
		L670.9,628.0 L672.0,628.3 L673.2,628.6 L674.3,629.0 L675.4,629.3 L676.5,629.6 L677.7,629.9 L678.8,630.2
		L679.9,630.5 L681.0,630.8 L682.2,631.1 L683.3,631.4 L684.4,631.7 L685.5,632.1 L686.7,632.4 L687.8,632.6
		L688.9,632.9 L690.0,633.2 L691.2,633.5 L692.3,633.8 L693.4,634.1 L694.5,634.4 L695.7,634.7 L696.8,635.0
		L697.9,635.3 L699.0,635.5 L700.2,635.8 L701.3,636.1 L702.4,636.4 L703.5,636.7 L704.7,636.9 L705.8,637.2
		L706.9,637.5 L708.0,637.8 L709.2,638.0 L710.3,638.3 L711.4,638.6 L712.5,638.8 L713.7,639.1 L714.8,639.3
		L715.9,639.6 L717.1,639.9 L718.2,640.1 L719.3,640.4 L720.4,640.6 L721.6,640.9 L722.7,641.1 L723.8,641.4
		L724.9,641.6 L726.1,641.9 L727.2,642.1 L728.3,642.3 L729.4,642.6 L730.6,642.8 L731.7,643.1 L732.8,643.3
		L733.9,643.5 L735.1,643.8 L736.2,644.0 L737.3,644.2 L738.4,644.5 L739.6,644.7 L740.7,644.9 L741.8,645.1
		L742.9,645.3 L744.1,645.6 L745.2,645.8 L746.3,646.0 L747.4,646.2 L748.6,646.4 L749.7,646.6 L750.8,646.9
		L751.9,647.1 L753.1,647.3 L754.2,647.5 L755.3,647.7 L756.4,647.9 L757.6,648.1 L758.7,648.3 L759.8,648.5
		L760.9,648.7 L762.1,648.9 L763.2,649.1 L764.3,649.2 L765.4,649.4 L766.6,649.6 L767.7,649.8 L768.8,650.0
		L769.9,650.2 L771.1,650.3 L772.2,650.5 L773.3,650.7 L774.4,650.9 L775.6,651.1 L776.7,651.2 L777.8,651.4
		L778.9,651.6 L780.1,651.7 L781.2,651.9 L782.3,652.1 L783.5,652.2 L784.6,652.4 L785.7,652.5 L786.8,652.7
		L788.0,652.8 L789.1,653.0 L790.2,653.2 L791.3,653.3 L792.5,653.5 L793.6,653.6 L794.7,653.7 L795.8,653.9
		L797.0,654.0 L798.1,654.2 L799.2,654.3 L800.3,654.4 L801.5,654.6 L802.6,654.7 L803.7,654.8 L804.8,655.0
		L806.0,655.1 L807.1,655.2 L808.2,655.3 L809.3,655.5 L810.5,655.6 L811.6,655.7 L812.7,655.8 L813.8,655.9
		L815.0,656.0 L816.1,656.1 L817.2,656.3 L818.3,656.4 L819.5,656.5 L820.6,656.6 L821.7,656.7 L822.8,656.8
		L824.0,656.9 L825.1,657.0 L826.2,657.1 L827.3,657.1 L828.5,657.2 L829.6,657.3 L830.7,657.4 L831.8,657.5
		L833.0,657.6 L834.1,657.7 L835.2,657.7 L836.3,657.8 L837.5,657.9 L838.6,658.0 L839.7,658.0 L840.8,658.1
		L842.0,658.2 L843.1,658.2 L844.2,658.3 L845.3,658.4 L846.5,658.4 L847.6,658.5 L848.7,658.5 L849.9,658.6
		L851.0,658.6 L852.1,658.7 L853.2,658.7 L854.4,658.8 L855.5,658.8 L856.6,658.9 L857.7,658.9 L858.9,658.9
		L860.0,659.0 L861.1,659.0 L862.2,659.0 L863.4,659.1 L864.5,659.1 L865.6,659.1 L866.7,659.1 L867.9,659.2
		L869.0,659.2 L870.1,659.2 L871.2,659.2 L872.4,659.2 L873.5,659.2 L874.6,659.2 L875.7,659.2 L876.9,659.2
		L878.0,659.2 L879.1,659.2 L880.2,659.2 L881.4,659.2 L882.5,659.2 L883.6,659.2 L884.7,659.2 L885.9,659.2
		L887.0,659.2 L888.1,659.2 L889.2,659.1 L890.4,659.1 L891.5,659.1 L892.6,659.1 L893.7,659.0 L894.9,659.0
		L896.0,659.0 L897.1,658.9 L898.2,658.9 L899.4,658.9 L900.5,658.8 L901.6,658.8 L902.7,658.7 L903.9,658.7
		L905.0,658.6 L906.1,658.6 L907.2,658.5 L908.4,658.5 L909.5,658.4 L910.6,658.3 L911.7,658.3 L912.9,658.2
		L914.0,658.1 L915.1,658.1 L916.2,658.0 L917.4,657.9 L918.5,657.8 L919.6,657.8 L920.8,657.7 L921.9,657.6
		L923.0,657.5 L924.1,657.4 L925.3,657.3 L926.4,657.2 L927.5,657.1 L928.6,657.0 L929.8,656.9 L930.9,656.8
		L932.0,656.7 L933.1,656.6 L934.3,656.5 L935.4,656.4 L936.5,656.3 L937.6,656.1 L938.8,656.0 L939.9,655.9
		L941.0,655.8 L942.1,655.6 L943.3,655.5 L944.4,655.4 L945.5,655.2 L946.6,655.1 L947.8,655.0 L948.9,654.8
		L950.0,654.7 L951.1,654.5 L952.3,654.4 L953.4,654.2 L954.5,654.1 L955.6,653.9 L956.8,653.8 L957.9,653.6
		L959.0,653.4 L960.1,653.3 L961.3,653.1 L962.4,652.9 L963.5,652.7 L964.6,652.6 L965.8,652.4 L966.9,652.2
		L968.0,652.0 L969.1,651.8 L970.3,651.6 L971.4,651.5 L972.5,651.3 L973.6,651.1 L974.8,650.9 L975.9,650.7
		L977.0,650.5 L978.1,650.2 L979.3,650.0 L980.4,649.8 L981.5,649.6 L982.6,649.4 L983.8,649.2 L984.9,649.0
		L986.0,648.7 L987.2,648.5 L988.3,648.3 L989.4,648.0 L990.5,647.8 L991.7,647.6 L992.8,647.3 L993.9,647.1
		L995.0,646.8 L996.2,646.6 L997.3,646.4 L998.4,646.1 L999.5,645.8 L1000.7,645.6 L1001.8,645.3 L1002.9,645.1
		L1004.0,644.8 L1005.2,644.5 L1006.3,644.3 L1007.4,644.0 L1008.5,643.7 L1009.7,643.5 L1010.8,643.2 L1011.9,642.9
		L1013.0,642.6 L1014.2,642.3 L1015.3,642.0 L1016.4,641.8 L1017.5,641.5 L1018.7,641.2 L1019.8,640.9 L1020.9,640.6
		L1022.0,640.3 L1023.2,640.0 L1024.3,639.7 L1025.4,639.4 L1026.5,639.0 L1027.7,638.7 L1028.8,638.4 L1029.9,638.1
		L1031.0,637.8 L1032.2,637.5 L1033.3,637.1 L1034.4,636.8 L1035.5,636.5 L1036.7,636.2 L1037.8,635.8 L1038.9,635.5
		L1040.0,635.2 L1041.2,634.8 L1042.3,634.5 L1043.4,634.1 L1044.5,633.8 L1045.7,633.4 L1046.8,633.1 L1047.9,632.7
		L1049.0,632.4 L1050.2,632.0 L1051.3,631.7 L1052.4,631.3 L1053.6,631.0 L1054.7,630.6 L1055.8,630.2 L1056.9,629.9
		L1058.1,629.5 L1059.2,629.1 L1060.3,628.8 L1061.4,628.4 L1062.6,628.0 L1063.7,627.6 L1064.8,627.3 L1065.9,626.9
		L1067.1,626.5 L1068.2,626.1 L1069.3,625.7 L1070.4,625.4 L1071.6,625.0 L1072.7,624.6 L1073.8,624.2 L1074.9,623.8
		L1076.1,623.4 L1077.2,623.0 L1078.3,622.6 L1079.4,622.2 L1080.6,621.8 L1081.7,621.4 L1082.8,621.0 L1083.9,620.6
		L1085.1,620.2 L1086.2,619.8 L1087.3,619.4 L1088.4,619.0 L1089.6,618.6 L1090.7,618.2 L1091.8,617.8 L1092.9,617.4
		L1094.1,617.0 L1095.2,616.5 L1096.3,616.1 L1097.4,615.7 L1098.6,615.3 L1099.7,614.9 L1100.8,614.5 L1101.9,614.1
		L1103.1,613.6 L1104.2,613.2 L1105.3,612.8 L1106.4,612.4 L1107.6,612.0 L1108.7,611.6 L1109.8,611.1 L1110.9,610.7
		L1112.1,610.3 L1113.2,609.9 L1114.3,609.5 L1115.4,609.0 L1116.6,608.6 L1117.7,608.2 L1118.8,607.8 L1120.0,607.4
		L1121.1,606.9 L1122.2,606.5 L1123.3,606.1 L1124.5,605.7 L1125.6,605.3 L1126.7,604.9 L1127.8,604.4 L1129.0,604.0
		L1130.1,603.6 L1131.2,603.2 L1132.3,602.8 L1133.5,602.4 L1134.6,602.0 L1135.7,601.5 L1136.8,601.1 L1138.0,600.7
		L1139.1,600.3 L1140.2,599.9 L1141.3,599.5 L1142.5,599.1 L1143.6,598.7 L1144.7,598.3 L1145.8,597.9 L1147.0,597.5
		L1148.1,597.1 L1149.2,596.7 L1150.3,596.3 L1151.5,595.9 L1152.6,595.5 L1153.7,595.1 L1154.8,594.7 L1156.0,594.3
		L1157.1,594.0 L1158.2,593.6 L1159.3,593.2 L1160.5,592.8 L1161.6,592.4 L1162.7,592.1 L1163.8,591.7 L1165.0,591.3
		L1166.1,591.0 L1167.2,590.6 L1168.3,590.2 L1169.5,589.9 L1170.6,589.5 L1171.7,589.2 L1172.8,588.8 L1174.0,588.5
		L1175.1,588.1 L1176.2,587.8 L1177.3,587.4 L1178.5,587.1 L1179.6,586.8 L1180.7,586.4 L1181.8,586.1 L1183.0,585.8
		L1184.1,585.5 L1185.2,585.2 L1186.3,584.9 L1187.5,584.5 L1188.6,584.2 L1189.7,583.9 L1190.9,583.6 L1192.0,583.4
		L1193.1,583.1 L1194.2,582.8 L1195.4,582.5 L1196.5,582.2 L1197.6,582.0 L1198.7,581.7 L1199.9,581.4 L1201.0,581.2
		L1202.1,580.9 L1203.2,580.7 L1204.4,580.4 L1205.5,580.2 L1206.6,579.9 L1207.7,579.7 L1208.9,579.5 L1210.0,579.3
		L1211.1,579.0 L1212.2,578.8 L1213.4,578.6 L1214.5,578.4 L1215.6,578.2 L1216.7,578.0 L1217.9,577.8 L1219.0,577.7
		L1220.1,577.5 L1221.2,577.3 L1222.4,577.1 L1223.5,577.0 L1224.6,576.8 L1225.7,576.7 L1226.9,576.5 L1228.0,576.4
		L1229.1,576.3 L1230.2,576.1 L1231.4,576.0 L1232.5,575.9 L1233.6,575.8 L1234.7,575.7 L1235.9,575.6 L1237.0,575.5
		L1238.1,575.4 L1239.2,575.3 L1240.4,575.2 L1241.5,575.1 L1242.6,575.1 L1243.7,575.0 L1244.9,575.0 L1246.0,574.9
		L1247.1,574.9 L1248.2,574.8 L1249.4,574.8 L1250.5,574.8 L1251.6,574.7 L1252.7,574.7 L1253.9,574.7 L1255.0,574.7
		 '/></g>
	</g>
<g fill="none" color="white" stroke="rgb(  0,   0, 255)" stroke-width="2.00" stroke-linecap="butt" stroke-linejoin="miter">
</g>
<g fill="none" color="black" stroke="currentColor" stroke-width="2.00" stroke-linecap="butt" stroke-linejoin="miter">
</g>
<g fill="none" color="black" stroke="black" stroke-width="1.00" stroke-linecap="butt" stroke-linejoin="miter">
</g>
<g fill="none" color="black" stroke="currentColor" stroke-width="1.00" stroke-linecap="butt" stroke-linejoin="miter">
	<path stroke='black'  d='M103.7,54.1 L103.7,684.0 L1255.0,684.0 L1255.0,54.1 L103.7,54.1 Z  '/></g>
<g fill="none" color="black" stroke="currentColor" stroke-width="1.00" stroke-linecap="butt" stroke-linejoin="miter">
</g>
</g>
</svg>

