<?xml version="1.0" encoding="utf-8"  standalone="no"?>
<svg 
 width="1280" height="720"
 viewBox="0 0 1280 720"
 xmlns="http://www.w3.org/2000/svg"
 xmlns:xlink="http://www.w3.org/1999/xlink"
>

<title>Gnuplot</title>
<desc>Produced by GNUPLOT 5.0 patchlevel 6 </desc>

<g id="gnuplot_canvas">

<rect x="0" y="0" width="1280" height="720" fill="none"/>
<defs>

	<circle id='gpDot' r='0.5' stroke-width='0.5'/>
	<path id='gpPt0' stroke-width='0.222' stroke='currentColor' d='M-1,0 h2 M0,-1 v2'/>
	<path id='gpPt1' stroke-width='0.222' stroke='currentColor' d='M-1,-1 L1,1 M1,-1 L-1,1'/>
	<path id='gpPt2' stroke-width='0.222' stroke='currentColor' d='M-1,0 L1,0 M0,-1 L0,1 M-1,-1 L1,1 M-1,1 L1,-1'/>
	<rect id='gpPt3' stroke-width='0.222' stroke='currentColor' x='-1' y='-1' width='2' height='2'/>
	<rect id='gpPt4' stroke-width='0.222' stroke='currentColor' fill='currentColor' x='-1' y='-1' width='2' height='2'/>
	<circle id='gpPt5' stroke-width='0.222' stroke='currentColor' cx='0' cy='0' r='1'/>
	<use xlink:href='#gpPt5' id='gpPt6' fill='currentColor' stroke='none'/>
	<path id='gpPt7' stroke-width='0.222' stroke='currentColor' d='M0,-1.33 L-1.33,0.67 L1.33,0.67 z'/>
	<use xlink:href='#gpPt7' id='gpPt8' fill='currentColor' stroke='none'/>
	<use xlink:href='#gpPt7' id='gpPt9' stroke='currentColor' transform='rotate(180)'/>
	<use xlink:href='#gpPt9' id='gpPt10' fill='currentColor' stroke='none'/>
	<use xlink:href='#gpPt3' id='gpPt11' stroke='currentColor' transform='rotate(45)'/>
	<use xlink:href='#gpPt11' id='gpPt12' fill='currentColor' stroke='none'/>
	<path id='gpPt13' stroke-width='0.222' stroke='currentColor' d='M0,1.330 L1.265,0.411 L0.782,-1.067 L-0.782,-1.076 L-1.265,0.411 z'/>
	<use xlink:href='#gpPt13' id='gpPt14' fill='currentColor' stroke='none'/>
	<filter id='textbox' filterUnits='objectBoundingBox' x='0' y='0' height='1' width='1'>
	  <feFlood flood-color='white' flood-opacity='1' result='bgnd'/>
	  <feComposite in='SourceGraphic' in2='bgnd' operator='atop'/>
	</filter>
	<filter id='greybox' filterUnits='objectBoundingBox' x='0' y='0' height='1' width='1'>
	  <feFlood flood-color='lightgrey' flood-opacity='1' result='grey'/>
	  <feComposite in='SourceGraphic' in2='grey' operator='atop'/>
	</filter>
</defs>
<g fill="none" color="white" stroke="currentColor" stroke-width="1.00" stroke-linecap="butt" stroke-linejoin="miter">
</g>
<g fill="none" color="black" stroke="currentColor" stroke-width="1.00" stroke-linecap="butt" stroke-linejoin="miter">
	<path stroke='black'  d='M103.7,671.3 L112.7,671.3 M1255.0,671.3 L1246.0,671.3  '/>	<g transform="translate(95.4,675.2)" stroke="none" fill="black" font-family="Arial" font-size="12.00"  text-anchor="end">
		<text><tspan font-family="Arial" > 0.0002326</tspan></text>
	</g>
</g>
<g fill="none" color="black" stroke="currentColor" stroke-width="1.00" stroke-linecap="butt" stroke-linejoin="miter">
	<path stroke='black'  d='M103.7,362.7 L112.7,362.7 M1255.0,362.7 L1246.0,362.7  '/>	<g transform="translate(95.4,366.6)" stroke="none" fill="black" font-family="Arial" font-size="12.00"  text-anchor="end">
		<text><tspan font-family="Arial" > 0.0079643</tspan></text>
	</g>
</g>
<g fill="none" color="black" stroke="currentColor" stroke-width="1.00" stroke-linecap="butt" stroke-linejoin="miter">
	<path stroke='black'  d='M103.7,54.1 L112.7,54.1 M1255.0,54.1 L1246.0,54.1  '/>	<g transform="translate(95.4,58.0)" stroke="none" fill="black" font-family="Arial" font-size="12.00"  text-anchor="end">
		<text><tspan font-family="Arial" > 0.2727</tspan></text>
	</g>
</g>
<g fill="none" color="black" stroke="currentColor" stroke-width="1.00" stroke-linecap="butt" stroke-linejoin="miter">
	<path stroke='black'  d='M103.7,684.0 L103.7,675.0 M103.7,54.1 L103.7,63.1  '/>	<g transform="translate(103.7,705.9)" stroke="none" fill="black" font-family="Arial" font-size="12.00"  text-anchor="middle">
		<text><tspan font-family="Arial" > 0</tspan></text>
	</g>
</g>
<g fill="none" color="black" stroke="currentColor" stroke-width="1.00" stroke-linecap="butt" stroke-linejoin="miter">
	<path stroke='black'  d='M679.4,684.0 L679.4,675.0 M679.4,54.1 L679.4,63.1  '/>	<g transform="translate(679.4,705.9)" stroke="none" fill="black" font-family="Arial" font-size="12.00"  text-anchor="middle">
		<text><tspan font-family="Arial" >pi/2</tspan></text>
	</g>
</g>
<g fill="none" color="black" stroke="currentColor" stroke-width="1.00" stroke-linecap="butt" stroke-linejoin="miter">
	<path stroke='black'  d='M1255.0,684.0 L1255.0,675.0 M1255.0,54.1 L1255.0,63.1  '/>	<g transform="translate(1255.0,705.9)" stroke="none" fill="black" font-family="Arial" font-size="12.00"  text-anchor="middle">
		<text><tspan font-family="Arial" >pi</tspan></text>
	</g>
</g>
<g fill="none" color="black" stroke="currentColor" stroke-width="1.00" stroke-linecap="butt" stroke-linejoin="miter">
</g>
<g fill="none" color="black" stroke="currentColor" stroke-width="1.00" stroke-linecap="butt" stroke-linejoin="miter">
	<path stroke='black'  d='M103.7,54.1 L103.7,684.0 L1255.0,684.0 L1255.0,54.1 L103.7,54.1 Z  '/></g>
<g fill="none" color="black" stroke="currentColor" stroke-width="1.00" stroke-linecap="butt" stroke-linejoin="miter">
	<g transform="translate(679.3,31.0)" stroke="none" fill="black" font-family="Arial" font-size="12.00"  text-anchor="middle">
		<text><tspan font-family="Arial" >Material 39, with 2 components</tspan></text>
	</g>
</g>
	<g id="gnuplot_plot_1" ><title>scattering function</title>
<g fill="none" color="black" stroke="currentColor" stroke-width="1.00" stroke-linecap="butt" stroke-linejoin="miter">
	<g transform="translate(1187.9,76.0)" stroke="none" fill="black" font-family="Arial" font-size="12.00"  text-anchor="end">
		<text><tspan font-family="Arial" >scattering function</tspan></text>
	</g>
</g>
<g fill="none" color="black" stroke="currentColor" stroke-width="1.00" stroke-linecap="butt" stroke-linejoin="miter">
	<use xlink:href='#gpPt5' transform='translate(103.7,102.9) scale(2.25)' color='rgb(255,   0,   0)'/>
	<use xlink:href='#gpPt5' transform='translate(104.3,103.7) scale(2.25)' color='rgb(255,   0,   0)'/>
	<use xlink:href='#gpPt5' transform='translate(105.0,105.8) scale(2.25)' color='rgb(255,   0,   0)'/>
	<use xlink:href='#gpPt5' transform='translate(105.6,109.3) scale(2.25)' color='rgb(255,   0,   0)'/>
	<use xlink:href='#gpPt5' transform='translate(106.3,114.0) scale(2.25)' color='rgb(255,   0,   0)'/>
	<use xlink:href='#gpPt5' transform='translate(106.9,119.5) scale(2.25)' color='rgb(255,   0,   0)'/>
	<use xlink:href='#gpPt5' transform='translate(107.5,125.9) scale(2.25)' color='rgb(255,   0,   0)'/>
	<use xlink:href='#gpPt5' transform='translate(108.2,132.8) scale(2.25)' color='rgb(255,   0,   0)'/>
	<use xlink:href='#gpPt5' transform='translate(108.8,139.8) scale(2.25)' color='rgb(255,   0,   0)'/>
	<use xlink:href='#gpPt5' transform='translate(109.5,146.8) scale(2.25)' color='rgb(255,   0,   0)'/>
	<use xlink:href='#gpPt5' transform='translate(110.1,153.5) scale(2.25)' color='rgb(255,   0,   0)'/>
	<use xlink:href='#gpPt5' transform='translate(110.7,159.9) scale(2.25)' color='rgb(255,   0,   0)'/>
	<use xlink:href='#gpPt5' transform='translate(111.4,165.8) scale(2.25)' color='rgb(255,   0,   0)'/>
	<use xlink:href='#gpPt5' transform='translate(112.0,171.2) scale(2.25)' color='rgb(255,   0,   0)'/>
	<use xlink:href='#gpPt5' transform='translate(112.7,176.3) scale(2.25)' color='rgb(255,   0,   0)'/>
	<use xlink:href='#gpPt5' transform='translate(113.3,181.0) scale(2.25)' color='rgb(255,   0,   0)'/>
	<use xlink:href='#gpPt5' transform='translate(113.9,185.5) scale(2.25)' color='rgb(255,   0,   0)'/>
	<use xlink:href='#gpPt5' transform='translate(114.6,189.7) scale(2.25)' color='rgb(255,   0,   0)'/>
	<use xlink:href='#gpPt5' transform='translate(115.2,193.7) scale(2.25)' color='rgb(255,   0,   0)'/>
	<use xlink:href='#gpPt5' transform='translate(115.9,197.4) scale(2.25)' color='rgb(255,   0,   0)'/>
	<use xlink:href='#gpPt5' transform='translate(116.5,200.9) scale(2.25)' color='rgb(255,   0,   0)'/>
	<use xlink:href='#gpPt5' transform='translate(122.9,226.6) scale(2.25)' color='rgb(255,   0,   0)'/>
	<use xlink:href='#gpPt5' transform='translate(129.3,241.7) scale(2.25)' color='rgb(255,   0,   0)'/>
	<use xlink:href='#gpPt5' transform='translate(135.7,251.5) scale(2.25)' color='rgb(255,   0,   0)'/>
	<use xlink:href='#gpPt5' transform='translate(142.1,258.8) scale(2.25)' color='rgb(255,   0,   0)'/>
	<use xlink:href='#gpPt5' transform='translate(154.9,269.9) scale(2.25)' color='rgb(255,   0,   0)'/>
	<use xlink:href='#gpPt5' transform='translate(167.7,279.3) scale(2.25)' color='rgb(255,   0,   0)'/>
	<use xlink:href='#gpPt5' transform='translate(180.5,288.3) scale(2.25)' color='rgb(255,   0,   0)'/>
	<use xlink:href='#gpPt5' transform='translate(193.2,297.4) scale(2.25)' color='rgb(255,   0,   0)'/>
	<use xlink:href='#gpPt5' transform='translate(206.0,306.7) scale(2.25)' color='rgb(255,   0,   0)'/>
	<use xlink:href='#gpPt5' transform='translate(218.8,316.0) scale(2.25)' color='rgb(255,   0,   0)'/>
	<use xlink:href='#gpPt5' transform='translate(231.6,325.6) scale(2.25)' color='rgb(255,   0,   0)'/>
	<use xlink:href='#gpPt5' transform='translate(244.4,335.3) scale(2.25)' color='rgb(255,   0,   0)'/>
	<use xlink:href='#gpPt5' transform='translate(257.2,345.1) scale(2.25)' color='rgb(255,   0,   0)'/>
	<use xlink:href='#gpPt5' transform='translate(270.0,355.0) scale(2.25)' color='rgb(255,   0,   0)'/>
	<use xlink:href='#gpPt5' transform='translate(282.8,365.0) scale(2.25)' color='rgb(255,   0,   0)'/>
	<use xlink:href='#gpPt5' transform='translate(295.6,375.0) scale(2.25)' color='rgb(255,   0,   0)'/>
	<use xlink:href='#gpPt5' transform='translate(308.4,384.9) scale(2.25)' color='rgb(255,   0,   0)'/>
	<use xlink:href='#gpPt5' transform='translate(321.2,394.9) scale(2.25)' color='rgb(255,   0,   0)'/>
	<use xlink:href='#gpPt5' transform='translate(334.0,404.8) scale(2.25)' color='rgb(255,   0,   0)'/>
	<use xlink:href='#gpPt5' transform='translate(346.8,414.7) scale(2.25)' color='rgb(255,   0,   0)'/>
	<use xlink:href='#gpPt5' transform='translate(359.5,424.4) scale(2.25)' color='rgb(255,   0,   0)'/>
	<use xlink:href='#gpPt5' transform='translate(372.3,434.2) scale(2.25)' color='rgb(255,   0,   0)'/>
	<use xlink:href='#gpPt5' transform='translate(385.1,443.8) scale(2.25)' color='rgb(255,   0,   0)'/>
	<use xlink:href='#gpPt5' transform='translate(397.9,453.3) scale(2.25)' color='rgb(255,   0,   0)'/>
	<use xlink:href='#gpPt5' transform='translate(410.7,462.8) scale(2.25)' color='rgb(255,   0,   0)'/>
	<use xlink:href='#gpPt5' transform='translate(423.5,472.1) scale(2.25)' color='rgb(255,   0,   0)'/>
	<use xlink:href='#gpPt5' transform='translate(436.3,481.3) scale(2.25)' color='rgb(255,   0,   0)'/>
	<use xlink:href='#gpPt5' transform='translate(449.1,490.4) scale(2.25)' color='rgb(255,   0,   0)'/>
	<use xlink:href='#gpPt5' transform='translate(461.9,499.3) scale(2.25)' color='rgb(255,   0,   0)'/>
	<use xlink:href='#gpPt5' transform='translate(474.7,508.1) scale(2.25)' color='rgb(255,   0,   0)'/>
	<use xlink:href='#gpPt5' transform='translate(487.5,516.7) scale(2.25)' color='rgb(255,   0,   0)'/>
	<use xlink:href='#gpPt5' transform='translate(500.3,525.2) scale(2.25)' color='rgb(255,   0,   0)'/>
	<use xlink:href='#gpPt5' transform='translate(513.1,533.5) scale(2.25)' color='rgb(255,   0,   0)'/>
	<use xlink:href='#gpPt5' transform='translate(525.8,541.6) scale(2.25)' color='rgb(255,   0,   0)'/>
	<use xlink:href='#gpPt5' transform='translate(538.6,549.6) scale(2.25)' color='rgb(255,   0,   0)'/>
	<use xlink:href='#gpPt5' transform='translate(551.4,557.4) scale(2.25)' color='rgb(255,   0,   0)'/>
	<use xlink:href='#gpPt5' transform='translate(564.2,565.0) scale(2.25)' color='rgb(255,   0,   0)'/>
	<use xlink:href='#gpPt5' transform='translate(577.0,572.4) scale(2.25)' color='rgb(255,   0,   0)'/>
	<use xlink:href='#gpPt5' transform='translate(589.8,579.6) scale(2.25)' color='rgb(255,   0,   0)'/>
	<use xlink:href='#gpPt5' transform='translate(602.6,586.6) scale(2.25)' color='rgb(255,   0,   0)'/>
	<use xlink:href='#gpPt5' transform='translate(615.4,593.4) scale(2.25)' color='rgb(255,   0,   0)'/>
	<use xlink:href='#gpPt5' transform='translate(628.2,599.9) scale(2.25)' color='rgb(255,   0,   0)'/>
	<use xlink:href='#gpPt5' transform='translate(641.0,606.2) scale(2.25)' color='rgb(255,   0,   0)'/>
	<use xlink:href='#gpPt5' transform='translate(653.8,612.3) scale(2.25)' color='rgb(255,   0,   0)'/>
	<use xlink:href='#gpPt5' transform='translate(666.6,618.1) scale(2.25)' color='rgb(255,   0,   0)'/>
	<use xlink:href='#gpPt5' transform='translate(679.4,623.6) scale(2.25)' color='rgb(255,   0,   0)'/>
	<use xlink:href='#gpPt5' transform='translate(692.1,628.9) scale(2.25)' color='rgb(255,   0,   0)'/>
	<use xlink:href='#gpPt5' transform='translate(704.9,633.9) scale(2.25)' color='rgb(255,   0,   0)'/>
	<use xlink:href='#gpPt5' transform='translate(717.7,638.6) scale(2.25)' color='rgb(255,   0,   0)'/>
	<use xlink:href='#gpPt5' transform='translate(730.5,643.0) scale(2.25)' color='rgb(255,   0,   0)'/>
	<use xlink:href='#gpPt5' transform='translate(743.3,647.0) scale(2.25)' color='rgb(255,   0,   0)'/>
	<use xlink:href='#gpPt5' transform='translate(756.1,650.8) scale(2.25)' color='rgb(255,   0,   0)'/>
	<use xlink:href='#gpPt5' transform='translate(768.9,654.3) scale(2.25)' color='rgb(255,   0,   0)'/>
	<use xlink:href='#gpPt5' transform='translate(781.7,657.4) scale(2.25)' color='rgb(255,   0,   0)'/>
	<use xlink:href='#gpPt5' transform='translate(794.5,660.3) scale(2.25)' color='rgb(255,   0,   0)'/>
	<use xlink:href='#gpPt5' transform='translate(807.3,662.8) scale(2.25)' color='rgb(255,   0,   0)'/>
	<use xlink:href='#gpPt5' transform='translate(820.1,664.9) scale(2.25)' color='rgb(255,   0,   0)'/>
	<use xlink:href='#gpPt5' transform='translate(832.9,666.8) scale(2.25)' color='rgb(255,   0,   0)'/>
	<use xlink:href='#gpPt5' transform='translate(845.6,668.3) scale(2.25)' color='rgb(255,   0,   0)'/>
	<use xlink:href='#gpPt5' transform='translate(858.4,669.5) scale(2.25)' color='rgb(255,   0,   0)'/>
	<use xlink:href='#gpPt5' transform='translate(871.2,670.5) scale(2.25)' color='rgb(255,   0,   0)'/>
	<use xlink:href='#gpPt5' transform='translate(884.0,671.1) scale(2.25)' color='rgb(255,   0,   0)'/>
	<use xlink:href='#gpPt5' transform='translate(896.8,671.3) scale(2.25)' color='rgb(255,   0,   0)'/>
	<use xlink:href='#gpPt5' transform='translate(909.6,671.3) scale(2.25)' color='rgb(255,   0,   0)'/>
	<use xlink:href='#gpPt5' transform='translate(922.4,671.1) scale(2.25)' color='rgb(255,   0,   0)'/>
	<use xlink:href='#gpPt5' transform='translate(935.2,670.5) scale(2.25)' color='rgb(255,   0,   0)'/>
	<use xlink:href='#gpPt5' transform='translate(948.0,669.7) scale(2.25)' color='rgb(255,   0,   0)'/>
	<use xlink:href='#gpPt5' transform='translate(960.8,668.6) scale(2.25)' color='rgb(255,   0,   0)'/>
	<use xlink:href='#gpPt5' transform='translate(973.6,667.2) scale(2.25)' color='rgb(255,   0,   0)'/>
	<use xlink:href='#gpPt5' transform='translate(986.4,665.6) scale(2.25)' color='rgb(255,   0,   0)'/>
	<use xlink:href='#gpPt5' transform='translate(999.2,663.9) scale(2.25)' color='rgb(255,   0,   0)'/>
	<use xlink:href='#gpPt5' transform='translate(1011.9,661.9) scale(2.25)' color='rgb(255,   0,   0)'/>
	<use xlink:href='#gpPt5' transform='translate(1024.7,659.7) scale(2.25)' color='rgb(255,   0,   0)'/>
	<use xlink:href='#gpPt5' transform='translate(1037.5,657.4) scale(2.25)' color='rgb(255,   0,   0)'/>
	<use xlink:href='#gpPt5' transform='translate(1050.3,655.0) scale(2.25)' color='rgb(255,   0,   0)'/>
	<use xlink:href='#gpPt5' transform='translate(1063.1,652.5) scale(2.25)' color='rgb(255,   0,   0)'/>
	<use xlink:href='#gpPt5' transform='translate(1075.9,649.9) scale(2.25)' color='rgb(255,   0,   0)'/>
	<use xlink:href='#gpPt5' transform='translate(1088.7,647.3) scale(2.25)' color='rgb(255,   0,   0)'/>
	<use xlink:href='#gpPt5' transform='translate(1101.5,644.6) scale(2.25)' color='rgb(255,   0,   0)'/>
	<use xlink:href='#gpPt5' transform='translate(1114.3,642.2) scale(2.25)' color='rgb(255,   0,   0)'/>
	<use xlink:href='#gpPt5' transform='translate(1127.1,640.2) scale(2.25)' color='rgb(255,   0,   0)'/>
	<use xlink:href='#gpPt5' transform='translate(1139.9,638.7) scale(2.25)' color='rgb(255,   0,   0)'/>
	<use xlink:href='#gpPt5' transform='translate(1152.7,637.7) scale(2.25)' color='rgb(255,   0,   0)'/>
	<use xlink:href='#gpPt5' transform='translate(1165.5,637.1) scale(2.25)' color='rgb(255,   0,   0)'/>
	<use xlink:href='#gpPt5' transform='translate(1178.2,636.7) scale(2.25)' color='rgb(255,   0,   0)'/>
	<use xlink:href='#gpPt5' transform='translate(1191.0,636.3) scale(2.25)' color='rgb(255,   0,   0)'/>
	<use xlink:href='#gpPt5' transform='translate(1203.8,635.4) scale(2.25)' color='rgb(255,   0,   0)'/>
	<use xlink:href='#gpPt5' transform='translate(1216.6,633.7) scale(2.25)' color='rgb(255,   0,   0)'/>
	<use xlink:href='#gpPt5' transform='translate(1229.4,631.6) scale(2.25)' color='rgb(255,   0,   0)'/>
	<use xlink:href='#gpPt5' transform='translate(1242.2,630.0) scale(2.25)' color='rgb(255,   0,   0)'/>
	<use xlink:href='#gpPt5' transform='translate(1255.0,628.8) scale(2.25)' color='rgb(255,   0,   0)'/>
	<use xlink:href='#gpPt5' transform='translate(1217.3,72.1) scale(2.25)' color='rgb(255,   0,   0)'/>
</g>
	</g>
	<g id="gnuplot_plot_2" ><title>gnuplot_plot_2</title>
<g fill="none" color="black" stroke="currentColor" stroke-width="1.00" stroke-linecap="butt" stroke-linejoin="miter">
	<use xlink:href='#gpPt5' transform='translate(103.7,88.1) scale(2.25)' color='rgb(  0, 100,   0)'/>
	<use xlink:href='#gpPt5' transform='translate(104.3,89.0) scale(2.25)' color='rgb(  0, 100,   0)'/>
	<use xlink:href='#gpPt5' transform='translate(105.0,91.5) scale(2.25)' color='rgb(  0, 100,   0)'/>
	<use xlink:href='#gpPt5' transform='translate(105.6,95.6) scale(2.25)' color='rgb(  0, 100,   0)'/>
	<use xlink:href='#gpPt5' transform='translate(106.3,101.1) scale(2.25)' color='rgb(  0, 100,   0)'/>
	<use xlink:href='#gpPt5' transform='translate(106.9,107.5) scale(2.25)' color='rgb(  0, 100,   0)'/>
	<use xlink:href='#gpPt5' transform='translate(107.5,114.7) scale(2.25)' color='rgb(  0, 100,   0)'/>
	<use xlink:href='#gpPt5' transform='translate(108.2,122.4) scale(2.25)' color='rgb(  0, 100,   0)'/>
	<use xlink:href='#gpPt5' transform='translate(108.8,130.0) scale(2.25)' color='rgb(  0, 100,   0)'/>
	<use xlink:href='#gpPt5' transform='translate(109.5,137.4) scale(2.25)' color='rgb(  0, 100,   0)'/>
	<use xlink:href='#gpPt5' transform='translate(110.1,144.3) scale(2.25)' color='rgb(  0, 100,   0)'/>
	<use xlink:href='#gpPt5' transform='translate(110.7,150.8) scale(2.25)' color='rgb(  0, 100,   0)'/>
	<use xlink:href='#gpPt5' transform='translate(111.4,156.7) scale(2.25)' color='rgb(  0, 100,   0)'/>
	<use xlink:href='#gpPt5' transform='translate(112.0,162.1) scale(2.25)' color='rgb(  0, 100,   0)'/>
	<use xlink:href='#gpPt5' transform='translate(112.7,167.2) scale(2.25)' color='rgb(  0, 100,   0)'/>
	<use xlink:href='#gpPt5' transform='translate(113.3,171.9) scale(2.25)' color='rgb(  0, 100,   0)'/>
	<use xlink:href='#gpPt5' transform='translate(113.9,176.4) scale(2.25)' color='rgb(  0, 100,   0)'/>
	<use xlink:href='#gpPt5' transform='translate(114.6,180.6) scale(2.25)' color='rgb(  0, 100,   0)'/>
	<use xlink:href='#gpPt5' transform='translate(115.2,184.5) scale(2.25)' color='rgb(  0, 100,   0)'/>
	<use xlink:href='#gpPt5' transform='translate(115.9,188.2) scale(2.25)' color='rgb(  0, 100,   0)'/>
	<use xlink:href='#gpPt5' transform='translate(116.5,191.6) scale(2.25)' color='rgb(  0, 100,   0)'/>
	<use xlink:href='#gpPt5' transform='translate(122.9,216.0) scale(2.25)' color='rgb(  0, 100,   0)'/>
	<use xlink:href='#gpPt5' transform='translate(129.3,229.9) scale(2.25)' color='rgb(  0, 100,   0)'/>
	<use xlink:href='#gpPt5' transform='translate(135.7,239.1) scale(2.25)' color='rgb(  0, 100,   0)'/>
	<use xlink:href='#gpPt5' transform='translate(142.1,245.9) scale(2.25)' color='rgb(  0, 100,   0)'/>
	<use xlink:href='#gpPt5' transform='translate(154.9,256.7) scale(2.25)' color='rgb(  0, 100,   0)'/>
	<use xlink:href='#gpPt5' transform='translate(167.7,266.1) scale(2.25)' color='rgb(  0, 100,   0)'/>
	<use xlink:href='#gpPt5' transform='translate(180.5,275.4) scale(2.25)' color='rgb(  0, 100,   0)'/>
	<use xlink:href='#gpPt5' transform='translate(193.2,284.8) scale(2.25)' color='rgb(  0, 100,   0)'/>
	<use xlink:href='#gpPt5' transform='translate(206.0,294.3) scale(2.25)' color='rgb(  0, 100,   0)'/>
	<use xlink:href='#gpPt5' transform='translate(218.8,303.9) scale(2.25)' color='rgb(  0, 100,   0)'/>
	<use xlink:href='#gpPt5' transform='translate(231.6,313.8) scale(2.25)' color='rgb(  0, 100,   0)'/>
	<use xlink:href='#gpPt5' transform='translate(244.4,323.8) scale(2.25)' color='rgb(  0, 100,   0)'/>
	<use xlink:href='#gpPt5' transform='translate(257.2,333.9) scale(2.25)' color='rgb(  0, 100,   0)'/>
	<use xlink:href='#gpPt5' transform='translate(270.0,344.0) scale(2.25)' color='rgb(  0, 100,   0)'/>
	<use xlink:href='#gpPt5' transform='translate(282.8,354.2) scale(2.25)' color='rgb(  0, 100,   0)'/>
	<use xlink:href='#gpPt5' transform='translate(295.6,364.4) scale(2.25)' color='rgb(  0, 100,   0)'/>
	<use xlink:href='#gpPt5' transform='translate(308.4,374.6) scale(2.25)' color='rgb(  0, 100,   0)'/>
	<use xlink:href='#gpPt5' transform='translate(321.2,384.8) scale(2.25)' color='rgb(  0, 100,   0)'/>
	<use xlink:href='#gpPt5' transform='translate(334.0,395.0) scale(2.25)' color='rgb(  0, 100,   0)'/>
	<use xlink:href='#gpPt5' transform='translate(346.8,405.0) scale(2.25)' color='rgb(  0, 100,   0)'/>
	<use xlink:href='#gpPt5' transform='translate(359.5,415.0) scale(2.25)' color='rgb(  0, 100,   0)'/>
	<use xlink:href='#gpPt5' transform='translate(372.3,425.0) scale(2.25)' color='rgb(  0, 100,   0)'/>
	<use xlink:href='#gpPt5' transform='translate(385.1,434.7) scale(2.25)' color='rgb(  0, 100,   0)'/>
	<use xlink:href='#gpPt5' transform='translate(397.9,444.5) scale(2.25)' color='rgb(  0, 100,   0)'/>
	<use xlink:href='#gpPt5' transform='translate(410.7,454.0) scale(2.25)' color='rgb(  0, 100,   0)'/>
	<use xlink:href='#gpPt5' transform='translate(423.5,463.5) scale(2.25)' color='rgb(  0, 100,   0)'/>
	<use xlink:href='#gpPt5' transform='translate(436.3,472.8) scale(2.25)' color='rgb(  0, 100,   0)'/>
	<use xlink:href='#gpPt5' transform='translate(449.1,482.0) scale(2.25)' color='rgb(  0, 100,   0)'/>
	<use xlink:href='#gpPt5' transform='translate(461.9,491.1) scale(2.25)' color='rgb(  0, 100,   0)'/>
	<use xlink:href='#gpPt5' transform='translate(474.7,499.9) scale(2.25)' color='rgb(  0, 100,   0)'/>
	<use xlink:href='#gpPt5' transform='translate(487.5,508.7) scale(2.25)' color='rgb(  0, 100,   0)'/>
	<use xlink:href='#gpPt5' transform='translate(500.3,517.3) scale(2.25)' color='rgb(  0, 100,   0)'/>
	<use xlink:href='#gpPt5' transform='translate(513.1,525.7) scale(2.25)' color='rgb(  0, 100,   0)'/>
	<use xlink:href='#gpPt5' transform='translate(525.8,534.0) scale(2.25)' color='rgb(  0, 100,   0)'/>
	<use xlink:href='#gpPt5' transform='translate(538.6,542.0) scale(2.25)' color='rgb(  0, 100,   0)'/>
	<use xlink:href='#gpPt5' transform='translate(551.4,549.9) scale(2.25)' color='rgb(  0, 100,   0)'/>
	<use xlink:href='#gpPt5' transform='translate(564.2,557.5) scale(2.25)' color='rgb(  0, 100,   0)'/>
	<use xlink:href='#gpPt5' transform='translate(577.0,565.0) scale(2.25)' color='rgb(  0, 100,   0)'/>
	<use xlink:href='#gpPt5' transform='translate(589.8,572.3) scale(2.25)' color='rgb(  0, 100,   0)'/>
	<use xlink:href='#gpPt5' transform='translate(602.6,579.3) scale(2.25)' color='rgb(  0, 100,   0)'/>
	<use xlink:href='#gpPt5' transform='translate(615.4,586.1) scale(2.25)' color='rgb(  0, 100,   0)'/>
	<use xlink:href='#gpPt5' transform='translate(628.2,592.7) scale(2.25)' color='rgb(  0, 100,   0)'/>
	<use xlink:href='#gpPt5' transform='translate(641.0,599.0) scale(2.25)' color='rgb(  0, 100,   0)'/>
	<use xlink:href='#gpPt5' transform='translate(653.8,605.2) scale(2.25)' color='rgb(  0, 100,   0)'/>
	<use xlink:href='#gpPt5' transform='translate(666.6,611.0) scale(2.25)' color='rgb(  0, 100,   0)'/>
	<use xlink:href='#gpPt5' transform='translate(679.4,616.6) scale(2.25)' color='rgb(  0, 100,   0)'/>
	<use xlink:href='#gpPt5' transform='translate(692.1,621.9) scale(2.25)' color='rgb(  0, 100,   0)'/>
	<use xlink:href='#gpPt5' transform='translate(704.9,626.8) scale(2.25)' color='rgb(  0, 100,   0)'/>
	<use xlink:href='#gpPt5' transform='translate(717.7,631.5) scale(2.25)' color='rgb(  0, 100,   0)'/>
	<use xlink:href='#gpPt5' transform='translate(730.5,635.9) scale(2.25)' color='rgb(  0, 100,   0)'/>
	<use xlink:href='#gpPt5' transform='translate(743.3,640.0) scale(2.25)' color='rgb(  0, 100,   0)'/>
	<use xlink:href='#gpPt5' transform='translate(756.1,643.8) scale(2.25)' color='rgb(  0, 100,   0)'/>
	<use xlink:href='#gpPt5' transform='translate(768.9,647.4) scale(2.25)' color='rgb(  0, 100,   0)'/>
	<use xlink:href='#gpPt5' transform='translate(781.7,650.5) scale(2.25)' color='rgb(  0, 100,   0)'/>
	<use xlink:href='#gpPt5' transform='translate(794.5,653.3) scale(2.25)' color='rgb(  0, 100,   0)'/>
	<use xlink:href='#gpPt5' transform='translate(807.3,655.8) scale(2.25)' color='rgb(  0, 100,   0)'/>
	<use xlink:href='#gpPt5' transform='translate(820.1,658.0) scale(2.25)' color='rgb(  0, 100,   0)'/>
	<use xlink:href='#gpPt5' transform='translate(832.9,659.8) scale(2.25)' color='rgb(  0, 100,   0)'/>
	<use xlink:href='#gpPt5' transform='translate(845.6,661.4) scale(2.25)' color='rgb(  0, 100,   0)'/>
	<use xlink:href='#gpPt5' transform='translate(858.4,662.6) scale(2.25)' color='rgb(  0, 100,   0)'/>
	<use xlink:href='#gpPt5' transform='translate(871.2,663.5) scale(2.25)' color='rgb(  0, 100,   0)'/>
	<use xlink:href='#gpPt5' transform='translate(884.0,664.1) scale(2.25)' color='rgb(  0, 100,   0)'/>
	<use xlink:href='#gpPt5' transform='translate(896.8,664.4) scale(2.25)' color='rgb(  0, 100,   0)'/>
	<use xlink:href='#gpPt5' transform='translate(909.6,664.3) scale(2.25)' color='rgb(  0, 100,   0)'/>
	<use xlink:href='#gpPt5' transform='translate(922.4,663.9) scale(2.25)' color='rgb(  0, 100,   0)'/>
	<use xlink:href='#gpPt5' transform='translate(935.2,663.3) scale(2.25)' color='rgb(  0, 100,   0)'/>
	<use xlink:href='#gpPt5' transform='translate(948.0,662.4) scale(2.25)' color='rgb(  0, 100,   0)'/>
	<use xlink:href='#gpPt5' transform='translate(960.8,661.2) scale(2.25)' color='rgb(  0, 100,   0)'/>
	<use xlink:href='#gpPt5' transform='translate(973.6,659.8) scale(2.25)' color='rgb(  0, 100,   0)'/>
	<use xlink:href='#gpPt5' transform='translate(986.4,658.1) scale(2.25)' color='rgb(  0, 100,   0)'/>
	<use xlink:href='#gpPt5' transform='translate(999.2,656.2) scale(2.25)' color='rgb(  0, 100,   0)'/>
	<use xlink:href='#gpPt5' transform='translate(1011.9,654.0) scale(2.25)' color='rgb(  0, 100,   0)'/>
	<use xlink:href='#gpPt5' transform='translate(1024.7,651.7) scale(2.25)' color='rgb(  0, 100,   0)'/>
	<use xlink:href='#gpPt5' transform='translate(1037.5,649.2) scale(2.25)' color='rgb(  0, 100,   0)'/>
	<use xlink:href='#gpPt5' transform='translate(1050.3,646.6) scale(2.25)' color='rgb(  0, 100,   0)'/>
	<use xlink:href='#gpPt5' transform='translate(1063.1,643.9) scale(2.25)' color='rgb(  0, 100,   0)'/>
	<use xlink:href='#gpPt5' transform='translate(1075.9,641.2) scale(2.25)' color='rgb(  0, 100,   0)'/>
	<use xlink:href='#gpPt5' transform='translate(1088.7,638.5) scale(2.25)' color='rgb(  0, 100,   0)'/>
	<use xlink:href='#gpPt5' transform='translate(1101.5,636.0) scale(2.25)' color='rgb(  0, 100,   0)'/>
	<use xlink:href='#gpPt5' transform='translate(1114.3,633.7) scale(2.25)' color='rgb(  0, 100,   0)'/>
	<use xlink:href='#gpPt5' transform='translate(1127.1,631.5) scale(2.25)' color='rgb(  0, 100,   0)'/>
	<use xlink:href='#gpPt5' transform='translate(1139.9,629.8) scale(2.25)' color='rgb(  0, 100,   0)'/>
	<use xlink:href='#gpPt5' transform='translate(1152.7,629.0) scale(2.25)' color='rgb(  0, 100,   0)'/>
	<use xlink:href='#gpPt5' transform='translate(1165.5,629.0) scale(2.25)' color='rgb(  0, 100,   0)'/>
	<use xlink:href='#gpPt5' transform='translate(1178.2,629.2) scale(2.25)' color='rgb(  0, 100,   0)'/>
	<use xlink:href='#gpPt5' transform='translate(1191.0,629.2) scale(2.25)' color='rgb(  0, 100,   0)'/>
	<use xlink:href='#gpPt5' transform='translate(1203.8,628.4) scale(2.25)' color='rgb(  0, 100,   0)'/>
	<use xlink:href='#gpPt5' transform='translate(1216.6,626.6) scale(2.25)' color='rgb(  0, 100,   0)'/>
	<use xlink:href='#gpPt5' transform='translate(1229.4,624.2) scale(2.25)' color='rgb(  0, 100,   0)'/>
	<use xlink:href='#gpPt5' transform='translate(1242.2,622.1) scale(2.25)' color='rgb(  0, 100,   0)'/>
	<use xlink:href='#gpPt5' transform='translate(1255.0,620.6) scale(2.25)' color='rgb(  0, 100,   0)'/>
</g>
	</g>
	<g id="gnuplot_plot_3" ><title>gnuplot_plot_3</title>
<g fill="none" color="black" stroke="currentColor" stroke-width="1.00" stroke-linecap="butt" stroke-linejoin="miter">
	<use xlink:href='#gpPt5' transform='translate(103.7,54.1) scale(2.25)' color='rgb(  0,   0, 255)'/>
	<use xlink:href='#gpPt5' transform='translate(104.3,55.4) scale(2.25)' color='rgb(  0,   0, 255)'/>
	<use xlink:href='#gpPt5' transform='translate(105.0,59.1) scale(2.25)' color='rgb(  0,   0, 255)'/>
	<use xlink:href='#gpPt5' transform='translate(105.6,65.0) scale(2.25)' color='rgb(  0,   0, 255)'/>
	<use xlink:href='#gpPt5' transform='translate(106.3,72.7) scale(2.25)' color='rgb(  0,   0, 255)'/>
	<use xlink:href='#gpPt5' transform='translate(106.9,81.5) scale(2.25)' color='rgb(  0,   0, 255)'/>
	<use xlink:href='#gpPt5' transform='translate(107.5,90.8) scale(2.25)' color='rgb(  0,   0, 255)'/>
	<use xlink:href='#gpPt5' transform='translate(108.2,100.1) scale(2.25)' color='rgb(  0,   0, 255)'/>
	<use xlink:href='#gpPt5' transform='translate(108.8,108.7) scale(2.25)' color='rgb(  0,   0, 255)'/>
	<use xlink:href='#gpPt5' transform='translate(109.5,116.7) scale(2.25)' color='rgb(  0,   0, 255)'/>
	<use xlink:href='#gpPt5' transform='translate(110.1,123.8) scale(2.25)' color='rgb(  0,   0, 255)'/>
	<use xlink:href='#gpPt5' transform='translate(110.7,130.3) scale(2.25)' color='rgb(  0,   0, 255)'/>
	<use xlink:href='#gpPt5' transform='translate(111.4,136.2) scale(2.25)' color='rgb(  0,   0, 255)'/>
	<use xlink:href='#gpPt5' transform='translate(112.0,141.8) scale(2.25)' color='rgb(  0,   0, 255)'/>
	<use xlink:href='#gpPt5' transform='translate(112.7,146.9) scale(2.25)' color='rgb(  0,   0, 255)'/>
	<use xlink:href='#gpPt5' transform='translate(113.3,151.5) scale(2.25)' color='rgb(  0,   0, 255)'/>
	<use xlink:href='#gpPt5' transform='translate(113.9,155.9) scale(2.25)' color='rgb(  0,   0, 255)'/>
	<use xlink:href='#gpPt5' transform='translate(114.6,159.8) scale(2.25)' color='rgb(  0,   0, 255)'/>
	<use xlink:href='#gpPt5' transform='translate(115.2,163.4) scale(2.25)' color='rgb(  0,   0, 255)'/>
	<use xlink:href='#gpPt5' transform='translate(115.9,166.8) scale(2.25)' color='rgb(  0,   0, 255)'/>
	<use xlink:href='#gpPt5' transform='translate(116.5,169.9) scale(2.25)' color='rgb(  0,   0, 255)'/>
	<use xlink:href='#gpPt5' transform='translate(122.9,191.3) scale(2.25)' color='rgb(  0,   0, 255)'/>
	<use xlink:href='#gpPt5' transform='translate(129.3,203.1) scale(2.25)' color='rgb(  0,   0, 255)'/>
	<use xlink:href='#gpPt5' transform='translate(135.7,211.0) scale(2.25)' color='rgb(  0,   0, 255)'/>
	<use xlink:href='#gpPt5' transform='translate(142.1,217.3) scale(2.25)' color='rgb(  0,   0, 255)'/>
	<use xlink:href='#gpPt5' transform='translate(154.9,227.9) scale(2.25)' color='rgb(  0,   0, 255)'/>
	<use xlink:href='#gpPt5' transform='translate(167.7,237.9) scale(2.25)' color='rgb(  0,   0, 255)'/>
	<use xlink:href='#gpPt5' transform='translate(180.5,247.8) scale(2.25)' color='rgb(  0,   0, 255)'/>
	<use xlink:href='#gpPt5' transform='translate(193.2,257.9) scale(2.25)' color='rgb(  0,   0, 255)'/>
	<use xlink:href='#gpPt5' transform='translate(206.0,268.1) scale(2.25)' color='rgb(  0,   0, 255)'/>
	<use xlink:href='#gpPt5' transform='translate(218.8,278.5) scale(2.25)' color='rgb(  0,   0, 255)'/>
	<use xlink:href='#gpPt5' transform='translate(231.6,289.0) scale(2.25)' color='rgb(  0,   0, 255)'/>
	<use xlink:href='#gpPt5' transform='translate(244.4,299.6) scale(2.25)' color='rgb(  0,   0, 255)'/>
	<use xlink:href='#gpPt5' transform='translate(257.2,310.3) scale(2.25)' color='rgb(  0,   0, 255)'/>
	<use xlink:href='#gpPt5' transform='translate(270.0,321.0) scale(2.25)' color='rgb(  0,   0, 255)'/>
	<use xlink:href='#gpPt5' transform='translate(282.8,331.8) scale(2.25)' color='rgb(  0,   0, 255)'/>
	<use xlink:href='#gpPt5' transform='translate(295.6,342.5) scale(2.25)' color='rgb(  0,   0, 255)'/>
	<use xlink:href='#gpPt5' transform='translate(308.4,353.2) scale(2.25)' color='rgb(  0,   0, 255)'/>
	<use xlink:href='#gpPt5' transform='translate(321.2,363.8) scale(2.25)' color='rgb(  0,   0, 255)'/>
	<use xlink:href='#gpPt5' transform='translate(334.0,374.4) scale(2.25)' color='rgb(  0,   0, 255)'/>
	<use xlink:href='#gpPt5' transform='translate(346.8,384.9) scale(2.25)' color='rgb(  0,   0, 255)'/>
	<use xlink:href='#gpPt5' transform='translate(359.5,395.3) scale(2.25)' color='rgb(  0,   0, 255)'/>
	<use xlink:href='#gpPt5' transform='translate(372.3,405.5) scale(2.25)' color='rgb(  0,   0, 255)'/>
	<use xlink:href='#gpPt5' transform='translate(385.1,415.7) scale(2.25)' color='rgb(  0,   0, 255)'/>
	<use xlink:href='#gpPt5' transform='translate(397.9,425.7) scale(2.25)' color='rgb(  0,   0, 255)'/>
	<use xlink:href='#gpPt5' transform='translate(410.7,435.7) scale(2.25)' color='rgb(  0,   0, 255)'/>
	<use xlink:href='#gpPt5' transform='translate(423.5,445.4) scale(2.25)' color='rgb(  0,   0, 255)'/>
	<use xlink:href='#gpPt5' transform='translate(436.3,455.0) scale(2.25)' color='rgb(  0,   0, 255)'/>
	<use xlink:href='#gpPt5' transform='translate(449.1,464.5) scale(2.25)' color='rgb(  0,   0, 255)'/>
	<use xlink:href='#gpPt5' transform='translate(461.9,473.8) scale(2.25)' color='rgb(  0,   0, 255)'/>
	<use xlink:href='#gpPt5' transform='translate(474.7,482.9) scale(2.25)' color='rgb(  0,   0, 255)'/>
	<use xlink:href='#gpPt5' transform='translate(487.5,491.8) scale(2.25)' color='rgb(  0,   0, 255)'/>
	<use xlink:href='#gpPt5' transform='translate(500.3,500.5) scale(2.25)' color='rgb(  0,   0, 255)'/>
	<use xlink:href='#gpPt5' transform='translate(513.1,509.1) scale(2.25)' color='rgb(  0,   0, 255)'/>
	<use xlink:href='#gpPt5' transform='translate(525.8,517.5) scale(2.25)' color='rgb(  0,   0, 255)'/>
	<use xlink:href='#gpPt5' transform='translate(538.6,525.7) scale(2.25)' color='rgb(  0,   0, 255)'/>
	<use xlink:href='#gpPt5' transform='translate(551.4,533.7) scale(2.25)' color='rgb(  0,   0, 255)'/>
	<use xlink:href='#gpPt5' transform='translate(564.2,541.5) scale(2.25)' color='rgb(  0,   0, 255)'/>
	<use xlink:href='#gpPt5' transform='translate(577.0,549.1) scale(2.25)' color='rgb(  0,   0, 255)'/>
	<use xlink:href='#gpPt5' transform='translate(589.8,556.4) scale(2.25)' color='rgb(  0,   0, 255)'/>
	<use xlink:href='#gpPt5' transform='translate(602.6,563.5) scale(2.25)' color='rgb(  0,   0, 255)'/>
	<use xlink:href='#gpPt5' transform='translate(615.4,570.4) scale(2.25)' color='rgb(  0,   0, 255)'/>
	<use xlink:href='#gpPt5' transform='translate(628.2,577.1) scale(2.25)' color='rgb(  0,   0, 255)'/>
	<use xlink:href='#gpPt5' transform='translate(641.0,583.4) scale(2.25)' color='rgb(  0,   0, 255)'/>
	<use xlink:href='#gpPt5' transform='translate(653.8,589.5) scale(2.25)' color='rgb(  0,   0, 255)'/>
	<use xlink:href='#gpPt5' transform='translate(666.6,595.4) scale(2.25)' color='rgb(  0,   0, 255)'/>
	<use xlink:href='#gpPt5' transform='translate(679.4,601.0) scale(2.25)' color='rgb(  0,   0, 255)'/>
	<use xlink:href='#gpPt5' transform='translate(692.1,606.3) scale(2.25)' color='rgb(  0,   0, 255)'/>
	<use xlink:href='#gpPt5' transform='translate(704.9,611.3) scale(2.25)' color='rgb(  0,   0, 255)'/>
	<use xlink:href='#gpPt5' transform='translate(717.7,616.0) scale(2.25)' color='rgb(  0,   0, 255)'/>
	<use xlink:href='#gpPt5' transform='translate(730.5,620.5) scale(2.25)' color='rgb(  0,   0, 255)'/>
	<use xlink:href='#gpPt5' transform='translate(743.3,624.6) scale(2.25)' color='rgb(  0,   0, 255)'/>
	<use xlink:href='#gpPt5' transform='translate(756.1,628.4) scale(2.25)' color='rgb(  0,   0, 255)'/>
	<use xlink:href='#gpPt5' transform='translate(768.9,631.9) scale(2.25)' color='rgb(  0,   0, 255)'/>
	<use xlink:href='#gpPt5' transform='translate(781.7,635.0) scale(2.25)' color='rgb(  0,   0, 255)'/>
	<use xlink:href='#gpPt5' transform='translate(794.5,637.8) scale(2.25)' color='rgb(  0,   0, 255)'/>
	<use xlink:href='#gpPt5' transform='translate(807.3,640.3) scale(2.25)' color='rgb(  0,   0, 255)'/>
	<use xlink:href='#gpPt5' transform='translate(820.1,642.5) scale(2.25)' color='rgb(  0,   0, 255)'/>
	<use xlink:href='#gpPt5' transform='translate(832.9,644.3) scale(2.25)' color='rgb(  0,   0, 255)'/>
	<use xlink:href='#gpPt5' transform='translate(845.6,645.8) scale(2.25)' color='rgb(  0,   0, 255)'/>
	<use xlink:href='#gpPt5' transform='translate(858.4,647.0) scale(2.25)' color='rgb(  0,   0, 255)'/>
	<use xlink:href='#gpPt5' transform='translate(871.2,647.8) scale(2.25)' color='rgb(  0,   0, 255)'/>
	<use xlink:href='#gpPt5' transform='translate(884.0,648.3) scale(2.25)' color='rgb(  0,   0, 255)'/>
	<use xlink:href='#gpPt5' transform='translate(896.8,648.3) scale(2.25)' color='rgb(  0,   0, 255)'/>
	<use xlink:href='#gpPt5' transform='translate(909.6,648.1) scale(2.25)' color='rgb(  0,   0, 255)'/>
	<use xlink:href='#gpPt5' transform='translate(922.4,647.6) scale(2.25)' color='rgb(  0,   0, 255)'/>
	<use xlink:href='#gpPt5' transform='translate(935.2,646.7) scale(2.25)' color='rgb(  0,   0, 255)'/>
	<use xlink:href='#gpPt5' transform='translate(948.0,645.6) scale(2.25)' color='rgb(  0,   0, 255)'/>
	<use xlink:href='#gpPt5' transform='translate(960.8,644.1) scale(2.25)' color='rgb(  0,   0, 255)'/>
	<use xlink:href='#gpPt5' transform='translate(973.6,642.3) scale(2.25)' color='rgb(  0,   0, 255)'/>
	<use xlink:href='#gpPt5' transform='translate(986.4,640.3) scale(2.25)' color='rgb(  0,   0, 255)'/>
	<use xlink:href='#gpPt5' transform='translate(999.2,637.9) scale(2.25)' color='rgb(  0,   0, 255)'/>
	<use xlink:href='#gpPt5' transform='translate(1011.9,635.3) scale(2.25)' color='rgb(  0,   0, 255)'/>
	<use xlink:href='#gpPt5' transform='translate(1024.7,632.5) scale(2.25)' color='rgb(  0,   0, 255)'/>
	<use xlink:href='#gpPt5' transform='translate(1037.5,629.6) scale(2.25)' color='rgb(  0,   0, 255)'/>
	<use xlink:href='#gpPt5' transform='translate(1050.3,626.5) scale(2.25)' color='rgb(  0,   0, 255)'/>
	<use xlink:href='#gpPt5' transform='translate(1063.1,623.4) scale(2.25)' color='rgb(  0,   0, 255)'/>
	<use xlink:href='#gpPt5' transform='translate(1075.9,620.1) scale(2.25)' color='rgb(  0,   0, 255)'/>
	<use xlink:href='#gpPt5' transform='translate(1088.7,617.0) scale(2.25)' color='rgb(  0,   0, 255)'/>
	<use xlink:href='#gpPt5' transform='translate(1101.5,614.3) scale(2.25)' color='rgb(  0,   0, 255)'/>
	<use xlink:href='#gpPt5' transform='translate(1114.3,611.7) scale(2.25)' color='rgb(  0,   0, 255)'/>
	<use xlink:href='#gpPt5' transform='translate(1127.1,609.6) scale(2.25)' color='rgb(  0,   0, 255)'/>
	<use xlink:href='#gpPt5' transform='translate(1139.9,608.2) scale(2.25)' color='rgb(  0,   0, 255)'/>
	<use xlink:href='#gpPt5' transform='translate(1152.7,607.8) scale(2.25)' color='rgb(  0,   0, 255)'/>
	<use xlink:href='#gpPt5' transform='translate(1165.5,608.4) scale(2.25)' color='rgb(  0,   0, 255)'/>
	<use xlink:href='#gpPt5' transform='translate(1178.2,609.5) scale(2.25)' color='rgb(  0,   0, 255)'/>
	<use xlink:href='#gpPt5' transform='translate(1191.0,610.6) scale(2.25)' color='rgb(  0,   0, 255)'/>
	<use xlink:href='#gpPt5' transform='translate(1203.8,610.8) scale(2.25)' color='rgb(  0,   0, 255)'/>
	<use xlink:href='#gpPt5' transform='translate(1216.6,609.1) scale(2.25)' color='rgb(  0,   0, 255)'/>
	<use xlink:href='#gpPt5' transform='translate(1229.4,606.0) scale(2.25)' color='rgb(  0,   0, 255)'/>
	<use xlink:href='#gpPt5' transform='translate(1242.2,603.0) scale(2.25)' color='rgb(  0,   0, 255)'/>
	<use xlink:href='#gpPt5' transform='translate(1255.0,601.2) scale(2.25)' color='rgb(  0,   0, 255)'/>
</g>
	</g>
	<g id="gnuplot_plot_4" ><title>fit</title>
<g fill="none" color="black" stroke="currentColor" stroke-width="1.00" stroke-linecap="butt" stroke-linejoin="miter">
	<g transform="translate(1187.9,94.0)" stroke="none" fill="black" font-family="Arial" font-size="12.00"  text-anchor="end">
		<text><tspan font-family="Arial" >fit</tspan></text>
	</g>
</g>
<g fill="none" color="black" stroke="currentColor" stroke-width="1.00" stroke-linecap="butt" stroke-linejoin="miter">
	<path stroke='rgb(255,   0,   0)'  d='M1196.2,90.1 L1238.4,90.1 M103.7,101.4 L104.8,103.6 L106.0,109.9 L107.1,119.4 L108.2,130.8 L109.3,143.2
		L110.5,155.6 L111.6,167.3 L112.7,178.0 L113.8,187.5 L115.0,195.8 L116.1,203.0 L117.2,209.1 L118.3,214.4
		L119.5,218.9 L120.6,222.7 L121.7,226.0 L122.8,228.8 L124.0,231.3 L125.1,233.5 L126.2,235.4 L127.3,237.0
		L128.5,238.5 L129.6,239.9 L130.7,241.2 L131.8,242.3 L133.0,243.4 L134.1,244.4 L135.2,245.4 L136.3,246.3
		L137.5,247.1 L138.6,248.0 L139.7,248.8 L140.8,249.6 L142.0,250.4 L143.1,251.1 L144.2,251.9 L145.3,252.7
		L146.5,253.4 L147.6,254.2 L148.7,254.9 L149.8,255.7 L151.0,256.4 L152.1,257.2 L153.2,257.9 L154.3,258.7
		L155.5,259.4 L156.6,260.2 L157.7,261.0 L158.8,261.8 L160.0,262.6 L161.1,263.4 L162.2,264.2 L163.3,265.0
		L164.5,265.8 L165.6,266.6 L166.7,267.4 L167.8,268.3 L169.0,269.1 L170.1,270.0 L171.2,270.8 L172.4,271.7
		L173.5,272.5 L174.6,273.4 L175.7,274.3 L176.9,275.2 L178.0,276.1 L179.1,277.0 L180.2,277.9 L181.4,278.8
		L182.5,279.7 L183.6,280.6 L184.7,281.6 L185.9,282.5 L187.0,283.4 L188.1,284.4 L189.2,285.3 L190.4,286.3
		L191.5,287.2 L192.6,288.2 L193.7,289.2 L194.9,290.1 L196.0,291.1 L197.1,292.1 L198.2,293.1 L199.4,294.1
		L200.5,295.0 L201.6,296.0 L202.7,297.0 L203.9,298.0 L205.0,299.0 L206.1,300.1 L207.2,301.1 L208.4,302.1
		L209.5,303.1 L210.6,304.1 L211.7,305.1 L212.9,306.1 L214.0,307.2 L215.1,308.2 L216.2,309.2 L217.4,310.3
		L218.5,311.3 L219.6,312.3 L220.7,313.4 L221.9,314.4 L223.0,315.4 L224.1,316.5 L225.2,317.5 L226.4,318.5
		L227.5,319.6 L228.6,320.6 L229.7,321.7 L230.9,322.7 L232.0,323.7 L233.1,324.8 L234.2,325.8 L235.4,326.9
		L236.5,327.9 L237.6,329.0 L238.7,330.0 L239.9,331.1 L241.0,332.1 L242.1,333.1 L243.3,334.2 L244.4,335.2
		L245.5,336.3 L246.6,337.3 L247.8,338.4 L248.9,339.4 L250.0,340.4 L251.1,341.5 L252.3,342.5 L253.4,343.6
		L254.5,344.6 L255.6,345.6 L256.8,346.7 L257.9,347.7 L259.0,348.7 L260.1,349.8 L261.3,350.8 L262.4,351.8
		L263.5,352.9 L264.6,353.9 L265.8,354.9 L266.9,355.9 L268.0,357.0 L269.1,358.0 L270.3,359.0 L271.4,360.0
		L272.5,361.0 L273.6,362.0 L274.8,363.1 L275.9,364.1 L277.0,365.1 L278.1,366.1 L279.3,367.1 L280.4,368.1
		L281.5,369.1 L282.6,370.1 L283.8,371.1 L284.9,372.1 L286.0,373.1 L287.1,374.1 L288.3,375.1 L289.4,376.1
		L290.5,377.1 L291.6,378.1 L292.8,379.0 L293.9,380.0 L295.0,381.0 L296.1,382.0 L297.3,382.9 L298.4,383.9
		L299.5,384.9 L300.6,385.9 L301.8,386.8 L302.9,387.8 L304.0,388.8 L305.1,389.7 L306.3,390.7 L307.4,391.6
		L308.5,392.6 L309.7,393.5 L310.8,394.5 L311.9,395.4 L313.0,396.4 L314.2,397.3 L315.3,398.3 L316.4,399.2
		L317.5,400.1 L318.7,401.1 L319.8,402.0 L320.9,402.9 L322.0,403.8 L323.2,404.8 L324.3,405.7 L325.4,406.6
		L326.5,407.5 L327.7,408.4 L328.8,409.4 L329.9,410.3 L331.0,411.2 L332.2,412.1 L333.3,413.0 L334.4,413.9
		L335.5,414.8 L336.7,415.7 L337.8,416.6 L338.9,417.5 L340.0,418.3 L341.2,419.2 L342.3,420.1 L343.4,421.0
		L344.5,421.9 L345.7,422.7 L346.8,423.6 L347.9,424.5 L349.0,425.4 L350.2,426.2 L351.3,427.1 L352.4,428.0
		L353.5,428.8 L354.7,429.7 L355.8,430.5 L356.9,431.4 L358.0,432.2 L359.2,433.1 L360.3,433.9 L361.4,434.8
		L362.5,435.6 L363.7,436.4 L364.8,437.3 L365.9,438.1 L367.0,438.9 L368.2,439.8 L369.3,440.6 L370.4,441.4
		L371.5,442.2 L372.7,443.1 L373.8,443.9 L374.9,444.7 L376.1,445.5 L377.2,446.3 L378.3,447.1 L379.4,447.9
		L380.6,448.7 L381.7,449.5 L382.8,450.3 L383.9,451.1 L385.1,451.9 L386.2,452.7 L387.3,453.5 L388.4,454.3
		L389.6,455.1 L390.7,455.9 L391.8,456.6 L392.9,457.4 L394.1,458.2 L395.2,459.0 L396.3,459.7 L397.4,460.5
		L398.6,461.3 L399.7,462.0 L400.8,462.8 L401.9,463.6 L403.1,464.3 L404.2,465.1 L405.3,465.8 L406.4,466.6
		L407.6,467.3 L408.7,468.1 L409.8,468.8 L410.9,469.6 L412.1,470.3 L413.2,471.0 L414.3,471.8 L415.4,472.5
		L416.6,473.3 L417.7,474.0 L418.8,474.7 L419.9,475.4 L421.1,476.2 L422.2,476.9 L423.3,477.6 L424.4,478.3
		L425.6,479.0 L426.7,479.7 L427.8,480.5 L428.9,481.2 L430.1,481.9 L431.2,482.6 L432.3,483.3 L433.4,484.0
		L434.6,484.7 L435.7,485.4 L436.8,486.1 L437.9,486.8 L439.1,487.5 L440.2,488.1 L441.3,488.8 L442.5,489.5
		L443.6,490.2 L444.7,490.9 L445.8,491.6 L447.0,492.2 L448.1,492.9 L449.2,493.6 L450.3,494.3 L451.5,494.9
		L452.6,495.6 L453.7,496.3 L454.8,496.9 L456.0,497.6 L457.1,498.2 L458.2,498.9 L459.3,499.6 L460.5,500.2
		L461.6,500.9 L462.7,501.5 L463.8,502.2 L465.0,502.8 L466.1,503.5 L467.2,504.1 L468.3,504.7 L469.5,505.4
		L470.6,506.0 L471.7,506.6 L472.8,507.3 L474.0,507.9 L475.1,508.5 L476.2,509.2 L477.3,509.8 L478.5,510.4
		L479.6,511.0 L480.7,511.7 L481.8,512.3 L483.0,512.9 L484.1,513.5 L485.2,514.1 L486.3,514.7 L487.5,515.4
		L488.6,516.0 L489.7,516.6 L490.8,517.2 L492.0,517.8 L493.1,518.4 L494.2,519.0 L495.3,519.6 L496.5,520.2
		L497.6,520.8 L498.7,521.4 L499.8,522.0 L501.0,522.5 L502.1,523.1 L503.2,523.7 L504.3,524.3 L505.5,524.9
		L506.6,525.5 L507.7,526.0 L508.8,526.6 L510.0,527.2 L511.1,527.8 L512.2,528.3 L513.4,528.9 L514.5,529.5
		L515.6,530.1 L516.7,530.6 L517.9,531.2 L519.0,531.7 L520.1,532.3 L521.2,532.9 L522.4,533.4 L523.5,534.0
		L524.6,534.5 L525.7,535.1 L526.9,535.6 L528.0,536.2 L529.1,536.7 L530.2,537.3 L531.4,537.8 L532.5,538.4
		L533.6,538.9 L534.7,539.5 L535.9,540.0 L537.0,540.5 L538.1,541.1 L539.2,541.6 L540.4,542.1 L541.5,542.7
		L542.6,543.2 L543.7,543.7 L544.9,544.3 L546.0,544.8 L547.1,545.3 L548.2,545.8 L549.4,546.4 L550.5,546.9
		L551.6,547.4 L552.7,547.9 L553.9,548.4 L555.0,548.9 L556.1,549.5 L557.2,550.0 L558.4,550.5 L559.5,551.0
		L560.6,551.5 L561.7,552.0 L562.9,552.5 L564.0,553.0 L565.1,553.5 L566.2,554.0 L567.4,554.5 L568.5,555.0
		L569.6,555.5 L570.7,556.0 L571.9,556.5 L573.0,557.0 L574.1,557.5 L575.2,558.0 L576.4,558.4 L577.5,558.9
		L578.6,559.4 L579.8,559.9 L580.9,560.4 L582.0,560.9 L583.1,561.3 L584.3,561.8 L585.4,562.3 L586.5,562.8
		L587.6,563.2 L588.8,563.7 L589.9,564.2 L591.0,564.6 L592.1,565.1 L593.3,565.6 L594.4,566.0 L595.5,566.5
		L596.6,567.0 L597.8,567.4 L598.9,567.9 L600.0,568.4 L601.1,568.8 L602.3,569.3 L603.4,569.7 L604.5,570.2
		L605.6,570.6 L606.8,571.1 L607.9,571.5 L609.0,572.0 L610.1,572.4 L611.3,572.9 L612.4,573.3 L613.5,573.8
		L614.6,574.2 L615.8,574.7 L616.9,575.1 L618.0,575.5 L619.1,576.0 L620.3,576.4 L621.4,576.8 L622.5,577.3
		L623.6,577.7 L624.8,578.1 L625.9,578.6 L627.0,579.0 L628.1,579.4 L629.3,579.9 L630.4,580.3 L631.5,580.7
		L632.6,581.1 L633.8,581.5 L634.9,582.0 L636.0,582.4 L637.1,582.8 L638.3,583.2 L639.4,583.6 L640.5,584.1
		L641.6,584.5 L642.8,584.9 L643.9,585.3 L645.0,585.7 L646.2,586.1 L647.3,586.5 L648.4,586.9 L649.5,587.3
		L650.7,587.7 L651.8,588.1 L652.9,588.5 L654.0,588.9 L655.2,589.3 L656.3,589.7 L657.4,590.1 L658.5,590.5
		L659.7,590.9 L660.8,591.3 L661.9,591.7 L663.0,592.1 L664.2,592.5 L665.3,592.9 L666.4,593.3 L667.5,593.7
		L668.7,594.0 L669.8,594.4 L670.9,594.8 L672.0,595.2 L673.2,595.6 L674.3,596.0 L675.4,596.3 L676.5,596.7
		L677.7,597.1 L678.8,597.5 L679.9,597.8 L681.0,598.2 L682.2,598.6 L683.3,599.0 L684.4,599.3 L685.5,599.7
		L686.7,600.1 L687.8,600.4 L688.9,600.8 L690.0,601.2 L691.2,601.5 L692.3,601.9 L693.4,602.3 L694.5,602.6
		L695.7,603.0 L696.8,603.3 L697.9,603.7 L699.0,604.1 L700.2,604.4 L701.3,604.8 L702.4,605.1 L703.5,605.5
		L704.7,605.8 L705.8,606.2 L706.9,606.5 L708.0,606.9 L709.2,607.2 L710.3,607.6 L711.4,607.9 L712.5,608.3
		L713.7,608.6 L714.8,609.0 L715.9,609.3 L717.1,609.6 L718.2,610.0 L719.3,610.3 L720.4,610.7 L721.6,611.0
		L722.7,611.3 L723.8,611.7 L724.9,612.0 L726.1,612.3 L727.2,612.7 L728.3,613.0 L729.4,613.3 L730.6,613.7
		L731.7,614.0 L732.8,614.3 L733.9,614.6 L735.1,615.0 L736.2,615.3 L737.3,615.6 L738.4,615.9 L739.6,616.3
		L740.7,616.6 L741.8,616.9 L742.9,617.2 L744.1,617.5 L745.2,617.9 L746.3,618.2 L747.4,618.5 L748.6,618.8
		L749.7,619.1 L750.8,619.4 L751.9,619.7 L753.1,620.1 L754.2,620.4 L755.3,620.7 L756.4,621.0 L757.6,621.3
		L758.7,621.6 L759.8,621.9 L760.9,622.2 L762.1,622.5 L763.2,622.8 L764.3,623.1 L765.4,623.4 L766.6,623.7
		L767.7,624.0 L768.8,624.3 L769.9,624.6 L771.1,624.9 L772.2,625.2 L773.3,625.5 L774.4,625.8 L775.6,626.1
		L776.7,626.4 L777.8,626.6 L778.9,626.9 L780.1,627.2 L781.2,627.5 L782.3,627.8 L783.5,628.1 L784.6,628.4
		L785.7,628.7 L786.8,628.9 L788.0,629.2 L789.1,629.5 L790.2,629.8 L791.3,630.1 L792.5,630.3 L793.6,630.6
		L794.7,630.9 L795.8,631.2 L797.0,631.5 L798.1,631.7 L799.2,632.0 L800.3,632.3 L801.5,632.5 L802.6,632.8
		L803.7,633.1 L804.8,633.4 L806.0,633.6 L807.1,633.9 L808.2,634.2 L809.3,634.4 L810.5,634.7 L811.6,635.0
		L812.7,635.2 L813.8,635.5 L815.0,635.7 L816.1,636.0 L817.2,636.3 L818.3,636.5 L819.5,636.8 L820.6,637.0
		L821.7,637.3 L822.8,637.6 L824.0,637.8 L825.1,638.1 L826.2,638.3 L827.3,638.6 L828.5,638.8 L829.6,639.1
		L830.7,639.3 L831.8,639.6 L833.0,639.8 L834.1,640.1 L835.2,640.3 L836.3,640.6 L837.5,640.8 L838.6,641.1
		L839.7,641.3 L840.8,641.5 L842.0,641.8 L843.1,642.0 L844.2,642.3 L845.3,642.5 L846.5,642.8 L847.6,643.0
		L848.7,643.2 L849.9,643.5 L851.0,643.7 L852.1,643.9 L853.2,644.2 L854.4,644.4 L855.5,644.6 L856.6,644.9
		L857.7,645.1 L858.9,645.3 L860.0,645.6 L861.1,645.8 L862.2,646.0 L863.4,646.2 L864.5,646.5 L865.6,646.7
		L866.7,646.9 L867.9,647.1 L869.0,647.4 L870.1,647.6 L871.2,647.8 L872.4,648.0 L873.5,648.3 L874.6,648.5
		L875.7,648.7 L876.9,648.9 L878.0,649.1 L879.1,649.3 L880.2,649.6 L881.4,649.8 L882.5,650.0 L883.6,650.2
		L884.7,650.4 L885.9,650.6 L887.0,650.8 L888.1,651.1 L889.2,651.3 L890.4,651.5 L891.5,651.7 L892.6,651.9
		L893.7,652.1 L894.9,652.3 L896.0,652.5 L897.1,652.7 L898.2,652.9 L899.4,653.1 L900.5,653.3 L901.6,653.5
		L902.7,653.7 L903.9,653.9 L905.0,654.1 L906.1,654.3 L907.2,654.5 L908.4,654.7 L909.5,654.9 L910.6,655.1
		L911.7,655.3 L912.9,655.5 L914.0,655.7 L915.1,655.9 L916.2,656.1 L917.4,656.3 L918.5,656.5 L919.6,656.7
		L920.8,656.8 L921.9,657.0 L923.0,657.2 L924.1,657.4 L925.3,657.6 L926.4,657.8 L927.5,658.0 L928.6,658.1
		L929.8,658.3 L930.9,658.5 L932.0,658.7 L933.1,658.9 L934.3,659.1 L935.4,659.2 L936.5,659.4 L937.6,659.6
		L938.8,659.8 L939.9,660.0 L941.0,660.1 L942.1,660.3 L943.3,660.5 L944.4,660.7 L945.5,660.8 L946.6,661.0
		L947.8,661.2 L948.9,661.3 L950.0,661.5 L951.1,661.7 L952.3,661.9 L953.4,662.0 L954.5,662.2 L955.6,662.4
		L956.8,662.5 L957.9,662.7 L959.0,662.9 L960.1,663.0 L961.3,663.2 L962.4,663.3 L963.5,663.5 L964.6,663.7
		L965.8,663.8 L966.9,664.0 L968.0,664.2 L969.1,664.3 L970.3,664.5 L971.4,664.6 L972.5,664.8 L973.6,664.9
		L974.8,665.1 L975.9,665.3 L977.0,665.4 L978.1,665.6 L979.3,665.7 L980.4,665.9 L981.5,666.0 L982.6,666.2
		L983.8,666.3 L984.9,666.5 L986.0,666.6 L987.2,666.8 L988.3,666.9 L989.4,667.1 L990.5,667.2 L991.7,667.3
		L992.8,667.5 L993.9,667.6 L995.0,667.8 L996.2,667.9 L997.3,668.1 L998.4,668.2 L999.5,668.3 L1000.7,668.5
		L1001.8,668.6 L1002.9,668.8 L1004.0,668.9 L1005.2,669.0 L1006.3,669.2 L1007.4,669.3 L1008.5,669.5 L1009.7,669.6
		L1010.8,669.7 L1011.9,669.9 L1013.0,670.0 L1014.2,670.1 L1015.3,670.3 L1016.4,670.4 L1017.5,670.5 L1018.7,670.6
		L1019.8,670.8 L1020.9,670.9 L1022.0,671.0 L1023.2,671.2 L1024.3,671.3 L1025.4,671.4 L1026.5,671.5 L1027.7,671.7
		L1028.8,671.8 L1029.9,671.9 L1031.0,672.0 L1032.2,672.1 L1033.3,672.3 L1034.4,672.4 L1035.5,672.5 L1036.7,672.6
		L1037.8,672.7 L1038.9,672.9 L1040.0,673.0 L1041.2,673.1 L1042.3,673.2 L1043.4,673.3 L1044.5,673.4 L1045.7,673.6
		L1046.8,673.7 L1047.9,673.8 L1049.0,673.9 L1050.2,674.0 L1051.3,674.1 L1052.4,674.2 L1053.6,674.3 L1054.7,674.4
		L1055.8,674.6 L1056.9,674.7 L1058.1,674.8 L1059.2,674.9 L1060.3,675.0 L1061.4,675.1 L1062.6,675.2 L1063.7,675.3
		L1064.8,675.4 L1065.9,675.5 L1067.1,675.6 L1068.2,675.7 L1069.3,675.8 L1070.4,675.9 L1071.6,676.0 L1072.7,676.1
		L1073.8,676.2 L1074.9,676.3 L1076.1,676.4 L1077.2,676.5 L1078.3,676.6 L1079.4,676.7 L1080.6,676.8 L1081.7,676.9
		L1082.8,677.0 L1083.9,677.1 L1085.1,677.1 L1086.2,677.2 L1087.3,677.3 L1088.4,677.4 L1089.6,677.5 L1090.7,677.6
		L1091.8,677.7 L1092.9,677.8 L1094.1,677.9 L1095.2,677.9 L1096.3,678.0 L1097.4,678.1 L1098.6,678.2 L1099.7,678.3
		L1100.8,678.4 L1101.9,678.4 L1103.1,678.5 L1104.2,678.6 L1105.3,678.7 L1106.4,678.8 L1107.6,678.9 L1108.7,678.9
		L1109.8,679.0 L1110.9,679.1 L1112.1,679.2 L1113.2,679.2 L1114.3,679.3 L1115.4,679.4 L1116.6,679.5 L1117.7,679.5
		L1118.8,679.6 L1120.0,679.7 L1121.1,679.8 L1122.2,679.8 L1123.3,679.9 L1124.5,680.0 L1125.6,680.0 L1126.7,680.1
		L1127.8,680.2 L1129.0,680.2 L1130.1,680.3 L1131.2,680.4 L1132.3,680.4 L1133.5,680.5 L1134.6,680.6 L1135.7,680.6
		L1136.8,680.7 L1138.0,680.8 L1139.1,680.8 L1140.2,680.9 L1141.3,680.9 L1142.5,681.0 L1143.6,681.1 L1144.7,681.1
		L1145.8,681.2 L1147.0,681.2 L1148.1,681.3 L1149.2,681.4 L1150.3,681.4 L1151.5,681.5 L1152.6,681.5 L1153.7,681.6
		L1154.8,681.6 L1156.0,681.7 L1157.1,681.7 L1158.2,681.8 L1159.3,681.8 L1160.5,681.9 L1161.6,681.9 L1162.7,682.0
		L1163.8,682.0 L1165.0,682.1 L1166.1,682.1 L1167.2,682.2 L1168.3,682.2 L1169.5,682.3 L1170.6,682.3 L1171.7,682.4
		L1172.8,682.4 L1174.0,682.5 L1175.1,682.5 L1176.2,682.5 L1177.3,682.6 L1178.5,682.6 L1179.6,682.7 L1180.7,682.7
		L1181.8,682.7 L1183.0,682.8 L1184.1,682.8 L1185.2,682.9 L1186.3,682.9 L1187.5,682.9 L1188.6,683.0 L1189.7,683.0
		L1190.9,683.0 L1192.0,683.1 L1193.1,683.1 L1194.2,683.1 L1195.4,683.2 L1196.5,683.2 L1197.6,683.2 L1198.7,683.3
		L1199.9,683.3 L1201.0,683.3 L1202.1,683.3 L1203.2,683.4 L1204.4,683.4 L1205.5,683.4 L1206.6,683.4 L1207.7,683.5
		L1208.9,683.5 L1210.0,683.5 L1211.1,683.5 L1212.2,683.6 L1213.4,683.6 L1214.5,683.6 L1215.6,683.6 L1216.7,683.7
		L1217.9,683.7 L1219.0,683.7 L1220.1,683.7 L1221.2,683.7 L1222.4,683.7 L1223.5,683.8 L1224.6,683.8 L1225.7,683.8
		L1226.9,683.8 L1228.0,683.8 L1229.1,683.8 L1230.2,683.9 L1231.4,683.9 L1232.5,683.9 L1233.6,683.9 L1234.7,683.9
		L1235.9,683.9 L1237.0,683.9 L1238.1,683.9 L1239.2,683.9 L1240.4,683.9 L1241.5,684.0 L1242.6,684.0 L1243.7,684.0
		L1244.9,684.0 L1246.0,684.0 L1247.1,684.0 L1248.2,684.0 L1249.4,684.0 L1250.5,684.0 L1251.6,684.0 L1252.7,684.0
		L1253.9,684.0 L1255.0,684.0  '/></g>
	</g>
	<g id="gnuplot_plot_5" ><title>gnuplot_plot_5</title>
<g fill="none" color="black" stroke="currentColor" stroke-width="1.00" stroke-linecap="butt" stroke-linejoin="miter">
	<path stroke='rgb(  0, 100,   0)'  d='M103.7,93.5 L104.8,95.7 L106.0,102.0 L107.1,111.4 L108.2,122.8 L109.3,135.0 L110.5,147.3 L111.6,158.9
		L112.7,169.4 L113.8,178.8 L115.0,187.0 L116.1,194.1 L117.2,200.2 L118.3,205.3 L119.5,209.7 L120.6,213.5
		L121.7,216.7 L122.8,219.5 L124.0,221.9 L125.1,224.0 L126.2,225.9 L127.3,227.5 L128.5,229.0 L129.6,230.4
		L130.7,231.6 L131.8,232.7 L133.0,233.8 L134.1,234.8 L135.2,235.7 L136.3,236.6 L137.5,237.5 L138.6,238.3
		L139.7,239.1 L140.8,239.9 L142.0,240.7 L143.1,241.4 L144.2,242.2 L145.3,242.9 L146.5,243.7 L147.6,244.4
		L148.7,245.2 L149.8,245.9 L151.0,246.7 L152.1,247.4 L153.2,248.2 L154.3,248.9 L155.5,249.7 L156.6,250.5
		L157.7,251.3 L158.8,252.0 L160.0,252.8 L161.1,253.6 L162.2,254.4 L163.3,255.2 L164.5,256.0 L165.6,256.8
		L166.7,257.7 L167.8,258.5 L169.0,259.3 L170.1,260.2 L171.2,261.0 L172.4,261.9 L173.5,262.8 L174.6,263.7
		L175.7,264.5 L176.9,265.4 L178.0,266.3 L179.1,267.2 L180.2,268.1 L181.4,269.0 L182.5,269.9 L183.6,270.9
		L184.7,271.8 L185.9,272.7 L187.0,273.7 L188.1,274.6 L189.2,275.6 L190.4,276.5 L191.5,277.5 L192.6,278.4
		L193.7,279.4 L194.9,280.4 L196.0,281.3 L197.1,282.3 L198.2,283.3 L199.4,284.3 L200.5,285.3 L201.6,286.3
		L202.7,287.3 L203.9,288.3 L205.0,289.3 L206.1,290.3 L207.2,291.3 L208.4,292.3 L209.5,293.3 L210.6,294.3
		L211.7,295.4 L212.9,296.4 L214.0,297.4 L215.1,298.4 L216.2,299.5 L217.4,300.5 L218.5,301.5 L219.6,302.5
		L220.7,303.6 L221.9,304.6 L223.0,305.7 L224.1,306.7 L225.2,307.7 L226.4,308.8 L227.5,309.8 L228.6,310.8
		L229.7,311.9 L230.9,312.9 L232.0,314.0 L233.1,315.0 L234.2,316.1 L235.4,317.1 L236.5,318.2 L237.6,319.2
		L238.7,320.2 L239.9,321.3 L241.0,322.3 L242.1,323.4 L243.3,324.4 L244.4,325.5 L245.5,326.5 L246.6,327.5
		L247.8,328.6 L248.9,329.6 L250.0,330.7 L251.1,331.7 L252.3,332.7 L253.4,333.8 L254.5,334.8 L255.6,335.9
		L256.8,336.9 L257.9,337.9 L259.0,339.0 L260.1,340.0 L261.3,341.0 L262.4,342.1 L263.5,343.1 L264.6,344.1
		L265.8,345.1 L266.9,346.2 L268.0,347.2 L269.1,348.2 L270.3,349.2 L271.4,350.2 L272.5,351.3 L273.6,352.3
		L274.8,353.3 L275.9,354.3 L277.0,355.3 L278.1,356.3 L279.3,357.3 L280.4,358.3 L281.5,359.3 L282.6,360.3
		L283.8,361.3 L284.9,362.3 L286.0,363.3 L287.1,364.3 L288.3,365.3 L289.4,366.3 L290.5,367.3 L291.6,368.3
		L292.8,369.3 L293.9,370.2 L295.0,371.2 L296.1,372.2 L297.3,373.2 L298.4,374.1 L299.5,375.1 L300.6,376.1
		L301.8,377.1 L302.9,378.0 L304.0,379.0 L305.1,379.9 L306.3,380.9 L307.4,381.9 L308.5,382.8 L309.7,383.8
		L310.8,384.7 L311.9,385.7 L313.0,386.6 L314.2,387.5 L315.3,388.5 L316.4,389.4 L317.5,390.4 L318.7,391.3
		L319.8,392.2 L320.9,393.1 L322.0,394.1 L323.2,395.0 L324.3,395.9 L325.4,396.8 L326.5,397.8 L327.7,398.7
		L328.8,399.6 L329.9,400.5 L331.0,401.4 L332.2,402.3 L333.3,403.2 L334.4,404.1 L335.5,405.0 L336.7,405.9
		L337.8,406.8 L338.9,407.7 L340.0,408.6 L341.2,409.5 L342.3,410.3 L343.4,411.2 L344.5,412.1 L345.7,413.0
		L346.8,413.8 L347.9,414.7 L349.0,415.6 L350.2,416.5 L351.3,417.3 L352.4,418.2 L353.5,419.0 L354.7,419.9
		L355.8,420.7 L356.9,421.6 L358.0,422.5 L359.2,423.3 L360.3,424.1 L361.4,425.0 L362.5,425.8 L363.7,426.7
		L364.8,427.5 L365.9,428.3 L367.0,429.2 L368.2,430.0 L369.3,430.8 L370.4,431.6 L371.5,432.5 L372.7,433.3
		L373.8,434.1 L374.9,434.9 L376.1,435.7 L377.2,436.5 L378.3,437.3 L379.4,438.2 L380.6,439.0 L381.7,439.8
		L382.8,440.6 L383.9,441.4 L385.1,442.1 L386.2,442.9 L387.3,443.7 L388.4,444.5 L389.6,445.3 L390.7,446.1
		L391.8,446.9 L392.9,447.6 L394.1,448.4 L395.2,449.2 L396.3,450.0 L397.4,450.7 L398.6,451.5 L399.7,452.3
		L400.8,453.0 L401.9,453.8 L403.1,454.5 L404.2,455.3 L405.3,456.1 L406.4,456.8 L407.6,457.6 L408.7,458.3
		L409.8,459.0 L410.9,459.8 L412.1,460.5 L413.2,461.3 L414.3,462.0 L415.4,462.7 L416.6,463.5 L417.7,464.2
		L418.8,464.9 L419.9,465.7 L421.1,466.4 L422.2,467.1 L423.3,467.8 L424.4,468.5 L425.6,469.3 L426.7,470.0
		L427.8,470.7 L428.9,471.4 L430.1,472.1 L431.2,472.8 L432.3,473.5 L433.4,474.2 L434.6,474.9 L435.7,475.6
		L436.8,476.3 L437.9,477.0 L439.1,477.7 L440.2,478.4 L441.3,479.1 L442.5,479.7 L443.6,480.4 L444.7,481.1
		L445.8,481.8 L447.0,482.5 L448.1,483.1 L449.2,483.8 L450.3,484.5 L451.5,485.2 L452.6,485.8 L453.7,486.5
		L454.8,487.1 L456.0,487.8 L457.1,488.5 L458.2,489.1 L459.3,489.8 L460.5,490.4 L461.6,491.1 L462.7,491.7
		L463.8,492.4 L465.0,493.0 L466.1,493.7 L467.2,494.3 L468.3,495.0 L469.5,495.6 L470.6,496.2 L471.7,496.9
		L472.8,497.5 L474.0,498.1 L475.1,498.8 L476.2,499.4 L477.3,500.0 L478.5,500.6 L479.6,501.3 L480.7,501.9
		L481.8,502.5 L483.0,503.1 L484.1,503.7 L485.2,504.4 L486.3,505.0 L487.5,505.6 L488.6,506.2 L489.7,506.8
		L490.8,507.4 L492.0,508.0 L493.1,508.6 L494.2,509.2 L495.3,509.8 L496.5,510.4 L497.6,511.0 L498.7,511.6
		L499.8,512.2 L501.0,512.8 L502.1,513.4 L503.2,513.9 L504.3,514.5 L505.5,515.1 L506.6,515.7 L507.7,516.3
		L508.8,516.8 L510.0,517.4 L511.1,518.0 L512.2,518.6 L513.4,519.1 L514.5,519.7 L515.6,520.3 L516.7,520.8
		L517.9,521.4 L519.0,522.0 L520.1,522.5 L521.2,523.1 L522.4,523.6 L523.5,524.2 L524.6,524.8 L525.7,525.3
		L526.9,525.9 L528.0,526.4 L529.1,527.0 L530.2,527.5 L531.4,528.1 L532.5,528.6 L533.6,529.1 L534.7,529.7
		L535.9,530.2 L537.0,530.8 L538.1,531.3 L539.2,531.8 L540.4,532.4 L541.5,532.9 L542.6,533.4 L543.7,534.0
		L544.9,534.5 L546.0,535.0 L547.1,535.5 L548.2,536.1 L549.4,536.6 L550.5,537.1 L551.6,537.6 L552.7,538.1
		L553.9,538.7 L555.0,539.2 L556.1,539.7 L557.2,540.2 L558.4,540.7 L559.5,541.2 L560.6,541.7 L561.7,542.2
		L562.9,542.7 L564.0,543.2 L565.1,543.7 L566.2,544.2 L567.4,544.7 L568.5,545.2 L569.6,545.7 L570.7,546.2
		L571.9,546.7 L573.0,547.2 L574.1,547.7 L575.2,548.2 L576.4,548.7 L577.5,549.1 L578.6,549.6 L579.8,550.1
		L580.9,550.6 L582.0,551.1 L583.1,551.6 L584.3,552.0 L585.4,552.5 L586.5,553.0 L587.6,553.5 L588.8,553.9
		L589.9,554.4 L591.0,554.9 L592.1,555.3 L593.3,555.8 L594.4,556.3 L595.5,556.7 L596.6,557.2 L597.8,557.7
		L598.9,558.1 L600.0,558.6 L601.1,559.0 L602.3,559.5 L603.4,560.0 L604.5,560.4 L605.6,560.9 L606.8,561.3
		L607.9,561.8 L609.0,562.2 L610.1,562.7 L611.3,563.1 L612.4,563.5 L613.5,564.0 L614.6,564.4 L615.8,564.9
		L616.9,565.3 L618.0,565.8 L619.1,566.2 L620.3,566.6 L621.4,567.1 L622.5,567.5 L623.6,567.9 L624.8,568.4
		L625.9,568.8 L627.0,569.2 L628.1,569.6 L629.3,570.1 L630.4,570.5 L631.5,570.9 L632.6,571.3 L633.8,571.8
		L634.9,572.2 L636.0,572.6 L637.1,573.0 L638.3,573.4 L639.4,573.9 L640.5,574.3 L641.6,574.7 L642.8,575.1
		L643.9,575.5 L645.0,575.9 L646.2,576.3 L647.3,576.7 L648.4,577.1 L649.5,577.5 L650.7,578.0 L651.8,578.4
		L652.9,578.8 L654.0,579.2 L655.2,579.6 L656.3,580.0 L657.4,580.4 L658.5,580.8 L659.7,581.1 L660.8,581.5
		L661.9,581.9 L663.0,582.3 L664.2,582.7 L665.3,583.1 L666.4,583.5 L667.5,583.9 L668.7,584.3 L669.8,584.7
		L670.9,585.0 L672.0,585.4 L673.2,585.8 L674.3,586.2 L675.4,586.6 L676.5,586.9 L677.7,587.3 L678.8,587.7
		L679.9,588.1 L681.0,588.4 L682.2,588.8 L683.3,589.2 L684.4,589.6 L685.5,589.9 L686.7,590.3 L687.8,590.7
		L688.9,591.0 L690.0,591.4 L691.2,591.8 L692.3,592.1 L693.4,592.5 L694.5,592.9 L695.7,593.2 L696.8,593.6
		L697.9,593.9 L699.0,594.3 L700.2,594.6 L701.3,595.0 L702.4,595.4 L703.5,595.7 L704.7,596.1 L705.8,596.4
		L706.9,596.8 L708.0,597.1 L709.2,597.5 L710.3,597.8 L711.4,598.2 L712.5,598.5 L713.7,598.8 L714.8,599.2
		L715.9,599.5 L717.1,599.9 L718.2,600.2 L719.3,600.5 L720.4,600.9 L721.6,601.2 L722.7,601.6 L723.8,601.9
		L724.9,602.2 L726.1,602.6 L727.2,602.9 L728.3,603.2 L729.4,603.6 L730.6,603.9 L731.7,604.2 L732.8,604.5
		L733.9,604.9 L735.1,605.2 L736.2,605.5 L737.3,605.8 L738.4,606.2 L739.6,606.5 L740.7,606.8 L741.8,607.1
		L742.9,607.4 L744.1,607.8 L745.2,608.1 L746.3,608.4 L747.4,608.7 L748.6,609.0 L749.7,609.3 L750.8,609.7
		L751.9,610.0 L753.1,610.3 L754.2,610.6 L755.3,610.9 L756.4,611.2 L757.6,611.5 L758.7,611.8 L759.8,612.1
		L760.9,612.4 L762.1,612.7 L763.2,613.0 L764.3,613.3 L765.4,613.6 L766.6,613.9 L767.7,614.2 L768.8,614.5
		L769.9,614.8 L771.1,615.1 L772.2,615.4 L773.3,615.7 L774.4,616.0 L775.6,616.3 L776.7,616.6 L777.8,616.9
		L778.9,617.2 L780.1,617.5 L781.2,617.7 L782.3,618.0 L783.5,618.3 L784.6,618.6 L785.7,618.9 L786.8,619.2
		L788.0,619.4 L789.1,619.7 L790.2,620.0 L791.3,620.3 L792.5,620.6 L793.6,620.8 L794.7,621.1 L795.8,621.4
		L797.0,621.7 L798.1,622.0 L799.2,622.2 L800.3,622.5 L801.5,622.8 L802.6,623.0 L803.7,623.3 L804.8,623.6
		L806.0,623.9 L807.1,624.1 L808.2,624.4 L809.3,624.7 L810.5,624.9 L811.6,625.2 L812.7,625.4 L813.8,625.7
		L815.0,626.0 L816.1,626.2 L817.2,626.5 L818.3,626.8 L819.5,627.0 L820.6,627.3 L821.7,627.5 L822.8,627.8
		L824.0,628.0 L825.1,628.3 L826.2,628.5 L827.3,628.8 L828.5,629.1 L829.6,629.3 L830.7,629.6 L831.8,629.8
		L833.0,630.1 L834.1,630.3 L835.2,630.5 L836.3,630.8 L837.5,631.0 L838.6,631.3 L839.7,631.5 L840.8,631.8
		L842.0,632.0 L843.1,632.3 L844.2,632.5 L845.3,632.7 L846.5,633.0 L847.6,633.2 L848.7,633.5 L849.9,633.7
		L851.0,633.9 L852.1,634.2 L853.2,634.4 L854.4,634.6 L855.5,634.9 L856.6,635.1 L857.7,635.3 L858.9,635.6
		L860.0,635.8 L861.1,636.0 L862.2,636.2 L863.4,636.5 L864.5,636.7 L865.6,636.9 L866.7,637.1 L867.9,637.4
		L869.0,637.6 L870.1,637.8 L871.2,638.0 L872.4,638.3 L873.5,638.5 L874.6,638.7 L875.7,638.9 L876.9,639.1
		L878.0,639.4 L879.1,639.6 L880.2,639.8 L881.4,640.0 L882.5,640.2 L883.6,640.4 L884.7,640.6 L885.9,640.9
		L887.0,641.1 L888.1,641.3 L889.2,641.5 L890.4,641.7 L891.5,641.9 L892.6,642.1 L893.7,642.3 L894.9,642.5
		L896.0,642.7 L897.1,642.9 L898.2,643.1 L899.4,643.3 L900.5,643.5 L901.6,643.7 L902.7,643.9 L903.9,644.1
		L905.0,644.3 L906.1,644.5 L907.2,644.7 L908.4,644.9 L909.5,645.1 L910.6,645.3 L911.7,645.5 L912.9,645.7
		L914.0,645.9 L915.1,646.1 L916.2,646.3 L917.4,646.5 L918.5,646.7 L919.6,646.9 L920.8,647.1 L921.9,647.3
		L923.0,647.4 L924.1,647.6 L925.3,647.8 L926.4,648.0 L927.5,648.2 L928.6,648.4 L929.8,648.6 L930.9,648.7
		L932.0,648.9 L933.1,649.1 L934.3,649.3 L935.4,649.5 L936.5,649.6 L937.6,649.8 L938.8,650.0 L939.9,650.2
		L941.0,650.4 L942.1,650.5 L943.3,650.7 L944.4,650.9 L945.5,651.0 L946.6,651.2 L947.8,651.4 L948.9,651.6
		L950.0,651.7 L951.1,651.9 L952.3,652.1 L953.4,652.2 L954.5,652.4 L955.6,652.6 L956.8,652.7 L957.9,652.9
		L959.0,653.1 L960.1,653.2 L961.3,653.4 L962.4,653.6 L963.5,653.7 L964.6,653.9 L965.8,654.1 L966.9,654.2
		L968.0,654.4 L969.1,654.5 L970.3,654.7 L971.4,654.9 L972.5,655.0 L973.6,655.2 L974.8,655.3 L975.9,655.5
		L977.0,655.6 L978.1,655.8 L979.3,655.9 L980.4,656.1 L981.5,656.2 L982.6,656.4 L983.8,656.5 L984.9,656.7
		L986.0,656.8 L987.2,657.0 L988.3,657.1 L989.4,657.3 L990.5,657.4 L991.7,657.6 L992.8,657.7 L993.9,657.9
		L995.0,658.0 L996.2,658.1 L997.3,658.3 L998.4,658.4 L999.5,658.6 L1000.7,658.7 L1001.8,658.9 L1002.9,659.0
		L1004.0,659.1 L1005.2,659.3 L1006.3,659.4 L1007.4,659.5 L1008.5,659.7 L1009.7,659.8 L1010.8,659.9 L1011.9,660.1
		L1013.0,660.2 L1014.2,660.3 L1015.3,660.5 L1016.4,660.6 L1017.5,660.7 L1018.7,660.9 L1019.8,661.0 L1020.9,661.1
		L1022.0,661.2 L1023.2,661.4 L1024.3,661.5 L1025.4,661.6 L1026.5,661.8 L1027.7,661.9 L1028.8,662.0 L1029.9,662.1
		L1031.0,662.2 L1032.2,662.4 L1033.3,662.5 L1034.4,662.6 L1035.5,662.7 L1036.7,662.8 L1037.8,663.0 L1038.9,663.1
		L1040.0,663.2 L1041.2,663.3 L1042.3,663.4 L1043.4,663.6 L1044.5,663.7 L1045.7,663.8 L1046.8,663.9 L1047.9,664.0
		L1049.0,664.1 L1050.2,664.2 L1051.3,664.3 L1052.4,664.5 L1053.6,664.6 L1054.7,664.7 L1055.8,664.8 L1056.9,664.9
		L1058.1,665.0 L1059.2,665.1 L1060.3,665.2 L1061.4,665.3 L1062.6,665.4 L1063.7,665.5 L1064.8,665.6 L1065.9,665.7
		L1067.1,665.8 L1068.2,665.9 L1069.3,666.0 L1070.4,666.1 L1071.6,666.2 L1072.7,666.3 L1073.8,666.4 L1074.9,666.5
		L1076.1,666.6 L1077.2,666.7 L1078.3,666.8 L1079.4,666.9 L1080.6,667.0 L1081.7,667.1 L1082.8,667.2 L1083.9,667.3
		L1085.1,667.4 L1086.2,667.5 L1087.3,667.6 L1088.4,667.6 L1089.6,667.7 L1090.7,667.8 L1091.8,667.9 L1092.9,668.0
		L1094.1,668.1 L1095.2,668.2 L1096.3,668.3 L1097.4,668.3 L1098.6,668.4 L1099.7,668.5 L1100.8,668.6 L1101.9,668.7
		L1103.1,668.8 L1104.2,668.8 L1105.3,668.9 L1106.4,669.0 L1107.6,669.1 L1108.7,669.2 L1109.8,669.2 L1110.9,669.3
		L1112.1,669.4 L1113.2,669.5 L1114.3,669.5 L1115.4,669.6 L1116.6,669.7 L1117.7,669.8 L1118.8,669.8 L1120.0,669.9
		L1121.1,670.0 L1122.2,670.1 L1123.3,670.1 L1124.5,670.2 L1125.6,670.3 L1126.7,670.3 L1127.8,670.4 L1129.0,670.5
		L1130.1,670.5 L1131.2,670.6 L1132.3,670.7 L1133.5,670.7 L1134.6,670.8 L1135.7,670.9 L1136.8,670.9 L1138.0,671.0
		L1139.1,671.0 L1140.2,671.1 L1141.3,671.2 L1142.5,671.2 L1143.6,671.3 L1144.7,671.3 L1145.8,671.4 L1147.0,671.5
		L1148.1,671.5 L1149.2,671.6 L1150.3,671.6 L1151.5,671.7 L1152.6,671.7 L1153.7,671.8 L1154.8,671.9 L1156.0,671.9
		L1157.1,672.0 L1158.2,672.0 L1159.3,672.1 L1160.5,672.1 L1161.6,672.2 L1162.7,672.2 L1163.8,672.3 L1165.0,672.3
		L1166.1,672.4 L1167.2,672.4 L1168.3,672.5 L1169.5,672.5 L1170.6,672.5 L1171.7,672.6 L1172.8,672.6 L1174.0,672.7
		L1175.1,672.7 L1176.2,672.8 L1177.3,672.8 L1178.5,672.8 L1179.6,672.9 L1180.7,672.9 L1181.8,673.0 L1183.0,673.0
		L1184.1,673.0 L1185.2,673.1 L1186.3,673.1 L1187.5,673.1 L1188.6,673.2 L1189.7,673.2 L1190.9,673.3 L1192.0,673.3
		L1193.1,673.3 L1194.2,673.4 L1195.4,673.4 L1196.5,673.4 L1197.6,673.4 L1198.7,673.5 L1199.9,673.5 L1201.0,673.5
		L1202.1,673.6 L1203.2,673.6 L1204.4,673.6 L1205.5,673.6 L1206.6,673.7 L1207.7,673.7 L1208.9,673.7 L1210.0,673.7
		L1211.1,673.8 L1212.2,673.8 L1213.4,673.8 L1214.5,673.8 L1215.6,673.9 L1216.7,673.9 L1217.9,673.9 L1219.0,673.9
		L1220.1,673.9 L1221.2,674.0 L1222.4,674.0 L1223.5,674.0 L1224.6,674.0 L1225.7,674.0 L1226.9,674.0 L1228.0,674.1
		L1229.1,674.1 L1230.2,674.1 L1231.4,674.1 L1232.5,674.1 L1233.6,674.1 L1234.7,674.1 L1235.9,674.1 L1237.0,674.1
		L1238.1,674.2 L1239.2,674.2 L1240.4,674.2 L1241.5,674.2 L1242.6,674.2 L1243.7,674.2 L1244.9,674.2 L1246.0,674.2
		L1247.1,674.2 L1248.2,674.2 L1249.4,674.2 L1250.5,674.2 L1251.6,674.2 L1252.7,674.2 L1253.9,674.2 L1255.0,674.2
		 '/></g>
	</g>
	<g id="gnuplot_plot_6" ><title>gnuplot_plot_6</title>
<g fill="none" color="black" stroke="currentColor" stroke-width="1.00" stroke-linecap="butt" stroke-linejoin="miter">
	<path stroke='rgb(  0,   0, 255)'  d='M103.7,61.1 L104.8,63.4 L106.0,69.9 L107.1,79.7 L108.2,91.7 L109.3,104.7 L110.5,117.8 L111.6,130.2
		L112.7,141.8 L113.8,152.1 L115.0,161.2 L116.1,169.2 L117.2,176.0 L118.3,181.9 L119.5,187.0 L120.6,191.3
		L121.7,195.1 L122.8,198.3 L124.0,201.1 L125.1,203.6 L126.2,205.7 L127.3,207.6 L128.5,209.3 L129.6,210.9
		L130.7,212.3 L131.8,213.6 L133.0,214.8 L134.1,215.9 L135.2,216.9 L136.3,217.9 L137.5,218.8 L138.6,219.7
		L139.7,220.6 L140.8,221.5 L142.0,222.3 L143.1,223.1 L144.2,223.9 L145.3,224.7 L146.5,225.5 L147.6,226.3
		L148.7,227.0 L149.8,227.8 L151.0,228.6 L152.1,229.4 L153.2,230.1 L154.3,230.9 L155.5,231.7 L156.6,232.5
		L157.7,233.3 L158.8,234.1 L160.0,234.9 L161.1,235.7 L162.2,236.5 L163.3,237.3 L164.5,238.1 L165.6,239.0
		L166.7,239.8 L167.8,240.6 L169.0,241.5 L170.1,242.3 L171.2,243.2 L172.4,244.1 L173.5,244.9 L174.6,245.8
		L175.7,246.7 L176.9,247.6 L178.0,248.5 L179.1,249.4 L180.2,250.3 L181.4,251.2 L182.5,252.1 L183.6,253.1
		L184.7,254.0 L185.9,254.9 L187.0,255.9 L188.1,256.8 L189.2,257.8 L190.4,258.7 L191.5,259.7 L192.6,260.6
		L193.7,261.6 L194.9,262.6 L196.0,263.6 L197.1,264.5 L198.2,265.5 L199.4,266.5 L200.5,267.5 L201.6,268.5
		L202.7,269.5 L203.9,270.5 L205.0,271.5 L206.1,272.5 L207.2,273.5 L208.4,274.5 L209.5,275.6 L210.6,276.6
		L211.7,277.6 L212.9,278.6 L214.0,279.6 L215.1,280.7 L216.2,281.7 L217.4,282.7 L218.5,283.8 L219.6,284.8
		L220.7,285.8 L221.9,286.9 L223.0,287.9 L224.1,288.9 L225.2,290.0 L226.4,291.0 L227.5,292.1 L228.6,293.1
		L229.7,294.1 L230.9,295.2 L232.0,296.2 L233.1,297.3 L234.2,298.3 L235.4,299.4 L236.5,300.4 L237.6,301.5
		L238.7,302.5 L239.9,303.5 L241.0,304.6 L242.1,305.6 L243.3,306.7 L244.4,307.7 L245.5,308.8 L246.6,309.8
		L247.8,310.9 L248.9,311.9 L250.0,312.9 L251.1,314.0 L252.3,315.0 L253.4,316.1 L254.5,317.1 L255.6,318.1
		L256.8,319.2 L257.9,320.2 L259.0,321.2 L260.1,322.3 L261.3,323.3 L262.4,324.3 L263.5,325.4 L264.6,326.4
		L265.8,327.4 L266.9,328.4 L268.0,329.5 L269.1,330.5 L270.3,331.5 L271.4,332.5 L272.5,333.5 L273.6,334.5
		L274.8,335.6 L275.9,336.6 L277.0,337.6 L278.1,338.6 L279.3,339.6 L280.4,340.6 L281.5,341.6 L282.6,342.6
		L283.8,343.6 L284.9,344.6 L286.0,345.6 L287.1,346.6 L288.3,347.6 L289.4,348.6 L290.5,349.6 L291.6,350.6
		L292.8,351.5 L293.9,352.5 L295.0,353.5 L296.1,354.5 L297.3,355.4 L298.4,356.4 L299.5,357.4 L300.6,358.4
		L301.8,359.3 L302.9,360.3 L304.0,361.3 L305.1,362.2 L306.3,363.2 L307.4,364.1 L308.5,365.1 L309.7,366.0
		L310.8,367.0 L311.9,367.9 L313.0,368.9 L314.2,369.8 L315.3,370.8 L316.4,371.7 L317.5,372.6 L318.7,373.6
		L319.8,374.5 L320.9,375.4 L322.0,376.4 L323.2,377.3 L324.3,378.2 L325.4,379.1 L326.5,380.0 L327.7,380.9
		L328.8,381.9 L329.9,382.8 L331.0,383.7 L332.2,384.6 L333.3,385.5 L334.4,386.4 L335.5,387.3 L336.7,388.2
		L337.8,389.1 L338.9,390.0 L340.0,390.8 L341.2,391.7 L342.3,392.6 L343.4,393.5 L344.5,394.4 L345.7,395.3
		L346.8,396.1 L347.9,397.0 L349.0,397.9 L350.2,398.7 L351.3,399.6 L352.4,400.5 L353.5,401.3 L354.7,402.2
		L355.8,403.0 L356.9,403.9 L358.0,404.7 L359.2,405.6 L360.3,406.4 L361.4,407.3 L362.5,408.1 L363.7,408.9
		L364.8,409.8 L365.9,410.6 L367.0,411.4 L368.2,412.3 L369.3,413.1 L370.4,413.9 L371.5,414.7 L372.7,415.6
		L373.8,416.4 L374.9,417.2 L376.1,418.0 L377.2,418.8 L378.3,419.6 L379.4,420.4 L380.6,421.2 L381.7,422.0
		L382.8,422.8 L383.9,423.6 L385.1,424.4 L386.2,425.2 L387.3,426.0 L388.4,426.8 L389.6,427.6 L390.7,428.4
		L391.8,429.1 L392.9,429.9 L394.1,430.7 L395.2,431.5 L396.3,432.2 L397.4,433.0 L398.6,433.8 L399.7,434.5
		L400.8,435.3 L401.9,436.1 L403.1,436.8 L404.2,437.6 L405.3,438.3 L406.4,439.1 L407.6,439.8 L408.7,440.6
		L409.8,441.3 L410.9,442.1 L412.1,442.8 L413.2,443.6 L414.3,444.3 L415.4,445.0 L416.6,445.8 L417.7,446.5
		L418.8,447.2 L419.9,447.9 L421.1,448.7 L422.2,449.4 L423.3,450.1 L424.4,450.8 L425.6,451.5 L426.7,452.3
		L427.8,453.0 L428.9,453.7 L430.1,454.4 L431.2,455.1 L432.3,455.8 L433.4,456.5 L434.6,457.2 L435.7,457.9
		L436.8,458.6 L437.9,459.3 L439.1,460.0 L440.2,460.7 L441.3,461.3 L442.5,462.0 L443.6,462.7 L444.7,463.4
		L445.8,464.1 L447.0,464.7 L448.1,465.4 L449.2,466.1 L450.3,466.8 L451.5,467.4 L452.6,468.1 L453.7,468.8
		L454.8,469.4 L456.0,470.1 L457.1,470.8 L458.2,471.4 L459.3,472.1 L460.5,472.7 L461.6,473.4 L462.7,474.0
		L463.8,474.7 L465.0,475.3 L466.1,476.0 L467.2,476.6 L468.3,477.2 L469.5,477.9 L470.6,478.5 L471.7,479.2
		L472.8,479.8 L474.0,480.4 L475.1,481.1 L476.2,481.7 L477.3,482.3 L478.5,482.9 L479.6,483.6 L480.7,484.2
		L481.8,484.8 L483.0,485.4 L484.1,486.0 L485.2,486.6 L486.3,487.3 L487.5,487.9 L488.6,488.5 L489.7,489.1
		L490.8,489.7 L492.0,490.3 L493.1,490.9 L494.2,491.5 L495.3,492.1 L496.5,492.7 L497.6,493.3 L498.7,493.9
		L499.8,494.5 L501.0,495.1 L502.1,495.6 L503.2,496.2 L504.3,496.8 L505.5,497.4 L506.6,498.0 L507.7,498.6
		L508.8,499.1 L510.0,499.7 L511.1,500.3 L512.2,500.9 L513.4,501.4 L514.5,502.0 L515.6,502.6 L516.7,503.1
		L517.9,503.7 L519.0,504.3 L520.1,504.8 L521.2,505.4 L522.4,505.9 L523.5,506.5 L524.6,507.0 L525.7,507.6
		L526.9,508.2 L528.0,508.7 L529.1,509.3 L530.2,509.8 L531.4,510.3 L532.5,510.9 L533.6,511.4 L534.7,512.0
		L535.9,512.5 L537.0,513.1 L538.1,513.6 L539.2,514.1 L540.4,514.7 L541.5,515.2 L542.6,515.7 L543.7,516.2
		L544.9,516.8 L546.0,517.3 L547.1,517.8 L548.2,518.3 L549.4,518.9 L550.5,519.4 L551.6,519.9 L552.7,520.4
		L553.9,520.9 L555.0,521.5 L556.1,522.0 L557.2,522.5 L558.4,523.0 L559.5,523.5 L560.6,524.0 L561.7,524.5
		L562.9,525.0 L564.0,525.5 L565.1,526.0 L566.2,526.5 L567.4,527.0 L568.5,527.5 L569.6,528.0 L570.7,528.5
		L571.9,529.0 L573.0,529.5 L574.1,530.0 L575.2,530.5 L576.4,530.9 L577.5,531.4 L578.6,531.9 L579.8,532.4
		L580.9,532.9 L582.0,533.4 L583.1,533.8 L584.3,534.3 L585.4,534.8 L586.5,535.3 L587.6,535.7 L588.8,536.2
		L589.9,536.7 L591.0,537.2 L592.1,537.6 L593.3,538.1 L594.4,538.6 L595.5,539.0 L596.6,539.5 L597.8,539.9
		L598.9,540.4 L600.0,540.9 L601.1,541.3 L602.3,541.8 L603.4,542.2 L604.5,542.7 L605.6,543.1 L606.8,543.6
		L607.9,544.0 L609.0,544.5 L610.1,544.9 L611.3,545.4 L612.4,545.8 L613.5,546.3 L614.6,546.7 L615.8,547.2
		L616.9,547.6 L618.0,548.0 L619.1,548.5 L620.3,548.9 L621.4,549.3 L622.5,549.8 L623.6,550.2 L624.8,550.6
		L625.9,551.1 L627.0,551.5 L628.1,551.9 L629.3,552.4 L630.4,552.8 L631.5,553.2 L632.6,553.6 L633.8,554.1
		L634.9,554.5 L636.0,554.9 L637.1,555.3 L638.3,555.7 L639.4,556.1 L640.5,556.6 L641.6,557.0 L642.8,557.4
		L643.9,557.8 L645.0,558.2 L646.2,558.6 L647.3,559.0 L648.4,559.4 L649.5,559.8 L650.7,560.2 L651.8,560.6
		L652.9,561.0 L654.0,561.4 L655.2,561.8 L656.3,562.2 L657.4,562.6 L658.5,563.0 L659.7,563.4 L660.8,563.8
		L661.9,564.2 L663.0,564.6 L664.2,565.0 L665.3,565.4 L666.4,565.8 L667.5,566.2 L668.7,566.6 L669.8,566.9
		L670.9,567.3 L672.0,567.7 L673.2,568.1 L674.3,568.5 L675.4,568.8 L676.5,569.2 L677.7,569.6 L678.8,570.0
		L679.9,570.4 L681.0,570.7 L682.2,571.1 L683.3,571.5 L684.4,571.8 L685.5,572.2 L686.7,572.6 L687.8,573.0
		L688.9,573.3 L690.0,573.7 L691.2,574.1 L692.3,574.4 L693.4,574.8 L694.5,575.1 L695.7,575.5 L696.8,575.9
		L697.9,576.2 L699.0,576.6 L700.2,576.9 L701.3,577.3 L702.4,577.6 L703.5,578.0 L704.7,578.3 L705.8,578.7
		L706.9,579.0 L708.0,579.4 L709.2,579.7 L710.3,580.1 L711.4,580.4 L712.5,580.8 L713.7,581.1 L714.8,581.5
		L715.9,581.8 L717.1,582.2 L718.2,582.5 L719.3,582.8 L720.4,583.2 L721.6,583.5 L722.7,583.8 L723.8,584.2
		L724.9,584.5 L726.1,584.9 L727.2,585.2 L728.3,585.5 L729.4,585.8 L730.6,586.2 L731.7,586.5 L732.8,586.8
		L733.9,587.2 L735.1,587.5 L736.2,587.8 L737.3,588.1 L738.4,588.5 L739.6,588.8 L740.7,589.1 L741.8,589.4
		L742.9,589.7 L744.1,590.1 L745.2,590.4 L746.3,590.7 L747.4,591.0 L748.6,591.3 L749.7,591.6 L750.8,591.9
		L751.9,592.3 L753.1,592.6 L754.2,592.9 L755.3,593.2 L756.4,593.5 L757.6,593.8 L758.7,594.1 L759.8,594.4
		L760.9,594.7 L762.1,595.0 L763.2,595.3 L764.3,595.6 L765.4,595.9 L766.6,596.2 L767.7,596.5 L768.8,596.8
		L769.9,597.1 L771.1,597.4 L772.2,597.7 L773.3,598.0 L774.4,598.3 L775.6,598.6 L776.7,598.9 L777.8,599.2
		L778.9,599.5 L780.1,599.7 L781.2,600.0 L782.3,600.3 L783.5,600.6 L784.6,600.9 L785.7,601.2 L786.8,601.5
		L788.0,601.7 L789.1,602.0 L790.2,602.3 L791.3,602.6 L792.5,602.9 L793.6,603.1 L794.7,603.4 L795.8,603.7
		L797.0,604.0 L798.1,604.2 L799.2,604.5 L800.3,604.8 L801.5,605.1 L802.6,605.3 L803.7,605.6 L804.8,605.9
		L806.0,606.1 L807.1,606.4 L808.2,606.7 L809.3,606.9 L810.5,607.2 L811.6,607.5 L812.7,607.7 L813.8,608.0
		L815.0,608.3 L816.1,608.5 L817.2,608.8 L818.3,609.0 L819.5,609.3 L820.6,609.6 L821.7,609.8 L822.8,610.1
		L824.0,610.3 L825.1,610.6 L826.2,610.8 L827.3,611.1 L828.5,611.3 L829.6,611.6 L830.7,611.8 L831.8,612.1
		L833.0,612.3 L834.1,612.6 L835.2,612.8 L836.3,613.1 L837.5,613.3 L838.6,613.6 L839.7,613.8 L840.8,614.1
		L842.0,614.3 L843.1,614.5 L844.2,614.8 L845.3,615.0 L846.5,615.3 L847.6,615.5 L848.7,615.7 L849.9,616.0
		L851.0,616.2 L852.1,616.4 L853.2,616.7 L854.4,616.9 L855.5,617.1 L856.6,617.4 L857.7,617.6 L858.9,617.8
		L860.0,618.1 L861.1,618.3 L862.2,618.5 L863.4,618.8 L864.5,619.0 L865.6,619.2 L866.7,619.4 L867.9,619.7
		L869.0,619.9 L870.1,620.1 L871.2,620.3 L872.4,620.5 L873.5,620.8 L874.6,621.0 L875.7,621.2 L876.9,621.4
		L878.0,621.6 L879.1,621.9 L880.2,622.1 L881.4,622.3 L882.5,622.5 L883.6,622.7 L884.7,622.9 L885.9,623.1
		L887.0,623.4 L888.1,623.6 L889.2,623.8 L890.4,624.0 L891.5,624.2 L892.6,624.4 L893.7,624.6 L894.9,624.8
		L896.0,625.0 L897.1,625.2 L898.2,625.4 L899.4,625.6 L900.5,625.8 L901.6,626.0 L902.7,626.2 L903.9,626.4
		L905.0,626.6 L906.1,626.8 L907.2,627.0 L908.4,627.2 L909.5,627.4 L910.6,627.6 L911.7,627.8 L912.9,628.0
		L914.0,628.2 L915.1,628.4 L916.2,628.6 L917.4,628.8 L918.5,629.0 L919.6,629.2 L920.8,629.4 L921.9,629.5
		L923.0,629.7 L924.1,629.9 L925.3,630.1 L926.4,630.3 L927.5,630.5 L928.6,630.7 L929.8,630.8 L930.9,631.0
		L932.0,631.2 L933.1,631.4 L934.3,631.6 L935.4,631.7 L936.5,631.9 L937.6,632.1 L938.8,632.3 L939.9,632.5
		L941.0,632.6 L942.1,632.8 L943.3,633.0 L944.4,633.2 L945.5,633.3 L946.6,633.5 L947.8,633.7 L948.9,633.9
		L950.0,634.0 L951.1,634.2 L952.3,634.4 L953.4,634.5 L954.5,634.7 L955.6,634.9 L956.8,635.0 L957.9,635.2
		L959.0,635.4 L960.1,635.5 L961.3,635.7 L962.4,635.9 L963.5,636.0 L964.6,636.2 L965.8,636.3 L966.9,636.5
		L968.0,636.7 L969.1,636.8 L970.3,637.0 L971.4,637.1 L972.5,637.3 L973.6,637.5 L974.8,637.6 L975.9,637.8
		L977.0,637.9 L978.1,638.1 L979.3,638.2 L980.4,638.4 L981.5,638.5 L982.6,638.7 L983.8,638.8 L984.9,639.0
		L986.0,639.1 L987.2,639.3 L988.3,639.4 L989.4,639.6 L990.5,639.7 L991.7,639.9 L992.8,640.0 L993.9,640.2
		L995.0,640.3 L996.2,640.4 L997.3,640.6 L998.4,640.7 L999.5,640.9 L1000.7,641.0 L1001.8,641.1 L1002.9,641.3
		L1004.0,641.4 L1005.2,641.6 L1006.3,641.7 L1007.4,641.8 L1008.5,642.0 L1009.7,642.1 L1010.8,642.2 L1011.9,642.4
		L1013.0,642.5 L1014.2,642.6 L1015.3,642.8 L1016.4,642.9 L1017.5,643.0 L1018.7,643.2 L1019.8,643.3 L1020.9,643.4
		L1022.0,643.5 L1023.2,643.7 L1024.3,643.8 L1025.4,643.9 L1026.5,644.0 L1027.7,644.2 L1028.8,644.3 L1029.9,644.4
		L1031.0,644.5 L1032.2,644.7 L1033.3,644.8 L1034.4,644.9 L1035.5,645.0 L1036.7,645.1 L1037.8,645.3 L1038.9,645.4
		L1040.0,645.5 L1041.2,645.6 L1042.3,645.7 L1043.4,645.8 L1044.5,646.0 L1045.7,646.1 L1046.8,646.2 L1047.9,646.3
		L1049.0,646.4 L1050.2,646.5 L1051.3,646.6 L1052.4,646.7 L1053.6,646.8 L1054.7,647.0 L1055.8,647.1 L1056.9,647.2
		L1058.1,647.3 L1059.2,647.4 L1060.3,647.5 L1061.4,647.6 L1062.6,647.7 L1063.7,647.8 L1064.8,647.9 L1065.9,648.0
		L1067.1,648.1 L1068.2,648.2 L1069.3,648.3 L1070.4,648.4 L1071.6,648.5 L1072.7,648.6 L1073.8,648.7 L1074.9,648.8
		L1076.1,648.9 L1077.2,649.0 L1078.3,649.1 L1079.4,649.2 L1080.6,649.3 L1081.7,649.4 L1082.8,649.5 L1083.9,649.6
		L1085.1,649.7 L1086.2,649.7 L1087.3,649.8 L1088.4,649.9 L1089.6,650.0 L1090.7,650.1 L1091.8,650.2 L1092.9,650.3
		L1094.1,650.4 L1095.2,650.5 L1096.3,650.5 L1097.4,650.6 L1098.6,650.7 L1099.7,650.8 L1100.8,650.9 L1101.9,651.0
		L1103.1,651.0 L1104.2,651.1 L1105.3,651.2 L1106.4,651.3 L1107.6,651.4 L1108.7,651.4 L1109.8,651.5 L1110.9,651.6
		L1112.1,651.7 L1113.2,651.8 L1114.3,651.8 L1115.4,651.9 L1116.6,652.0 L1117.7,652.1 L1118.8,652.1 L1120.0,652.2
		L1121.1,652.3 L1122.2,652.3 L1123.3,652.4 L1124.5,652.5 L1125.6,652.5 L1126.7,652.6 L1127.8,652.7 L1129.0,652.8
		L1130.1,652.8 L1131.2,652.9 L1132.3,653.0 L1133.5,653.0 L1134.6,653.1 L1135.7,653.1 L1136.8,653.2 L1138.0,653.3
		L1139.1,653.3 L1140.2,653.4 L1141.3,653.5 L1142.5,653.5 L1143.6,653.6 L1144.7,653.6 L1145.8,653.7 L1147.0,653.8
		L1148.1,653.8 L1149.2,653.9 L1150.3,653.9 L1151.5,654.0 L1152.6,654.0 L1153.7,654.1 L1154.8,654.1 L1156.0,654.2
		L1157.1,654.2 L1158.2,654.3 L1159.3,654.4 L1160.5,654.4 L1161.6,654.5 L1162.7,654.5 L1163.8,654.6 L1165.0,654.6
		L1166.1,654.6 L1167.2,654.7 L1168.3,654.7 L1169.5,654.8 L1170.6,654.8 L1171.7,654.9 L1172.8,654.9 L1174.0,655.0
		L1175.1,655.0 L1176.2,655.0 L1177.3,655.1 L1178.5,655.1 L1179.6,655.2 L1180.7,655.2 L1181.8,655.2 L1183.0,655.3
		L1184.1,655.3 L1185.2,655.4 L1186.3,655.4 L1187.5,655.4 L1188.6,655.5 L1189.7,655.5 L1190.9,655.5 L1192.0,655.6
		L1193.1,655.6 L1194.2,655.6 L1195.4,655.7 L1196.5,655.7 L1197.6,655.7 L1198.7,655.8 L1199.9,655.8 L1201.0,655.8
		L1202.1,655.9 L1203.2,655.9 L1204.4,655.9 L1205.5,655.9 L1206.6,656.0 L1207.7,656.0 L1208.9,656.0 L1210.0,656.0
		L1211.1,656.1 L1212.2,656.1 L1213.4,656.1 L1214.5,656.1 L1215.6,656.1 L1216.7,656.2 L1217.9,656.2 L1219.0,656.2
		L1220.1,656.2 L1221.2,656.2 L1222.4,656.3 L1223.5,656.3 L1224.6,656.3 L1225.7,656.3 L1226.9,656.3 L1228.0,656.3
		L1229.1,656.4 L1230.2,656.4 L1231.4,656.4 L1232.5,656.4 L1233.6,656.4 L1234.7,656.4 L1235.9,656.4 L1237.0,656.4
		L1238.1,656.4 L1239.2,656.5 L1240.4,656.5 L1241.5,656.5 L1242.6,656.5 L1243.7,656.5 L1244.9,656.5 L1246.0,656.5
		L1247.1,656.5 L1248.2,656.5 L1249.4,656.5 L1250.5,656.5 L1251.6,656.5 L1252.7,656.5 L1253.9,656.5 L1255.0,656.5
		 '/></g>
	</g>
<g fill="none" color="white" stroke="rgb(  0,   0, 255)" stroke-width="2.00" stroke-linecap="butt" stroke-linejoin="miter">
</g>
<g fill="none" color="black" stroke="currentColor" stroke-width="2.00" stroke-linecap="butt" stroke-linejoin="miter">
</g>
<g fill="none" color="black" stroke="black" stroke-width="1.00" stroke-linecap="butt" stroke-linejoin="miter">
</g>
<g fill="none" color="black" stroke="currentColor" stroke-width="1.00" stroke-linecap="butt" stroke-linejoin="miter">
	<path stroke='black'  d='M103.7,54.1 L103.7,684.0 L1255.0,684.0 L1255.0,54.1 L103.7,54.1 Z  '/></g>
<g fill="none" color="black" stroke="currentColor" stroke-width="1.00" stroke-linecap="butt" stroke-linejoin="miter">
</g>
</g>
</svg>

