<?xml version="1.0" encoding="utf-8"  standalone="no"?>
<svg 
 width="1280" height="720"
 viewBox="0 0 1280 720"
 xmlns="http://www.w3.org/2000/svg"
 xmlns:xlink="http://www.w3.org/1999/xlink"
>

<title>Gnuplot</title>
<desc>Produced by GNUPLOT 5.0 patchlevel 6 </desc>

<g id="gnuplot_canvas">

<rect x="0" y="0" width="1280" height="720" fill="none"/>
<defs>

	<circle id='gpDot' r='0.5' stroke-width='0.5'/>
	<path id='gpPt0' stroke-width='0.222' stroke='currentColor' d='M-1,0 h2 M0,-1 v2'/>
	<path id='gpPt1' stroke-width='0.222' stroke='currentColor' d='M-1,-1 L1,1 M1,-1 L-1,1'/>
	<path id='gpPt2' stroke-width='0.222' stroke='currentColor' d='M-1,0 L1,0 M0,-1 L0,1 M-1,-1 L1,1 M-1,1 L1,-1'/>
	<rect id='gpPt3' stroke-width='0.222' stroke='currentColor' x='-1' y='-1' width='2' height='2'/>
	<rect id='gpPt4' stroke-width='0.222' stroke='currentColor' fill='currentColor' x='-1' y='-1' width='2' height='2'/>
	<circle id='gpPt5' stroke-width='0.222' stroke='currentColor' cx='0' cy='0' r='1'/>
	<use xlink:href='#gpPt5' id='gpPt6' fill='currentColor' stroke='none'/>
	<path id='gpPt7' stroke-width='0.222' stroke='currentColor' d='M0,-1.33 L-1.33,0.67 L1.33,0.67 z'/>
	<use xlink:href='#gpPt7' id='gpPt8' fill='currentColor' stroke='none'/>
	<use xlink:href='#gpPt7' id='gpPt9' stroke='currentColor' transform='rotate(180)'/>
	<use xlink:href='#gpPt9' id='gpPt10' fill='currentColor' stroke='none'/>
	<use xlink:href='#gpPt3' id='gpPt11' stroke='currentColor' transform='rotate(45)'/>
	<use xlink:href='#gpPt11' id='gpPt12' fill='currentColor' stroke='none'/>
	<path id='gpPt13' stroke-width='0.222' stroke='currentColor' d='M0,1.330 L1.265,0.411 L0.782,-1.067 L-0.782,-1.076 L-1.265,0.411 z'/>
	<use xlink:href='#gpPt13' id='gpPt14' fill='currentColor' stroke='none'/>
	<filter id='textbox' filterUnits='objectBoundingBox' x='0' y='0' height='1' width='1'>
	  <feFlood flood-color='white' flood-opacity='1' result='bgnd'/>
	  <feComposite in='SourceGraphic' in2='bgnd' operator='atop'/>
	</filter>
	<filter id='greybox' filterUnits='objectBoundingBox' x='0' y='0' height='1' width='1'>
	  <feFlood flood-color='lightgrey' flood-opacity='1' result='grey'/>
	  <feComposite in='SourceGraphic' in2='grey' operator='atop'/>
	</filter>
</defs>
<g fill="none" color="white" stroke="currentColor" stroke-width="1.00" stroke-linecap="butt" stroke-linejoin="miter">
</g>
<g fill="none" color="black" stroke="currentColor" stroke-width="1.00" stroke-linecap="butt" stroke-linejoin="miter">
	<path stroke='black'  d='M103.7,684.0 L112.7,684.0 M1255.0,684.0 L1246.0,684.0  '/>	<g transform="translate(95.4,687.9)" stroke="none" fill="black" font-family="Arial" font-size="12.00"  text-anchor="end">
		<text><tspan font-family="Arial" > 0.001529</tspan></text>
	</g>
</g>
<g fill="none" color="black" stroke="currentColor" stroke-width="1.00" stroke-linecap="butt" stroke-linejoin="miter">
	<path stroke='black'  d='M103.7,369.0 L112.7,369.0 M1255.0,369.0 L1246.0,369.0  '/>	<g transform="translate(95.4,372.9)" stroke="none" fill="black" font-family="Arial" font-size="12.00"  text-anchor="end">
		<text><tspan font-family="Arial" > 0.0426199</tspan></text>
	</g>
</g>
<g fill="none" color="black" stroke="currentColor" stroke-width="1.00" stroke-linecap="butt" stroke-linejoin="miter">
	<path stroke='black'  d='M103.7,54.1 L112.7,54.1 M1255.0,54.1 L1246.0,54.1  '/>	<g transform="translate(95.4,58.0)" stroke="none" fill="black" font-family="Arial" font-size="12.00"  text-anchor="end">
		<text><tspan font-family="Arial" > 1.188</tspan></text>
	</g>
</g>
<g fill="none" color="black" stroke="currentColor" stroke-width="1.00" stroke-linecap="butt" stroke-linejoin="miter">
	<path stroke='black'  d='M103.7,684.0 L103.7,675.0 M103.7,54.1 L103.7,63.1  '/>	<g transform="translate(103.7,705.9)" stroke="none" fill="black" font-family="Arial" font-size="12.00"  text-anchor="middle">
		<text><tspan font-family="Arial" > 0</tspan></text>
	</g>
</g>
<g fill="none" color="black" stroke="currentColor" stroke-width="1.00" stroke-linecap="butt" stroke-linejoin="miter">
	<path stroke='black'  d='M679.4,684.0 L679.4,675.0 M679.4,54.1 L679.4,63.1  '/>	<g transform="translate(679.4,705.9)" stroke="none" fill="black" font-family="Arial" font-size="12.00"  text-anchor="middle">
		<text><tspan font-family="Arial" >pi/2</tspan></text>
	</g>
</g>
<g fill="none" color="black" stroke="currentColor" stroke-width="1.00" stroke-linecap="butt" stroke-linejoin="miter">
	<path stroke='black'  d='M1255.0,684.0 L1255.0,675.0 M1255.0,54.1 L1255.0,63.1  '/>	<g transform="translate(1255.0,705.9)" stroke="none" fill="black" font-family="Arial" font-size="12.00"  text-anchor="middle">
		<text><tspan font-family="Arial" >pi</tspan></text>
	</g>
</g>
<g fill="none" color="black" stroke="currentColor" stroke-width="1.00" stroke-linecap="butt" stroke-linejoin="miter">
</g>
<g fill="none" color="black" stroke="currentColor" stroke-width="1.00" stroke-linecap="butt" stroke-linejoin="miter">
	<path stroke='black'  d='M103.7,54.1 L103.7,684.0 L1255.0,684.0 L1255.0,54.1 L103.7,54.1 Z  '/></g>
<g fill="none" color="black" stroke="currentColor" stroke-width="1.00" stroke-linecap="butt" stroke-linejoin="miter">
	<g transform="translate(679.3,31.0)" stroke="none" fill="black" font-family="Arial" font-size="12.00"  text-anchor="middle">
		<text><tspan font-family="Arial" >Material 41, with 8 components</tspan></text>
	</g>
</g>
	<g id="gnuplot_plot_1" ><title>scattering function</title>
<g fill="none" color="black" stroke="currentColor" stroke-width="1.00" stroke-linecap="butt" stroke-linejoin="miter">
	<g transform="translate(1187.9,76.0)" stroke="none" fill="black" font-family="Arial" font-size="12.00"  text-anchor="end">
		<text><tspan font-family="Arial" >scattering function</tspan></text>
	</g>
</g>
<g fill="none" color="black" stroke="currentColor" stroke-width="1.00" stroke-linecap="butt" stroke-linejoin="miter">
	<use xlink:href='#gpPt5' transform='translate(103.7,107.2) scale(2.25)' color='rgb(255,   0,   0)'/>
	<use xlink:href='#gpPt5' transform='translate(104.3,107.9) scale(2.25)' color='rgb(255,   0,   0)'/>
	<use xlink:href='#gpPt5' transform='translate(105.0,110.0) scale(2.25)' color='rgb(255,   0,   0)'/>
	<use xlink:href='#gpPt5' transform='translate(105.6,113.5) scale(2.25)' color='rgb(255,   0,   0)'/>
	<use xlink:href='#gpPt5' transform='translate(106.3,118.1) scale(2.25)' color='rgb(255,   0,   0)'/>
	<use xlink:href='#gpPt5' transform='translate(106.9,123.6) scale(2.25)' color='rgb(255,   0,   0)'/>
	<use xlink:href='#gpPt5' transform='translate(107.5,129.9) scale(2.25)' color='rgb(255,   0,   0)'/>
	<use xlink:href='#gpPt5' transform='translate(108.2,136.5) scale(2.25)' color='rgb(255,   0,   0)'/>
	<use xlink:href='#gpPt5' transform='translate(108.8,143.2) scale(2.25)' color='rgb(255,   0,   0)'/>
	<use xlink:href='#gpPt5' transform='translate(109.5,149.9) scale(2.25)' color='rgb(255,   0,   0)'/>
	<use xlink:href='#gpPt5' transform='translate(110.1,156.3) scale(2.25)' color='rgb(255,   0,   0)'/>
	<use xlink:href='#gpPt5' transform='translate(110.7,162.2) scale(2.25)' color='rgb(255,   0,   0)'/>
	<use xlink:href='#gpPt5' transform='translate(111.4,167.7) scale(2.25)' color='rgb(255,   0,   0)'/>
	<use xlink:href='#gpPt5' transform='translate(112.0,172.6) scale(2.25)' color='rgb(255,   0,   0)'/>
	<use xlink:href='#gpPt5' transform='translate(112.7,177.2) scale(2.25)' color='rgb(255,   0,   0)'/>
	<use xlink:href='#gpPt5' transform='translate(113.3,181.5) scale(2.25)' color='rgb(255,   0,   0)'/>
	<use xlink:href='#gpPt5' transform='translate(113.9,185.5) scale(2.25)' color='rgb(255,   0,   0)'/>
	<use xlink:href='#gpPt5' transform='translate(114.6,189.3) scale(2.25)' color='rgb(255,   0,   0)'/>
	<use xlink:href='#gpPt5' transform='translate(115.2,192.8) scale(2.25)' color='rgb(255,   0,   0)'/>
	<use xlink:href='#gpPt5' transform='translate(115.9,196.0) scale(2.25)' color='rgb(255,   0,   0)'/>
	<use xlink:href='#gpPt5' transform='translate(116.5,199.1) scale(2.25)' color='rgb(255,   0,   0)'/>
	<use xlink:href='#gpPt5' transform='translate(122.9,220.9) scale(2.25)' color='rgb(255,   0,   0)'/>
	<use xlink:href='#gpPt5' transform='translate(129.3,233.3) scale(2.25)' color='rgb(255,   0,   0)'/>
	<use xlink:href='#gpPt5' transform='translate(135.7,241.7) scale(2.25)' color='rgb(255,   0,   0)'/>
	<use xlink:href='#gpPt5' transform='translate(142.1,248.1) scale(2.25)' color='rgb(255,   0,   0)'/>
	<use xlink:href='#gpPt5' transform='translate(154.9,258.5) scale(2.25)' color='rgb(255,   0,   0)'/>
	<use xlink:href='#gpPt5' transform='translate(167.7,268.0) scale(2.25)' color='rgb(255,   0,   0)'/>
	<use xlink:href='#gpPt5' transform='translate(180.5,277.4) scale(2.25)' color='rgb(255,   0,   0)'/>
	<use xlink:href='#gpPt5' transform='translate(193.2,286.9) scale(2.25)' color='rgb(255,   0,   0)'/>
	<use xlink:href='#gpPt5' transform='translate(206.0,296.7) scale(2.25)' color='rgb(255,   0,   0)'/>
	<use xlink:href='#gpPt5' transform='translate(218.8,306.8) scale(2.25)' color='rgb(255,   0,   0)'/>
	<use xlink:href='#gpPt5' transform='translate(231.6,317.0) scale(2.25)' color='rgb(255,   0,   0)'/>
	<use xlink:href='#gpPt5' transform='translate(244.4,327.4) scale(2.25)' color='rgb(255,   0,   0)'/>
	<use xlink:href='#gpPt5' transform='translate(257.2,338.0) scale(2.25)' color='rgb(255,   0,   0)'/>
	<use xlink:href='#gpPt5' transform='translate(270.0,348.6) scale(2.25)' color='rgb(255,   0,   0)'/>
	<use xlink:href='#gpPt5' transform='translate(282.8,359.3) scale(2.25)' color='rgb(255,   0,   0)'/>
	<use xlink:href='#gpPt5' transform='translate(295.6,370.0) scale(2.25)' color='rgb(255,   0,   0)'/>
	<use xlink:href='#gpPt5' transform='translate(308.4,380.7) scale(2.25)' color='rgb(255,   0,   0)'/>
	<use xlink:href='#gpPt5' transform='translate(321.2,391.4) scale(2.25)' color='rgb(255,   0,   0)'/>
	<use xlink:href='#gpPt5' transform='translate(334.0,402.0) scale(2.25)' color='rgb(255,   0,   0)'/>
	<use xlink:href='#gpPt5' transform='translate(346.8,412.6) scale(2.25)' color='rgb(255,   0,   0)'/>
	<use xlink:href='#gpPt5' transform='translate(359.5,423.1) scale(2.25)' color='rgb(255,   0,   0)'/>
	<use xlink:href='#gpPt5' transform='translate(372.3,433.5) scale(2.25)' color='rgb(255,   0,   0)'/>
	<use xlink:href='#gpPt5' transform='translate(385.1,443.9) scale(2.25)' color='rgb(255,   0,   0)'/>
	<use xlink:href='#gpPt5' transform='translate(397.9,454.1) scale(2.25)' color='rgb(255,   0,   0)'/>
	<use xlink:href='#gpPt5' transform='translate(410.7,464.2) scale(2.25)' color='rgb(255,   0,   0)'/>
	<use xlink:href='#gpPt5' transform='translate(423.5,474.1) scale(2.25)' color='rgb(255,   0,   0)'/>
	<use xlink:href='#gpPt5' transform='translate(436.3,483.9) scale(2.25)' color='rgb(255,   0,   0)'/>
	<use xlink:href='#gpPt5' transform='translate(449.1,493.6) scale(2.25)' color='rgb(255,   0,   0)'/>
	<use xlink:href='#gpPt5' transform='translate(461.9,503.1) scale(2.25)' color='rgb(255,   0,   0)'/>
	<use xlink:href='#gpPt5' transform='translate(474.7,512.5) scale(2.25)' color='rgb(255,   0,   0)'/>
	<use xlink:href='#gpPt5' transform='translate(487.5,521.7) scale(2.25)' color='rgb(255,   0,   0)'/>
	<use xlink:href='#gpPt5' transform='translate(500.3,530.7) scale(2.25)' color='rgb(255,   0,   0)'/>
	<use xlink:href='#gpPt5' transform='translate(513.1,539.6) scale(2.25)' color='rgb(255,   0,   0)'/>
	<use xlink:href='#gpPt5' transform='translate(525.8,548.3) scale(2.25)' color='rgb(255,   0,   0)'/>
	<use xlink:href='#gpPt5' transform='translate(538.6,556.7) scale(2.25)' color='rgb(255,   0,   0)'/>
	<use xlink:href='#gpPt5' transform='translate(551.4,565.1) scale(2.25)' color='rgb(255,   0,   0)'/>
	<use xlink:href='#gpPt5' transform='translate(564.2,573.1) scale(2.25)' color='rgb(255,   0,   0)'/>
	<use xlink:href='#gpPt5' transform='translate(577.0,581.0) scale(2.25)' color='rgb(255,   0,   0)'/>
	<use xlink:href='#gpPt5' transform='translate(589.8,588.6) scale(2.25)' color='rgb(255,   0,   0)'/>
	<use xlink:href='#gpPt5' transform='translate(602.6,596.0) scale(2.25)' color='rgb(255,   0,   0)'/>
	<use xlink:href='#gpPt5' transform='translate(615.4,603.2) scale(2.25)' color='rgb(255,   0,   0)'/>
	<use xlink:href='#gpPt5' transform='translate(628.2,610.1) scale(2.25)' color='rgb(255,   0,   0)'/>
	<use xlink:href='#gpPt5' transform='translate(641.0,616.7) scale(2.25)' color='rgb(255,   0,   0)'/>
	<use xlink:href='#gpPt5' transform='translate(653.8,623.1) scale(2.25)' color='rgb(255,   0,   0)'/>
	<use xlink:href='#gpPt5' transform='translate(666.6,629.2) scale(2.25)' color='rgb(255,   0,   0)'/>
	<use xlink:href='#gpPt5' transform='translate(679.4,635.0) scale(2.25)' color='rgb(255,   0,   0)'/>
	<use xlink:href='#gpPt5' transform='translate(692.1,640.5) scale(2.25)' color='rgb(255,   0,   0)'/>
	<use xlink:href='#gpPt5' transform='translate(704.9,645.7) scale(2.25)' color='rgb(255,   0,   0)'/>
	<use xlink:href='#gpPt5' transform='translate(717.7,650.7) scale(2.25)' color='rgb(255,   0,   0)'/>
	<use xlink:href='#gpPt5' transform='translate(730.5,655.2) scale(2.25)' color='rgb(255,   0,   0)'/>
	<use xlink:href='#gpPt5' transform='translate(743.3,659.4) scale(2.25)' color='rgb(255,   0,   0)'/>
	<use xlink:href='#gpPt5' transform='translate(756.1,663.4) scale(2.25)' color='rgb(255,   0,   0)'/>
	<use xlink:href='#gpPt5' transform='translate(768.9,666.9) scale(2.25)' color='rgb(255,   0,   0)'/>
	<use xlink:href='#gpPt5' transform='translate(781.7,670.1) scale(2.25)' color='rgb(255,   0,   0)'/>
	<use xlink:href='#gpPt5' transform='translate(794.5,673.0) scale(2.25)' color='rgb(255,   0,   0)'/>
	<use xlink:href='#gpPt5' transform='translate(807.3,675.6) scale(2.25)' color='rgb(255,   0,   0)'/>
	<use xlink:href='#gpPt5' transform='translate(820.1,677.8) scale(2.25)' color='rgb(255,   0,   0)'/>
	<use xlink:href='#gpPt5' transform='translate(832.9,679.6) scale(2.25)' color='rgb(255,   0,   0)'/>
	<use xlink:href='#gpPt5' transform='translate(845.6,681.1) scale(2.25)' color='rgb(255,   0,   0)'/>
	<use xlink:href='#gpPt5' transform='translate(858.4,682.3) scale(2.25)' color='rgb(255,   0,   0)'/>
	<use xlink:href='#gpPt5' transform='translate(871.2,683.2) scale(2.25)' color='rgb(255,   0,   0)'/>
	<use xlink:href='#gpPt5' transform='translate(884.0,683.8) scale(2.25)' color='rgb(255,   0,   0)'/>
	<use xlink:href='#gpPt5' transform='translate(896.8,684.0) scale(2.25)' color='rgb(255,   0,   0)'/>
	<use xlink:href='#gpPt5' transform='translate(909.6,683.9) scale(2.25)' color='rgb(255,   0,   0)'/>
	<use xlink:href='#gpPt5' transform='translate(922.4,683.6) scale(2.25)' color='rgb(255,   0,   0)'/>
	<use xlink:href='#gpPt5' transform='translate(935.2,683.0) scale(2.25)' color='rgb(255,   0,   0)'/>
	<use xlink:href='#gpPt5' transform='translate(948.0,682.1) scale(2.25)' color='rgb(255,   0,   0)'/>
	<use xlink:href='#gpPt5' transform='translate(960.8,681.0) scale(2.25)' color='rgb(255,   0,   0)'/>
	<use xlink:href='#gpPt5' transform='translate(973.6,679.6) scale(2.25)' color='rgb(255,   0,   0)'/>
	<use xlink:href='#gpPt5' transform='translate(986.4,677.9) scale(2.25)' color='rgb(255,   0,   0)'/>
	<use xlink:href='#gpPt5' transform='translate(999.2,676.1) scale(2.25)' color='rgb(255,   0,   0)'/>
	<use xlink:href='#gpPt5' transform='translate(1011.9,674.1) scale(2.25)' color='rgb(255,   0,   0)'/>
	<use xlink:href='#gpPt5' transform='translate(1024.7,671.9) scale(2.25)' color='rgb(255,   0,   0)'/>
	<use xlink:href='#gpPt5' transform='translate(1037.5,669.6) scale(2.25)' color='rgb(255,   0,   0)'/>
	<use xlink:href='#gpPt5' transform='translate(1050.3,667.1) scale(2.25)' color='rgb(255,   0,   0)'/>
	<use xlink:href='#gpPt5' transform='translate(1063.1,664.6) scale(2.25)' color='rgb(255,   0,   0)'/>
	<use xlink:href='#gpPt5' transform='translate(1075.9,662.1) scale(2.25)' color='rgb(255,   0,   0)'/>
	<use xlink:href='#gpPt5' transform='translate(1088.7,659.5) scale(2.25)' color='rgb(255,   0,   0)'/>
	<use xlink:href='#gpPt5' transform='translate(1101.5,657.0) scale(2.25)' color='rgb(255,   0,   0)'/>
	<use xlink:href='#gpPt5' transform='translate(1114.3,654.7) scale(2.25)' color='rgb(255,   0,   0)'/>
	<use xlink:href='#gpPt5' transform='translate(1127.1,652.9) scale(2.25)' color='rgb(255,   0,   0)'/>
	<use xlink:href='#gpPt5' transform='translate(1139.9,651.6) scale(2.25)' color='rgb(255,   0,   0)'/>
	<use xlink:href='#gpPt5' transform='translate(1152.7,650.7) scale(2.25)' color='rgb(255,   0,   0)'/>
	<use xlink:href='#gpPt5' transform='translate(1165.5,650.2) scale(2.25)' color='rgb(255,   0,   0)'/>
	<use xlink:href='#gpPt5' transform='translate(1178.2,650.0) scale(2.25)' color='rgb(255,   0,   0)'/>
	<use xlink:href='#gpPt5' transform='translate(1191.0,649.8) scale(2.25)' color='rgb(255,   0,   0)'/>
	<use xlink:href='#gpPt5' transform='translate(1203.8,649.0) scale(2.25)' color='rgb(255,   0,   0)'/>
	<use xlink:href='#gpPt5' transform='translate(1216.6,647.5) scale(2.25)' color='rgb(255,   0,   0)'/>
	<use xlink:href='#gpPt5' transform='translate(1229.4,645.3) scale(2.25)' color='rgb(255,   0,   0)'/>
	<use xlink:href='#gpPt5' transform='translate(1242.2,643.5) scale(2.25)' color='rgb(255,   0,   0)'/>
	<use xlink:href='#gpPt5' transform='translate(1255.0,642.4) scale(2.25)' color='rgb(255,   0,   0)'/>
	<use xlink:href='#gpPt5' transform='translate(1217.3,72.1) scale(2.25)' color='rgb(255,   0,   0)'/>
</g>
	</g>
	<g id="gnuplot_plot_2" ><title>gnuplot_plot_2</title>
<g fill="none" color="black" stroke="currentColor" stroke-width="1.00" stroke-linecap="butt" stroke-linejoin="miter">
	<use xlink:href='#gpPt5' transform='translate(103.7,91.0) scale(2.25)' color='rgb(  0, 100,   0)'/>
	<use xlink:href='#gpPt5' transform='translate(104.3,91.9) scale(2.25)' color='rgb(  0, 100,   0)'/>
	<use xlink:href='#gpPt5' transform='translate(105.0,94.4) scale(2.25)' color='rgb(  0, 100,   0)'/>
	<use xlink:href='#gpPt5' transform='translate(105.6,98.4) scale(2.25)' color='rgb(  0, 100,   0)'/>
	<use xlink:href='#gpPt5' transform='translate(106.3,103.8) scale(2.25)' color='rgb(  0, 100,   0)'/>
	<use xlink:href='#gpPt5' transform='translate(106.9,110.2) scale(2.25)' color='rgb(  0, 100,   0)'/>
	<use xlink:href='#gpPt5' transform='translate(107.5,117.2) scale(2.25)' color='rgb(  0, 100,   0)'/>
	<use xlink:href='#gpPt5' transform='translate(108.2,124.5) scale(2.25)' color='rgb(  0, 100,   0)'/>
	<use xlink:href='#gpPt5' transform='translate(108.8,131.8) scale(2.25)' color='rgb(  0, 100,   0)'/>
	<use xlink:href='#gpPt5' transform='translate(109.5,138.8) scale(2.25)' color='rgb(  0, 100,   0)'/>
	<use xlink:href='#gpPt5' transform='translate(110.1,145.3) scale(2.25)' color='rgb(  0, 100,   0)'/>
	<use xlink:href='#gpPt5' transform='translate(110.7,151.2) scale(2.25)' color='rgb(  0, 100,   0)'/>
	<use xlink:href='#gpPt5' transform='translate(111.4,156.7) scale(2.25)' color='rgb(  0, 100,   0)'/>
	<use xlink:href='#gpPt5' transform='translate(112.0,161.6) scale(2.25)' color='rgb(  0, 100,   0)'/>
	<use xlink:href='#gpPt5' transform='translate(112.7,166.2) scale(2.25)' color='rgb(  0, 100,   0)'/>
	<use xlink:href='#gpPt5' transform='translate(113.3,170.4) scale(2.25)' color='rgb(  0, 100,   0)'/>
	<use xlink:href='#gpPt5' transform='translate(113.9,174.3) scale(2.25)' color='rgb(  0, 100,   0)'/>
	<use xlink:href='#gpPt5' transform='translate(114.6,178.0) scale(2.25)' color='rgb(  0, 100,   0)'/>
	<use xlink:href='#gpPt5' transform='translate(115.2,181.4) scale(2.25)' color='rgb(  0, 100,   0)'/>
	<use xlink:href='#gpPt5' transform='translate(115.9,184.6) scale(2.25)' color='rgb(  0, 100,   0)'/>
	<use xlink:href='#gpPt5' transform='translate(116.5,187.5) scale(2.25)' color='rgb(  0, 100,   0)'/>
	<use xlink:href='#gpPt5' transform='translate(122.9,208.0) scale(2.25)' color='rgb(  0, 100,   0)'/>
	<use xlink:href='#gpPt5' transform='translate(129.3,219.5) scale(2.25)' color='rgb(  0, 100,   0)'/>
	<use xlink:href='#gpPt5' transform='translate(135.7,227.4) scale(2.25)' color='rgb(  0, 100,   0)'/>
	<use xlink:href='#gpPt5' transform='translate(142.1,233.4) scale(2.25)' color='rgb(  0, 100,   0)'/>
	<use xlink:href='#gpPt5' transform='translate(154.9,243.7) scale(2.25)' color='rgb(  0, 100,   0)'/>
	<use xlink:href='#gpPt5' transform='translate(167.7,253.4) scale(2.25)' color='rgb(  0, 100,   0)'/>
	<use xlink:href='#gpPt5' transform='translate(180.5,263.1) scale(2.25)' color='rgb(  0, 100,   0)'/>
	<use xlink:href='#gpPt5' transform='translate(193.2,273.0) scale(2.25)' color='rgb(  0, 100,   0)'/>
	<use xlink:href='#gpPt5' transform='translate(206.0,283.1) scale(2.25)' color='rgb(  0, 100,   0)'/>
	<use xlink:href='#gpPt5' transform='translate(218.8,293.5) scale(2.25)' color='rgb(  0, 100,   0)'/>
	<use xlink:href='#gpPt5' transform='translate(231.6,304.0) scale(2.25)' color='rgb(  0, 100,   0)'/>
	<use xlink:href='#gpPt5' transform='translate(244.4,314.7) scale(2.25)' color='rgb(  0, 100,   0)'/>
	<use xlink:href='#gpPt5' transform='translate(257.2,325.6) scale(2.25)' color='rgb(  0, 100,   0)'/>
	<use xlink:href='#gpPt5' transform='translate(270.0,336.5) scale(2.25)' color='rgb(  0, 100,   0)'/>
	<use xlink:href='#gpPt5' transform='translate(282.8,347.4) scale(2.25)' color='rgb(  0, 100,   0)'/>
	<use xlink:href='#gpPt5' transform='translate(295.6,358.4) scale(2.25)' color='rgb(  0, 100,   0)'/>
	<use xlink:href='#gpPt5' transform='translate(308.4,369.3) scale(2.25)' color='rgb(  0, 100,   0)'/>
	<use xlink:href='#gpPt5' transform='translate(321.2,380.2) scale(2.25)' color='rgb(  0, 100,   0)'/>
	<use xlink:href='#gpPt5' transform='translate(334.0,391.1) scale(2.25)' color='rgb(  0, 100,   0)'/>
	<use xlink:href='#gpPt5' transform='translate(346.8,401.9) scale(2.25)' color='rgb(  0, 100,   0)'/>
	<use xlink:href='#gpPt5' transform='translate(359.5,412.5) scale(2.25)' color='rgb(  0, 100,   0)'/>
	<use xlink:href='#gpPt5' transform='translate(372.3,423.2) scale(2.25)' color='rgb(  0, 100,   0)'/>
	<use xlink:href='#gpPt5' transform='translate(385.1,433.6) scale(2.25)' color='rgb(  0, 100,   0)'/>
	<use xlink:href='#gpPt5' transform='translate(397.9,444.1) scale(2.25)' color='rgb(  0, 100,   0)'/>
	<use xlink:href='#gpPt5' transform='translate(410.7,454.3) scale(2.25)' color='rgb(  0, 100,   0)'/>
	<use xlink:href='#gpPt5' transform='translate(423.5,464.4) scale(2.25)' color='rgb(  0, 100,   0)'/>
	<use xlink:href='#gpPt5' transform='translate(436.3,474.3) scale(2.25)' color='rgb(  0, 100,   0)'/>
	<use xlink:href='#gpPt5' transform='translate(449.1,484.2) scale(2.25)' color='rgb(  0, 100,   0)'/>
	<use xlink:href='#gpPt5' transform='translate(461.9,493.8) scale(2.25)' color='rgb(  0, 100,   0)'/>
	<use xlink:href='#gpPt5' transform='translate(474.7,503.2) scale(2.25)' color='rgb(  0, 100,   0)'/>
	<use xlink:href='#gpPt5' transform='translate(487.5,512.5) scale(2.25)' color='rgb(  0, 100,   0)'/>
	<use xlink:href='#gpPt5' transform='translate(500.3,521.7) scale(2.25)' color='rgb(  0, 100,   0)'/>
	<use xlink:href='#gpPt5' transform='translate(513.1,530.6) scale(2.25)' color='rgb(  0, 100,   0)'/>
	<use xlink:href='#gpPt5' transform='translate(525.8,539.4) scale(2.25)' color='rgb(  0, 100,   0)'/>
	<use xlink:href='#gpPt5' transform='translate(538.6,547.9) scale(2.25)' color='rgb(  0, 100,   0)'/>
	<use xlink:href='#gpPt5' transform='translate(551.4,556.2) scale(2.25)' color='rgb(  0, 100,   0)'/>
	<use xlink:href='#gpPt5' transform='translate(564.2,564.4) scale(2.25)' color='rgb(  0, 100,   0)'/>
	<use xlink:href='#gpPt5' transform='translate(577.0,572.3) scale(2.25)' color='rgb(  0, 100,   0)'/>
	<use xlink:href='#gpPt5' transform='translate(589.8,580.0) scale(2.25)' color='rgb(  0, 100,   0)'/>
	<use xlink:href='#gpPt5' transform='translate(602.6,587.4) scale(2.25)' color='rgb(  0, 100,   0)'/>
	<use xlink:href='#gpPt5' transform='translate(615.4,594.6) scale(2.25)' color='rgb(  0, 100,   0)'/>
	<use xlink:href='#gpPt5' transform='translate(628.2,601.5) scale(2.25)' color='rgb(  0, 100,   0)'/>
	<use xlink:href='#gpPt5' transform='translate(641.0,608.2) scale(2.25)' color='rgb(  0, 100,   0)'/>
	<use xlink:href='#gpPt5' transform='translate(653.8,614.6) scale(2.25)' color='rgb(  0, 100,   0)'/>
	<use xlink:href='#gpPt5' transform='translate(666.6,620.8) scale(2.25)' color='rgb(  0, 100,   0)'/>
	<use xlink:href='#gpPt5' transform='translate(679.4,626.6) scale(2.25)' color='rgb(  0, 100,   0)'/>
	<use xlink:href='#gpPt5' transform='translate(692.1,632.1) scale(2.25)' color='rgb(  0, 100,   0)'/>
	<use xlink:href='#gpPt5' transform='translate(704.9,637.3) scale(2.25)' color='rgb(  0, 100,   0)'/>
	<use xlink:href='#gpPt5' transform='translate(717.7,642.2) scale(2.25)' color='rgb(  0, 100,   0)'/>
	<use xlink:href='#gpPt5' transform='translate(730.5,646.8) scale(2.25)' color='rgb(  0, 100,   0)'/>
	<use xlink:href='#gpPt5' transform='translate(743.3,651.0) scale(2.25)' color='rgb(  0, 100,   0)'/>
	<use xlink:href='#gpPt5' transform='translate(756.1,655.0) scale(2.25)' color='rgb(  0, 100,   0)'/>
	<use xlink:href='#gpPt5' transform='translate(768.9,658.5) scale(2.25)' color='rgb(  0, 100,   0)'/>
	<use xlink:href='#gpPt5' transform='translate(781.7,661.7) scale(2.25)' color='rgb(  0, 100,   0)'/>
	<use xlink:href='#gpPt5' transform='translate(794.5,664.6) scale(2.25)' color='rgb(  0, 100,   0)'/>
	<use xlink:href='#gpPt5' transform='translate(807.3,667.2) scale(2.25)' color='rgb(  0, 100,   0)'/>
	<use xlink:href='#gpPt5' transform='translate(820.1,669.4) scale(2.25)' color='rgb(  0, 100,   0)'/>
	<use xlink:href='#gpPt5' transform='translate(832.9,671.2) scale(2.25)' color='rgb(  0, 100,   0)'/>
	<use xlink:href='#gpPt5' transform='translate(845.6,672.8) scale(2.25)' color='rgb(  0, 100,   0)'/>
	<use xlink:href='#gpPt5' transform='translate(858.4,674.0) scale(2.25)' color='rgb(  0, 100,   0)'/>
	<use xlink:href='#gpPt5' transform='translate(871.2,674.8) scale(2.25)' color='rgb(  0, 100,   0)'/>
	<use xlink:href='#gpPt5' transform='translate(884.0,675.4) scale(2.25)' color='rgb(  0, 100,   0)'/>
	<use xlink:href='#gpPt5' transform='translate(896.8,675.6) scale(2.25)' color='rgb(  0, 100,   0)'/>
	<use xlink:href='#gpPt5' transform='translate(909.6,675.5) scale(2.25)' color='rgb(  0, 100,   0)'/>
	<use xlink:href='#gpPt5' transform='translate(922.4,675.1) scale(2.25)' color='rgb(  0, 100,   0)'/>
	<use xlink:href='#gpPt5' transform='translate(935.2,674.4) scale(2.25)' color='rgb(  0, 100,   0)'/>
	<use xlink:href='#gpPt5' transform='translate(948.0,673.5) scale(2.25)' color='rgb(  0, 100,   0)'/>
	<use xlink:href='#gpPt5' transform='translate(960.8,672.2) scale(2.25)' color='rgb(  0, 100,   0)'/>
	<use xlink:href='#gpPt5' transform='translate(973.6,670.7) scale(2.25)' color='rgb(  0, 100,   0)'/>
	<use xlink:href='#gpPt5' transform='translate(986.4,669.0) scale(2.25)' color='rgb(  0, 100,   0)'/>
	<use xlink:href='#gpPt5' transform='translate(999.2,667.0) scale(2.25)' color='rgb(  0, 100,   0)'/>
	<use xlink:href='#gpPt5' transform='translate(1011.9,664.8) scale(2.25)' color='rgb(  0, 100,   0)'/>
	<use xlink:href='#gpPt5' transform='translate(1024.7,662.5) scale(2.25)' color='rgb(  0, 100,   0)'/>
	<use xlink:href='#gpPt5' transform='translate(1037.5,660.0) scale(2.25)' color='rgb(  0, 100,   0)'/>
	<use xlink:href='#gpPt5' transform='translate(1050.3,657.4) scale(2.25)' color='rgb(  0, 100,   0)'/>
	<use xlink:href='#gpPt5' transform='translate(1063.1,654.7) scale(2.25)' color='rgb(  0, 100,   0)'/>
	<use xlink:href='#gpPt5' transform='translate(1075.9,652.0) scale(2.25)' color='rgb(  0, 100,   0)'/>
	<use xlink:href='#gpPt5' transform='translate(1088.7,649.4) scale(2.25)' color='rgb(  0, 100,   0)'/>
	<use xlink:href='#gpPt5' transform='translate(1101.5,647.0) scale(2.25)' color='rgb(  0, 100,   0)'/>
	<use xlink:href='#gpPt5' transform='translate(1114.3,644.8) scale(2.25)' color='rgb(  0, 100,   0)'/>
	<use xlink:href='#gpPt5' transform='translate(1127.1,642.8) scale(2.25)' color='rgb(  0, 100,   0)'/>
	<use xlink:href='#gpPt5' transform='translate(1139.9,641.3) scale(2.25)' color='rgb(  0, 100,   0)'/>
	<use xlink:href='#gpPt5' transform='translate(1152.7,640.6) scale(2.25)' color='rgb(  0, 100,   0)'/>
	<use xlink:href='#gpPt5' transform='translate(1165.5,640.6) scale(2.25)' color='rgb(  0, 100,   0)'/>
	<use xlink:href='#gpPt5' transform='translate(1178.2,641.0) scale(2.25)' color='rgb(  0, 100,   0)'/>
	<use xlink:href='#gpPt5' transform='translate(1191.0,641.1) scale(2.25)' color='rgb(  0, 100,   0)'/>
	<use xlink:href='#gpPt5' transform='translate(1203.8,640.5) scale(2.25)' color='rgb(  0, 100,   0)'/>
	<use xlink:href='#gpPt5' transform='translate(1216.6,638.8) scale(2.25)' color='rgb(  0, 100,   0)'/>
	<use xlink:href='#gpPt5' transform='translate(1229.4,636.4) scale(2.25)' color='rgb(  0, 100,   0)'/>
	<use xlink:href='#gpPt5' transform='translate(1242.2,634.2) scale(2.25)' color='rgb(  0, 100,   0)'/>
	<use xlink:href='#gpPt5' transform='translate(1255.0,632.8) scale(2.25)' color='rgb(  0, 100,   0)'/>
</g>
	</g>
	<g id="gnuplot_plot_3" ><title>gnuplot_plot_3</title>
<g fill="none" color="black" stroke="currentColor" stroke-width="1.00" stroke-linecap="butt" stroke-linejoin="miter">
	<use xlink:href='#gpPt5' transform='translate(103.7,54.1) scale(2.25)' color='rgb(  0,   0, 255)'/>
	<use xlink:href='#gpPt5' transform='translate(104.3,55.3) scale(2.25)' color='rgb(  0,   0, 255)'/>
	<use xlink:href='#gpPt5' transform='translate(105.0,59.0) scale(2.25)' color='rgb(  0,   0, 255)'/>
	<use xlink:href='#gpPt5' transform='translate(105.6,64.9) scale(2.25)' color='rgb(  0,   0, 255)'/>
	<use xlink:href='#gpPt5' transform='translate(106.3,72.4) scale(2.25)' color='rgb(  0,   0, 255)'/>
	<use xlink:href='#gpPt5' transform='translate(106.9,81.0) scale(2.25)' color='rgb(  0,   0, 255)'/>
	<use xlink:href='#gpPt5' transform='translate(107.5,89.9) scale(2.25)' color='rgb(  0,   0, 255)'/>
	<use xlink:href='#gpPt5' transform='translate(108.2,98.7) scale(2.25)' color='rgb(  0,   0, 255)'/>
	<use xlink:href='#gpPt5' transform='translate(108.8,106.8) scale(2.25)' color='rgb(  0,   0, 255)'/>
	<use xlink:href='#gpPt5' transform='translate(109.5,114.1) scale(2.25)' color='rgb(  0,   0, 255)'/>
	<use xlink:href='#gpPt5' transform='translate(110.1,120.7) scale(2.25)' color='rgb(  0,   0, 255)'/>
	<use xlink:href='#gpPt5' transform='translate(110.7,126.5) scale(2.25)' color='rgb(  0,   0, 255)'/>
	<use xlink:href='#gpPt5' transform='translate(111.4,131.8) scale(2.25)' color='rgb(  0,   0, 255)'/>
	<use xlink:href='#gpPt5' transform='translate(112.0,136.7) scale(2.25)' color='rgb(  0,   0, 255)'/>
	<use xlink:href='#gpPt5' transform='translate(112.7,141.1) scale(2.25)' color='rgb(  0,   0, 255)'/>
	<use xlink:href='#gpPt5' transform='translate(113.3,145.2) scale(2.25)' color='rgb(  0,   0, 255)'/>
	<use xlink:href='#gpPt5' transform='translate(113.9,148.9) scale(2.25)' color='rgb(  0,   0, 255)'/>
	<use xlink:href='#gpPt5' transform='translate(114.6,152.2) scale(2.25)' color='rgb(  0,   0, 255)'/>
	<use xlink:href='#gpPt5' transform='translate(115.2,155.3) scale(2.25)' color='rgb(  0,   0, 255)'/>
	<use xlink:href='#gpPt5' transform='translate(115.9,158.1) scale(2.25)' color='rgb(  0,   0, 255)'/>
	<use xlink:href='#gpPt5' transform='translate(116.5,160.7) scale(2.25)' color='rgb(  0,   0, 255)'/>
	<use xlink:href='#gpPt5' transform='translate(122.9,178.4) scale(2.25)' color='rgb(  0,   0, 255)'/>
	<use xlink:href='#gpPt5' transform='translate(129.3,188.3) scale(2.25)' color='rgb(  0,   0, 255)'/>
	<use xlink:href='#gpPt5' transform='translate(135.7,195.3) scale(2.25)' color='rgb(  0,   0, 255)'/>
	<use xlink:href='#gpPt5' transform='translate(142.1,201.2) scale(2.25)' color='rgb(  0,   0, 255)'/>
	<use xlink:href='#gpPt5' transform='translate(154.9,211.8) scale(2.25)' color='rgb(  0,   0, 255)'/>
	<use xlink:href='#gpPt5' transform='translate(167.7,222.2) scale(2.25)' color='rgb(  0,   0, 255)'/>
	<use xlink:href='#gpPt5' transform='translate(180.5,232.6) scale(2.25)' color='rgb(  0,   0, 255)'/>
	<use xlink:href='#gpPt5' transform='translate(193.2,243.4) scale(2.25)' color='rgb(  0,   0, 255)'/>
	<use xlink:href='#gpPt5' transform='translate(206.0,254.3) scale(2.25)' color='rgb(  0,   0, 255)'/>
	<use xlink:href='#gpPt5' transform='translate(218.8,265.4) scale(2.25)' color='rgb(  0,   0, 255)'/>
	<use xlink:href='#gpPt5' transform='translate(231.6,276.7) scale(2.25)' color='rgb(  0,   0, 255)'/>
	<use xlink:href='#gpPt5' transform='translate(244.4,288.0) scale(2.25)' color='rgb(  0,   0, 255)'/>
	<use xlink:href='#gpPt5' transform='translate(257.2,299.5) scale(2.25)' color='rgb(  0,   0, 255)'/>
	<use xlink:href='#gpPt5' transform='translate(270.0,311.0) scale(2.25)' color='rgb(  0,   0, 255)'/>
	<use xlink:href='#gpPt5' transform='translate(282.8,322.5) scale(2.25)' color='rgb(  0,   0, 255)'/>
	<use xlink:href='#gpPt5' transform='translate(295.6,333.9) scale(2.25)' color='rgb(  0,   0, 255)'/>
	<use xlink:href='#gpPt5' transform='translate(308.4,345.4) scale(2.25)' color='rgb(  0,   0, 255)'/>
	<use xlink:href='#gpPt5' transform='translate(321.2,356.7) scale(2.25)' color='rgb(  0,   0, 255)'/>
	<use xlink:href='#gpPt5' transform='translate(334.0,368.1) scale(2.25)' color='rgb(  0,   0, 255)'/>
	<use xlink:href='#gpPt5' transform='translate(346.8,379.3) scale(2.25)' color='rgb(  0,   0, 255)'/>
	<use xlink:href='#gpPt5' transform='translate(359.5,390.3) scale(2.25)' color='rgb(  0,   0, 255)'/>
	<use xlink:href='#gpPt5' transform='translate(372.3,401.3) scale(2.25)' color='rgb(  0,   0, 255)'/>
	<use xlink:href='#gpPt5' transform='translate(385.1,412.1) scale(2.25)' color='rgb(  0,   0, 255)'/>
	<use xlink:href='#gpPt5' transform='translate(397.9,422.8) scale(2.25)' color='rgb(  0,   0, 255)'/>
	<use xlink:href='#gpPt5' transform='translate(410.7,433.3) scale(2.25)' color='rgb(  0,   0, 255)'/>
	<use xlink:href='#gpPt5' transform='translate(423.5,443.7) scale(2.25)' color='rgb(  0,   0, 255)'/>
	<use xlink:href='#gpPt5' transform='translate(436.3,453.8) scale(2.25)' color='rgb(  0,   0, 255)'/>
	<use xlink:href='#gpPt5' transform='translate(449.1,463.9) scale(2.25)' color='rgb(  0,   0, 255)'/>
	<use xlink:href='#gpPt5' transform='translate(461.9,473.8) scale(2.25)' color='rgb(  0,   0, 255)'/>
	<use xlink:href='#gpPt5' transform='translate(474.7,483.5) scale(2.25)' color='rgb(  0,   0, 255)'/>
	<use xlink:href='#gpPt5' transform='translate(487.5,492.9) scale(2.25)' color='rgb(  0,   0, 255)'/>
	<use xlink:href='#gpPt5' transform='translate(500.3,502.2) scale(2.25)' color='rgb(  0,   0, 255)'/>
	<use xlink:href='#gpPt5' transform='translate(513.1,511.3) scale(2.25)' color='rgb(  0,   0, 255)'/>
	<use xlink:href='#gpPt5' transform='translate(525.8,520.1) scale(2.25)' color='rgb(  0,   0, 255)'/>
	<use xlink:href='#gpPt5' transform='translate(538.6,528.8) scale(2.25)' color='rgb(  0,   0, 255)'/>
	<use xlink:href='#gpPt5' transform='translate(551.4,537.2) scale(2.25)' color='rgb(  0,   0, 255)'/>
	<use xlink:href='#gpPt5' transform='translate(564.2,545.4) scale(2.25)' color='rgb(  0,   0, 255)'/>
	<use xlink:href='#gpPt5' transform='translate(577.0,553.4) scale(2.25)' color='rgb(  0,   0, 255)'/>
	<use xlink:href='#gpPt5' transform='translate(589.8,561.1) scale(2.25)' color='rgb(  0,   0, 255)'/>
	<use xlink:href='#gpPt5' transform='translate(602.6,568.6) scale(2.25)' color='rgb(  0,   0, 255)'/>
	<use xlink:href='#gpPt5' transform='translate(615.4,575.8) scale(2.25)' color='rgb(  0,   0, 255)'/>
	<use xlink:href='#gpPt5' transform='translate(628.2,582.8) scale(2.25)' color='rgb(  0,   0, 255)'/>
	<use xlink:href='#gpPt5' transform='translate(641.0,589.5) scale(2.25)' color='rgb(  0,   0, 255)'/>
	<use xlink:href='#gpPt5' transform='translate(653.8,595.9) scale(2.25)' color='rgb(  0,   0, 255)'/>
	<use xlink:href='#gpPt5' transform='translate(666.6,602.0) scale(2.25)' color='rgb(  0,   0, 255)'/>
	<use xlink:href='#gpPt5' transform='translate(679.4,607.9) scale(2.25)' color='rgb(  0,   0, 255)'/>
	<use xlink:href='#gpPt5' transform='translate(692.1,613.4) scale(2.25)' color='rgb(  0,   0, 255)'/>
	<use xlink:href='#gpPt5' transform='translate(704.9,618.6) scale(2.25)' color='rgb(  0,   0, 255)'/>
	<use xlink:href='#gpPt5' transform='translate(717.7,623.5) scale(2.25)' color='rgb(  0,   0, 255)'/>
	<use xlink:href='#gpPt5' transform='translate(730.5,628.1) scale(2.25)' color='rgb(  0,   0, 255)'/>
	<use xlink:href='#gpPt5' transform='translate(743.3,632.3) scale(2.25)' color='rgb(  0,   0, 255)'/>
	<use xlink:href='#gpPt5' transform='translate(756.1,636.3) scale(2.25)' color='rgb(  0,   0, 255)'/>
	<use xlink:href='#gpPt5' transform='translate(768.9,639.8) scale(2.25)' color='rgb(  0,   0, 255)'/>
	<use xlink:href='#gpPt5' transform='translate(781.7,643.1) scale(2.25)' color='rgb(  0,   0, 255)'/>
	<use xlink:href='#gpPt5' transform='translate(794.5,645.9) scale(2.25)' color='rgb(  0,   0, 255)'/>
	<use xlink:href='#gpPt5' transform='translate(807.3,648.5) scale(2.25)' color='rgb(  0,   0, 255)'/>
	<use xlink:href='#gpPt5' transform='translate(820.1,650.7) scale(2.25)' color='rgb(  0,   0, 255)'/>
	<use xlink:href='#gpPt5' transform='translate(832.9,652.5) scale(2.25)' color='rgb(  0,   0, 255)'/>
	<use xlink:href='#gpPt5' transform='translate(845.6,654.0) scale(2.25)' color='rgb(  0,   0, 255)'/>
	<use xlink:href='#gpPt5' transform='translate(858.4,655.2) scale(2.25)' color='rgb(  0,   0, 255)'/>
	<use xlink:href='#gpPt5' transform='translate(871.2,656.0) scale(2.25)' color='rgb(  0,   0, 255)'/>
	<use xlink:href='#gpPt5' transform='translate(884.0,656.4) scale(2.25)' color='rgb(  0,   0, 255)'/>
	<use xlink:href='#gpPt5' transform='translate(896.8,656.5) scale(2.25)' color='rgb(  0,   0, 255)'/>
	<use xlink:href='#gpPt5' transform='translate(909.6,656.2) scale(2.25)' color='rgb(  0,   0, 255)'/>
	<use xlink:href='#gpPt5' transform='translate(922.4,655.7) scale(2.25)' color='rgb(  0,   0, 255)'/>
	<use xlink:href='#gpPt5' transform='translate(935.2,654.8) scale(2.25)' color='rgb(  0,   0, 255)'/>
	<use xlink:href='#gpPt5' transform='translate(948.0,653.6) scale(2.25)' color='rgb(  0,   0, 255)'/>
	<use xlink:href='#gpPt5' transform='translate(960.8,652.1) scale(2.25)' color='rgb(  0,   0, 255)'/>
	<use xlink:href='#gpPt5' transform='translate(973.6,650.3) scale(2.25)' color='rgb(  0,   0, 255)'/>
	<use xlink:href='#gpPt5' transform='translate(986.4,648.3) scale(2.25)' color='rgb(  0,   0, 255)'/>
	<use xlink:href='#gpPt5' transform='translate(999.2,645.9) scale(2.25)' color='rgb(  0,   0, 255)'/>
	<use xlink:href='#gpPt5' transform='translate(1011.9,643.3) scale(2.25)' color='rgb(  0,   0, 255)'/>
	<use xlink:href='#gpPt5' transform='translate(1024.7,640.5) scale(2.25)' color='rgb(  0,   0, 255)'/>
	<use xlink:href='#gpPt5' transform='translate(1037.5,637.6) scale(2.25)' color='rgb(  0,   0, 255)'/>
	<use xlink:href='#gpPt5' transform='translate(1050.3,634.6) scale(2.25)' color='rgb(  0,   0, 255)'/>
	<use xlink:href='#gpPt5' transform='translate(1063.1,631.4) scale(2.25)' color='rgb(  0,   0, 255)'/>
	<use xlink:href='#gpPt5' transform='translate(1075.9,628.2) scale(2.25)' color='rgb(  0,   0, 255)'/>
	<use xlink:href='#gpPt5' transform='translate(1088.7,625.2) scale(2.25)' color='rgb(  0,   0, 255)'/>
	<use xlink:href='#gpPt5' transform='translate(1101.5,622.5) scale(2.25)' color='rgb(  0,   0, 255)'/>
	<use xlink:href='#gpPt5' transform='translate(1114.3,620.0) scale(2.25)' color='rgb(  0,   0, 255)'/>
	<use xlink:href='#gpPt5' transform='translate(1127.1,618.0) scale(2.25)' color='rgb(  0,   0, 255)'/>
	<use xlink:href='#gpPt5' transform='translate(1139.9,616.7) scale(2.25)' color='rgb(  0,   0, 255)'/>
	<use xlink:href='#gpPt5' transform='translate(1152.7,616.4) scale(2.25)' color='rgb(  0,   0, 255)'/>
	<use xlink:href='#gpPt5' transform='translate(1165.5,617.0) scale(2.25)' color='rgb(  0,   0, 255)'/>
	<use xlink:href='#gpPt5' transform='translate(1178.2,618.2) scale(2.25)' color='rgb(  0,   0, 255)'/>
	<use xlink:href='#gpPt5' transform='translate(1191.0,619.4) scale(2.25)' color='rgb(  0,   0, 255)'/>
	<use xlink:href='#gpPt5' transform='translate(1203.8,619.7) scale(2.25)' color='rgb(  0,   0, 255)'/>
	<use xlink:href='#gpPt5' transform='translate(1216.6,618.2) scale(2.25)' color='rgb(  0,   0, 255)'/>
	<use xlink:href='#gpPt5' transform='translate(1229.4,615.1) scale(2.25)' color='rgb(  0,   0, 255)'/>
	<use xlink:href='#gpPt5' transform='translate(1242.2,611.9) scale(2.25)' color='rgb(  0,   0, 255)'/>
	<use xlink:href='#gpPt5' transform='translate(1255.0,610.2) scale(2.25)' color='rgb(  0,   0, 255)'/>
</g>
	</g>
	<g id="gnuplot_plot_4" ><title>fit</title>
<g fill="none" color="black" stroke="currentColor" stroke-width="1.00" stroke-linecap="butt" stroke-linejoin="miter">
	<g transform="translate(1187.9,94.0)" stroke="none" fill="black" font-family="Arial" font-size="12.00"  text-anchor="end">
		<text><tspan font-family="Arial" >fit</tspan></text>
	</g>
</g>
<g fill="none" color="black" stroke="currentColor" stroke-width="1.00" stroke-linecap="butt" stroke-linejoin="miter">
	<path stroke='rgb(255,   0,   0)'  d='M1196.2,90.1 L1238.4,90.1 M103.7,106.1 L104.8,108.4 L106.0,114.9 L107.1,124.5 L108.2,135.8 L109.3,147.5
		L110.5,158.7 L111.6,168.9 L112.7,177.9 L113.8,185.7 L115.0,192.2 L116.1,197.7 L117.2,202.3 L118.3,206.2
		L119.5,209.4 L120.6,212.2 L121.7,214.6 L122.8,216.6 L124.0,218.4 L125.1,220.0 L126.2,221.4 L127.3,222.7
		L128.5,223.8 L129.6,224.9 L130.7,225.9 L131.8,226.9 L133.0,227.8 L134.1,228.7 L135.2,229.6 L136.3,230.4
		L137.5,231.2 L138.6,232.1 L139.7,232.9 L140.8,233.7 L142.0,234.5 L143.1,235.3 L144.2,236.1 L145.3,236.9
		L146.5,237.7 L147.6,238.6 L148.7,239.4 L149.8,240.2 L151.0,241.1 L152.1,241.9 L153.2,242.8 L154.3,243.7
		L155.5,244.5 L156.6,245.4 L157.7,246.3 L158.8,247.2 L160.0,248.2 L161.1,249.1 L162.2,250.0 L163.3,251.0
		L164.5,251.9 L165.6,252.9 L166.7,253.9 L167.8,254.9 L169.0,255.9 L170.1,256.9 L171.2,257.9 L172.4,258.9
		L173.5,259.9 L174.6,261.0 L175.7,262.0 L176.9,263.0 L178.0,264.1 L179.1,265.2 L180.2,266.2 L181.4,267.3
		L182.5,268.4 L183.6,269.5 L184.7,270.6 L185.9,271.7 L187.0,272.8 L188.1,273.9 L189.2,275.0 L190.4,276.2
		L191.5,277.3 L192.6,278.4 L193.7,279.6 L194.9,280.7 L196.0,281.9 L197.1,283.0 L198.2,284.2 L199.4,285.3
		L200.5,286.5 L201.6,287.7 L202.7,288.8 L203.9,290.0 L205.0,291.2 L206.1,292.4 L207.2,293.5 L208.4,294.7
		L209.5,295.9 L210.6,297.1 L211.7,298.3 L212.9,299.5 L214.0,300.7 L215.1,301.9 L216.2,303.1 L217.4,304.3
		L218.5,305.5 L219.6,306.7 L220.7,307.9 L221.9,309.1 L223.0,310.3 L224.1,311.5 L225.2,312.7 L226.4,313.9
		L227.5,315.1 L228.6,316.3 L229.7,317.5 L230.9,318.7 L232.0,319.9 L233.1,321.1 L234.2,322.3 L235.4,323.5
		L236.5,324.7 L237.6,325.9 L238.7,327.1 L239.9,328.3 L241.0,329.5 L242.1,330.7 L243.3,331.9 L244.4,333.1
		L245.5,334.3 L246.6,335.5 L247.8,336.7 L248.9,337.9 L250.0,339.1 L251.1,340.3 L252.3,341.5 L253.4,342.7
		L254.5,343.9 L255.6,345.1 L256.8,346.3 L257.9,347.4 L259.0,348.6 L260.1,349.8 L261.3,351.0 L262.4,352.1
		L263.5,353.3 L264.6,354.5 L265.8,355.7 L266.9,356.8 L268.0,358.0 L269.1,359.1 L270.3,360.3 L271.4,361.5
		L272.5,362.6 L273.6,363.8 L274.8,364.9 L275.9,366.1 L277.0,367.2 L278.1,368.4 L279.3,369.5 L280.4,370.6
		L281.5,371.8 L282.6,372.9 L283.8,374.0 L284.9,375.2 L286.0,376.3 L287.1,377.4 L288.3,378.5 L289.4,379.7
		L290.5,380.8 L291.6,381.9 L292.8,383.0 L293.9,384.1 L295.0,385.2 L296.1,386.3 L297.3,387.4 L298.4,388.5
		L299.5,389.6 L300.6,390.7 L301.8,391.8 L302.9,392.9 L304.0,393.9 L305.1,395.0 L306.3,396.1 L307.4,397.2
		L308.5,398.3 L309.7,399.3 L310.8,400.4 L311.9,401.4 L313.0,402.5 L314.2,403.6 L315.3,404.6 L316.4,405.7
		L317.5,406.7 L318.7,407.8 L319.8,408.8 L320.9,409.8 L322.0,410.9 L323.2,411.9 L324.3,412.9 L325.4,414.0
		L326.5,415.0 L327.7,416.0 L328.8,417.0 L329.9,418.1 L331.0,419.1 L332.2,420.1 L333.3,421.1 L334.4,422.1
		L335.5,423.1 L336.7,424.1 L337.8,425.1 L338.9,426.1 L340.0,427.1 L341.2,428.1 L342.3,429.0 L343.4,430.0
		L344.5,431.0 L345.7,432.0 L346.8,433.0 L347.9,433.9 L349.0,434.9 L350.2,435.9 L351.3,436.8 L352.4,437.8
		L353.5,438.7 L354.7,439.7 L355.8,440.6 L356.9,441.6 L358.0,442.5 L359.2,443.5 L360.3,444.4 L361.4,445.3
		L362.5,446.3 L363.7,447.2 L364.8,448.1 L365.9,449.1 L367.0,450.0 L368.2,450.9 L369.3,451.8 L370.4,452.7
		L371.5,453.6 L372.7,454.6 L373.8,455.5 L374.9,456.4 L376.1,457.3 L377.2,458.2 L378.3,459.1 L379.4,460.0
		L380.6,460.8 L381.7,461.7 L382.8,462.6 L383.9,463.5 L385.1,464.4 L386.2,465.2 L387.3,466.1 L388.4,467.0
		L389.6,467.9 L390.7,468.7 L391.8,469.6 L392.9,470.4 L394.1,471.3 L395.2,472.2 L396.3,473.0 L397.4,473.9
		L398.6,474.7 L399.7,475.5 L400.8,476.4 L401.9,477.2 L403.1,478.1 L404.2,478.9 L405.3,479.7 L406.4,480.6
		L407.6,481.4 L408.7,482.2 L409.8,483.0 L410.9,483.9 L412.1,484.7 L413.2,485.5 L414.3,486.3 L415.4,487.1
		L416.6,487.9 L417.7,488.7 L418.8,489.5 L419.9,490.3 L421.1,491.1 L422.2,491.9 L423.3,492.7 L424.4,493.5
		L425.6,494.3 L426.7,495.1 L427.8,495.8 L428.9,496.6 L430.1,497.4 L431.2,498.2 L432.3,498.9 L433.4,499.7
		L434.6,500.5 L435.7,501.2 L436.8,502.0 L437.9,502.8 L439.1,503.5 L440.2,504.3 L441.3,505.0 L442.5,505.8
		L443.6,506.5 L444.7,507.3 L445.8,508.0 L447.0,508.8 L448.1,509.5 L449.2,510.3 L450.3,511.0 L451.5,511.7
		L452.6,512.5 L453.7,513.2 L454.8,513.9 L456.0,514.6 L457.1,515.4 L458.2,516.1 L459.3,516.8 L460.5,517.5
		L461.6,518.2 L462.7,518.9 L463.8,519.6 L465.0,520.4 L466.1,521.1 L467.2,521.8 L468.3,522.5 L469.5,523.2
		L470.6,523.9 L471.7,524.6 L472.8,525.2 L474.0,525.9 L475.1,526.6 L476.2,527.3 L477.3,528.0 L478.5,528.7
		L479.6,529.4 L480.7,530.0 L481.8,530.7 L483.0,531.4 L484.1,532.1 L485.2,532.7 L486.3,533.4 L487.5,534.1
		L488.6,534.7 L489.7,535.4 L490.8,536.0 L492.0,536.7 L493.1,537.4 L494.2,538.0 L495.3,538.7 L496.5,539.3
		L497.6,540.0 L498.7,540.6 L499.8,541.3 L501.0,541.9 L502.1,542.5 L503.2,543.2 L504.3,543.8 L505.5,544.4
		L506.6,545.1 L507.7,545.7 L508.8,546.3 L510.0,547.0 L511.1,547.6 L512.2,548.2 L513.4,548.8 L514.5,549.4
		L515.6,550.1 L516.7,550.7 L517.9,551.3 L519.0,551.9 L520.1,552.5 L521.2,553.1 L522.4,553.7 L523.5,554.3
		L524.6,554.9 L525.7,555.5 L526.9,556.1 L528.0,556.7 L529.1,557.3 L530.2,557.9 L531.4,558.5 L532.5,559.1
		L533.6,559.7 L534.7,560.3 L535.9,560.9 L537.0,561.4 L538.1,562.0 L539.2,562.6 L540.4,563.2 L541.5,563.8
		L542.6,564.3 L543.7,564.9 L544.9,565.5 L546.0,566.0 L547.1,566.6 L548.2,567.2 L549.4,567.7 L550.5,568.3
		L551.6,568.9 L552.7,569.4 L553.9,570.0 L555.0,570.5 L556.1,571.1 L557.2,571.6 L558.4,572.2 L559.5,572.7
		L560.6,573.3 L561.7,573.8 L562.9,574.4 L564.0,574.9 L565.1,575.5 L566.2,576.0 L567.4,576.5 L568.5,577.1
		L569.6,577.6 L570.7,578.1 L571.9,578.7 L573.0,579.2 L574.1,579.7 L575.2,580.3 L576.4,580.8 L577.5,581.3
		L578.6,581.8 L579.8,582.3 L580.9,582.9 L582.0,583.4 L583.1,583.9 L584.3,584.4 L585.4,584.9 L586.5,585.4
		L587.6,585.9 L588.8,586.4 L589.9,586.9 L591.0,587.5 L592.1,588.0 L593.3,588.5 L594.4,589.0 L595.5,589.5
		L596.6,589.9 L597.8,590.4 L598.9,590.9 L600.0,591.4 L601.1,591.9 L602.3,592.4 L603.4,592.9 L604.5,593.4
		L605.6,593.9 L606.8,594.3 L607.9,594.8 L609.0,595.3 L610.1,595.8 L611.3,596.3 L612.4,596.7 L613.5,597.2
		L614.6,597.7 L615.8,598.2 L616.9,598.6 L618.0,599.1 L619.1,599.6 L620.3,600.0 L621.4,600.5 L622.5,600.9
		L623.6,601.4 L624.8,601.9 L625.9,602.3 L627.0,602.8 L628.1,603.2 L629.3,603.7 L630.4,604.1 L631.5,604.6
		L632.6,605.0 L633.8,605.5 L634.9,605.9 L636.0,606.4 L637.1,606.8 L638.3,607.3 L639.4,607.7 L640.5,608.1
		L641.6,608.6 L642.8,609.0 L643.9,609.4 L645.0,609.9 L646.2,610.3 L647.3,610.7 L648.4,611.2 L649.5,611.6
		L650.7,612.0 L651.8,612.5 L652.9,612.9 L654.0,613.3 L655.2,613.7 L656.3,614.1 L657.4,614.6 L658.5,615.0
		L659.7,615.4 L660.8,615.8 L661.9,616.2 L663.0,616.6 L664.2,617.0 L665.3,617.4 L666.4,617.9 L667.5,618.3
		L668.7,618.7 L669.8,619.1 L670.9,619.5 L672.0,619.9 L673.2,620.3 L674.3,620.7 L675.4,621.1 L676.5,621.5
		L677.7,621.9 L678.8,622.2 L679.9,622.6 L681.0,623.0 L682.2,623.4 L683.3,623.8 L684.4,624.2 L685.5,624.6
		L686.7,625.0 L687.8,625.3 L688.9,625.7 L690.0,626.1 L691.2,626.5 L692.3,626.9 L693.4,627.2 L694.5,627.6
		L695.7,628.0 L696.8,628.3 L697.9,628.7 L699.0,629.1 L700.2,629.5 L701.3,629.8 L702.4,630.2 L703.5,630.6
		L704.7,630.9 L705.8,631.3 L706.9,631.6 L708.0,632.0 L709.2,632.4 L710.3,632.7 L711.4,633.1 L712.5,633.4
		L713.7,633.8 L714.8,634.1 L715.9,634.5 L717.1,634.8 L718.2,635.2 L719.3,635.5 L720.4,635.9 L721.6,636.2
		L722.7,636.5 L723.8,636.9 L724.9,637.2 L726.1,637.6 L727.2,637.9 L728.3,638.2 L729.4,638.6 L730.6,638.9
		L731.7,639.2 L732.8,639.6 L733.9,639.9 L735.1,640.2 L736.2,640.5 L737.3,640.9 L738.4,641.2 L739.6,641.5
		L740.7,641.8 L741.8,642.2 L742.9,642.5 L744.1,642.8 L745.2,643.1 L746.3,643.4 L747.4,643.7 L748.6,644.0
		L749.7,644.4 L750.8,644.7 L751.9,645.0 L753.1,645.3 L754.2,645.6 L755.3,645.9 L756.4,646.2 L757.6,646.5
		L758.7,646.8 L759.8,647.1 L760.9,647.4 L762.1,647.7 L763.2,648.0 L764.3,648.3 L765.4,648.6 L766.6,648.9
		L767.7,649.2 L768.8,649.5 L769.9,649.7 L771.1,650.0 L772.2,650.3 L773.3,650.6 L774.4,650.9 L775.6,651.2
		L776.7,651.4 L777.8,651.7 L778.9,652.0 L780.1,652.3 L781.2,652.6 L782.3,652.8 L783.5,653.1 L784.6,653.4
		L785.7,653.6 L786.8,653.9 L788.0,654.2 L789.1,654.5 L790.2,654.7 L791.3,655.0 L792.5,655.2 L793.6,655.5
		L794.7,655.8 L795.8,656.0 L797.0,656.3 L798.1,656.5 L799.2,656.8 L800.3,657.0 L801.5,657.3 L802.6,657.6
		L803.7,657.8 L804.8,658.1 L806.0,658.3 L807.1,658.5 L808.2,658.8 L809.3,659.0 L810.5,659.3 L811.6,659.5
		L812.7,659.8 L813.8,660.0 L815.0,660.2 L816.1,660.5 L817.2,660.7 L818.3,660.9 L819.5,661.2 L820.6,661.4
		L821.7,661.6 L822.8,661.9 L824.0,662.1 L825.1,662.3 L826.2,662.5 L827.3,662.7 L828.5,663.0 L829.6,663.2
		L830.7,663.4 L831.8,663.6 L833.0,663.8 L834.1,664.1 L835.2,664.3 L836.3,664.5 L837.5,664.7 L838.6,664.9
		L839.7,665.1 L840.8,665.3 L842.0,665.5 L843.1,665.7 L844.2,665.9 L845.3,666.1 L846.5,666.3 L847.6,666.5
		L848.7,666.7 L849.9,666.9 L851.0,667.1 L852.1,667.3 L853.2,667.5 L854.4,667.7 L855.5,667.9 L856.6,668.0
		L857.7,668.2 L858.9,668.4 L860.0,668.6 L861.1,668.8 L862.2,669.0 L863.4,669.1 L864.5,669.3 L865.6,669.5
		L866.7,669.7 L867.9,669.8 L869.0,670.0 L870.1,670.2 L871.2,670.3 L872.4,670.5 L873.5,670.7 L874.6,670.8
		L875.7,671.0 L876.9,671.2 L878.0,671.3 L879.1,671.5 L880.2,671.6 L881.4,671.8 L882.5,671.9 L883.6,672.1
		L884.7,672.2 L885.9,672.4 L887.0,672.5 L888.1,672.7 L889.2,672.8 L890.4,673.0 L891.5,673.1 L892.6,673.2
		L893.7,673.4 L894.9,673.5 L896.0,673.6 L897.1,673.8 L898.2,673.9 L899.4,674.0 L900.5,674.2 L901.6,674.3
		L902.7,674.4 L903.9,674.5 L905.0,674.7 L906.1,674.8 L907.2,674.9 L908.4,675.0 L909.5,675.1 L910.6,675.2
		L911.7,675.4 L912.9,675.5 L914.0,675.6 L915.1,675.7 L916.2,675.8 L917.4,675.9 L918.5,676.0 L919.6,676.1
		L920.8,676.2 L921.9,676.3 L923.0,676.4 L924.1,676.5 L925.3,676.6 L926.4,676.7 L927.5,676.7 L928.6,676.8
		L929.8,676.9 L930.9,677.0 L932.0,677.1 L933.1,677.2 L934.3,677.2 L935.4,677.3 L936.5,677.4 L937.6,677.5
		L938.8,677.5 L939.9,677.6 L941.0,677.7 L942.1,677.7 L943.3,677.8 L944.4,677.9 L945.5,677.9 L946.6,678.0
		L947.8,678.0 L948.9,678.1 L950.0,678.1 L951.1,678.2 L952.3,678.2 L953.4,678.3 L954.5,678.3 L955.6,678.4
		L956.8,678.4 L957.9,678.5 L959.0,678.5 L960.1,678.5 L961.3,678.6 L962.4,678.6 L963.5,678.6 L964.6,678.6
		L965.8,678.7 L966.9,678.7 L968.0,678.7 L969.1,678.7 L970.3,678.8 L971.4,678.8 L972.5,678.8 L973.6,678.8
		L974.8,678.8 L975.9,678.8 L977.0,678.8 L978.1,678.8 L979.3,678.8 L980.4,678.8 L981.5,678.8 L982.6,678.8
		L983.8,678.8 L984.9,678.8 L986.0,678.8 L987.2,678.8 L988.3,678.8 L989.4,678.7 L990.5,678.7 L991.7,678.7
		L992.8,678.7 L993.9,678.7 L995.0,678.6 L996.2,678.6 L997.3,678.6 L998.4,678.5 L999.5,678.5 L1000.7,678.5
		L1001.8,678.4 L1002.9,678.4 L1004.0,678.3 L1005.2,678.3 L1006.3,678.2 L1007.4,678.2 L1008.5,678.1 L1009.7,678.1
		L1010.8,678.0 L1011.9,678.0 L1013.0,677.9 L1014.2,677.8 L1015.3,677.8 L1016.4,677.7 L1017.5,677.6 L1018.7,677.5
		L1019.8,677.5 L1020.9,677.4 L1022.0,677.3 L1023.2,677.2 L1024.3,677.1 L1025.4,677.0 L1026.5,677.0 L1027.7,676.9
		L1028.8,676.8 L1029.9,676.7 L1031.0,676.6 L1032.2,676.5 L1033.3,676.4 L1034.4,676.3 L1035.5,676.2 L1036.7,676.0
		L1037.8,675.9 L1038.9,675.8 L1040.0,675.7 L1041.2,675.6 L1042.3,675.5 L1043.4,675.3 L1044.5,675.2 L1045.7,675.1
		L1046.8,675.0 L1047.9,674.8 L1049.0,674.7 L1050.2,674.5 L1051.3,674.4 L1052.4,674.3 L1053.6,674.1 L1054.7,674.0
		L1055.8,673.8 L1056.9,673.7 L1058.1,673.5 L1059.2,673.4 L1060.3,673.2 L1061.4,673.0 L1062.6,672.9 L1063.7,672.7
		L1064.8,672.6 L1065.9,672.4 L1067.1,672.2 L1068.2,672.0 L1069.3,671.9 L1070.4,671.7 L1071.6,671.5 L1072.7,671.3
		L1073.8,671.1 L1074.9,671.0 L1076.1,670.8 L1077.2,670.6 L1078.3,670.4 L1079.4,670.2 L1080.6,670.0 L1081.7,669.8
		L1082.8,669.6 L1083.9,669.4 L1085.1,669.2 L1086.2,669.0 L1087.3,668.8 L1088.4,668.6 L1089.6,668.3 L1090.7,668.1
		L1091.8,667.9 L1092.9,667.7 L1094.1,667.5 L1095.2,667.3 L1096.3,667.0 L1097.4,666.8 L1098.6,666.6 L1099.7,666.4
		L1100.8,666.1 L1101.9,665.9 L1103.1,665.7 L1104.2,665.4 L1105.3,665.2 L1106.4,664.9 L1107.6,664.7 L1108.7,664.5
		L1109.8,664.2 L1110.9,664.0 L1112.1,663.7 L1113.2,663.5 L1114.3,663.2 L1115.4,663.0 L1116.6,662.7 L1117.7,662.5
		L1118.8,662.2 L1120.0,662.0 L1121.1,661.7 L1122.2,661.5 L1123.3,661.2 L1124.5,660.9 L1125.6,660.7 L1126.7,660.4
		L1127.8,660.2 L1129.0,659.9 L1130.1,659.6 L1131.2,659.4 L1132.3,659.1 L1133.5,658.8 L1134.6,658.6 L1135.7,658.3
		L1136.8,658.0 L1138.0,657.8 L1139.1,657.5 L1140.2,657.2 L1141.3,657.0 L1142.5,656.7 L1143.6,656.4 L1144.7,656.2
		L1145.8,655.9 L1147.0,655.6 L1148.1,655.4 L1149.2,655.1 L1150.3,654.8 L1151.5,654.6 L1152.6,654.3 L1153.7,654.0
		L1154.8,653.7 L1156.0,653.5 L1157.1,653.2 L1158.2,652.9 L1159.3,652.7 L1160.5,652.4 L1161.6,652.2 L1162.7,651.9
		L1163.8,651.6 L1165.0,651.4 L1166.1,651.1 L1167.2,650.8 L1168.3,650.6 L1169.5,650.3 L1170.6,650.1 L1171.7,649.8
		L1172.8,649.6 L1174.0,649.3 L1175.1,649.1 L1176.2,648.8 L1177.3,648.6 L1178.5,648.3 L1179.6,648.1 L1180.7,647.8
		L1181.8,647.6 L1183.0,647.4 L1184.1,647.1 L1185.2,646.9 L1186.3,646.6 L1187.5,646.4 L1188.6,646.2 L1189.7,646.0
		L1190.9,645.7 L1192.0,645.5 L1193.1,645.3 L1194.2,645.1 L1195.4,644.9 L1196.5,644.7 L1197.6,644.5 L1198.7,644.3
		L1199.9,644.1 L1201.0,643.9 L1202.1,643.7 L1203.2,643.5 L1204.4,643.3 L1205.5,643.1 L1206.6,642.9 L1207.7,642.7
		L1208.9,642.5 L1210.0,642.4 L1211.1,642.2 L1212.2,642.0 L1213.4,641.9 L1214.5,641.7 L1215.6,641.6 L1216.7,641.4
		L1217.9,641.3 L1219.0,641.1 L1220.1,641.0 L1221.2,640.8 L1222.4,640.7 L1223.5,640.6 L1224.6,640.5 L1225.7,640.3
		L1226.9,640.2 L1228.0,640.1 L1229.1,640.0 L1230.2,639.9 L1231.4,639.8 L1232.5,639.7 L1233.6,639.6 L1234.7,639.5
		L1235.9,639.5 L1237.0,639.4 L1238.1,639.3 L1239.2,639.2 L1240.4,639.2 L1241.5,639.1 L1242.6,639.1 L1243.7,639.0
		L1244.9,639.0 L1246.0,638.9 L1247.1,638.9 L1248.2,638.9 L1249.4,638.8 L1250.5,638.8 L1251.6,638.8 L1252.7,638.8
		L1253.9,638.8 L1255.0,638.8  '/></g>
	</g>
	<g id="gnuplot_plot_5" ><title>gnuplot_plot_5</title>
<g fill="none" color="black" stroke="currentColor" stroke-width="1.00" stroke-linecap="butt" stroke-linejoin="miter">
	<path stroke='rgb(  0, 100,   0)'  d='M103.7,93.2 L104.8,95.5 L106.0,102.1 L107.1,111.7 L108.2,122.9 L109.3,134.6 L110.5,145.8 L111.6,156.0
		L112.7,164.9 L113.8,172.6 L115.0,179.1 L116.1,184.6 L117.2,189.2 L118.3,193.0 L119.5,196.2 L120.6,199.0
		L121.7,201.3 L122.8,203.3 L124.0,205.1 L125.1,206.7 L126.2,208.1 L127.3,209.4 L128.5,210.5 L129.6,211.6
		L130.7,212.7 L131.8,213.6 L133.0,214.6 L134.1,215.5 L135.2,216.3 L136.3,217.2 L137.5,218.0 L138.6,218.9
		L139.7,219.7 L140.8,220.5 L142.0,221.3 L143.1,222.2 L144.2,223.0 L145.3,223.8 L146.5,224.6 L147.6,225.5
		L148.7,226.3 L149.8,227.2 L151.0,228.1 L152.1,228.9 L153.2,229.8 L154.3,230.7 L155.5,231.6 L156.6,232.5
		L157.7,233.5 L158.8,234.4 L160.0,235.3 L161.1,236.3 L162.2,237.2 L163.3,238.2 L164.5,239.2 L165.6,240.2
		L166.7,241.2 L167.8,242.2 L169.0,243.2 L170.1,244.2 L171.2,245.3 L172.4,246.3 L173.5,247.4 L174.6,248.4
		L175.7,249.5 L176.9,250.5 L178.0,251.6 L179.1,252.7 L180.2,253.8 L181.4,254.9 L182.5,256.0 L183.6,257.1
		L184.7,258.2 L185.9,259.4 L187.0,260.5 L188.1,261.6 L189.2,262.8 L190.4,263.9 L191.5,265.1 L192.6,266.2
		L193.7,267.4 L194.9,268.6 L196.0,269.7 L197.1,270.9 L198.2,272.1 L199.4,273.3 L200.5,274.5 L201.6,275.6
		L202.7,276.8 L203.9,278.0 L205.0,279.2 L206.1,280.4 L207.2,281.6 L208.4,282.8 L209.5,284.0 L210.6,285.3
		L211.7,286.5 L212.9,287.7 L214.0,288.9 L215.1,290.1 L216.2,291.3 L217.4,292.5 L218.5,293.8 L219.6,295.0
		L220.7,296.2 L221.9,297.4 L223.0,298.6 L224.1,299.9 L225.2,301.1 L226.4,302.3 L227.5,303.5 L228.6,304.8
		L229.7,306.0 L230.9,307.2 L232.0,308.4 L233.1,309.6 L234.2,310.9 L235.4,312.1 L236.5,313.3 L237.6,314.5
		L238.7,315.8 L239.9,317.0 L241.0,318.2 L242.1,319.4 L243.3,320.6 L244.4,321.8 L245.5,323.0 L246.6,324.3
		L247.8,325.5 L248.9,326.7 L250.0,327.9 L251.1,329.1 L252.3,330.3 L253.4,331.5 L254.5,332.7 L255.6,333.9
		L256.8,335.1 L257.9,336.3 L259.0,337.5 L260.1,338.7 L261.3,339.9 L262.4,341.1 L263.5,342.2 L264.6,343.4
		L265.8,344.6 L266.9,345.8 L268.0,347.0 L269.1,348.1 L270.3,349.3 L271.4,350.5 L272.5,351.6 L273.6,352.8
		L274.8,354.0 L275.9,355.1 L277.0,356.3 L278.1,357.4 L279.3,358.6 L280.4,359.7 L281.5,360.9 L282.6,362.0
		L283.8,363.2 L284.9,364.3 L286.0,365.4 L287.1,366.6 L288.3,367.7 L289.4,368.8 L290.5,370.0 L291.6,371.1
		L292.8,372.2 L293.9,373.3 L295.0,374.4 L296.1,375.6 L297.3,376.7 L298.4,377.8 L299.5,378.9 L300.6,380.0
		L301.8,381.1 L302.9,382.2 L304.0,383.3 L305.1,384.3 L306.3,385.4 L307.4,386.5 L308.5,387.6 L309.7,388.7
		L310.8,389.7 L311.9,390.8 L313.0,391.9 L314.2,392.9 L315.3,394.0 L316.4,395.1 L317.5,396.1 L318.7,397.2
		L319.8,398.2 L320.9,399.3 L322.0,400.3 L323.2,401.4 L324.3,402.4 L325.4,403.4 L326.5,404.5 L327.7,405.5
		L328.8,406.5 L329.9,407.5 L331.0,408.6 L332.2,409.6 L333.3,410.6 L334.4,411.6 L335.5,412.6 L336.7,413.6
		L337.8,414.6 L338.9,415.6 L340.0,416.6 L341.2,417.6 L342.3,418.6 L343.4,419.6 L344.5,420.6 L345.7,421.6
		L346.8,422.5 L347.9,423.5 L349.0,424.5 L350.2,425.5 L351.3,426.4 L352.4,427.4 L353.5,428.4 L354.7,429.3
		L355.8,430.3 L356.9,431.2 L358.0,432.2 L359.2,433.1 L360.3,434.1 L361.4,435.0 L362.5,435.9 L363.7,436.9
		L364.8,437.8 L365.9,438.7 L367.0,439.7 L368.2,440.6 L369.3,441.5 L370.4,442.4 L371.5,443.3 L372.7,444.3
		L373.8,445.2 L374.9,446.1 L376.1,447.0 L377.2,447.9 L378.3,448.8 L379.4,449.7 L380.6,450.6 L381.7,451.5
		L382.8,452.4 L383.9,453.2 L385.1,454.1 L386.2,455.0 L387.3,455.9 L388.4,456.8 L389.6,457.6 L390.7,458.5
		L391.8,459.4 L392.9,460.2 L394.1,461.1 L395.2,462.0 L396.3,462.8 L397.4,463.7 L398.6,464.5 L399.7,465.4
		L400.8,466.2 L401.9,467.0 L403.1,467.9 L404.2,468.7 L405.3,469.6 L406.4,470.4 L407.6,471.2 L408.7,472.1
		L409.8,472.9 L410.9,473.7 L412.1,474.5 L413.2,475.3 L414.3,476.2 L415.4,477.0 L416.6,477.8 L417.7,478.6
		L418.8,479.4 L419.9,480.2 L421.1,481.0 L422.2,481.8 L423.3,482.6 L424.4,483.4 L425.6,484.2 L426.7,485.0
		L427.8,485.7 L428.9,486.5 L430.1,487.3 L431.2,488.1 L432.3,488.9 L433.4,489.6 L434.6,490.4 L435.7,491.2
		L436.8,491.9 L437.9,492.7 L439.1,493.5 L440.2,494.2 L441.3,495.0 L442.5,495.7 L443.6,496.5 L444.7,497.2
		L445.8,498.0 L447.0,498.7 L448.1,499.5 L449.2,500.2 L450.3,501.0 L451.5,501.7 L452.6,502.4 L453.7,503.2
		L454.8,503.9 L456.0,504.6 L457.1,505.3 L458.2,506.1 L459.3,506.8 L460.5,507.5 L461.6,508.2 L462.7,508.9
		L463.8,509.6 L465.0,510.4 L466.1,511.1 L467.2,511.8 L468.3,512.5 L469.5,513.2 L470.6,513.9 L471.7,514.6
		L472.8,515.3 L474.0,516.0 L475.1,516.7 L476.2,517.3 L477.3,518.0 L478.5,518.7 L479.6,519.4 L480.7,520.1
		L481.8,520.8 L483.0,521.4 L484.1,522.1 L485.2,522.8 L486.3,523.4 L487.5,524.1 L488.6,524.8 L489.7,525.4
		L490.8,526.1 L492.0,526.8 L493.1,527.4 L494.2,528.1 L495.3,528.7 L496.5,529.4 L497.6,530.0 L498.7,530.7
		L499.8,531.3 L501.0,532.0 L502.1,532.6 L503.2,533.3 L504.3,533.9 L505.5,534.5 L506.6,535.2 L507.7,535.8
		L508.8,536.4 L510.0,537.1 L511.1,537.7 L512.2,538.3 L513.4,538.9 L514.5,539.6 L515.6,540.2 L516.7,540.8
		L517.9,541.4 L519.0,542.0 L520.1,542.6 L521.2,543.3 L522.4,543.9 L523.5,544.5 L524.6,545.1 L525.7,545.7
		L526.9,546.3 L528.0,546.9 L529.1,547.5 L530.2,548.1 L531.4,548.7 L532.5,549.3 L533.6,549.8 L534.7,550.4
		L535.9,551.0 L537.0,551.6 L538.1,552.2 L539.2,552.8 L540.4,553.4 L541.5,553.9 L542.6,554.5 L543.7,555.1
		L544.9,555.7 L546.0,556.2 L547.1,556.8 L548.2,557.4 L549.4,557.9 L550.5,558.5 L551.6,559.1 L552.7,559.6
		L553.9,560.2 L555.0,560.7 L556.1,561.3 L557.2,561.8 L558.4,562.4 L559.5,562.9 L560.6,563.5 L561.7,564.0
		L562.9,564.6 L564.0,565.1 L565.1,565.7 L566.2,566.2 L567.4,566.8 L568.5,567.3 L569.6,567.8 L570.7,568.4
		L571.9,568.9 L573.0,569.4 L574.1,570.0 L575.2,570.5 L576.4,571.0 L577.5,571.5 L578.6,572.1 L579.8,572.6
		L580.9,573.1 L582.0,573.6 L583.1,574.1 L584.3,574.7 L585.4,575.2 L586.5,575.7 L587.6,576.2 L588.8,576.7
		L589.9,577.2 L591.0,577.7 L592.1,578.2 L593.3,578.7 L594.4,579.2 L595.5,579.7 L596.6,580.2 L597.8,580.7
		L598.9,581.2 L600.0,581.7 L601.1,582.2 L602.3,582.7 L603.4,583.2 L604.5,583.7 L605.6,584.2 L606.8,584.6
		L607.9,585.1 L609.0,585.6 L610.1,586.1 L611.3,586.6 L612.4,587.0 L613.5,587.5 L614.6,588.0 L615.8,588.5
		L616.9,588.9 L618.0,589.4 L619.1,589.9 L620.3,590.3 L621.4,590.8 L622.5,591.3 L623.6,591.7 L624.8,592.2
		L625.9,592.7 L627.0,593.1 L628.1,593.6 L629.3,594.0 L630.4,594.5 L631.5,594.9 L632.6,595.4 L633.8,595.8
		L634.9,596.3 L636.0,596.7 L637.1,597.2 L638.3,597.6 L639.4,598.1 L640.5,598.5 L641.6,599.0 L642.8,599.4
		L643.9,599.8 L645.0,600.3 L646.2,600.7 L647.3,601.1 L648.4,601.6 L649.5,602.0 L650.7,602.4 L651.8,602.9
		L652.9,603.3 L654.0,603.7 L655.2,604.1 L656.3,604.5 L657.4,605.0 L658.5,605.4 L659.7,605.8 L660.8,606.2
		L661.9,606.6 L663.0,607.1 L664.2,607.5 L665.3,607.9 L666.4,608.3 L667.5,608.7 L668.7,609.1 L669.8,609.5
		L670.9,609.9 L672.0,610.3 L673.2,610.7 L674.3,611.1 L675.4,611.5 L676.5,611.9 L677.7,612.3 L678.8,612.7
		L679.9,613.1 L681.0,613.5 L682.2,613.9 L683.3,614.3 L684.4,614.7 L685.5,615.1 L686.7,615.4 L687.8,615.8
		L688.9,616.2 L690.0,616.6 L691.2,617.0 L692.3,617.4 L693.4,617.7 L694.5,618.1 L695.7,618.5 L696.8,618.9
		L697.9,619.2 L699.0,619.6 L700.2,620.0 L701.3,620.3 L702.4,620.7 L703.5,621.1 L704.7,621.5 L705.8,621.8
		L706.9,622.2 L708.0,622.5 L709.2,622.9 L710.3,623.3 L711.4,623.6 L712.5,624.0 L713.7,624.3 L714.8,624.7
		L715.9,625.0 L717.1,625.4 L718.2,625.7 L719.3,626.1 L720.4,626.4 L721.6,626.8 L722.7,627.1 L723.8,627.5
		L724.9,627.8 L726.1,628.2 L727.2,628.5 L728.3,628.8 L729.4,629.2 L730.6,629.5 L731.7,629.8 L732.8,630.2
		L733.9,630.5 L735.1,630.8 L736.2,631.2 L737.3,631.5 L738.4,631.8 L739.6,632.2 L740.7,632.5 L741.8,632.8
		L742.9,633.1 L744.1,633.4 L745.2,633.8 L746.3,634.1 L747.4,634.4 L748.6,634.7 L749.7,635.0 L750.8,635.4
		L751.9,635.7 L753.1,636.0 L754.2,636.3 L755.3,636.6 L756.4,636.9 L757.6,637.2 L758.7,637.5 L759.8,637.8
		L760.9,638.1 L762.1,638.4 L763.2,638.7 L764.3,639.0 L765.4,639.3 L766.6,639.6 L767.7,639.9 L768.8,640.2
		L769.9,640.5 L771.1,640.8 L772.2,641.1 L773.3,641.4 L774.4,641.7 L775.6,641.9 L776.7,642.2 L777.8,642.5
		L778.9,642.8 L780.1,643.1 L781.2,643.4 L782.3,643.6 L783.5,643.9 L784.6,644.2 L785.7,644.5 L786.8,644.7
		L788.0,645.0 L789.1,645.3 L790.2,645.6 L791.3,645.8 L792.5,646.1 L793.6,646.4 L794.7,646.6 L795.8,646.9
		L797.0,647.1 L798.1,647.4 L799.2,647.7 L800.3,647.9 L801.5,648.2 L802.6,648.4 L803.7,648.7 L804.8,649.0
		L806.0,649.2 L807.1,649.5 L808.2,649.7 L809.3,650.0 L810.5,650.2 L811.6,650.4 L812.7,650.7 L813.8,650.9
		L815.0,651.2 L816.1,651.4 L817.2,651.7 L818.3,651.9 L819.5,652.1 L820.6,652.4 L821.7,652.6 L822.8,652.8
		L824.0,653.1 L825.1,653.3 L826.2,653.5 L827.3,653.8 L828.5,654.0 L829.6,654.2 L830.7,654.4 L831.8,654.7
		L833.0,654.9 L834.1,655.1 L835.2,655.3 L836.3,655.5 L837.5,655.7 L838.6,656.0 L839.7,656.2 L840.8,656.4
		L842.0,656.6 L843.1,656.8 L844.2,657.0 L845.3,657.2 L846.5,657.4 L847.6,657.6 L848.7,657.8 L849.9,658.0
		L851.0,658.2 L852.1,658.4 L853.2,658.6 L854.4,658.8 L855.5,659.0 L856.6,659.2 L857.7,659.4 L858.9,659.6
		L860.0,659.8 L861.1,660.0 L862.2,660.2 L863.4,660.3 L864.5,660.5 L865.6,660.7 L866.7,660.9 L867.9,661.1
		L869.0,661.2 L870.1,661.4 L871.2,661.6 L872.4,661.8 L873.5,661.9 L874.6,662.1 L875.7,662.3 L876.9,662.4
		L878.0,662.6 L879.1,662.8 L880.2,662.9 L881.4,663.1 L882.5,663.2 L883.6,663.4 L884.7,663.6 L885.9,663.7
		L887.0,663.9 L888.1,664.0 L889.2,664.2 L890.4,664.3 L891.5,664.5 L892.6,664.6 L893.7,664.8 L894.9,664.9
		L896.0,665.0 L897.1,665.2 L898.2,665.3 L899.4,665.5 L900.5,665.6 L901.6,665.7 L902.7,665.9 L903.9,666.0
		L905.0,666.1 L906.1,666.3 L907.2,666.4 L908.4,666.5 L909.5,666.6 L910.6,666.7 L911.7,666.9 L912.9,667.0
		L914.0,667.1 L915.1,667.2 L916.2,667.3 L917.4,667.4 L918.5,667.5 L919.6,667.7 L920.8,667.8 L921.9,667.9
		L923.0,668.0 L924.1,668.1 L925.3,668.2 L926.4,668.3 L927.5,668.4 L928.6,668.5 L929.8,668.6 L930.9,668.6
		L932.0,668.7 L933.1,668.8 L934.3,668.9 L935.4,669.0 L936.5,669.1 L937.6,669.1 L938.8,669.2 L939.9,669.3
		L941.0,669.4 L942.1,669.5 L943.3,669.5 L944.4,669.6 L945.5,669.7 L946.6,669.7 L947.8,669.8 L948.9,669.9
		L950.0,669.9 L951.1,670.0 L952.3,670.0 L953.4,670.1 L954.5,670.1 L955.6,670.2 L956.8,670.2 L957.9,670.3
		L959.0,670.3 L960.1,670.4 L961.3,670.4 L962.4,670.4 L963.5,670.5 L964.6,670.5 L965.8,670.5 L966.9,670.6
		L968.0,670.6 L969.1,670.6 L970.3,670.7 L971.4,670.7 L972.5,670.7 L973.6,670.7 L974.8,670.7 L975.9,670.8
		L977.0,670.8 L978.1,670.8 L979.3,670.8 L980.4,670.8 L981.5,670.8 L982.6,670.8 L983.8,670.8 L984.9,670.8
		L986.0,670.8 L987.2,670.8 L988.3,670.8 L989.4,670.8 L990.5,670.7 L991.7,670.7 L992.8,670.7 L993.9,670.7
		L995.0,670.7 L996.2,670.6 L997.3,670.6 L998.4,670.6 L999.5,670.6 L1000.7,670.5 L1001.8,670.5 L1002.9,670.5
		L1004.0,670.4 L1005.2,670.4 L1006.3,670.3 L1007.4,670.3 L1008.5,670.2 L1009.7,670.2 L1010.8,670.1 L1011.9,670.1
		L1013.0,670.0 L1014.2,669.9 L1015.3,669.9 L1016.4,669.8 L1017.5,669.7 L1018.7,669.7 L1019.8,669.6 L1020.9,669.5
		L1022.0,669.4 L1023.2,669.4 L1024.3,669.3 L1025.4,669.2 L1026.5,669.1 L1027.7,669.0 L1028.8,668.9 L1029.9,668.8
		L1031.0,668.7 L1032.2,668.6 L1033.3,668.5 L1034.4,668.4 L1035.5,668.3 L1036.7,668.2 L1037.8,668.1 L1038.9,668.0
		L1040.0,667.9 L1041.2,667.7 L1042.3,667.6 L1043.4,667.5 L1044.5,667.4 L1045.7,667.2 L1046.8,667.1 L1047.9,667.0
		L1049.0,666.8 L1050.2,666.7 L1051.3,666.5 L1052.4,666.4 L1053.6,666.2 L1054.7,666.1 L1055.8,665.9 L1056.9,665.8
		L1058.1,665.6 L1059.2,665.5 L1060.3,665.3 L1061.4,665.1 L1062.6,665.0 L1063.7,664.8 L1064.8,664.6 L1065.9,664.4
		L1067.1,664.3 L1068.2,664.1 L1069.3,663.9 L1070.4,663.7 L1071.6,663.5 L1072.7,663.3 L1073.8,663.1 L1074.9,662.9
		L1076.1,662.7 L1077.2,662.5 L1078.3,662.3 L1079.4,662.1 L1080.6,661.9 L1081.7,661.7 L1082.8,661.5 L1083.9,661.3
		L1085.1,661.1 L1086.2,660.8 L1087.3,660.6 L1088.4,660.4 L1089.6,660.2 L1090.7,659.9 L1091.8,659.7 L1092.9,659.5
		L1094.1,659.2 L1095.2,659.0 L1096.3,658.7 L1097.4,658.5 L1098.6,658.3 L1099.7,658.0 L1100.8,657.8 L1101.9,657.5
		L1103.1,657.3 L1104.2,657.0 L1105.3,656.7 L1106.4,656.5 L1107.6,656.2 L1108.7,656.0 L1109.8,655.7 L1110.9,655.4
		L1112.1,655.1 L1113.2,654.9 L1114.3,654.6 L1115.4,654.3 L1116.6,654.0 L1117.7,653.8 L1118.8,653.5 L1120.0,653.2
		L1121.1,652.9 L1122.2,652.6 L1123.3,652.4 L1124.5,652.1 L1125.6,651.8 L1126.7,651.5 L1127.8,651.2 L1129.0,650.9
		L1130.1,650.6 L1131.2,650.3 L1132.3,650.0 L1133.5,649.7 L1134.6,649.4 L1135.7,649.1 L1136.8,648.8 L1138.0,648.5
		L1139.1,648.2 L1140.2,647.9 L1141.3,647.6 L1142.5,647.3 L1143.6,647.0 L1144.7,646.7 L1145.8,646.4 L1147.0,646.1
		L1148.1,645.8 L1149.2,645.5 L1150.3,645.2 L1151.5,644.9 L1152.6,644.5 L1153.7,644.2 L1154.8,643.9 L1156.0,643.6
		L1157.1,643.3 L1158.2,643.0 L1159.3,642.7 L1160.5,642.4 L1161.6,642.1 L1162.7,641.8 L1163.8,641.5 L1165.0,641.2
		L1166.1,640.9 L1167.2,640.6 L1168.3,640.3 L1169.5,640.0 L1170.6,639.7 L1171.7,639.4 L1172.8,639.1 L1174.0,638.8
		L1175.1,638.5 L1176.2,638.2 L1177.3,637.9 L1178.5,637.6 L1179.6,637.4 L1180.7,637.1 L1181.8,636.8 L1183.0,636.5
		L1184.1,636.2 L1185.2,636.0 L1186.3,635.7 L1187.5,635.4 L1188.6,635.1 L1189.7,634.9 L1190.9,634.6 L1192.0,634.3
		L1193.1,634.1 L1194.2,633.8 L1195.4,633.6 L1196.5,633.3 L1197.6,633.1 L1198.7,632.8 L1199.9,632.6 L1201.0,632.4
		L1202.1,632.1 L1203.2,631.9 L1204.4,631.7 L1205.5,631.5 L1206.6,631.2 L1207.7,631.0 L1208.9,630.8 L1210.0,630.6
		L1211.1,630.4 L1212.2,630.2 L1213.4,630.0 L1214.5,629.8 L1215.6,629.6 L1216.7,629.4 L1217.9,629.3 L1219.0,629.1
		L1220.1,628.9 L1221.2,628.8 L1222.4,628.6 L1223.5,628.5 L1224.6,628.3 L1225.7,628.2 L1226.9,628.0 L1228.0,627.9
		L1229.1,627.8 L1230.2,627.6 L1231.4,627.5 L1232.5,627.4 L1233.6,627.3 L1234.7,627.2 L1235.9,627.1 L1237.0,627.0
		L1238.1,626.9 L1239.2,626.8 L1240.4,626.8 L1241.5,626.7 L1242.6,626.6 L1243.7,626.6 L1244.9,626.5 L1246.0,626.5
		L1247.1,626.4 L1248.2,626.4 L1249.4,626.3 L1250.5,626.3 L1251.6,626.3 L1252.7,626.3 L1253.9,626.3 L1255.0,626.3
		 '/></g>
	</g>
	<g id="gnuplot_plot_6" ><title>gnuplot_plot_6</title>
<g fill="none" color="black" stroke="currentColor" stroke-width="1.00" stroke-linecap="butt" stroke-linejoin="miter">
	<path stroke='rgb(  0,   0, 255)'  d='M103.7,56.4 L104.8,59.5 L106.0,68.3 L107.1,80.6 L108.2,94.5 L109.3,108.1 L110.5,120.4 L111.6,131.1
		L112.7,140.0 L113.8,147.4 L115.0,153.4 L116.1,158.3 L117.2,162.3 L118.3,165.6 L119.5,168.3 L120.6,170.6
		L121.7,172.5 L122.8,174.2 L124.0,175.7 L125.1,177.1 L126.2,178.3 L127.3,179.4 L128.5,180.4 L129.6,181.4
		L130.7,182.3 L131.8,183.2 L133.0,184.1 L134.1,184.9 L135.2,185.8 L136.3,186.6 L137.5,187.5 L138.6,188.3
		L139.7,189.1 L140.8,189.9 L142.0,190.8 L143.1,191.6 L144.2,192.5 L145.3,193.4 L146.5,194.2 L147.6,195.1
		L148.7,196.0 L149.8,196.9 L151.0,197.8 L152.1,198.8 L153.2,199.7 L154.3,200.6 L155.5,201.6 L156.6,202.6
		L157.7,203.6 L158.8,204.6 L160.0,205.6 L161.1,206.6 L162.2,207.6 L163.3,208.6 L164.5,209.7 L165.6,210.8
		L166.7,211.8 L167.8,212.9 L169.0,214.0 L170.1,215.1 L171.2,216.2 L172.4,217.3 L173.5,218.4 L174.6,219.6
		L175.7,220.7 L176.9,221.8 L178.0,223.0 L179.1,224.2 L180.2,225.3 L181.4,226.5 L182.5,227.7 L183.6,228.9
		L184.7,230.1 L185.9,231.3 L187.0,232.5 L188.1,233.7 L189.2,234.9 L190.4,236.2 L191.5,237.4 L192.6,238.6
		L193.7,239.8 L194.9,241.1 L196.0,242.3 L197.1,243.6 L198.2,244.8 L199.4,246.1 L200.5,247.4 L201.6,248.6
		L202.7,249.9 L203.9,251.1 L205.0,252.4 L206.1,253.7 L207.2,255.0 L208.4,256.2 L209.5,257.5 L210.6,258.8
		L211.7,260.1 L212.9,261.4 L214.0,262.6 L215.1,263.9 L216.2,265.2 L217.4,266.5 L218.5,267.8 L219.6,269.1
		L220.7,270.4 L221.9,271.7 L223.0,272.9 L224.1,274.2 L225.2,275.5 L226.4,276.8 L227.5,278.1 L228.6,279.4
		L229.7,280.7 L230.9,282.0 L232.0,283.2 L233.1,284.5 L234.2,285.8 L235.4,287.1 L236.5,288.4 L237.6,289.6
		L238.7,290.9 L239.9,292.2 L241.0,293.5 L242.1,294.7 L243.3,296.0 L244.4,297.3 L245.5,298.6 L246.6,299.8
		L247.8,301.1 L248.9,302.4 L250.0,303.6 L251.1,304.9 L252.3,306.1 L253.4,307.4 L254.5,308.6 L255.6,309.9
		L256.8,311.1 L257.9,312.4 L259.0,313.6 L260.1,314.9 L261.3,316.1 L262.4,317.3 L263.5,318.6 L264.6,319.8
		L265.8,321.0 L266.9,322.3 L268.0,323.5 L269.1,324.7 L270.3,325.9 L271.4,327.1 L272.5,328.3 L273.6,329.6
		L274.8,330.8 L275.9,332.0 L277.0,333.2 L278.1,334.4 L279.3,335.6 L280.4,336.7 L281.5,337.9 L282.6,339.1
		L283.8,340.3 L284.9,341.5 L286.0,342.7 L287.1,343.8 L288.3,345.0 L289.4,346.2 L290.5,347.3 L291.6,348.5
		L292.8,349.6 L293.9,350.8 L295.0,351.9 L296.1,353.1 L297.3,354.2 L298.4,355.4 L299.5,356.5 L300.6,357.6
		L301.8,358.8 L302.9,359.9 L304.0,361.0 L305.1,362.2 L306.3,363.3 L307.4,364.4 L308.5,365.5 L309.7,366.6
		L310.8,367.7 L311.9,368.8 L313.0,369.9 L314.2,371.0 L315.3,372.1 L316.4,373.2 L317.5,374.3 L318.7,375.4
		L319.8,376.4 L320.9,377.5 L322.0,378.6 L323.2,379.7 L324.3,380.7 L325.4,381.8 L326.5,382.8 L327.7,383.9
		L328.8,385.0 L329.9,386.0 L331.0,387.0 L332.2,388.1 L333.3,389.1 L334.4,390.2 L335.5,391.2 L336.7,392.2
		L337.8,393.3 L338.9,394.3 L340.0,395.3 L341.2,396.3 L342.3,397.3 L343.4,398.3 L344.5,399.4 L345.7,400.4
		L346.8,401.4 L347.9,402.4 L349.0,403.4 L350.2,404.3 L351.3,405.3 L352.4,406.3 L353.5,407.3 L354.7,408.3
		L355.8,409.3 L356.9,410.2 L358.0,411.2 L359.2,412.2 L360.3,413.1 L361.4,414.1 L362.5,415.1 L363.7,416.0
		L364.8,417.0 L365.9,417.9 L367.0,418.9 L368.2,419.8 L369.3,420.7 L370.4,421.7 L371.5,422.6 L372.7,423.5
		L373.8,424.5 L374.9,425.4 L376.1,426.3 L377.2,427.2 L378.3,428.2 L379.4,429.1 L380.6,430.0 L381.7,430.9
		L382.8,431.8 L383.9,432.7 L385.1,433.6 L386.2,434.5 L387.3,435.4 L388.4,436.3 L389.6,437.2 L390.7,438.0
		L391.8,438.9 L392.9,439.8 L394.1,440.7 L395.2,441.6 L396.3,442.4 L397.4,443.3 L398.6,444.2 L399.7,445.0
		L400.8,445.9 L401.9,446.7 L403.1,447.6 L404.2,448.4 L405.3,449.3 L406.4,450.1 L407.6,451.0 L408.7,451.8
		L409.8,452.7 L410.9,453.5 L412.1,454.3 L413.2,455.2 L414.3,456.0 L415.4,456.8 L416.6,457.6 L417.7,458.5
		L418.8,459.3 L419.9,460.1 L421.1,460.9 L422.2,461.7 L423.3,462.5 L424.4,463.3 L425.6,464.1 L426.7,464.9
		L427.8,465.7 L428.9,466.5 L430.1,467.3 L431.2,468.1 L432.3,468.9 L433.4,469.7 L434.6,470.4 L435.7,471.2
		L436.8,472.0 L437.9,472.8 L439.1,473.6 L440.2,474.3 L441.3,475.1 L442.5,475.9 L443.6,476.6 L444.7,477.4
		L445.8,478.1 L447.0,478.9 L448.1,479.6 L449.2,480.4 L450.3,481.1 L451.5,481.9 L452.6,482.6 L453.7,483.4
		L454.8,484.1 L456.0,484.8 L457.1,485.6 L458.2,486.3 L459.3,487.0 L460.5,487.8 L461.6,488.5 L462.7,489.2
		L463.8,489.9 L465.0,490.7 L466.1,491.4 L467.2,492.1 L468.3,492.8 L469.5,493.5 L470.6,494.2 L471.7,494.9
		L472.8,495.6 L474.0,496.3 L475.1,497.0 L476.2,497.7 L477.3,498.4 L478.5,499.1 L479.6,499.8 L480.7,500.5
		L481.8,501.2 L483.0,501.8 L484.1,502.5 L485.2,503.2 L486.3,503.9 L487.5,504.6 L488.6,505.2 L489.7,505.9
		L490.8,506.6 L492.0,507.2 L493.1,507.9 L494.2,508.6 L495.3,509.2 L496.5,509.9 L497.6,510.5 L498.7,511.2
		L499.8,511.8 L501.0,512.5 L502.1,513.1 L503.2,513.8 L504.3,514.4 L505.5,515.1 L506.6,515.7 L507.7,516.4
		L508.8,517.0 L510.0,517.6 L511.1,518.3 L512.2,518.9 L513.4,519.5 L514.5,520.1 L515.6,520.8 L516.7,521.4
		L517.9,522.0 L519.0,522.6 L520.1,523.3 L521.2,523.9 L522.4,524.5 L523.5,525.1 L524.6,525.7 L525.7,526.3
		L526.9,526.9 L528.0,527.5 L529.1,528.1 L530.2,528.7 L531.4,529.3 L532.5,529.9 L533.6,530.5 L534.7,531.1
		L535.9,531.7 L537.0,532.3 L538.1,532.9 L539.2,533.5 L540.4,534.0 L541.5,534.6 L542.6,535.2 L543.7,535.8
		L544.9,536.4 L546.0,536.9 L547.1,537.5 L548.2,538.1 L549.4,538.6 L550.5,539.2 L551.6,539.8 L552.7,540.3
		L553.9,540.9 L555.0,541.5 L556.1,542.0 L557.2,542.6 L558.4,543.1 L559.5,543.7 L560.6,544.2 L561.7,544.8
		L562.9,545.3 L564.0,545.9 L565.1,546.4 L566.2,547.0 L567.4,547.5 L568.5,548.1 L569.6,548.6 L570.7,549.1
		L571.9,549.7 L573.0,550.2 L574.1,550.7 L575.2,551.3 L576.4,551.8 L577.5,552.3 L578.6,552.9 L579.8,553.4
		L580.9,553.9 L582.0,554.4 L583.1,554.9 L584.3,555.5 L585.4,556.0 L586.5,556.5 L587.6,557.0 L588.8,557.5
		L589.9,558.0 L591.0,558.5 L592.1,559.0 L593.3,559.5 L594.4,560.0 L595.5,560.6 L596.6,561.1 L597.8,561.5
		L598.9,562.0 L600.0,562.5 L601.1,563.0 L602.3,563.5 L603.4,564.0 L604.5,564.5 L605.6,565.0 L606.8,565.5
		L607.9,566.0 L609.0,566.4 L610.1,566.9 L611.3,567.4 L612.4,567.9 L613.5,568.4 L614.6,568.8 L615.8,569.3
		L616.9,569.8 L618.0,570.3 L619.1,570.7 L620.3,571.2 L621.4,571.7 L622.5,572.1 L623.6,572.6 L624.8,573.1
		L625.9,573.5 L627.0,574.0 L628.1,574.4 L629.3,574.9 L630.4,575.3 L631.5,575.8 L632.6,576.2 L633.8,576.7
		L634.9,577.1 L636.0,577.6 L637.1,578.0 L638.3,578.5 L639.4,578.9 L640.5,579.4 L641.6,579.8 L642.8,580.2
		L643.9,580.7 L645.0,581.1 L646.2,581.6 L647.3,582.0 L648.4,582.4 L649.5,582.8 L650.7,583.3 L651.8,583.7
		L652.9,584.1 L654.0,584.6 L655.2,585.0 L656.3,585.4 L657.4,585.8 L658.5,586.2 L659.7,586.7 L660.8,587.1
		L661.9,587.5 L663.0,587.9 L664.2,588.3 L665.3,588.7 L666.4,589.1 L667.5,589.5 L668.7,589.9 L669.8,590.4
		L670.9,590.8 L672.0,591.2 L673.2,591.6 L674.3,592.0 L675.4,592.4 L676.5,592.8 L677.7,593.1 L678.8,593.5
		L679.9,593.9 L681.0,594.3 L682.2,594.7 L683.3,595.1 L684.4,595.5 L685.5,595.9 L686.7,596.3 L687.8,596.6
		L688.9,597.0 L690.0,597.4 L691.2,597.8 L692.3,598.2 L693.4,598.5 L694.5,598.9 L695.7,599.3 L696.8,599.7
		L697.9,600.0 L699.0,600.4 L700.2,600.8 L701.3,601.1 L702.4,601.5 L703.5,601.9 L704.7,602.2 L705.8,602.6
		L706.9,603.0 L708.0,603.3 L709.2,603.7 L710.3,604.0 L711.4,604.4 L712.5,604.7 L713.7,605.1 L714.8,605.4
		L715.9,605.8 L717.1,606.1 L718.2,606.5 L719.3,606.8 L720.4,607.2 L721.6,607.5 L722.7,607.9 L723.8,608.2
		L724.9,608.5 L726.1,608.9 L727.2,609.2 L728.3,609.6 L729.4,609.9 L730.6,610.2 L731.7,610.6 L732.8,610.9
		L733.9,611.2 L735.1,611.5 L736.2,611.9 L737.3,612.2 L738.4,612.5 L739.6,612.8 L740.7,613.2 L741.8,613.5
		L742.9,613.8 L744.1,614.1 L745.2,614.4 L746.3,614.7 L747.4,615.1 L748.6,615.4 L749.7,615.7 L750.8,616.0
		L751.9,616.3 L753.1,616.6 L754.2,616.9 L755.3,617.2 L756.4,617.5 L757.6,617.8 L758.7,618.1 L759.8,618.4
		L760.9,618.7 L762.1,619.0 L763.2,619.3 L764.3,619.6 L765.4,619.9 L766.6,620.2 L767.7,620.5 L768.8,620.8
		L769.9,621.0 L771.1,621.3 L772.2,621.6 L773.3,621.9 L774.4,622.2 L775.6,622.5 L776.7,622.7 L777.8,623.0
		L778.9,623.3 L780.1,623.6 L781.2,623.8 L782.3,624.1 L783.5,624.4 L784.6,624.7 L785.7,624.9 L786.8,625.2
		L788.0,625.5 L789.1,625.7 L790.2,626.0 L791.3,626.3 L792.5,626.5 L793.6,626.8 L794.7,627.0 L795.8,627.3
		L797.0,627.5 L798.1,627.8 L799.2,628.0 L800.3,628.3 L801.5,628.5 L802.6,628.8 L803.7,629.0 L804.8,629.3
		L806.0,629.5 L807.1,629.8 L808.2,630.0 L809.3,630.3 L810.5,630.5 L811.6,630.7 L812.7,631.0 L813.8,631.2
		L815.0,631.4 L816.1,631.7 L817.2,631.9 L818.3,632.1 L819.5,632.4 L820.6,632.6 L821.7,632.8 L822.8,633.0
		L824.0,633.3 L825.1,633.5 L826.2,633.7 L827.3,633.9 L828.5,634.1 L829.6,634.4 L830.7,634.6 L831.8,634.8
		L833.0,635.0 L834.1,635.2 L835.2,635.4 L836.3,635.6 L837.5,635.8 L838.6,636.0 L839.7,636.2 L840.8,636.4
		L842.0,636.6 L843.1,636.8 L844.2,637.0 L845.3,637.2 L846.5,637.4 L847.6,637.6 L848.7,637.8 L849.9,638.0
		L851.0,638.2 L852.1,638.4 L853.2,638.6 L854.4,638.7 L855.5,638.9 L856.6,639.1 L857.7,639.3 L858.9,639.5
		L860.0,639.6 L861.1,639.8 L862.2,640.0 L863.4,640.2 L864.5,640.3 L865.6,640.5 L866.7,640.7 L867.9,640.8
		L869.0,641.0 L870.1,641.2 L871.2,641.3 L872.4,641.5 L873.5,641.6 L874.6,641.8 L875.7,642.0 L876.9,642.1
		L878.0,642.3 L879.1,642.4 L880.2,642.6 L881.4,642.7 L882.5,642.9 L883.6,643.0 L884.7,643.1 L885.9,643.3
		L887.0,643.4 L888.1,643.6 L889.2,643.7 L890.4,643.8 L891.5,644.0 L892.6,644.1 L893.7,644.2 L894.9,644.4
		L896.0,644.5 L897.1,644.6 L898.2,644.7 L899.4,644.8 L900.5,645.0 L901.6,645.1 L902.7,645.2 L903.9,645.3
		L905.0,645.4 L906.1,645.5 L907.2,645.7 L908.4,645.8 L909.5,645.9 L910.6,646.0 L911.7,646.1 L912.9,646.2
		L914.0,646.3 L915.1,646.4 L916.2,646.5 L917.4,646.6 L918.5,646.7 L919.6,646.7 L920.8,646.8 L921.9,646.9
		L923.0,647.0 L924.1,647.1 L925.3,647.2 L926.4,647.2 L927.5,647.3 L928.6,647.4 L929.8,647.5 L930.9,647.5
		L932.0,647.6 L933.1,647.7 L934.3,647.8 L935.4,647.8 L936.5,647.9 L937.6,647.9 L938.8,648.0 L939.9,648.1
		L941.0,648.1 L942.1,648.2 L943.3,648.2 L944.4,648.3 L945.5,648.3 L946.6,648.4 L947.8,648.4 L948.9,648.4
		L950.0,648.5 L951.1,648.5 L952.3,648.6 L953.4,648.6 L954.5,648.6 L955.6,648.7 L956.8,648.7 L957.9,648.7
		L959.0,648.7 L960.1,648.8 L961.3,648.8 L962.4,648.8 L963.5,648.8 L964.6,648.8 L965.8,648.8 L966.9,648.8
		L968.0,648.8 L969.1,648.9 L970.3,648.9 L971.4,648.9 L972.5,648.9 L973.6,648.9 L974.8,648.8 L975.9,648.8
		L977.0,648.8 L978.1,648.8 L979.3,648.8 L980.4,648.8 L981.5,648.8 L982.6,648.7 L983.8,648.7 L984.9,648.7
		L986.0,648.7 L987.2,648.6 L988.3,648.6 L989.4,648.6 L990.5,648.5 L991.7,648.5 L992.8,648.5 L993.9,648.4
		L995.0,648.4 L996.2,648.3 L997.3,648.3 L998.4,648.2 L999.5,648.2 L1000.7,648.1 L1001.8,648.0 L1002.9,648.0
		L1004.0,647.9 L1005.2,647.8 L1006.3,647.8 L1007.4,647.7 L1008.5,647.6 L1009.7,647.6 L1010.8,647.5 L1011.9,647.4
		L1013.0,647.3 L1014.2,647.2 L1015.3,647.1 L1016.4,647.0 L1017.5,647.0 L1018.7,646.9 L1019.8,646.8 L1020.9,646.7
		L1022.0,646.6 L1023.2,646.5 L1024.3,646.3 L1025.4,646.2 L1026.5,646.1 L1027.7,646.0 L1028.8,645.9 L1029.9,645.8
		L1031.0,645.6 L1032.2,645.5 L1033.3,645.4 L1034.4,645.3 L1035.5,645.1 L1036.7,645.0 L1037.8,644.9 L1038.9,644.7
		L1040.0,644.6 L1041.2,644.4 L1042.3,644.3 L1043.4,644.1 L1044.5,644.0 L1045.7,643.8 L1046.8,643.7 L1047.9,643.5
		L1049.0,643.4 L1050.2,643.2 L1051.3,643.0 L1052.4,642.9 L1053.6,642.7 L1054.7,642.5 L1055.8,642.3 L1056.9,642.2
		L1058.1,642.0 L1059.2,641.8 L1060.3,641.6 L1061.4,641.4 L1062.6,641.2 L1063.7,641.0 L1064.8,640.8 L1065.9,640.6
		L1067.1,640.4 L1068.2,640.2 L1069.3,640.0 L1070.4,639.8 L1071.6,639.6 L1072.7,639.4 L1073.8,639.2 L1074.9,639.0
		L1076.1,638.7 L1077.2,638.5 L1078.3,638.3 L1079.4,638.1 L1080.6,637.8 L1081.7,637.6 L1082.8,637.4 L1083.9,637.1
		L1085.1,636.9 L1086.2,636.7 L1087.3,636.4 L1088.4,636.2 L1089.6,635.9 L1090.7,635.7 L1091.8,635.4 L1092.9,635.2
		L1094.1,634.9 L1095.2,634.7 L1096.3,634.4 L1097.4,634.2 L1098.6,633.9 L1099.7,633.6 L1100.8,633.4 L1101.9,633.1
		L1103.1,632.8 L1104.2,632.6 L1105.3,632.3 L1106.4,632.0 L1107.6,631.8 L1108.7,631.5 L1109.8,631.2 L1110.9,630.9
		L1112.1,630.6 L1113.2,630.4 L1114.3,630.1 L1115.4,629.8 L1116.6,629.5 L1117.7,629.2 L1118.8,628.9 L1120.0,628.6
		L1121.1,628.3 L1122.2,628.0 L1123.3,627.7 L1124.5,627.4 L1125.6,627.2 L1126.7,626.9 L1127.8,626.6 L1129.0,626.3
		L1130.1,626.0 L1131.2,625.7 L1132.3,625.4 L1133.5,625.1 L1134.6,624.7 L1135.7,624.4 L1136.8,624.1 L1138.0,623.8
		L1139.1,623.5 L1140.2,623.2 L1141.3,622.9 L1142.5,622.6 L1143.6,622.3 L1144.7,622.0 L1145.8,621.7 L1147.0,621.4
		L1148.1,621.1 L1149.2,620.8 L1150.3,620.5 L1151.5,620.2 L1152.6,619.9 L1153.7,619.5 L1154.8,619.2 L1156.0,618.9
		L1157.1,618.6 L1158.2,618.3 L1159.3,618.0 L1160.5,617.7 L1161.6,617.4 L1162.7,617.1 L1163.8,616.8 L1165.0,616.5
		L1166.1,616.2 L1167.2,615.9 L1168.3,615.6 L1169.5,615.3 L1170.6,615.1 L1171.7,614.8 L1172.8,614.5 L1174.0,614.2
		L1175.1,613.9 L1176.2,613.6 L1177.3,613.3 L1178.5,613.1 L1179.6,612.8 L1180.7,612.5 L1181.8,612.2 L1183.0,612.0
		L1184.1,611.7 L1185.2,611.4 L1186.3,611.2 L1187.5,610.9 L1188.6,610.6 L1189.7,610.4 L1190.9,610.1 L1192.0,609.9
		L1193.1,609.6 L1194.2,609.4 L1195.4,609.1 L1196.5,608.9 L1197.6,608.7 L1198.7,608.4 L1199.9,608.2 L1201.0,608.0
		L1202.1,607.7 L1203.2,607.5 L1204.4,607.3 L1205.5,607.1 L1206.6,606.9 L1207.7,606.7 L1208.9,606.5 L1210.0,606.3
		L1211.1,606.1 L1212.2,605.9 L1213.4,605.7 L1214.5,605.5 L1215.6,605.4 L1216.7,605.2 L1217.9,605.0 L1219.0,604.8
		L1220.1,604.7 L1221.2,604.5 L1222.4,604.4 L1223.5,604.2 L1224.6,604.1 L1225.7,604.0 L1226.9,603.8 L1228.0,603.7
		L1229.1,603.6 L1230.2,603.5 L1231.4,603.3 L1232.5,603.2 L1233.6,603.1 L1234.7,603.0 L1235.9,603.0 L1237.0,602.9
		L1238.1,602.8 L1239.2,602.7 L1240.4,602.6 L1241.5,602.6 L1242.6,602.5 L1243.7,602.4 L1244.9,602.4 L1246.0,602.4
		L1247.1,602.3 L1248.2,602.3 L1249.4,602.2 L1250.5,602.2 L1251.6,602.2 L1252.7,602.2 L1253.9,602.2 L1255.0,602.2
		 '/></g>
	</g>
<g fill="none" color="white" stroke="rgb(  0,   0, 255)" stroke-width="2.00" stroke-linecap="butt" stroke-linejoin="miter">
</g>
<g fill="none" color="black" stroke="currentColor" stroke-width="2.00" stroke-linecap="butt" stroke-linejoin="miter">
</g>
<g fill="none" color="black" stroke="black" stroke-width="1.00" stroke-linecap="butt" stroke-linejoin="miter">
</g>
<g fill="none" color="black" stroke="currentColor" stroke-width="1.00" stroke-linecap="butt" stroke-linejoin="miter">
	<path stroke='black'  d='M103.7,54.1 L103.7,684.0 L1255.0,684.0 L1255.0,54.1 L103.7,54.1 Z  '/></g>
<g fill="none" color="black" stroke="currentColor" stroke-width="1.00" stroke-linecap="butt" stroke-linejoin="miter">
</g>
</g>
</svg>

