<?xml version="1.0" encoding="utf-8"  standalone="no"?>
<svg 
 width="1280" height="720"
 viewBox="0 0 1280 720"
 xmlns="http://www.w3.org/2000/svg"
 xmlns:xlink="http://www.w3.org/1999/xlink"
>

<title>Gnuplot</title>
<desc>Produced by GNUPLOT 5.0 patchlevel 6 </desc>

<g id="gnuplot_canvas">

<rect x="0" y="0" width="1280" height="720" fill="none"/>
<defs>

	<circle id='gpDot' r='0.5' stroke-width='0.5'/>
	<path id='gpPt0' stroke-width='0.222' stroke='currentColor' d='M-1,0 h2 M0,-1 v2'/>
	<path id='gpPt1' stroke-width='0.222' stroke='currentColor' d='M-1,-1 L1,1 M1,-1 L-1,1'/>
	<path id='gpPt2' stroke-width='0.222' stroke='currentColor' d='M-1,0 L1,0 M0,-1 L0,1 M-1,-1 L1,1 M-1,1 L1,-1'/>
	<rect id='gpPt3' stroke-width='0.222' stroke='currentColor' x='-1' y='-1' width='2' height='2'/>
	<rect id='gpPt4' stroke-width='0.222' stroke='currentColor' fill='currentColor' x='-1' y='-1' width='2' height='2'/>
	<circle id='gpPt5' stroke-width='0.222' stroke='currentColor' cx='0' cy='0' r='1'/>
	<use xlink:href='#gpPt5' id='gpPt6' fill='currentColor' stroke='none'/>
	<path id='gpPt7' stroke-width='0.222' stroke='currentColor' d='M0,-1.33 L-1.33,0.67 L1.33,0.67 z'/>
	<use xlink:href='#gpPt7' id='gpPt8' fill='currentColor' stroke='none'/>
	<use xlink:href='#gpPt7' id='gpPt9' stroke='currentColor' transform='rotate(180)'/>
	<use xlink:href='#gpPt9' id='gpPt10' fill='currentColor' stroke='none'/>
	<use xlink:href='#gpPt3' id='gpPt11' stroke='currentColor' transform='rotate(45)'/>
	<use xlink:href='#gpPt11' id='gpPt12' fill='currentColor' stroke='none'/>
	<path id='gpPt13' stroke-width='0.222' stroke='currentColor' d='M0,1.330 L1.265,0.411 L0.782,-1.067 L-0.782,-1.076 L-1.265,0.411 z'/>
	<use xlink:href='#gpPt13' id='gpPt14' fill='currentColor' stroke='none'/>
	<filter id='textbox' filterUnits='objectBoundingBox' x='0' y='0' height='1' width='1'>
	  <feFlood flood-color='white' flood-opacity='1' result='bgnd'/>
	  <feComposite in='SourceGraphic' in2='bgnd' operator='atop'/>
	</filter>
	<filter id='greybox' filterUnits='objectBoundingBox' x='0' y='0' height='1' width='1'>
	  <feFlood flood-color='lightgrey' flood-opacity='1' result='grey'/>
	  <feComposite in='SourceGraphic' in2='grey' operator='atop'/>
	</filter>
</defs>
<g fill="none" color="white" stroke="currentColor" stroke-width="1.00" stroke-linecap="butt" stroke-linejoin="miter">
</g>
<g fill="none" color="black" stroke="currentColor" stroke-width="1.00" stroke-linecap="butt" stroke-linejoin="miter">
	<path stroke='black'  d='M103.7,684.0 L112.7,684.0 M1255.0,684.0 L1246.0,684.0  '/>	<g transform="translate(95.4,687.9)" stroke="none" fill="black" font-family="Arial" font-size="12.00"  text-anchor="end">
		<text><tspan font-family="Arial" > 0.0005154</tspan></text>
	</g>
</g>
<g fill="none" color="black" stroke="currentColor" stroke-width="1.00" stroke-linecap="butt" stroke-linejoin="miter">
	<path stroke='black'  d='M103.7,369.0 L112.7,369.0 M1255.0,369.0 L1246.0,369.0  '/>	<g transform="translate(95.4,372.9)" stroke="none" fill="black" font-family="Arial" font-size="12.00"  text-anchor="end">
		<text><tspan font-family="Arial" > 0.018616</tspan></text>
	</g>
</g>
<g fill="none" color="black" stroke="currentColor" stroke-width="1.00" stroke-linecap="butt" stroke-linejoin="miter">
	<path stroke='black'  d='M103.7,54.1 L112.7,54.1 M1255.0,54.1 L1246.0,54.1  '/>	<g transform="translate(95.4,58.0)" stroke="none" fill="black" font-family="Arial" font-size="12.00"  text-anchor="end">
		<text><tspan font-family="Arial" > 0.6724</tspan></text>
	</g>
</g>
<g fill="none" color="black" stroke="currentColor" stroke-width="1.00" stroke-linecap="butt" stroke-linejoin="miter">
	<path stroke='black'  d='M103.7,684.0 L103.7,675.0 M103.7,54.1 L103.7,63.1  '/>	<g transform="translate(103.7,705.9)" stroke="none" fill="black" font-family="Arial" font-size="12.00"  text-anchor="middle">
		<text><tspan font-family="Arial" > 0</tspan></text>
	</g>
</g>
<g fill="none" color="black" stroke="currentColor" stroke-width="1.00" stroke-linecap="butt" stroke-linejoin="miter">
	<path stroke='black'  d='M679.4,684.0 L679.4,675.0 M679.4,54.1 L679.4,63.1  '/>	<g transform="translate(679.4,705.9)" stroke="none" fill="black" font-family="Arial" font-size="12.00"  text-anchor="middle">
		<text><tspan font-family="Arial" >pi/2</tspan></text>
	</g>
</g>
<g fill="none" color="black" stroke="currentColor" stroke-width="1.00" stroke-linecap="butt" stroke-linejoin="miter">
	<path stroke='black'  d='M1255.0,684.0 L1255.0,675.0 M1255.0,54.1 L1255.0,63.1  '/>	<g transform="translate(1255.0,705.9)" stroke="none" fill="black" font-family="Arial" font-size="12.00"  text-anchor="middle">
		<text><tspan font-family="Arial" >pi</tspan></text>
	</g>
</g>
<g fill="none" color="black" stroke="currentColor" stroke-width="1.00" stroke-linecap="butt" stroke-linejoin="miter">
</g>
<g fill="none" color="black" stroke="currentColor" stroke-width="1.00" stroke-linecap="butt" stroke-linejoin="miter">
	<path stroke='black'  d='M103.7,54.1 L103.7,684.0 L1255.0,684.0 L1255.0,54.1 L103.7,54.1 Z  '/></g>
<g fill="none" color="black" stroke="currentColor" stroke-width="1.00" stroke-linecap="butt" stroke-linejoin="miter">
	<g transform="translate(679.3,31.0)" stroke="none" fill="black" font-family="Arial" font-size="12.00"  text-anchor="middle">
		<text><tspan font-family="Arial" >Material 21, with 4 components</tspan></text>
	</g>
</g>
	<g id="gnuplot_plot_1" ><title>scattering function</title>
<g fill="none" color="black" stroke="currentColor" stroke-width="1.00" stroke-linecap="butt" stroke-linejoin="miter">
	<g transform="translate(1187.9,76.0)" stroke="none" fill="black" font-family="Arial" font-size="12.00"  text-anchor="end">
		<text><tspan font-family="Arial" >scattering function</tspan></text>
	</g>
</g>
<g fill="none" color="black" stroke="currentColor" stroke-width="1.00" stroke-linecap="butt" stroke-linejoin="miter">
	<use xlink:href='#gpPt5' transform='translate(103.7,103.2) scale(2.25)' color='rgb(255,   0,   0)'/>
	<use xlink:href='#gpPt5' transform='translate(104.3,104.0) scale(2.25)' color='rgb(255,   0,   0)'/>
	<use xlink:href='#gpPt5' transform='translate(105.0,106.3) scale(2.25)' color='rgb(255,   0,   0)'/>
	<use xlink:href='#gpPt5' transform='translate(105.6,110.1) scale(2.25)' color='rgb(255,   0,   0)'/>
	<use xlink:href='#gpPt5' transform='translate(106.3,115.2) scale(2.25)' color='rgb(255,   0,   0)'/>
	<use xlink:href='#gpPt5' transform='translate(106.9,121.4) scale(2.25)' color='rgb(255,   0,   0)'/>
	<use xlink:href='#gpPt5' transform='translate(107.5,128.5) scale(2.25)' color='rgb(255,   0,   0)'/>
	<use xlink:href='#gpPt5' transform='translate(108.2,136.2) scale(2.25)' color='rgb(255,   0,   0)'/>
	<use xlink:href='#gpPt5' transform='translate(108.8,144.1) scale(2.25)' color='rgb(255,   0,   0)'/>
	<use xlink:href='#gpPt5' transform='translate(109.5,152.1) scale(2.25)' color='rgb(255,   0,   0)'/>
	<use xlink:href='#gpPt5' transform='translate(110.1,159.8) scale(2.25)' color='rgb(255,   0,   0)'/>
	<use xlink:href='#gpPt5' transform='translate(110.7,167.2) scale(2.25)' color='rgb(255,   0,   0)'/>
	<use xlink:href='#gpPt5' transform='translate(111.4,174.1) scale(2.25)' color='rgb(255,   0,   0)'/>
	<use xlink:href='#gpPt5' transform='translate(112.0,180.6) scale(2.25)' color='rgb(255,   0,   0)'/>
	<use xlink:href='#gpPt5' transform='translate(112.7,186.7) scale(2.25)' color='rgb(255,   0,   0)'/>
	<use xlink:href='#gpPt5' transform='translate(113.3,192.5) scale(2.25)' color='rgb(255,   0,   0)'/>
	<use xlink:href='#gpPt5' transform='translate(113.9,197.9) scale(2.25)' color='rgb(255,   0,   0)'/>
	<use xlink:href='#gpPt5' transform='translate(114.6,203.2) scale(2.25)' color='rgb(255,   0,   0)'/>
	<use xlink:href='#gpPt5' transform='translate(115.2,208.2) scale(2.25)' color='rgb(255,   0,   0)'/>
	<use xlink:href='#gpPt5' transform='translate(115.9,212.9) scale(2.25)' color='rgb(255,   0,   0)'/>
	<use xlink:href='#gpPt5' transform='translate(116.5,217.4) scale(2.25)' color='rgb(255,   0,   0)'/>
	<use xlink:href='#gpPt5' transform='translate(122.9,251.6) scale(2.25)' color='rgb(255,   0,   0)'/>
	<use xlink:href='#gpPt5' transform='translate(129.3,272.5) scale(2.25)' color='rgb(255,   0,   0)'/>
	<use xlink:href='#gpPt5' transform='translate(135.7,286.2) scale(2.25)' color='rgb(255,   0,   0)'/>
	<use xlink:href='#gpPt5' transform='translate(142.1,295.7) scale(2.25)' color='rgb(255,   0,   0)'/>
	<use xlink:href='#gpPt5' transform='translate(154.9,308.8) scale(2.25)' color='rgb(255,   0,   0)'/>
	<use xlink:href='#gpPt5' transform='translate(167.7,318.6) scale(2.25)' color='rgb(255,   0,   0)'/>
	<use xlink:href='#gpPt5' transform='translate(180.5,327.3) scale(2.25)' color='rgb(255,   0,   0)'/>
	<use xlink:href='#gpPt5' transform='translate(193.2,335.7) scale(2.25)' color='rgb(255,   0,   0)'/>
	<use xlink:href='#gpPt5' transform='translate(206.0,344.0) scale(2.25)' color='rgb(255,   0,   0)'/>
	<use xlink:href='#gpPt5' transform='translate(218.8,352.5) scale(2.25)' color='rgb(255,   0,   0)'/>
	<use xlink:href='#gpPt5' transform='translate(231.6,361.0) scale(2.25)' color='rgb(255,   0,   0)'/>
	<use xlink:href='#gpPt5' transform='translate(244.4,369.7) scale(2.25)' color='rgb(255,   0,   0)'/>
	<use xlink:href='#gpPt5' transform='translate(257.2,378.5) scale(2.25)' color='rgb(255,   0,   0)'/>
	<use xlink:href='#gpPt5' transform='translate(270.0,387.4) scale(2.25)' color='rgb(255,   0,   0)'/>
	<use xlink:href='#gpPt5' transform='translate(282.8,396.4) scale(2.25)' color='rgb(255,   0,   0)'/>
	<use xlink:href='#gpPt5' transform='translate(295.6,405.4) scale(2.25)' color='rgb(255,   0,   0)'/>
	<use xlink:href='#gpPt5' transform='translate(308.4,414.4) scale(2.25)' color='rgb(255,   0,   0)'/>
	<use xlink:href='#gpPt5' transform='translate(321.2,423.4) scale(2.25)' color='rgb(255,   0,   0)'/>
	<use xlink:href='#gpPt5' transform='translate(334.0,432.5) scale(2.25)' color='rgb(255,   0,   0)'/>
	<use xlink:href='#gpPt5' transform='translate(346.8,441.5) scale(2.25)' color='rgb(255,   0,   0)'/>
	<use xlink:href='#gpPt5' transform='translate(359.5,450.5) scale(2.25)' color='rgb(255,   0,   0)'/>
	<use xlink:href='#gpPt5' transform='translate(372.3,459.4) scale(2.25)' color='rgb(255,   0,   0)'/>
	<use xlink:href='#gpPt5' transform='translate(385.1,468.3) scale(2.25)' color='rgb(255,   0,   0)'/>
	<use xlink:href='#gpPt5' transform='translate(397.9,477.1) scale(2.25)' color='rgb(255,   0,   0)'/>
	<use xlink:href='#gpPt5' transform='translate(410.7,485.9) scale(2.25)' color='rgb(255,   0,   0)'/>
	<use xlink:href='#gpPt5' transform='translate(423.5,494.5) scale(2.25)' color='rgb(255,   0,   0)'/>
	<use xlink:href='#gpPt5' transform='translate(436.3,503.1) scale(2.25)' color='rgb(255,   0,   0)'/>
	<use xlink:href='#gpPt5' transform='translate(449.1,511.5) scale(2.25)' color='rgb(255,   0,   0)'/>
	<use xlink:href='#gpPt5' transform='translate(461.9,519.9) scale(2.25)' color='rgb(255,   0,   0)'/>
	<use xlink:href='#gpPt5' transform='translate(474.7,528.1) scale(2.25)' color='rgb(255,   0,   0)'/>
	<use xlink:href='#gpPt5' transform='translate(487.5,536.2) scale(2.25)' color='rgb(255,   0,   0)'/>
	<use xlink:href='#gpPt5' transform='translate(500.3,544.2) scale(2.25)' color='rgb(255,   0,   0)'/>
	<use xlink:href='#gpPt5' transform='translate(513.1,552.1) scale(2.25)' color='rgb(255,   0,   0)'/>
	<use xlink:href='#gpPt5' transform='translate(525.8,559.7) scale(2.25)' color='rgb(255,   0,   0)'/>
	<use xlink:href='#gpPt5' transform='translate(538.6,567.3) scale(2.25)' color='rgb(255,   0,   0)'/>
	<use xlink:href='#gpPt5' transform='translate(551.4,574.7) scale(2.25)' color='rgb(255,   0,   0)'/>
	<use xlink:href='#gpPt5' transform='translate(564.2,581.8) scale(2.25)' color='rgb(255,   0,   0)'/>
	<use xlink:href='#gpPt5' transform='translate(577.0,588.9) scale(2.25)' color='rgb(255,   0,   0)'/>
	<use xlink:href='#gpPt5' transform='translate(589.8,595.8) scale(2.25)' color='rgb(255,   0,   0)'/>
	<use xlink:href='#gpPt5' transform='translate(602.6,602.5) scale(2.25)' color='rgb(255,   0,   0)'/>
	<use xlink:href='#gpPt5' transform='translate(615.4,608.9) scale(2.25)' color='rgb(255,   0,   0)'/>
	<use xlink:href='#gpPt5' transform='translate(628.2,615.1) scale(2.25)' color='rgb(255,   0,   0)'/>
	<use xlink:href='#gpPt5' transform='translate(641.0,621.2) scale(2.25)' color='rgb(255,   0,   0)'/>
	<use xlink:href='#gpPt5' transform='translate(653.8,627.0) scale(2.25)' color='rgb(255,   0,   0)'/>
	<use xlink:href='#gpPt5' transform='translate(666.6,632.6) scale(2.25)' color='rgb(255,   0,   0)'/>
	<use xlink:href='#gpPt5' transform='translate(679.4,637.9) scale(2.25)' color='rgb(255,   0,   0)'/>
	<use xlink:href='#gpPt5' transform='translate(692.1,642.9) scale(2.25)' color='rgb(255,   0,   0)'/>
	<use xlink:href='#gpPt5' transform='translate(704.9,647.7) scale(2.25)' color='rgb(255,   0,   0)'/>
	<use xlink:href='#gpPt5' transform='translate(717.7,652.2) scale(2.25)' color='rgb(255,   0,   0)'/>
	<use xlink:href='#gpPt5' transform='translate(730.5,656.4) scale(2.25)' color='rgb(255,   0,   0)'/>
	<use xlink:href='#gpPt5' transform='translate(743.3,660.4) scale(2.25)' color='rgb(255,   0,   0)'/>
	<use xlink:href='#gpPt5' transform='translate(756.1,664.0) scale(2.25)' color='rgb(255,   0,   0)'/>
	<use xlink:href='#gpPt5' transform='translate(768.9,667.3) scale(2.25)' color='rgb(255,   0,   0)'/>
	<use xlink:href='#gpPt5' transform='translate(781.7,670.4) scale(2.25)' color='rgb(255,   0,   0)'/>
	<use xlink:href='#gpPt5' transform='translate(794.5,673.1) scale(2.25)' color='rgb(255,   0,   0)'/>
	<use xlink:href='#gpPt5' transform='translate(807.3,675.5) scale(2.25)' color='rgb(255,   0,   0)'/>
	<use xlink:href='#gpPt5' transform='translate(820.1,677.6) scale(2.25)' color='rgb(255,   0,   0)'/>
	<use xlink:href='#gpPt5' transform='translate(832.9,679.4) scale(2.25)' color='rgb(255,   0,   0)'/>
	<use xlink:href='#gpPt5' transform='translate(845.6,680.9) scale(2.25)' color='rgb(255,   0,   0)'/>
	<use xlink:href='#gpPt5' transform='translate(858.4,682.1) scale(2.25)' color='rgb(255,   0,   0)'/>
	<use xlink:href='#gpPt5' transform='translate(871.2,683.0) scale(2.25)' color='rgb(255,   0,   0)'/>
	<use xlink:href='#gpPt5' transform='translate(884.0,683.6) scale(2.25)' color='rgb(255,   0,   0)'/>
	<use xlink:href='#gpPt5' transform='translate(896.8,683.9) scale(2.25)' color='rgb(255,   0,   0)'/>
	<use xlink:href='#gpPt5' transform='translate(909.6,684.0) scale(2.25)' color='rgb(255,   0,   0)'/>
	<use xlink:href='#gpPt5' transform='translate(922.4,683.8) scale(2.25)' color='rgb(255,   0,   0)'/>
	<use xlink:href='#gpPt5' transform='translate(935.2,683.4) scale(2.25)' color='rgb(255,   0,   0)'/>
	<use xlink:href='#gpPt5' transform='translate(948.0,682.7) scale(2.25)' color='rgb(255,   0,   0)'/>
	<use xlink:href='#gpPt5' transform='translate(960.8,681.8) scale(2.25)' color='rgb(255,   0,   0)'/>
	<use xlink:href='#gpPt5' transform='translate(973.6,680.7) scale(2.25)' color='rgb(255,   0,   0)'/>
	<use xlink:href='#gpPt5' transform='translate(986.4,679.3) scale(2.25)' color='rgb(255,   0,   0)'/>
	<use xlink:href='#gpPt5' transform='translate(999.2,677.8) scale(2.25)' color='rgb(255,   0,   0)'/>
	<use xlink:href='#gpPt5' transform='translate(1011.9,676.1) scale(2.25)' color='rgb(255,   0,   0)'/>
	<use xlink:href='#gpPt5' transform='translate(1024.7,674.2) scale(2.25)' color='rgb(255,   0,   0)'/>
	<use xlink:href='#gpPt5' transform='translate(1037.5,672.2) scale(2.25)' color='rgb(255,   0,   0)'/>
	<use xlink:href='#gpPt5' transform='translate(1050.3,670.1) scale(2.25)' color='rgb(255,   0,   0)'/>
	<use xlink:href='#gpPt5' transform='translate(1063.1,667.8) scale(2.25)' color='rgb(255,   0,   0)'/>
	<use xlink:href='#gpPt5' transform='translate(1075.9,665.5) scale(2.25)' color='rgb(255,   0,   0)'/>
	<use xlink:href='#gpPt5' transform='translate(1088.7,663.1) scale(2.25)' color='rgb(255,   0,   0)'/>
	<use xlink:href='#gpPt5' transform='translate(1101.5,660.7) scale(2.25)' color='rgb(255,   0,   0)'/>
	<use xlink:href='#gpPt5' transform='translate(1114.3,658.4) scale(2.25)' color='rgb(255,   0,   0)'/>
	<use xlink:href='#gpPt5' transform='translate(1127.1,656.4) scale(2.25)' color='rgb(255,   0,   0)'/>
	<use xlink:href='#gpPt5' transform='translate(1139.9,654.8) scale(2.25)' color='rgb(255,   0,   0)'/>
	<use xlink:href='#gpPt5' transform='translate(1152.7,653.4) scale(2.25)' color='rgb(255,   0,   0)'/>
	<use xlink:href='#gpPt5' transform='translate(1165.5,652.3) scale(2.25)' color='rgb(255,   0,   0)'/>
	<use xlink:href='#gpPt5' transform='translate(1178.2,651.2) scale(2.25)' color='rgb(255,   0,   0)'/>
	<use xlink:href='#gpPt5' transform='translate(1191.0,649.8) scale(2.25)' color='rgb(255,   0,   0)'/>
	<use xlink:href='#gpPt5' transform='translate(1203.8,648.0) scale(2.25)' color='rgb(255,   0,   0)'/>
	<use xlink:href='#gpPt5' transform='translate(1216.6,645.7) scale(2.25)' color='rgb(255,   0,   0)'/>
	<use xlink:href='#gpPt5' transform='translate(1229.4,643.7) scale(2.25)' color='rgb(255,   0,   0)'/>
	<use xlink:href='#gpPt5' transform='translate(1242.2,642.6) scale(2.25)' color='rgb(255,   0,   0)'/>
	<use xlink:href='#gpPt5' transform='translate(1255.0,641.5) scale(2.25)' color='rgb(255,   0,   0)'/>
	<use xlink:href='#gpPt5' transform='translate(1217.3,72.1) scale(2.25)' color='rgb(255,   0,   0)'/>
</g>
	</g>
	<g id="gnuplot_plot_2" ><title>gnuplot_plot_2</title>
<g fill="none" color="black" stroke="currentColor" stroke-width="1.00" stroke-linecap="butt" stroke-linejoin="miter">
	<use xlink:href='#gpPt5' transform='translate(103.7,88.4) scale(2.25)' color='rgb(  0, 100,   0)'/>
	<use xlink:href='#gpPt5' transform='translate(104.3,89.3) scale(2.25)' color='rgb(  0, 100,   0)'/>
	<use xlink:href='#gpPt5' transform='translate(105.0,92.0) scale(2.25)' color='rgb(  0, 100,   0)'/>
	<use xlink:href='#gpPt5' transform='translate(105.6,96.5) scale(2.25)' color='rgb(  0, 100,   0)'/>
	<use xlink:href='#gpPt5' transform='translate(106.3,102.5) scale(2.25)' color='rgb(  0, 100,   0)'/>
	<use xlink:href='#gpPt5' transform='translate(106.9,109.6) scale(2.25)' color='rgb(  0, 100,   0)'/>
	<use xlink:href='#gpPt5' transform='translate(107.5,117.7) scale(2.25)' color='rgb(  0, 100,   0)'/>
	<use xlink:href='#gpPt5' transform='translate(108.2,126.3) scale(2.25)' color='rgb(  0, 100,   0)'/>
	<use xlink:href='#gpPt5' transform='translate(108.8,134.9) scale(2.25)' color='rgb(  0, 100,   0)'/>
	<use xlink:href='#gpPt5' transform='translate(109.5,143.4) scale(2.25)' color='rgb(  0, 100,   0)'/>
	<use xlink:href='#gpPt5' transform='translate(110.1,151.5) scale(2.25)' color='rgb(  0, 100,   0)'/>
	<use xlink:href='#gpPt5' transform='translate(110.7,159.1) scale(2.25)' color='rgb(  0, 100,   0)'/>
	<use xlink:href='#gpPt5' transform='translate(111.4,166.1) scale(2.25)' color='rgb(  0, 100,   0)'/>
	<use xlink:href='#gpPt5' transform='translate(112.0,172.7) scale(2.25)' color='rgb(  0, 100,   0)'/>
	<use xlink:href='#gpPt5' transform='translate(112.7,178.9) scale(2.25)' color='rgb(  0, 100,   0)'/>
	<use xlink:href='#gpPt5' transform='translate(113.3,184.7) scale(2.25)' color='rgb(  0, 100,   0)'/>
	<use xlink:href='#gpPt5' transform='translate(113.9,190.3) scale(2.25)' color='rgb(  0, 100,   0)'/>
	<use xlink:href='#gpPt5' transform='translate(114.6,195.6) scale(2.25)' color='rgb(  0, 100,   0)'/>
	<use xlink:href='#gpPt5' transform='translate(115.2,200.6) scale(2.25)' color='rgb(  0, 100,   0)'/>
	<use xlink:href='#gpPt5' transform='translate(115.9,205.3) scale(2.25)' color='rgb(  0, 100,   0)'/>
	<use xlink:href='#gpPt5' transform='translate(116.5,209.7) scale(2.25)' color='rgb(  0, 100,   0)'/>
	<use xlink:href='#gpPt5' transform='translate(122.9,242.7) scale(2.25)' color='rgb(  0, 100,   0)'/>
	<use xlink:href='#gpPt5' transform='translate(129.3,262.3) scale(2.25)' color='rgb(  0, 100,   0)'/>
	<use xlink:href='#gpPt5' transform='translate(135.7,274.7) scale(2.25)' color='rgb(  0, 100,   0)'/>
	<use xlink:href='#gpPt5' transform='translate(142.1,283.4) scale(2.25)' color='rgb(  0, 100,   0)'/>
	<use xlink:href='#gpPt5' transform='translate(154.9,295.7) scale(2.25)' color='rgb(  0, 100,   0)'/>
	<use xlink:href='#gpPt5' transform='translate(167.7,305.2) scale(2.25)' color='rgb(  0, 100,   0)'/>
	<use xlink:href='#gpPt5' transform='translate(180.5,313.9) scale(2.25)' color='rgb(  0, 100,   0)'/>
	<use xlink:href='#gpPt5' transform='translate(193.2,322.4) scale(2.25)' color='rgb(  0, 100,   0)'/>
	<use xlink:href='#gpPt5' transform='translate(206.0,331.0) scale(2.25)' color='rgb(  0, 100,   0)'/>
	<use xlink:href='#gpPt5' transform='translate(218.8,339.7) scale(2.25)' color='rgb(  0, 100,   0)'/>
	<use xlink:href='#gpPt5' transform='translate(231.6,348.4) scale(2.25)' color='rgb(  0, 100,   0)'/>
	<use xlink:href='#gpPt5' transform='translate(244.4,357.4) scale(2.25)' color='rgb(  0, 100,   0)'/>
	<use xlink:href='#gpPt5' transform='translate(257.2,366.5) scale(2.25)' color='rgb(  0, 100,   0)'/>
	<use xlink:href='#gpPt5' transform='translate(270.0,375.6) scale(2.25)' color='rgb(  0, 100,   0)'/>
	<use xlink:href='#gpPt5' transform='translate(282.8,384.8) scale(2.25)' color='rgb(  0, 100,   0)'/>
	<use xlink:href='#gpPt5' transform='translate(295.6,394.0) scale(2.25)' color='rgb(  0, 100,   0)'/>
	<use xlink:href='#gpPt5' transform='translate(308.4,403.3) scale(2.25)' color='rgb(  0, 100,   0)'/>
	<use xlink:href='#gpPt5' transform='translate(321.2,412.5) scale(2.25)' color='rgb(  0, 100,   0)'/>
	<use xlink:href='#gpPt5' transform='translate(334.0,421.8) scale(2.25)' color='rgb(  0, 100,   0)'/>
	<use xlink:href='#gpPt5' transform='translate(346.8,430.9) scale(2.25)' color='rgb(  0, 100,   0)'/>
	<use xlink:href='#gpPt5' transform='translate(359.5,440.1) scale(2.25)' color='rgb(  0, 100,   0)'/>
	<use xlink:href='#gpPt5' transform='translate(372.3,449.3) scale(2.25)' color='rgb(  0, 100,   0)'/>
	<use xlink:href='#gpPt5' transform='translate(385.1,458.3) scale(2.25)' color='rgb(  0, 100,   0)'/>
	<use xlink:href='#gpPt5' transform='translate(397.9,467.2) scale(2.25)' color='rgb(  0, 100,   0)'/>
	<use xlink:href='#gpPt5' transform='translate(410.7,476.1) scale(2.25)' color='rgb(  0, 100,   0)'/>
	<use xlink:href='#gpPt5' transform='translate(423.5,484.9) scale(2.25)' color='rgb(  0, 100,   0)'/>
	<use xlink:href='#gpPt5' transform='translate(436.3,493.6) scale(2.25)' color='rgb(  0, 100,   0)'/>
	<use xlink:href='#gpPt5' transform='translate(449.1,502.2) scale(2.25)' color='rgb(  0, 100,   0)'/>
	<use xlink:href='#gpPt5' transform='translate(461.9,510.6) scale(2.25)' color='rgb(  0, 100,   0)'/>
	<use xlink:href='#gpPt5' transform='translate(474.7,519.0) scale(2.25)' color='rgb(  0, 100,   0)'/>
	<use xlink:href='#gpPt5' transform='translate(487.5,527.2) scale(2.25)' color='rgb(  0, 100,   0)'/>
	<use xlink:href='#gpPt5' transform='translate(500.3,535.2) scale(2.25)' color='rgb(  0, 100,   0)'/>
	<use xlink:href='#gpPt5' transform='translate(513.1,543.2) scale(2.25)' color='rgb(  0, 100,   0)'/>
	<use xlink:href='#gpPt5' transform='translate(525.8,550.9) scale(2.25)' color='rgb(  0, 100,   0)'/>
	<use xlink:href='#gpPt5' transform='translate(538.6,558.6) scale(2.25)' color='rgb(  0, 100,   0)'/>
	<use xlink:href='#gpPt5' transform='translate(551.4,566.0) scale(2.25)' color='rgb(  0, 100,   0)'/>
	<use xlink:href='#gpPt5' transform='translate(564.2,573.3) scale(2.25)' color='rgb(  0, 100,   0)'/>
	<use xlink:href='#gpPt5' transform='translate(577.0,580.4) scale(2.25)' color='rgb(  0, 100,   0)'/>
	<use xlink:href='#gpPt5' transform='translate(589.8,587.3) scale(2.25)' color='rgb(  0, 100,   0)'/>
	<use xlink:href='#gpPt5' transform='translate(602.6,594.0) scale(2.25)' color='rgb(  0, 100,   0)'/>
	<use xlink:href='#gpPt5' transform='translate(615.4,600.6) scale(2.25)' color='rgb(  0, 100,   0)'/>
	<use xlink:href='#gpPt5' transform='translate(628.2,606.8) scale(2.25)' color='rgb(  0, 100,   0)'/>
	<use xlink:href='#gpPt5' transform='translate(641.0,612.9) scale(2.25)' color='rgb(  0, 100,   0)'/>
	<use xlink:href='#gpPt5' transform='translate(653.8,618.8) scale(2.25)' color='rgb(  0, 100,   0)'/>
	<use xlink:href='#gpPt5' transform='translate(666.6,624.4) scale(2.25)' color='rgb(  0, 100,   0)'/>
	<use xlink:href='#gpPt5' transform='translate(679.4,629.7) scale(2.25)' color='rgb(  0, 100,   0)'/>
	<use xlink:href='#gpPt5' transform='translate(692.1,634.8) scale(2.25)' color='rgb(  0, 100,   0)'/>
	<use xlink:href='#gpPt5' transform='translate(704.9,639.6) scale(2.25)' color='rgb(  0, 100,   0)'/>
	<use xlink:href='#gpPt5' transform='translate(717.7,644.1) scale(2.25)' color='rgb(  0, 100,   0)'/>
	<use xlink:href='#gpPt5' transform='translate(730.5,648.4) scale(2.25)' color='rgb(  0, 100,   0)'/>
	<use xlink:href='#gpPt5' transform='translate(743.3,652.3) scale(2.25)' color='rgb(  0, 100,   0)'/>
	<use xlink:href='#gpPt5' transform='translate(756.1,656.0) scale(2.25)' color='rgb(  0, 100,   0)'/>
	<use xlink:href='#gpPt5' transform='translate(768.9,659.3) scale(2.25)' color='rgb(  0, 100,   0)'/>
	<use xlink:href='#gpPt5' transform='translate(781.7,662.3) scale(2.25)' color='rgb(  0, 100,   0)'/>
	<use xlink:href='#gpPt5' transform='translate(794.5,665.1) scale(2.25)' color='rgb(  0, 100,   0)'/>
	<use xlink:href='#gpPt5' transform='translate(807.3,667.5) scale(2.25)' color='rgb(  0, 100,   0)'/>
	<use xlink:href='#gpPt5' transform='translate(820.1,669.6) scale(2.25)' color='rgb(  0, 100,   0)'/>
	<use xlink:href='#gpPt5' transform='translate(832.9,671.5) scale(2.25)' color='rgb(  0, 100,   0)'/>
	<use xlink:href='#gpPt5' transform='translate(845.6,673.0) scale(2.25)' color='rgb(  0, 100,   0)'/>
	<use xlink:href='#gpPt5' transform='translate(858.4,674.1) scale(2.25)' color='rgb(  0, 100,   0)'/>
	<use xlink:href='#gpPt5' transform='translate(871.2,675.1) scale(2.25)' color='rgb(  0, 100,   0)'/>
	<use xlink:href='#gpPt5' transform='translate(884.0,675.7) scale(2.25)' color='rgb(  0, 100,   0)'/>
	<use xlink:href='#gpPt5' transform='translate(896.8,676.0) scale(2.25)' color='rgb(  0, 100,   0)'/>
	<use xlink:href='#gpPt5' transform='translate(909.6,676.1) scale(2.25)' color='rgb(  0, 100,   0)'/>
	<use xlink:href='#gpPt5' transform='translate(922.4,675.9) scale(2.25)' color='rgb(  0, 100,   0)'/>
	<use xlink:href='#gpPt5' transform='translate(935.2,675.4) scale(2.25)' color='rgb(  0, 100,   0)'/>
	<use xlink:href='#gpPt5' transform='translate(948.0,674.6) scale(2.25)' color='rgb(  0, 100,   0)'/>
	<use xlink:href='#gpPt5' transform='translate(960.8,673.7) scale(2.25)' color='rgb(  0, 100,   0)'/>
	<use xlink:href='#gpPt5' transform='translate(973.6,672.5) scale(2.25)' color='rgb(  0, 100,   0)'/>
	<use xlink:href='#gpPt5' transform='translate(986.4,671.1) scale(2.25)' color='rgb(  0, 100,   0)'/>
	<use xlink:href='#gpPt5' transform='translate(999.2,669.4) scale(2.25)' color='rgb(  0, 100,   0)'/>
	<use xlink:href='#gpPt5' transform='translate(1011.9,667.6) scale(2.25)' color='rgb(  0, 100,   0)'/>
	<use xlink:href='#gpPt5' transform='translate(1024.7,665.6) scale(2.25)' color='rgb(  0, 100,   0)'/>
	<use xlink:href='#gpPt5' transform='translate(1037.5,663.5) scale(2.25)' color='rgb(  0, 100,   0)'/>
	<use xlink:href='#gpPt5' transform='translate(1050.3,661.2) scale(2.25)' color='rgb(  0, 100,   0)'/>
	<use xlink:href='#gpPt5' transform='translate(1063.1,658.9) scale(2.25)' color='rgb(  0, 100,   0)'/>
	<use xlink:href='#gpPt5' transform='translate(1075.9,656.5) scale(2.25)' color='rgb(  0, 100,   0)'/>
	<use xlink:href='#gpPt5' transform='translate(1088.7,654.0) scale(2.25)' color='rgb(  0, 100,   0)'/>
	<use xlink:href='#gpPt5' transform='translate(1101.5,651.7) scale(2.25)' color='rgb(  0, 100,   0)'/>
	<use xlink:href='#gpPt5' transform='translate(1114.3,649.5) scale(2.25)' color='rgb(  0, 100,   0)'/>
	<use xlink:href='#gpPt5' transform='translate(1127.1,647.4) scale(2.25)' color='rgb(  0, 100,   0)'/>
	<use xlink:href='#gpPt5' transform='translate(1139.9,645.7) scale(2.25)' color='rgb(  0, 100,   0)'/>
	<use xlink:href='#gpPt5' transform='translate(1152.7,644.7) scale(2.25)' color='rgb(  0, 100,   0)'/>
	<use xlink:href='#gpPt5' transform='translate(1165.5,644.1) scale(2.25)' color='rgb(  0, 100,   0)'/>
	<use xlink:href='#gpPt5' transform='translate(1178.2,643.3) scale(2.25)' color='rgb(  0, 100,   0)'/>
	<use xlink:href='#gpPt5' transform='translate(1191.0,642.1) scale(2.25)' color='rgb(  0, 100,   0)'/>
	<use xlink:href='#gpPt5' transform='translate(1203.8,640.1) scale(2.25)' color='rgb(  0, 100,   0)'/>
	<use xlink:href='#gpPt5' transform='translate(1216.6,637.8) scale(2.25)' color='rgb(  0, 100,   0)'/>
	<use xlink:href='#gpPt5' transform='translate(1229.4,635.5) scale(2.25)' color='rgb(  0, 100,   0)'/>
	<use xlink:href='#gpPt5' transform='translate(1242.2,633.9) scale(2.25)' color='rgb(  0, 100,   0)'/>
	<use xlink:href='#gpPt5' transform='translate(1255.0,632.6) scale(2.25)' color='rgb(  0, 100,   0)'/>
</g>
	</g>
	<g id="gnuplot_plot_3" ><title>gnuplot_plot_3</title>
<g fill="none" color="black" stroke="currentColor" stroke-width="1.00" stroke-linecap="butt" stroke-linejoin="miter">
	<use xlink:href='#gpPt5' transform='translate(103.7,54.1) scale(2.25)' color='rgb(  0,   0, 255)'/>
	<use xlink:href='#gpPt5' transform='translate(104.3,55.5) scale(2.25)' color='rgb(  0,   0, 255)'/>
	<use xlink:href='#gpPt5' transform='translate(105.0,59.5) scale(2.25)' color='rgb(  0,   0, 255)'/>
	<use xlink:href='#gpPt5' transform='translate(105.6,66.1) scale(2.25)' color='rgb(  0,   0, 255)'/>
	<use xlink:href='#gpPt5' transform='translate(106.3,74.5) scale(2.25)' color='rgb(  0,   0, 255)'/>
	<use xlink:href='#gpPt5' transform='translate(106.9,84.3) scale(2.25)' color='rgb(  0,   0, 255)'/>
	<use xlink:href='#gpPt5' transform='translate(107.5,94.8) scale(2.25)' color='rgb(  0,   0, 255)'/>
	<use xlink:href='#gpPt5' transform='translate(108.2,105.3) scale(2.25)' color='rgb(  0,   0, 255)'/>
	<use xlink:href='#gpPt5' transform='translate(108.8,115.4) scale(2.25)' color='rgb(  0,   0, 255)'/>
	<use xlink:href='#gpPt5' transform='translate(109.5,124.7) scale(2.25)' color='rgb(  0,   0, 255)'/>
	<use xlink:href='#gpPt5' transform='translate(110.1,133.2) scale(2.25)' color='rgb(  0,   0, 255)'/>
	<use xlink:href='#gpPt5' transform='translate(110.7,141.0) scale(2.25)' color='rgb(  0,   0, 255)'/>
	<use xlink:href='#gpPt5' transform='translate(111.4,148.4) scale(2.25)' color='rgb(  0,   0, 255)'/>
	<use xlink:href='#gpPt5' transform='translate(112.0,155.2) scale(2.25)' color='rgb(  0,   0, 255)'/>
	<use xlink:href='#gpPt5' transform='translate(112.7,161.6) scale(2.25)' color='rgb(  0,   0, 255)'/>
	<use xlink:href='#gpPt5' transform='translate(113.3,167.6) scale(2.25)' color='rgb(  0,   0, 255)'/>
	<use xlink:href='#gpPt5' transform='translate(113.9,173.2) scale(2.25)' color='rgb(  0,   0, 255)'/>
	<use xlink:href='#gpPt5' transform='translate(114.6,178.3) scale(2.25)' color='rgb(  0,   0, 255)'/>
	<use xlink:href='#gpPt5' transform='translate(115.2,183.1) scale(2.25)' color='rgb(  0,   0, 255)'/>
	<use xlink:href='#gpPt5' transform='translate(115.9,187.6) scale(2.25)' color='rgb(  0,   0, 255)'/>
	<use xlink:href='#gpPt5' transform='translate(116.5,191.8) scale(2.25)' color='rgb(  0,   0, 255)'/>
	<use xlink:href='#gpPt5' transform='translate(122.9,221.5) scale(2.25)' color='rgb(  0,   0, 255)'/>
	<use xlink:href='#gpPt5' transform='translate(129.3,237.8) scale(2.25)' color='rgb(  0,   0, 255)'/>
	<use xlink:href='#gpPt5' transform='translate(135.7,248.1) scale(2.25)' color='rgb(  0,   0, 255)'/>
	<use xlink:href='#gpPt5' transform='translate(142.1,255.4) scale(2.25)' color='rgb(  0,   0, 255)'/>
	<use xlink:href='#gpPt5' transform='translate(154.9,266.4) scale(2.25)' color='rgb(  0,   0, 255)'/>
	<use xlink:href='#gpPt5' transform='translate(167.7,275.8) scale(2.25)' color='rgb(  0,   0, 255)'/>
	<use xlink:href='#gpPt5' transform='translate(180.5,284.9) scale(2.25)' color='rgb(  0,   0, 255)'/>
	<use xlink:href='#gpPt5' transform='translate(193.2,293.9) scale(2.25)' color='rgb(  0,   0, 255)'/>
	<use xlink:href='#gpPt5' transform='translate(206.0,303.1) scale(2.25)' color='rgb(  0,   0, 255)'/>
	<use xlink:href='#gpPt5' transform='translate(218.8,312.3) scale(2.25)' color='rgb(  0,   0, 255)'/>
	<use xlink:href='#gpPt5' transform='translate(231.6,321.7) scale(2.25)' color='rgb(  0,   0, 255)'/>
	<use xlink:href='#gpPt5' transform='translate(244.4,331.3) scale(2.25)' color='rgb(  0,   0, 255)'/>
	<use xlink:href='#gpPt5' transform='translate(257.2,340.8) scale(2.25)' color='rgb(  0,   0, 255)'/>
	<use xlink:href='#gpPt5' transform='translate(270.0,350.5) scale(2.25)' color='rgb(  0,   0, 255)'/>
	<use xlink:href='#gpPt5' transform='translate(282.8,360.2) scale(2.25)' color='rgb(  0,   0, 255)'/>
	<use xlink:href='#gpPt5' transform='translate(295.6,369.9) scale(2.25)' color='rgb(  0,   0, 255)'/>
	<use xlink:href='#gpPt5' transform='translate(308.4,379.6) scale(2.25)' color='rgb(  0,   0, 255)'/>
	<use xlink:href='#gpPt5' transform='translate(321.2,389.3) scale(2.25)' color='rgb(  0,   0, 255)'/>
	<use xlink:href='#gpPt5' transform='translate(334.0,399.0) scale(2.25)' color='rgb(  0,   0, 255)'/>
	<use xlink:href='#gpPt5' transform='translate(346.8,408.6) scale(2.25)' color='rgb(  0,   0, 255)'/>
	<use xlink:href='#gpPt5' transform='translate(359.5,418.2) scale(2.25)' color='rgb(  0,   0, 255)'/>
	<use xlink:href='#gpPt5' transform='translate(372.3,427.6) scale(2.25)' color='rgb(  0,   0, 255)'/>
	<use xlink:href='#gpPt5' transform='translate(385.1,437.0) scale(2.25)' color='rgb(  0,   0, 255)'/>
	<use xlink:href='#gpPt5' transform='translate(397.9,446.3) scale(2.25)' color='rgb(  0,   0, 255)'/>
	<use xlink:href='#gpPt5' transform='translate(410.7,455.5) scale(2.25)' color='rgb(  0,   0, 255)'/>
	<use xlink:href='#gpPt5' transform='translate(423.5,464.5) scale(2.25)' color='rgb(  0,   0, 255)'/>
	<use xlink:href='#gpPt5' transform='translate(436.3,473.5) scale(2.25)' color='rgb(  0,   0, 255)'/>
	<use xlink:href='#gpPt5' transform='translate(449.1,482.3) scale(2.25)' color='rgb(  0,   0, 255)'/>
	<use xlink:href='#gpPt5' transform='translate(461.9,491.0) scale(2.25)' color='rgb(  0,   0, 255)'/>
	<use xlink:href='#gpPt5' transform='translate(474.7,499.5) scale(2.25)' color='rgb(  0,   0, 255)'/>
	<use xlink:href='#gpPt5' transform='translate(487.5,507.9) scale(2.25)' color='rgb(  0,   0, 255)'/>
	<use xlink:href='#gpPt5' transform='translate(500.3,516.2) scale(2.25)' color='rgb(  0,   0, 255)'/>
	<use xlink:href='#gpPt5' transform='translate(513.1,524.2) scale(2.25)' color='rgb(  0,   0, 255)'/>
	<use xlink:href='#gpPt5' transform='translate(525.8,532.2) scale(2.25)' color='rgb(  0,   0, 255)'/>
	<use xlink:href='#gpPt5' transform='translate(538.6,539.9) scale(2.25)' color='rgb(  0,   0, 255)'/>
	<use xlink:href='#gpPt5' transform='translate(551.4,547.5) scale(2.25)' color='rgb(  0,   0, 255)'/>
	<use xlink:href='#gpPt5' transform='translate(564.2,554.9) scale(2.25)' color='rgb(  0,   0, 255)'/>
	<use xlink:href='#gpPt5' transform='translate(577.0,562.1) scale(2.25)' color='rgb(  0,   0, 255)'/>
	<use xlink:href='#gpPt5' transform='translate(589.8,569.0) scale(2.25)' color='rgb(  0,   0, 255)'/>
	<use xlink:href='#gpPt5' transform='translate(602.6,575.8) scale(2.25)' color='rgb(  0,   0, 255)'/>
	<use xlink:href='#gpPt5' transform='translate(615.4,582.4) scale(2.25)' color='rgb(  0,   0, 255)'/>
	<use xlink:href='#gpPt5' transform='translate(628.2,588.8) scale(2.25)' color='rgb(  0,   0, 255)'/>
	<use xlink:href='#gpPt5' transform='translate(641.0,594.9) scale(2.25)' color='rgb(  0,   0, 255)'/>
	<use xlink:href='#gpPt5' transform='translate(653.8,600.8) scale(2.25)' color='rgb(  0,   0, 255)'/>
	<use xlink:href='#gpPt5' transform='translate(666.6,606.4) scale(2.25)' color='rgb(  0,   0, 255)'/>
	<use xlink:href='#gpPt5' transform='translate(679.4,611.8) scale(2.25)' color='rgb(  0,   0, 255)'/>
	<use xlink:href='#gpPt5' transform='translate(692.1,617.0) scale(2.25)' color='rgb(  0,   0, 255)'/>
	<use xlink:href='#gpPt5' transform='translate(704.9,621.8) scale(2.25)' color='rgb(  0,   0, 255)'/>
	<use xlink:href='#gpPt5' transform='translate(717.7,626.3) scale(2.25)' color='rgb(  0,   0, 255)'/>
	<use xlink:href='#gpPt5' transform='translate(730.5,630.6) scale(2.25)' color='rgb(  0,   0, 255)'/>
	<use xlink:href='#gpPt5' transform='translate(743.3,634.6) scale(2.25)' color='rgb(  0,   0, 255)'/>
	<use xlink:href='#gpPt5' transform='translate(756.1,638.3) scale(2.25)' color='rgb(  0,   0, 255)'/>
	<use xlink:href='#gpPt5' transform='translate(768.9,641.6) scale(2.25)' color='rgb(  0,   0, 255)'/>
	<use xlink:href='#gpPt5' transform='translate(781.7,644.7) scale(2.25)' color='rgb(  0,   0, 255)'/>
	<use xlink:href='#gpPt5' transform='translate(794.5,647.4) scale(2.25)' color='rgb(  0,   0, 255)'/>
	<use xlink:href='#gpPt5' transform='translate(807.3,649.9) scale(2.25)' color='rgb(  0,   0, 255)'/>
	<use xlink:href='#gpPt5' transform='translate(820.1,652.0) scale(2.25)' color='rgb(  0,   0, 255)'/>
	<use xlink:href='#gpPt5' transform='translate(832.9,653.8) scale(2.25)' color='rgb(  0,   0, 255)'/>
	<use xlink:href='#gpPt5' transform='translate(845.6,655.3) scale(2.25)' color='rgb(  0,   0, 255)'/>
	<use xlink:href='#gpPt5' transform='translate(858.4,656.5) scale(2.25)' color='rgb(  0,   0, 255)'/>
	<use xlink:href='#gpPt5' transform='translate(871.2,657.4) scale(2.25)' color='rgb(  0,   0, 255)'/>
	<use xlink:href='#gpPt5' transform='translate(884.0,657.9) scale(2.25)' color='rgb(  0,   0, 255)'/>
	<use xlink:href='#gpPt5' transform='translate(896.8,658.2) scale(2.25)' color='rgb(  0,   0, 255)'/>
	<use xlink:href='#gpPt5' transform='translate(909.6,658.1) scale(2.25)' color='rgb(  0,   0, 255)'/>
	<use xlink:href='#gpPt5' transform='translate(922.4,657.8) scale(2.25)' color='rgb(  0,   0, 255)'/>
	<use xlink:href='#gpPt5' transform='translate(935.2,657.2) scale(2.25)' color='rgb(  0,   0, 255)'/>
	<use xlink:href='#gpPt5' transform='translate(948.0,656.3) scale(2.25)' color='rgb(  0,   0, 255)'/>
	<use xlink:href='#gpPt5' transform='translate(960.8,655.1) scale(2.25)' color='rgb(  0,   0, 255)'/>
	<use xlink:href='#gpPt5' transform='translate(973.6,653.6) scale(2.25)' color='rgb(  0,   0, 255)'/>
	<use xlink:href='#gpPt5' transform='translate(986.4,651.9) scale(2.25)' color='rgb(  0,   0, 255)'/>
	<use xlink:href='#gpPt5' transform='translate(999.2,649.9) scale(2.25)' color='rgb(  0,   0, 255)'/>
	<use xlink:href='#gpPt5' transform='translate(1011.9,647.8) scale(2.25)' color='rgb(  0,   0, 255)'/>
	<use xlink:href='#gpPt5' transform='translate(1024.7,645.5) scale(2.25)' color='rgb(  0,   0, 255)'/>
	<use xlink:href='#gpPt5' transform='translate(1037.5,643.0) scale(2.25)' color='rgb(  0,   0, 255)'/>
	<use xlink:href='#gpPt5' transform='translate(1050.3,640.3) scale(2.25)' color='rgb(  0,   0, 255)'/>
	<use xlink:href='#gpPt5' transform='translate(1063.1,637.6) scale(2.25)' color='rgb(  0,   0, 255)'/>
	<use xlink:href='#gpPt5' transform='translate(1075.9,634.8) scale(2.25)' color='rgb(  0,   0, 255)'/>
	<use xlink:href='#gpPt5' transform='translate(1088.7,632.1) scale(2.25)' color='rgb(  0,   0, 255)'/>
	<use xlink:href='#gpPt5' transform='translate(1101.5,629.6) scale(2.25)' color='rgb(  0,   0, 255)'/>
	<use xlink:href='#gpPt5' transform='translate(1114.3,627.2) scale(2.25)' color='rgb(  0,   0, 255)'/>
	<use xlink:href='#gpPt5' transform='translate(1127.1,625.3) scale(2.25)' color='rgb(  0,   0, 255)'/>
	<use xlink:href='#gpPt5' transform='translate(1139.9,623.9) scale(2.25)' color='rgb(  0,   0, 255)'/>
	<use xlink:href='#gpPt5' transform='translate(1152.7,623.5) scale(2.25)' color='rgb(  0,   0, 255)'/>
	<use xlink:href='#gpPt5' transform='translate(1165.5,623.4) scale(2.25)' color='rgb(  0,   0, 255)'/>
	<use xlink:href='#gpPt5' transform='translate(1178.2,623.2) scale(2.25)' color='rgb(  0,   0, 255)'/>
	<use xlink:href='#gpPt5' transform='translate(1191.0,622.6) scale(2.25)' color='rgb(  0,   0, 255)'/>
	<use xlink:href='#gpPt5' transform='translate(1203.8,621.2) scale(2.25)' color='rgb(  0,   0, 255)'/>
	<use xlink:href='#gpPt5' transform='translate(1216.6,618.6) scale(2.25)' color='rgb(  0,   0, 255)'/>
	<use xlink:href='#gpPt5' transform='translate(1229.4,615.6) scale(2.25)' color='rgb(  0,   0, 255)'/>
	<use xlink:href='#gpPt5' transform='translate(1242.2,613.4) scale(2.25)' color='rgb(  0,   0, 255)'/>
	<use xlink:href='#gpPt5' transform='translate(1255.0,612.0) scale(2.25)' color='rgb(  0,   0, 255)'/>
</g>
	</g>
	<g id="gnuplot_plot_4" ><title>fit</title>
<g fill="none" color="black" stroke="currentColor" stroke-width="1.00" stroke-linecap="butt" stroke-linejoin="miter">
	<g transform="translate(1187.9,94.0)" stroke="none" fill="black" font-family="Arial" font-size="12.00"  text-anchor="end">
		<text><tspan font-family="Arial" >fit</tspan></text>
	</g>
</g>
<g fill="none" color="black" stroke="currentColor" stroke-width="1.00" stroke-linecap="butt" stroke-linejoin="miter">
	<path stroke='rgb(255,   0,   0)'  d='M1196.2,90.1 L1238.4,90.1 M103.7,100.0 L104.8,102.6 L106.0,110.0 L107.1,121.2 L108.2,134.8 L109.3,149.5
		L110.5,164.3 L111.6,178.4 L112.7,191.5 L113.8,203.4 L115.0,213.8 L116.1,223.0 L117.2,230.9 L118.3,237.8
		L119.5,243.7 L120.6,248.8 L121.7,253.1 L122.8,256.9 L124.0,260.2 L125.1,263.1 L126.2,265.6 L127.3,267.8
		L128.5,269.8 L129.6,271.5 L130.7,273.1 L131.8,274.6 L133.0,275.9 L134.1,277.2 L135.2,278.3 L136.3,279.4
		L137.5,280.5 L138.6,281.4 L139.7,282.4 L140.8,283.3 L142.0,284.2 L143.1,285.0 L144.2,285.9 L145.3,286.7
		L146.5,287.5 L147.6,288.3 L148.7,289.1 L149.8,289.9 L151.0,290.7 L152.1,291.5 L153.2,292.3 L154.3,293.1
		L155.5,293.8 L156.6,294.6 L157.7,295.4 L158.8,296.2 L160.0,297.0 L161.1,297.8 L162.2,298.6 L163.3,299.5
		L164.5,300.3 L165.6,301.1 L166.7,301.9 L167.8,302.8 L169.0,303.6 L170.1,304.4 L171.2,305.3 L172.4,306.2
		L173.5,307.0 L174.6,307.9 L175.7,308.8 L176.9,309.7 L178.0,310.5 L179.1,311.4 L180.2,312.3 L181.4,313.2
		L182.5,314.1 L183.6,315.1 L184.7,316.0 L185.9,316.9 L187.0,317.8 L188.1,318.8 L189.2,319.7 L190.4,320.6
		L191.5,321.6 L192.6,322.5 L193.7,323.5 L194.9,324.5 L196.0,325.4 L197.1,326.4 L198.2,327.4 L199.4,328.3
		L200.5,329.3 L201.6,330.3 L202.7,331.3 L203.9,332.3 L205.0,333.3 L206.1,334.3 L207.2,335.3 L208.4,336.3
		L209.5,337.3 L210.6,338.3 L211.7,339.3 L212.9,340.3 L214.0,341.3 L215.1,342.3 L216.2,343.3 L217.4,344.4
		L218.5,345.4 L219.6,346.4 L220.7,347.4 L221.9,348.4 L223.0,349.5 L224.1,350.5 L225.2,351.5 L226.4,352.5
		L227.5,353.6 L228.6,354.6 L229.7,355.6 L230.9,356.7 L232.0,357.7 L233.1,358.7 L234.2,359.8 L235.4,360.8
		L236.5,361.8 L237.6,362.9 L238.7,363.9 L239.9,364.9 L241.0,366.0 L242.1,367.0 L243.3,368.0 L244.4,369.1
		L245.5,370.1 L246.6,371.1 L247.8,372.2 L248.9,373.2 L250.0,374.2 L251.1,375.3 L252.3,376.3 L253.4,377.3
		L254.5,378.3 L255.6,379.4 L256.8,380.4 L257.9,381.4 L259.0,382.5 L260.1,383.5 L261.3,384.5 L262.4,385.5
		L263.5,386.5 L264.6,387.6 L265.8,388.6 L266.9,389.6 L268.0,390.6 L269.1,391.6 L270.3,392.6 L271.4,393.6
		L272.5,394.7 L273.6,395.7 L274.8,396.7 L275.9,397.7 L277.0,398.7 L278.1,399.7 L279.3,400.7 L280.4,401.7
		L281.5,402.7 L282.6,403.7 L283.8,404.7 L284.9,405.6 L286.0,406.6 L287.1,407.6 L288.3,408.6 L289.4,409.6
		L290.5,410.6 L291.6,411.5 L292.8,412.5 L293.9,413.5 L295.0,414.5 L296.1,415.4 L297.3,416.4 L298.4,417.4
		L299.5,418.3 L300.6,419.3 L301.8,420.3 L302.9,421.2 L304.0,422.2 L305.1,423.1 L306.3,424.1 L307.4,425.0
		L308.5,426.0 L309.7,426.9 L310.8,427.9 L311.9,428.8 L313.0,429.8 L314.2,430.7 L315.3,431.6 L316.4,432.6
		L317.5,433.5 L318.7,434.4 L319.8,435.4 L320.9,436.3 L322.0,437.2 L323.2,438.1 L324.3,439.0 L325.4,439.9
		L326.5,440.9 L327.7,441.8 L328.8,442.7 L329.9,443.6 L331.0,444.5 L332.2,445.4 L333.3,446.3 L334.4,447.2
		L335.5,448.1 L336.7,449.0 L337.8,449.9 L338.9,450.7 L340.0,451.6 L341.2,452.5 L342.3,453.4 L343.4,454.3
		L344.5,455.1 L345.7,456.0 L346.8,456.9 L347.9,457.7 L349.0,458.6 L350.2,459.5 L351.3,460.3 L352.4,461.2
		L353.5,462.1 L354.7,462.9 L355.8,463.8 L356.9,464.6 L358.0,465.5 L359.2,466.3 L360.3,467.1 L361.4,468.0
		L362.5,468.8 L363.7,469.7 L364.8,470.5 L365.9,471.3 L367.0,472.1 L368.2,473.0 L369.3,473.8 L370.4,474.6
		L371.5,475.4 L372.7,476.2 L373.8,477.1 L374.9,477.9 L376.1,478.7 L377.2,479.5 L378.3,480.3 L379.4,481.1
		L380.6,481.9 L381.7,482.7 L382.8,483.5 L383.9,484.3 L385.1,485.1 L386.2,485.9 L387.3,486.7 L388.4,487.4
		L389.6,488.2 L390.7,489.0 L391.8,489.8 L392.9,490.6 L394.1,491.3 L395.2,492.1 L396.3,492.9 L397.4,493.6
		L398.6,494.4 L399.7,495.2 L400.8,495.9 L401.9,496.7 L403.1,497.4 L404.2,498.2 L405.3,498.9 L406.4,499.7
		L407.6,500.4 L408.7,501.2 L409.8,501.9 L410.9,502.7 L412.1,503.4 L413.2,504.1 L414.3,504.9 L415.4,505.6
		L416.6,506.3 L417.7,507.1 L418.8,507.8 L419.9,508.5 L421.1,509.2 L422.2,509.9 L423.3,510.7 L424.4,511.4
		L425.6,512.1 L426.7,512.8 L427.8,513.5 L428.9,514.2 L430.1,514.9 L431.2,515.6 L432.3,516.3 L433.4,517.0
		L434.6,517.7 L435.7,518.4 L436.8,519.1 L437.9,519.8 L439.1,520.5 L440.2,521.2 L441.3,521.9 L442.5,522.5
		L443.6,523.2 L444.7,523.9 L445.8,524.6 L447.0,525.2 L448.1,525.9 L449.2,526.6 L450.3,527.3 L451.5,527.9
		L452.6,528.6 L453.7,529.3 L454.8,529.9 L456.0,530.6 L457.1,531.2 L458.2,531.9 L459.3,532.5 L460.5,533.2
		L461.6,533.8 L462.7,534.5 L463.8,535.1 L465.0,535.8 L466.1,536.4 L467.2,537.1 L468.3,537.7 L469.5,538.3
		L470.6,539.0 L471.7,539.6 L472.8,540.2 L474.0,540.9 L475.1,541.5 L476.2,542.1 L477.3,542.7 L478.5,543.3
		L479.6,544.0 L480.7,544.6 L481.8,545.2 L483.0,545.8 L484.1,546.4 L485.2,547.0 L486.3,547.6 L487.5,548.3
		L488.6,548.9 L489.7,549.5 L490.8,550.1 L492.0,550.7 L493.1,551.3 L494.2,551.9 L495.3,552.5 L496.5,553.0
		L497.6,553.6 L498.7,554.2 L499.8,554.8 L501.0,555.4 L502.1,556.0 L503.2,556.6 L504.3,557.1 L505.5,557.7
		L506.6,558.3 L507.7,558.9 L508.8,559.5 L510.0,560.0 L511.1,560.6 L512.2,561.2 L513.4,561.7 L514.5,562.3
		L515.6,562.9 L516.7,563.4 L517.9,564.0 L519.0,564.5 L520.1,565.1 L521.2,565.7 L522.4,566.2 L523.5,566.8
		L524.6,567.3 L525.7,567.9 L526.9,568.4 L528.0,569.0 L529.1,569.5 L530.2,570.0 L531.4,570.6 L532.5,571.1
		L533.6,571.7 L534.7,572.2 L535.9,572.7 L537.0,573.3 L538.1,573.8 L539.2,574.3 L540.4,574.9 L541.5,575.4
		L542.6,575.9 L543.7,576.4 L544.9,577.0 L546.0,577.5 L547.1,578.0 L548.2,578.5 L549.4,579.0 L550.5,579.5
		L551.6,580.1 L552.7,580.6 L553.9,581.1 L555.0,581.6 L556.1,582.1 L557.2,582.6 L558.4,583.1 L559.5,583.6
		L560.6,584.1 L561.7,584.6 L562.9,585.1 L564.0,585.6 L565.1,586.1 L566.2,586.6 L567.4,587.1 L568.5,587.6
		L569.6,588.1 L570.7,588.6 L571.9,589.0 L573.0,589.5 L574.1,590.0 L575.2,590.5 L576.4,591.0 L577.5,591.4
		L578.6,591.9 L579.8,592.4 L580.9,592.9 L582.0,593.4 L583.1,593.8 L584.3,594.3 L585.4,594.8 L586.5,595.2
		L587.6,595.7 L588.8,596.2 L589.9,596.6 L591.0,597.1 L592.1,597.6 L593.3,598.0 L594.4,598.5 L595.5,598.9
		L596.6,599.4 L597.8,599.8 L598.9,600.3 L600.0,600.7 L601.1,601.2 L602.3,601.6 L603.4,602.1 L604.5,602.5
		L605.6,603.0 L606.8,603.4 L607.9,603.9 L609.0,604.3 L610.1,604.7 L611.3,605.2 L612.4,605.6 L613.5,606.0
		L614.6,606.5 L615.8,606.9 L616.9,607.3 L618.0,607.8 L619.1,608.2 L620.3,608.6 L621.4,609.1 L622.5,609.5
		L623.6,609.9 L624.8,610.3 L625.9,610.7 L627.0,611.2 L628.1,611.6 L629.3,612.0 L630.4,612.4 L631.5,612.8
		L632.6,613.2 L633.8,613.7 L634.9,614.1 L636.0,614.5 L637.1,614.9 L638.3,615.3 L639.4,615.7 L640.5,616.1
		L641.6,616.5 L642.8,616.9 L643.9,617.3 L645.0,617.7 L646.2,618.1 L647.3,618.5 L648.4,618.9 L649.5,619.3
		L650.7,619.7 L651.8,620.1 L652.9,620.5 L654.0,620.8 L655.2,621.2 L656.3,621.6 L657.4,622.0 L658.5,622.4
		L659.7,622.8 L660.8,623.2 L661.9,623.5 L663.0,623.9 L664.2,624.3 L665.3,624.7 L666.4,625.0 L667.5,625.4
		L668.7,625.8 L669.8,626.2 L670.9,626.5 L672.0,626.9 L673.2,627.3 L674.3,627.6 L675.4,628.0 L676.5,628.4
		L677.7,628.7 L678.8,629.1 L679.9,629.5 L681.0,629.8 L682.2,630.2 L683.3,630.5 L684.4,630.9 L685.5,631.2
		L686.7,631.6 L687.8,631.9 L688.9,632.3 L690.0,632.6 L691.2,633.0 L692.3,633.3 L693.4,633.7 L694.5,634.0
		L695.7,634.4 L696.8,634.7 L697.9,635.1 L699.0,635.4 L700.2,635.7 L701.3,636.1 L702.4,636.4 L703.5,636.8
		L704.7,637.1 L705.8,637.4 L706.9,637.8 L708.0,638.1 L709.2,638.4 L710.3,638.7 L711.4,639.1 L712.5,639.4
		L713.7,639.7 L714.8,640.0 L715.9,640.4 L717.1,640.7 L718.2,641.0 L719.3,641.3 L720.4,641.6 L721.6,642.0
		L722.7,642.3 L723.8,642.6 L724.9,642.9 L726.1,643.2 L727.2,643.5 L728.3,643.8 L729.4,644.2 L730.6,644.5
		L731.7,644.8 L732.8,645.1 L733.9,645.4 L735.1,645.7 L736.2,646.0 L737.3,646.3 L738.4,646.6 L739.6,646.9
		L740.7,647.2 L741.8,647.5 L742.9,647.8 L744.1,648.1 L745.2,648.4 L746.3,648.6 L747.4,648.9 L748.6,649.2
		L749.7,649.5 L750.8,649.8 L751.9,650.1 L753.1,650.4 L754.2,650.7 L755.3,650.9 L756.4,651.2 L757.6,651.5
		L758.7,651.8 L759.8,652.1 L760.9,652.3 L762.1,652.6 L763.2,652.9 L764.3,653.2 L765.4,653.4 L766.6,653.7
		L767.7,654.0 L768.8,654.2 L769.9,654.5 L771.1,654.8 L772.2,655.0 L773.3,655.3 L774.4,655.6 L775.6,655.8
		L776.7,656.1 L777.8,656.3 L778.9,656.6 L780.1,656.9 L781.2,657.1 L782.3,657.4 L783.5,657.6 L784.6,657.9
		L785.7,658.1 L786.8,658.4 L788.0,658.6 L789.1,658.9 L790.2,659.1 L791.3,659.4 L792.5,659.6 L793.6,659.9
		L794.7,660.1 L795.8,660.3 L797.0,660.6 L798.1,660.8 L799.2,661.0 L800.3,661.3 L801.5,661.5 L802.6,661.8
		L803.7,662.0 L804.8,662.2 L806.0,662.4 L807.1,662.7 L808.2,662.9 L809.3,663.1 L810.5,663.4 L811.6,663.6
		L812.7,663.8 L813.8,664.0 L815.0,664.2 L816.1,664.5 L817.2,664.7 L818.3,664.9 L819.5,665.1 L820.6,665.3
		L821.7,665.5 L822.8,665.7 L824.0,666.0 L825.1,666.2 L826.2,666.4 L827.3,666.6 L828.5,666.8 L829.6,667.0
		L830.7,667.2 L831.8,667.4 L833.0,667.6 L834.1,667.8 L835.2,668.0 L836.3,668.2 L837.5,668.4 L838.6,668.6
		L839.7,668.8 L840.8,669.0 L842.0,669.2 L843.1,669.3 L844.2,669.5 L845.3,669.7 L846.5,669.9 L847.6,670.1
		L848.7,670.3 L849.9,670.5 L851.0,670.6 L852.1,670.8 L853.2,671.0 L854.4,671.2 L855.5,671.3 L856.6,671.5
		L857.7,671.7 L858.9,671.9 L860.0,672.0 L861.1,672.2 L862.2,672.4 L863.4,672.5 L864.5,672.7 L865.6,672.9
		L866.7,673.0 L867.9,673.2 L869.0,673.4 L870.1,673.5 L871.2,673.7 L872.4,673.8 L873.5,674.0 L874.6,674.1
		L875.7,674.3 L876.9,674.4 L878.0,674.6 L879.1,674.7 L880.2,674.9 L881.4,675.0 L882.5,675.2 L883.6,675.3
		L884.7,675.4 L885.9,675.6 L887.0,675.7 L888.1,675.9 L889.2,676.0 L890.4,676.1 L891.5,676.3 L892.6,676.4
		L893.7,676.5 L894.9,676.6 L896.0,676.8 L897.1,676.9 L898.2,677.0 L899.4,677.1 L900.5,677.3 L901.6,677.4
		L902.7,677.5 L903.9,677.6 L905.0,677.7 L906.1,677.8 L907.2,677.9 L908.4,678.1 L909.5,678.2 L910.6,678.3
		L911.7,678.4 L912.9,678.5 L914.0,678.6 L915.1,678.7 L916.2,678.8 L917.4,678.9 L918.5,679.0 L919.6,679.1
		L920.8,679.2 L921.9,679.2 L923.0,679.3 L924.1,679.4 L925.3,679.5 L926.4,679.6 L927.5,679.7 L928.6,679.8
		L929.8,679.8 L930.9,679.9 L932.0,680.0 L933.1,680.1 L934.3,680.1 L935.4,680.2 L936.5,680.3 L937.6,680.3
		L938.8,680.4 L939.9,680.5 L941.0,680.5 L942.1,680.6 L943.3,680.7 L944.4,680.7 L945.5,680.8 L946.6,680.8
		L947.8,680.9 L948.9,680.9 L950.0,681.0 L951.1,681.0 L952.3,681.1 L953.4,681.1 L954.5,681.2 L955.6,681.2
		L956.8,681.2 L957.9,681.3 L959.0,681.3 L960.1,681.3 L961.3,681.4 L962.4,681.4 L963.5,681.4 L964.6,681.4
		L965.8,681.5 L966.9,681.5 L968.0,681.5 L969.1,681.5 L970.3,681.5 L971.4,681.5 L972.5,681.6 L973.6,681.6
		L974.8,681.6 L975.9,681.6 L977.0,681.6 L978.1,681.6 L979.3,681.6 L980.4,681.6 L981.5,681.6 L982.6,681.6
		L983.8,681.6 L984.9,681.5 L986.0,681.5 L987.2,681.5 L988.3,681.5 L989.4,681.5 L990.5,681.5 L991.7,681.4
		L992.8,681.4 L993.9,681.4 L995.0,681.4 L996.2,681.3 L997.3,681.3 L998.4,681.3 L999.5,681.2 L1000.7,681.2
		L1001.8,681.1 L1002.9,681.1 L1004.0,681.0 L1005.2,681.0 L1006.3,680.9 L1007.4,680.9 L1008.5,680.8 L1009.7,680.8
		L1010.8,680.7 L1011.9,680.7 L1013.0,680.6 L1014.2,680.5 L1015.3,680.5 L1016.4,680.4 L1017.5,680.3 L1018.7,680.2
		L1019.8,680.2 L1020.9,680.1 L1022.0,680.0 L1023.2,679.9 L1024.3,679.8 L1025.4,679.7 L1026.5,679.6 L1027.7,679.5
		L1028.8,679.4 L1029.9,679.3 L1031.0,679.2 L1032.2,679.1 L1033.3,679.0 L1034.4,678.9 L1035.5,678.8 L1036.7,678.7
		L1037.8,678.6 L1038.9,678.5 L1040.0,678.3 L1041.2,678.2 L1042.3,678.1 L1043.4,678.0 L1044.5,677.8 L1045.7,677.7
		L1046.8,677.6 L1047.9,677.4 L1049.0,677.3 L1050.2,677.1 L1051.3,677.0 L1052.4,676.9 L1053.6,676.7 L1054.7,676.6
		L1055.8,676.4 L1056.9,676.2 L1058.1,676.1 L1059.2,675.9 L1060.3,675.8 L1061.4,675.6 L1062.6,675.4 L1063.7,675.3
		L1064.8,675.1 L1065.9,674.9 L1067.1,674.7 L1068.2,674.5 L1069.3,674.4 L1070.4,674.2 L1071.6,674.0 L1072.7,673.8
		L1073.8,673.6 L1074.9,673.4 L1076.1,673.2 L1077.2,673.0 L1078.3,672.8 L1079.4,672.6 L1080.6,672.4 L1081.7,672.2
		L1082.8,672.0 L1083.9,671.8 L1085.1,671.6 L1086.2,671.3 L1087.3,671.1 L1088.4,670.9 L1089.6,670.7 L1090.7,670.5
		L1091.8,670.2 L1092.9,670.0 L1094.1,669.8 L1095.2,669.5 L1096.3,669.3 L1097.4,669.1 L1098.6,668.8 L1099.7,668.6
		L1100.8,668.3 L1101.9,668.1 L1103.1,667.8 L1104.2,667.6 L1105.3,667.3 L1106.4,667.1 L1107.6,666.8 L1108.7,666.6
		L1109.8,666.3 L1110.9,666.0 L1112.1,665.8 L1113.2,665.5 L1114.3,665.2 L1115.4,665.0 L1116.6,664.7 L1117.7,664.4
		L1118.8,664.2 L1120.0,663.9 L1121.1,663.6 L1122.2,663.3 L1123.3,663.1 L1124.5,662.8 L1125.6,662.5 L1126.7,662.2
		L1127.8,661.9 L1129.0,661.7 L1130.1,661.4 L1131.2,661.1 L1132.3,660.8 L1133.5,660.5 L1134.6,660.2 L1135.7,659.9
		L1136.8,659.7 L1138.0,659.4 L1139.1,659.1 L1140.2,658.8 L1141.3,658.5 L1142.5,658.2 L1143.6,657.9 L1144.7,657.6
		L1145.8,657.3 L1147.0,657.0 L1148.1,656.7 L1149.2,656.4 L1150.3,656.1 L1151.5,655.8 L1152.6,655.6 L1153.7,655.3
		L1154.8,655.0 L1156.0,654.7 L1157.1,654.4 L1158.2,654.1 L1159.3,653.8 L1160.5,653.5 L1161.6,653.2 L1162.7,652.9
		L1163.8,652.6 L1165.0,652.3 L1166.1,652.1 L1167.2,651.8 L1168.3,651.5 L1169.5,651.2 L1170.6,650.9 L1171.7,650.6
		L1172.8,650.3 L1174.0,650.1 L1175.1,649.8 L1176.2,649.5 L1177.3,649.2 L1178.5,649.0 L1179.6,648.7 L1180.7,648.4
		L1181.8,648.1 L1183.0,647.9 L1184.1,647.6 L1185.2,647.4 L1186.3,647.1 L1187.5,646.8 L1188.6,646.6 L1189.7,646.3
		L1190.9,646.1 L1192.0,645.8 L1193.1,645.6 L1194.2,645.3 L1195.4,645.1 L1196.5,644.9 L1197.6,644.6 L1198.7,644.4
		L1199.9,644.2 L1201.0,644.0 L1202.1,643.7 L1203.2,643.5 L1204.4,643.3 L1205.5,643.1 L1206.6,642.9 L1207.7,642.7
		L1208.9,642.5 L1210.0,642.3 L1211.1,642.1 L1212.2,641.9 L1213.4,641.7 L1214.5,641.6 L1215.6,641.4 L1216.7,641.2
		L1217.9,641.0 L1219.0,640.9 L1220.1,640.7 L1221.2,640.6 L1222.4,640.4 L1223.5,640.3 L1224.6,640.1 L1225.7,640.0
		L1226.9,639.9 L1228.0,639.7 L1229.1,639.6 L1230.2,639.5 L1231.4,639.4 L1232.5,639.3 L1233.6,639.2 L1234.7,639.1
		L1235.9,639.0 L1237.0,638.9 L1238.1,638.8 L1239.2,638.7 L1240.4,638.7 L1241.5,638.6 L1242.6,638.5 L1243.7,638.5
		L1244.9,638.4 L1246.0,638.4 L1247.1,638.4 L1248.2,638.3 L1249.4,638.3 L1250.5,638.3 L1251.6,638.2 L1252.7,638.2
		L1253.9,638.2 L1255.0,638.2  '/></g>
	</g>
	<g id="gnuplot_plot_5" ><title>gnuplot_plot_5</title>
<g fill="none" color="black" stroke="currentColor" stroke-width="1.00" stroke-linecap="butt" stroke-linejoin="miter">
	<path stroke='rgb(  0, 100,   0)'  d='M103.7,88.0 L104.8,90.6 L106.0,98.0 L107.1,109.2 L108.2,122.8 L109.3,137.5 L110.5,152.4 L111.6,166.6
		L112.7,179.7 L113.8,191.6 L115.0,202.1 L116.1,211.3 L117.2,219.3 L118.3,226.2 L119.5,232.1 L120.6,237.2
		L121.7,241.6 L122.8,245.4 L124.0,248.7 L125.1,251.6 L126.2,254.1 L127.3,256.3 L128.5,258.3 L129.6,260.1
		L130.7,261.7 L131.8,263.2 L133.0,264.5 L134.1,265.8 L135.2,267.0 L136.3,268.1 L137.5,269.1 L138.6,270.1
		L139.7,271.0 L140.8,272.0 L142.0,272.8 L143.1,273.7 L144.2,274.5 L145.3,275.4 L146.5,276.2 L147.6,277.0
		L148.7,277.8 L149.8,278.6 L151.0,279.4 L152.1,280.2 L153.2,281.0 L154.3,281.8 L155.5,282.6 L156.6,283.4
		L157.7,284.2 L158.8,285.0 L160.0,285.8 L161.1,286.6 L162.2,287.4 L163.3,288.2 L164.5,289.0 L165.6,289.8
		L166.7,290.7 L167.8,291.5 L169.0,292.4 L170.1,293.2 L171.2,294.1 L172.4,294.9 L173.5,295.8 L174.6,296.7
		L175.7,297.6 L176.9,298.4 L178.0,299.3 L179.1,300.2 L180.2,301.1 L181.4,302.0 L182.5,302.9 L183.6,303.9
		L184.7,304.8 L185.9,305.7 L187.0,306.6 L188.1,307.6 L189.2,308.5 L190.4,309.5 L191.5,310.4 L192.6,311.4
		L193.7,312.3 L194.9,313.3 L196.0,314.3 L197.1,315.2 L198.2,316.2 L199.4,317.2 L200.5,318.2 L201.6,319.2
		L202.7,320.2 L203.9,321.2 L205.0,322.1 L206.1,323.1 L207.2,324.1 L208.4,325.2 L209.5,326.2 L210.6,327.2
		L211.7,328.2 L212.9,329.2 L214.0,330.2 L215.1,331.2 L216.2,332.2 L217.4,333.3 L218.5,334.3 L219.6,335.3
		L220.7,336.3 L221.9,337.4 L223.0,338.4 L224.1,339.4 L225.2,340.5 L226.4,341.5 L227.5,342.5 L228.6,343.5
		L229.7,344.6 L230.9,345.6 L232.0,346.7 L233.1,347.7 L234.2,348.7 L235.4,349.8 L236.5,350.8 L237.6,351.8
		L238.7,352.9 L239.9,353.9 L241.0,354.9 L242.1,356.0 L243.3,357.0 L244.4,358.0 L245.5,359.1 L246.6,360.1
		L247.8,361.2 L248.9,362.2 L250.0,363.2 L251.1,364.3 L252.3,365.3 L253.4,366.3 L254.5,367.3 L255.6,368.4
		L256.8,369.4 L257.9,370.4 L259.0,371.5 L260.1,372.5 L261.3,373.5 L262.4,374.5 L263.5,375.6 L264.6,376.6
		L265.8,377.6 L266.9,378.6 L268.0,379.6 L269.1,380.6 L270.3,381.7 L271.4,382.7 L272.5,383.7 L273.6,384.7
		L274.8,385.7 L275.9,386.7 L277.0,387.7 L278.1,388.7 L279.3,389.7 L280.4,390.7 L281.5,391.7 L282.6,392.7
		L283.8,393.7 L284.9,394.7 L286.0,395.7 L287.1,396.7 L288.3,397.7 L289.4,398.7 L290.5,399.6 L291.6,400.6
		L292.8,401.6 L293.9,402.6 L295.0,403.5 L296.1,404.5 L297.3,405.5 L298.4,406.5 L299.5,407.4 L300.6,408.4
		L301.8,409.4 L302.9,410.3 L304.0,411.3 L305.1,412.2 L306.3,413.2 L307.4,414.1 L308.5,415.1 L309.7,416.0
		L310.8,417.0 L311.9,417.9 L313.0,418.9 L314.2,419.8 L315.3,420.7 L316.4,421.7 L317.5,422.6 L318.7,423.5
		L319.8,424.5 L320.9,425.4 L322.0,426.3 L323.2,427.2 L324.3,428.1 L325.4,429.1 L326.5,430.0 L327.7,430.9
		L328.8,431.8 L329.9,432.7 L331.0,433.6 L332.2,434.5 L333.3,435.4 L334.4,436.3 L335.5,437.2 L336.7,438.1
		L337.8,439.0 L338.9,439.9 L340.0,440.8 L341.2,441.6 L342.3,442.5 L343.4,443.4 L344.5,444.3 L345.7,445.1
		L346.8,446.0 L347.9,446.9 L349.0,447.8 L350.2,448.6 L351.3,449.5 L352.4,450.3 L353.5,451.2 L354.7,452.1
		L355.8,452.9 L356.9,453.8 L358.0,454.6 L359.2,455.4 L360.3,456.3 L361.4,457.1 L362.5,458.0 L363.7,458.8
		L364.8,459.6 L365.9,460.5 L367.0,461.3 L368.2,462.1 L369.3,463.0 L370.4,463.8 L371.5,464.6 L372.7,465.4
		L373.8,466.2 L374.9,467.0 L376.1,467.8 L377.2,468.7 L378.3,469.5 L379.4,470.3 L380.6,471.1 L381.7,471.9
		L382.8,472.7 L383.9,473.5 L385.1,474.2 L386.2,475.0 L387.3,475.8 L388.4,476.6 L389.6,477.4 L390.7,478.2
		L391.8,479.0 L392.9,479.7 L394.1,480.5 L395.2,481.3 L396.3,482.0 L397.4,482.8 L398.6,483.6 L399.7,484.3
		L400.8,485.1 L401.9,485.9 L403.1,486.6 L404.2,487.4 L405.3,488.1 L406.4,488.9 L407.6,489.6 L408.7,490.4
		L409.8,491.1 L410.9,491.9 L412.1,492.6 L413.2,493.3 L414.3,494.1 L415.4,494.8 L416.6,495.5 L417.7,496.3
		L418.8,497.0 L419.9,497.7 L421.1,498.4 L422.2,499.1 L423.3,499.9 L424.4,500.6 L425.6,501.3 L426.7,502.0
		L427.8,502.7 L428.9,503.4 L430.1,504.1 L431.2,504.8 L432.3,505.5 L433.4,506.2 L434.6,506.9 L435.7,507.6
		L436.8,508.3 L437.9,509.0 L439.1,509.7 L440.2,510.4 L441.3,511.1 L442.5,511.8 L443.6,512.4 L444.7,513.1
		L445.8,513.8 L447.0,514.5 L448.1,515.1 L449.2,515.8 L450.3,516.5 L451.5,517.1 L452.6,517.8 L453.7,518.5
		L454.8,519.1 L456.0,519.8 L457.1,520.5 L458.2,521.1 L459.3,521.8 L460.5,522.4 L461.6,523.1 L462.7,523.7
		L463.8,524.4 L465.0,525.0 L466.1,525.6 L467.2,526.3 L468.3,526.9 L469.5,527.6 L470.6,528.2 L471.7,528.8
		L472.8,529.5 L474.0,530.1 L475.1,530.7 L476.2,531.3 L477.3,532.0 L478.5,532.6 L479.6,533.2 L480.7,533.8
		L481.8,534.4 L483.0,535.1 L484.1,535.7 L485.2,536.3 L486.3,536.9 L487.5,537.5 L488.6,538.1 L489.7,538.7
		L490.8,539.3 L492.0,539.9 L493.1,540.5 L494.2,541.1 L495.3,541.7 L496.5,542.3 L497.6,542.9 L498.7,543.5
		L499.8,544.1 L501.0,544.6 L502.1,545.2 L503.2,545.8 L504.3,546.4 L505.5,547.0 L506.6,547.6 L507.7,548.1
		L508.8,548.7 L510.0,549.3 L511.1,549.8 L512.2,550.4 L513.4,551.0 L514.5,551.6 L515.6,552.1 L516.7,552.7
		L517.9,553.2 L519.0,553.8 L520.1,554.4 L521.2,554.9 L522.4,555.5 L523.5,556.0 L524.6,556.6 L525.7,557.1
		L526.9,557.7 L528.0,558.2 L529.1,558.8 L530.2,559.3 L531.4,559.8 L532.5,560.4 L533.6,560.9 L534.7,561.5
		L535.9,562.0 L537.0,562.5 L538.1,563.1 L539.2,563.6 L540.4,564.1 L541.5,564.7 L542.6,565.2 L543.7,565.7
		L544.9,566.2 L546.0,566.8 L547.1,567.3 L548.2,567.8 L549.4,568.3 L550.5,568.8 L551.6,569.3 L552.7,569.8
		L553.9,570.4 L555.0,570.9 L556.1,571.4 L557.2,571.9 L558.4,572.4 L559.5,572.9 L560.6,573.4 L561.7,573.9
		L562.9,574.4 L564.0,574.9 L565.1,575.4 L566.2,575.9 L567.4,576.4 L568.5,576.9 L569.6,577.4 L570.7,577.8
		L571.9,578.3 L573.0,578.8 L574.1,579.3 L575.2,579.8 L576.4,580.3 L577.5,580.7 L578.6,581.2 L579.8,581.7
		L580.9,582.2 L582.0,582.6 L583.1,583.1 L584.3,583.6 L585.4,584.1 L586.5,584.5 L587.6,585.0 L588.8,585.5
		L589.9,585.9 L591.0,586.4 L592.1,586.9 L593.3,587.3 L594.4,587.8 L595.5,588.2 L596.6,588.7 L597.8,589.1
		L598.9,589.6 L600.0,590.0 L601.1,590.5 L602.3,590.9 L603.4,591.4 L604.5,591.8 L605.6,592.3 L606.8,592.7
		L607.9,593.2 L609.0,593.6 L610.1,594.1 L611.3,594.5 L612.4,594.9 L613.5,595.4 L614.6,595.8 L615.8,596.2
		L616.9,596.7 L618.0,597.1 L619.1,597.5 L620.3,598.0 L621.4,598.4 L622.5,598.8 L623.6,599.2 L624.8,599.7
		L625.9,600.1 L627.0,600.5 L628.1,600.9 L629.3,601.3 L630.4,601.8 L631.5,602.2 L632.6,602.6 L633.8,603.0
		L634.9,603.4 L636.0,603.8 L637.1,604.2 L638.3,604.6 L639.4,605.0 L640.5,605.4 L641.6,605.8 L642.8,606.2
		L643.9,606.6 L645.0,607.0 L646.2,607.4 L647.3,607.8 L648.4,608.2 L649.5,608.6 L650.7,609.0 L651.8,609.4
		L652.9,609.8 L654.0,610.2 L655.2,610.6 L656.3,611.0 L657.4,611.4 L658.5,611.7 L659.7,612.1 L660.8,612.5
		L661.9,612.9 L663.0,613.3 L664.2,613.7 L665.3,614.0 L666.4,614.4 L667.5,614.8 L668.7,615.2 L669.8,615.5
		L670.9,615.9 L672.0,616.3 L673.2,616.6 L674.3,617.0 L675.4,617.4 L676.5,617.7 L677.7,618.1 L678.8,618.5
		L679.9,618.8 L681.0,619.2 L682.2,619.6 L683.3,619.9 L684.4,620.3 L685.5,620.6 L686.7,621.0 L687.8,621.3
		L688.9,621.7 L690.0,622.0 L691.2,622.4 L692.3,622.7 L693.4,623.1 L694.5,623.4 L695.7,623.8 L696.8,624.1
		L697.9,624.5 L699.0,624.8 L700.2,625.1 L701.3,625.5 L702.4,625.8 L703.5,626.2 L704.7,626.5 L705.8,626.8
		L706.9,627.2 L708.0,627.5 L709.2,627.8 L710.3,628.2 L711.4,628.5 L712.5,628.8 L713.7,629.1 L714.8,629.5
		L715.9,629.8 L717.1,630.1 L718.2,630.4 L719.3,630.8 L720.4,631.1 L721.6,631.4 L722.7,631.7 L723.8,632.0
		L724.9,632.3 L726.1,632.7 L727.2,633.0 L728.3,633.3 L729.4,633.6 L730.6,633.9 L731.7,634.2 L732.8,634.5
		L733.9,634.8 L735.1,635.1 L736.2,635.4 L737.3,635.7 L738.4,636.0 L739.6,636.3 L740.7,636.6 L741.8,636.9
		L742.9,637.2 L744.1,637.5 L745.2,637.8 L746.3,638.1 L747.4,638.4 L748.6,638.7 L749.7,639.0 L750.8,639.3
		L751.9,639.6 L753.1,639.8 L754.2,640.1 L755.3,640.4 L756.4,640.7 L757.6,641.0 L758.7,641.3 L759.8,641.5
		L760.9,641.8 L762.1,642.1 L763.2,642.4 L764.3,642.7 L765.4,642.9 L766.6,643.2 L767.7,643.5 L768.8,643.7
		L769.9,644.0 L771.1,644.3 L772.2,644.5 L773.3,644.8 L774.4,645.1 L775.6,645.3 L776.7,645.6 L777.8,645.9
		L778.9,646.1 L780.1,646.4 L781.2,646.6 L782.3,646.9 L783.5,647.2 L784.6,647.4 L785.7,647.7 L786.8,647.9
		L788.0,648.2 L789.1,648.4 L790.2,648.7 L791.3,648.9 L792.5,649.2 L793.6,649.4 L794.7,649.6 L795.8,649.9
		L797.0,650.1 L798.1,650.4 L799.2,650.6 L800.3,650.9 L801.5,651.1 L802.6,651.3 L803.7,651.6 L804.8,651.8
		L806.0,652.0 L807.1,652.3 L808.2,652.5 L809.3,652.7 L810.5,652.9 L811.6,653.2 L812.7,653.4 L813.8,653.6
		L815.0,653.8 L816.1,654.1 L817.2,654.3 L818.3,654.5 L819.5,654.7 L820.6,654.9 L821.7,655.2 L822.8,655.4
		L824.0,655.6 L825.1,655.8 L826.2,656.0 L827.3,656.2 L828.5,656.4 L829.6,656.6 L830.7,656.8 L831.8,657.0
		L833.0,657.3 L834.1,657.5 L835.2,657.7 L836.3,657.9 L837.5,658.1 L838.6,658.3 L839.7,658.5 L840.8,658.6
		L842.0,658.8 L843.1,659.0 L844.2,659.2 L845.3,659.4 L846.5,659.6 L847.6,659.8 L848.7,660.0 L849.9,660.2
		L851.0,660.3 L852.1,660.5 L853.2,660.7 L854.4,660.9 L855.5,661.1 L856.6,661.3 L857.7,661.4 L858.9,661.6
		L860.0,661.8 L861.1,662.0 L862.2,662.1 L863.4,662.3 L864.5,662.5 L865.6,662.6 L866.7,662.8 L867.9,663.0
		L869.0,663.1 L870.1,663.3 L871.2,663.4 L872.4,663.6 L873.5,663.8 L874.6,663.9 L875.7,664.1 L876.9,664.2
		L878.0,664.4 L879.1,664.5 L880.2,664.7 L881.4,664.8 L882.5,665.0 L883.6,665.1 L884.7,665.3 L885.9,665.4
		L887.0,665.6 L888.1,665.7 L889.2,665.8 L890.4,666.0 L891.5,666.1 L892.6,666.3 L893.7,666.4 L894.9,666.5
		L896.0,666.6 L897.1,666.8 L898.2,666.9 L899.4,667.0 L900.5,667.2 L901.6,667.3 L902.7,667.4 L903.9,667.5
		L905.0,667.6 L906.1,667.8 L907.2,667.9 L908.4,668.0 L909.5,668.1 L910.6,668.2 L911.7,668.3 L912.9,668.4
		L914.0,668.5 L915.1,668.7 L916.2,668.8 L917.4,668.9 L918.5,669.0 L919.6,669.1 L920.8,669.2 L921.9,669.3
		L923.0,669.4 L924.1,669.4 L925.3,669.5 L926.4,669.6 L927.5,669.7 L928.6,669.8 L929.8,669.9 L930.9,670.0
		L932.0,670.1 L933.1,670.1 L934.3,670.2 L935.4,670.3 L936.5,670.4 L937.6,670.4 L938.8,670.5 L939.9,670.6
		L941.0,670.7 L942.1,670.7 L943.3,670.8 L944.4,670.9 L945.5,670.9 L946.6,671.0 L947.8,671.0 L948.9,671.1
		L950.0,671.2 L951.1,671.2 L952.3,671.3 L953.4,671.3 L954.5,671.4 L955.6,671.4 L956.8,671.5 L957.9,671.5
		L959.0,671.5 L960.1,671.6 L961.3,671.6 L962.4,671.7 L963.5,671.7 L964.6,671.7 L965.8,671.7 L966.9,671.8
		L968.0,671.8 L969.1,671.8 L970.3,671.9 L971.4,671.9 L972.5,671.9 L973.6,671.9 L974.8,671.9 L975.9,671.9
		L977.0,672.0 L978.1,672.0 L979.3,672.0 L980.4,672.0 L981.5,672.0 L982.6,672.0 L983.8,672.0 L984.9,672.0
		L986.0,672.0 L987.2,672.0 L988.3,672.0 L989.4,672.0 L990.5,671.9 L991.7,671.9 L992.8,671.9 L993.9,671.9
		L995.0,671.9 L996.2,671.9 L997.3,671.8 L998.4,671.8 L999.5,671.8 L1000.7,671.7 L1001.8,671.7 L1002.9,671.7
		L1004.0,671.6 L1005.2,671.6 L1006.3,671.6 L1007.4,671.5 L1008.5,671.5 L1009.7,671.4 L1010.8,671.4 L1011.9,671.3
		L1013.0,671.3 L1014.2,671.2 L1015.3,671.2 L1016.4,671.1 L1017.5,671.0 L1018.7,671.0 L1019.8,670.9 L1020.9,670.8
		L1022.0,670.8 L1023.2,670.7 L1024.3,670.6 L1025.4,670.5 L1026.5,670.4 L1027.7,670.4 L1028.8,670.3 L1029.9,670.2
		L1031.0,670.1 L1032.2,670.0 L1033.3,669.9 L1034.4,669.8 L1035.5,669.7 L1036.7,669.6 L1037.8,669.5 L1038.9,669.4
		L1040.0,669.3 L1041.2,669.2 L1042.3,669.1 L1043.4,669.0 L1044.5,668.8 L1045.7,668.7 L1046.8,668.6 L1047.9,668.5
		L1049.0,668.3 L1050.2,668.2 L1051.3,668.1 L1052.4,668.0 L1053.6,667.8 L1054.7,667.7 L1055.8,667.5 L1056.9,667.4
		L1058.1,667.2 L1059.2,667.1 L1060.3,666.9 L1061.4,666.8 L1062.6,666.6 L1063.7,666.5 L1064.8,666.3 L1065.9,666.2
		L1067.1,666.0 L1068.2,665.8 L1069.3,665.7 L1070.4,665.5 L1071.6,665.3 L1072.7,665.1 L1073.8,665.0 L1074.9,664.8
		L1076.1,664.6 L1077.2,664.4 L1078.3,664.2 L1079.4,664.0 L1080.6,663.8 L1081.7,663.6 L1082.8,663.4 L1083.9,663.2
		L1085.1,663.0 L1086.2,662.8 L1087.3,662.6 L1088.4,662.4 L1089.6,662.2 L1090.7,662.0 L1091.8,661.8 L1092.9,661.6
		L1094.1,661.4 L1095.2,661.1 L1096.3,660.9 L1097.4,660.7 L1098.6,660.5 L1099.7,660.2 L1100.8,660.0 L1101.9,659.8
		L1103.1,659.5 L1104.2,659.3 L1105.3,659.1 L1106.4,658.8 L1107.6,658.6 L1108.7,658.3 L1109.8,658.1 L1110.9,657.9
		L1112.1,657.6 L1113.2,657.4 L1114.3,657.1 L1115.4,656.8 L1116.6,656.6 L1117.7,656.3 L1118.8,656.1 L1120.0,655.8
		L1121.1,655.6 L1122.2,655.3 L1123.3,655.0 L1124.5,654.8 L1125.6,654.5 L1126.7,654.2 L1127.8,654.0 L1129.0,653.7
		L1130.1,653.4 L1131.2,653.2 L1132.3,652.9 L1133.5,652.6 L1134.6,652.3 L1135.7,652.1 L1136.8,651.8 L1138.0,651.5
		L1139.1,651.2 L1140.2,651.0 L1141.3,650.7 L1142.5,650.4 L1143.6,650.1 L1144.7,649.8 L1145.8,649.6 L1147.0,649.3
		L1148.1,649.0 L1149.2,648.7 L1150.3,648.4 L1151.5,648.1 L1152.6,647.9 L1153.7,647.6 L1154.8,647.3 L1156.0,647.0
		L1157.1,646.7 L1158.2,646.5 L1159.3,646.2 L1160.5,645.9 L1161.6,645.6 L1162.7,645.3 L1163.8,645.1 L1165.0,644.8
		L1166.1,644.5 L1167.2,644.2 L1168.3,644.0 L1169.5,643.7 L1170.6,643.4 L1171.7,643.1 L1172.8,642.9 L1174.0,642.6
		L1175.1,642.3 L1176.2,642.1 L1177.3,641.8 L1178.5,641.5 L1179.6,641.3 L1180.7,641.0 L1181.8,640.8 L1183.0,640.5
		L1184.1,640.2 L1185.2,640.0 L1186.3,639.7 L1187.5,639.5 L1188.6,639.3 L1189.7,639.0 L1190.9,638.8 L1192.0,638.5
		L1193.1,638.3 L1194.2,638.1 L1195.4,637.8 L1196.5,637.6 L1197.6,637.4 L1198.7,637.2 L1199.9,636.9 L1201.0,636.7
		L1202.1,636.5 L1203.2,636.3 L1204.4,636.1 L1205.5,635.9 L1206.6,635.7 L1207.7,635.5 L1208.9,635.3 L1210.0,635.1
		L1211.1,634.9 L1212.2,634.8 L1213.4,634.6 L1214.5,634.4 L1215.6,634.2 L1216.7,634.1 L1217.9,633.9 L1219.0,633.7
		L1220.1,633.6 L1221.2,633.4 L1222.4,633.3 L1223.5,633.2 L1224.6,633.0 L1225.7,632.9 L1226.9,632.8 L1228.0,632.6
		L1229.1,632.5 L1230.2,632.4 L1231.4,632.3 L1232.5,632.2 L1233.6,632.1 L1234.7,632.0 L1235.9,631.9 L1237.0,631.8
		L1238.1,631.8 L1239.2,631.7 L1240.4,631.6 L1241.5,631.6 L1242.6,631.5 L1243.7,631.4 L1244.9,631.4 L1246.0,631.3
		L1247.1,631.3 L1248.2,631.3 L1249.4,631.2 L1250.5,631.2 L1251.6,631.2 L1252.7,631.2 L1253.9,631.2 L1255.0,631.2
		 '/></g>
	</g>
	<g id="gnuplot_plot_6" ><title>gnuplot_plot_6</title>
<g fill="none" color="black" stroke="currentColor" stroke-width="1.00" stroke-linecap="butt" stroke-linejoin="miter">
	<path stroke='rgb(  0,   0, 255)'  d='M103.7,67.5 L104.8,70.1 L106.0,77.5 L107.1,88.6 L108.2,102.0 L109.3,116.6 L110.5,131.2 L111.6,145.2
		L112.7,158.1 L113.8,169.7 L115.0,179.9 L116.1,188.9 L117.2,196.7 L118.3,203.3 L119.5,209.1 L120.6,214.0
		L121.7,218.3 L122.8,221.9 L124.0,225.1 L125.1,227.9 L126.2,230.4 L127.3,232.5 L128.5,234.5 L129.6,236.2
		L130.7,237.8 L131.8,239.2 L133.0,240.5 L134.1,241.7 L135.2,242.9 L136.3,244.0 L137.5,245.0 L138.6,246.0
		L139.7,246.9 L140.8,247.8 L142.0,248.7 L143.1,249.6 L144.2,250.5 L145.3,251.3 L146.5,252.1 L147.6,252.9
		L148.7,253.8 L149.8,254.6 L151.0,255.4 L152.1,256.2 L153.2,257.0 L154.3,257.8 L155.5,258.6 L156.6,259.4
		L157.7,260.2 L158.8,261.1 L160.0,261.9 L161.1,262.7 L162.2,263.6 L163.3,264.4 L164.5,265.3 L165.6,266.1
		L166.7,267.0 L167.8,267.8 L169.0,268.7 L170.1,269.6 L171.2,270.5 L172.4,271.3 L173.5,272.2 L174.6,273.1
		L175.7,274.0 L176.9,275.0 L178.0,275.9 L179.1,276.8 L180.2,277.7 L181.4,278.7 L182.5,279.6 L183.6,280.6
		L184.7,281.5 L185.9,282.5 L187.0,283.4 L188.1,284.4 L189.2,285.4 L190.4,286.3 L191.5,287.3 L192.6,288.3
		L193.7,289.3 L194.9,290.3 L196.0,291.3 L197.1,292.3 L198.2,293.3 L199.4,294.3 L200.5,295.3 L201.6,296.3
		L202.7,297.3 L203.9,298.3 L205.0,299.4 L206.1,300.4 L207.2,301.4 L208.4,302.5 L209.5,303.5 L210.6,304.5
		L211.7,305.6 L212.9,306.6 L214.0,307.6 L215.1,308.7 L216.2,309.7 L217.4,310.8 L218.5,311.8 L219.6,312.9
		L220.7,313.9 L221.9,315.0 L223.0,316.0 L224.1,317.1 L225.2,318.1 L226.4,319.2 L227.5,320.3 L228.6,321.3
		L229.7,322.4 L230.9,323.4 L232.0,324.5 L233.1,325.5 L234.2,326.6 L235.4,327.7 L236.5,328.7 L237.6,329.8
		L238.7,330.8 L239.9,331.9 L241.0,333.0 L242.1,334.0 L243.3,335.1 L244.4,336.1 L245.5,337.2 L246.6,338.3
		L247.8,339.3 L248.9,340.4 L250.0,341.4 L251.1,342.5 L252.3,343.5 L253.4,344.6 L254.5,345.6 L255.6,346.7
		L256.8,347.7 L257.9,348.8 L259.0,349.8 L260.1,350.9 L261.3,351.9 L262.4,353.0 L263.5,354.0 L264.6,355.0
		L265.8,356.1 L266.9,357.1 L268.0,358.1 L269.1,359.2 L270.3,360.2 L271.4,361.2 L272.5,362.3 L273.6,363.3
		L274.8,364.3 L275.9,365.3 L277.0,366.4 L278.1,367.4 L279.3,368.4 L280.4,369.4 L281.5,370.4 L282.6,371.4
		L283.8,372.5 L284.9,373.5 L286.0,374.5 L287.1,375.5 L288.3,376.5 L289.4,377.5 L290.5,378.5 L291.6,379.5
		L292.8,380.5 L293.9,381.5 L295.0,382.5 L296.1,383.4 L297.3,384.4 L298.4,385.4 L299.5,386.4 L300.6,387.4
		L301.8,388.3 L302.9,389.3 L304.0,390.3 L305.1,391.3 L306.3,392.2 L307.4,393.2 L308.5,394.2 L309.7,395.1
		L310.8,396.1 L311.9,397.0 L313.0,398.0 L314.2,398.9 L315.3,399.9 L316.4,400.8 L317.5,401.8 L318.7,402.7
		L319.8,403.7 L320.9,404.6 L322.0,405.5 L323.2,406.5 L324.3,407.4 L325.4,408.3 L326.5,409.2 L327.7,410.2
		L328.8,411.1 L329.9,412.0 L331.0,412.9 L332.2,413.8 L333.3,414.7 L334.4,415.6 L335.5,416.5 L336.7,417.4
		L337.8,418.4 L338.9,419.2 L340.0,420.1 L341.2,421.0 L342.3,421.9 L343.4,422.8 L344.5,423.7 L345.7,424.6
		L346.8,425.5 L347.9,426.3 L349.0,427.2 L350.2,428.1 L351.3,429.0 L352.4,429.8 L353.5,430.7 L354.7,431.6
		L355.8,432.4 L356.9,433.3 L358.0,434.1 L359.2,435.0 L360.3,435.8 L361.4,436.7 L362.5,437.5 L363.7,438.4
		L364.8,439.2 L365.9,440.1 L367.0,440.9 L368.2,441.7 L369.3,442.6 L370.4,443.4 L371.5,444.2 L372.7,445.0
		L373.8,445.9 L374.9,446.7 L376.1,447.5 L377.2,448.3 L378.3,449.1 L379.4,449.9 L380.6,450.8 L381.7,451.6
		L382.8,452.4 L383.9,453.2 L385.1,454.0 L386.2,454.8 L387.3,455.6 L388.4,456.3 L389.6,457.1 L390.7,457.9
		L391.8,458.7 L392.9,459.5 L394.1,460.3 L395.2,461.1 L396.3,461.8 L397.4,462.6 L398.6,463.4 L399.7,464.1
		L400.8,464.9 L401.9,465.7 L403.1,466.4 L404.2,467.2 L405.3,468.0 L406.4,468.7 L407.6,469.5 L408.7,470.2
		L409.8,471.0 L410.9,471.7 L412.1,472.5 L413.2,473.2 L414.3,473.9 L415.4,474.7 L416.6,475.4 L417.7,476.1
		L418.8,476.9 L419.9,477.6 L421.1,478.3 L422.2,479.1 L423.3,479.8 L424.4,480.5 L425.6,481.2 L426.7,481.9
		L427.8,482.7 L428.9,483.4 L430.1,484.1 L431.2,484.8 L432.3,485.5 L433.4,486.2 L434.6,486.9 L435.7,487.6
		L436.8,488.3 L437.9,489.0 L439.1,489.7 L440.2,490.4 L441.3,491.1 L442.5,491.8 L443.6,492.4 L444.7,493.1
		L445.8,493.8 L447.0,494.5 L448.1,495.2 L449.2,495.8 L450.3,496.5 L451.5,497.2 L452.6,497.8 L453.7,498.5
		L454.8,499.2 L456.0,499.8 L457.1,500.5 L458.2,501.2 L459.3,501.8 L460.5,502.5 L461.6,503.1 L462.7,503.8
		L463.8,504.4 L465.0,505.1 L466.1,505.7 L467.2,506.4 L468.3,507.0 L469.5,507.7 L470.6,508.3 L471.7,508.9
		L472.8,509.6 L474.0,510.2 L475.1,510.8 L476.2,511.5 L477.3,512.1 L478.5,512.7 L479.6,513.3 L480.7,514.0
		L481.8,514.6 L483.0,515.2 L484.1,515.8 L485.2,516.4 L486.3,517.0 L487.5,517.6 L488.6,518.3 L489.7,518.9
		L490.8,519.5 L492.0,520.1 L493.1,520.7 L494.2,521.3 L495.3,521.9 L496.5,522.5 L497.6,523.1 L498.7,523.7
		L499.8,524.2 L501.0,524.8 L502.1,525.4 L503.2,526.0 L504.3,526.6 L505.5,527.2 L506.6,527.8 L507.7,528.3
		L508.8,528.9 L510.0,529.5 L511.1,530.1 L512.2,530.6 L513.4,531.2 L514.5,531.8 L515.6,532.3 L516.7,532.9
		L517.9,533.5 L519.0,534.0 L520.1,534.6 L521.2,535.2 L522.4,535.7 L523.5,536.3 L524.6,536.8 L525.7,537.4
		L526.9,537.9 L528.0,538.5 L529.1,539.0 L530.2,539.6 L531.4,540.1 L532.5,540.6 L533.6,541.2 L534.7,541.7
		L535.9,542.3 L537.0,542.8 L538.1,543.3 L539.2,543.9 L540.4,544.4 L541.5,544.9 L542.6,545.5 L543.7,546.0
		L544.9,546.5 L546.0,547.0 L547.1,547.6 L548.2,548.1 L549.4,548.6 L550.5,549.1 L551.6,549.6 L552.7,550.1
		L553.9,550.7 L555.0,551.2 L556.1,551.7 L557.2,552.2 L558.4,552.7 L559.5,553.2 L560.6,553.7 L561.7,554.2
		L562.9,554.7 L564.0,555.2 L565.1,555.7 L566.2,556.2 L567.4,556.7 L568.5,557.2 L569.6,557.7 L570.7,558.2
		L571.9,558.7 L573.0,559.1 L574.1,559.6 L575.2,560.1 L576.4,560.6 L577.5,561.1 L578.6,561.6 L579.8,562.0
		L580.9,562.5 L582.0,563.0 L583.1,563.5 L584.3,563.9 L585.4,564.4 L586.5,564.9 L587.6,565.4 L588.8,565.8
		L589.9,566.3 L591.0,566.8 L592.1,567.2 L593.3,567.7 L594.4,568.1 L595.5,568.6 L596.6,569.1 L597.8,569.5
		L598.9,570.0 L600.0,570.4 L601.1,570.9 L602.3,571.3 L603.4,571.8 L604.5,572.2 L605.6,572.7 L606.8,573.1
		L607.9,573.6 L609.0,574.0 L610.1,574.4 L611.3,574.9 L612.4,575.3 L613.5,575.8 L614.6,576.2 L615.8,576.6
		L616.9,577.1 L618.0,577.5 L619.1,577.9 L620.3,578.3 L621.4,578.8 L622.5,579.2 L623.6,579.6 L624.8,580.1
		L625.9,580.5 L627.0,580.9 L628.1,581.3 L629.3,581.7 L630.4,582.2 L631.5,582.6 L632.6,583.0 L633.8,583.4
		L634.9,583.8 L636.0,584.2 L637.1,584.6 L638.3,585.0 L639.4,585.4 L640.5,585.9 L641.6,586.3 L642.8,586.7
		L643.9,587.1 L645.0,587.5 L646.2,587.9 L647.3,588.3 L648.4,588.7 L649.5,589.1 L650.7,589.5 L651.8,589.8
		L652.9,590.2 L654.0,590.6 L655.2,591.0 L656.3,591.4 L657.4,591.8 L658.5,592.2 L659.7,592.6 L660.8,592.9
		L661.9,593.3 L663.0,593.7 L664.2,594.1 L665.3,594.5 L666.4,594.8 L667.5,595.2 L668.7,595.6 L669.8,596.0
		L670.9,596.3 L672.0,596.7 L673.2,597.1 L674.3,597.4 L675.4,597.8 L676.5,598.2 L677.7,598.5 L678.8,598.9
		L679.9,599.3 L681.0,599.6 L682.2,600.0 L683.3,600.4 L684.4,600.7 L685.5,601.1 L686.7,601.4 L687.8,601.8
		L688.9,602.1 L690.0,602.5 L691.2,602.8 L692.3,603.2 L693.4,603.5 L694.5,603.9 L695.7,604.2 L696.8,604.6
		L697.9,604.9 L699.0,605.3 L700.2,605.6 L701.3,605.9 L702.4,606.3 L703.5,606.6 L704.7,607.0 L705.8,607.3
		L706.9,607.6 L708.0,608.0 L709.2,608.3 L710.3,608.6 L711.4,608.9 L712.5,609.3 L713.7,609.6 L714.8,609.9
		L715.9,610.3 L717.1,610.6 L718.2,610.9 L719.3,611.2 L720.4,611.5 L721.6,611.9 L722.7,612.2 L723.8,612.5
		L724.9,612.8 L726.1,613.1 L727.2,613.4 L728.3,613.7 L729.4,614.1 L730.6,614.4 L731.7,614.7 L732.8,615.0
		L733.9,615.3 L735.1,615.6 L736.2,615.9 L737.3,616.2 L738.4,616.5 L739.6,616.8 L740.7,617.1 L741.8,617.4
		L742.9,617.7 L744.1,618.0 L745.2,618.3 L746.3,618.6 L747.4,618.9 L748.6,619.2 L749.7,619.5 L750.8,619.7
		L751.9,620.0 L753.1,620.3 L754.2,620.6 L755.3,620.9 L756.4,621.2 L757.6,621.5 L758.7,621.7 L759.8,622.0
		L760.9,622.3 L762.1,622.6 L763.2,622.8 L764.3,623.1 L765.4,623.4 L766.6,623.7 L767.7,623.9 L768.8,624.2
		L769.9,624.5 L771.1,624.8 L772.2,625.0 L773.3,625.3 L774.4,625.5 L775.6,625.8 L776.7,626.1 L777.8,626.3
		L778.9,626.6 L780.1,626.9 L781.2,627.1 L782.3,627.4 L783.5,627.6 L784.6,627.9 L785.7,628.1 L786.8,628.4
		L788.0,628.6 L789.1,628.9 L790.2,629.1 L791.3,629.4 L792.5,629.6 L793.6,629.9 L794.7,630.1 L795.8,630.4
		L797.0,630.6 L798.1,630.8 L799.2,631.1 L800.3,631.3 L801.5,631.6 L802.6,631.8 L803.7,632.0 L804.8,632.3
		L806.0,632.5 L807.1,632.7 L808.2,633.0 L809.3,633.2 L810.5,633.4 L811.6,633.6 L812.7,633.9 L813.8,634.1
		L815.0,634.3 L816.1,634.5 L817.2,634.8 L818.3,635.0 L819.5,635.2 L820.6,635.4 L821.7,635.6 L822.8,635.8
		L824.0,636.0 L825.1,636.3 L826.2,636.5 L827.3,636.7 L828.5,636.9 L829.6,637.1 L830.7,637.3 L831.8,637.5
		L833.0,637.7 L834.1,637.9 L835.2,638.1 L836.3,638.3 L837.5,638.5 L838.6,638.7 L839.7,638.9 L840.8,639.1
		L842.0,639.3 L843.1,639.5 L844.2,639.7 L845.3,639.9 L846.5,640.1 L847.6,640.2 L848.7,640.4 L849.9,640.6
		L851.0,640.8 L852.1,641.0 L853.2,641.2 L854.4,641.3 L855.5,641.5 L856.6,641.7 L857.7,641.9 L858.9,642.0
		L860.0,642.2 L861.1,642.4 L862.2,642.6 L863.4,642.7 L864.5,642.9 L865.6,643.1 L866.7,643.2 L867.9,643.4
		L869.0,643.6 L870.1,643.7 L871.2,643.9 L872.4,644.0 L873.5,644.2 L874.6,644.4 L875.7,644.5 L876.9,644.7
		L878.0,644.8 L879.1,645.0 L880.2,645.1 L881.4,645.3 L882.5,645.4 L883.6,645.5 L884.7,645.7 L885.9,645.8
		L887.0,646.0 L888.1,646.1 L889.2,646.3 L890.4,646.4 L891.5,646.5 L892.6,646.7 L893.7,646.8 L894.9,646.9
		L896.0,647.1 L897.1,647.2 L898.2,647.3 L899.4,647.4 L900.5,647.6 L901.6,647.7 L902.7,647.8 L903.9,647.9
		L905.0,648.0 L906.1,648.2 L907.2,648.3 L908.4,648.4 L909.5,648.5 L910.6,648.6 L911.7,648.7 L912.9,648.8
		L914.0,648.9 L915.1,649.0 L916.2,649.1 L917.4,649.2 L918.5,649.3 L919.6,649.4 L920.8,649.5 L921.9,649.6
		L923.0,649.7 L924.1,649.8 L925.3,649.9 L926.4,650.0 L927.5,650.1 L928.6,650.2 L929.8,650.2 L930.9,650.3
		L932.0,650.4 L933.1,650.5 L934.3,650.6 L935.4,650.6 L936.5,650.7 L937.6,650.8 L938.8,650.9 L939.9,650.9
		L941.0,651.0 L942.1,651.1 L943.3,651.1 L944.4,651.2 L945.5,651.2 L946.6,651.3 L947.8,651.4 L948.9,651.4
		L950.0,651.5 L951.1,651.5 L952.3,651.6 L953.4,651.6 L954.5,651.7 L955.6,651.7 L956.8,651.8 L957.9,651.8
		L959.0,651.8 L960.1,651.9 L961.3,651.9 L962.4,651.9 L963.5,652.0 L964.6,652.0 L965.8,652.0 L966.9,652.1
		L968.0,652.1 L969.1,652.1 L970.3,652.1 L971.4,652.1 L972.5,652.2 L973.6,652.2 L974.8,652.2 L975.9,652.2
		L977.0,652.2 L978.1,652.2 L979.3,652.2 L980.4,652.2 L981.5,652.2 L982.6,652.2 L983.8,652.2 L984.9,652.2
		L986.0,652.2 L987.2,652.2 L988.3,652.2 L989.4,652.2 L990.5,652.2 L991.7,652.2 L992.8,652.1 L993.9,652.1
		L995.0,652.1 L996.2,652.1 L997.3,652.0 L998.4,652.0 L999.5,652.0 L1000.7,651.9 L1001.8,651.9 L1002.9,651.9
		L1004.0,651.8 L1005.2,651.8 L1006.3,651.7 L1007.4,651.7 L1008.5,651.6 L1009.7,651.6 L1010.8,651.5 L1011.9,651.5
		L1013.0,651.4 L1014.2,651.4 L1015.3,651.3 L1016.4,651.2 L1017.5,651.2 L1018.7,651.1 L1019.8,651.0 L1020.9,651.0
		L1022.0,650.9 L1023.2,650.8 L1024.3,650.7 L1025.4,650.6 L1026.5,650.6 L1027.7,650.5 L1028.8,650.4 L1029.9,650.3
		L1031.0,650.2 L1032.2,650.1 L1033.3,650.0 L1034.4,649.9 L1035.5,649.8 L1036.7,649.7 L1037.8,649.6 L1038.9,649.5
		L1040.0,649.4 L1041.2,649.3 L1042.3,649.1 L1043.4,649.0 L1044.5,648.9 L1045.7,648.8 L1046.8,648.6 L1047.9,648.5
		L1049.0,648.4 L1050.2,648.2 L1051.3,648.1 L1052.4,648.0 L1053.6,647.8 L1054.7,647.7 L1055.8,647.5 L1056.9,647.4
		L1058.1,647.2 L1059.2,647.1 L1060.3,646.9 L1061.4,646.8 L1062.6,646.6 L1063.7,646.5 L1064.8,646.3 L1065.9,646.1
		L1067.1,646.0 L1068.2,645.8 L1069.3,645.6 L1070.4,645.4 L1071.6,645.3 L1072.7,645.1 L1073.8,644.9 L1074.9,644.7
		L1076.1,644.5 L1077.2,644.3 L1078.3,644.1 L1079.4,643.9 L1080.6,643.7 L1081.7,643.5 L1082.8,643.3 L1083.9,643.1
		L1085.1,642.9 L1086.2,642.7 L1087.3,642.5 L1088.4,642.3 L1089.6,642.1 L1090.7,641.9 L1091.8,641.7 L1092.9,641.4
		L1094.1,641.2 L1095.2,641.0 L1096.3,640.8 L1097.4,640.5 L1098.6,640.3 L1099.7,640.1 L1100.8,639.8 L1101.9,639.6
		L1103.1,639.4 L1104.2,639.1 L1105.3,638.9 L1106.4,638.6 L1107.6,638.4 L1108.7,638.1 L1109.8,637.9 L1110.9,637.6
		L1112.1,637.4 L1113.2,637.1 L1114.3,636.9 L1115.4,636.6 L1116.6,636.3 L1117.7,636.1 L1118.8,635.8 L1120.0,635.6
		L1121.1,635.3 L1122.2,635.0 L1123.3,634.8 L1124.5,634.5 L1125.6,634.2 L1126.7,633.9 L1127.8,633.7 L1129.0,633.4
		L1130.1,633.1 L1131.2,632.8 L1132.3,632.6 L1133.5,632.3 L1134.6,632.0 L1135.7,631.7 L1136.8,631.5 L1138.0,631.2
		L1139.1,630.9 L1140.2,630.6 L1141.3,630.3 L1142.5,630.0 L1143.6,629.8 L1144.7,629.5 L1145.8,629.2 L1147.0,628.9
		L1148.1,628.6 L1149.2,628.3 L1150.3,628.0 L1151.5,627.8 L1152.6,627.5 L1153.7,627.2 L1154.8,626.9 L1156.0,626.6
		L1157.1,626.3 L1158.2,626.0 L1159.3,625.8 L1160.5,625.5 L1161.6,625.2 L1162.7,624.9 L1163.8,624.6 L1165.0,624.3
		L1166.1,624.1 L1167.2,623.8 L1168.3,623.5 L1169.5,623.2 L1170.6,623.0 L1171.7,622.7 L1172.8,622.4 L1174.0,622.1
		L1175.1,621.9 L1176.2,621.6 L1177.3,621.3 L1178.5,621.1 L1179.6,620.8 L1180.7,620.5 L1181.8,620.3 L1183.0,620.0
		L1184.1,619.7 L1185.2,619.5 L1186.3,619.2 L1187.5,619.0 L1188.6,618.7 L1189.7,618.5 L1190.9,618.2 L1192.0,618.0
		L1193.1,617.8 L1194.2,617.5 L1195.4,617.3 L1196.5,617.1 L1197.6,616.8 L1198.7,616.6 L1199.9,616.4 L1201.0,616.2
		L1202.1,616.0 L1203.2,615.7 L1204.4,615.5 L1205.5,615.3 L1206.6,615.1 L1207.7,614.9 L1208.9,614.7 L1210.0,614.5
		L1211.1,614.4 L1212.2,614.2 L1213.4,614.0 L1214.5,613.8 L1215.6,613.6 L1216.7,613.5 L1217.9,613.3 L1219.0,613.2
		L1220.1,613.0 L1221.2,612.9 L1222.4,612.7 L1223.5,612.6 L1224.6,612.4 L1225.7,612.3 L1226.9,612.2 L1228.0,612.0
		L1229.1,611.9 L1230.2,611.8 L1231.4,611.7 L1232.5,611.6 L1233.6,611.5 L1234.7,611.4 L1235.9,611.3 L1237.0,611.2
		L1238.1,611.1 L1239.2,611.1 L1240.4,611.0 L1241.5,610.9 L1242.6,610.9 L1243.7,610.8 L1244.9,610.8 L1246.0,610.7
		L1247.1,610.7 L1248.2,610.7 L1249.4,610.6 L1250.5,610.6 L1251.6,610.6 L1252.7,610.6 L1253.9,610.6 L1255.0,610.6
		 '/></g>
	</g>
<g fill="none" color="white" stroke="rgb(  0,   0, 255)" stroke-width="2.00" stroke-linecap="butt" stroke-linejoin="miter">
</g>
<g fill="none" color="black" stroke="currentColor" stroke-width="2.00" stroke-linecap="butt" stroke-linejoin="miter">
</g>
<g fill="none" color="black" stroke="black" stroke-width="1.00" stroke-linecap="butt" stroke-linejoin="miter">
</g>
<g fill="none" color="black" stroke="currentColor" stroke-width="1.00" stroke-linecap="butt" stroke-linejoin="miter">
	<path stroke='black'  d='M103.7,54.1 L103.7,684.0 L1255.0,684.0 L1255.0,54.1 L103.7,54.1 Z  '/></g>
<g fill="none" color="black" stroke="currentColor" stroke-width="1.00" stroke-linecap="butt" stroke-linejoin="miter">
</g>
</g>
</svg>

