<?xml version="1.0" encoding="utf-8"  standalone="no"?>
<svg 
 width="1280" height="720"
 viewBox="0 0 1280 720"
 xmlns="http://www.w3.org/2000/svg"
 xmlns:xlink="http://www.w3.org/1999/xlink"
>

<title>Gnuplot</title>
<desc>Produced by GNUPLOT 5.0 patchlevel 6 </desc>

<g id="gnuplot_canvas">

<rect x="0" y="0" width="1280" height="720" fill="none"/>
<defs>

	<circle id='gpDot' r='0.5' stroke-width='0.5'/>
	<path id='gpPt0' stroke-width='0.222' stroke='currentColor' d='M-1,0 h2 M0,-1 v2'/>
	<path id='gpPt1' stroke-width='0.222' stroke='currentColor' d='M-1,-1 L1,1 M1,-1 L-1,1'/>
	<path id='gpPt2' stroke-width='0.222' stroke='currentColor' d='M-1,0 L1,0 M0,-1 L0,1 M-1,-1 L1,1 M-1,1 L1,-1'/>
	<rect id='gpPt3' stroke-width='0.222' stroke='currentColor' x='-1' y='-1' width='2' height='2'/>
	<rect id='gpPt4' stroke-width='0.222' stroke='currentColor' fill='currentColor' x='-1' y='-1' width='2' height='2'/>
	<circle id='gpPt5' stroke-width='0.222' stroke='currentColor' cx='0' cy='0' r='1'/>
	<use xlink:href='#gpPt5' id='gpPt6' fill='currentColor' stroke='none'/>
	<path id='gpPt7' stroke-width='0.222' stroke='currentColor' d='M0,-1.33 L-1.33,0.67 L1.33,0.67 z'/>
	<use xlink:href='#gpPt7' id='gpPt8' fill='currentColor' stroke='none'/>
	<use xlink:href='#gpPt7' id='gpPt9' stroke='currentColor' transform='rotate(180)'/>
	<use xlink:href='#gpPt9' id='gpPt10' fill='currentColor' stroke='none'/>
	<use xlink:href='#gpPt3' id='gpPt11' stroke='currentColor' transform='rotate(45)'/>
	<use xlink:href='#gpPt11' id='gpPt12' fill='currentColor' stroke='none'/>
	<path id='gpPt13' stroke-width='0.222' stroke='currentColor' d='M0,1.330 L1.265,0.411 L0.782,-1.067 L-0.782,-1.076 L-1.265,0.411 z'/>
	<use xlink:href='#gpPt13' id='gpPt14' fill='currentColor' stroke='none'/>
	<filter id='textbox' filterUnits='objectBoundingBox' x='0' y='0' height='1' width='1'>
	  <feFlood flood-color='white' flood-opacity='1' result='bgnd'/>
	  <feComposite in='SourceGraphic' in2='bgnd' operator='atop'/>
	</filter>
	<filter id='greybox' filterUnits='objectBoundingBox' x='0' y='0' height='1' width='1'>
	  <feFlood flood-color='lightgrey' flood-opacity='1' result='grey'/>
	  <feComposite in='SourceGraphic' in2='grey' operator='atop'/>
	</filter>
</defs>
<g fill="none" color="white" stroke="currentColor" stroke-width="1.00" stroke-linecap="butt" stroke-linejoin="miter">
</g>
<g fill="none" color="black" stroke="currentColor" stroke-width="1.00" stroke-linecap="butt" stroke-linejoin="miter">
	<path stroke='black'  d='M53.9,684.0 L62.9,684.0 M1255.0,684.0 L1246.0,684.0  '/>	<g transform="translate(45.6,687.9)" stroke="none" fill="black" font-family="Arial" font-size="12.00"  text-anchor="end">
		<text><tspan font-family="Arial" > 0</tspan></text>
	</g>
</g>
<g fill="none" color="black" stroke="currentColor" stroke-width="1.00" stroke-linecap="butt" stroke-linejoin="miter">
	<path stroke='black'  d='M53.9,349.9 L62.9,349.9 M1255.0,349.9 L1246.0,349.9  '/>	<g transform="translate(45.6,353.8)" stroke="none" fill="black" font-family="Arial" font-size="12.00"  text-anchor="end">
		<text><tspan font-family="Arial" > 0.5</tspan></text>
	</g>
</g>
<g fill="none" color="black" stroke="currentColor" stroke-width="1.00" stroke-linecap="butt" stroke-linejoin="miter">
	<path stroke='black'  d='M53.9,684.0 L53.9,675.0 M53.9,54.1 L53.9,63.1  '/>	<g transform="translate(53.9,705.9)" stroke="none" fill="black" font-family="Arial" font-size="12.00"  text-anchor="middle">
		<text><tspan font-family="Arial" > 0</tspan></text>
	</g>
</g>
<g fill="none" color="black" stroke="currentColor" stroke-width="1.00" stroke-linecap="butt" stroke-linejoin="miter">
	<path stroke='black'  d='M654.5,684.0 L654.5,675.0 M654.5,54.1 L654.5,63.1  '/>	<g transform="translate(654.5,705.9)" stroke="none" fill="black" font-family="Arial" font-size="12.00"  text-anchor="middle">
		<text><tspan font-family="Arial" >pi/2</tspan></text>
	</g>
</g>
<g fill="none" color="black" stroke="currentColor" stroke-width="1.00" stroke-linecap="butt" stroke-linejoin="miter">
	<path stroke='black'  d='M1255.0,684.0 L1255.0,675.0 M1255.0,54.1 L1255.0,63.1  '/>	<g transform="translate(1255.0,705.9)" stroke="none" fill="black" font-family="Arial" font-size="12.00"  text-anchor="middle">
		<text><tspan font-family="Arial" >pi</tspan></text>
	</g>
</g>
<g fill="none" color="black" stroke="currentColor" stroke-width="1.00" stroke-linecap="butt" stroke-linejoin="miter">
</g>
<g fill="none" color="black" stroke="currentColor" stroke-width="1.00" stroke-linecap="butt" stroke-linejoin="miter">
	<path stroke='black'  d='M53.9,54.1 L53.9,684.0 L1255.0,684.0 L1255.0,54.1 L53.9,54.1 Z  '/></g>
<g fill="none" color="black" stroke="currentColor" stroke-width="1.00" stroke-linecap="butt" stroke-linejoin="miter">
	<g transform="translate(654.4,31.0)" stroke="none" fill="black" font-family="Arial" font-size="12.00"  text-anchor="middle">
		<text><tspan font-family="Arial" >Material 12, with 2 components</tspan></text>
	</g>
</g>
	<g id="gnuplot_plot_1" ><title>scattering function</title>
<g fill="none" color="black" stroke="currentColor" stroke-width="1.00" stroke-linecap="butt" stroke-linejoin="miter">
	<g transform="translate(1187.9,76.0)" stroke="none" fill="black" font-family="Arial" font-size="12.00"  text-anchor="end">
		<text><tspan font-family="Arial" >scattering function</tspan></text>
	</g>
</g>
<g fill="none" color="black" stroke="currentColor" stroke-width="1.00" stroke-linecap="butt" stroke-linejoin="miter">
	<use xlink:href='#gpPt5' transform='translate(61.3,54.1) scale(2.25)' color='rgb(255,   0,   0)'/>
	<use xlink:href='#gpPt5' transform='translate(71.2,146.2) scale(2.25)' color='rgb(255,   0,   0)'/>
	<use xlink:href='#gpPt5' transform='translate(77.2,209.7) scale(2.25)' color='rgb(255,   0,   0)'/>
	<use xlink:href='#gpPt5' transform='translate(85.1,259.0) scale(2.25)' color='rgb(255,   0,   0)'/>
	<use xlink:href='#gpPt5' transform='translate(92.0,333.5) scale(2.25)' color='rgb(255,   0,   0)'/>
	<use xlink:href='#gpPt5' transform='translate(98.9,383.6) scale(2.25)' color='rgb(255,   0,   0)'/>
	<use xlink:href='#gpPt5' transform='translate(104.9,433.3) scale(2.25)' color='rgb(255,   0,   0)'/>
	<use xlink:href='#gpPt5' transform='translate(116.8,495.9) scale(2.25)' color='rgb(255,   0,   0)'/>
	<use xlink:href='#gpPt5' transform='translate(123.7,531.9) scale(2.25)' color='rgb(255,   0,   0)'/>
	<use xlink:href='#gpPt5' transform='translate(137.5,570.5) scale(2.25)' color='rgb(255,   0,   0)'/>
	<use xlink:href='#gpPt5' transform='translate(147.4,594.9) scale(2.25)' color='rgb(255,   0,   0)'/>
	<use xlink:href='#gpPt5' transform='translate(162.3,618.6) scale(2.25)' color='rgb(255,   0,   0)'/>
	<use xlink:href='#gpPt5' transform='translate(173.2,630.9) scale(2.25)' color='rgb(255,   0,   0)'/>
	<use xlink:href='#gpPt5' transform='translate(188.0,643.9) scale(2.25)' color='rgb(255,   0,   0)'/>
	<use xlink:href='#gpPt5' transform='translate(205.8,653.4) scale(2.25)' color='rgb(255,   0,   0)'/>
	<use xlink:href='#gpPt5' transform='translate(230.6,663.4) scale(2.25)' color='rgb(255,   0,   0)'/>
	<use xlink:href='#gpPt5' transform='translate(257.3,669.5) scale(2.25)' color='rgb(255,   0,   0)'/>
	<use xlink:href='#gpPt5' transform='translate(290.0,674.8) scale(2.25)' color='rgb(255,   0,   0)'/>
	<use xlink:href='#gpPt5' transform='translate(320.6,676.7) scale(2.25)' color='rgb(255,   0,   0)'/>
	<use xlink:href='#gpPt5' transform='translate(358.3,678.6) scale(2.25)' color='rgb(255,   0,   0)'/>
	<use xlink:href='#gpPt5' transform='translate(392.9,679.8) scale(2.25)' color='rgb(255,   0,   0)'/>
	<use xlink:href='#gpPt5' transform='translate(483.0,681.3) scale(2.25)' color='rgb(255,   0,   0)'/>
	<use xlink:href='#gpPt5' transform='translate(558.2,681.7) scale(2.25)' color='rgb(255,   0,   0)'/>
	<use xlink:href='#gpPt5' transform='translate(625.5,682.5) scale(2.25)' color='rgb(255,   0,   0)'/>
	<use xlink:href='#gpPt5' transform='translate(706.7,682.9) scale(2.25)' color='rgb(255,   0,   0)'/>
	<use xlink:href='#gpPt5' transform='translate(899.7,683.2) scale(2.25)' color='rgb(255,   0,   0)'/>
	<use xlink:href='#gpPt5' transform='translate(1062.0,683.6) scale(2.25)' color='rgb(255,   0,   0)'/>
	<use xlink:href='#gpPt5' transform='translate(1255.0,684.0) scale(2.25)' color='rgb(255,   0,   0)'/>
	<use xlink:href='#gpPt5' transform='translate(1217.3,72.1) scale(2.25)' color='rgb(255,   0,   0)'/>
</g>
	</g>
	<g id="gnuplot_plot_2" ><title>fit</title>
<g fill="none" color="black" stroke="currentColor" stroke-width="1.00" stroke-linecap="butt" stroke-linejoin="miter">
	<g transform="translate(1187.9,94.0)" stroke="none" fill="black" font-family="Arial" font-size="12.00"  text-anchor="end">
		<text><tspan font-family="Arial" >fit</tspan></text>
	</g>
</g>
<g fill="none" color="black" stroke="currentColor" stroke-width="1.00" stroke-linecap="butt" stroke-linejoin="miter">
	<path stroke='rgb(255,   0,   0)'  d='M1196.2,90.1 L1238.4,90.1 M53.9,66.4 L55.1,66.8 L56.2,67.9 L57.4,69.8 L58.6,72.4 L59.8,75.7
		L60.9,79.7 L62.1,84.4 L63.3,89.8 L64.5,95.7 L65.6,102.2 L66.8,109.3 L68.0,116.9 L69.2,125.0
		L70.3,133.5 L71.5,142.4 L72.7,151.6 L73.9,161.2 L75.0,171.0 L76.2,181.0 L77.4,191.3 L78.6,201.7
		L79.7,212.2 L80.9,222.8 L82.1,233.4 L83.3,244.1 L84.4,254.7 L85.6,265.4 L86.8,275.9 L87.9,286.4
		L89.1,296.8 L90.3,307.1 L91.5,317.2 L92.6,327.2 L93.8,337.1 L95.0,346.7 L96.2,356.2 L97.3,365.5
		L98.5,374.6 L99.7,383.5 L100.9,392.2 L102.0,400.6 L103.2,408.9 L104.4,417.0 L105.6,424.8 L106.7,432.4
		L107.9,439.8 L109.1,447.0 L110.3,454.0 L111.4,460.8 L112.6,467.4 L113.8,473.8 L115.0,480.0 L116.1,486.1
		L117.3,491.9 L118.5,497.5 L119.6,503.0 L120.8,508.3 L122.0,513.4 L123.2,518.4 L124.3,523.2 L125.5,527.8
		L126.7,532.3 L127.9,536.7 L129.0,540.9 L130.2,544.9 L131.4,548.9 L132.6,552.7 L133.7,556.4 L134.9,559.9
		L136.1,563.4 L137.3,566.7 L138.4,569.9 L139.6,573.1 L140.8,576.1 L142.0,579.0 L143.1,581.8 L144.3,584.5
		L145.5,587.2 L146.7,589.7 L147.8,592.2 L149.0,594.6 L150.2,596.9 L151.3,599.2 L152.5,601.4 L153.7,603.5
		L154.9,605.5 L156.0,607.5 L157.2,609.4 L158.4,611.2 L159.6,613.0 L160.7,614.8 L161.9,616.5 L163.1,618.1
		L164.3,619.7 L165.4,621.2 L166.6,622.7 L167.8,624.2 L169.0,625.6 L170.1,626.9 L171.3,628.2 L172.5,629.5
		L173.7,630.8 L174.8,632.0 L176.0,633.1 L177.2,634.3 L178.4,635.4 L179.5,636.5 L180.7,637.5 L181.9,638.5
		L183.1,639.5 L184.2,640.4 L185.4,641.4 L186.6,642.3 L187.7,643.2 L188.9,644.0 L190.1,644.8 L191.3,645.6
		L192.4,646.4 L193.6,647.2 L194.8,647.9 L196.0,648.7 L197.1,649.4 L198.3,650.1 L199.5,650.7 L200.7,651.4
		L201.8,652.0 L203.0,652.6 L204.2,653.2 L205.4,653.8 L206.5,654.4 L207.7,654.9 L208.9,655.5 L210.1,656.0
		L211.2,656.5 L212.4,657.0 L213.6,657.5 L214.8,658.0 L215.9,658.5 L217.1,658.9 L218.3,659.4 L219.4,659.8
		L220.6,660.2 L221.8,660.6 L223.0,661.0 L224.1,661.4 L225.3,661.8 L226.5,662.2 L227.7,662.5 L228.8,662.9
		L230.0,663.2 L231.2,663.6 L232.4,663.9 L233.5,664.3 L234.7,664.6 L235.9,664.9 L237.1,665.2 L238.2,665.5
		L239.4,665.8 L240.6,666.1 L241.8,666.3 L242.9,666.6 L244.1,666.9 L245.3,667.1 L246.5,667.4 L247.6,667.6
		L248.8,667.9 L250.0,668.1 L251.1,668.4 L252.3,668.6 L253.5,668.8 L254.7,669.0 L255.8,669.3 L257.0,669.5
		L258.2,669.7 L259.4,669.9 L260.5,670.1 L261.7,670.3 L262.9,670.5 L264.1,670.6 L265.2,670.8 L266.4,671.0
		L267.6,671.2 L268.8,671.4 L269.9,671.5 L271.1,671.7 L272.3,671.9 L273.5,672.0 L274.6,672.2 L275.8,672.3
		L277.0,672.5 L278.2,672.6 L279.3,672.8 L280.5,672.9 L281.7,673.0 L282.8,673.2 L284.0,673.3 L285.2,673.4
		L286.4,673.6 L287.5,673.7 L288.7,673.8 L289.9,674.0 L291.1,674.1 L292.2,674.2 L293.4,674.3 L294.6,674.4
		L295.8,674.5 L296.9,674.6 L298.1,674.8 L299.3,674.9 L300.5,675.0 L301.6,675.1 L302.8,675.2 L304.0,675.3
		L305.2,675.4 L306.3,675.5 L307.5,675.6 L308.7,675.6 L309.9,675.7 L311.0,675.8 L312.2,675.9 L313.4,676.0
		L314.5,676.1 L315.7,676.2 L316.9,676.3 L318.1,676.3 L319.2,676.4 L320.4,676.5 L321.6,676.6 L322.8,676.7
		L323.9,676.7 L325.1,676.8 L326.3,676.9 L327.5,676.9 L328.6,677.0 L329.8,677.1 L331.0,677.2 L332.2,677.2
		L333.3,677.3 L334.5,677.4 L335.7,677.4 L336.9,677.5 L338.0,677.5 L339.2,677.6 L340.4,677.7 L341.6,677.7
		L342.7,677.8 L343.9,677.8 L345.1,677.9 L346.2,678.0 L347.4,678.0 L348.6,678.1 L349.8,678.1 L350.9,678.2
		L352.1,678.2 L353.3,678.3 L354.5,678.3 L355.6,678.4 L356.8,678.4 L358.0,678.5 L359.2,678.5 L360.3,678.6
		L361.5,678.6 L362.7,678.7 L363.9,678.7 L365.0,678.8 L366.2,678.8 L367.4,678.8 L368.6,678.9 L369.7,678.9
		L370.9,679.0 L372.1,679.0 L373.3,679.1 L374.4,679.1 L375.6,679.1 L376.8,679.2 L378.0,679.2 L379.1,679.2
		L380.3,679.3 L381.5,679.3 L382.6,679.4 L383.8,679.4 L385.0,679.4 L386.2,679.5 L387.3,679.5 L388.5,679.5
		L389.7,679.6 L390.9,679.6 L392.0,679.6 L393.2,679.7 L394.4,679.7 L395.6,679.7 L396.7,679.8 L397.9,679.8
		L399.1,679.8 L400.3,679.9 L401.4,679.9 L402.6,679.9 L403.8,679.9 L405.0,680.0 L406.1,680.0 L407.3,680.0
		L408.5,680.1 L409.7,680.1 L410.8,680.1 L412.0,680.1 L413.2,680.2 L414.3,680.2 L415.5,680.2 L416.7,680.3
		L417.9,680.3 L419.0,680.3 L420.2,680.3 L421.4,680.4 L422.6,680.4 L423.7,680.4 L424.9,680.4 L426.1,680.4
		L427.3,680.5 L428.4,680.5 L429.6,680.5 L430.8,680.5 L432.0,680.6 L433.1,680.6 L434.3,680.6 L435.5,680.6
		L436.7,680.7 L437.8,680.7 L439.0,680.7 L440.2,680.7 L441.4,680.7 L442.5,680.8 L443.7,680.8 L444.9,680.8
		L446.0,680.8 L447.2,680.8 L448.4,680.9 L449.6,680.9 L450.7,680.9 L451.9,680.9 L453.1,680.9 L454.3,681.0
		L455.4,681.0 L456.6,681.0 L457.8,681.0 L459.0,681.0 L460.1,681.0 L461.3,681.1 L462.5,681.1 L463.7,681.1
		L464.8,681.1 L466.0,681.1 L467.2,681.1 L468.4,681.2 L469.5,681.2 L470.7,681.2 L471.9,681.2 L473.1,681.2
		L474.2,681.2 L475.4,681.3 L476.6,681.3 L477.7,681.3 L478.9,681.3 L480.1,681.3 L481.3,681.3 L482.4,681.3
		L483.6,681.4 L484.8,681.4 L486.0,681.4 L487.1,681.4 L488.3,681.4 L489.5,681.4 L490.7,681.4 L491.8,681.5
		L493.0,681.5 L494.2,681.5 L495.4,681.5 L496.5,681.5 L497.7,681.5 L498.9,681.5 L500.1,681.6 L501.2,681.6
		L502.4,681.6 L503.6,681.6 L504.8,681.6 L505.9,681.6 L507.1,681.6 L508.3,681.6 L509.4,681.7 L510.6,681.7
		L511.8,681.7 L513.0,681.7 L514.1,681.7 L515.3,681.7 L516.5,681.7 L517.7,681.7 L518.8,681.8 L520.0,681.8
		L521.2,681.8 L522.4,681.8 L523.5,681.8 L524.7,681.8 L525.9,681.8 L527.1,681.8 L528.2,681.8 L529.4,681.9
		L530.6,681.9 L531.8,681.9 L532.9,681.9 L534.1,681.9 L535.3,681.9 L536.5,681.9 L537.6,681.9 L538.8,681.9
		L540.0,681.9 L541.1,682.0 L542.3,682.0 L543.5,682.0 L544.7,682.0 L545.8,682.0 L547.0,682.0 L548.2,682.0
		L549.4,682.0 L550.5,682.0 L551.7,682.0 L552.9,682.1 L554.1,682.1 L555.2,682.1 L556.4,682.1 L557.6,682.1
		L558.8,682.1 L559.9,682.1 L561.1,682.1 L562.3,682.1 L563.5,682.1 L564.6,682.1 L565.8,682.1 L567.0,682.2
		L568.2,682.2 L569.3,682.2 L570.5,682.2 L571.7,682.2 L572.9,682.2 L574.0,682.2 L575.2,682.2 L576.4,682.2
		L577.5,682.2 L578.7,682.2 L579.9,682.2 L581.1,682.3 L582.2,682.3 L583.4,682.3 L584.6,682.3 L585.8,682.3
		L586.9,682.3 L588.1,682.3 L589.3,682.3 L590.5,682.3 L591.6,682.3 L592.8,682.3 L594.0,682.3 L595.2,682.3
		L596.3,682.4 L597.5,682.4 L598.7,682.4 L599.9,682.4 L601.0,682.4 L602.2,682.4 L603.4,682.4 L604.6,682.4
		L605.7,682.4 L606.9,682.4 L608.1,682.4 L609.2,682.4 L610.4,682.4 L611.6,682.4 L612.8,682.5 L613.9,682.5
		L615.1,682.5 L616.3,682.5 L617.5,682.5 L618.6,682.5 L619.8,682.5 L621.0,682.5 L622.2,682.5 L623.3,682.5
		L624.5,682.5 L625.7,682.5 L626.9,682.5 L628.0,682.5 L629.2,682.5 L630.4,682.6 L631.6,682.6 L632.7,682.6
		L633.9,682.6 L635.1,682.6 L636.3,682.6 L637.4,682.6 L638.6,682.6 L639.8,682.6 L640.9,682.6 L642.1,682.6
		L643.3,682.6 L644.5,682.6 L645.6,682.6 L646.8,682.6 L648.0,682.6 L649.2,682.7 L650.3,682.7 L651.5,682.7
		L652.7,682.7 L653.9,682.7 L655.0,682.7 L656.2,682.7 L657.4,682.7 L658.6,682.7 L659.7,682.7 L660.9,682.7
		L662.1,682.7 L663.3,682.7 L664.4,682.7 L665.6,682.7 L666.8,682.7 L668.0,682.7 L669.1,682.7 L670.3,682.8
		L671.5,682.8 L672.6,682.8 L673.8,682.8 L675.0,682.8 L676.2,682.8 L677.3,682.8 L678.5,682.8 L679.7,682.8
		L680.9,682.8 L682.0,682.8 L683.2,682.8 L684.4,682.8 L685.6,682.8 L686.7,682.8 L687.9,682.8 L689.1,682.8
		L690.3,682.8 L691.4,682.8 L692.6,682.8 L693.8,682.9 L695.0,682.9 L696.1,682.9 L697.3,682.9 L698.5,682.9
		L699.7,682.9 L700.8,682.9 L702.0,682.9 L703.2,682.9 L704.3,682.9 L705.5,682.9 L706.7,682.9 L707.9,682.9
		L709.0,682.9 L710.2,682.9 L711.4,682.9 L712.6,682.9 L713.7,682.9 L714.9,682.9 L716.1,682.9 L717.3,682.9
		L718.4,683.0 L719.6,683.0 L720.8,683.0 L722.0,683.0 L723.1,683.0 L724.3,683.0 L725.5,683.0 L726.7,683.0
		L727.8,683.0 L729.0,683.0 L730.2,683.0 L731.4,683.0 L732.5,683.0 L733.7,683.0 L734.9,683.0 L736.0,683.0
		L737.2,683.0 L738.4,683.0 L739.6,683.0 L740.7,683.0 L741.9,683.0 L743.1,683.0 L744.3,683.0 L745.4,683.0
		L746.6,683.1 L747.8,683.1 L749.0,683.1 L750.1,683.1 L751.3,683.1 L752.5,683.1 L753.7,683.1 L754.8,683.1
		L756.0,683.1 L757.2,683.1 L758.4,683.1 L759.5,683.1 L760.7,683.1 L761.9,683.1 L763.1,683.1 L764.2,683.1
		L765.4,683.1 L766.6,683.1 L767.8,683.1 L768.9,683.1 L770.1,683.1 L771.3,683.1 L772.4,683.1 L773.6,683.1
		L774.8,683.1 L776.0,683.1 L777.1,683.2 L778.3,683.2 L779.5,683.2 L780.7,683.2 L781.8,683.2 L783.0,683.2
		L784.2,683.2 L785.4,683.2 L786.5,683.2 L787.7,683.2 L788.9,683.2 L790.1,683.2 L791.2,683.2 L792.4,683.2
		L793.6,683.2 L794.8,683.2 L795.9,683.2 L797.1,683.2 L798.3,683.2 L799.5,683.2 L800.6,683.2 L801.8,683.2
		L803.0,683.2 L804.1,683.2 L805.3,683.2 L806.5,683.2 L807.7,683.2 L808.8,683.2 L810.0,683.2 L811.2,683.3
		L812.4,683.3 L813.5,683.3 L814.7,683.3 L815.9,683.3 L817.1,683.3 L818.2,683.3 L819.4,683.3 L820.6,683.3
		L821.8,683.3 L822.9,683.3 L824.1,683.3 L825.3,683.3 L826.5,683.3 L827.6,683.3 L828.8,683.3 L830.0,683.3
		L831.2,683.3 L832.3,683.3 L833.5,683.3 L834.7,683.3 L835.8,683.3 L837.0,683.3 L838.2,683.3 L839.4,683.3
		L840.5,683.3 L841.7,683.3 L842.9,683.3 L844.1,683.3 L845.2,683.3 L846.4,683.3 L847.6,683.3 L848.8,683.4
		L849.9,683.4 L851.1,683.4 L852.3,683.4 L853.5,683.4 L854.6,683.4 L855.8,683.4 L857.0,683.4 L858.2,683.4
		L859.3,683.4 L860.5,683.4 L861.7,683.4 L862.9,683.4 L864.0,683.4 L865.2,683.4 L866.4,683.4 L867.5,683.4
		L868.7,683.4 L869.9,683.4 L871.1,683.4 L872.2,683.4 L873.4,683.4 L874.6,683.4 L875.8,683.4 L876.9,683.4
		L878.1,683.4 L879.3,683.4 L880.5,683.4 L881.6,683.4 L882.8,683.4 L884.0,683.4 L885.2,683.4 L886.3,683.4
		L887.5,683.4 L888.7,683.4 L889.9,683.4 L891.0,683.5 L892.2,683.5 L893.4,683.5 L894.6,683.5 L895.7,683.5
		L896.9,683.5 L898.1,683.5 L899.2,683.5 L900.4,683.5 L901.6,683.5 L902.8,683.5 L903.9,683.5 L905.1,683.5
		L906.3,683.5 L907.5,683.5 L908.6,683.5 L909.8,683.5 L911.0,683.5 L912.2,683.5 L913.3,683.5 L914.5,683.5
		L915.7,683.5 L916.9,683.5 L918.0,683.5 L919.2,683.5 L920.4,683.5 L921.6,683.5 L922.7,683.5 L923.9,683.5
		L925.1,683.5 L926.3,683.5 L927.4,683.5 L928.6,683.5 L929.8,683.5 L930.9,683.5 L932.1,683.5 L933.3,683.5
		L934.5,683.5 L935.6,683.5 L936.8,683.5 L938.0,683.5 L939.2,683.5 L940.3,683.5 L941.5,683.6 L942.7,683.6
		L943.9,683.6 L945.0,683.6 L946.2,683.6 L947.4,683.6 L948.6,683.6 L949.7,683.6 L950.9,683.6 L952.1,683.6
		L953.3,683.6 L954.4,683.6 L955.6,683.6 L956.8,683.6 L958.0,683.6 L959.1,683.6 L960.3,683.6 L961.5,683.6
		L962.7,683.6 L963.8,683.6 L965.0,683.6 L966.2,683.6 L967.3,683.6 L968.5,683.6 L969.7,683.6 L970.9,683.6
		L972.0,683.6 L973.2,683.6 L974.4,683.6 L975.6,683.6 L976.7,683.6 L977.9,683.6 L979.1,683.6 L980.3,683.6
		L981.4,683.6 L982.6,683.6 L983.8,683.6 L985.0,683.6 L986.1,683.6 L987.3,683.6 L988.5,683.6 L989.7,683.6
		L990.8,683.6 L992.0,683.6 L993.2,683.6 L994.4,683.6 L995.5,683.6 L996.7,683.6 L997.9,683.6 L999.0,683.6
		L1000.2,683.6 L1001.4,683.6 L1002.6,683.7 L1003.7,683.7 L1004.9,683.7 L1006.1,683.7 L1007.3,683.7 L1008.4,683.7
		L1009.6,683.7 L1010.8,683.7 L1012.0,683.7 L1013.1,683.7 L1014.3,683.7 L1015.5,683.7 L1016.7,683.7 L1017.8,683.7
		L1019.0,683.7 L1020.2,683.7 L1021.4,683.7 L1022.5,683.7 L1023.7,683.7 L1024.9,683.7 L1026.1,683.7 L1027.2,683.7
		L1028.4,683.7 L1029.6,683.7 L1030.7,683.7 L1031.9,683.7 L1033.1,683.7 L1034.3,683.7 L1035.4,683.7 L1036.6,683.7
		L1037.8,683.7 L1039.0,683.7 L1040.1,683.7 L1041.3,683.7 L1042.5,683.7 L1043.7,683.7 L1044.8,683.7 L1046.0,683.7
		L1047.2,683.7 L1048.4,683.7 L1049.5,683.7 L1050.7,683.7 L1051.9,683.7 L1053.1,683.7 L1054.2,683.7 L1055.4,683.7
		L1056.6,683.7 L1057.8,683.7 L1058.9,683.7 L1060.1,683.7 L1061.3,683.7 L1062.4,683.7 L1063.6,683.7 L1064.8,683.7
		L1066.0,683.7 L1067.1,683.7 L1068.3,683.7 L1069.5,683.7 L1070.7,683.7 L1071.8,683.7 L1073.0,683.7 L1074.2,683.7
		L1075.4,683.7 L1076.5,683.7 L1077.7,683.7 L1078.9,683.7 L1080.1,683.7 L1081.2,683.7 L1082.4,683.7 L1083.6,683.7
		L1084.8,683.7 L1085.9,683.8 L1087.1,683.8 L1088.3,683.8 L1089.5,683.8 L1090.6,683.8 L1091.8,683.8 L1093.0,683.8
		L1094.1,683.8 L1095.3,683.8 L1096.5,683.8 L1097.7,683.8 L1098.8,683.8 L1100.0,683.8 L1101.2,683.8 L1102.4,683.8
		L1103.5,683.8 L1104.7,683.8 L1105.9,683.8 L1107.1,683.8 L1108.2,683.8 L1109.4,683.8 L1110.6,683.8 L1111.8,683.8
		L1112.9,683.8 L1114.1,683.8 L1115.3,683.8 L1116.5,683.8 L1117.6,683.8 L1118.8,683.8 L1120.0,683.8 L1121.2,683.8
		L1122.3,683.8 L1123.5,683.8 L1124.7,683.8 L1125.8,683.8 L1127.0,683.8 L1128.2,683.8 L1129.4,683.8 L1130.5,683.8
		L1131.7,683.8 L1132.9,683.8 L1134.1,683.8 L1135.2,683.8 L1136.4,683.8 L1137.6,683.8 L1138.8,683.8 L1139.9,683.8
		L1141.1,683.8 L1142.3,683.8 L1143.5,683.8 L1144.6,683.8 L1145.8,683.8 L1147.0,683.8 L1148.2,683.8 L1149.3,683.8
		L1150.5,683.8 L1151.7,683.8 L1152.9,683.8 L1154.0,683.8 L1155.2,683.8 L1156.4,683.8 L1157.6,683.8 L1158.7,683.8
		L1159.9,683.8 L1161.1,683.8 L1162.2,683.8 L1163.4,683.8 L1164.6,683.8 L1165.8,683.8 L1166.9,683.8 L1168.1,683.8
		L1169.3,683.8 L1170.5,683.8 L1171.6,683.8 L1172.8,683.8 L1174.0,683.8 L1175.2,683.8 L1176.3,683.8 L1177.5,683.8
		L1178.7,683.8 L1179.9,683.8 L1181.0,683.8 L1182.2,683.8 L1183.4,683.8 L1184.6,683.8 L1185.7,683.8 L1186.9,683.8
		L1188.1,683.8 L1189.3,683.8 L1190.4,683.8 L1191.6,683.8 L1192.8,683.8 L1193.9,683.8 L1195.1,683.8 L1196.3,683.8
		L1197.5,683.8 L1198.6,683.8 L1199.8,683.8 L1201.0,683.8 L1202.2,683.8 L1203.3,683.8 L1204.5,683.8 L1205.7,683.8
		L1206.9,683.8 L1208.0,683.8 L1209.2,683.8 L1210.4,683.8 L1211.6,683.8 L1212.7,683.8 L1213.9,683.8 L1215.1,683.8
		L1216.3,683.8 L1217.4,683.8 L1218.6,683.8 L1219.8,683.8 L1221.0,683.8 L1222.1,683.8 L1223.3,683.8 L1224.5,683.8
		L1225.6,683.8 L1226.8,683.8 L1228.0,683.8 L1229.2,683.8 L1230.3,683.8 L1231.5,683.8 L1232.7,683.8 L1233.9,683.8
		L1235.0,683.8 L1236.2,683.8 L1237.4,683.8 L1238.6,683.8 L1239.7,683.8 L1240.9,683.8 L1242.1,683.8 L1243.3,683.8
		L1244.4,683.8 L1245.6,683.8 L1246.8,683.8 L1248.0,683.8 L1249.1,683.8 L1250.3,683.8 L1251.5,683.8 L1252.7,683.8
		L1253.8,683.8 L1255.0,683.8  '/></g>
	</g>
<g fill="none" color="white" stroke="rgb(255,   0,   0)" stroke-width="2.00" stroke-linecap="butt" stroke-linejoin="miter">
</g>
<g fill="none" color="black" stroke="currentColor" stroke-width="2.00" stroke-linecap="butt" stroke-linejoin="miter">
</g>
<g fill="none" color="black" stroke="black" stroke-width="1.00" stroke-linecap="butt" stroke-linejoin="miter">
</g>
<g fill="none" color="black" stroke="currentColor" stroke-width="1.00" stroke-linecap="butt" stroke-linejoin="miter">
	<path stroke='black'  d='M53.9,54.1 L53.9,684.0 L1255.0,684.0 L1255.0,54.1 L53.9,54.1 Z  '/></g>
<g fill="none" color="black" stroke="currentColor" stroke-width="1.00" stroke-linecap="butt" stroke-linejoin="miter">
</g>
</g>
</svg>

