<?xml version="1.0" encoding="utf-8"  standalone="no"?>
<svg 
 width="1280" height="720"
 viewBox="0 0 1280 720"
 xmlns="http://www.w3.org/2000/svg"
 xmlns:xlink="http://www.w3.org/1999/xlink"
>

<title>Gnuplot</title>
<desc>Produced by GNUPLOT 5.0 patchlevel 6 </desc>

<g id="gnuplot_canvas">

<rect x="0" y="0" width="1280" height="720" fill="none"/>
<defs>

	<circle id='gpDot' r='0.5' stroke-width='0.5'/>
	<path id='gpPt0' stroke-width='0.222' stroke='currentColor' d='M-1,0 h2 M0,-1 v2'/>
	<path id='gpPt1' stroke-width='0.222' stroke='currentColor' d='M-1,-1 L1,1 M1,-1 L-1,1'/>
	<path id='gpPt2' stroke-width='0.222' stroke='currentColor' d='M-1,0 L1,0 M0,-1 L0,1 M-1,-1 L1,1 M-1,1 L1,-1'/>
	<rect id='gpPt3' stroke-width='0.222' stroke='currentColor' x='-1' y='-1' width='2' height='2'/>
	<rect id='gpPt4' stroke-width='0.222' stroke='currentColor' fill='currentColor' x='-1' y='-1' width='2' height='2'/>
	<circle id='gpPt5' stroke-width='0.222' stroke='currentColor' cx='0' cy='0' r='1'/>
	<use xlink:href='#gpPt5' id='gpPt6' fill='currentColor' stroke='none'/>
	<path id='gpPt7' stroke-width='0.222' stroke='currentColor' d='M0,-1.33 L-1.33,0.67 L1.33,0.67 z'/>
	<use xlink:href='#gpPt7' id='gpPt8' fill='currentColor' stroke='none'/>
	<use xlink:href='#gpPt7' id='gpPt9' stroke='currentColor' transform='rotate(180)'/>
	<use xlink:href='#gpPt9' id='gpPt10' fill='currentColor' stroke='none'/>
	<use xlink:href='#gpPt3' id='gpPt11' stroke='currentColor' transform='rotate(45)'/>
	<use xlink:href='#gpPt11' id='gpPt12' fill='currentColor' stroke='none'/>
	<path id='gpPt13' stroke-width='0.222' stroke='currentColor' d='M0,1.330 L1.265,0.411 L0.782,-1.067 L-0.782,-1.076 L-1.265,0.411 z'/>
	<use xlink:href='#gpPt13' id='gpPt14' fill='currentColor' stroke='none'/>
	<filter id='textbox' filterUnits='objectBoundingBox' x='0' y='0' height='1' width='1'>
	  <feFlood flood-color='white' flood-opacity='1' result='bgnd'/>
	  <feComposite in='SourceGraphic' in2='bgnd' operator='atop'/>
	</filter>
	<filter id='greybox' filterUnits='objectBoundingBox' x='0' y='0' height='1' width='1'>
	  <feFlood flood-color='lightgrey' flood-opacity='1' result='grey'/>
	  <feComposite in='SourceGraphic' in2='grey' operator='atop'/>
	</filter>
</defs>
<g fill="none" color="white" stroke="currentColor" stroke-width="1.00" stroke-linecap="butt" stroke-linejoin="miter">
</g>
<g fill="none" color="black" stroke="currentColor" stroke-width="1.00" stroke-linecap="butt" stroke-linejoin="miter">
	<path stroke='black'  d='M87.1,684.0 L96.1,684.0 M1255.0,684.0 L1246.0,684.0  '/>	<g transform="translate(78.8,687.9)" stroke="none" fill="black" font-family="Arial" font-size="12.00"  text-anchor="end">
		<text><tspan font-family="Arial" > 0.2384</tspan></text>
	</g>
</g>
<g fill="none" color="black" stroke="currentColor" stroke-width="1.00" stroke-linecap="butt" stroke-linejoin="miter">
	<path stroke='black'  d='M87.1,374.7 L96.1,374.7 M1255.0,374.7 L1246.0,374.7  '/>	<g transform="translate(78.8,378.6)" stroke="none" fill="black" font-family="Arial" font-size="12.00"  text-anchor="end">
		<text><tspan font-family="Arial" > 63.1352</tspan></text>
	</g>
</g>
<g fill="none" color="black" stroke="currentColor" stroke-width="1.00" stroke-linecap="butt" stroke-linejoin="miter">
	<path stroke='black'  d='M87.1,65.4 L96.1,65.4 M1255.0,65.4 L1246.0,65.4  '/>	<g transform="translate(78.8,69.3)" stroke="none" fill="black" font-family="Arial" font-size="12.00"  text-anchor="end">
		<text><tspan font-family="Arial" > 16720</tspan></text>
	</g>
</g>
<g fill="none" color="black" stroke="currentColor" stroke-width="1.00" stroke-linecap="butt" stroke-linejoin="miter">
	<path stroke='black'  d='M87.1,684.0 L87.1,675.0 M87.1,54.1 L87.1,63.1  '/>	<g transform="translate(87.1,705.9)" stroke="none" fill="black" font-family="Arial" font-size="12.00"  text-anchor="middle">
		<text><tspan font-family="Arial" > 0</tspan></text>
	</g>
</g>
<g fill="none" color="black" stroke="currentColor" stroke-width="1.00" stroke-linecap="butt" stroke-linejoin="miter">
	<path stroke='black'  d='M671.1,684.0 L671.1,675.0 M671.1,54.1 L671.1,63.1  '/>	<g transform="translate(671.1,705.9)" stroke="none" fill="black" font-family="Arial" font-size="12.00"  text-anchor="middle">
		<text><tspan font-family="Arial" >pi/2</tspan></text>
	</g>
</g>
<g fill="none" color="black" stroke="currentColor" stroke-width="1.00" stroke-linecap="butt" stroke-linejoin="miter">
	<path stroke='black'  d='M1255.0,684.0 L1255.0,675.0 M1255.0,54.1 L1255.0,63.1  '/>	<g transform="translate(1255.0,705.9)" stroke="none" fill="black" font-family="Arial" font-size="12.00"  text-anchor="middle">
		<text><tspan font-family="Arial" >pi</tspan></text>
	</g>
</g>
<g fill="none" color="black" stroke="currentColor" stroke-width="1.00" stroke-linecap="butt" stroke-linejoin="miter">
</g>
<g fill="none" color="black" stroke="currentColor" stroke-width="1.00" stroke-linecap="butt" stroke-linejoin="miter">
	<path stroke='black'  d='M87.1,54.1 L87.1,684.0 L1255.0,684.0 L1255.0,54.1 L87.1,54.1 Z  '/></g>
<g fill="none" color="black" stroke="currentColor" stroke-width="1.00" stroke-linecap="butt" stroke-linejoin="miter">
	<g transform="translate(671.0,31.0)" stroke="none" fill="black" font-family="Arial" font-size="12.00"  text-anchor="middle">
		<text><tspan font-family="Arial" >Material 33, with 4 components</tspan></text>
	</g>
</g>
	<g id="gnuplot_plot_1" ><title>scattering function</title>
<g fill="none" color="black" stroke="currentColor" stroke-width="1.00" stroke-linecap="butt" stroke-linejoin="miter">
	<g transform="translate(1187.9,76.0)" stroke="none" fill="black" font-family="Arial" font-size="12.00"  text-anchor="end">
		<text><tspan font-family="Arial" >scattering function</tspan></text>
	</g>
</g>
<g fill="none" color="black" stroke="currentColor" stroke-width="1.00" stroke-linecap="butt" stroke-linejoin="miter">
	<use xlink:href='#gpPt5' transform='translate(87.1,95.1) scale(2.25)' color='rgb(255,   0,   0)'/>
	<use xlink:href='#gpPt5' transform='translate(87.7,95.2) scale(2.25)' color='rgb(255,   0,   0)'/>
	<use xlink:href='#gpPt5' transform='translate(88.4,95.5) scale(2.25)' color='rgb(255,   0,   0)'/>
	<use xlink:href='#gpPt5' transform='translate(89.0,96.0) scale(2.25)' color='rgb(255,   0,   0)'/>
	<use xlink:href='#gpPt5' transform='translate(89.7,96.7) scale(2.25)' color='rgb(255,   0,   0)'/>
	<use xlink:href='#gpPt5' transform='translate(90.3,97.5) scale(2.25)' color='rgb(255,   0,   0)'/>
	<use xlink:href='#gpPt5' transform='translate(91.0,98.6) scale(2.25)' color='rgb(255,   0,   0)'/>
	<use xlink:href='#gpPt5' transform='translate(91.6,99.8) scale(2.25)' color='rgb(255,   0,   0)'/>
	<use xlink:href='#gpPt5' transform='translate(92.3,101.3) scale(2.25)' color='rgb(255,   0,   0)'/>
	<use xlink:href='#gpPt5' transform='translate(92.9,102.9) scale(2.25)' color='rgb(255,   0,   0)'/>
	<use xlink:href='#gpPt5' transform='translate(93.6,104.8) scale(2.25)' color='rgb(255,   0,   0)'/>
	<use xlink:href='#gpPt5' transform='translate(94.2,106.8) scale(2.25)' color='rgb(255,   0,   0)'/>
	<use xlink:href='#gpPt5' transform='translate(94.9,109.1) scale(2.25)' color='rgb(255,   0,   0)'/>
	<use xlink:href='#gpPt5' transform='translate(95.5,111.5) scale(2.25)' color='rgb(255,   0,   0)'/>
	<use xlink:href='#gpPt5' transform='translate(96.2,114.1) scale(2.25)' color='rgb(255,   0,   0)'/>
	<use xlink:href='#gpPt5' transform='translate(96.8,117.0) scale(2.25)' color='rgb(255,   0,   0)'/>
	<use xlink:href='#gpPt5' transform='translate(97.5,120.0) scale(2.25)' color='rgb(255,   0,   0)'/>
	<use xlink:href='#gpPt5' transform='translate(98.1,123.2) scale(2.25)' color='rgb(255,   0,   0)'/>
	<use xlink:href='#gpPt5' transform='translate(98.8,126.6) scale(2.25)' color='rgb(255,   0,   0)'/>
	<use xlink:href='#gpPt5' transform='translate(99.4,130.3) scale(2.25)' color='rgb(255,   0,   0)'/>
	<use xlink:href='#gpPt5' transform='translate(100.1,134.1) scale(2.25)' color='rgb(255,   0,   0)'/>
	<use xlink:href='#gpPt5' transform='translate(106.6,183.9) scale(2.25)' color='rgb(255,   0,   0)'/>
	<use xlink:href='#gpPt5' transform='translate(113.1,249.9) scale(2.25)' color='rgb(255,   0,   0)'/>
	<use xlink:href='#gpPt5' transform='translate(119.5,301.9) scale(2.25)' color='rgb(255,   0,   0)'/>
	<use xlink:href='#gpPt5' transform='translate(126.0,316.0) scale(2.25)' color='rgb(255,   0,   0)'/>
	<use xlink:href='#gpPt5' transform='translate(139.0,336.5) scale(2.25)' color='rgb(255,   0,   0)'/>
	<use xlink:href='#gpPt5' transform='translate(152.0,355.0) scale(2.25)' color='rgb(255,   0,   0)'/>
	<use xlink:href='#gpPt5' transform='translate(165.0,367.3) scale(2.25)' color='rgb(255,   0,   0)'/>
	<use xlink:href='#gpPt5' transform='translate(177.9,376.2) scale(2.25)' color='rgb(255,   0,   0)'/>
	<use xlink:href='#gpPt5' transform='translate(190.9,382.7) scale(2.25)' color='rgb(255,   0,   0)'/>
	<use xlink:href='#gpPt5' transform='translate(203.9,391.7) scale(2.25)' color='rgb(255,   0,   0)'/>
	<use xlink:href='#gpPt5' transform='translate(216.9,397.8) scale(2.25)' color='rgb(255,   0,   0)'/>
	<use xlink:href='#gpPt5' transform='translate(229.8,403.5) scale(2.25)' color='rgb(255,   0,   0)'/>
	<use xlink:href='#gpPt5' transform='translate(242.8,413.2) scale(2.25)' color='rgb(255,   0,   0)'/>
	<use xlink:href='#gpPt5' transform='translate(255.8,418.3) scale(2.25)' color='rgb(255,   0,   0)'/>
	<use xlink:href='#gpPt5' transform='translate(268.8,425.6) scale(2.25)' color='rgb(255,   0,   0)'/>
	<use xlink:href='#gpPt5' transform='translate(281.8,433.9) scale(2.25)' color='rgb(255,   0,   0)'/>
	<use xlink:href='#gpPt5' transform='translate(294.7,438.1) scale(2.25)' color='rgb(255,   0,   0)'/>
	<use xlink:href='#gpPt5' transform='translate(307.7,449.1) scale(2.25)' color='rgb(255,   0,   0)'/>
	<use xlink:href='#gpPt5' transform='translate(320.7,452.3) scale(2.25)' color='rgb(255,   0,   0)'/>
	<use xlink:href='#gpPt5' transform='translate(333.7,462.5) scale(2.25)' color='rgb(255,   0,   0)'/>
	<use xlink:href='#gpPt5' transform='translate(346.6,467.8) scale(2.25)' color='rgb(255,   0,   0)'/>
	<use xlink:href='#gpPt5' transform='translate(359.6,475.9) scale(2.25)' color='rgb(255,   0,   0)'/>
	<use xlink:href='#gpPt5' transform='translate(372.6,482.5) scale(2.25)' color='rgb(255,   0,   0)'/>
	<use xlink:href='#gpPt5' transform='translate(385.6,490.9) scale(2.25)' color='rgb(255,   0,   0)'/>
	<use xlink:href='#gpPt5' transform='translate(398.5,497.3) scale(2.25)' color='rgb(255,   0,   0)'/>
	<use xlink:href='#gpPt5' transform='translate(411.5,505.9) scale(2.25)' color='rgb(255,   0,   0)'/>
	<use xlink:href='#gpPt5' transform='translate(424.5,512.8) scale(2.25)' color='rgb(255,   0,   0)'/>
	<use xlink:href='#gpPt5' transform='translate(437.5,520.9) scale(2.25)' color='rgb(255,   0,   0)'/>
	<use xlink:href='#gpPt5' transform='translate(450.4,527.4) scale(2.25)' color='rgb(255,   0,   0)'/>
	<use xlink:href='#gpPt5' transform='translate(463.4,537.1) scale(2.25)' color='rgb(255,   0,   0)'/>
	<use xlink:href='#gpPt5' transform='translate(476.4,541.4) scale(2.25)' color='rgb(255,   0,   0)'/>
	<use xlink:href='#gpPt5' transform='translate(489.4,553.1) scale(2.25)' color='rgb(255,   0,   0)'/>
	<use xlink:href='#gpPt5' transform='translate(502.4,556.6) scale(2.25)' color='rgb(255,   0,   0)'/>
	<use xlink:href='#gpPt5' transform='translate(515.3,567.6) scale(2.25)' color='rgb(255,   0,   0)'/>
	<use xlink:href='#gpPt5' transform='translate(528.3,573.2) scale(2.25)' color='rgb(255,   0,   0)'/>
	<use xlink:href='#gpPt5' transform='translate(541.3,581.6) scale(2.25)' color='rgb(255,   0,   0)'/>
	<use xlink:href='#gpPt5' transform='translate(554.3,588.9) scale(2.25)' color='rgb(255,   0,   0)'/>
	<use xlink:href='#gpPt5' transform='translate(567.2,595.7) scale(2.25)' color='rgb(255,   0,   0)'/>
	<use xlink:href='#gpPt5' transform='translate(580.2,602.7) scale(2.25)' color='rgb(255,   0,   0)'/>
	<use xlink:href='#gpPt5' transform='translate(593.2,609.4) scale(2.25)' color='rgb(255,   0,   0)'/>
	<use xlink:href='#gpPt5' transform='translate(606.2,615.1) scale(2.25)' color='rgb(255,   0,   0)'/>
	<use xlink:href='#gpPt5' transform='translate(619.1,621.3) scale(2.25)' color='rgb(255,   0,   0)'/>
	<use xlink:href='#gpPt5' transform='translate(632.1,627.0) scale(2.25)' color='rgb(255,   0,   0)'/>
	<use xlink:href='#gpPt5' transform='translate(645.1,633.3) scale(2.25)' color='rgb(255,   0,   0)'/>
	<use xlink:href='#gpPt5' transform='translate(658.1,637.1) scale(2.25)' color='rgb(255,   0,   0)'/>
	<use xlink:href='#gpPt5' transform='translate(671.1,644.4) scale(2.25)' color='rgb(255,   0,   0)'/>
	<use xlink:href='#gpPt5' transform='translate(684.0,650.5) scale(2.25)' color='rgb(255,   0,   0)'/>
	<use xlink:href='#gpPt5' transform='translate(697.0,657.0) scale(2.25)' color='rgb(255,   0,   0)'/>
	<use xlink:href='#gpPt5' transform='translate(710.0,662.0) scale(2.25)' color='rgb(255,   0,   0)'/>
	<use xlink:href='#gpPt5' transform='translate(723.0,670.7) scale(2.25)' color='rgb(255,   0,   0)'/>
	<use xlink:href='#gpPt5' transform='translate(735.9,666.5) scale(2.25)' color='rgb(255,   0,   0)'/>
	<use xlink:href='#gpPt5' transform='translate(748.9,673.3) scale(2.25)' color='rgb(255,   0,   0)'/>
	<use xlink:href='#gpPt5' transform='translate(761.9,662.7) scale(2.25)' color='rgb(255,   0,   0)'/>
	<use xlink:href='#gpPt5' transform='translate(774.9,668.7) scale(2.25)' color='rgb(255,   0,   0)'/>
	<use xlink:href='#gpPt5' transform='translate(787.8,658.3) scale(2.25)' color='rgb(255,   0,   0)'/>
	<use xlink:href='#gpPt5' transform='translate(800.8,660.6) scale(2.25)' color='rgb(255,   0,   0)'/>
	<use xlink:href='#gpPt5' transform='translate(813.8,661.7) scale(2.25)' color='rgb(255,   0,   0)'/>
	<use xlink:href='#gpPt5' transform='translate(826.8,656.8) scale(2.25)' color='rgb(255,   0,   0)'/>
	<use xlink:href='#gpPt5' transform='translate(839.7,657.9) scale(2.25)' color='rgb(255,   0,   0)'/>
	<use xlink:href='#gpPt5' transform='translate(852.7,661.2) scale(2.25)' color='rgb(255,   0,   0)'/>
	<use xlink:href='#gpPt5' transform='translate(865.7,648.3) scale(2.25)' color='rgb(255,   0,   0)'/>
	<use xlink:href='#gpPt5' transform='translate(878.7,653.1) scale(2.25)' color='rgb(255,   0,   0)'/>
	<use xlink:href='#gpPt5' transform='translate(891.7,639.6) scale(2.25)' color='rgb(255,   0,   0)'/>
	<use xlink:href='#gpPt5' transform='translate(904.6,632.9) scale(2.25)' color='rgb(255,   0,   0)'/>
	<use xlink:href='#gpPt5' transform='translate(917.6,630.2) scale(2.25)' color='rgb(255,   0,   0)'/>
	<use xlink:href='#gpPt5' transform='translate(930.6,617.1) scale(2.25)' color='rgb(255,   0,   0)'/>
	<use xlink:href='#gpPt5' transform='translate(943.6,613.1) scale(2.25)' color='rgb(255,   0,   0)'/>
	<use xlink:href='#gpPt5' transform='translate(956.5,600.9) scale(2.25)' color='rgb(255,   0,   0)'/>
	<use xlink:href='#gpPt5' transform='translate(969.5,586.0) scale(2.25)' color='rgb(255,   0,   0)'/>
	<use xlink:href='#gpPt5' transform='translate(982.5,575.8) scale(2.25)' color='rgb(255,   0,   0)'/>
	<use xlink:href='#gpPt5' transform='translate(995.5,563.0) scale(2.25)' color='rgb(255,   0,   0)'/>
	<use xlink:href='#gpPt5' transform='translate(1008.4,550.3) scale(2.25)' color='rgb(255,   0,   0)'/>
	<use xlink:href='#gpPt5' transform='translate(1021.4,554.0) scale(2.25)' color='rgb(255,   0,   0)'/>
	<use xlink:href='#gpPt5' transform='translate(1034.4,552.6) scale(2.25)' color='rgb(255,   0,   0)'/>
	<use xlink:href='#gpPt5' transform='translate(1047.4,561.6) scale(2.25)' color='rgb(255,   0,   0)'/>
	<use xlink:href='#gpPt5' transform='translate(1060.3,569.6) scale(2.25)' color='rgb(255,   0,   0)'/>
	<use xlink:href='#gpPt5' transform='translate(1073.3,585.0) scale(2.25)' color='rgb(255,   0,   0)'/>
	<use xlink:href='#gpPt5' transform='translate(1086.3,582.9) scale(2.25)' color='rgb(255,   0,   0)'/>
	<use xlink:href='#gpPt5' transform='translate(1099.3,580.0) scale(2.25)' color='rgb(255,   0,   0)'/>
	<use xlink:href='#gpPt5' transform='translate(1112.3,573.8) scale(2.25)' color='rgb(255,   0,   0)'/>
	<use xlink:href='#gpPt5' transform='translate(1125.2,575.1) scale(2.25)' color='rgb(255,   0,   0)'/>
	<use xlink:href='#gpPt5' transform='translate(1138.2,577.0) scale(2.25)' color='rgb(255,   0,   0)'/>
	<use xlink:href='#gpPt5' transform='translate(1151.2,574.4) scale(2.25)' color='rgb(255,   0,   0)'/>
	<use xlink:href='#gpPt5' transform='translate(1164.2,580.1) scale(2.25)' color='rgb(255,   0,   0)'/>
	<use xlink:href='#gpPt5' transform='translate(1177.1,572.1) scale(2.25)' color='rgb(255,   0,   0)'/>
	<use xlink:href='#gpPt5' transform='translate(1190.1,566.2) scale(2.25)' color='rgb(255,   0,   0)'/>
	<use xlink:href='#gpPt5' transform='translate(1203.1,557.5) scale(2.25)' color='rgb(255,   0,   0)'/>
	<use xlink:href='#gpPt5' transform='translate(1216.1,543.5) scale(2.25)' color='rgb(255,   0,   0)'/>
	<use xlink:href='#gpPt5' transform='translate(1229.0,506.6) scale(2.25)' color='rgb(255,   0,   0)'/>
	<use xlink:href='#gpPt5' transform='translate(1242.0,530.2) scale(2.25)' color='rgb(255,   0,   0)'/>
	<use xlink:href='#gpPt5' transform='translate(1255.0,493.9) scale(2.25)' color='rgb(255,   0,   0)'/>
	<use xlink:href='#gpPt5' transform='translate(1217.3,72.1) scale(2.25)' color='rgb(255,   0,   0)'/>
</g>
	</g>
	<g id="gnuplot_plot_2" ><title>gnuplot_plot_2</title>
<g fill="none" color="black" stroke="currentColor" stroke-width="1.00" stroke-linecap="butt" stroke-linejoin="miter">
	<use xlink:href='#gpPt5' transform='translate(87.1,86.8) scale(2.25)' color='rgb(  0, 100,   0)'/>
	<use xlink:href='#gpPt5' transform='translate(87.7,86.9) scale(2.25)' color='rgb(  0, 100,   0)'/>
	<use xlink:href='#gpPt5' transform='translate(88.4,87.2) scale(2.25)' color='rgb(  0, 100,   0)'/>
	<use xlink:href='#gpPt5' transform='translate(89.0,87.8) scale(2.25)' color='rgb(  0, 100,   0)'/>
	<use xlink:href='#gpPt5' transform='translate(89.7,88.6) scale(2.25)' color='rgb(  0, 100,   0)'/>
	<use xlink:href='#gpPt5' transform='translate(90.3,89.6) scale(2.25)' color='rgb(  0, 100,   0)'/>
	<use xlink:href='#gpPt5' transform='translate(91.0,90.9) scale(2.25)' color='rgb(  0, 100,   0)'/>
	<use xlink:href='#gpPt5' transform='translate(91.6,92.3) scale(2.25)' color='rgb(  0, 100,   0)'/>
	<use xlink:href='#gpPt5' transform='translate(92.3,94.1) scale(2.25)' color='rgb(  0, 100,   0)'/>
	<use xlink:href='#gpPt5' transform='translate(92.9,96.0) scale(2.25)' color='rgb(  0, 100,   0)'/>
	<use xlink:href='#gpPt5' transform='translate(93.6,98.2) scale(2.25)' color='rgb(  0, 100,   0)'/>
	<use xlink:href='#gpPt5' transform='translate(94.2,100.6) scale(2.25)' color='rgb(  0, 100,   0)'/>
	<use xlink:href='#gpPt5' transform='translate(94.9,103.2) scale(2.25)' color='rgb(  0, 100,   0)'/>
	<use xlink:href='#gpPt5' transform='translate(95.5,106.1) scale(2.25)' color='rgb(  0, 100,   0)'/>
	<use xlink:href='#gpPt5' transform='translate(96.2,109.2) scale(2.25)' color='rgb(  0, 100,   0)'/>
	<use xlink:href='#gpPt5' transform='translate(96.8,112.6) scale(2.25)' color='rgb(  0, 100,   0)'/>
	<use xlink:href='#gpPt5' transform='translate(97.5,116.2) scale(2.25)' color='rgb(  0, 100,   0)'/>
	<use xlink:href='#gpPt5' transform='translate(98.1,120.0) scale(2.25)' color='rgb(  0, 100,   0)'/>
	<use xlink:href='#gpPt5' transform='translate(98.8,124.1) scale(2.25)' color='rgb(  0, 100,   0)'/>
	<use xlink:href='#gpPt5' transform='translate(99.4,128.5) scale(2.25)' color='rgb(  0, 100,   0)'/>
	<use xlink:href='#gpPt5' transform='translate(100.1,133.0) scale(2.25)' color='rgb(  0, 100,   0)'/>
	<use xlink:href='#gpPt5' transform='translate(106.6,191.8) scale(2.25)' color='rgb(  0, 100,   0)'/>
	<use xlink:href='#gpPt5' transform='translate(113.1,263.9) scale(2.25)' color='rgb(  0, 100,   0)'/>
	<use xlink:href='#gpPt5' transform='translate(119.5,302.3) scale(2.25)' color='rgb(  0, 100,   0)'/>
	<use xlink:href='#gpPt5' transform='translate(126.0,313.4) scale(2.25)' color='rgb(  0, 100,   0)'/>
	<use xlink:href='#gpPt5' transform='translate(139.0,341.6) scale(2.25)' color='rgb(  0, 100,   0)'/>
	<use xlink:href='#gpPt5' transform='translate(152.0,357.7) scale(2.25)' color='rgb(  0, 100,   0)'/>
	<use xlink:href='#gpPt5' transform='translate(165.0,368.3) scale(2.25)' color='rgb(  0, 100,   0)'/>
	<use xlink:href='#gpPt5' transform='translate(177.9,376.4) scale(2.25)' color='rgb(  0, 100,   0)'/>
	<use xlink:href='#gpPt5' transform='translate(190.9,385.0) scale(2.25)' color='rgb(  0, 100,   0)'/>
	<use xlink:href='#gpPt5' transform='translate(203.9,391.1) scale(2.25)' color='rgb(  0, 100,   0)'/>
	<use xlink:href='#gpPt5' transform='translate(216.9,396.9) scale(2.25)' color='rgb(  0, 100,   0)'/>
	<use xlink:href='#gpPt5' transform='translate(229.8,405.9) scale(2.25)' color='rgb(  0, 100,   0)'/>
	<use xlink:href='#gpPt5' transform='translate(242.8,410.3) scale(2.25)' color='rgb(  0, 100,   0)'/>
	<use xlink:href='#gpPt5' transform='translate(255.8,418.8) scale(2.25)' color='rgb(  0, 100,   0)'/>
	<use xlink:href='#gpPt5' transform='translate(268.8,426.9) scale(2.25)' color='rgb(  0, 100,   0)'/>
	<use xlink:href='#gpPt5' transform='translate(281.8,432.8) scale(2.25)' color='rgb(  0, 100,   0)'/>
	<use xlink:href='#gpPt5' transform='translate(294.7,442.6) scale(2.25)' color='rgb(  0, 100,   0)'/>
	<use xlink:href='#gpPt5' transform='translate(307.7,447.1) scale(2.25)' color='rgb(  0, 100,   0)'/>
	<use xlink:href='#gpPt5' transform='translate(320.7,456.3) scale(2.25)' color='rgb(  0, 100,   0)'/>
	<use xlink:href='#gpPt5' transform='translate(333.7,462.5) scale(2.25)' color='rgb(  0, 100,   0)'/>
	<use xlink:href='#gpPt5' transform='translate(346.6,469.5) scale(2.25)' color='rgb(  0, 100,   0)'/>
	<use xlink:href='#gpPt5' transform='translate(359.6,477.2) scale(2.25)' color='rgb(  0, 100,   0)'/>
	<use xlink:href='#gpPt5' transform='translate(372.6,483.9) scale(2.25)' color='rgb(  0, 100,   0)'/>
	<use xlink:href='#gpPt5' transform='translate(385.6,491.3) scale(2.25)' color='rgb(  0, 100,   0)'/>
	<use xlink:href='#gpPt5' transform='translate(398.5,498.0) scale(2.25)' color='rgb(  0, 100,   0)'/>
	<use xlink:href='#gpPt5' transform='translate(411.5,506.6) scale(2.25)' color='rgb(  0, 100,   0)'/>
	<use xlink:href='#gpPt5' transform='translate(424.5,512.0) scale(2.25)' color='rgb(  0, 100,   0)'/>
	<use xlink:href='#gpPt5' transform='translate(437.5,521.9) scale(2.25)' color='rgb(  0, 100,   0)'/>
	<use xlink:href='#gpPt5' transform='translate(450.4,527.6) scale(2.25)' color='rgb(  0, 100,   0)'/>
	<use xlink:href='#gpPt5' transform='translate(463.4,536.4) scale(2.25)' color='rgb(  0, 100,   0)'/>
	<use xlink:href='#gpPt5' transform='translate(476.4,544.3) scale(2.25)' color='rgb(  0, 100,   0)'/>
	<use xlink:href='#gpPt5' transform='translate(489.4,551.0) scale(2.25)' color='rgb(  0, 100,   0)'/>
	<use xlink:href='#gpPt5' transform='translate(502.4,561.3) scale(2.25)' color='rgb(  0, 100,   0)'/>
	<use xlink:href='#gpPt5' transform='translate(515.3,566.4) scale(2.25)' color='rgb(  0, 100,   0)'/>
	<use xlink:href='#gpPt5' transform='translate(528.3,576.3) scale(2.25)' color='rgb(  0, 100,   0)'/>
	<use xlink:href='#gpPt5' transform='translate(541.3,585.0) scale(2.25)' color='rgb(  0, 100,   0)'/>
	<use xlink:href='#gpPt5' transform='translate(554.3,589.4) scale(2.25)' color='rgb(  0, 100,   0)'/>
	<use xlink:href='#gpPt5' transform='translate(567.2,601.0) scale(2.25)' color='rgb(  0, 100,   0)'/>
	<use xlink:href='#gpPt5' transform='translate(580.2,607.8) scale(2.25)' color='rgb(  0, 100,   0)'/>
	<use xlink:href='#gpPt5' transform='translate(593.2,612.3) scale(2.25)' color='rgb(  0, 100,   0)'/>
	<use xlink:href='#gpPt5' transform='translate(606.2,624.0) scale(2.25)' color='rgb(  0, 100,   0)'/>
	<use xlink:href='#gpPt5' transform='translate(619.1,628.0) scale(2.25)' color='rgb(  0, 100,   0)'/>
	<use xlink:href='#gpPt5' transform='translate(632.1,636.5) scale(2.25)' color='rgb(  0, 100,   0)'/>
	<use xlink:href='#gpPt5' transform='translate(645.1,641.3) scale(2.25)' color='rgb(  0, 100,   0)'/>
	<use xlink:href='#gpPt5' transform='translate(658.1,649.9) scale(2.25)' color='rgb(  0, 100,   0)'/>
	<use xlink:href='#gpPt5' transform='translate(671.1,653.6) scale(2.25)' color='rgb(  0, 100,   0)'/>
	<use xlink:href='#gpPt5' transform='translate(684.0,659.8) scale(2.25)' color='rgb(  0, 100,   0)'/>
	<use xlink:href='#gpPt5' transform='translate(697.0,659.5) scale(2.25)' color='rgb(  0, 100,   0)'/>
	<use xlink:href='#gpPt5' transform='translate(710.0,665.7) scale(2.25)' color='rgb(  0, 100,   0)'/>
	<use xlink:href='#gpPt5' transform='translate(723.0,668.1) scale(2.25)' color='rgb(  0, 100,   0)'/>
	<use xlink:href='#gpPt5' transform='translate(735.9,670.9) scale(2.25)' color='rgb(  0, 100,   0)'/>
	<use xlink:href='#gpPt5' transform='translate(748.9,677.7) scale(2.25)' color='rgb(  0, 100,   0)'/>
	<use xlink:href='#gpPt5' transform='translate(761.9,677.8) scale(2.25)' color='rgb(  0, 100,   0)'/>
	<use xlink:href='#gpPt5' transform='translate(774.9,684.0) scale(2.25)' color='rgb(  0, 100,   0)'/>
	<use xlink:href='#gpPt5' transform='translate(787.8,677.0) scale(2.25)' color='rgb(  0, 100,   0)'/>
	<use xlink:href='#gpPt5' transform='translate(800.8,675.0) scale(2.25)' color='rgb(  0, 100,   0)'/>
	<use xlink:href='#gpPt5' transform='translate(813.8,667.2) scale(2.25)' color='rgb(  0, 100,   0)'/>
	<use xlink:href='#gpPt5' transform='translate(826.8,659.1) scale(2.25)' color='rgb(  0, 100,   0)'/>
	<use xlink:href='#gpPt5' transform='translate(839.7,657.5) scale(2.25)' color='rgb(  0, 100,   0)'/>
	<use xlink:href='#gpPt5' transform='translate(852.7,647.9) scale(2.25)' color='rgb(  0, 100,   0)'/>
	<use xlink:href='#gpPt5' transform='translate(865.7,650.9) scale(2.25)' color='rgb(  0, 100,   0)'/>
	<use xlink:href='#gpPt5' transform='translate(878.7,648.9) scale(2.25)' color='rgb(  0, 100,   0)'/>
	<use xlink:href='#gpPt5' transform='translate(891.7,645.7) scale(2.25)' color='rgb(  0, 100,   0)'/>
	<use xlink:href='#gpPt5' transform='translate(904.6,651.2) scale(2.25)' color='rgb(  0, 100,   0)'/>
	<use xlink:href='#gpPt5' transform='translate(917.6,639.2) scale(2.25)' color='rgb(  0, 100,   0)'/>
	<use xlink:href='#gpPt5' transform='translate(930.6,637.0) scale(2.25)' color='rgb(  0, 100,   0)'/>
	<use xlink:href='#gpPt5' transform='translate(943.6,614.5) scale(2.25)' color='rgb(  0, 100,   0)'/>
	<use xlink:href='#gpPt5' transform='translate(956.5,605.5) scale(2.25)' color='rgb(  0, 100,   0)'/>
	<use xlink:href='#gpPt5' transform='translate(969.5,586.8) scale(2.25)' color='rgb(  0, 100,   0)'/>
	<use xlink:href='#gpPt5' transform='translate(982.5,571.1) scale(2.25)' color='rgb(  0, 100,   0)'/>
	<use xlink:href='#gpPt5' transform='translate(995.5,562.8) scale(2.25)' color='rgb(  0, 100,   0)'/>
	<use xlink:href='#gpPt5' transform='translate(1008.4,556.1) scale(2.25)' color='rgb(  0, 100,   0)'/>
	<use xlink:href='#gpPt5' transform='translate(1021.4,549.7) scale(2.25)' color='rgb(  0, 100,   0)'/>
	<use xlink:href='#gpPt5' transform='translate(1034.4,553.5) scale(2.25)' color='rgb(  0, 100,   0)'/>
	<use xlink:href='#gpPt5' transform='translate(1047.4,565.9) scale(2.25)' color='rgb(  0, 100,   0)'/>
	<use xlink:href='#gpPt5' transform='translate(1060.3,572.1) scale(2.25)' color='rgb(  0, 100,   0)'/>
	<use xlink:href='#gpPt5' transform='translate(1073.3,581.7) scale(2.25)' color='rgb(  0, 100,   0)'/>
	<use xlink:href='#gpPt5' transform='translate(1086.3,581.3) scale(2.25)' color='rgb(  0, 100,   0)'/>
	<use xlink:href='#gpPt5' transform='translate(1099.3,581.9) scale(2.25)' color='rgb(  0, 100,   0)'/>
	<use xlink:href='#gpPt5' transform='translate(1112.3,583.8) scale(2.25)' color='rgb(  0, 100,   0)'/>
	<use xlink:href='#gpPt5' transform='translate(1125.2,584.7) scale(2.25)' color='rgb(  0, 100,   0)'/>
	<use xlink:href='#gpPt5' transform='translate(1138.2,583.7) scale(2.25)' color='rgb(  0, 100,   0)'/>
	<use xlink:href='#gpPt5' transform='translate(1151.2,581.2) scale(2.25)' color='rgb(  0, 100,   0)'/>
	<use xlink:href='#gpPt5' transform='translate(1164.2,575.7) scale(2.25)' color='rgb(  0, 100,   0)'/>
	<use xlink:href='#gpPt5' transform='translate(1177.1,571.4) scale(2.25)' color='rgb(  0, 100,   0)'/>
	<use xlink:href='#gpPt5' transform='translate(1190.1,569.4) scale(2.25)' color='rgb(  0, 100,   0)'/>
	<use xlink:href='#gpPt5' transform='translate(1203.1,567.4) scale(2.25)' color='rgb(  0, 100,   0)'/>
	<use xlink:href='#gpPt5' transform='translate(1216.1,551.0) scale(2.25)' color='rgb(  0, 100,   0)'/>
	<use xlink:href='#gpPt5' transform='translate(1229.0,516.0) scale(2.25)' color='rgb(  0, 100,   0)'/>
	<use xlink:href='#gpPt5' transform='translate(1242.0,541.2) scale(2.25)' color='rgb(  0, 100,   0)'/>
	<use xlink:href='#gpPt5' transform='translate(1255.0,505.7) scale(2.25)' color='rgb(  0, 100,   0)'/>
</g>
	</g>
	<g id="gnuplot_plot_3" ><title>gnuplot_plot_3</title>
<g fill="none" color="black" stroke="currentColor" stroke-width="1.00" stroke-linecap="butt" stroke-linejoin="miter">
	<use xlink:href='#gpPt5' transform='translate(87.1,65.4) scale(2.25)' color='rgb(  0,   0, 255)'/>
	<use xlink:href='#gpPt5' transform='translate(87.7,65.6) scale(2.25)' color='rgb(  0,   0, 255)'/>
	<use xlink:href='#gpPt5' transform='translate(88.4,66.1) scale(2.25)' color='rgb(  0,   0, 255)'/>
	<use xlink:href='#gpPt5' transform='translate(89.0,66.9) scale(2.25)' color='rgb(  0,   0, 255)'/>
	<use xlink:href='#gpPt5' transform='translate(89.7,68.1) scale(2.25)' color='rgb(  0,   0, 255)'/>
	<use xlink:href='#gpPt5' transform='translate(90.3,69.6) scale(2.25)' color='rgb(  0,   0, 255)'/>
	<use xlink:href='#gpPt5' transform='translate(91.0,71.5) scale(2.25)' color='rgb(  0,   0, 255)'/>
	<use xlink:href='#gpPt5' transform='translate(91.6,73.7) scale(2.25)' color='rgb(  0,   0, 255)'/>
	<use xlink:href='#gpPt5' transform='translate(92.3,76.3) scale(2.25)' color='rgb(  0,   0, 255)'/>
	<use xlink:href='#gpPt5' transform='translate(92.9,79.2) scale(2.25)' color='rgb(  0,   0, 255)'/>
	<use xlink:href='#gpPt5' transform='translate(93.6,82.4) scale(2.25)' color='rgb(  0,   0, 255)'/>
	<use xlink:href='#gpPt5' transform='translate(94.2,86.0) scale(2.25)' color='rgb(  0,   0, 255)'/>
	<use xlink:href='#gpPt5' transform='translate(94.9,89.9) scale(2.25)' color='rgb(  0,   0, 255)'/>
	<use xlink:href='#gpPt5' transform='translate(95.5,94.2) scale(2.25)' color='rgb(  0,   0, 255)'/>
	<use xlink:href='#gpPt5' transform='translate(96.2,98.9) scale(2.25)' color='rgb(  0,   0, 255)'/>
	<use xlink:href='#gpPt5' transform='translate(96.8,103.9) scale(2.25)' color='rgb(  0,   0, 255)'/>
	<use xlink:href='#gpPt5' transform='translate(97.5,109.3) scale(2.25)' color='rgb(  0,   0, 255)'/>
	<use xlink:href='#gpPt5' transform='translate(98.1,115.1) scale(2.25)' color='rgb(  0,   0, 255)'/>
	<use xlink:href='#gpPt5' transform='translate(98.8,121.2) scale(2.25)' color='rgb(  0,   0, 255)'/>
	<use xlink:href='#gpPt5' transform='translate(99.4,127.7) scale(2.25)' color='rgb(  0,   0, 255)'/>
	<use xlink:href='#gpPt5' transform='translate(100.1,134.6) scale(2.25)' color='rgb(  0,   0, 255)'/>
	<use xlink:href='#gpPt5' transform='translate(106.6,219.9) scale(2.25)' color='rgb(  0,   0, 255)'/>
	<use xlink:href='#gpPt5' transform='translate(113.1,284.7) scale(2.25)' color='rgb(  0,   0, 255)'/>
	<use xlink:href='#gpPt5' transform='translate(119.5,300.1) scale(2.25)' color='rgb(  0,   0, 255)'/>
	<use xlink:href='#gpPt5' transform='translate(126.0,319.7) scale(2.25)' color='rgb(  0,   0, 255)'/>
	<use xlink:href='#gpPt5' transform='translate(139.0,345.8) scale(2.25)' color='rgb(  0,   0, 255)'/>
	<use xlink:href='#gpPt5' transform='translate(152.0,361.7) scale(2.25)' color='rgb(  0,   0, 255)'/>
	<use xlink:href='#gpPt5' transform='translate(165.0,371.2) scale(2.25)' color='rgb(  0,   0, 255)'/>
	<use xlink:href='#gpPt5' transform='translate(177.9,377.7) scale(2.25)' color='rgb(  0,   0, 255)'/>
	<use xlink:href='#gpPt5' transform='translate(190.9,385.7) scale(2.25)' color='rgb(  0,   0, 255)'/>
	<use xlink:href='#gpPt5' transform='translate(203.9,392.8) scale(2.25)' color='rgb(  0,   0, 255)'/>
	<use xlink:href='#gpPt5' transform='translate(216.9,398.9) scale(2.25)' color='rgb(  0,   0, 255)'/>
	<use xlink:href='#gpPt5' transform='translate(229.8,405.9) scale(2.25)' color='rgb(  0,   0, 255)'/>
	<use xlink:href='#gpPt5' transform='translate(242.8,413.2) scale(2.25)' color='rgb(  0,   0, 255)'/>
	<use xlink:href='#gpPt5' transform='translate(255.8,419.0) scale(2.25)' color='rgb(  0,   0, 255)'/>
	<use xlink:href='#gpPt5' transform='translate(268.8,426.2) scale(2.25)' color='rgb(  0,   0, 255)'/>
	<use xlink:href='#gpPt5' transform='translate(281.8,432.7) scale(2.25)' color='rgb(  0,   0, 255)'/>
	<use xlink:href='#gpPt5' transform='translate(294.7,440.8) scale(2.25)' color='rgb(  0,   0, 255)'/>
	<use xlink:href='#gpPt5' transform='translate(307.7,447.8) scale(2.25)' color='rgb(  0,   0, 255)'/>
	<use xlink:href='#gpPt5' transform='translate(320.7,454.3) scale(2.25)' color='rgb(  0,   0, 255)'/>
	<use xlink:href='#gpPt5' transform='translate(333.7,463.3) scale(2.25)' color='rgb(  0,   0, 255)'/>
	<use xlink:href='#gpPt5' transform='translate(346.6,468.5) scale(2.25)' color='rgb(  0,   0, 255)'/>
	<use xlink:href='#gpPt5' transform='translate(359.6,477.8) scale(2.25)' color='rgb(  0,   0, 255)'/>
	<use xlink:href='#gpPt5' transform='translate(372.6,483.6) scale(2.25)' color='rgb(  0,   0, 255)'/>
	<use xlink:href='#gpPt5' transform='translate(385.6,492.2) scale(2.25)' color='rgb(  0,   0, 255)'/>
	<use xlink:href='#gpPt5' transform='translate(398.5,498.9) scale(2.25)' color='rgb(  0,   0, 255)'/>
	<use xlink:href='#gpPt5' transform='translate(411.5,507.7) scale(2.25)' color='rgb(  0,   0, 255)'/>
	<use xlink:href='#gpPt5' transform='translate(424.5,514.0) scale(2.25)' color='rgb(  0,   0, 255)'/>
	<use xlink:href='#gpPt5' transform='translate(437.5,523.6) scale(2.25)' color='rgb(  0,   0, 255)'/>
	<use xlink:href='#gpPt5' transform='translate(450.4,530.6) scale(2.25)' color='rgb(  0,   0, 255)'/>
	<use xlink:href='#gpPt5' transform='translate(463.4,538.0) scale(2.25)' color='rgb(  0,   0, 255)'/>
	<use xlink:href='#gpPt5' transform='translate(476.4,547.1) scale(2.25)' color='rgb(  0,   0, 255)'/>
	<use xlink:href='#gpPt5' transform='translate(489.4,554.3) scale(2.25)' color='rgb(  0,   0, 255)'/>
	<use xlink:href='#gpPt5' transform='translate(502.4,563.1) scale(2.25)' color='rgb(  0,   0, 255)'/>
	<use xlink:href='#gpPt5' transform='translate(515.3,569.1) scale(2.25)' color='rgb(  0,   0, 255)'/>
	<use xlink:href='#gpPt5' transform='translate(528.3,580.8) scale(2.25)' color='rgb(  0,   0, 255)'/>
	<use xlink:href='#gpPt5' transform='translate(541.3,584.8) scale(2.25)' color='rgb(  0,   0, 255)'/>
	<use xlink:href='#gpPt5' transform='translate(554.3,594.0) scale(2.25)' color='rgb(  0,   0, 255)'/>
	<use xlink:href='#gpPt5' transform='translate(567.2,603.8) scale(2.25)' color='rgb(  0,   0, 255)'/>
	<use xlink:href='#gpPt5' transform='translate(580.2,608.5) scale(2.25)' color='rgb(  0,   0, 255)'/>
	<use xlink:href='#gpPt5' transform='translate(593.2,614.0) scale(2.25)' color='rgb(  0,   0, 255)'/>
	<use xlink:href='#gpPt5' transform='translate(606.2,632.8) scale(2.25)' color='rgb(  0,   0, 255)'/>
	<use xlink:href='#gpPt5' transform='translate(619.1,629.9) scale(2.25)' color='rgb(  0,   0, 255)'/>
	<use xlink:href='#gpPt5' transform='translate(632.1,638.5) scale(2.25)' color='rgb(  0,   0, 255)'/>
	<use xlink:href='#gpPt5' transform='translate(645.1,653.9) scale(2.25)' color='rgb(  0,   0, 255)'/>
	<use xlink:href='#gpPt5' transform='translate(658.1,655.6) scale(2.25)' color='rgb(  0,   0, 255)'/>
	<use xlink:href='#gpPt5' transform='translate(671.1,658.2) scale(2.25)' color='rgb(  0,   0, 255)'/>
	<use xlink:href='#gpPt5' transform='translate(684.0,657.8) scale(2.25)' color='rgb(  0,   0, 255)'/>
	<use xlink:href='#gpPt5' transform='translate(697.0,668.3) scale(2.25)' color='rgb(  0,   0, 255)'/>
	<use xlink:href='#gpPt5' transform='translate(710.0,672.4) scale(2.25)' color='rgb(  0,   0, 255)'/>
	<use xlink:href='#gpPt5' transform='translate(723.0,672.3) scale(2.25)' color='rgb(  0,   0, 255)'/>
	<use xlink:href='#gpPt5' transform='translate(735.9,683.7) scale(2.25)' color='rgb(  0,   0, 255)'/>
	<use xlink:href='#gpPt5' transform='translate(748.9,674.1) scale(2.25)' color='rgb(  0,   0, 255)'/>
	<use xlink:href='#gpPt5' transform='translate(761.9,682.6) scale(2.25)' color='rgb(  0,   0, 255)'/>
	<use xlink:href='#gpPt5' transform='translate(774.9,676.6) scale(2.25)' color='rgb(  0,   0, 255)'/>
	<use xlink:href='#gpPt5' transform='translate(787.8,682.7) scale(2.25)' color='rgb(  0,   0, 255)'/>
	<use xlink:href='#gpPt5' transform='translate(800.8,672.1) scale(2.25)' color='rgb(  0,   0, 255)'/>
	<use xlink:href='#gpPt5' transform='translate(813.8,672.8) scale(2.25)' color='rgb(  0,   0, 255)'/>
	<use xlink:href='#gpPt5' transform='translate(826.8,662.7) scale(2.25)' color='rgb(  0,   0, 255)'/>
	<use xlink:href='#gpPt5' transform='translate(839.7,655.5) scale(2.25)' color='rgb(  0,   0, 255)'/>
	<use xlink:href='#gpPt5' transform='translate(852.7,652.2) scale(2.25)' color='rgb(  0,   0, 255)'/>
	<use xlink:href='#gpPt5' transform='translate(865.7,653.4) scale(2.25)' color='rgb(  0,   0, 255)'/>
	<use xlink:href='#gpPt5' transform='translate(878.7,651.7) scale(2.25)' color='rgb(  0,   0, 255)'/>
	<use xlink:href='#gpPt5' transform='translate(891.7,648.8) scale(2.25)' color='rgb(  0,   0, 255)'/>
	<use xlink:href='#gpPt5' transform='translate(904.6,652.4) scale(2.25)' color='rgb(  0,   0, 255)'/>
	<use xlink:href='#gpPt5' transform='translate(917.6,641.2) scale(2.25)' color='rgb(  0,   0, 255)'/>
	<use xlink:href='#gpPt5' transform='translate(930.6,648.6) scale(2.25)' color='rgb(  0,   0, 255)'/>
	<use xlink:href='#gpPt5' transform='translate(943.6,625.0) scale(2.25)' color='rgb(  0,   0, 255)'/>
	<use xlink:href='#gpPt5' transform='translate(956.5,621.7) scale(2.25)' color='rgb(  0,   0, 255)'/>
	<use xlink:href='#gpPt5' transform='translate(969.5,593.2) scale(2.25)' color='rgb(  0,   0, 255)'/>
	<use xlink:href='#gpPt5' transform='translate(982.5,575.8) scale(2.25)' color='rgb(  0,   0, 255)'/>
	<use xlink:href='#gpPt5' transform='translate(995.5,566.6) scale(2.25)' color='rgb(  0,   0, 255)'/>
	<use xlink:href='#gpPt5' transform='translate(1008.4,550.2) scale(2.25)' color='rgb(  0,   0, 255)'/>
	<use xlink:href='#gpPt5' transform='translate(1021.4,547.8) scale(2.25)' color='rgb(  0,   0, 255)'/>
	<use xlink:href='#gpPt5' transform='translate(1034.4,558.0) scale(2.25)' color='rgb(  0,   0, 255)'/>
	<use xlink:href='#gpPt5' transform='translate(1047.4,562.1) scale(2.25)' color='rgb(  0,   0, 255)'/>
	<use xlink:href='#gpPt5' transform='translate(1060.3,575.9) scale(2.25)' color='rgb(  0,   0, 255)'/>
	<use xlink:href='#gpPt5' transform='translate(1073.3,581.8) scale(2.25)' color='rgb(  0,   0, 255)'/>
	<use xlink:href='#gpPt5' transform='translate(1086.3,585.3) scale(2.25)' color='rgb(  0,   0, 255)'/>
	<use xlink:href='#gpPt5' transform='translate(1099.3,582.1) scale(2.25)' color='rgb(  0,   0, 255)'/>
	<use xlink:href='#gpPt5' transform='translate(1112.3,582.7) scale(2.25)' color='rgb(  0,   0, 255)'/>
	<use xlink:href='#gpPt5' transform='translate(1125.2,582.0) scale(2.25)' color='rgb(  0,   0, 255)'/>
	<use xlink:href='#gpPt5' transform='translate(1138.2,580.6) scale(2.25)' color='rgb(  0,   0, 255)'/>
	<use xlink:href='#gpPt5' transform='translate(1151.2,578.8) scale(2.25)' color='rgb(  0,   0, 255)'/>
	<use xlink:href='#gpPt5' transform='translate(1164.2,578.3) scale(2.25)' color='rgb(  0,   0, 255)'/>
	<use xlink:href='#gpPt5' transform='translate(1177.1,585.1) scale(2.25)' color='rgb(  0,   0, 255)'/>
	<use xlink:href='#gpPt5' transform='translate(1190.1,571.0) scale(2.25)' color='rgb(  0,   0, 255)'/>
	<use xlink:href='#gpPt5' transform='translate(1203.1,572.7) scale(2.25)' color='rgb(  0,   0, 255)'/>
	<use xlink:href='#gpPt5' transform='translate(1216.1,562.2) scale(2.25)' color='rgb(  0,   0, 255)'/>
	<use xlink:href='#gpPt5' transform='translate(1229.0,524.4) scale(2.25)' color='rgb(  0,   0, 255)'/>
	<use xlink:href='#gpPt5' transform='translate(1242.0,527.6) scale(2.25)' color='rgb(  0,   0, 255)'/>
	<use xlink:href='#gpPt5' transform='translate(1255.0,513.0) scale(2.25)' color='rgb(  0,   0, 255)'/>
</g>
	</g>
	<g id="gnuplot_plot_4" ><title>fit</title>
<g fill="none" color="black" stroke="currentColor" stroke-width="1.00" stroke-linecap="butt" stroke-linejoin="miter">
	<g transform="translate(1187.9,94.0)" stroke="none" fill="black" font-family="Arial" font-size="12.00"  text-anchor="end">
		<text><tspan font-family="Arial" >fit</tspan></text>
	</g>
</g>
<g fill="none" color="black" stroke="currentColor" stroke-width="1.00" stroke-linecap="butt" stroke-linejoin="miter">
	<path stroke='rgb(255,   0,   0)'  d='M1196.2,90.1 L1238.4,90.1 M87.1,79.9 L88.2,80.9 L89.4,84.1 L90.5,89.0 L91.7,95.4 L92.8,102.9
		L93.9,111.1 L95.1,119.8 L96.2,128.6 L97.4,137.6 L98.5,146.4 L99.7,155.1 L100.8,163.5 L101.9,171.7
		L103.1,179.6 L104.2,187.1 L105.4,194.4 L106.5,201.3 L107.6,208.0 L108.8,214.3 L109.9,220.3 L111.1,226.1
		L112.2,231.6 L113.4,236.8 L114.5,241.8 L115.6,246.6 L116.8,251.1 L117.9,255.5 L119.1,259.6 L120.2,263.6
		L121.3,267.4 L122.5,271.0 L123.6,274.5 L124.8,277.8 L125.9,281.1 L127.1,284.2 L128.2,287.1 L129.3,290.0
		L130.5,292.8 L131.6,295.5 L132.8,298.1 L133.9,300.6 L135.0,303.0 L136.2,305.4 L137.3,307.7 L138.5,309.9
		L139.6,312.1 L140.8,314.2 L141.9,316.3 L143.0,318.4 L144.2,320.3 L145.3,322.3 L146.5,324.2 L147.6,326.1
		L148.7,327.9 L149.9,329.7 L151.0,331.5 L152.2,333.3 L153.3,335.0 L154.5,336.7 L155.6,338.4 L156.7,340.0
		L157.9,341.7 L159.0,343.3 L160.2,344.9 L161.3,346.5 L162.4,348.0 L163.6,349.6 L164.7,351.1 L165.9,352.6
		L167.0,354.1 L168.2,355.6 L169.3,357.0 L170.4,358.5 L171.6,359.9 L172.7,361.4 L173.9,362.8 L175.0,364.2
		L176.1,365.6 L177.3,367.0 L178.4,368.3 L179.6,369.7 L180.7,371.1 L181.9,372.4 L183.0,373.7 L184.1,375.1
		L185.3,376.4 L186.4,377.7 L187.6,379.0 L188.7,380.3 L189.8,381.5 L191.0,382.8 L192.1,384.1 L193.3,385.3
		L194.4,386.6 L195.6,387.8 L196.7,389.0 L197.8,390.3 L199.0,391.5 L200.1,392.7 L201.3,393.9 L202.4,395.1
		L203.5,396.3 L204.7,397.5 L205.8,398.6 L207.0,399.8 L208.1,401.0 L209.3,402.1 L210.4,403.3 L211.5,404.4
		L212.7,405.5 L213.8,406.7 L215.0,407.8 L216.1,408.9 L217.2,410.0 L218.4,411.1 L219.5,412.2 L220.7,413.3
		L221.8,414.4 L223.0,415.5 L224.1,416.5 L225.2,417.6 L226.4,418.7 L227.5,419.7 L228.7,420.8 L229.8,421.8
		L230.9,422.8 L232.1,423.9 L233.2,424.9 L234.4,425.9 L235.5,426.9 L236.7,427.9 L237.8,428.9 L238.9,429.9
		L240.1,430.9 L241.2,431.9 L242.4,432.9 L243.5,433.9 L244.6,434.9 L245.8,435.8 L246.9,436.8 L248.1,437.8
		L249.2,438.7 L250.4,439.7 L251.5,440.6 L252.6,441.5 L253.8,442.5 L254.9,443.4 L256.1,444.3 L257.2,445.3
		L258.3,446.2 L259.5,447.1 L260.6,448.0 L261.8,448.9 L262.9,449.8 L264.1,450.7 L265.2,451.6 L266.3,452.4
		L267.5,453.3 L268.6,454.2 L269.8,455.1 L270.9,455.9 L272.0,456.8 L273.2,457.7 L274.3,458.5 L275.5,459.4
		L276.6,460.2 L277.8,461.1 L278.9,461.9 L280.0,462.7 L281.2,463.6 L282.3,464.4 L283.5,465.2 L284.6,466.0
		L285.7,466.8 L286.9,467.6 L288.0,468.5 L289.2,469.3 L290.3,470.1 L291.5,470.8 L292.6,471.6 L293.7,472.4
		L294.9,473.2 L296.0,474.0 L297.2,474.8 L298.3,475.5 L299.4,476.3 L300.6,477.1 L301.7,477.8 L302.9,478.6
		L304.0,479.4 L305.2,480.1 L306.3,480.9 L307.4,481.6 L308.6,482.3 L309.7,483.1 L310.9,483.8 L312.0,484.5
		L313.1,485.3 L314.3,486.0 L315.4,486.7 L316.6,487.4 L317.7,488.2 L318.9,488.9 L320.0,489.6 L321.1,490.3
		L322.3,491.0 L323.4,491.7 L324.6,492.4 L325.7,493.1 L326.8,493.8 L328.0,494.4 L329.1,495.1 L330.3,495.8
		L331.4,496.5 L332.6,497.2 L333.7,497.8 L334.8,498.5 L336.0,499.2 L337.1,499.8 L338.3,500.5 L339.4,501.2
		L340.5,501.8 L341.7,502.5 L342.8,503.1 L344.0,503.8 L345.1,504.4 L346.3,505.1 L347.4,505.7 L348.5,506.3
		L349.7,507.0 L350.8,507.6 L352.0,508.2 L353.1,508.8 L354.2,509.5 L355.4,510.1 L356.5,510.7 L357.7,511.3
		L358.8,511.9 L360.0,512.5 L361.1,513.2 L362.2,513.8 L363.4,514.4 L364.5,515.0 L365.7,515.6 L366.8,516.2
		L367.9,516.7 L369.1,517.3 L370.2,517.9 L371.4,518.5 L372.5,519.1 L373.7,519.7 L374.8,520.3 L375.9,520.8
		L377.1,521.4 L378.2,522.0 L379.4,522.5 L380.5,523.1 L381.6,523.7 L382.8,524.2 L383.9,524.8 L385.1,525.4
		L386.2,525.9 L387.4,526.5 L388.5,527.0 L389.6,527.6 L390.8,528.1 L391.9,528.7 L393.1,529.2 L394.2,529.7
		L395.3,530.3 L396.5,530.8 L397.6,531.4 L398.8,531.9 L399.9,532.4 L401.1,532.9 L402.2,533.5 L403.3,534.0
		L404.5,534.5 L405.6,535.0 L406.8,535.6 L407.9,536.1 L409.0,536.6 L410.2,537.1 L411.3,537.6 L412.5,538.1
		L413.6,538.6 L414.8,539.1 L415.9,539.6 L417.0,540.1 L418.2,540.6 L419.3,541.1 L420.5,541.6 L421.6,542.1
		L422.7,542.6 L423.9,543.1 L425.0,543.6 L426.2,544.1 L427.3,544.5 L428.5,545.0 L429.6,545.5 L430.7,546.0
		L431.9,546.4 L433.0,546.9 L434.2,547.4 L435.3,547.9 L436.4,548.3 L437.6,548.8 L438.7,549.3 L439.9,549.7
		L441.0,550.2 L442.2,550.7 L443.3,551.1 L444.4,551.6 L445.6,552.0 L446.7,552.5 L447.9,552.9 L449.0,553.4
		L450.1,553.8 L451.3,554.3 L452.4,554.7 L453.6,555.2 L454.7,555.6 L455.9,556.0 L457.0,556.5 L458.1,556.9
		L459.3,557.3 L460.4,557.8 L461.6,558.2 L462.7,558.6 L463.8,559.1 L465.0,559.5 L466.1,559.9 L467.3,560.3
		L468.4,560.8 L469.6,561.2 L470.7,561.6 L471.8,562.0 L473.0,562.4 L474.1,562.8 L475.3,563.3 L476.4,563.7
		L477.5,564.1 L478.7,564.5 L479.8,564.9 L481.0,565.3 L482.1,565.7 L483.2,566.1 L484.4,566.5 L485.5,566.9
		L486.7,567.3 L487.8,567.7 L489.0,568.1 L490.1,568.5 L491.2,568.9 L492.4,569.3 L493.5,569.6 L494.7,570.0
		L495.8,570.4 L496.9,570.8 L498.1,571.2 L499.2,571.6 L500.4,571.9 L501.5,572.3 L502.7,572.7 L503.8,573.1
		L504.9,573.5 L506.1,573.8 L507.2,574.2 L508.4,574.6 L509.5,574.9 L510.6,575.3 L511.8,575.7 L512.9,576.0
		L514.1,576.4 L515.2,576.8 L516.4,577.1 L517.5,577.5 L518.6,577.8 L519.8,578.2 L520.9,578.5 L522.1,578.9
		L523.2,579.2 L524.3,579.6 L525.5,579.9 L526.6,580.3 L527.8,580.6 L528.9,581.0 L530.1,581.3 L531.2,581.7
		L532.3,582.0 L533.5,582.4 L534.6,582.7 L535.8,583.0 L536.9,583.4 L538.0,583.7 L539.2,584.0 L540.3,584.4
		L541.5,584.7 L542.6,585.0 L543.8,585.4 L544.9,585.7 L546.0,586.0 L547.2,586.3 L548.3,586.7 L549.5,587.0
		L550.6,587.3 L551.7,587.6 L552.9,587.9 L554.0,588.3 L555.2,588.6 L556.3,588.9 L557.5,589.2 L558.6,589.5
		L559.7,589.8 L560.9,590.1 L562.0,590.4 L563.2,590.7 L564.3,591.1 L565.4,591.4 L566.6,591.7 L567.7,592.0
		L568.9,592.3 L570.0,592.6 L571.2,592.9 L572.3,593.2 L573.4,593.5 L574.6,593.8 L575.7,594.0 L576.9,594.3
		L578.0,594.6 L579.1,594.9 L580.3,595.2 L581.4,595.5 L582.6,595.8 L583.7,596.1 L584.9,596.4 L586.0,596.6
		L587.1,596.9 L588.3,597.2 L589.4,597.5 L590.6,597.8 L591.7,598.0 L592.8,598.3 L594.0,598.6 L595.1,598.9
		L596.3,599.1 L597.4,599.4 L598.6,599.7 L599.7,599.9 L600.8,600.2 L602.0,600.5 L603.1,600.7 L604.3,601.0
		L605.4,601.3 L606.5,601.5 L607.7,601.8 L608.8,602.0 L610.0,602.3 L611.1,602.6 L612.3,602.8 L613.4,603.1
		L614.5,603.3 L615.7,603.6 L616.8,603.8 L618.0,604.1 L619.1,604.3 L620.2,604.6 L621.4,604.8 L622.5,605.1
		L623.7,605.3 L624.8,605.5 L626.0,605.8 L627.1,606.0 L628.2,606.3 L629.4,606.5 L630.5,606.7 L631.7,607.0
		L632.8,607.2 L633.9,607.5 L635.1,607.7 L636.2,607.9 L637.4,608.1 L638.5,608.4 L639.7,608.6 L640.8,608.8
		L641.9,609.1 L643.1,609.3 L644.2,609.5 L645.4,609.7 L646.5,609.9 L647.6,610.2 L648.8,610.4 L649.9,610.6
		L651.1,610.8 L652.2,611.0 L653.4,611.2 L654.5,611.5 L655.6,611.7 L656.8,611.9 L657.9,612.1 L659.1,612.3
		L660.2,612.5 L661.3,612.7 L662.5,612.9 L663.6,613.1 L664.8,613.3 L665.9,613.5 L667.1,613.7 L668.2,613.9
		L669.3,614.1 L670.5,614.3 L671.6,614.5 L672.8,614.7 L673.9,614.9 L675.0,615.1 L676.2,615.3 L677.3,615.5
		L678.5,615.7 L679.6,615.9 L680.8,616.0 L681.9,616.2 L683.0,616.4 L684.2,616.6 L685.3,616.8 L686.5,617.0
		L687.6,617.1 L688.7,617.3 L689.9,617.5 L691.0,617.7 L692.2,617.8 L693.3,618.0 L694.5,618.2 L695.6,618.4
		L696.7,618.5 L697.9,618.7 L699.0,618.9 L700.2,619.0 L701.3,619.2 L702.4,619.4 L703.6,619.5 L704.7,619.7
		L705.9,619.8 L707.0,620.0 L708.2,620.2 L709.3,620.3 L710.4,620.5 L711.6,620.6 L712.7,620.8 L713.9,620.9
		L715.0,621.1 L716.1,621.2 L717.3,621.4 L718.4,621.5 L719.6,621.7 L720.7,621.8 L721.9,622.0 L723.0,622.1
		L724.1,622.2 L725.3,622.4 L726.4,622.5 L727.6,622.7 L728.7,622.8 L729.8,622.9 L731.0,623.1 L732.1,623.2
		L733.3,623.3 L734.4,623.5 L735.6,623.6 L736.7,623.7 L737.8,623.8 L739.0,624.0 L740.1,624.1 L741.3,624.2
		L742.4,624.3 L743.5,624.4 L744.7,624.6 L745.8,624.7 L747.0,624.8 L748.1,624.9 L749.3,625.0 L750.4,625.1
		L751.5,625.2 L752.7,625.4 L753.8,625.5 L755.0,625.6 L756.1,625.7 L757.2,625.8 L758.4,625.9 L759.5,626.0
		L760.7,626.1 L761.8,626.2 L763.0,626.3 L764.1,626.4 L765.2,626.5 L766.4,626.6 L767.5,626.7 L768.7,626.7
		L769.8,626.8 L770.9,626.9 L772.1,627.0 L773.2,627.1 L774.4,627.2 L775.5,627.3 L776.7,627.3 L777.8,627.4
		L778.9,627.5 L780.1,627.6 L781.2,627.6 L782.4,627.7 L783.5,627.8 L784.6,627.9 L785.8,627.9 L786.9,628.0
		L788.1,628.1 L789.2,628.1 L790.4,628.2 L791.5,628.3 L792.6,628.3 L793.8,628.4 L794.9,628.4 L796.1,628.5
		L797.2,628.5 L798.3,628.6 L799.5,628.7 L800.6,628.7 L801.8,628.8 L802.9,628.8 L804.1,628.8 L805.2,628.9
		L806.3,628.9 L807.5,629.0 L808.6,629.0 L809.8,629.1 L810.9,629.1 L812.0,629.1 L813.2,629.2 L814.3,629.2
		L815.5,629.2 L816.6,629.3 L817.8,629.3 L818.9,629.3 L820.0,629.3 L821.2,629.4 L822.3,629.4 L823.5,629.4
		L824.6,629.4 L825.7,629.4 L826.9,629.5 L828.0,629.5 L829.2,629.5 L830.3,629.5 L831.5,629.5 L832.6,629.5
		L833.7,629.5 L834.9,629.5 L836.0,629.5 L837.2,629.5 L838.3,629.5 L839.4,629.5 L840.6,629.5 L841.7,629.5
		L842.9,629.5 L844.0,629.5 L845.2,629.5 L846.3,629.5 L847.4,629.4 L848.6,629.4 L849.7,629.4 L850.9,629.4
		L852.0,629.4 L853.1,629.4 L854.3,629.3 L855.4,629.3 L856.6,629.3 L857.7,629.2 L858.9,629.2 L860.0,629.2
		L861.1,629.1 L862.3,629.1 L863.4,629.1 L864.6,629.0 L865.7,629.0 L866.8,628.9 L868.0,628.9 L869.1,628.8
		L870.3,628.8 L871.4,628.7 L872.5,628.7 L873.7,628.6 L874.8,628.6 L876.0,628.5 L877.1,628.5 L878.3,628.4
		L879.4,628.3 L880.5,628.3 L881.7,628.2 L882.8,628.1 L884.0,628.1 L885.1,628.0 L886.2,627.9 L887.4,627.8
		L888.5,627.7 L889.7,627.7 L890.8,627.6 L892.0,627.5 L893.1,627.4 L894.2,627.3 L895.4,627.2 L896.5,627.1
		L897.7,627.0 L898.8,626.9 L899.9,626.8 L901.1,626.7 L902.2,626.6 L903.4,626.5 L904.5,626.4 L905.7,626.3
		L906.8,626.2 L907.9,626.1 L909.1,626.0 L910.2,625.9 L911.4,625.7 L912.5,625.6 L913.6,625.5 L914.8,625.4
		L915.9,625.2 L917.1,625.1 L918.2,625.0 L919.4,624.8 L920.5,624.7 L921.6,624.6 L922.8,624.4 L923.9,624.3
		L925.1,624.1 L926.2,624.0 L927.3,623.8 L928.5,623.7 L929.6,623.5 L930.8,623.4 L931.9,623.2 L933.1,623.1
		L934.2,622.9 L935.3,622.7 L936.5,622.6 L937.6,622.4 L938.8,622.2 L939.9,622.1 L941.0,621.9 L942.2,621.7
		L943.3,621.5 L944.5,621.3 L945.6,621.2 L946.8,621.0 L947.9,620.8 L949.0,620.6 L950.2,620.4 L951.3,620.2
		L952.5,620.0 L953.6,619.8 L954.7,619.6 L955.9,619.4 L957.0,619.2 L958.2,619.0 L959.3,618.8 L960.5,618.6
		L961.6,618.3 L962.7,618.1 L963.9,617.9 L965.0,617.7 L966.2,617.5 L967.3,617.2 L968.4,617.0 L969.6,616.8
		L970.7,616.5 L971.9,616.3 L973.0,616.1 L974.2,615.8 L975.3,615.6 L976.4,615.3 L977.6,615.1 L978.7,614.8
		L979.9,614.6 L981.0,614.3 L982.1,614.1 L983.3,613.8 L984.4,613.5 L985.6,613.3 L986.7,613.0 L987.9,612.7
		L989.0,612.5 L990.1,612.2 L991.3,611.9 L992.4,611.7 L993.6,611.4 L994.7,611.1 L995.8,610.8 L997.0,610.5
		L998.1,610.2 L999.3,609.9 L1000.4,609.6 L1001.6,609.3 L1002.7,609.0 L1003.8,608.7 L1005.0,608.4 L1006.1,608.1
		L1007.3,607.8 L1008.4,607.5 L1009.5,607.2 L1010.7,606.9 L1011.8,606.6 L1013.0,606.2 L1014.1,605.9 L1015.3,605.6
		L1016.4,605.3 L1017.5,604.9 L1018.7,604.6 L1019.8,604.3 L1021.0,603.9 L1022.1,603.6 L1023.2,603.3 L1024.4,602.9
		L1025.5,602.6 L1026.7,602.2 L1027.8,601.9 L1029.0,601.5 L1030.1,601.2 L1031.2,600.8 L1032.4,600.4 L1033.5,600.1
		L1034.7,599.7 L1035.8,599.3 L1036.9,599.0 L1038.1,598.6 L1039.2,598.2 L1040.4,597.9 L1041.5,597.5 L1042.7,597.1
		L1043.8,596.7 L1044.9,596.3 L1046.1,596.0 L1047.2,595.6 L1048.4,595.2 L1049.5,594.8 L1050.6,594.4 L1051.8,594.0
		L1052.9,593.6 L1054.1,593.2 L1055.2,592.8 L1056.4,592.4 L1057.5,592.0 L1058.6,591.6 L1059.8,591.2 L1060.9,590.8
		L1062.1,590.3 L1063.2,589.9 L1064.3,589.5 L1065.5,589.1 L1066.6,588.7 L1067.8,588.3 L1068.9,587.8 L1070.1,587.4
		L1071.2,587.0 L1072.3,586.5 L1073.5,586.1 L1074.6,585.7 L1075.8,585.2 L1076.9,584.8 L1078.0,584.4 L1079.2,583.9
		L1080.3,583.5 L1081.5,583.0 L1082.6,582.6 L1083.8,582.2 L1084.9,581.7 L1086.0,581.3 L1087.2,580.8 L1088.3,580.4
		L1089.5,579.9 L1090.6,579.4 L1091.7,579.0 L1092.9,578.5 L1094.0,578.1 L1095.2,577.6 L1096.3,577.2 L1097.5,576.7
		L1098.6,576.2 L1099.7,575.8 L1100.9,575.3 L1102.0,574.8 L1103.2,574.4 L1104.3,573.9 L1105.4,573.4 L1106.6,573.0
		L1107.7,572.5 L1108.9,572.0 L1110.0,571.5 L1111.2,571.1 L1112.3,570.6 L1113.4,570.1 L1114.6,569.7 L1115.7,569.2
		L1116.9,568.7 L1118.0,568.2 L1119.1,567.8 L1120.3,567.3 L1121.4,566.8 L1122.6,566.3 L1123.7,565.8 L1124.9,565.4
		L1126.0,564.9 L1127.1,564.4 L1128.3,563.9 L1129.4,563.5 L1130.6,563.0 L1131.7,562.5 L1132.8,562.0 L1134.0,561.6
		L1135.1,561.1 L1136.3,560.6 L1137.4,560.1 L1138.6,559.7 L1139.7,559.2 L1140.8,558.7 L1142.0,558.2 L1143.1,557.8
		L1144.3,557.3 L1145.4,556.8 L1146.5,556.4 L1147.7,555.9 L1148.8,555.4 L1150.0,555.0 L1151.1,554.5 L1152.3,554.1
		L1153.4,553.6 L1154.5,553.1 L1155.7,552.7 L1156.8,552.2 L1158.0,551.8 L1159.1,551.3 L1160.2,550.9 L1161.4,550.4
		L1162.5,550.0 L1163.7,549.5 L1164.8,549.1 L1166.0,548.7 L1167.1,548.2 L1168.2,547.8 L1169.4,547.4 L1170.5,546.9
		L1171.7,546.5 L1172.8,546.1 L1173.9,545.7 L1175.1,545.3 L1176.2,544.9 L1177.4,544.4 L1178.5,544.0 L1179.7,543.6
		L1180.8,543.2 L1181.9,542.8 L1183.1,542.5 L1184.2,542.1 L1185.4,541.7 L1186.5,541.3 L1187.6,540.9 L1188.8,540.6
		L1189.9,540.2 L1191.1,539.8 L1192.2,539.5 L1193.4,539.1 L1194.5,538.8 L1195.6,538.4 L1196.8,538.1 L1197.9,537.7
		L1199.1,537.4 L1200.2,537.1 L1201.3,536.8 L1202.5,536.5 L1203.6,536.1 L1204.8,535.8 L1205.9,535.5 L1207.1,535.2
		L1208.2,535.0 L1209.3,534.7 L1210.5,534.4 L1211.6,534.1 L1212.8,533.9 L1213.9,533.6 L1215.0,533.4 L1216.2,533.1
		L1217.3,532.9 L1218.5,532.6 L1219.6,532.4 L1220.8,532.2 L1221.9,532.0 L1223.0,531.8 L1224.2,531.6 L1225.3,531.4
		L1226.5,531.2 L1227.6,531.0 L1228.7,530.8 L1229.9,530.7 L1231.0,530.5 L1232.2,530.4 L1233.3,530.2 L1234.5,530.1
		L1235.6,529.9 L1236.7,529.8 L1237.9,529.7 L1239.0,529.6 L1240.2,529.5 L1241.3,529.4 L1242.4,529.3 L1243.6,529.2
		L1244.7,529.2 L1245.9,529.1 L1247.0,529.0 L1248.2,529.0 L1249.3,528.9 L1250.4,528.9 L1251.6,528.9 L1252.7,528.9
		L1253.9,528.9 L1255.0,528.9  '/></g>
	</g>
	<g id="gnuplot_plot_5" ><title>gnuplot_plot_5</title>
<g fill="none" color="black" stroke="currentColor" stroke-width="1.00" stroke-linecap="butt" stroke-linejoin="miter">
	<path stroke='rgb(  0, 100,   0)'  d='M87.1,73.1 L88.2,74.3 L89.4,77.9 L90.5,83.4 L91.7,90.5 L92.8,98.8 L93.9,107.8 L95.1,117.1
		L96.2,126.7 L97.4,136.2 L98.5,145.5 L99.7,154.6 L100.8,163.5 L101.9,171.9 L103.1,180.1 L104.2,187.9
		L105.4,195.3 L106.5,202.4 L107.6,209.2 L108.8,215.6 L109.9,221.7 L111.1,227.6 L112.2,233.1 L113.4,238.4
		L114.5,243.4 L115.6,248.2 L116.8,252.7 L117.9,257.0 L119.1,261.2 L120.2,265.1 L121.3,268.9 L122.5,272.5
		L123.6,276.0 L124.8,279.3 L125.9,282.5 L127.1,285.5 L128.2,288.5 L129.3,291.3 L130.5,294.1 L131.6,296.7
		L132.8,299.3 L133.9,301.7 L135.0,304.2 L136.2,306.5 L137.3,308.8 L138.5,311.0 L139.6,313.1 L140.8,315.2
		L141.9,317.3 L143.0,319.3 L144.2,321.2 L145.3,323.2 L146.5,325.0 L147.6,326.9 L148.7,328.7 L149.9,330.5
		L151.0,332.3 L152.2,334.0 L153.3,335.7 L154.5,337.4 L155.6,339.0 L156.7,340.7 L157.9,342.3 L159.0,343.9
		L160.2,345.4 L161.3,347.0 L162.4,348.5 L163.6,350.1 L164.7,351.6 L165.9,353.1 L167.0,354.6 L168.2,356.0
		L169.3,357.5 L170.4,358.9 L171.6,360.3 L172.7,361.8 L173.9,363.2 L175.0,364.6 L176.1,365.9 L177.3,367.3
		L178.4,368.7 L179.6,370.0 L180.7,371.4 L181.9,372.7 L183.0,374.0 L184.1,375.3 L185.3,376.6 L186.4,377.9
		L187.6,379.2 L188.7,380.5 L189.8,381.8 L191.0,383.1 L192.1,384.3 L193.3,385.6 L194.4,386.8 L195.6,388.0
		L196.7,389.3 L197.8,390.5 L199.0,391.7 L200.1,392.9 L201.3,394.1 L202.4,395.3 L203.5,396.5 L204.7,397.6
		L205.8,398.8 L207.0,400.0 L208.1,401.1 L209.3,402.3 L210.4,403.4 L211.5,404.5 L212.7,405.7 L213.8,406.8
		L215.0,407.9 L216.1,409.0 L217.2,410.1 L218.4,411.2 L219.5,412.3 L220.7,413.4 L221.8,414.5 L223.0,415.6
		L224.1,416.6 L225.2,417.7 L226.4,418.7 L227.5,419.8 L228.7,420.8 L229.8,421.9 L230.9,422.9 L232.1,423.9
		L233.2,425.0 L234.4,426.0 L235.5,427.0 L236.7,428.0 L237.8,429.0 L238.9,430.0 L240.1,431.0 L241.2,432.0
		L242.4,433.0 L243.5,433.9 L244.6,434.9 L245.8,435.9 L246.9,436.8 L248.1,437.8 L249.2,438.8 L250.4,439.7
		L251.5,440.6 L252.6,441.6 L253.8,442.5 L254.9,443.4 L256.1,444.4 L257.2,445.3 L258.3,446.2 L259.5,447.1
		L260.6,448.0 L261.8,448.9 L262.9,449.8 L264.1,450.7 L265.2,451.6 L266.3,452.5 L267.5,453.3 L268.6,454.2
		L269.8,455.1 L270.9,456.0 L272.0,456.8 L273.2,457.7 L274.3,458.5 L275.5,459.4 L276.6,460.2 L277.8,461.1
		L278.9,461.9 L280.0,462.7 L281.2,463.6 L282.3,464.4 L283.5,465.2 L284.6,466.0 L285.7,466.8 L286.9,467.6
		L288.0,468.5 L289.2,469.3 L290.3,470.0 L291.5,470.8 L292.6,471.6 L293.7,472.4 L294.9,473.2 L296.0,474.0
		L297.2,474.8 L298.3,475.5 L299.4,476.3 L300.6,477.1 L301.7,477.8 L302.9,478.6 L304.0,479.3 L305.2,480.1
		L306.3,480.8 L307.4,481.6 L308.6,482.3 L309.7,483.1 L310.9,483.8 L312.0,484.5 L313.1,485.3 L314.3,486.0
		L315.4,486.7 L316.6,487.4 L317.7,488.1 L318.9,488.9 L320.0,489.6 L321.1,490.3 L322.3,491.0 L323.4,491.7
		L324.6,492.4 L325.7,493.1 L326.8,493.7 L328.0,494.4 L329.1,495.1 L330.3,495.8 L331.4,496.5 L332.6,497.2
		L333.7,497.8 L334.8,498.5 L336.0,499.2 L337.1,499.8 L338.3,500.5 L339.4,501.1 L340.5,501.8 L341.7,502.5
		L342.8,503.1 L344.0,503.8 L345.1,504.4 L346.3,505.0 L347.4,505.7 L348.5,506.3 L349.7,506.9 L350.8,507.6
		L352.0,508.2 L353.1,508.8 L354.2,509.5 L355.4,510.1 L356.5,510.7 L357.7,511.3 L358.8,511.9 L360.0,512.5
		L361.1,513.1 L362.2,513.7 L363.4,514.4 L364.5,515.0 L365.7,515.5 L366.8,516.1 L367.9,516.7 L369.1,517.3
		L370.2,517.9 L371.4,518.5 L372.5,519.1 L373.7,519.7 L374.8,520.2 L375.9,520.8 L377.1,521.4 L378.2,522.0
		L379.4,522.5 L380.5,523.1 L381.6,523.7 L382.8,524.2 L383.9,524.8 L385.1,525.4 L386.2,525.9 L387.4,526.5
		L388.5,527.0 L389.6,527.6 L390.8,528.1 L391.9,528.7 L393.1,529.2 L394.2,529.7 L395.3,530.3 L396.5,530.8
		L397.6,531.4 L398.8,531.9 L399.9,532.4 L401.1,532.9 L402.2,533.5 L403.3,534.0 L404.5,534.5 L405.6,535.0
		L406.8,535.6 L407.9,536.1 L409.0,536.6 L410.2,537.1 L411.3,537.6 L412.5,538.1 L413.6,538.6 L414.8,539.1
		L415.9,539.6 L417.0,540.1 L418.2,540.6 L419.3,541.1 L420.5,541.6 L421.6,542.1 L422.7,542.6 L423.9,543.1
		L425.0,543.6 L426.2,544.1 L427.3,544.6 L428.5,545.0 L429.6,545.5 L430.7,546.0 L431.9,546.5 L433.0,547.0
		L434.2,547.4 L435.3,547.9 L436.4,548.4 L437.6,548.8 L438.7,549.3 L439.9,549.8 L441.0,550.2 L442.2,550.7
		L443.3,551.2 L444.4,551.6 L445.6,552.1 L446.7,552.5 L447.9,553.0 L449.0,553.4 L450.1,553.9 L451.3,554.3
		L452.4,554.8 L453.6,555.2 L454.7,555.7 L455.9,556.1 L457.0,556.5 L458.1,557.0 L459.3,557.4 L460.4,557.8
		L461.6,558.3 L462.7,558.7 L463.8,559.1 L465.0,559.6 L466.1,560.0 L467.3,560.4 L468.4,560.8 L469.6,561.3
		L470.7,561.7 L471.8,562.1 L473.0,562.5 L474.1,562.9 L475.3,563.3 L476.4,563.8 L477.5,564.2 L478.7,564.6
		L479.8,565.0 L481.0,565.4 L482.1,565.8 L483.2,566.2 L484.4,566.6 L485.5,567.0 L486.7,567.4 L487.8,567.8
		L489.0,568.2 L490.1,568.6 L491.2,569.0 L492.4,569.4 L493.5,569.8 L494.7,570.2 L495.8,570.5 L496.9,570.9
		L498.1,571.3 L499.2,571.7 L500.4,572.1 L501.5,572.5 L502.7,572.8 L503.8,573.2 L504.9,573.6 L506.1,574.0
		L507.2,574.3 L508.4,574.7 L509.5,575.1 L510.6,575.4 L511.8,575.8 L512.9,576.2 L514.1,576.5 L515.2,576.9
		L516.4,577.3 L517.5,577.6 L518.6,578.0 L519.8,578.3 L520.9,578.7 L522.1,579.1 L523.2,579.4 L524.3,579.8
		L525.5,580.1 L526.6,580.5 L527.8,580.8 L528.9,581.2 L530.1,581.5 L531.2,581.9 L532.3,582.2 L533.5,582.5
		L534.6,582.9 L535.8,583.2 L536.9,583.6 L538.0,583.9 L539.2,584.2 L540.3,584.6 L541.5,584.9 L542.6,585.2
		L543.8,585.6 L544.9,585.9 L546.0,586.2 L547.2,586.6 L548.3,586.9 L549.5,587.2 L550.6,587.5 L551.7,587.9
		L552.9,588.2 L554.0,588.5 L555.2,588.8 L556.3,589.1 L557.5,589.5 L558.6,589.8 L559.7,590.1 L560.9,590.4
		L562.0,590.7 L563.2,591.0 L564.3,591.3 L565.4,591.6 L566.6,591.9 L567.7,592.2 L568.9,592.5 L570.0,592.9
		L571.2,593.2 L572.3,593.5 L573.4,593.8 L574.6,594.1 L575.7,594.3 L576.9,594.6 L578.0,594.9 L579.1,595.2
		L580.3,595.5 L581.4,595.8 L582.6,596.1 L583.7,596.4 L584.9,596.7 L586.0,597.0 L587.1,597.3 L588.3,597.5
		L589.4,597.8 L590.6,598.1 L591.7,598.4 L592.8,598.7 L594.0,598.9 L595.1,599.2 L596.3,599.5 L597.4,599.8
		L598.6,600.0 L599.7,600.3 L600.8,600.6 L602.0,600.9 L603.1,601.1 L604.3,601.4 L605.4,601.7 L606.5,601.9
		L607.7,602.2 L608.8,602.5 L610.0,602.7 L611.1,603.0 L612.3,603.2 L613.4,603.5 L614.5,603.8 L615.7,604.0
		L616.8,604.3 L618.0,604.5 L619.1,604.8 L620.2,605.0 L621.4,605.3 L622.5,605.5 L623.7,605.8 L624.8,606.0
		L626.0,606.3 L627.1,606.5 L628.2,606.8 L629.4,607.0 L630.5,607.2 L631.7,607.5 L632.8,607.7 L633.9,608.0
		L635.1,608.2 L636.2,608.4 L637.4,608.7 L638.5,608.9 L639.7,609.1 L640.8,609.4 L641.9,609.6 L643.1,609.8
		L644.2,610.1 L645.4,610.3 L646.5,610.5 L647.6,610.7 L648.8,611.0 L649.9,611.2 L651.1,611.4 L652.2,611.6
		L653.4,611.9 L654.5,612.1 L655.6,612.3 L656.8,612.5 L657.9,612.7 L659.1,612.9 L660.2,613.1 L661.3,613.4
		L662.5,613.6 L663.6,613.8 L664.8,614.0 L665.9,614.2 L667.1,614.4 L668.2,614.6 L669.3,614.8 L670.5,615.0
		L671.6,615.2 L672.8,615.4 L673.9,615.6 L675.0,615.8 L676.2,616.0 L677.3,616.2 L678.5,616.4 L679.6,616.6
		L680.8,616.8 L681.9,617.0 L683.0,617.2 L684.2,617.4 L685.3,617.6 L686.5,617.7 L687.6,617.9 L688.7,618.1
		L689.9,618.3 L691.0,618.5 L692.2,618.7 L693.3,618.8 L694.5,619.0 L695.6,619.2 L696.7,619.4 L697.9,619.6
		L699.0,619.7 L700.2,619.9 L701.3,620.1 L702.4,620.2 L703.6,620.4 L704.7,620.6 L705.9,620.8 L707.0,620.9
		L708.2,621.1 L709.3,621.2 L710.4,621.4 L711.6,621.6 L712.7,621.7 L713.9,621.9 L715.0,622.1 L716.1,622.2
		L717.3,622.4 L718.4,622.5 L719.6,622.7 L720.7,622.8 L721.9,623.0 L723.0,623.1 L724.1,623.3 L725.3,623.4
		L726.4,623.6 L727.6,623.7 L728.7,623.9 L729.8,624.0 L731.0,624.1 L732.1,624.3 L733.3,624.4 L734.4,624.6
		L735.6,624.7 L736.7,624.8 L737.8,625.0 L739.0,625.1 L740.1,625.2 L741.3,625.4 L742.4,625.5 L743.5,625.6
		L744.7,625.8 L745.8,625.9 L747.0,626.0 L748.1,626.1 L749.3,626.3 L750.4,626.4 L751.5,626.5 L752.7,626.6
		L753.8,626.7 L755.0,626.9 L756.1,627.0 L757.2,627.1 L758.4,627.2 L759.5,627.3 L760.7,627.4 L761.8,627.5
		L763.0,627.6 L764.1,627.7 L765.2,627.8 L766.4,627.9 L767.5,628.0 L768.7,628.1 L769.8,628.2 L770.9,628.3
		L772.1,628.4 L773.2,628.5 L774.4,628.6 L775.5,628.7 L776.7,628.8 L777.8,628.9 L778.9,629.0 L780.1,629.1
		L781.2,629.2 L782.4,629.3 L783.5,629.3 L784.6,629.4 L785.8,629.5 L786.9,629.6 L788.1,629.7 L789.2,629.7
		L790.4,629.8 L791.5,629.9 L792.6,630.0 L793.8,630.0 L794.9,630.1 L796.1,630.2 L797.2,630.2 L798.3,630.3
		L799.5,630.4 L800.6,630.4 L801.8,630.5 L802.9,630.6 L804.1,630.6 L805.2,630.7 L806.3,630.7 L807.5,630.8
		L808.6,630.8 L809.8,630.9 L810.9,630.9 L812.0,631.0 L813.2,631.0 L814.3,631.1 L815.5,631.1 L816.6,631.2
		L817.8,631.2 L818.9,631.3 L820.0,631.3 L821.2,631.3 L822.3,631.4 L823.5,631.4 L824.6,631.4 L825.7,631.5
		L826.9,631.5 L828.0,631.5 L829.2,631.5 L830.3,631.6 L831.5,631.6 L832.6,631.6 L833.7,631.6 L834.9,631.6
		L836.0,631.7 L837.2,631.7 L838.3,631.7 L839.4,631.7 L840.6,631.7 L841.7,631.7 L842.9,631.7 L844.0,631.7
		L845.2,631.7 L846.3,631.7 L847.4,631.7 L848.6,631.7 L849.7,631.7 L850.9,631.7 L852.0,631.7 L853.1,631.7
		L854.3,631.7 L855.4,631.7 L856.6,631.7 L857.7,631.7 L858.9,631.7 L860.0,631.6 L861.1,631.6 L862.3,631.6
		L863.4,631.6 L864.6,631.6 L865.7,631.5 L866.8,631.5 L868.0,631.5 L869.1,631.4 L870.3,631.4 L871.4,631.4
		L872.5,631.3 L873.7,631.3 L874.8,631.3 L876.0,631.2 L877.1,631.2 L878.3,631.1 L879.4,631.1 L880.5,631.0
		L881.7,631.0 L882.8,630.9 L884.0,630.9 L885.1,630.8 L886.2,630.8 L887.4,630.7 L888.5,630.6 L889.7,630.6
		L890.8,630.5 L892.0,630.4 L893.1,630.4 L894.2,630.3 L895.4,630.2 L896.5,630.1 L897.7,630.1 L898.8,630.0
		L899.9,629.9 L901.1,629.8 L902.2,629.7 L903.4,629.6 L904.5,629.6 L905.7,629.5 L906.8,629.4 L907.9,629.3
		L909.1,629.2 L910.2,629.1 L911.4,629.0 L912.5,628.9 L913.6,628.8 L914.8,628.7 L915.9,628.5 L917.1,628.4
		L918.2,628.3 L919.4,628.2 L920.5,628.1 L921.6,628.0 L922.8,627.8 L923.9,627.7 L925.1,627.6 L926.2,627.5
		L927.3,627.3 L928.5,627.2 L929.6,627.1 L930.8,626.9 L931.9,626.8 L933.1,626.7 L934.2,626.5 L935.3,626.4
		L936.5,626.2 L937.6,626.1 L938.8,625.9 L939.9,625.8 L941.0,625.6 L942.2,625.4 L943.3,625.3 L944.5,625.1
		L945.6,625.0 L946.8,624.8 L947.9,624.6 L949.0,624.5 L950.2,624.3 L951.3,624.1 L952.5,623.9 L953.6,623.7
		L954.7,623.6 L955.9,623.4 L957.0,623.2 L958.2,623.0 L959.3,622.8 L960.5,622.6 L961.6,622.4 L962.7,622.2
		L963.9,622.0 L965.0,621.8 L966.2,621.6 L967.3,621.4 L968.4,621.2 L969.6,621.0 L970.7,620.8 L971.9,620.5
		L973.0,620.3 L974.2,620.1 L975.3,619.9 L976.4,619.7 L977.6,619.4 L978.7,619.2 L979.9,619.0 L981.0,618.7
		L982.1,618.5 L983.3,618.3 L984.4,618.0 L985.6,617.8 L986.7,617.5 L987.9,617.3 L989.0,617.0 L990.1,616.8
		L991.3,616.5 L992.4,616.2 L993.6,616.0 L994.7,615.7 L995.8,615.5 L997.0,615.2 L998.1,614.9 L999.3,614.6
		L1000.4,614.4 L1001.6,614.1 L1002.7,613.8 L1003.8,613.5 L1005.0,613.2 L1006.1,612.9 L1007.3,612.7 L1008.4,612.4
		L1009.5,612.1 L1010.7,611.8 L1011.8,611.5 L1013.0,611.2 L1014.1,610.9 L1015.3,610.6 L1016.4,610.2 L1017.5,609.9
		L1018.7,609.6 L1019.8,609.3 L1021.0,609.0 L1022.1,608.7 L1023.2,608.3 L1024.4,608.0 L1025.5,607.7 L1026.7,607.4
		L1027.8,607.0 L1029.0,606.7 L1030.1,606.4 L1031.2,606.0 L1032.4,605.7 L1033.5,605.3 L1034.7,605.0 L1035.8,604.6
		L1036.9,604.3 L1038.1,603.9 L1039.2,603.6 L1040.4,603.2 L1041.5,602.9 L1042.7,602.5 L1043.8,602.1 L1044.9,601.8
		L1046.1,601.4 L1047.2,601.0 L1048.4,600.7 L1049.5,600.3 L1050.6,599.9 L1051.8,599.5 L1052.9,599.1 L1054.1,598.8
		L1055.2,598.4 L1056.4,598.0 L1057.5,597.6 L1058.6,597.2 L1059.8,596.8 L1060.9,596.4 L1062.1,596.0 L1063.2,595.6
		L1064.3,595.2 L1065.5,594.8 L1066.6,594.4 L1067.8,594.0 L1068.9,593.6 L1070.1,593.2 L1071.2,592.8 L1072.3,592.4
		L1073.5,591.9 L1074.6,591.5 L1075.8,591.1 L1076.9,590.7 L1078.0,590.3 L1079.2,589.8 L1080.3,589.4 L1081.5,589.0
		L1082.6,588.5 L1083.8,588.1 L1084.9,587.7 L1086.0,587.2 L1087.2,586.8 L1088.3,586.4 L1089.5,585.9 L1090.6,585.5
		L1091.7,585.0 L1092.9,584.6 L1094.0,584.2 L1095.2,583.7 L1096.3,583.3 L1097.5,582.8 L1098.6,582.4 L1099.7,581.9
		L1100.9,581.5 L1102.0,581.0 L1103.2,580.5 L1104.3,580.1 L1105.4,579.6 L1106.6,579.2 L1107.7,578.7 L1108.9,578.3
		L1110.0,577.8 L1111.2,577.3 L1112.3,576.9 L1113.4,576.4 L1114.6,576.0 L1115.7,575.5 L1116.9,575.0 L1118.0,574.6
		L1119.1,574.1 L1120.3,573.6 L1121.4,573.2 L1122.6,572.7 L1123.7,572.2 L1124.9,571.8 L1126.0,571.3 L1127.1,570.8
		L1128.3,570.4 L1129.4,569.9 L1130.6,569.4 L1131.7,569.0 L1132.8,568.5 L1134.0,568.0 L1135.1,567.6 L1136.3,567.1
		L1137.4,566.6 L1138.6,566.2 L1139.7,565.7 L1140.8,565.2 L1142.0,564.8 L1143.1,564.3 L1144.3,563.9 L1145.4,563.4
		L1146.5,562.9 L1147.7,562.5 L1148.8,562.0 L1150.0,561.6 L1151.1,561.1 L1152.3,560.7 L1153.4,560.2 L1154.5,559.8
		L1155.7,559.3 L1156.8,558.9 L1158.0,558.4 L1159.1,558.0 L1160.2,557.5 L1161.4,557.1 L1162.5,556.7 L1163.7,556.2
		L1164.8,555.8 L1166.0,555.4 L1167.1,554.9 L1168.2,554.5 L1169.4,554.1 L1170.5,553.7 L1171.7,553.3 L1172.8,552.8
		L1173.9,552.4 L1175.1,552.0 L1176.2,551.6 L1177.4,551.2 L1178.5,550.8 L1179.7,550.4 L1180.8,550.0 L1181.9,549.6
		L1183.1,549.2 L1184.2,548.9 L1185.4,548.5 L1186.5,548.1 L1187.6,547.7 L1188.8,547.4 L1189.9,547.0 L1191.1,546.7
		L1192.2,546.3 L1193.4,545.9 L1194.5,545.6 L1195.6,545.3 L1196.8,544.9 L1197.9,544.6 L1199.1,544.3 L1200.2,543.9
		L1201.3,543.6 L1202.5,543.3 L1203.6,543.0 L1204.8,542.7 L1205.9,542.4 L1207.1,542.1 L1208.2,541.8 L1209.3,541.6
		L1210.5,541.3 L1211.6,541.0 L1212.8,540.8 L1213.9,540.5 L1215.0,540.3 L1216.2,540.0 L1217.3,539.8 L1218.5,539.6
		L1219.6,539.3 L1220.8,539.1 L1221.9,538.9 L1223.0,538.7 L1224.2,538.5 L1225.3,538.3 L1226.5,538.1 L1227.6,537.9
		L1228.7,537.8 L1229.9,537.6 L1231.0,537.4 L1232.2,537.3 L1233.3,537.2 L1234.5,537.0 L1235.6,536.9 L1236.7,536.8
		L1237.9,536.6 L1239.0,536.5 L1240.2,536.4 L1241.3,536.3 L1242.4,536.3 L1243.6,536.2 L1244.7,536.1 L1245.9,536.0
		L1247.0,536.0 L1248.2,535.9 L1249.3,535.9 L1250.4,535.9 L1251.6,535.8 L1252.7,535.8 L1253.9,535.8 L1255.0,535.8
		 '/></g>
	</g>
	<g id="gnuplot_plot_6" ><title>gnuplot_plot_6</title>
<g fill="none" color="black" stroke="currentColor" stroke-width="1.00" stroke-linecap="butt" stroke-linejoin="miter">
	<path stroke='rgb(  0,   0, 255)'  d='M87.1,54.1 L88.2,55.5 L89.4,59.4 L90.5,65.5 L91.7,73.3 L92.8,82.4 L93.9,92.2 L95.1,102.4
		L96.2,112.7 L97.4,122.9 L98.5,133.0 L99.7,142.7 L100.8,152.1 L101.9,161.1 L103.1,169.7 L104.2,178.0
		L105.4,185.8 L106.5,193.3 L107.6,200.5 L108.8,207.3 L109.9,213.8 L111.1,219.9 L112.2,225.8 L113.4,231.4
		L114.5,236.7 L115.6,241.8 L116.8,246.7 L117.9,251.3 L119.1,255.7 L120.2,260.0 L121.3,264.0 L122.5,267.9
		L123.6,271.6 L124.8,275.2 L125.9,278.6 L127.1,281.9 L128.2,285.1 L129.3,288.1 L130.5,291.1 L131.6,293.9
		L132.8,296.7 L133.9,299.3 L135.0,301.9 L136.2,304.4 L137.3,306.9 L138.5,309.3 L139.6,311.6 L140.8,313.8
		L141.9,316.0 L143.0,318.2 L144.2,320.3 L145.3,322.3 L146.5,324.3 L147.6,326.3 L148.7,328.2 L149.9,330.1
		L151.0,332.0 L152.2,333.8 L153.3,335.6 L154.5,337.4 L155.6,339.2 L156.7,340.9 L157.9,342.6 L159.0,344.2
		L160.2,345.9 L161.3,347.5 L162.4,349.1 L163.6,350.7 L164.7,352.3 L165.9,353.9 L167.0,355.4 L168.2,356.9
		L169.3,358.5 L170.4,359.9 L171.6,361.4 L172.7,362.9 L173.9,364.4 L175.0,365.8 L176.1,367.2 L177.3,368.6
		L178.4,370.0 L179.6,371.4 L180.7,372.8 L181.9,374.2 L183.0,375.6 L184.1,376.9 L185.3,378.2 L186.4,379.6
		L187.6,380.9 L188.7,382.2 L189.8,383.5 L191.0,384.8 L192.1,386.1 L193.3,387.4 L194.4,388.6 L195.6,389.9
		L196.7,391.1 L197.8,392.4 L199.0,393.6 L200.1,394.8 L201.3,396.1 L202.4,397.3 L203.5,398.5 L204.7,399.7
		L205.8,400.9 L207.0,402.0 L208.1,403.2 L209.3,404.4 L210.4,405.5 L211.5,406.7 L212.7,407.8 L213.8,409.0
		L215.0,410.1 L216.1,411.2 L217.2,412.4 L218.4,413.5 L219.5,414.6 L220.7,415.7 L221.8,416.8 L223.0,417.9
		L224.1,419.0 L225.2,420.0 L226.4,421.1 L227.5,422.2 L228.7,423.2 L229.8,424.3 L230.9,425.3 L232.1,426.4
		L233.2,427.4 L234.4,428.4 L235.5,429.4 L236.7,430.5 L237.8,431.5 L238.9,432.5 L240.1,433.5 L241.2,434.5
		L242.4,435.5 L243.5,436.5 L244.6,437.4 L245.8,438.4 L246.9,439.4 L248.1,440.3 L249.2,441.3 L250.4,442.3
		L251.5,443.2 L252.6,444.2 L253.8,445.1 L254.9,446.0 L256.1,447.0 L257.2,447.9 L258.3,448.8 L259.5,449.7
		L260.6,450.6 L261.8,451.5 L262.9,452.4 L264.1,453.3 L265.2,454.2 L266.3,455.1 L267.5,456.0 L268.6,456.9
		L269.8,457.8 L270.9,458.6 L272.0,459.5 L273.2,460.4 L274.3,461.2 L275.5,462.1 L276.6,462.9 L277.8,463.8
		L278.9,464.6 L280.0,465.5 L281.2,466.3 L282.3,467.1 L283.5,467.9 L284.6,468.8 L285.7,469.6 L286.9,470.4
		L288.0,471.2 L289.2,472.0 L290.3,472.8 L291.5,473.6 L292.6,474.4 L293.7,475.2 L294.9,476.0 L296.0,476.8
		L297.2,477.5 L298.3,478.3 L299.4,479.1 L300.6,479.9 L301.7,480.6 L302.9,481.4 L304.0,482.1 L305.2,482.9
		L306.3,483.7 L307.4,484.4 L308.6,485.1 L309.7,485.9 L310.9,486.6 L312.0,487.4 L313.1,488.1 L314.3,488.8
		L315.4,489.5 L316.6,490.3 L317.7,491.0 L318.9,491.7 L320.0,492.4 L321.1,493.1 L322.3,493.8 L323.4,494.5
		L324.6,495.2 L325.7,495.9 L326.8,496.6 L328.0,497.3 L329.1,498.0 L330.3,498.7 L331.4,499.4 L332.6,500.0
		L333.7,500.7 L334.8,501.4 L336.0,502.0 L337.1,502.7 L338.3,503.4 L339.4,504.0 L340.5,504.7 L341.7,505.3
		L342.8,506.0 L344.0,506.6 L345.1,507.3 L346.3,507.9 L347.4,508.6 L348.5,509.2 L349.7,509.9 L350.8,510.5
		L352.0,511.1 L353.1,511.7 L354.2,512.4 L355.4,513.0 L356.5,513.6 L357.7,514.2 L358.8,514.8 L360.0,515.5
		L361.1,516.1 L362.2,516.7 L363.4,517.3 L364.5,517.9 L365.7,518.5 L366.8,519.1 L367.9,519.7 L369.1,520.3
		L370.2,520.9 L371.4,521.4 L372.5,522.0 L373.7,522.6 L374.8,523.2 L375.9,523.8 L377.1,524.3 L378.2,524.9
		L379.4,525.5 L380.5,526.1 L381.6,526.6 L382.8,527.2 L383.9,527.8 L385.1,528.3 L386.2,528.9 L387.4,529.4
		L388.5,530.0 L389.6,530.5 L390.8,531.1 L391.9,531.6 L393.1,532.2 L394.2,532.7 L395.3,533.3 L396.5,533.8
		L397.6,534.3 L398.8,534.9 L399.9,535.4 L401.1,535.9 L402.2,536.4 L403.3,537.0 L404.5,537.5 L405.6,538.0
		L406.8,538.5 L407.9,539.1 L409.0,539.6 L410.2,540.1 L411.3,540.6 L412.5,541.1 L413.6,541.6 L414.8,542.1
		L415.9,542.6 L417.0,543.1 L418.2,543.6 L419.3,544.1 L420.5,544.6 L421.6,545.1 L422.7,545.6 L423.9,546.1
		L425.0,546.6 L426.2,547.1 L427.3,547.6 L428.5,548.0 L429.6,548.5 L430.7,549.0 L431.9,549.5 L433.0,550.0
		L434.2,550.4 L435.3,550.9 L436.4,551.4 L437.6,551.8 L438.7,552.3 L439.9,552.8 L441.0,553.2 L442.2,553.7
		L443.3,554.2 L444.4,554.6 L445.6,555.1 L446.7,555.5 L447.9,556.0 L449.0,556.4 L450.1,556.9 L451.3,557.3
		L452.4,557.8 L453.6,558.2 L454.7,558.7 L455.9,559.1 L457.0,559.5 L458.1,560.0 L459.3,560.4 L460.4,560.9
		L461.6,561.3 L462.7,561.7 L463.8,562.2 L465.0,562.6 L466.1,563.0 L467.3,563.4 L468.4,563.9 L469.6,564.3
		L470.7,564.7 L471.8,565.1 L473.0,565.5 L474.1,566.0 L475.3,566.4 L476.4,566.8 L477.5,567.2 L478.7,567.6
		L479.8,568.0 L481.0,568.4 L482.1,568.8 L483.2,569.2 L484.4,569.6 L485.5,570.0 L486.7,570.4 L487.8,570.8
		L489.0,571.2 L490.1,571.6 L491.2,572.0 L492.4,572.4 L493.5,572.8 L494.7,573.2 L495.8,573.6 L496.9,574.0
		L498.1,574.3 L499.2,574.7 L500.4,575.1 L501.5,575.5 L502.7,575.9 L503.8,576.2 L504.9,576.6 L506.1,577.0
		L507.2,577.4 L508.4,577.7 L509.5,578.1 L510.6,578.5 L511.8,578.9 L512.9,579.2 L514.1,579.6 L515.2,580.0
		L516.4,580.3 L517.5,580.7 L518.6,581.0 L519.8,581.4 L520.9,581.8 L522.1,582.1 L523.2,582.5 L524.3,582.8
		L525.5,583.2 L526.6,583.5 L527.8,583.9 L528.9,584.2 L530.1,584.6 L531.2,584.9 L532.3,585.3 L533.5,585.6
		L534.6,585.9 L535.8,586.3 L536.9,586.6 L538.0,587.0 L539.2,587.3 L540.3,587.6 L541.5,588.0 L542.6,588.3
		L543.8,588.6 L544.9,589.0 L546.0,589.3 L547.2,589.6 L548.3,589.9 L549.5,590.3 L550.6,590.6 L551.7,590.9
		L552.9,591.2 L554.0,591.6 L555.2,591.9 L556.3,592.2 L557.5,592.5 L558.6,592.8 L559.7,593.1 L560.9,593.5
		L562.0,593.8 L563.2,594.1 L564.3,594.4 L565.4,594.7 L566.6,595.0 L567.7,595.3 L568.9,595.6 L570.0,595.9
		L571.2,596.2 L572.3,596.5 L573.4,596.8 L574.6,597.1 L575.7,597.4 L576.9,597.7 L578.0,598.0 L579.1,598.3
		L580.3,598.6 L581.4,598.9 L582.6,599.2 L583.7,599.5 L584.9,599.8 L586.0,600.0 L587.1,600.3 L588.3,600.6
		L589.4,600.9 L590.6,601.2 L591.7,601.5 L592.8,601.7 L594.0,602.0 L595.1,602.3 L596.3,602.6 L597.4,602.8
		L598.6,603.1 L599.7,603.4 L600.8,603.7 L602.0,603.9 L603.1,604.2 L604.3,604.5 L605.4,604.7 L606.5,605.0
		L607.7,605.3 L608.8,605.5 L610.0,605.8 L611.1,606.1 L612.3,606.3 L613.4,606.6 L614.5,606.8 L615.7,607.1
		L616.8,607.3 L618.0,607.6 L619.1,607.9 L620.2,608.1 L621.4,608.4 L622.5,608.6 L623.7,608.9 L624.8,609.1
		L626.0,609.4 L627.1,609.6 L628.2,609.8 L629.4,610.1 L630.5,610.3 L631.7,610.6 L632.8,610.8 L633.9,611.1
		L635.1,611.3 L636.2,611.5 L637.4,611.8 L638.5,612.0 L639.7,612.2 L640.8,612.5 L641.9,612.7 L643.1,612.9
		L644.2,613.2 L645.4,613.4 L646.5,613.6 L647.6,613.8 L648.8,614.1 L649.9,614.3 L651.1,614.5 L652.2,614.7
		L653.4,614.9 L654.5,615.2 L655.6,615.4 L656.8,615.6 L657.9,615.8 L659.1,616.0 L660.2,616.2 L661.3,616.5
		L662.5,616.7 L663.6,616.9 L664.8,617.1 L665.9,617.3 L667.1,617.5 L668.2,617.7 L669.3,617.9 L670.5,618.1
		L671.6,618.3 L672.8,618.5 L673.9,618.7 L675.0,618.9 L676.2,619.1 L677.3,619.3 L678.5,619.5 L679.6,619.7
		L680.8,619.9 L681.9,620.1 L683.0,620.3 L684.2,620.5 L685.3,620.7 L686.5,620.8 L687.6,621.0 L688.7,621.2
		L689.9,621.4 L691.0,621.6 L692.2,621.8 L693.3,621.9 L694.5,622.1 L695.6,622.3 L696.7,622.5 L697.9,622.7
		L699.0,622.8 L700.2,623.0 L701.3,623.2 L702.4,623.4 L703.6,623.5 L704.7,623.7 L705.9,623.9 L707.0,624.0
		L708.2,624.2 L709.3,624.4 L710.4,624.5 L711.6,624.7 L712.7,624.8 L713.9,625.0 L715.0,625.2 L716.1,625.3
		L717.3,625.5 L718.4,625.6 L719.6,625.8 L720.7,625.9 L721.9,626.1 L723.0,626.2 L724.1,626.4 L725.3,626.5
		L726.4,626.7 L727.6,626.8 L728.7,627.0 L729.8,627.1 L731.0,627.3 L732.1,627.4 L733.3,627.5 L734.4,627.7
		L735.6,627.8 L736.7,628.0 L737.8,628.1 L739.0,628.2 L740.1,628.4 L741.3,628.5 L742.4,628.6 L743.5,628.8
		L744.7,628.9 L745.8,629.0 L747.0,629.1 L748.1,629.3 L749.3,629.4 L750.4,629.5 L751.5,629.6 L752.7,629.7
		L753.8,629.9 L755.0,630.0 L756.1,630.1 L757.2,630.2 L758.4,630.3 L759.5,630.4 L760.7,630.5 L761.8,630.6
		L763.0,630.8 L764.1,630.9 L765.2,631.0 L766.4,631.1 L767.5,631.2 L768.7,631.3 L769.8,631.4 L770.9,631.5
		L772.1,631.6 L773.2,631.7 L774.4,631.8 L775.5,631.9 L776.7,632.0 L777.8,632.0 L778.9,632.1 L780.1,632.2
		L781.2,632.3 L782.4,632.4 L783.5,632.5 L784.6,632.6 L785.8,632.6 L786.9,632.7 L788.1,632.8 L789.2,632.9
		L790.4,633.0 L791.5,633.0 L792.6,633.1 L793.8,633.2 L794.9,633.2 L796.1,633.3 L797.2,633.4 L798.3,633.4
		L799.5,633.5 L800.6,633.6 L801.8,633.6 L802.9,633.7 L804.1,633.8 L805.2,633.8 L806.3,633.9 L807.5,633.9
		L808.6,634.0 L809.8,634.0 L810.9,634.1 L812.0,634.1 L813.2,634.2 L814.3,634.2 L815.5,634.3 L816.6,634.3
		L817.8,634.4 L818.9,634.4 L820.0,634.4 L821.2,634.5 L822.3,634.5 L823.5,634.5 L824.6,634.6 L825.7,634.6
		L826.9,634.6 L828.0,634.7 L829.2,634.7 L830.3,634.7 L831.5,634.7 L832.6,634.8 L833.7,634.8 L834.9,634.8
		L836.0,634.8 L837.2,634.8 L838.3,634.9 L839.4,634.9 L840.6,634.9 L841.7,634.9 L842.9,634.9 L844.0,634.9
		L845.2,634.9 L846.3,634.9 L847.4,634.9 L848.6,634.9 L849.7,634.9 L850.9,634.9 L852.0,634.9 L853.1,634.9
		L854.3,634.9 L855.4,634.9 L856.6,634.9 L857.7,634.8 L858.9,634.8 L860.0,634.8 L861.1,634.8 L862.3,634.8
		L863.4,634.7 L864.6,634.7 L865.7,634.7 L866.8,634.7 L868.0,634.6 L869.1,634.6 L870.3,634.6 L871.4,634.5
		L872.5,634.5 L873.7,634.5 L874.8,634.4 L876.0,634.4 L877.1,634.3 L878.3,634.3 L879.4,634.2 L880.5,634.2
		L881.7,634.1 L882.8,634.1 L884.0,634.0 L885.1,634.0 L886.2,633.9 L887.4,633.9 L888.5,633.8 L889.7,633.7
		L890.8,633.7 L892.0,633.6 L893.1,633.5 L894.2,633.5 L895.4,633.4 L896.5,633.3 L897.7,633.2 L898.8,633.2
		L899.9,633.1 L901.1,633.0 L902.2,632.9 L903.4,632.8 L904.5,632.7 L905.7,632.6 L906.8,632.6 L907.9,632.5
		L909.1,632.4 L910.2,632.3 L911.4,632.2 L912.5,632.1 L913.6,632.0 L914.8,631.8 L915.9,631.7 L917.1,631.6
		L918.2,631.5 L919.4,631.4 L920.5,631.3 L921.6,631.2 L922.8,631.0 L923.9,630.9 L925.1,630.8 L926.2,630.7
		L927.3,630.5 L928.5,630.4 L929.6,630.3 L930.8,630.1 L931.9,630.0 L933.1,629.9 L934.2,629.7 L935.3,629.6
		L936.5,629.4 L937.6,629.3 L938.8,629.1 L939.9,629.0 L941.0,628.8 L942.2,628.7 L943.3,628.5 L944.5,628.3
		L945.6,628.2 L946.8,628.0 L947.9,627.8 L949.0,627.7 L950.2,627.5 L951.3,627.3 L952.5,627.1 L953.6,627.0
		L954.7,626.8 L955.9,626.6 L957.0,626.4 L958.2,626.2 L959.3,626.0 L960.5,625.8 L961.6,625.6 L962.7,625.4
		L963.9,625.2 L965.0,625.0 L966.2,624.8 L967.3,624.6 L968.4,624.4 L969.6,624.2 L970.7,624.0 L971.9,623.8
		L973.0,623.6 L974.2,623.3 L975.3,623.1 L976.4,622.9 L977.6,622.7 L978.7,622.4 L979.9,622.2 L981.0,622.0
		L982.1,621.7 L983.3,621.5 L984.4,621.2 L985.6,621.0 L986.7,620.7 L987.9,620.5 L989.0,620.2 L990.1,620.0
		L991.3,619.7 L992.4,619.5 L993.6,619.2 L994.7,618.9 L995.8,618.7 L997.0,618.4 L998.1,618.1 L999.3,617.9
		L1000.4,617.6 L1001.6,617.3 L1002.7,617.0 L1003.8,616.8 L1005.0,616.5 L1006.1,616.2 L1007.3,615.9 L1008.4,615.6
		L1009.5,615.3 L1010.7,615.0 L1011.8,614.7 L1013.0,614.4 L1014.1,614.1 L1015.3,613.8 L1016.4,613.5 L1017.5,613.2
		L1018.7,612.9 L1019.8,612.6 L1021.0,612.2 L1022.1,611.9 L1023.2,611.6 L1024.4,611.3 L1025.5,610.9 L1026.7,610.6
		L1027.8,610.3 L1029.0,609.9 L1030.1,609.6 L1031.2,609.3 L1032.4,608.9 L1033.5,608.6 L1034.7,608.2 L1035.8,607.9
		L1036.9,607.5 L1038.1,607.2 L1039.2,606.8 L1040.4,606.5 L1041.5,606.1 L1042.7,605.8 L1043.8,605.4 L1044.9,605.0
		L1046.1,604.7 L1047.2,604.3 L1048.4,603.9 L1049.5,603.5 L1050.6,603.2 L1051.8,602.8 L1052.9,602.4 L1054.1,602.0
		L1055.2,601.6 L1056.4,601.3 L1057.5,600.9 L1058.6,600.5 L1059.8,600.1 L1060.9,599.7 L1062.1,599.3 L1063.2,598.9
		L1064.3,598.5 L1065.5,598.1 L1066.6,597.7 L1067.8,597.3 L1068.9,596.9 L1070.1,596.4 L1071.2,596.0 L1072.3,595.6
		L1073.5,595.2 L1074.6,594.8 L1075.8,594.4 L1076.9,593.9 L1078.0,593.5 L1079.2,593.1 L1080.3,592.7 L1081.5,592.2
		L1082.6,591.8 L1083.8,591.4 L1084.9,590.9 L1086.0,590.5 L1087.2,590.1 L1088.3,589.6 L1089.5,589.2 L1090.6,588.8
		L1091.7,588.3 L1092.9,587.9 L1094.0,587.4 L1095.2,587.0 L1096.3,586.5 L1097.5,586.1 L1098.6,585.6 L1099.7,585.2
		L1100.9,584.7 L1102.0,584.3 L1103.2,583.8 L1104.3,583.4 L1105.4,582.9 L1106.6,582.5 L1107.7,582.0 L1108.9,581.5
		L1110.0,581.1 L1111.2,580.6 L1112.3,580.2 L1113.4,579.7 L1114.6,579.2 L1115.7,578.8 L1116.9,578.3 L1118.0,577.8
		L1119.1,577.4 L1120.3,576.9 L1121.4,576.4 L1122.6,576.0 L1123.7,575.5 L1124.9,575.0 L1126.0,574.6 L1127.1,574.1
		L1128.3,573.7 L1129.4,573.2 L1130.6,572.7 L1131.7,572.3 L1132.8,571.8 L1134.0,571.3 L1135.1,570.9 L1136.3,570.4
		L1137.4,569.9 L1138.6,569.5 L1139.7,569.0 L1140.8,568.5 L1142.0,568.1 L1143.1,567.6 L1144.3,567.2 L1145.4,566.7
		L1146.5,566.2 L1147.7,565.8 L1148.8,565.3 L1150.0,564.9 L1151.1,564.4 L1152.3,564.0 L1153.4,563.5 L1154.5,563.1
		L1155.7,562.6 L1156.8,562.2 L1158.0,561.7 L1159.1,561.3 L1160.2,560.8 L1161.4,560.4 L1162.5,560.0 L1163.7,559.5
		L1164.8,559.1 L1166.0,558.7 L1167.1,558.2 L1168.2,557.8 L1169.4,557.4 L1170.5,557.0 L1171.7,556.5 L1172.8,556.1
		L1173.9,555.7 L1175.1,555.3 L1176.2,554.9 L1177.4,554.5 L1178.5,554.1 L1179.7,553.7 L1180.8,553.3 L1181.9,552.9
		L1183.1,552.5 L1184.2,552.2 L1185.4,551.8 L1186.5,551.4 L1187.6,551.0 L1188.8,550.7 L1189.9,550.3 L1191.1,549.9
		L1192.2,549.6 L1193.4,549.2 L1194.5,548.9 L1195.6,548.6 L1196.8,548.2 L1197.9,547.9 L1199.1,547.6 L1200.2,547.2
		L1201.3,546.9 L1202.5,546.6 L1203.6,546.3 L1204.8,546.0 L1205.9,545.7 L1207.1,545.4 L1208.2,545.1 L1209.3,544.9
		L1210.5,544.6 L1211.6,544.3 L1212.8,544.1 L1213.9,543.8 L1215.0,543.6 L1216.2,543.3 L1217.3,543.1 L1218.5,542.9
		L1219.6,542.6 L1220.8,542.4 L1221.9,542.2 L1223.0,542.0 L1224.2,541.8 L1225.3,541.6 L1226.5,541.4 L1227.6,541.2
		L1228.7,541.1 L1229.9,540.9 L1231.0,540.7 L1232.2,540.6 L1233.3,540.5 L1234.5,540.3 L1235.6,540.2 L1236.7,540.1
		L1237.9,540.0 L1239.0,539.8 L1240.2,539.7 L1241.3,539.6 L1242.4,539.6 L1243.6,539.5 L1244.7,539.4 L1245.9,539.4
		L1247.0,539.3 L1248.2,539.2 L1249.3,539.2 L1250.4,539.2 L1251.6,539.1 L1252.7,539.1 L1253.9,539.1 L1255.0,539.1
		 '/></g>
	</g>
<g fill="none" color="white" stroke="rgb(  0,   0, 255)" stroke-width="2.00" stroke-linecap="butt" stroke-linejoin="miter">
</g>
<g fill="none" color="black" stroke="currentColor" stroke-width="2.00" stroke-linecap="butt" stroke-linejoin="miter">
</g>
<g fill="none" color="black" stroke="black" stroke-width="1.00" stroke-linecap="butt" stroke-linejoin="miter">
</g>
<g fill="none" color="black" stroke="currentColor" stroke-width="1.00" stroke-linecap="butt" stroke-linejoin="miter">
	<path stroke='black'  d='M87.1,54.1 L87.1,684.0 L1255.0,684.0 L1255.0,54.1 L87.1,54.1 Z  '/></g>
<g fill="none" color="black" stroke="currentColor" stroke-width="1.00" stroke-linecap="butt" stroke-linejoin="miter">
</g>
</g>
</svg>

