<?xml version="1.0" encoding="utf-8"  standalone="no"?>
<svg 
 width="1280" height="720"
 viewBox="0 0 1280 720"
 xmlns="http://www.w3.org/2000/svg"
 xmlns:xlink="http://www.w3.org/1999/xlink"
>

<title>Gnuplot</title>
<desc>Produced by GNUPLOT 5.0 patchlevel 6 </desc>

<g id="gnuplot_canvas">

<rect x="0" y="0" width="1280" height="720" fill="none"/>
<defs>

	<circle id='gpDot' r='0.5' stroke-width='0.5'/>
	<path id='gpPt0' stroke-width='0.222' stroke='currentColor' d='M-1,0 h2 M0,-1 v2'/>
	<path id='gpPt1' stroke-width='0.222' stroke='currentColor' d='M-1,-1 L1,1 M1,-1 L-1,1'/>
	<path id='gpPt2' stroke-width='0.222' stroke='currentColor' d='M-1,0 L1,0 M0,-1 L0,1 M-1,-1 L1,1 M-1,1 L1,-1'/>
	<rect id='gpPt3' stroke-width='0.222' stroke='currentColor' x='-1' y='-1' width='2' height='2'/>
	<rect id='gpPt4' stroke-width='0.222' stroke='currentColor' fill='currentColor' x='-1' y='-1' width='2' height='2'/>
	<circle id='gpPt5' stroke-width='0.222' stroke='currentColor' cx='0' cy='0' r='1'/>
	<use xlink:href='#gpPt5' id='gpPt6' fill='currentColor' stroke='none'/>
	<path id='gpPt7' stroke-width='0.222' stroke='currentColor' d='M0,-1.33 L-1.33,0.67 L1.33,0.67 z'/>
	<use xlink:href='#gpPt7' id='gpPt8' fill='currentColor' stroke='none'/>
	<use xlink:href='#gpPt7' id='gpPt9' stroke='currentColor' transform='rotate(180)'/>
	<use xlink:href='#gpPt9' id='gpPt10' fill='currentColor' stroke='none'/>
	<use xlink:href='#gpPt3' id='gpPt11' stroke='currentColor' transform='rotate(45)'/>
	<use xlink:href='#gpPt11' id='gpPt12' fill='currentColor' stroke='none'/>
	<path id='gpPt13' stroke-width='0.222' stroke='currentColor' d='M0,1.330 L1.265,0.411 L0.782,-1.067 L-0.782,-1.076 L-1.265,0.411 z'/>
	<use xlink:href='#gpPt13' id='gpPt14' fill='currentColor' stroke='none'/>
	<filter id='textbox' filterUnits='objectBoundingBox' x='0' y='0' height='1' width='1'>
	  <feFlood flood-color='white' flood-opacity='1' result='bgnd'/>
	  <feComposite in='SourceGraphic' in2='bgnd' operator='atop'/>
	</filter>
	<filter id='greybox' filterUnits='objectBoundingBox' x='0' y='0' height='1' width='1'>
	  <feFlood flood-color='lightgrey' flood-opacity='1' result='grey'/>
	  <feComposite in='SourceGraphic' in2='grey' operator='atop'/>
	</filter>
</defs>
<g fill="none" color="white" stroke="currentColor" stroke-width="1.00" stroke-linecap="butt" stroke-linejoin="miter">
</g>
<g fill="none" color="black" stroke="currentColor" stroke-width="1.00" stroke-linecap="butt" stroke-linejoin="miter">
	<path stroke='black'  d='M103.7,663.6 L112.7,663.6 M1255.0,663.6 L1246.0,663.6  '/>	<g transform="translate(95.4,667.5)" stroke="none" fill="black" font-family="Arial" font-size="12.00"  text-anchor="end">
		<text><tspan font-family="Arial" > 0.0006586</tspan></text>
	</g>
</g>
<g fill="none" color="black" stroke="currentColor" stroke-width="1.00" stroke-linecap="butt" stroke-linejoin="miter">
	<path stroke='black'  d='M103.7,358.8 L112.7,358.8 M1255.0,358.8 L1246.0,358.8  '/>	<g transform="translate(95.4,362.7)" stroke="none" fill="black" font-family="Arial" font-size="12.00"  text-anchor="end">
		<text><tspan font-family="Arial" > 0.0219086</tspan></text>
	</g>
</g>
<g fill="none" color="black" stroke="currentColor" stroke-width="1.00" stroke-linecap="butt" stroke-linejoin="miter">
	<path stroke='black'  d='M103.7,54.1 L112.7,54.1 M1255.0,54.1 L1246.0,54.1  '/>	<g transform="translate(95.4,58.0)" stroke="none" fill="black" font-family="Arial" font-size="12.00"  text-anchor="end">
		<text><tspan font-family="Arial" > 0.7288</tspan></text>
	</g>
</g>
<g fill="none" color="black" stroke="currentColor" stroke-width="1.00" stroke-linecap="butt" stroke-linejoin="miter">
	<path stroke='black'  d='M103.7,684.0 L103.7,675.0 M103.7,54.1 L103.7,63.1  '/>	<g transform="translate(103.7,705.9)" stroke="none" fill="black" font-family="Arial" font-size="12.00"  text-anchor="middle">
		<text><tspan font-family="Arial" > 0</tspan></text>
	</g>
</g>
<g fill="none" color="black" stroke="currentColor" stroke-width="1.00" stroke-linecap="butt" stroke-linejoin="miter">
	<path stroke='black'  d='M679.4,684.0 L679.4,675.0 M679.4,54.1 L679.4,63.1  '/>	<g transform="translate(679.4,705.9)" stroke="none" fill="black" font-family="Arial" font-size="12.00"  text-anchor="middle">
		<text><tspan font-family="Arial" >pi/2</tspan></text>
	</g>
</g>
<g fill="none" color="black" stroke="currentColor" stroke-width="1.00" stroke-linecap="butt" stroke-linejoin="miter">
	<path stroke='black'  d='M1255.0,684.0 L1255.0,675.0 M1255.0,54.1 L1255.0,63.1  '/>	<g transform="translate(1255.0,705.9)" stroke="none" fill="black" font-family="Arial" font-size="12.00"  text-anchor="middle">
		<text><tspan font-family="Arial" >pi</tspan></text>
	</g>
</g>
<g fill="none" color="black" stroke="currentColor" stroke-width="1.00" stroke-linecap="butt" stroke-linejoin="miter">
</g>
<g fill="none" color="black" stroke="currentColor" stroke-width="1.00" stroke-linecap="butt" stroke-linejoin="miter">
	<path stroke='black'  d='M103.7,54.1 L103.7,684.0 L1255.0,684.0 L1255.0,54.1 L103.7,54.1 Z  '/></g>
<g fill="none" color="black" stroke="currentColor" stroke-width="1.00" stroke-linecap="butt" stroke-linejoin="miter">
	<g transform="translate(679.3,31.0)" stroke="none" fill="black" font-family="Arial" font-size="12.00"  text-anchor="middle">
		<text><tspan font-family="Arial" >Material 40, with 1 components</tspan></text>
	</g>
</g>
	<g id="gnuplot_plot_1" ><title>scattering function</title>
<g fill="none" color="black" stroke="currentColor" stroke-width="1.00" stroke-linecap="butt" stroke-linejoin="miter">
	<g transform="translate(1187.9,76.0)" stroke="none" fill="black" font-family="Arial" font-size="12.00"  text-anchor="end">
		<text><tspan font-family="Arial" >scattering function</tspan></text>
	</g>
</g>
<g fill="none" color="black" stroke="currentColor" stroke-width="1.00" stroke-linecap="butt" stroke-linejoin="miter">
	<use xlink:href='#gpPt5' transform='translate(103.7,102.7) scale(2.25)' color='rgb(255,   0,   0)'/>
	<use xlink:href='#gpPt5' transform='translate(104.3,103.4) scale(2.25)' color='rgb(255,   0,   0)'/>
	<use xlink:href='#gpPt5' transform='translate(105.0,105.6) scale(2.25)' color='rgb(255,   0,   0)'/>
	<use xlink:href='#gpPt5' transform='translate(105.6,109.1) scale(2.25)' color='rgb(255,   0,   0)'/>
	<use xlink:href='#gpPt5' transform='translate(106.3,113.7) scale(2.25)' color='rgb(255,   0,   0)'/>
	<use xlink:href='#gpPt5' transform='translate(106.9,119.3) scale(2.25)' color='rgb(255,   0,   0)'/>
	<use xlink:href='#gpPt5' transform='translate(107.5,125.6) scale(2.25)' color='rgb(255,   0,   0)'/>
	<use xlink:href='#gpPt5' transform='translate(108.2,132.4) scale(2.25)' color='rgb(255,   0,   0)'/>
	<use xlink:href='#gpPt5' transform='translate(108.8,139.4) scale(2.25)' color='rgb(255,   0,   0)'/>
	<use xlink:href='#gpPt5' transform='translate(109.5,146.3) scale(2.25)' color='rgb(255,   0,   0)'/>
	<use xlink:href='#gpPt5' transform='translate(110.1,153.0) scale(2.25)' color='rgb(255,   0,   0)'/>
	<use xlink:href='#gpPt5' transform='translate(110.7,159.2) scale(2.25)' color='rgb(255,   0,   0)'/>
	<use xlink:href='#gpPt5' transform='translate(111.4,165.1) scale(2.25)' color='rgb(255,   0,   0)'/>
	<use xlink:href='#gpPt5' transform='translate(112.0,170.5) scale(2.25)' color='rgb(255,   0,   0)'/>
	<use xlink:href='#gpPt5' transform='translate(112.7,175.5) scale(2.25)' color='rgb(255,   0,   0)'/>
	<use xlink:href='#gpPt5' transform='translate(113.3,180.2) scale(2.25)' color='rgb(255,   0,   0)'/>
	<use xlink:href='#gpPt5' transform='translate(113.9,184.6) scale(2.25)' color='rgb(255,   0,   0)'/>
	<use xlink:href='#gpPt5' transform='translate(114.6,188.8) scale(2.25)' color='rgb(255,   0,   0)'/>
	<use xlink:href='#gpPt5' transform='translate(115.2,192.7) scale(2.25)' color='rgb(255,   0,   0)'/>
	<use xlink:href='#gpPt5' transform='translate(115.9,196.4) scale(2.25)' color='rgb(255,   0,   0)'/>
	<use xlink:href='#gpPt5' transform='translate(116.5,199.9) scale(2.25)' color='rgb(255,   0,   0)'/>
	<use xlink:href='#gpPt5' transform='translate(122.9,225.3) scale(2.25)' color='rgb(255,   0,   0)'/>
	<use xlink:href='#gpPt5' transform='translate(129.3,240.2) scale(2.25)' color='rgb(255,   0,   0)'/>
	<use xlink:href='#gpPt5' transform='translate(135.7,249.9) scale(2.25)' color='rgb(255,   0,   0)'/>
	<use xlink:href='#gpPt5' transform='translate(142.1,257.1) scale(2.25)' color='rgb(255,   0,   0)'/>
	<use xlink:href='#gpPt5' transform='translate(154.9,268.0) scale(2.25)' color='rgb(255,   0,   0)'/>
	<use xlink:href='#gpPt5' transform='translate(167.7,277.4) scale(2.25)' color='rgb(255,   0,   0)'/>
	<use xlink:href='#gpPt5' transform='translate(180.5,286.3) scale(2.25)' color='rgb(255,   0,   0)'/>
	<use xlink:href='#gpPt5' transform='translate(193.2,295.3) scale(2.25)' color='rgb(255,   0,   0)'/>
	<use xlink:href='#gpPt5' transform='translate(206.0,304.5) scale(2.25)' color='rgb(255,   0,   0)'/>
	<use xlink:href='#gpPt5' transform='translate(218.8,313.8) scale(2.25)' color='rgb(255,   0,   0)'/>
	<use xlink:href='#gpPt5' transform='translate(231.6,323.3) scale(2.25)' color='rgb(255,   0,   0)'/>
	<use xlink:href='#gpPt5' transform='translate(244.4,332.9) scale(2.25)' color='rgb(255,   0,   0)'/>
	<use xlink:href='#gpPt5' transform='translate(257.2,342.7) scale(2.25)' color='rgb(255,   0,   0)'/>
	<use xlink:href='#gpPt5' transform='translate(270.0,352.5) scale(2.25)' color='rgb(255,   0,   0)'/>
	<use xlink:href='#gpPt5' transform='translate(282.8,362.3) scale(2.25)' color='rgb(255,   0,   0)'/>
	<use xlink:href='#gpPt5' transform='translate(295.6,372.2) scale(2.25)' color='rgb(255,   0,   0)'/>
	<use xlink:href='#gpPt5' transform='translate(308.4,382.1) scale(2.25)' color='rgb(255,   0,   0)'/>
	<use xlink:href='#gpPt5' transform='translate(321.2,391.9) scale(2.25)' color='rgb(255,   0,   0)'/>
	<use xlink:href='#gpPt5' transform='translate(334.0,401.7) scale(2.25)' color='rgb(255,   0,   0)'/>
	<use xlink:href='#gpPt5' transform='translate(346.8,411.6) scale(2.25)' color='rgb(255,   0,   0)'/>
	<use xlink:href='#gpPt5' transform='translate(359.5,421.2) scale(2.25)' color='rgb(255,   0,   0)'/>
	<use xlink:href='#gpPt5' transform='translate(372.3,430.8) scale(2.25)' color='rgb(255,   0,   0)'/>
	<use xlink:href='#gpPt5' transform='translate(385.1,440.3) scale(2.25)' color='rgb(255,   0,   0)'/>
	<use xlink:href='#gpPt5' transform='translate(397.9,449.7) scale(2.25)' color='rgb(255,   0,   0)'/>
	<use xlink:href='#gpPt5' transform='translate(410.7,459.1) scale(2.25)' color='rgb(255,   0,   0)'/>
	<use xlink:href='#gpPt5' transform='translate(423.5,468.3) scale(2.25)' color='rgb(255,   0,   0)'/>
	<use xlink:href='#gpPt5' transform='translate(436.3,477.4) scale(2.25)' color='rgb(255,   0,   0)'/>
	<use xlink:href='#gpPt5' transform='translate(449.1,486.3) scale(2.25)' color='rgb(255,   0,   0)'/>
	<use xlink:href='#gpPt5' transform='translate(461.9,495.1) scale(2.25)' color='rgb(255,   0,   0)'/>
	<use xlink:href='#gpPt5' transform='translate(474.7,503.8) scale(2.25)' color='rgb(255,   0,   0)'/>
	<use xlink:href='#gpPt5' transform='translate(487.5,512.3) scale(2.25)' color='rgb(255,   0,   0)'/>
	<use xlink:href='#gpPt5' transform='translate(500.3,520.6) scale(2.25)' color='rgb(255,   0,   0)'/>
	<use xlink:href='#gpPt5' transform='translate(513.1,528.8) scale(2.25)' color='rgb(255,   0,   0)'/>
	<use xlink:href='#gpPt5' transform='translate(525.8,536.8) scale(2.25)' color='rgb(255,   0,   0)'/>
	<use xlink:href='#gpPt5' transform='translate(538.6,544.7) scale(2.25)' color='rgb(255,   0,   0)'/>
	<use xlink:href='#gpPt5' transform='translate(551.4,552.4) scale(2.25)' color='rgb(255,   0,   0)'/>
	<use xlink:href='#gpPt5' transform='translate(564.2,559.9) scale(2.25)' color='rgb(255,   0,   0)'/>
	<use xlink:href='#gpPt5' transform='translate(577.0,567.2) scale(2.25)' color='rgb(255,   0,   0)'/>
	<use xlink:href='#gpPt5' transform='translate(589.8,574.2) scale(2.25)' color='rgb(255,   0,   0)'/>
	<use xlink:href='#gpPt5' transform='translate(602.6,581.1) scale(2.25)' color='rgb(255,   0,   0)'/>
	<use xlink:href='#gpPt5' transform='translate(615.4,587.8) scale(2.25)' color='rgb(255,   0,   0)'/>
	<use xlink:href='#gpPt5' transform='translate(628.2,594.2) scale(2.25)' color='rgb(255,   0,   0)'/>
	<use xlink:href='#gpPt5' transform='translate(641.0,600.4) scale(2.25)' color='rgb(255,   0,   0)'/>
	<use xlink:href='#gpPt5' transform='translate(653.8,606.3) scale(2.25)' color='rgb(255,   0,   0)'/>
	<use xlink:href='#gpPt5' transform='translate(666.6,612.0) scale(2.25)' color='rgb(255,   0,   0)'/>
	<use xlink:href='#gpPt5' transform='translate(679.4,617.4) scale(2.25)' color='rgb(255,   0,   0)'/>
	<use xlink:href='#gpPt5' transform='translate(692.1,622.5) scale(2.25)' color='rgb(255,   0,   0)'/>
	<use xlink:href='#gpPt5' transform='translate(704.9,627.4) scale(2.25)' color='rgb(255,   0,   0)'/>
	<use xlink:href='#gpPt5' transform='translate(717.7,632.0) scale(2.25)' color='rgb(255,   0,   0)'/>
	<use xlink:href='#gpPt5' transform='translate(730.5,636.3) scale(2.25)' color='rgb(255,   0,   0)'/>
	<use xlink:href='#gpPt5' transform='translate(743.3,640.2) scale(2.25)' color='rgb(255,   0,   0)'/>
	<use xlink:href='#gpPt5' transform='translate(756.1,643.9) scale(2.25)' color='rgb(255,   0,   0)'/>
	<use xlink:href='#gpPt5' transform='translate(768.9,647.3) scale(2.25)' color='rgb(255,   0,   0)'/>
	<use xlink:href='#gpPt5' transform='translate(781.7,650.3) scale(2.25)' color='rgb(255,   0,   0)'/>
	<use xlink:href='#gpPt5' transform='translate(794.5,653.1) scale(2.25)' color='rgb(255,   0,   0)'/>
	<use xlink:href='#gpPt5' transform='translate(807.3,655.5) scale(2.25)' color='rgb(255,   0,   0)'/>
	<use xlink:href='#gpPt5' transform='translate(820.1,657.6) scale(2.25)' color='rgb(255,   0,   0)'/>
	<use xlink:href='#gpPt5' transform='translate(832.9,659.3) scale(2.25)' color='rgb(255,   0,   0)'/>
	<use xlink:href='#gpPt5' transform='translate(845.6,660.8) scale(2.25)' color='rgb(255,   0,   0)'/>
	<use xlink:href='#gpPt5' transform='translate(858.4,661.9) scale(2.25)' color='rgb(255,   0,   0)'/>
	<use xlink:href='#gpPt5' transform='translate(871.2,662.8) scale(2.25)' color='rgb(255,   0,   0)'/>
	<use xlink:href='#gpPt5' transform='translate(884.0,663.4) scale(2.25)' color='rgb(255,   0,   0)'/>
	<use xlink:href='#gpPt5' transform='translate(896.8,663.6) scale(2.25)' color='rgb(255,   0,   0)'/>
	<use xlink:href='#gpPt5' transform='translate(909.6,663.6) scale(2.25)' color='rgb(255,   0,   0)'/>
	<use xlink:href='#gpPt5' transform='translate(922.4,663.3) scale(2.25)' color='rgb(255,   0,   0)'/>
	<use xlink:href='#gpPt5' transform='translate(935.2,662.7) scale(2.25)' color='rgb(255,   0,   0)'/>
	<use xlink:href='#gpPt5' transform='translate(948.0,661.9) scale(2.25)' color='rgb(255,   0,   0)'/>
	<use xlink:href='#gpPt5' transform='translate(960.8,660.8) scale(2.25)' color='rgb(255,   0,   0)'/>
	<use xlink:href='#gpPt5' transform='translate(973.6,659.5) scale(2.25)' color='rgb(255,   0,   0)'/>
	<use xlink:href='#gpPt5' transform='translate(986.4,658.0) scale(2.25)' color='rgb(255,   0,   0)'/>
	<use xlink:href='#gpPt5' transform='translate(999.2,656.2) scale(2.25)' color='rgb(255,   0,   0)'/>
	<use xlink:href='#gpPt5' transform='translate(1011.9,654.3) scale(2.25)' color='rgb(255,   0,   0)'/>
	<use xlink:href='#gpPt5' transform='translate(1024.7,652.2) scale(2.25)' color='rgb(255,   0,   0)'/>
	<use xlink:href='#gpPt5' transform='translate(1037.5,650.0) scale(2.25)' color='rgb(255,   0,   0)'/>
	<use xlink:href='#gpPt5' transform='translate(1050.3,647.7) scale(2.25)' color='rgb(255,   0,   0)'/>
	<use xlink:href='#gpPt5' transform='translate(1063.1,645.2) scale(2.25)' color='rgb(255,   0,   0)'/>
	<use xlink:href='#gpPt5' transform='translate(1075.9,642.7) scale(2.25)' color='rgb(255,   0,   0)'/>
	<use xlink:href='#gpPt5' transform='translate(1088.7,640.2) scale(2.25)' color='rgb(255,   0,   0)'/>
	<use xlink:href='#gpPt5' transform='translate(1101.5,637.7) scale(2.25)' color='rgb(255,   0,   0)'/>
	<use xlink:href='#gpPt5' transform='translate(1114.3,635.3) scale(2.25)' color='rgb(255,   0,   0)'/>
	<use xlink:href='#gpPt5' transform='translate(1127.1,633.4) scale(2.25)' color='rgb(255,   0,   0)'/>
	<use xlink:href='#gpPt5' transform='translate(1139.9,632.0) scale(2.25)' color='rgb(255,   0,   0)'/>
	<use xlink:href='#gpPt5' transform='translate(1152.7,631.0) scale(2.25)' color='rgb(255,   0,   0)'/>
	<use xlink:href='#gpPt5' transform='translate(1165.5,630.3) scale(2.25)' color='rgb(255,   0,   0)'/>
	<use xlink:href='#gpPt5' transform='translate(1178.2,630.0) scale(2.25)' color='rgb(255,   0,   0)'/>
	<use xlink:href='#gpPt5' transform='translate(1191.0,629.6) scale(2.25)' color='rgb(255,   0,   0)'/>
	<use xlink:href='#gpPt5' transform='translate(1203.8,628.7) scale(2.25)' color='rgb(255,   0,   0)'/>
	<use xlink:href='#gpPt5' transform='translate(1216.6,627.1) scale(2.25)' color='rgb(255,   0,   0)'/>
	<use xlink:href='#gpPt5' transform='translate(1229.4,625.0) scale(2.25)' color='rgb(255,   0,   0)'/>
	<use xlink:href='#gpPt5' transform='translate(1242.2,623.5) scale(2.25)' color='rgb(255,   0,   0)'/>
	<use xlink:href='#gpPt5' transform='translate(1255.0,622.4) scale(2.25)' color='rgb(255,   0,   0)'/>
	<use xlink:href='#gpPt5' transform='translate(1217.3,72.1) scale(2.25)' color='rgb(255,   0,   0)'/>
</g>
	</g>
	<g id="gnuplot_plot_2" ><title>gnuplot_plot_2</title>
<g fill="none" color="black" stroke="currentColor" stroke-width="1.00" stroke-linecap="butt" stroke-linejoin="miter">
	<use xlink:href='#gpPt5' transform='translate(103.7,88.0) scale(2.25)' color='rgb(  0, 100,   0)'/>
	<use xlink:href='#gpPt5' transform='translate(104.3,88.8) scale(2.25)' color='rgb(  0, 100,   0)'/>
	<use xlink:href='#gpPt5' transform='translate(105.0,91.3) scale(2.25)' color='rgb(  0, 100,   0)'/>
	<use xlink:href='#gpPt5' transform='translate(105.6,95.4) scale(2.25)' color='rgb(  0, 100,   0)'/>
	<use xlink:href='#gpPt5' transform='translate(106.3,100.8) scale(2.25)' color='rgb(  0, 100,   0)'/>
	<use xlink:href='#gpPt5' transform='translate(106.9,107.3) scale(2.25)' color='rgb(  0, 100,   0)'/>
	<use xlink:href='#gpPt5' transform='translate(107.5,114.4) scale(2.25)' color='rgb(  0, 100,   0)'/>
	<use xlink:href='#gpPt5' transform='translate(108.2,122.0) scale(2.25)' color='rgb(  0, 100,   0)'/>
	<use xlink:href='#gpPt5' transform='translate(108.8,129.6) scale(2.25)' color='rgb(  0, 100,   0)'/>
	<use xlink:href='#gpPt5' transform='translate(109.5,136.9) scale(2.25)' color='rgb(  0, 100,   0)'/>
	<use xlink:href='#gpPt5' transform='translate(110.1,143.8) scale(2.25)' color='rgb(  0, 100,   0)'/>
	<use xlink:href='#gpPt5' transform='translate(110.7,150.1) scale(2.25)' color='rgb(  0, 100,   0)'/>
	<use xlink:href='#gpPt5' transform='translate(111.4,156.0) scale(2.25)' color='rgb(  0, 100,   0)'/>
	<use xlink:href='#gpPt5' transform='translate(112.0,161.4) scale(2.25)' color='rgb(  0, 100,   0)'/>
	<use xlink:href='#gpPt5' transform='translate(112.7,166.5) scale(2.25)' color='rgb(  0, 100,   0)'/>
	<use xlink:href='#gpPt5' transform='translate(113.3,171.1) scale(2.25)' color='rgb(  0, 100,   0)'/>
	<use xlink:href='#gpPt5' transform='translate(113.9,175.6) scale(2.25)' color='rgb(  0, 100,   0)'/>
	<use xlink:href='#gpPt5' transform='translate(114.6,179.7) scale(2.25)' color='rgb(  0, 100,   0)'/>
	<use xlink:href='#gpPt5' transform='translate(115.2,183.6) scale(2.25)' color='rgb(  0, 100,   0)'/>
	<use xlink:href='#gpPt5' transform='translate(115.9,187.2) scale(2.25)' color='rgb(  0, 100,   0)'/>
	<use xlink:href='#gpPt5' transform='translate(116.5,190.6) scale(2.25)' color='rgb(  0, 100,   0)'/>
	<use xlink:href='#gpPt5' transform='translate(122.9,214.7) scale(2.25)' color='rgb(  0, 100,   0)'/>
	<use xlink:href='#gpPt5' transform='translate(129.3,228.5) scale(2.25)' color='rgb(  0, 100,   0)'/>
	<use xlink:href='#gpPt5' transform='translate(135.7,237.5) scale(2.25)' color='rgb(  0, 100,   0)'/>
	<use xlink:href='#gpPt5' transform='translate(142.1,244.2) scale(2.25)' color='rgb(  0, 100,   0)'/>
	<use xlink:href='#gpPt5' transform='translate(154.9,254.9) scale(2.25)' color='rgb(  0, 100,   0)'/>
	<use xlink:href='#gpPt5' transform='translate(167.7,264.3) scale(2.25)' color='rgb(  0, 100,   0)'/>
	<use xlink:href='#gpPt5' transform='translate(180.5,273.5) scale(2.25)' color='rgb(  0, 100,   0)'/>
	<use xlink:href='#gpPt5' transform='translate(193.2,282.7) scale(2.25)' color='rgb(  0, 100,   0)'/>
	<use xlink:href='#gpPt5' transform='translate(206.0,292.2) scale(2.25)' color='rgb(  0, 100,   0)'/>
	<use xlink:href='#gpPt5' transform='translate(218.8,301.7) scale(2.25)' color='rgb(  0, 100,   0)'/>
	<use xlink:href='#gpPt5' transform='translate(231.6,311.5) scale(2.25)' color='rgb(  0, 100,   0)'/>
	<use xlink:href='#gpPt5' transform='translate(244.4,321.4) scale(2.25)' color='rgb(  0, 100,   0)'/>
	<use xlink:href='#gpPt5' transform='translate(257.2,331.4) scale(2.25)' color='rgb(  0, 100,   0)'/>
	<use xlink:href='#gpPt5' transform='translate(270.0,341.4) scale(2.25)' color='rgb(  0, 100,   0)'/>
	<use xlink:href='#gpPt5' transform='translate(282.8,351.5) scale(2.25)' color='rgb(  0, 100,   0)'/>
	<use xlink:href='#gpPt5' transform='translate(295.6,361.6) scale(2.25)' color='rgb(  0, 100,   0)'/>
	<use xlink:href='#gpPt5' transform='translate(308.4,371.7) scale(2.25)' color='rgb(  0, 100,   0)'/>
	<use xlink:href='#gpPt5' transform='translate(321.2,381.8) scale(2.25)' color='rgb(  0, 100,   0)'/>
	<use xlink:href='#gpPt5' transform='translate(334.0,391.8) scale(2.25)' color='rgb(  0, 100,   0)'/>
	<use xlink:href='#gpPt5' transform='translate(346.8,401.8) scale(2.25)' color='rgb(  0, 100,   0)'/>
	<use xlink:href='#gpPt5' transform='translate(359.5,411.7) scale(2.25)' color='rgb(  0, 100,   0)'/>
	<use xlink:href='#gpPt5' transform='translate(372.3,421.5) scale(2.25)' color='rgb(  0, 100,   0)'/>
	<use xlink:href='#gpPt5' transform='translate(385.1,431.2) scale(2.25)' color='rgb(  0, 100,   0)'/>
	<use xlink:href='#gpPt5' transform='translate(397.9,440.8) scale(2.25)' color='rgb(  0, 100,   0)'/>
	<use xlink:href='#gpPt5' transform='translate(410.7,450.2) scale(2.25)' color='rgb(  0, 100,   0)'/>
	<use xlink:href='#gpPt5' transform='translate(423.5,459.5) scale(2.25)' color='rgb(  0, 100,   0)'/>
	<use xlink:href='#gpPt5' transform='translate(436.3,468.8) scale(2.25)' color='rgb(  0, 100,   0)'/>
	<use xlink:href='#gpPt5' transform='translate(449.1,477.8) scale(2.25)' color='rgb(  0, 100,   0)'/>
	<use xlink:href='#gpPt5' transform='translate(461.9,486.7) scale(2.25)' color='rgb(  0, 100,   0)'/>
	<use xlink:href='#gpPt5' transform='translate(474.7,495.5) scale(2.25)' color='rgb(  0, 100,   0)'/>
	<use xlink:href='#gpPt5' transform='translate(487.5,504.1) scale(2.25)' color='rgb(  0, 100,   0)'/>
	<use xlink:href='#gpPt5' transform='translate(500.3,512.6) scale(2.25)' color='rgb(  0, 100,   0)'/>
	<use xlink:href='#gpPt5' transform='translate(513.1,520.9) scale(2.25)' color='rgb(  0, 100,   0)'/>
	<use xlink:href='#gpPt5' transform='translate(525.8,529.0) scale(2.25)' color='rgb(  0, 100,   0)'/>
	<use xlink:href='#gpPt5' transform='translate(538.6,536.9) scale(2.25)' color='rgb(  0, 100,   0)'/>
	<use xlink:href='#gpPt5' transform='translate(551.4,544.6) scale(2.25)' color='rgb(  0, 100,   0)'/>
	<use xlink:href='#gpPt5' transform='translate(564.2,552.2) scale(2.25)' color='rgb(  0, 100,   0)'/>
	<use xlink:href='#gpPt5' transform='translate(577.0,559.5) scale(2.25)' color='rgb(  0, 100,   0)'/>
	<use xlink:href='#gpPt5' transform='translate(589.8,566.6) scale(2.25)' color='rgb(  0, 100,   0)'/>
	<use xlink:href='#gpPt5' transform='translate(602.6,573.6) scale(2.25)' color='rgb(  0, 100,   0)'/>
	<use xlink:href='#gpPt5' transform='translate(615.4,580.3) scale(2.25)' color='rgb(  0, 100,   0)'/>
	<use xlink:href='#gpPt5' transform='translate(628.2,586.7) scale(2.25)' color='rgb(  0, 100,   0)'/>
	<use xlink:href='#gpPt5' transform='translate(641.0,592.9) scale(2.25)' color='rgb(  0, 100,   0)'/>
	<use xlink:href='#gpPt5' transform='translate(653.8,598.9) scale(2.25)' color='rgb(  0, 100,   0)'/>
	<use xlink:href='#gpPt5' transform='translate(666.6,604.6) scale(2.25)' color='rgb(  0, 100,   0)'/>
	<use xlink:href='#gpPt5' transform='translate(679.4,610.0) scale(2.25)' color='rgb(  0, 100,   0)'/>
	<use xlink:href='#gpPt5' transform='translate(692.1,615.2) scale(2.25)' color='rgb(  0, 100,   0)'/>
	<use xlink:href='#gpPt5' transform='translate(704.9,620.1) scale(2.25)' color='rgb(  0, 100,   0)'/>
	<use xlink:href='#gpPt5' transform='translate(717.7,624.6) scale(2.25)' color='rgb(  0, 100,   0)'/>
	<use xlink:href='#gpPt5' transform='translate(730.5,628.9) scale(2.25)' color='rgb(  0, 100,   0)'/>
	<use xlink:href='#gpPt5' transform='translate(743.3,632.9) scale(2.25)' color='rgb(  0, 100,   0)'/>
	<use xlink:href='#gpPt5' transform='translate(756.1,636.6) scale(2.25)' color='rgb(  0, 100,   0)'/>
	<use xlink:href='#gpPt5' transform='translate(768.9,640.0) scale(2.25)' color='rgb(  0, 100,   0)'/>
	<use xlink:href='#gpPt5' transform='translate(781.7,643.0) scale(2.25)' color='rgb(  0, 100,   0)'/>
	<use xlink:href='#gpPt5' transform='translate(794.5,645.7) scale(2.25)' color='rgb(  0, 100,   0)'/>
	<use xlink:href='#gpPt5' transform='translate(807.3,648.2) scale(2.25)' color='rgb(  0, 100,   0)'/>
	<use xlink:href='#gpPt5' transform='translate(820.1,650.2) scale(2.25)' color='rgb(  0, 100,   0)'/>
	<use xlink:href='#gpPt5' transform='translate(832.9,652.0) scale(2.25)' color='rgb(  0, 100,   0)'/>
	<use xlink:href='#gpPt5' transform='translate(845.6,653.5) scale(2.25)' color='rgb(  0, 100,   0)'/>
	<use xlink:href='#gpPt5' transform='translate(858.4,654.6) scale(2.25)' color='rgb(  0, 100,   0)'/>
	<use xlink:href='#gpPt5' transform='translate(871.2,655.5) scale(2.25)' color='rgb(  0, 100,   0)'/>
	<use xlink:href='#gpPt5' transform='translate(884.0,656.0) scale(2.25)' color='rgb(  0, 100,   0)'/>
	<use xlink:href='#gpPt5' transform='translate(896.8,656.2) scale(2.25)' color='rgb(  0, 100,   0)'/>
	<use xlink:href='#gpPt5' transform='translate(909.6,656.2) scale(2.25)' color='rgb(  0, 100,   0)'/>
	<use xlink:href='#gpPt5' transform='translate(922.4,655.8) scale(2.25)' color='rgb(  0, 100,   0)'/>
	<use xlink:href='#gpPt5' transform='translate(935.2,655.2) scale(2.25)' color='rgb(  0, 100,   0)'/>
	<use xlink:href='#gpPt5' transform='translate(948.0,654.3) scale(2.25)' color='rgb(  0, 100,   0)'/>
	<use xlink:href='#gpPt5' transform='translate(960.8,653.1) scale(2.25)' color='rgb(  0, 100,   0)'/>
	<use xlink:href='#gpPt5' transform='translate(973.6,651.8) scale(2.25)' color='rgb(  0, 100,   0)'/>
	<use xlink:href='#gpPt5' transform='translate(986.4,650.2) scale(2.25)' color='rgb(  0, 100,   0)'/>
	<use xlink:href='#gpPt5' transform='translate(999.2,648.2) scale(2.25)' color='rgb(  0, 100,   0)'/>
	<use xlink:href='#gpPt5' transform='translate(1011.9,646.2) scale(2.25)' color='rgb(  0, 100,   0)'/>
	<use xlink:href='#gpPt5' transform='translate(1024.7,643.9) scale(2.25)' color='rgb(  0, 100,   0)'/>
	<use xlink:href='#gpPt5' transform='translate(1037.5,641.6) scale(2.25)' color='rgb(  0, 100,   0)'/>
	<use xlink:href='#gpPt5' transform='translate(1050.3,639.1) scale(2.25)' color='rgb(  0, 100,   0)'/>
	<use xlink:href='#gpPt5' transform='translate(1063.1,636.5) scale(2.25)' color='rgb(  0, 100,   0)'/>
	<use xlink:href='#gpPt5' transform='translate(1075.9,633.8) scale(2.25)' color='rgb(  0, 100,   0)'/>
	<use xlink:href='#gpPt5' transform='translate(1088.7,631.3) scale(2.25)' color='rgb(  0, 100,   0)'/>
	<use xlink:href='#gpPt5' transform='translate(1101.5,628.8) scale(2.25)' color='rgb(  0, 100,   0)'/>
	<use xlink:href='#gpPt5' transform='translate(1114.3,626.6) scale(2.25)' color='rgb(  0, 100,   0)'/>
	<use xlink:href='#gpPt5' transform='translate(1127.1,624.5) scale(2.25)' color='rgb(  0, 100,   0)'/>
	<use xlink:href='#gpPt5' transform='translate(1139.9,622.9) scale(2.25)' color='rgb(  0, 100,   0)'/>
	<use xlink:href='#gpPt5' transform='translate(1152.7,622.1) scale(2.25)' color='rgb(  0, 100,   0)'/>
	<use xlink:href='#gpPt5' transform='translate(1165.5,622.0) scale(2.25)' color='rgb(  0, 100,   0)'/>
	<use xlink:href='#gpPt5' transform='translate(1178.2,622.3) scale(2.25)' color='rgb(  0, 100,   0)'/>
	<use xlink:href='#gpPt5' transform='translate(1191.0,622.2) scale(2.25)' color='rgb(  0, 100,   0)'/>
	<use xlink:href='#gpPt5' transform='translate(1203.8,621.5) scale(2.25)' color='rgb(  0, 100,   0)'/>
	<use xlink:href='#gpPt5' transform='translate(1216.6,619.7) scale(2.25)' color='rgb(  0, 100,   0)'/>
	<use xlink:href='#gpPt5' transform='translate(1229.4,617.4) scale(2.25)' color='rgb(  0, 100,   0)'/>
	<use xlink:href='#gpPt5' transform='translate(1242.2,615.4) scale(2.25)' color='rgb(  0, 100,   0)'/>
	<use xlink:href='#gpPt5' transform='translate(1255.0,614.1) scale(2.25)' color='rgb(  0, 100,   0)'/>
</g>
	</g>
	<g id="gnuplot_plot_3" ><title>gnuplot_plot_3</title>
<g fill="none" color="black" stroke="currentColor" stroke-width="1.00" stroke-linecap="butt" stroke-linejoin="miter">
	<use xlink:href='#gpPt5' transform='translate(103.7,54.1) scale(2.25)' color='rgb(  0,   0, 255)'/>
	<use xlink:href='#gpPt5' transform='translate(104.3,55.3) scale(2.25)' color='rgb(  0,   0, 255)'/>
	<use xlink:href='#gpPt5' transform='translate(105.0,59.1) scale(2.25)' color='rgb(  0,   0, 255)'/>
	<use xlink:href='#gpPt5' transform='translate(105.6,65.0) scale(2.25)' color='rgb(  0,   0, 255)'/>
	<use xlink:href='#gpPt5' transform='translate(106.3,72.5) scale(2.25)' color='rgb(  0,   0, 255)'/>
	<use xlink:href='#gpPt5' transform='translate(106.9,81.3) scale(2.25)' color='rgb(  0,   0, 255)'/>
	<use xlink:href='#gpPt5' transform='translate(107.5,90.6) scale(2.25)' color='rgb(  0,   0, 255)'/>
	<use xlink:href='#gpPt5' transform='translate(108.2,99.7) scale(2.25)' color='rgb(  0,   0, 255)'/>
	<use xlink:href='#gpPt5' transform='translate(108.8,108.3) scale(2.25)' color='rgb(  0,   0, 255)'/>
	<use xlink:href='#gpPt5' transform='translate(109.5,116.2) scale(2.25)' color='rgb(  0,   0, 255)'/>
	<use xlink:href='#gpPt5' transform='translate(110.1,123.3) scale(2.25)' color='rgb(  0,   0, 255)'/>
	<use xlink:href='#gpPt5' transform='translate(110.7,129.7) scale(2.25)' color='rgb(  0,   0, 255)'/>
	<use xlink:href='#gpPt5' transform='translate(111.4,135.6) scale(2.25)' color='rgb(  0,   0, 255)'/>
	<use xlink:href='#gpPt5' transform='translate(112.0,141.0) scale(2.25)' color='rgb(  0,   0, 255)'/>
	<use xlink:href='#gpPt5' transform='translate(112.7,146.1) scale(2.25)' color='rgb(  0,   0, 255)'/>
	<use xlink:href='#gpPt5' transform='translate(113.3,150.7) scale(2.25)' color='rgb(  0,   0, 255)'/>
	<use xlink:href='#gpPt5' transform='translate(113.9,155.0) scale(2.25)' color='rgb(  0,   0, 255)'/>
	<use xlink:href='#gpPt5' transform='translate(114.6,158.8) scale(2.25)' color='rgb(  0,   0, 255)'/>
	<use xlink:href='#gpPt5' transform='translate(115.2,162.4) scale(2.25)' color='rgb(  0,   0, 255)'/>
	<use xlink:href='#gpPt5' transform='translate(115.9,165.8) scale(2.25)' color='rgb(  0,   0, 255)'/>
	<use xlink:href='#gpPt5' transform='translate(116.5,168.8) scale(2.25)' color='rgb(  0,   0, 255)'/>
	<use xlink:href='#gpPt5' transform='translate(122.9,190.0) scale(2.25)' color='rgb(  0,   0, 255)'/>
	<use xlink:href='#gpPt5' transform='translate(129.3,201.6) scale(2.25)' color='rgb(  0,   0, 255)'/>
	<use xlink:href='#gpPt5' transform='translate(135.7,209.5) scale(2.25)' color='rgb(  0,   0, 255)'/>
	<use xlink:href='#gpPt5' transform='translate(142.1,215.7) scale(2.25)' color='rgb(  0,   0, 255)'/>
	<use xlink:href='#gpPt5' transform='translate(154.9,226.1) scale(2.25)' color='rgb(  0,   0, 255)'/>
	<use xlink:href='#gpPt5' transform='translate(167.7,236.1) scale(2.25)' color='rgb(  0,   0, 255)'/>
	<use xlink:href='#gpPt5' transform='translate(180.5,245.9) scale(2.25)' color='rgb(  0,   0, 255)'/>
	<use xlink:href='#gpPt5' transform='translate(193.2,255.9) scale(2.25)' color='rgb(  0,   0, 255)'/>
	<use xlink:href='#gpPt5' transform='translate(206.0,266.0) scale(2.25)' color='rgb(  0,   0, 255)'/>
	<use xlink:href='#gpPt5' transform='translate(218.8,276.3) scale(2.25)' color='rgb(  0,   0, 255)'/>
	<use xlink:href='#gpPt5' transform='translate(231.6,286.7) scale(2.25)' color='rgb(  0,   0, 255)'/>
	<use xlink:href='#gpPt5' transform='translate(244.4,297.2) scale(2.25)' color='rgb(  0,   0, 255)'/>
	<use xlink:href='#gpPt5' transform='translate(257.2,307.7) scale(2.25)' color='rgb(  0,   0, 255)'/>
	<use xlink:href='#gpPt5' transform='translate(270.0,318.3) scale(2.25)' color='rgb(  0,   0, 255)'/>
	<use xlink:href='#gpPt5' transform='translate(282.8,328.9) scale(2.25)' color='rgb(  0,   0, 255)'/>
	<use xlink:href='#gpPt5' transform='translate(295.6,339.6) scale(2.25)' color='rgb(  0,   0, 255)'/>
	<use xlink:href='#gpPt5' transform='translate(308.4,350.1) scale(2.25)' color='rgb(  0,   0, 255)'/>
	<use xlink:href='#gpPt5' transform='translate(321.2,360.6) scale(2.25)' color='rgb(  0,   0, 255)'/>
	<use xlink:href='#gpPt5' transform='translate(334.0,371.1) scale(2.25)' color='rgb(  0,   0, 255)'/>
	<use xlink:href='#gpPt5' transform='translate(346.8,381.4) scale(2.25)' color='rgb(  0,   0, 255)'/>
	<use xlink:href='#gpPt5' transform='translate(359.5,391.7) scale(2.25)' color='rgb(  0,   0, 255)'/>
	<use xlink:href='#gpPt5' transform='translate(372.3,401.8) scale(2.25)' color='rgb(  0,   0, 255)'/>
	<use xlink:href='#gpPt5' transform='translate(385.1,411.8) scale(2.25)' color='rgb(  0,   0, 255)'/>
	<use xlink:href='#gpPt5' transform='translate(397.9,421.7) scale(2.25)' color='rgb(  0,   0, 255)'/>
	<use xlink:href='#gpPt5' transform='translate(410.7,431.5) scale(2.25)' color='rgb(  0,   0, 255)'/>
	<use xlink:href='#gpPt5' transform='translate(423.5,441.1) scale(2.25)' color='rgb(  0,   0, 255)'/>
	<use xlink:href='#gpPt5' transform='translate(436.3,450.5) scale(2.25)' color='rgb(  0,   0, 255)'/>
	<use xlink:href='#gpPt5' transform='translate(449.1,459.8) scale(2.25)' color='rgb(  0,   0, 255)'/>
	<use xlink:href='#gpPt5' transform='translate(461.9,469.0) scale(2.25)' color='rgb(  0,   0, 255)'/>
	<use xlink:href='#gpPt5' transform='translate(474.7,477.9) scale(2.25)' color='rgb(  0,   0, 255)'/>
	<use xlink:href='#gpPt5' transform='translate(487.5,486.7) scale(2.25)' color='rgb(  0,   0, 255)'/>
	<use xlink:href='#gpPt5' transform='translate(500.3,495.3) scale(2.25)' color='rgb(  0,   0, 255)'/>
	<use xlink:href='#gpPt5' transform='translate(513.1,503.8) scale(2.25)' color='rgb(  0,   0, 255)'/>
	<use xlink:href='#gpPt5' transform='translate(525.8,512.0) scale(2.25)' color='rgb(  0,   0, 255)'/>
	<use xlink:href='#gpPt5' transform='translate(538.6,520.0) scale(2.25)' color='rgb(  0,   0, 255)'/>
	<use xlink:href='#gpPt5' transform='translate(551.4,527.9) scale(2.25)' color='rgb(  0,   0, 255)'/>
	<use xlink:href='#gpPt5' transform='translate(564.2,535.5) scale(2.25)' color='rgb(  0,   0, 255)'/>
	<use xlink:href='#gpPt5' transform='translate(577.0,542.9) scale(2.25)' color='rgb(  0,   0, 255)'/>
	<use xlink:href='#gpPt5' transform='translate(589.8,550.1) scale(2.25)' color='rgb(  0,   0, 255)'/>
	<use xlink:href='#gpPt5' transform='translate(602.6,557.0) scale(2.25)' color='rgb(  0,   0, 255)'/>
	<use xlink:href='#gpPt5' transform='translate(615.4,563.8) scale(2.25)' color='rgb(  0,   0, 255)'/>
	<use xlink:href='#gpPt5' transform='translate(628.2,570.3) scale(2.25)' color='rgb(  0,   0, 255)'/>
	<use xlink:href='#gpPt5' transform='translate(641.0,576.5) scale(2.25)' color='rgb(  0,   0, 255)'/>
	<use xlink:href='#gpPt5' transform='translate(653.8,582.5) scale(2.25)' color='rgb(  0,   0, 255)'/>
	<use xlink:href='#gpPt5' transform='translate(666.6,588.2) scale(2.25)' color='rgb(  0,   0, 255)'/>
	<use xlink:href='#gpPt5' transform='translate(679.4,593.6) scale(2.25)' color='rgb(  0,   0, 255)'/>
	<use xlink:href='#gpPt5' transform='translate(692.1,598.9) scale(2.25)' color='rgb(  0,   0, 255)'/>
	<use xlink:href='#gpPt5' transform='translate(704.9,603.7) scale(2.25)' color='rgb(  0,   0, 255)'/>
	<use xlink:href='#gpPt5' transform='translate(717.7,608.4) scale(2.25)' color='rgb(  0,   0, 255)'/>
	<use xlink:href='#gpPt5' transform='translate(730.5,612.7) scale(2.25)' color='rgb(  0,   0, 255)'/>
	<use xlink:href='#gpPt5' transform='translate(743.3,616.6) scale(2.25)' color='rgb(  0,   0, 255)'/>
	<use xlink:href='#gpPt5' transform='translate(756.1,620.3) scale(2.25)' color='rgb(  0,   0, 255)'/>
	<use xlink:href='#gpPt5' transform='translate(768.9,623.7) scale(2.25)' color='rgb(  0,   0, 255)'/>
	<use xlink:href='#gpPt5' transform='translate(781.7,626.7) scale(2.25)' color='rgb(  0,   0, 255)'/>
	<use xlink:href='#gpPt5' transform='translate(794.5,629.4) scale(2.25)' color='rgb(  0,   0, 255)'/>
	<use xlink:href='#gpPt5' transform='translate(807.3,631.8) scale(2.25)' color='rgb(  0,   0, 255)'/>
	<use xlink:href='#gpPt5' transform='translate(820.1,633.9) scale(2.25)' color='rgb(  0,   0, 255)'/>
	<use xlink:href='#gpPt5' transform='translate(832.9,635.7) scale(2.25)' color='rgb(  0,   0, 255)'/>
	<use xlink:href='#gpPt5' transform='translate(845.6,637.1) scale(2.25)' color='rgb(  0,   0, 255)'/>
	<use xlink:href='#gpPt5' transform='translate(858.4,638.2) scale(2.25)' color='rgb(  0,   0, 255)'/>
	<use xlink:href='#gpPt5' transform='translate(871.2,638.9) scale(2.25)' color='rgb(  0,   0, 255)'/>
	<use xlink:href='#gpPt5' transform='translate(884.0,639.4) scale(2.25)' color='rgb(  0,   0, 255)'/>
	<use xlink:href='#gpPt5' transform='translate(896.8,639.5) scale(2.25)' color='rgb(  0,   0, 255)'/>
	<use xlink:href='#gpPt5' transform='translate(909.6,639.2) scale(2.25)' color='rgb(  0,   0, 255)'/>
	<use xlink:href='#gpPt5' transform='translate(922.4,638.7) scale(2.25)' color='rgb(  0,   0, 255)'/>
	<use xlink:href='#gpPt5' transform='translate(935.2,637.9) scale(2.25)' color='rgb(  0,   0, 255)'/>
	<use xlink:href='#gpPt5' transform='translate(948.0,636.8) scale(2.25)' color='rgb(  0,   0, 255)'/>
	<use xlink:href='#gpPt5' transform='translate(960.8,635.4) scale(2.25)' color='rgb(  0,   0, 255)'/>
	<use xlink:href='#gpPt5' transform='translate(973.6,633.7) scale(2.25)' color='rgb(  0,   0, 255)'/>
	<use xlink:href='#gpPt5' transform='translate(986.4,631.7) scale(2.25)' color='rgb(  0,   0, 255)'/>
	<use xlink:href='#gpPt5' transform='translate(999.2,629.5) scale(2.25)' color='rgb(  0,   0, 255)'/>
	<use xlink:href='#gpPt5' transform='translate(1011.9,627.0) scale(2.25)' color='rgb(  0,   0, 255)'/>
	<use xlink:href='#gpPt5' transform='translate(1024.7,624.4) scale(2.25)' color='rgb(  0,   0, 255)'/>
	<use xlink:href='#gpPt5' transform='translate(1037.5,621.5) scale(2.25)' color='rgb(  0,   0, 255)'/>
	<use xlink:href='#gpPt5' transform='translate(1050.3,618.6) scale(2.25)' color='rgb(  0,   0, 255)'/>
	<use xlink:href='#gpPt5' transform='translate(1063.1,615.6) scale(2.25)' color='rgb(  0,   0, 255)'/>
	<use xlink:href='#gpPt5' transform='translate(1075.9,612.5) scale(2.25)' color='rgb(  0,   0, 255)'/>
	<use xlink:href='#gpPt5' transform='translate(1088.7,609.6) scale(2.25)' color='rgb(  0,   0, 255)'/>
	<use xlink:href='#gpPt5' transform='translate(1101.5,606.9) scale(2.25)' color='rgb(  0,   0, 255)'/>
	<use xlink:href='#gpPt5' transform='translate(1114.3,604.5) scale(2.25)' color='rgb(  0,   0, 255)'/>
	<use xlink:href='#gpPt5' transform='translate(1127.1,602.4) scale(2.25)' color='rgb(  0,   0, 255)'/>
	<use xlink:href='#gpPt5' transform='translate(1139.9,601.0) scale(2.25)' color='rgb(  0,   0, 255)'/>
	<use xlink:href='#gpPt5' transform='translate(1152.7,600.7) scale(2.25)' color='rgb(  0,   0, 255)'/>
	<use xlink:href='#gpPt5' transform='translate(1165.5,601.2) scale(2.25)' color='rgb(  0,   0, 255)'/>
	<use xlink:href='#gpPt5' transform='translate(1178.2,602.2) scale(2.25)' color='rgb(  0,   0, 255)'/>
	<use xlink:href='#gpPt5' transform='translate(1191.0,603.3) scale(2.25)' color='rgb(  0,   0, 255)'/>
	<use xlink:href='#gpPt5' transform='translate(1203.8,603.4) scale(2.25)' color='rgb(  0,   0, 255)'/>
	<use xlink:href='#gpPt5' transform='translate(1216.6,601.9) scale(2.25)' color='rgb(  0,   0, 255)'/>
	<use xlink:href='#gpPt5' transform='translate(1229.4,598.9) scale(2.25)' color='rgb(  0,   0, 255)'/>
	<use xlink:href='#gpPt5' transform='translate(1242.2,596.0) scale(2.25)' color='rgb(  0,   0, 255)'/>
	<use xlink:href='#gpPt5' transform='translate(1255.0,594.4) scale(2.25)' color='rgb(  0,   0, 255)'/>
</g>
	</g>
	<g id="gnuplot_plot_4" ><title>fit</title>
<g fill="none" color="black" stroke="currentColor" stroke-width="1.00" stroke-linecap="butt" stroke-linejoin="miter">
	<g transform="translate(1187.9,94.0)" stroke="none" fill="black" font-family="Arial" font-size="12.00"  text-anchor="end">
		<text><tspan font-family="Arial" >fit</tspan></text>
	</g>
</g>
<g fill="none" color="black" stroke="currentColor" stroke-width="1.00" stroke-linecap="butt" stroke-linejoin="miter">
	<path stroke='rgb(255,   0,   0)'  d='M1196.2,90.1 L1238.4,90.1 M103.7,169.3 L104.8,169.3 L106.0,169.4 L107.1,169.4 L108.2,169.5 L109.3,169.7
		L110.5,169.9 L111.6,170.1 L112.7,170.3 L113.8,170.6 L115.0,170.8 L116.1,171.2 L117.2,171.5 L118.3,171.9
		L119.5,172.3 L120.6,172.8 L121.7,173.2 L122.8,173.7 L124.0,174.3 L125.1,174.8 L126.2,175.4 L127.3,176.0
		L128.5,176.6 L129.6,177.3 L130.7,178.0 L131.8,178.7 L133.0,179.4 L134.1,180.2 L135.2,181.0 L136.3,181.8
		L137.5,182.6 L138.6,183.5 L139.7,184.4 L140.8,185.3 L142.0,186.2 L143.1,187.1 L144.2,188.1 L145.3,189.1
		L146.5,190.1 L147.6,191.1 L148.7,192.1 L149.8,193.2 L151.0,194.2 L152.1,195.3 L153.2,196.4 L154.3,197.5
		L155.5,198.7 L156.6,199.8 L157.7,201.0 L158.8,202.2 L160.0,203.4 L161.1,204.6 L162.2,205.8 L163.3,207.0
		L164.5,208.2 L165.6,209.5 L166.7,210.8 L167.8,212.0 L169.0,213.3 L170.1,214.6 L171.2,215.9 L172.4,217.2
		L173.5,218.5 L174.6,219.8 L175.7,221.2 L176.9,222.5 L178.0,223.8 L179.1,225.2 L180.2,226.5 L181.4,227.9
		L182.5,229.3 L183.6,230.6 L184.7,232.0 L185.9,233.4 L187.0,234.8 L188.1,236.2 L189.2,237.6 L190.4,239.0
		L191.5,240.4 L192.6,241.8 L193.7,243.2 L194.9,244.6 L196.0,246.0 L197.1,247.4 L198.2,248.8 L199.4,250.2
		L200.5,251.6 L201.6,253.0 L202.7,254.4 L203.9,255.8 L205.0,257.2 L206.1,258.7 L207.2,260.1 L208.4,261.5
		L209.5,262.9 L210.6,264.3 L211.7,265.7 L212.9,267.1 L214.0,268.5 L215.1,269.9 L216.2,271.3 L217.4,272.8
		L218.5,274.2 L219.6,275.6 L220.7,277.0 L221.9,278.3 L223.0,279.7 L224.1,281.1 L225.2,282.5 L226.4,283.9
		L227.5,285.3 L228.6,286.7 L229.7,288.1 L230.9,289.4 L232.0,290.8 L233.1,292.2 L234.2,293.6 L235.4,294.9
		L236.5,296.3 L237.6,297.6 L238.7,299.0 L239.9,300.3 L241.0,301.7 L242.1,303.0 L243.3,304.4 L244.4,305.7
		L245.5,307.1 L246.6,308.4 L247.8,309.7 L248.9,311.0 L250.0,312.4 L251.1,313.7 L252.3,315.0 L253.4,316.3
		L254.5,317.6 L255.6,318.9 L256.8,320.2 L257.9,321.5 L259.0,322.8 L260.1,324.1 L261.3,325.4 L262.4,326.6
		L263.5,327.9 L264.6,329.2 L265.8,330.4 L266.9,331.7 L268.0,333.0 L269.1,334.2 L270.3,335.5 L271.4,336.7
		L272.5,338.0 L273.6,339.2 L274.8,340.4 L275.9,341.7 L277.0,342.9 L278.1,344.1 L279.3,345.3 L280.4,346.5
		L281.5,347.7 L282.6,348.9 L283.8,350.1 L284.9,351.3 L286.0,352.5 L287.1,353.7 L288.3,354.9 L289.4,356.1
		L290.5,357.3 L291.6,358.4 L292.8,359.6 L293.9,360.8 L295.0,361.9 L296.1,363.1 L297.3,364.2 L298.4,365.4
		L299.5,366.5 L300.6,367.7 L301.8,368.8 L302.9,369.9 L304.0,371.0 L305.1,372.2 L306.3,373.3 L307.4,374.4
		L308.5,375.5 L309.7,376.6 L310.8,377.7 L311.9,378.8 L313.0,379.9 L314.2,381.0 L315.3,382.1 L316.4,383.2
		L317.5,384.3 L318.7,385.3 L319.8,386.4 L320.9,387.5 L322.0,388.5 L323.2,389.6 L324.3,390.6 L325.4,391.7
		L326.5,392.7 L327.7,393.8 L328.8,394.8 L329.9,395.9 L331.0,396.9 L332.2,397.9 L333.3,399.0 L334.4,400.0
		L335.5,401.0 L336.7,402.0 L337.8,403.0 L338.9,404.0 L340.0,405.0 L341.2,406.0 L342.3,407.0 L343.4,408.0
		L344.5,409.0 L345.7,410.0 L346.8,411.0 L347.9,412.0 L349.0,412.9 L350.2,413.9 L351.3,414.9 L352.4,415.8
		L353.5,416.8 L354.7,417.8 L355.8,418.7 L356.9,419.7 L358.0,420.6 L359.2,421.6 L360.3,422.5 L361.4,423.4
		L362.5,424.4 L363.7,425.3 L364.8,426.2 L365.9,427.2 L367.0,428.1 L368.2,429.0 L369.3,429.9 L370.4,430.8
		L371.5,431.7 L372.7,432.6 L373.8,433.5 L374.9,434.4 L376.1,435.3 L377.2,436.2 L378.3,437.1 L379.4,438.0
		L380.6,438.9 L381.7,439.8 L382.8,440.7 L383.9,441.5 L385.1,442.4 L386.2,443.3 L387.3,444.1 L388.4,445.0
		L389.6,445.9 L390.7,446.7 L391.8,447.6 L392.9,448.4 L394.1,449.3 L395.2,450.1 L396.3,450.9 L397.4,451.8
		L398.6,452.6 L399.7,453.4 L400.8,454.3 L401.9,455.1 L403.1,455.9 L404.2,456.8 L405.3,457.6 L406.4,458.4
		L407.6,459.2 L408.7,460.0 L409.8,460.8 L410.9,461.6 L412.1,462.4 L413.2,463.2 L414.3,464.0 L415.4,464.8
		L416.6,465.6 L417.7,466.4 L418.8,467.2 L419.9,468.0 L421.1,468.7 L422.2,469.5 L423.3,470.3 L424.4,471.1
		L425.6,471.8 L426.7,472.6 L427.8,473.4 L428.9,474.1 L430.1,474.9 L431.2,475.7 L432.3,476.4 L433.4,477.2
		L434.6,477.9 L435.7,478.7 L436.8,479.4 L437.9,480.1 L439.1,480.9 L440.2,481.6 L441.3,482.4 L442.5,483.1
		L443.6,483.8 L444.7,484.5 L445.8,485.3 L447.0,486.0 L448.1,486.7 L449.2,487.4 L450.3,488.2 L451.5,488.9
		L452.6,489.6 L453.7,490.3 L454.8,491.0 L456.0,491.7 L457.1,492.4 L458.2,493.1 L459.3,493.8 L460.5,494.5
		L461.6,495.2 L462.7,495.9 L463.8,496.6 L465.0,497.3 L466.1,497.9 L467.2,498.6 L468.3,499.3 L469.5,500.0
		L470.6,500.7 L471.7,501.3 L472.8,502.0 L474.0,502.7 L475.1,503.3 L476.2,504.0 L477.3,504.7 L478.5,505.3
		L479.6,506.0 L480.7,506.6 L481.8,507.3 L483.0,507.9 L484.1,508.6 L485.2,509.2 L486.3,509.9 L487.5,510.5
		L488.6,511.2 L489.7,511.8 L490.8,512.5 L492.0,513.1 L493.1,513.7 L494.2,514.4 L495.3,515.0 L496.5,515.6
		L497.6,516.2 L498.7,516.9 L499.8,517.5 L501.0,518.1 L502.1,518.7 L503.2,519.3 L504.3,520.0 L505.5,520.6
		L506.6,521.2 L507.7,521.8 L508.8,522.4 L510.0,523.0 L511.1,523.6 L512.2,524.2 L513.4,524.8 L514.5,525.4
		L515.6,526.0 L516.7,526.6 L517.9,527.2 L519.0,527.8 L520.1,528.4 L521.2,528.9 L522.4,529.5 L523.5,530.1
		L524.6,530.7 L525.7,531.3 L526.9,531.9 L528.0,532.4 L529.1,533.0 L530.2,533.6 L531.4,534.1 L532.5,534.7
		L533.6,535.3 L534.7,535.8 L535.9,536.4 L537.0,537.0 L538.1,537.5 L539.2,538.1 L540.4,538.6 L541.5,539.2
		L542.6,539.8 L543.7,540.3 L544.9,540.9 L546.0,541.4 L547.1,542.0 L548.2,542.5 L549.4,543.0 L550.5,543.6
		L551.6,544.1 L552.7,544.7 L553.9,545.2 L555.0,545.7 L556.1,546.3 L557.2,546.8 L558.4,547.3 L559.5,547.9
		L560.6,548.4 L561.7,548.9 L562.9,549.4 L564.0,550.0 L565.1,550.5 L566.2,551.0 L567.4,551.5 L568.5,552.0
		L569.6,552.6 L570.7,553.1 L571.9,553.6 L573.0,554.1 L574.1,554.6 L575.2,555.1 L576.4,555.6 L577.5,556.1
		L578.6,556.6 L579.8,557.1 L580.9,557.6 L582.0,558.1 L583.1,558.6 L584.3,559.1 L585.4,559.6 L586.5,560.1
		L587.6,560.6 L588.8,561.1 L589.9,561.6 L591.0,562.0 L592.1,562.5 L593.3,563.0 L594.4,563.5 L595.5,564.0
		L596.6,564.5 L597.8,564.9 L598.9,565.4 L600.0,565.9 L601.1,566.4 L602.3,566.8 L603.4,567.3 L604.5,567.8
		L605.6,568.2 L606.8,568.7 L607.9,569.2 L609.0,569.6 L610.1,570.1 L611.3,570.6 L612.4,571.0 L613.5,571.5
		L614.6,571.9 L615.8,572.4 L616.9,572.8 L618.0,573.3 L619.1,573.8 L620.3,574.2 L621.4,574.7 L622.5,575.1
		L623.6,575.5 L624.8,576.0 L625.9,576.4 L627.0,576.9 L628.1,577.3 L629.3,577.8 L630.4,578.2 L631.5,578.6
		L632.6,579.1 L633.8,579.5 L634.9,579.9 L636.0,580.4 L637.1,580.8 L638.3,581.2 L639.4,581.7 L640.5,582.1
		L641.6,582.5 L642.8,582.9 L643.9,583.4 L645.0,583.8 L646.2,584.2 L647.3,584.6 L648.4,585.0 L649.5,585.5
		L650.7,585.9 L651.8,586.3 L652.9,586.7 L654.0,587.1 L655.2,587.5 L656.3,587.9 L657.4,588.4 L658.5,588.8
		L659.7,589.2 L660.8,589.6 L661.9,590.0 L663.0,590.4 L664.2,590.8 L665.3,591.2 L666.4,591.6 L667.5,592.0
		L668.7,592.4 L669.8,592.8 L670.9,593.2 L672.0,593.6 L673.2,593.9 L674.3,594.3 L675.4,594.7 L676.5,595.1
		L677.7,595.5 L678.8,595.9 L679.9,596.3 L681.0,596.7 L682.2,597.0 L683.3,597.4 L684.4,597.8 L685.5,598.2
		L686.7,598.6 L687.8,598.9 L688.9,599.3 L690.0,599.7 L691.2,600.1 L692.3,600.4 L693.4,600.8 L694.5,601.2
		L695.7,601.6 L696.8,601.9 L697.9,602.3 L699.0,602.7 L700.2,603.0 L701.3,603.4 L702.4,603.8 L703.5,604.1
		L704.7,604.5 L705.8,604.8 L706.9,605.2 L708.0,605.6 L709.2,605.9 L710.3,606.3 L711.4,606.6 L712.5,607.0
		L713.7,607.3 L714.8,607.7 L715.9,608.0 L717.1,608.4 L718.2,608.7 L719.3,609.1 L720.4,609.4 L721.6,609.8
		L722.7,610.1 L723.8,610.5 L724.9,610.8 L726.1,611.1 L727.2,611.5 L728.3,611.8 L729.4,612.2 L730.6,612.5
		L731.7,612.8 L732.8,613.2 L733.9,613.5 L735.1,613.8 L736.2,614.2 L737.3,614.5 L738.4,614.8 L739.6,615.1
		L740.7,615.5 L741.8,615.8 L742.9,616.1 L744.1,616.5 L745.2,616.8 L746.3,617.1 L747.4,617.4 L748.6,617.7
		L749.7,618.1 L750.8,618.4 L751.9,618.7 L753.1,619.0 L754.2,619.3 L755.3,619.7 L756.4,620.0 L757.6,620.3
		L758.7,620.6 L759.8,620.9 L760.9,621.2 L762.1,621.5 L763.2,621.8 L764.3,622.1 L765.4,622.4 L766.6,622.8
		L767.7,623.1 L768.8,623.4 L769.9,623.7 L771.1,624.0 L772.2,624.3 L773.3,624.6 L774.4,624.9 L775.6,625.2
		L776.7,625.5 L777.8,625.8 L778.9,626.1 L780.1,626.3 L781.2,626.6 L782.3,626.9 L783.5,627.2 L784.6,627.5
		L785.7,627.8 L786.8,628.1 L788.0,628.4 L789.1,628.7 L790.2,629.0 L791.3,629.2 L792.5,629.5 L793.6,629.8
		L794.7,630.1 L795.8,630.4 L797.0,630.7 L798.1,630.9 L799.2,631.2 L800.3,631.5 L801.5,631.8 L802.6,632.0
		L803.7,632.3 L804.8,632.6 L806.0,632.9 L807.1,633.1 L808.2,633.4 L809.3,633.7 L810.5,634.0 L811.6,634.2
		L812.7,634.5 L813.8,634.8 L815.0,635.0 L816.1,635.3 L817.2,635.6 L818.3,635.8 L819.5,636.1 L820.6,636.4
		L821.7,636.6 L822.8,636.9 L824.0,637.1 L825.1,637.4 L826.2,637.7 L827.3,637.9 L828.5,638.2 L829.6,638.4
		L830.7,638.7 L831.8,638.9 L833.0,639.2 L834.1,639.4 L835.2,639.7 L836.3,639.9 L837.5,640.2 L838.6,640.4
		L839.7,640.7 L840.8,640.9 L842.0,641.2 L843.1,641.4 L844.2,641.7 L845.3,641.9 L846.5,642.2 L847.6,642.4
		L848.7,642.6 L849.9,642.9 L851.0,643.1 L852.1,643.4 L853.2,643.6 L854.4,643.8 L855.5,644.1 L856.6,644.3
		L857.7,644.6 L858.9,644.8 L860.0,645.0 L861.1,645.3 L862.2,645.5 L863.4,645.7 L864.5,645.9 L865.6,646.2
		L866.7,646.4 L867.9,646.6 L869.0,646.9 L870.1,647.1 L871.2,647.3 L872.4,647.5 L873.5,647.8 L874.6,648.0
		L875.7,648.2 L876.9,648.4 L878.0,648.7 L879.1,648.9 L880.2,649.1 L881.4,649.3 L882.5,649.5 L883.6,649.7
		L884.7,650.0 L885.9,650.2 L887.0,650.4 L888.1,650.6 L889.2,650.8 L890.4,651.0 L891.5,651.2 L892.6,651.5
		L893.7,651.7 L894.9,651.9 L896.0,652.1 L897.1,652.3 L898.2,652.5 L899.4,652.7 L900.5,652.9 L901.6,653.1
		L902.7,653.3 L903.9,653.5 L905.0,653.7 L906.1,653.9 L907.2,654.1 L908.4,654.3 L909.5,654.5 L910.6,654.7
		L911.7,654.9 L912.9,655.1 L914.0,655.3 L915.1,655.5 L916.2,655.7 L917.4,655.9 L918.5,656.1 L919.6,656.3
		L920.8,656.5 L921.9,656.7 L923.0,656.9 L924.1,657.1 L925.3,657.2 L926.4,657.4 L927.5,657.6 L928.6,657.8
		L929.8,658.0 L930.9,658.2 L932.0,658.4 L933.1,658.5 L934.3,658.7 L935.4,658.9 L936.5,659.1 L937.6,659.3
		L938.8,659.5 L939.9,659.6 L941.0,659.8 L942.1,660.0 L943.3,660.2 L944.4,660.3 L945.5,660.5 L946.6,660.7
		L947.8,660.9 L948.9,661.0 L950.0,661.2 L951.1,661.4 L952.3,661.6 L953.4,661.7 L954.5,661.9 L955.6,662.1
		L956.8,662.2 L957.9,662.4 L959.0,662.6 L960.1,662.8 L961.3,662.9 L962.4,663.1 L963.5,663.2 L964.6,663.4
		L965.8,663.6 L966.9,663.7 L968.0,663.9 L969.1,664.1 L970.3,664.2 L971.4,664.4 L972.5,664.5 L973.6,664.7
		L974.8,664.9 L975.9,665.0 L977.0,665.2 L978.1,665.3 L979.3,665.5 L980.4,665.6 L981.5,665.8 L982.6,665.9
		L983.8,666.1 L984.9,666.2 L986.0,666.4 L987.2,666.5 L988.3,666.7 L989.4,666.8 L990.5,667.0 L991.7,667.1
		L992.8,667.3 L993.9,667.4 L995.0,667.6 L996.2,667.7 L997.3,667.9 L998.4,668.0 L999.5,668.2 L1000.7,668.3
		L1001.8,668.4 L1002.9,668.6 L1004.0,668.7 L1005.2,668.9 L1006.3,669.0 L1007.4,669.1 L1008.5,669.3 L1009.7,669.4
		L1010.8,669.5 L1011.9,669.7 L1013.0,669.8 L1014.2,669.9 L1015.3,670.1 L1016.4,670.2 L1017.5,670.3 L1018.7,670.5
		L1019.8,670.6 L1020.9,670.7 L1022.0,670.9 L1023.2,671.0 L1024.3,671.1 L1025.4,671.3 L1026.5,671.4 L1027.7,671.5
		L1028.8,671.6 L1029.9,671.8 L1031.0,671.9 L1032.2,672.0 L1033.3,672.1 L1034.4,672.2 L1035.5,672.4 L1036.7,672.5
		L1037.8,672.6 L1038.9,672.7 L1040.0,672.8 L1041.2,673.0 L1042.3,673.1 L1043.4,673.2 L1044.5,673.3 L1045.7,673.4
		L1046.8,673.5 L1047.9,673.7 L1049.0,673.8 L1050.2,673.9 L1051.3,674.0 L1052.4,674.1 L1053.6,674.2 L1054.7,674.3
		L1055.8,674.4 L1056.9,674.5 L1058.1,674.7 L1059.2,674.8 L1060.3,674.9 L1061.4,675.0 L1062.6,675.1 L1063.7,675.2
		L1064.8,675.3 L1065.9,675.4 L1067.1,675.5 L1068.2,675.6 L1069.3,675.7 L1070.4,675.8 L1071.6,675.9 L1072.7,676.0
		L1073.8,676.1 L1074.9,676.2 L1076.1,676.3 L1077.2,676.4 L1078.3,676.5 L1079.4,676.6 L1080.6,676.7 L1081.7,676.8
		L1082.8,676.9 L1083.9,677.0 L1085.1,677.1 L1086.2,677.2 L1087.3,677.2 L1088.4,677.3 L1089.6,677.4 L1090.7,677.5
		L1091.8,677.6 L1092.9,677.7 L1094.1,677.8 L1095.2,677.9 L1096.3,678.0 L1097.4,678.0 L1098.6,678.1 L1099.7,678.2
		L1100.8,678.3 L1101.9,678.4 L1103.1,678.5 L1104.2,678.5 L1105.3,678.6 L1106.4,678.7 L1107.6,678.8 L1108.7,678.9
		L1109.8,679.0 L1110.9,679.0 L1112.1,679.1 L1113.2,679.2 L1114.3,679.3 L1115.4,679.3 L1116.6,679.4 L1117.7,679.5
		L1118.8,679.6 L1120.0,679.6 L1121.1,679.7 L1122.2,679.8 L1123.3,679.9 L1124.5,679.9 L1125.6,680.0 L1126.7,680.1
		L1127.8,680.1 L1129.0,680.2 L1130.1,680.3 L1131.2,680.3 L1132.3,680.4 L1133.5,680.5 L1134.6,680.5 L1135.7,680.6
		L1136.8,680.7 L1138.0,680.7 L1139.1,680.8 L1140.2,680.9 L1141.3,680.9 L1142.5,681.0 L1143.6,681.0 L1144.7,681.1
		L1145.8,681.2 L1147.0,681.2 L1148.1,681.3 L1149.2,681.3 L1150.3,681.4 L1151.5,681.4 L1152.6,681.5 L1153.7,681.5
		L1154.8,681.6 L1156.0,681.7 L1157.1,681.7 L1158.2,681.8 L1159.3,681.8 L1160.5,681.9 L1161.6,681.9 L1162.7,682.0
		L1163.8,682.0 L1165.0,682.1 L1166.1,682.1 L1167.2,682.2 L1168.3,682.2 L1169.5,682.3 L1170.6,682.3 L1171.7,682.3
		L1172.8,682.4 L1174.0,682.4 L1175.1,682.5 L1176.2,682.5 L1177.3,682.6 L1178.5,682.6 L1179.6,682.6 L1180.7,682.7
		L1181.8,682.7 L1183.0,682.8 L1184.1,682.8 L1185.2,682.8 L1186.3,682.9 L1187.5,682.9 L1188.6,682.9 L1189.7,683.0
		L1190.9,683.0 L1192.0,683.1 L1193.1,683.1 L1194.2,683.1 L1195.4,683.2 L1196.5,683.2 L1197.6,683.2 L1198.7,683.2
		L1199.9,683.3 L1201.0,683.3 L1202.1,683.3 L1203.2,683.4 L1204.4,683.4 L1205.5,683.4 L1206.6,683.4 L1207.7,683.5
		L1208.9,683.5 L1210.0,683.5 L1211.1,683.5 L1212.2,683.6 L1213.4,683.6 L1214.5,683.6 L1215.6,683.6 L1216.7,683.7
		L1217.9,683.7 L1219.0,683.7 L1220.1,683.7 L1221.2,683.7 L1222.4,683.7 L1223.5,683.8 L1224.6,683.8 L1225.7,683.8
		L1226.9,683.8 L1228.0,683.8 L1229.1,683.8 L1230.2,683.9 L1231.4,683.9 L1232.5,683.9 L1233.6,683.9 L1234.7,683.9
		L1235.9,683.9 L1237.0,683.9 L1238.1,683.9 L1239.2,683.9 L1240.4,683.9 L1241.5,684.0 L1242.6,684.0 L1243.7,684.0
		L1244.9,684.0 L1246.0,684.0 L1247.1,684.0 L1248.2,684.0 L1249.4,684.0 L1250.5,684.0 L1251.6,684.0 L1252.7,684.0
		L1253.9,684.0 L1255.0,684.0  '/></g>
	</g>
	<g id="gnuplot_plot_5" ><title>gnuplot_plot_5</title>
<g fill="none" color="black" stroke="currentColor" stroke-width="1.00" stroke-linecap="butt" stroke-linejoin="miter">
	<path stroke='rgb(  0, 100,   0)'  d='M103.7,160.5 L104.8,160.6 L106.0,160.6 L107.1,160.7 L108.2,160.8 L109.3,160.9 L110.5,161.1 L111.6,161.3
		L112.7,161.5 L113.8,161.8 L115.0,162.1 L116.1,162.4 L117.2,162.8 L118.3,163.1 L119.5,163.6 L120.6,164.0
		L121.7,164.5 L122.8,165.0 L124.0,165.5 L125.1,166.0 L126.2,166.6 L127.3,167.2 L128.5,167.9 L129.6,168.5
		L130.7,169.2 L131.8,169.9 L133.0,170.7 L134.1,171.4 L135.2,172.2 L136.3,173.0 L137.5,173.9 L138.6,174.7
		L139.7,175.6 L140.8,176.5 L142.0,177.4 L143.1,178.4 L144.2,179.3 L145.3,180.3 L146.5,181.3 L147.6,182.3
		L148.7,183.4 L149.8,184.4 L151.0,185.5 L152.1,186.6 L153.2,187.7 L154.3,188.8 L155.5,189.9 L156.6,191.1
		L157.7,192.2 L158.8,193.4 L160.0,194.6 L161.1,195.8 L162.2,197.0 L163.3,198.2 L164.5,199.5 L165.6,200.7
		L166.7,202.0 L167.8,203.3 L169.0,204.5 L170.1,205.8 L171.2,207.1 L172.4,208.4 L173.5,209.8 L174.6,211.1
		L175.7,212.4 L176.9,213.7 L178.0,215.1 L179.1,216.4 L180.2,217.8 L181.4,219.2 L182.5,220.5 L183.6,221.9
		L184.7,223.3 L185.9,224.6 L187.0,226.0 L188.1,227.4 L189.2,228.8 L190.4,230.2 L191.5,231.6 L192.6,233.0
		L193.7,234.4 L194.9,235.8 L196.0,237.2 L197.1,238.6 L198.2,240.0 L199.4,241.4 L200.5,242.8 L201.6,244.3
		L202.7,245.7 L203.9,247.1 L205.0,248.5 L206.1,249.9 L207.2,251.3 L208.4,252.7 L209.5,254.1 L210.6,255.5
		L211.7,257.0 L212.9,258.4 L214.0,259.8 L215.1,261.2 L216.2,262.6 L217.4,264.0 L218.5,265.4 L219.6,266.8
		L220.7,268.2 L221.9,269.6 L223.0,271.0 L224.1,272.4 L225.2,273.8 L226.4,275.2 L227.5,276.5 L228.6,277.9
		L229.7,279.3 L230.9,280.7 L232.0,282.1 L233.1,283.4 L234.2,284.8 L235.4,286.2 L236.5,287.5 L237.6,288.9
		L238.7,290.2 L239.9,291.6 L241.0,292.9 L242.1,294.3 L243.3,295.6 L244.4,297.0 L245.5,298.3 L246.6,299.6
		L247.8,301.0 L248.9,302.3 L250.0,303.6 L251.1,304.9 L252.3,306.2 L253.4,307.5 L254.5,308.8 L255.6,310.1
		L256.8,311.4 L257.9,312.7 L259.0,314.0 L260.1,315.3 L261.3,316.6 L262.4,317.9 L263.5,319.2 L264.6,320.4
		L265.8,321.7 L266.9,322.9 L268.0,324.2 L269.1,325.5 L270.3,326.7 L271.4,328.0 L272.5,329.2 L273.6,330.4
		L274.8,331.7 L275.9,332.9 L277.0,334.1 L278.1,335.3 L279.3,336.6 L280.4,337.8 L281.5,339.0 L282.6,340.2
		L283.8,341.4 L284.9,342.6 L286.0,343.8 L287.1,345.0 L288.3,346.1 L289.4,347.3 L290.5,348.5 L291.6,349.7
		L292.8,350.8 L293.9,352.0 L295.0,353.2 L296.1,354.3 L297.3,355.5 L298.4,356.6 L299.5,357.8 L300.6,358.9
		L301.8,360.0 L302.9,361.2 L304.0,362.3 L305.1,363.4 L306.3,364.5 L307.4,365.6 L308.5,366.8 L309.7,367.9
		L310.8,369.0 L311.9,370.1 L313.0,371.2 L314.2,372.2 L315.3,373.3 L316.4,374.4 L317.5,375.5 L318.7,376.6
		L319.8,377.6 L320.9,378.7 L322.0,379.8 L323.2,380.8 L324.3,381.9 L325.4,382.9 L326.5,384.0 L327.7,385.0
		L328.8,386.1 L329.9,387.1 L331.0,388.1 L332.2,389.2 L333.3,390.2 L334.4,391.2 L335.5,392.2 L336.7,393.3
		L337.8,394.3 L338.9,395.3 L340.0,396.3 L341.2,397.3 L342.3,398.3 L343.4,399.3 L344.5,400.3 L345.7,401.2
		L346.8,402.2 L347.9,403.2 L349.0,404.2 L350.2,405.2 L351.3,406.1 L352.4,407.1 L353.5,408.1 L354.7,409.0
		L355.8,410.0 L356.9,410.9 L358.0,411.9 L359.2,412.8 L360.3,413.8 L361.4,414.7 L362.5,415.6 L363.7,416.6
		L364.8,417.5 L365.9,418.4 L367.0,419.3 L368.2,420.2 L369.3,421.2 L370.4,422.1 L371.5,423.0 L372.7,423.9
		L373.8,424.8 L374.9,425.7 L376.1,426.6 L377.2,427.5 L378.3,428.4 L379.4,429.3 L380.6,430.1 L381.7,431.0
		L382.8,431.9 L383.9,432.8 L385.1,433.6 L386.2,434.5 L387.3,435.4 L388.4,436.2 L389.6,437.1 L390.7,437.9
		L391.8,438.8 L392.9,439.7 L394.1,440.5 L395.2,441.3 L396.3,442.2 L397.4,443.0 L398.6,443.9 L399.7,444.7
		L400.8,445.5 L401.9,446.3 L403.1,447.2 L404.2,448.0 L405.3,448.8 L406.4,449.6 L407.6,450.4 L408.7,451.3
		L409.8,452.1 L410.9,452.9 L412.1,453.7 L413.2,454.5 L414.3,455.3 L415.4,456.1 L416.6,456.8 L417.7,457.6
		L418.8,458.4 L419.9,459.2 L421.1,460.0 L422.2,460.8 L423.3,461.5 L424.4,462.3 L425.6,463.1 L426.7,463.8
		L427.8,464.6 L428.9,465.4 L430.1,466.1 L431.2,466.9 L432.3,467.6 L433.4,468.4 L434.6,469.1 L435.7,469.9
		L436.8,470.6 L437.9,471.4 L439.1,472.1 L440.2,472.9 L441.3,473.6 L442.5,474.3 L443.6,475.1 L444.7,475.8
		L445.8,476.5 L447.0,477.2 L448.1,478.0 L449.2,478.7 L450.3,479.4 L451.5,480.1 L452.6,480.8 L453.7,481.5
		L454.8,482.2 L456.0,482.9 L457.1,483.6 L458.2,484.3 L459.3,485.0 L460.5,485.7 L461.6,486.4 L462.7,487.1
		L463.8,487.8 L465.0,488.5 L466.1,489.2 L467.2,489.9 L468.3,490.5 L469.5,491.2 L470.6,491.9 L471.7,492.6
		L472.8,493.2 L474.0,493.9 L475.1,494.6 L476.2,495.2 L477.3,495.9 L478.5,496.6 L479.6,497.2 L480.7,497.9
		L481.8,498.5 L483.0,499.2 L484.1,499.8 L485.2,500.5 L486.3,501.1 L487.5,501.8 L488.6,502.4 L489.7,503.1
		L490.8,503.7 L492.0,504.3 L493.1,505.0 L494.2,505.6 L495.3,506.2 L496.5,506.9 L497.6,507.5 L498.7,508.1
		L499.8,508.7 L501.0,509.3 L502.1,510.0 L503.2,510.6 L504.3,511.2 L505.5,511.8 L506.6,512.4 L507.7,513.0
		L508.8,513.6 L510.0,514.2 L511.1,514.8 L512.2,515.4 L513.4,516.0 L514.5,516.6 L515.6,517.2 L516.7,517.8
		L517.9,518.4 L519.0,519.0 L520.1,519.6 L521.2,520.2 L522.4,520.8 L523.5,521.4 L524.6,521.9 L525.7,522.5
		L526.9,523.1 L528.0,523.7 L529.1,524.2 L530.2,524.8 L531.4,525.4 L532.5,526.0 L533.6,526.5 L534.7,527.1
		L535.9,527.7 L537.0,528.2 L538.1,528.8 L539.2,529.3 L540.4,529.9 L541.5,530.4 L542.6,531.0 L543.7,531.6
		L544.9,532.1 L546.0,532.6 L547.1,533.2 L548.2,533.7 L549.4,534.3 L550.5,534.8 L551.6,535.4 L552.7,535.9
		L553.9,536.4 L555.0,537.0 L556.1,537.5 L557.2,538.0 L558.4,538.6 L559.5,539.1 L560.6,539.6 L561.7,540.2
		L562.9,540.7 L564.0,541.2 L565.1,541.7 L566.2,542.2 L567.4,542.8 L568.5,543.3 L569.6,543.8 L570.7,544.3
		L571.9,544.8 L573.0,545.3 L574.1,545.8 L575.2,546.3 L576.4,546.9 L577.5,547.4 L578.6,547.9 L579.8,548.4
		L580.9,548.9 L582.0,549.4 L583.1,549.9 L584.3,550.3 L585.4,550.8 L586.5,551.3 L587.6,551.8 L588.8,552.3
		L589.9,552.8 L591.0,553.3 L592.1,553.8 L593.3,554.3 L594.4,554.7 L595.5,555.2 L596.6,555.7 L597.8,556.2
		L598.9,556.7 L600.0,557.1 L601.1,557.6 L602.3,558.1 L603.4,558.5 L604.5,559.0 L605.6,559.5 L606.8,560.0
		L607.9,560.4 L609.0,560.9 L610.1,561.3 L611.3,561.8 L612.4,562.3 L613.5,562.7 L614.6,563.2 L615.8,563.6
		L616.9,564.1 L618.0,564.5 L619.1,565.0 L620.3,565.4 L621.4,565.9 L622.5,566.3 L623.6,566.8 L624.8,567.2
		L625.9,567.7 L627.0,568.1 L628.1,568.6 L629.3,569.0 L630.4,569.4 L631.5,569.9 L632.6,570.3 L633.8,570.8
		L634.9,571.2 L636.0,571.6 L637.1,572.0 L638.3,572.5 L639.4,572.9 L640.5,573.3 L641.6,573.8 L642.8,574.2
		L643.9,574.6 L645.0,575.0 L646.2,575.5 L647.3,575.9 L648.4,576.3 L649.5,576.7 L650.7,577.1 L651.8,577.5
		L652.9,578.0 L654.0,578.4 L655.2,578.8 L656.3,579.2 L657.4,579.6 L658.5,580.0 L659.7,580.4 L660.8,580.8
		L661.9,581.2 L663.0,581.6 L664.2,582.0 L665.3,582.4 L666.4,582.8 L667.5,583.2 L668.7,583.6 L669.8,584.0
		L670.9,584.4 L672.0,584.8 L673.2,585.2 L674.3,585.6 L675.4,586.0 L676.5,586.4 L677.7,586.7 L678.8,587.1
		L679.9,587.5 L681.0,587.9 L682.2,588.3 L683.3,588.7 L684.4,589.1 L685.5,589.4 L686.7,589.8 L687.8,590.2
		L688.9,590.6 L690.0,590.9 L691.2,591.3 L692.3,591.7 L693.4,592.1 L694.5,592.4 L695.7,592.8 L696.8,593.2
		L697.9,593.5 L699.0,593.9 L700.2,594.3 L701.3,594.6 L702.4,595.0 L703.5,595.4 L704.7,595.7 L705.8,596.1
		L706.9,596.4 L708.0,596.8 L709.2,597.1 L710.3,597.5 L711.4,597.9 L712.5,598.2 L713.7,598.6 L714.8,598.9
		L715.9,599.3 L717.1,599.6 L718.2,600.0 L719.3,600.3 L720.4,600.7 L721.6,601.0 L722.7,601.3 L723.8,601.7
		L724.9,602.0 L726.1,602.4 L727.2,602.7 L728.3,603.1 L729.4,603.4 L730.6,603.7 L731.7,604.1 L732.8,604.4
		L733.9,604.7 L735.1,605.1 L736.2,605.4 L737.3,605.7 L738.4,606.1 L739.6,606.4 L740.7,606.7 L741.8,607.0
		L742.9,607.4 L744.1,607.7 L745.2,608.0 L746.3,608.3 L747.4,608.7 L748.6,609.0 L749.7,609.3 L750.8,609.6
		L751.9,609.9 L753.1,610.3 L754.2,610.6 L755.3,610.9 L756.4,611.2 L757.6,611.5 L758.7,611.8 L759.8,612.1
		L760.9,612.5 L762.1,612.8 L763.2,613.1 L764.3,613.4 L765.4,613.7 L766.6,614.0 L767.7,614.3 L768.8,614.6
		L769.9,614.9 L771.1,615.2 L772.2,615.5 L773.3,615.8 L774.4,616.1 L775.6,616.4 L776.7,616.7 L777.8,617.0
		L778.9,617.3 L780.1,617.6 L781.2,617.9 L782.3,618.2 L783.5,618.5 L784.6,618.8 L785.7,619.0 L786.8,619.3
		L788.0,619.6 L789.1,619.9 L790.2,620.2 L791.3,620.5 L792.5,620.8 L793.6,621.1 L794.7,621.3 L795.8,621.6
		L797.0,621.9 L798.1,622.2 L799.2,622.5 L800.3,622.7 L801.5,623.0 L802.6,623.3 L803.7,623.6 L804.8,623.8
		L806.0,624.1 L807.1,624.4 L808.2,624.7 L809.3,624.9 L810.5,625.2 L811.6,625.5 L812.7,625.7 L813.8,626.0
		L815.0,626.3 L816.1,626.5 L817.2,626.8 L818.3,627.1 L819.5,627.3 L820.6,627.6 L821.7,627.9 L822.8,628.1
		L824.0,628.4 L825.1,628.6 L826.2,628.9 L827.3,629.2 L828.5,629.4 L829.6,629.7 L830.7,629.9 L831.8,630.2
		L833.0,630.4 L834.1,630.7 L835.2,630.9 L836.3,631.2 L837.5,631.4 L838.6,631.7 L839.7,631.9 L840.8,632.2
		L842.0,632.4 L843.1,632.7 L844.2,632.9 L845.3,633.2 L846.5,633.4 L847.6,633.6 L848.7,633.9 L849.9,634.1
		L851.0,634.4 L852.1,634.6 L853.2,634.8 L854.4,635.1 L855.5,635.3 L856.6,635.6 L857.7,635.8 L858.9,636.0
		L860.0,636.3 L861.1,636.5 L862.2,636.7 L863.4,637.0 L864.5,637.2 L865.6,637.4 L866.7,637.6 L867.9,637.9
		L869.0,638.1 L870.1,638.3 L871.2,638.6 L872.4,638.8 L873.5,639.0 L874.6,639.2 L875.7,639.5 L876.9,639.7
		L878.0,639.9 L879.1,640.1 L880.2,640.3 L881.4,640.6 L882.5,640.8 L883.6,641.0 L884.7,641.2 L885.9,641.4
		L887.0,641.6 L888.1,641.8 L889.2,642.1 L890.4,642.3 L891.5,642.5 L892.6,642.7 L893.7,642.9 L894.9,643.1
		L896.0,643.3 L897.1,643.5 L898.2,643.7 L899.4,643.9 L900.5,644.2 L901.6,644.4 L902.7,644.6 L903.9,644.8
		L905.0,645.0 L906.1,645.2 L907.2,645.4 L908.4,645.6 L909.5,645.8 L910.6,646.0 L911.7,646.2 L912.9,646.4
		L914.0,646.6 L915.1,646.8 L916.2,647.0 L917.4,647.1 L918.5,647.3 L919.6,647.5 L920.8,647.7 L921.9,647.9
		L923.0,648.1 L924.1,648.3 L925.3,648.5 L926.4,648.7 L927.5,648.9 L928.6,649.0 L929.8,649.2 L930.9,649.4
		L932.0,649.6 L933.1,649.8 L934.3,650.0 L935.4,650.2 L936.5,650.3 L937.6,650.5 L938.8,650.7 L939.9,650.9
		L941.0,651.1 L942.1,651.2 L943.3,651.4 L944.4,651.6 L945.5,651.8 L946.6,651.9 L947.8,652.1 L948.9,652.3
		L950.0,652.5 L951.1,652.6 L952.3,652.8 L953.4,653.0 L954.5,653.2 L955.6,653.3 L956.8,653.5 L957.9,653.7
		L959.0,653.8 L960.1,654.0 L961.3,654.2 L962.4,654.3 L963.5,654.5 L964.6,654.7 L965.8,654.8 L966.9,655.0
		L968.0,655.1 L969.1,655.3 L970.3,655.5 L971.4,655.6 L972.5,655.8 L973.6,655.9 L974.8,656.1 L975.9,656.3
		L977.0,656.4 L978.1,656.6 L979.3,656.7 L980.4,656.9 L981.5,657.0 L982.6,657.2 L983.8,657.3 L984.9,657.5
		L986.0,657.6 L987.2,657.8 L988.3,657.9 L989.4,658.1 L990.5,658.2 L991.7,658.4 L992.8,658.5 L993.9,658.7
		L995.0,658.8 L996.2,659.0 L997.3,659.1 L998.4,659.3 L999.5,659.4 L1000.7,659.5 L1001.8,659.7 L1002.9,659.8
		L1004.0,660.0 L1005.2,660.1 L1006.3,660.2 L1007.4,660.4 L1008.5,660.5 L1009.7,660.7 L1010.8,660.8 L1011.9,660.9
		L1013.0,661.1 L1014.2,661.2 L1015.3,661.3 L1016.4,661.5 L1017.5,661.6 L1018.7,661.7 L1019.8,661.8 L1020.9,662.0
		L1022.0,662.1 L1023.2,662.2 L1024.3,662.4 L1025.4,662.5 L1026.5,662.6 L1027.7,662.7 L1028.8,662.9 L1029.9,663.0
		L1031.0,663.1 L1032.2,663.2 L1033.3,663.4 L1034.4,663.5 L1035.5,663.6 L1036.7,663.7 L1037.8,663.8 L1038.9,664.0
		L1040.0,664.1 L1041.2,664.2 L1042.3,664.3 L1043.4,664.4 L1044.5,664.6 L1045.7,664.7 L1046.8,664.8 L1047.9,664.9
		L1049.0,665.0 L1050.2,665.1 L1051.3,665.2 L1052.4,665.4 L1053.6,665.5 L1054.7,665.6 L1055.8,665.7 L1056.9,665.8
		L1058.1,665.9 L1059.2,666.0 L1060.3,666.1 L1061.4,666.2 L1062.6,666.3 L1063.7,666.4 L1064.8,666.5 L1065.9,666.6
		L1067.1,666.7 L1068.2,666.8 L1069.3,666.9 L1070.4,667.0 L1071.6,667.1 L1072.7,667.2 L1073.8,667.3 L1074.9,667.4
		L1076.1,667.5 L1077.2,667.6 L1078.3,667.7 L1079.4,667.8 L1080.6,667.9 L1081.7,668.0 L1082.8,668.1 L1083.9,668.2
		L1085.1,668.3 L1086.2,668.4 L1087.3,668.5 L1088.4,668.6 L1089.6,668.7 L1090.7,668.8 L1091.8,668.9 L1092.9,668.9
		L1094.1,669.0 L1095.2,669.1 L1096.3,669.2 L1097.4,669.3 L1098.6,669.4 L1099.7,669.5 L1100.8,669.5 L1101.9,669.6
		L1103.1,669.7 L1104.2,669.8 L1105.3,669.9 L1106.4,670.0 L1107.6,670.0 L1108.7,670.1 L1109.8,670.2 L1110.9,670.3
		L1112.1,670.3 L1113.2,670.4 L1114.3,670.5 L1115.4,670.6 L1116.6,670.7 L1117.7,670.7 L1118.8,670.8 L1120.0,670.9
		L1121.1,670.9 L1122.2,671.0 L1123.3,671.1 L1124.5,671.2 L1125.6,671.2 L1126.7,671.3 L1127.8,671.4 L1129.0,671.4
		L1130.1,671.5 L1131.2,671.6 L1132.3,671.6 L1133.5,671.7 L1134.6,671.8 L1135.7,671.8 L1136.8,671.9 L1138.0,672.0
		L1139.1,672.0 L1140.2,672.1 L1141.3,672.2 L1142.5,672.2 L1143.6,672.3 L1144.7,672.3 L1145.8,672.4 L1147.0,672.5
		L1148.1,672.5 L1149.2,672.6 L1150.3,672.6 L1151.5,672.7 L1152.6,672.7 L1153.7,672.8 L1154.8,672.8 L1156.0,672.9
		L1157.1,673.0 L1158.2,673.0 L1159.3,673.1 L1160.5,673.1 L1161.6,673.2 L1162.7,673.2 L1163.8,673.3 L1165.0,673.3
		L1166.1,673.4 L1167.2,673.4 L1168.3,673.4 L1169.5,673.5 L1170.6,673.5 L1171.7,673.6 L1172.8,673.6 L1174.0,673.7
		L1175.1,673.7 L1176.2,673.8 L1177.3,673.8 L1178.5,673.8 L1179.6,673.9 L1180.7,673.9 L1181.8,674.0 L1183.0,674.0
		L1184.1,674.0 L1185.2,674.1 L1186.3,674.1 L1187.5,674.2 L1188.6,674.2 L1189.7,674.2 L1190.9,674.3 L1192.0,674.3
		L1193.1,674.3 L1194.2,674.4 L1195.4,674.4 L1196.5,674.4 L1197.6,674.5 L1198.7,674.5 L1199.9,674.5 L1201.0,674.5
		L1202.1,674.6 L1203.2,674.6 L1204.4,674.6 L1205.5,674.7 L1206.6,674.7 L1207.7,674.7 L1208.9,674.7 L1210.0,674.8
		L1211.1,674.8 L1212.2,674.8 L1213.4,674.8 L1214.5,674.9 L1215.6,674.9 L1216.7,674.9 L1217.9,674.9 L1219.0,674.9
		L1220.1,675.0 L1221.2,675.0 L1222.4,675.0 L1223.5,675.0 L1224.6,675.0 L1225.7,675.0 L1226.9,675.1 L1228.0,675.1
		L1229.1,675.1 L1230.2,675.1 L1231.4,675.1 L1232.5,675.1 L1233.6,675.1 L1234.7,675.1 L1235.9,675.2 L1237.0,675.2
		L1238.1,675.2 L1239.2,675.2 L1240.4,675.2 L1241.5,675.2 L1242.6,675.2 L1243.7,675.2 L1244.9,675.2 L1246.0,675.2
		L1247.1,675.2 L1248.2,675.2 L1249.4,675.2 L1250.5,675.2 L1251.6,675.2 L1252.7,675.2 L1253.9,675.2 L1255.0,675.2
		 '/></g>
	</g>
	<g id="gnuplot_plot_6" ><title>gnuplot_plot_6</title>
<g fill="none" color="black" stroke="currentColor" stroke-width="1.00" stroke-linecap="butt" stroke-linejoin="miter">
	<path stroke='rgb(  0,   0, 255)'  d='M103.7,140.6 L104.8,140.6 L106.0,140.6 L107.1,140.7 L108.2,140.8 L109.3,140.9 L110.5,141.1 L111.6,141.3
		L112.7,141.5 L113.8,141.8 L115.0,142.1 L116.1,142.4 L117.2,142.8 L118.3,143.2 L119.5,143.6 L120.6,144.0
		L121.7,144.5 L122.8,145.0 L124.0,145.5 L125.1,146.1 L126.2,146.6 L127.3,147.3 L128.5,147.9 L129.6,148.6
		L130.7,149.2 L131.8,149.9 L133.0,150.7 L134.1,151.4 L135.2,152.2 L136.3,153.0 L137.5,153.9 L138.6,154.7
		L139.7,155.6 L140.8,156.5 L142.0,157.4 L143.1,158.4 L144.2,159.3 L145.3,160.3 L146.5,161.3 L147.6,162.3
		L148.7,163.4 L149.8,164.4 L151.0,165.5 L152.1,166.6 L153.2,167.7 L154.3,168.8 L155.5,169.9 L156.6,171.1
		L157.7,172.2 L158.8,173.4 L160.0,174.6 L161.1,175.8 L162.2,177.0 L163.3,178.3 L164.5,179.5 L165.6,180.7
		L166.7,182.0 L167.8,183.3 L169.0,184.6 L170.1,185.8 L171.2,187.1 L172.4,188.5 L173.5,189.8 L174.6,191.1
		L175.7,192.4 L176.9,193.8 L178.0,195.1 L179.1,196.4 L180.2,197.8 L181.4,199.2 L182.5,200.5 L183.6,201.9
		L184.7,203.3 L185.9,204.7 L187.0,206.0 L188.1,207.4 L189.2,208.8 L190.4,210.2 L191.5,211.6 L192.6,213.0
		L193.7,214.4 L194.9,215.8 L196.0,217.2 L197.1,218.6 L198.2,220.0 L199.4,221.4 L200.5,222.9 L201.6,224.3
		L202.7,225.7 L203.9,227.1 L205.0,228.5 L206.1,229.9 L207.2,231.3 L208.4,232.7 L209.5,234.2 L210.6,235.6
		L211.7,237.0 L212.9,238.4 L214.0,239.8 L215.1,241.2 L216.2,242.6 L217.4,244.0 L218.5,245.4 L219.6,246.8
		L220.7,248.2 L221.9,249.6 L223.0,251.0 L224.1,252.4 L225.2,253.8 L226.4,255.2 L227.5,256.6 L228.6,257.9
		L229.7,259.3 L230.9,260.7 L232.0,262.1 L233.1,263.4 L234.2,264.8 L235.4,266.2 L236.5,267.5 L237.6,268.9
		L238.7,270.2 L239.9,271.6 L241.0,272.9 L242.1,274.3 L243.3,275.6 L244.4,277.0 L245.5,278.3 L246.6,279.6
		L247.8,281.0 L248.9,282.3 L250.0,283.6 L251.1,284.9 L252.3,286.2 L253.4,287.6 L254.5,288.9 L255.6,290.2
		L256.8,291.5 L257.9,292.8 L259.0,294.0 L260.1,295.3 L261.3,296.6 L262.4,297.9 L263.5,299.2 L264.6,300.4
		L265.8,301.7 L266.9,303.0 L268.0,304.2 L269.1,305.5 L270.3,306.7 L271.4,308.0 L272.5,309.2 L273.6,310.4
		L274.8,311.7 L275.9,312.9 L277.0,314.1 L278.1,315.4 L279.3,316.6 L280.4,317.8 L281.5,319.0 L282.6,320.2
		L283.8,321.4 L284.9,322.6 L286.0,323.8 L287.1,325.0 L288.3,326.2 L289.4,327.3 L290.5,328.5 L291.6,329.7
		L292.8,330.9 L293.9,332.0 L295.0,333.2 L296.1,334.3 L297.3,335.5 L298.4,336.6 L299.5,337.8 L300.6,338.9
		L301.8,340.0 L302.9,341.2 L304.0,342.3 L305.1,343.4 L306.3,344.5 L307.4,345.7 L308.5,346.8 L309.7,347.9
		L310.8,349.0 L311.9,350.1 L313.0,351.2 L314.2,352.3 L315.3,353.3 L316.4,354.4 L317.5,355.5 L318.7,356.6
		L319.8,357.7 L320.9,358.7 L322.0,359.8 L323.2,360.8 L324.3,361.9 L325.4,363.0 L326.5,364.0 L327.7,365.1
		L328.8,366.1 L329.9,367.1 L331.0,368.2 L332.2,369.2 L333.3,370.2 L334.4,371.2 L335.5,372.3 L336.7,373.3
		L337.8,374.3 L338.9,375.3 L340.0,376.3 L341.2,377.3 L342.3,378.3 L343.4,379.3 L344.5,380.3 L345.7,381.3
		L346.8,382.2 L347.9,383.2 L349.0,384.2 L350.2,385.2 L351.3,386.1 L352.4,387.1 L353.5,388.1 L354.7,389.0
		L355.8,390.0 L356.9,390.9 L358.0,391.9 L359.2,392.8 L360.3,393.8 L361.4,394.7 L362.5,395.6 L363.7,396.6
		L364.8,397.5 L365.9,398.4 L367.0,399.3 L368.2,400.3 L369.3,401.2 L370.4,402.1 L371.5,403.0 L372.7,403.9
		L373.8,404.8 L374.9,405.7 L376.1,406.6 L377.2,407.5 L378.3,408.4 L379.4,409.3 L380.6,410.1 L381.7,411.0
		L382.8,411.9 L383.9,412.8 L385.1,413.7 L386.2,414.5 L387.3,415.4 L388.4,416.2 L389.6,417.1 L390.7,418.0
		L391.8,418.8 L392.9,419.7 L394.1,420.5 L395.2,421.4 L396.3,422.2 L397.4,423.0 L398.6,423.9 L399.7,424.7
		L400.8,425.5 L401.9,426.4 L403.1,427.2 L404.2,428.0 L405.3,428.8 L406.4,429.6 L407.6,430.5 L408.7,431.3
		L409.8,432.1 L410.9,432.9 L412.1,433.7 L413.2,434.5 L414.3,435.3 L415.4,436.1 L416.6,436.9 L417.7,437.6
		L418.8,438.4 L419.9,439.2 L421.1,440.0 L422.2,440.8 L423.3,441.6 L424.4,442.3 L425.6,443.1 L426.7,443.9
		L427.8,444.6 L428.9,445.4 L430.1,446.1 L431.2,446.9 L432.3,447.7 L433.4,448.4 L434.6,449.2 L435.7,449.9
		L436.8,450.7 L437.9,451.4 L439.1,452.1 L440.2,452.9 L441.3,453.6 L442.5,454.3 L443.6,455.1 L444.7,455.8
		L445.8,456.5 L447.0,457.3 L448.1,458.0 L449.2,458.7 L450.3,459.4 L451.5,460.1 L452.6,460.8 L453.7,461.5
		L454.8,462.2 L456.0,463.0 L457.1,463.7 L458.2,464.4 L459.3,465.1 L460.5,465.7 L461.6,466.4 L462.7,467.1
		L463.8,467.8 L465.0,468.5 L466.1,469.2 L467.2,469.9 L468.3,470.6 L469.5,471.2 L470.6,471.9 L471.7,472.6
		L472.8,473.3 L474.0,473.9 L475.1,474.6 L476.2,475.3 L477.3,475.9 L478.5,476.6 L479.6,477.2 L480.7,477.9
		L481.8,478.5 L483.0,479.2 L484.1,479.8 L485.2,480.5 L486.3,481.1 L487.5,481.8 L488.6,482.4 L489.7,483.1
		L490.8,483.7 L492.0,484.3 L493.1,485.0 L494.2,485.6 L495.3,486.2 L496.5,486.9 L497.6,487.5 L498.7,488.1
		L499.8,488.7 L501.0,489.4 L502.1,490.0 L503.2,490.6 L504.3,491.2 L505.5,491.8 L506.6,492.4 L507.7,493.0
		L508.8,493.6 L510.0,494.3 L511.1,494.9 L512.2,495.5 L513.4,496.1 L514.5,496.7 L515.6,497.3 L516.7,497.8
		L517.9,498.4 L519.0,499.0 L520.1,499.6 L521.2,500.2 L522.4,500.8 L523.5,501.4 L524.6,502.0 L525.7,502.5
		L526.9,503.1 L528.0,503.7 L529.1,504.3 L530.2,504.8 L531.4,505.4 L532.5,506.0 L533.6,506.5 L534.7,507.1
		L535.9,507.7 L537.0,508.2 L538.1,508.8 L539.2,509.3 L540.4,509.9 L541.5,510.5 L542.6,511.0 L543.7,511.6
		L544.9,512.1 L546.0,512.7 L547.1,513.2 L548.2,513.8 L549.4,514.3 L550.5,514.8 L551.6,515.4 L552.7,515.9
		L553.9,516.5 L555.0,517.0 L556.1,517.5 L557.2,518.1 L558.4,518.6 L559.5,519.1 L560.6,519.6 L561.7,520.2
		L562.9,520.7 L564.0,521.2 L565.1,521.7 L566.2,522.3 L567.4,522.8 L568.5,523.3 L569.6,523.8 L570.7,524.3
		L571.9,524.8 L573.0,525.3 L574.1,525.9 L575.2,526.4 L576.4,526.9 L577.5,527.4 L578.6,527.9 L579.8,528.4
		L580.9,528.9 L582.0,529.4 L583.1,529.9 L584.3,530.4 L585.4,530.9 L586.5,531.3 L587.6,531.8 L588.8,532.3
		L589.9,532.8 L591.0,533.3 L592.1,533.8 L593.3,534.3 L594.4,534.8 L595.5,535.2 L596.6,535.7 L597.8,536.2
		L598.9,536.7 L600.0,537.1 L601.1,537.6 L602.3,538.1 L603.4,538.6 L604.5,539.0 L605.6,539.5 L606.8,540.0
		L607.9,540.4 L609.0,540.9 L610.1,541.4 L611.3,541.8 L612.4,542.3 L613.5,542.7 L614.6,543.2 L615.8,543.7
		L616.9,544.1 L618.0,544.6 L619.1,545.0 L620.3,545.5 L621.4,545.9 L622.5,546.4 L623.6,546.8 L624.8,547.2
		L625.9,547.7 L627.0,548.1 L628.1,548.6 L629.3,549.0 L630.4,549.5 L631.5,549.9 L632.6,550.3 L633.8,550.8
		L634.9,551.2 L636.0,551.6 L637.1,552.1 L638.3,552.5 L639.4,552.9 L640.5,553.3 L641.6,553.8 L642.8,554.2
		L643.9,554.6 L645.0,555.0 L646.2,555.5 L647.3,555.9 L648.4,556.3 L649.5,556.7 L650.7,557.1 L651.8,557.6
		L652.9,558.0 L654.0,558.4 L655.2,558.8 L656.3,559.2 L657.4,559.6 L658.5,560.0 L659.7,560.4 L660.8,560.8
		L661.9,561.2 L663.0,561.6 L664.2,562.0 L665.3,562.4 L666.4,562.8 L667.5,563.2 L668.7,563.6 L669.8,564.0
		L670.9,564.4 L672.0,564.8 L673.2,565.2 L674.3,565.6 L675.4,566.0 L676.5,566.4 L677.7,566.8 L678.8,567.1
		L679.9,567.5 L681.0,567.9 L682.2,568.3 L683.3,568.7 L684.4,569.1 L685.5,569.4 L686.7,569.8 L687.8,570.2
		L688.9,570.6 L690.0,571.0 L691.2,571.3 L692.3,571.7 L693.4,572.1 L694.5,572.4 L695.7,572.8 L696.8,573.2
		L697.9,573.5 L699.0,573.9 L700.2,574.3 L701.3,574.6 L702.4,575.0 L703.5,575.4 L704.7,575.7 L705.8,576.1
		L706.9,576.4 L708.0,576.8 L709.2,577.2 L710.3,577.5 L711.4,577.9 L712.5,578.2 L713.7,578.6 L714.8,578.9
		L715.9,579.3 L717.1,579.6 L718.2,580.0 L719.3,580.3 L720.4,580.7 L721.6,581.0 L722.7,581.4 L723.8,581.7
		L724.9,582.0 L726.1,582.4 L727.2,582.7 L728.3,583.1 L729.4,583.4 L730.6,583.7 L731.7,584.1 L732.8,584.4
		L733.9,584.7 L735.1,585.1 L736.2,585.4 L737.3,585.7 L738.4,586.1 L739.6,586.4 L740.7,586.7 L741.8,587.1
		L742.9,587.4 L744.1,587.7 L745.2,588.0 L746.3,588.4 L747.4,588.7 L748.6,589.0 L749.7,589.3 L750.8,589.6
		L751.9,590.0 L753.1,590.3 L754.2,590.6 L755.3,590.9 L756.4,591.2 L757.6,591.5 L758.7,591.8 L759.8,592.2
		L760.9,592.5 L762.1,592.8 L763.2,593.1 L764.3,593.4 L765.4,593.7 L766.6,594.0 L767.7,594.3 L768.8,594.6
		L769.9,594.9 L771.1,595.2 L772.2,595.5 L773.3,595.8 L774.4,596.1 L775.6,596.4 L776.7,596.7 L777.8,597.0
		L778.9,597.3 L780.1,597.6 L781.2,597.9 L782.3,598.2 L783.5,598.5 L784.6,598.8 L785.7,599.1 L786.8,599.4
		L788.0,599.6 L789.1,599.9 L790.2,600.2 L791.3,600.5 L792.5,600.8 L793.6,601.1 L794.7,601.3 L795.8,601.6
		L797.0,601.9 L798.1,602.2 L799.2,602.5 L800.3,602.7 L801.5,603.0 L802.6,603.3 L803.7,603.6 L804.8,603.9
		L806.0,604.1 L807.1,604.4 L808.2,604.7 L809.3,604.9 L810.5,605.2 L811.6,605.5 L812.7,605.8 L813.8,606.0
		L815.0,606.3 L816.1,606.6 L817.2,606.8 L818.3,607.1 L819.5,607.3 L820.6,607.6 L821.7,607.9 L822.8,608.1
		L824.0,608.4 L825.1,608.7 L826.2,608.9 L827.3,609.2 L828.5,609.4 L829.6,609.7 L830.7,609.9 L831.8,610.2
		L833.0,610.4 L834.1,610.7 L835.2,610.9 L836.3,611.2 L837.5,611.4 L838.6,611.7 L839.7,611.9 L840.8,612.2
		L842.0,612.4 L843.1,612.7 L844.2,612.9 L845.3,613.2 L846.5,613.4 L847.6,613.7 L848.7,613.9 L849.9,614.1
		L851.0,614.4 L852.1,614.6 L853.2,614.9 L854.4,615.1 L855.5,615.3 L856.6,615.6 L857.7,615.8 L858.9,616.0
		L860.0,616.3 L861.1,616.5 L862.2,616.7 L863.4,617.0 L864.5,617.2 L865.6,617.4 L866.7,617.7 L867.9,617.9
		L869.0,618.1 L870.1,618.3 L871.2,618.6 L872.4,618.8 L873.5,619.0 L874.6,619.2 L875.7,619.5 L876.9,619.7
		L878.0,619.9 L879.1,620.1 L880.2,620.3 L881.4,620.6 L882.5,620.8 L883.6,621.0 L884.7,621.2 L885.9,621.4
		L887.0,621.6 L888.1,621.9 L889.2,622.1 L890.4,622.3 L891.5,622.5 L892.6,622.7 L893.7,622.9 L894.9,623.1
		L896.0,623.3 L897.1,623.5 L898.2,623.8 L899.4,624.0 L900.5,624.2 L901.6,624.4 L902.7,624.6 L903.9,624.8
		L905.0,625.0 L906.1,625.2 L907.2,625.4 L908.4,625.6 L909.5,625.8 L910.6,626.0 L911.7,626.2 L912.9,626.4
		L914.0,626.6 L915.1,626.8 L916.2,627.0 L917.4,627.2 L918.5,627.4 L919.6,627.5 L920.8,627.7 L921.9,627.9
		L923.0,628.1 L924.1,628.3 L925.3,628.5 L926.4,628.7 L927.5,628.9 L928.6,629.1 L929.8,629.2 L930.9,629.4
		L932.0,629.6 L933.1,629.8 L934.3,630.0 L935.4,630.2 L936.5,630.4 L937.6,630.5 L938.8,630.7 L939.9,630.9
		L941.0,631.1 L942.1,631.3 L943.3,631.4 L944.4,631.6 L945.5,631.8 L946.6,632.0 L947.8,632.1 L948.9,632.3
		L950.0,632.5 L951.1,632.7 L952.3,632.8 L953.4,633.0 L954.5,633.2 L955.6,633.3 L956.8,633.5 L957.9,633.7
		L959.0,633.8 L960.1,634.0 L961.3,634.2 L962.4,634.3 L963.5,634.5 L964.6,634.7 L965.8,634.8 L966.9,635.0
		L968.0,635.2 L969.1,635.3 L970.3,635.5 L971.4,635.6 L972.5,635.8 L973.6,636.0 L974.8,636.1 L975.9,636.3
		L977.0,636.4 L978.1,636.6 L979.3,636.7 L980.4,636.9 L981.5,637.0 L982.6,637.2 L983.8,637.4 L984.9,637.5
		L986.0,637.7 L987.2,637.8 L988.3,638.0 L989.4,638.1 L990.5,638.2 L991.7,638.4 L992.8,638.5 L993.9,638.7
		L995.0,638.8 L996.2,639.0 L997.3,639.1 L998.4,639.3 L999.5,639.4 L1000.7,639.6 L1001.8,639.7 L1002.9,639.8
		L1004.0,640.0 L1005.2,640.1 L1006.3,640.3 L1007.4,640.4 L1008.5,640.5 L1009.7,640.7 L1010.8,640.8 L1011.9,640.9
		L1013.0,641.1 L1014.2,641.2 L1015.3,641.3 L1016.4,641.5 L1017.5,641.6 L1018.7,641.7 L1019.8,641.9 L1020.9,642.0
		L1022.0,642.1 L1023.2,642.3 L1024.3,642.4 L1025.4,642.5 L1026.5,642.6 L1027.7,642.8 L1028.8,642.9 L1029.9,643.0
		L1031.0,643.1 L1032.2,643.3 L1033.3,643.4 L1034.4,643.5 L1035.5,643.6 L1036.7,643.7 L1037.8,643.9 L1038.9,644.0
		L1040.0,644.1 L1041.2,644.2 L1042.3,644.3 L1043.4,644.5 L1044.5,644.6 L1045.7,644.7 L1046.8,644.8 L1047.9,644.9
		L1049.0,645.0 L1050.2,645.1 L1051.3,645.3 L1052.4,645.4 L1053.6,645.5 L1054.7,645.6 L1055.8,645.7 L1056.9,645.8
		L1058.1,645.9 L1059.2,646.0 L1060.3,646.1 L1061.4,646.2 L1062.6,646.3 L1063.7,646.4 L1064.8,646.5 L1065.9,646.7
		L1067.1,646.8 L1068.2,646.9 L1069.3,647.0 L1070.4,647.1 L1071.6,647.2 L1072.7,647.3 L1073.8,647.4 L1074.9,647.5
		L1076.1,647.6 L1077.2,647.7 L1078.3,647.8 L1079.4,647.8 L1080.6,647.9 L1081.7,648.0 L1082.8,648.1 L1083.9,648.2
		L1085.1,648.3 L1086.2,648.4 L1087.3,648.5 L1088.4,648.6 L1089.6,648.7 L1090.7,648.8 L1091.8,648.9 L1092.9,649.0
		L1094.1,649.0 L1095.2,649.1 L1096.3,649.2 L1097.4,649.3 L1098.6,649.4 L1099.7,649.5 L1100.8,649.6 L1101.9,649.6
		L1103.1,649.7 L1104.2,649.8 L1105.3,649.9 L1106.4,650.0 L1107.6,650.0 L1108.7,650.1 L1109.8,650.2 L1110.9,650.3
		L1112.1,650.4 L1113.2,650.4 L1114.3,650.5 L1115.4,650.6 L1116.6,650.7 L1117.7,650.7 L1118.8,650.8 L1120.0,650.9
		L1121.1,651.0 L1122.2,651.0 L1123.3,651.1 L1124.5,651.2 L1125.6,651.2 L1126.7,651.3 L1127.8,651.4 L1129.0,651.5
		L1130.1,651.5 L1131.2,651.6 L1132.3,651.7 L1133.5,651.7 L1134.6,651.8 L1135.7,651.9 L1136.8,651.9 L1138.0,652.0
		L1139.1,652.0 L1140.2,652.1 L1141.3,652.2 L1142.5,652.2 L1143.6,652.3 L1144.7,652.3 L1145.8,652.4 L1147.0,652.5
		L1148.1,652.5 L1149.2,652.6 L1150.3,652.6 L1151.5,652.7 L1152.6,652.8 L1153.7,652.8 L1154.8,652.9 L1156.0,652.9
		L1157.1,653.0 L1158.2,653.0 L1159.3,653.1 L1160.5,653.1 L1161.6,653.2 L1162.7,653.2 L1163.8,653.3 L1165.0,653.3
		L1166.1,653.4 L1167.2,653.4 L1168.3,653.5 L1169.5,653.5 L1170.6,653.6 L1171.7,653.6 L1172.8,653.6 L1174.0,653.7
		L1175.1,653.7 L1176.2,653.8 L1177.3,653.8 L1178.5,653.9 L1179.6,653.9 L1180.7,653.9 L1181.8,654.0 L1183.0,654.0
		L1184.1,654.1 L1185.2,654.1 L1186.3,654.1 L1187.5,654.2 L1188.6,654.2 L1189.7,654.2 L1190.9,654.3 L1192.0,654.3
		L1193.1,654.3 L1194.2,654.4 L1195.4,654.4 L1196.5,654.4 L1197.6,654.5 L1198.7,654.5 L1199.9,654.5 L1201.0,654.6
		L1202.1,654.6 L1203.2,654.6 L1204.4,654.6 L1205.5,654.7 L1206.6,654.7 L1207.7,654.7 L1208.9,654.7 L1210.0,654.8
		L1211.1,654.8 L1212.2,654.8 L1213.4,654.8 L1214.5,654.9 L1215.6,654.9 L1216.7,654.9 L1217.9,654.9 L1219.0,654.9
		L1220.1,655.0 L1221.2,655.0 L1222.4,655.0 L1223.5,655.0 L1224.6,655.0 L1225.7,655.1 L1226.9,655.1 L1228.0,655.1
		L1229.1,655.1 L1230.2,655.1 L1231.4,655.1 L1232.5,655.1 L1233.6,655.1 L1234.7,655.2 L1235.9,655.2 L1237.0,655.2
		L1238.1,655.2 L1239.2,655.2 L1240.4,655.2 L1241.5,655.2 L1242.6,655.2 L1243.7,655.2 L1244.9,655.2 L1246.0,655.2
		L1247.1,655.2 L1248.2,655.2 L1249.4,655.2 L1250.5,655.3 L1251.6,655.3 L1252.7,655.3 L1253.9,655.3 L1255.0,655.3
		 '/></g>
	</g>
<g fill="none" color="white" stroke="rgb(  0,   0, 255)" stroke-width="2.00" stroke-linecap="butt" stroke-linejoin="miter">
</g>
<g fill="none" color="black" stroke="currentColor" stroke-width="2.00" stroke-linecap="butt" stroke-linejoin="miter">
</g>
<g fill="none" color="black" stroke="black" stroke-width="1.00" stroke-linecap="butt" stroke-linejoin="miter">
</g>
<g fill="none" color="black" stroke="currentColor" stroke-width="1.00" stroke-linecap="butt" stroke-linejoin="miter">
	<path stroke='black'  d='M103.7,54.1 L103.7,684.0 L1255.0,684.0 L1255.0,54.1 L103.7,54.1 Z  '/></g>
<g fill="none" color="black" stroke="currentColor" stroke-width="1.00" stroke-linecap="butt" stroke-linejoin="miter">
</g>
</g>
</svg>

