<?xml version="1.0" encoding="utf-8"  standalone="no"?>
<svg 
 width="1280" height="720"
 viewBox="0 0 1280 720"
 xmlns="http://www.w3.org/2000/svg"
 xmlns:xlink="http://www.w3.org/1999/xlink"
>

<title>Gnuplot</title>
<desc>Produced by GNUPLOT 5.0 patchlevel 6 </desc>

<g id="gnuplot_canvas">

<rect x="0" y="0" width="1280" height="720" fill="none"/>
<defs>

	<circle id='gpDot' r='0.5' stroke-width='0.5'/>
	<path id='gpPt0' stroke-width='0.222' stroke='currentColor' d='M-1,0 h2 M0,-1 v2'/>
	<path id='gpPt1' stroke-width='0.222' stroke='currentColor' d='M-1,-1 L1,1 M1,-1 L-1,1'/>
	<path id='gpPt2' stroke-width='0.222' stroke='currentColor' d='M-1,0 L1,0 M0,-1 L0,1 M-1,-1 L1,1 M-1,1 L1,-1'/>
	<rect id='gpPt3' stroke-width='0.222' stroke='currentColor' x='-1' y='-1' width='2' height='2'/>
	<rect id='gpPt4' stroke-width='0.222' stroke='currentColor' fill='currentColor' x='-1' y='-1' width='2' height='2'/>
	<circle id='gpPt5' stroke-width='0.222' stroke='currentColor' cx='0' cy='0' r='1'/>
	<use xlink:href='#gpPt5' id='gpPt6' fill='currentColor' stroke='none'/>
	<path id='gpPt7' stroke-width='0.222' stroke='currentColor' d='M0,-1.33 L-1.33,0.67 L1.33,0.67 z'/>
	<use xlink:href='#gpPt7' id='gpPt8' fill='currentColor' stroke='none'/>
	<use xlink:href='#gpPt7' id='gpPt9' stroke='currentColor' transform='rotate(180)'/>
	<use xlink:href='#gpPt9' id='gpPt10' fill='currentColor' stroke='none'/>
	<use xlink:href='#gpPt3' id='gpPt11' stroke='currentColor' transform='rotate(45)'/>
	<use xlink:href='#gpPt11' id='gpPt12' fill='currentColor' stroke='none'/>
	<path id='gpPt13' stroke-width='0.222' stroke='currentColor' d='M0,1.330 L1.265,0.411 L0.782,-1.067 L-0.782,-1.076 L-1.265,0.411 z'/>
	<use xlink:href='#gpPt13' id='gpPt14' fill='currentColor' stroke='none'/>
	<filter id='textbox' filterUnits='objectBoundingBox' x='0' y='0' height='1' width='1'>
	  <feFlood flood-color='white' flood-opacity='1' result='bgnd'/>
	  <feComposite in='SourceGraphic' in2='bgnd' operator='atop'/>
	</filter>
	<filter id='greybox' filterUnits='objectBoundingBox' x='0' y='0' height='1' width='1'>
	  <feFlood flood-color='lightgrey' flood-opacity='1' result='grey'/>
	  <feComposite in='SourceGraphic' in2='grey' operator='atop'/>
	</filter>
</defs>
<g fill="none" color="white" stroke="currentColor" stroke-width="1.00" stroke-linecap="butt" stroke-linejoin="miter">
</g>
<g fill="none" color="black" stroke="currentColor" stroke-width="1.00" stroke-linecap="butt" stroke-linejoin="miter">
	<path stroke='black'  d='M103.7,684.0 L112.7,684.0 M1255.0,684.0 L1246.0,684.0  '/>	<g transform="translate(95.4,687.9)" stroke="none" fill="black" font-family="Arial" font-size="12.00"  text-anchor="end">
		<text><tspan font-family="Arial" > 0.001208</tspan></text>
	</g>
</g>
<g fill="none" color="black" stroke="currentColor" stroke-width="1.00" stroke-linecap="butt" stroke-linejoin="miter">
	<path stroke='black'  d='M103.7,369.0 L112.7,369.0 M1255.0,369.0 L1246.0,369.0  '/>	<g transform="translate(95.4,372.9)" stroke="none" fill="black" font-family="Arial" font-size="12.00"  text-anchor="end">
		<text><tspan font-family="Arial" > 0.0358175</tspan></text>
	</g>
</g>
<g fill="none" color="black" stroke="currentColor" stroke-width="1.00" stroke-linecap="butt" stroke-linejoin="miter">
	<path stroke='black'  d='M103.7,54.1 L112.7,54.1 M1255.0,54.1 L1246.0,54.1  '/>	<g transform="translate(95.4,58.0)" stroke="none" fill="black" font-family="Arial" font-size="12.00"  text-anchor="end">
		<text><tspan font-family="Arial" > 1.062</tspan></text>
	</g>
</g>
<g fill="none" color="black" stroke="currentColor" stroke-width="1.00" stroke-linecap="butt" stroke-linejoin="miter">
	<path stroke='black'  d='M103.7,684.0 L103.7,675.0 M103.7,54.1 L103.7,63.1  '/>	<g transform="translate(103.7,705.9)" stroke="none" fill="black" font-family="Arial" font-size="12.00"  text-anchor="middle">
		<text><tspan font-family="Arial" > 0</tspan></text>
	</g>
</g>
<g fill="none" color="black" stroke="currentColor" stroke-width="1.00" stroke-linecap="butt" stroke-linejoin="miter">
	<path stroke='black'  d='M679.4,684.0 L679.4,675.0 M679.4,54.1 L679.4,63.1  '/>	<g transform="translate(679.4,705.9)" stroke="none" fill="black" font-family="Arial" font-size="12.00"  text-anchor="middle">
		<text><tspan font-family="Arial" >pi/2</tspan></text>
	</g>
</g>
<g fill="none" color="black" stroke="currentColor" stroke-width="1.00" stroke-linecap="butt" stroke-linejoin="miter">
	<path stroke='black'  d='M1255.0,684.0 L1255.0,675.0 M1255.0,54.1 L1255.0,63.1  '/>	<g transform="translate(1255.0,705.9)" stroke="none" fill="black" font-family="Arial" font-size="12.00"  text-anchor="middle">
		<text><tspan font-family="Arial" >pi</tspan></text>
	</g>
</g>
<g fill="none" color="black" stroke="currentColor" stroke-width="1.00" stroke-linecap="butt" stroke-linejoin="miter">
</g>
<g fill="none" color="black" stroke="currentColor" stroke-width="1.00" stroke-linecap="butt" stroke-linejoin="miter">
	<path stroke='black'  d='M103.7,54.1 L103.7,684.0 L1255.0,684.0 L1255.0,54.1 L103.7,54.1 Z  '/></g>
<g fill="none" color="black" stroke="currentColor" stroke-width="1.00" stroke-linecap="butt" stroke-linejoin="miter">
	<g transform="translate(679.3,31.0)" stroke="none" fill="black" font-family="Arial" font-size="12.00"  text-anchor="middle">
		<text><tspan font-family="Arial" >Material 22, with 4 components</tspan></text>
	</g>
</g>
	<g id="gnuplot_plot_1" ><title>scattering function</title>
<g fill="none" color="black" stroke="currentColor" stroke-width="1.00" stroke-linecap="butt" stroke-linejoin="miter">
	<g transform="translate(1187.9,76.0)" stroke="none" fill="black" font-family="Arial" font-size="12.00"  text-anchor="end">
		<text><tspan font-family="Arial" >scattering function</tspan></text>
	</g>
</g>
<g fill="none" color="black" stroke="currentColor" stroke-width="1.00" stroke-linecap="butt" stroke-linejoin="miter">
	<use xlink:href='#gpPt5' transform='translate(103.7,106.3) scale(2.25)' color='rgb(255,   0,   0)'/>
	<use xlink:href='#gpPt5' transform='translate(104.3,107.1) scale(2.25)' color='rgb(255,   0,   0)'/>
	<use xlink:href='#gpPt5' transform='translate(105.0,109.4) scale(2.25)' color='rgb(255,   0,   0)'/>
	<use xlink:href='#gpPt5' transform='translate(105.6,113.2) scale(2.25)' color='rgb(255,   0,   0)'/>
	<use xlink:href='#gpPt5' transform='translate(106.3,118.3) scale(2.25)' color='rgb(255,   0,   0)'/>
	<use xlink:href='#gpPt5' transform='translate(106.9,124.5) scale(2.25)' color='rgb(255,   0,   0)'/>
	<use xlink:href='#gpPt5' transform='translate(107.5,131.6) scale(2.25)' color='rgb(255,   0,   0)'/>
	<use xlink:href='#gpPt5' transform='translate(108.2,139.2) scale(2.25)' color='rgb(255,   0,   0)'/>
	<use xlink:href='#gpPt5' transform='translate(108.8,146.9) scale(2.25)' color='rgb(255,   0,   0)'/>
	<use xlink:href='#gpPt5' transform='translate(109.5,154.7) scale(2.25)' color='rgb(255,   0,   0)'/>
	<use xlink:href='#gpPt5' transform='translate(110.1,162.2) scale(2.25)' color='rgb(255,   0,   0)'/>
	<use xlink:href='#gpPt5' transform='translate(110.7,169.3) scale(2.25)' color='rgb(255,   0,   0)'/>
	<use xlink:href='#gpPt5' transform='translate(111.4,175.9) scale(2.25)' color='rgb(255,   0,   0)'/>
	<use xlink:href='#gpPt5' transform='translate(112.0,182.1) scale(2.25)' color='rgb(255,   0,   0)'/>
	<use xlink:href='#gpPt5' transform='translate(112.7,187.8) scale(2.25)' color='rgb(255,   0,   0)'/>
	<use xlink:href='#gpPt5' transform='translate(113.3,193.2) scale(2.25)' color='rgb(255,   0,   0)'/>
	<use xlink:href='#gpPt5' transform='translate(113.9,198.3) scale(2.25)' color='rgb(255,   0,   0)'/>
	<use xlink:href='#gpPt5' transform='translate(114.6,203.1) scale(2.25)' color='rgb(255,   0,   0)'/>
	<use xlink:href='#gpPt5' transform='translate(115.2,207.7) scale(2.25)' color='rgb(255,   0,   0)'/>
	<use xlink:href='#gpPt5' transform='translate(115.9,212.0) scale(2.25)' color='rgb(255,   0,   0)'/>
	<use xlink:href='#gpPt5' transform='translate(116.5,216.0) scale(2.25)' color='rgb(255,   0,   0)'/>
	<use xlink:href='#gpPt5' transform='translate(122.9,245.9) scale(2.25)' color='rgb(255,   0,   0)'/>
	<use xlink:href='#gpPt5' transform='translate(129.3,263.4) scale(2.25)' color='rgb(255,   0,   0)'/>
	<use xlink:href='#gpPt5' transform='translate(135.7,274.6) scale(2.25)' color='rgb(255,   0,   0)'/>
	<use xlink:href='#gpPt5' transform='translate(142.1,282.5) scale(2.25)' color='rgb(255,   0,   0)'/>
	<use xlink:href='#gpPt5' transform='translate(154.9,294.0) scale(2.25)' color='rgb(255,   0,   0)'/>
	<use xlink:href='#gpPt5' transform='translate(167.7,303.1) scale(2.25)' color='rgb(255,   0,   0)'/>
	<use xlink:href='#gpPt5' transform='translate(180.5,311.7) scale(2.25)' color='rgb(255,   0,   0)'/>
	<use xlink:href='#gpPt5' transform='translate(193.2,320.2) scale(2.25)' color='rgb(255,   0,   0)'/>
	<use xlink:href='#gpPt5' transform='translate(206.0,328.8) scale(2.25)' color='rgb(255,   0,   0)'/>
	<use xlink:href='#gpPt5' transform='translate(218.8,337.6) scale(2.25)' color='rgb(255,   0,   0)'/>
	<use xlink:href='#gpPt5' transform='translate(231.6,346.5) scale(2.25)' color='rgb(255,   0,   0)'/>
	<use xlink:href='#gpPt5' transform='translate(244.4,355.6) scale(2.25)' color='rgb(255,   0,   0)'/>
	<use xlink:href='#gpPt5' transform='translate(257.2,364.8) scale(2.25)' color='rgb(255,   0,   0)'/>
	<use xlink:href='#gpPt5' transform='translate(270.0,374.2) scale(2.25)' color='rgb(255,   0,   0)'/>
	<use xlink:href='#gpPt5' transform='translate(282.8,383.6) scale(2.25)' color='rgb(255,   0,   0)'/>
	<use xlink:href='#gpPt5' transform='translate(295.6,393.1) scale(2.25)' color='rgb(255,   0,   0)'/>
	<use xlink:href='#gpPt5' transform='translate(308.4,402.6) scale(2.25)' color='rgb(255,   0,   0)'/>
	<use xlink:href='#gpPt5' transform='translate(321.2,412.1) scale(2.25)' color='rgb(255,   0,   0)'/>
	<use xlink:href='#gpPt5' transform='translate(334.0,421.6) scale(2.25)' color='rgb(255,   0,   0)'/>
	<use xlink:href='#gpPt5' transform='translate(346.8,431.0) scale(2.25)' color='rgb(255,   0,   0)'/>
	<use xlink:href='#gpPt5' transform='translate(359.5,440.5) scale(2.25)' color='rgb(255,   0,   0)'/>
	<use xlink:href='#gpPt5' transform='translate(372.3,449.9) scale(2.25)' color='rgb(255,   0,   0)'/>
	<use xlink:href='#gpPt5' transform='translate(385.1,459.2) scale(2.25)' color='rgb(255,   0,   0)'/>
	<use xlink:href='#gpPt5' transform='translate(397.9,468.5) scale(2.25)' color='rgb(255,   0,   0)'/>
	<use xlink:href='#gpPt5' transform='translate(410.7,477.7) scale(2.25)' color='rgb(255,   0,   0)'/>
	<use xlink:href='#gpPt5' transform='translate(423.5,486.8) scale(2.25)' color='rgb(255,   0,   0)'/>
	<use xlink:href='#gpPt5' transform='translate(436.3,495.8) scale(2.25)' color='rgb(255,   0,   0)'/>
	<use xlink:href='#gpPt5' transform='translate(449.1,504.7) scale(2.25)' color='rgb(255,   0,   0)'/>
	<use xlink:href='#gpPt5' transform='translate(461.9,513.4) scale(2.25)' color='rgb(255,   0,   0)'/>
	<use xlink:href='#gpPt5' transform='translate(474.7,522.0) scale(2.25)' color='rgb(255,   0,   0)'/>
	<use xlink:href='#gpPt5' transform='translate(487.5,530.5) scale(2.25)' color='rgb(255,   0,   0)'/>
	<use xlink:href='#gpPt5' transform='translate(500.3,538.9) scale(2.25)' color='rgb(255,   0,   0)'/>
	<use xlink:href='#gpPt5' transform='translate(513.1,547.1) scale(2.25)' color='rgb(255,   0,   0)'/>
	<use xlink:href='#gpPt5' transform='translate(525.8,555.2) scale(2.25)' color='rgb(255,   0,   0)'/>
	<use xlink:href='#gpPt5' transform='translate(538.6,563.1) scale(2.25)' color='rgb(255,   0,   0)'/>
	<use xlink:href='#gpPt5' transform='translate(551.4,570.8) scale(2.25)' color='rgb(255,   0,   0)'/>
	<use xlink:href='#gpPt5' transform='translate(564.2,578.4) scale(2.25)' color='rgb(255,   0,   0)'/>
	<use xlink:href='#gpPt5' transform='translate(577.0,585.8) scale(2.25)' color='rgb(255,   0,   0)'/>
	<use xlink:href='#gpPt5' transform='translate(589.8,593.0) scale(2.25)' color='rgb(255,   0,   0)'/>
	<use xlink:href='#gpPt5' transform='translate(602.6,599.9) scale(2.25)' color='rgb(255,   0,   0)'/>
	<use xlink:href='#gpPt5' transform='translate(615.4,606.7) scale(2.25)' color='rgb(255,   0,   0)'/>
	<use xlink:href='#gpPt5' transform='translate(628.2,613.1) scale(2.25)' color='rgb(255,   0,   0)'/>
	<use xlink:href='#gpPt5' transform='translate(641.0,619.4) scale(2.25)' color='rgb(255,   0,   0)'/>
	<use xlink:href='#gpPt5' transform='translate(653.8,625.4) scale(2.25)' color='rgb(255,   0,   0)'/>
	<use xlink:href='#gpPt5' transform='translate(666.6,631.3) scale(2.25)' color='rgb(255,   0,   0)'/>
	<use xlink:href='#gpPt5' transform='translate(679.4,636.8) scale(2.25)' color='rgb(255,   0,   0)'/>
	<use xlink:href='#gpPt5' transform='translate(692.1,642.0) scale(2.25)' color='rgb(255,   0,   0)'/>
	<use xlink:href='#gpPt5' transform='translate(704.9,647.0) scale(2.25)' color='rgb(255,   0,   0)'/>
	<use xlink:href='#gpPt5' transform='translate(717.7,651.6) scale(2.25)' color='rgb(255,   0,   0)'/>
	<use xlink:href='#gpPt5' transform='translate(730.5,656.0) scale(2.25)' color='rgb(255,   0,   0)'/>
	<use xlink:href='#gpPt5' transform='translate(743.3,660.0) scale(2.25)' color='rgb(255,   0,   0)'/>
	<use xlink:href='#gpPt5' transform='translate(756.1,663.8) scale(2.25)' color='rgb(255,   0,   0)'/>
	<use xlink:href='#gpPt5' transform='translate(768.9,667.2) scale(2.25)' color='rgb(255,   0,   0)'/>
	<use xlink:href='#gpPt5' transform='translate(781.7,670.3) scale(2.25)' color='rgb(255,   0,   0)'/>
	<use xlink:href='#gpPt5' transform='translate(794.5,673.1) scale(2.25)' color='rgb(255,   0,   0)'/>
	<use xlink:href='#gpPt5' transform='translate(807.3,675.6) scale(2.25)' color='rgb(255,   0,   0)'/>
	<use xlink:href='#gpPt5' transform='translate(820.1,677.7) scale(2.25)' color='rgb(255,   0,   0)'/>
	<use xlink:href='#gpPt5' transform='translate(832.9,679.4) scale(2.25)' color='rgb(255,   0,   0)'/>
	<use xlink:href='#gpPt5' transform='translate(845.6,681.0) scale(2.25)' color='rgb(255,   0,   0)'/>
	<use xlink:href='#gpPt5' transform='translate(858.4,682.2) scale(2.25)' color='rgb(255,   0,   0)'/>
	<use xlink:href='#gpPt5' transform='translate(871.2,683.1) scale(2.25)' color='rgb(255,   0,   0)'/>
	<use xlink:href='#gpPt5' transform='translate(884.0,683.6) scale(2.25)' color='rgb(255,   0,   0)'/>
	<use xlink:href='#gpPt5' transform='translate(896.8,683.9) scale(2.25)' color='rgb(255,   0,   0)'/>
	<use xlink:href='#gpPt5' transform='translate(909.6,684.0) scale(2.25)' color='rgb(255,   0,   0)'/>
	<use xlink:href='#gpPt5' transform='translate(922.4,683.8) scale(2.25)' color='rgb(255,   0,   0)'/>
	<use xlink:href='#gpPt5' transform='translate(935.2,683.3) scale(2.25)' color='rgb(255,   0,   0)'/>
	<use xlink:href='#gpPt5' transform='translate(948.0,682.6) scale(2.25)' color='rgb(255,   0,   0)'/>
	<use xlink:href='#gpPt5' transform='translate(960.8,681.6) scale(2.25)' color='rgb(255,   0,   0)'/>
	<use xlink:href='#gpPt5' transform='translate(973.6,680.5) scale(2.25)' color='rgb(255,   0,   0)'/>
	<use xlink:href='#gpPt5' transform='translate(986.4,679.1) scale(2.25)' color='rgb(255,   0,   0)'/>
	<use xlink:href='#gpPt5' transform='translate(999.2,677.5) scale(2.25)' color='rgb(255,   0,   0)'/>
	<use xlink:href='#gpPt5' transform='translate(1011.9,675.8) scale(2.25)' color='rgb(255,   0,   0)'/>
	<use xlink:href='#gpPt5' transform='translate(1024.7,673.9) scale(2.25)' color='rgb(255,   0,   0)'/>
	<use xlink:href='#gpPt5' transform='translate(1037.5,671.9) scale(2.25)' color='rgb(255,   0,   0)'/>
	<use xlink:href='#gpPt5' transform='translate(1050.3,669.8) scale(2.25)' color='rgb(255,   0,   0)'/>
	<use xlink:href='#gpPt5' transform='translate(1063.1,667.5) scale(2.25)' color='rgb(255,   0,   0)'/>
	<use xlink:href='#gpPt5' transform='translate(1075.9,665.3) scale(2.25)' color='rgb(255,   0,   0)'/>
	<use xlink:href='#gpPt5' transform='translate(1088.7,663.0) scale(2.25)' color='rgb(255,   0,   0)'/>
	<use xlink:href='#gpPt5' transform='translate(1101.5,660.8) scale(2.25)' color='rgb(255,   0,   0)'/>
	<use xlink:href='#gpPt5' transform='translate(1114.3,658.7) scale(2.25)' color='rgb(255,   0,   0)'/>
	<use xlink:href='#gpPt5' transform='translate(1127.1,656.9) scale(2.25)' color='rgb(255,   0,   0)'/>
	<use xlink:href='#gpPt5' transform='translate(1139.9,655.5) scale(2.25)' color='rgb(255,   0,   0)'/>
	<use xlink:href='#gpPt5' transform='translate(1152.7,654.4) scale(2.25)' color='rgb(255,   0,   0)'/>
	<use xlink:href='#gpPt5' transform='translate(1165.5,653.5) scale(2.25)' color='rgb(255,   0,   0)'/>
	<use xlink:href='#gpPt5' transform='translate(1178.2,652.6) scale(2.25)' color='rgb(255,   0,   0)'/>
	<use xlink:href='#gpPt5' transform='translate(1191.0,651.4) scale(2.25)' color='rgb(255,   0,   0)'/>
	<use xlink:href='#gpPt5' transform='translate(1203.8,649.7) scale(2.25)' color='rgb(255,   0,   0)'/>
	<use xlink:href='#gpPt5' transform='translate(1216.6,647.5) scale(2.25)' color='rgb(255,   0,   0)'/>
	<use xlink:href='#gpPt5' transform='translate(1229.4,645.4) scale(2.25)' color='rgb(255,   0,   0)'/>
	<use xlink:href='#gpPt5' transform='translate(1242.2,644.1) scale(2.25)' color='rgb(255,   0,   0)'/>
	<use xlink:href='#gpPt5' transform='translate(1255.0,643.1) scale(2.25)' color='rgb(255,   0,   0)'/>
	<use xlink:href='#gpPt5' transform='translate(1217.3,72.1) scale(2.25)' color='rgb(255,   0,   0)'/>
</g>
	</g>
	<g id="gnuplot_plot_2" ><title>gnuplot_plot_2</title>
<g fill="none" color="black" stroke="currentColor" stroke-width="1.00" stroke-linecap="butt" stroke-linejoin="miter">
	<use xlink:href='#gpPt5' transform='translate(103.7,90.5) scale(2.25)' color='rgb(  0, 100,   0)'/>
	<use xlink:href='#gpPt5' transform='translate(104.3,91.4) scale(2.25)' color='rgb(  0, 100,   0)'/>
	<use xlink:href='#gpPt5' transform='translate(105.0,94.2) scale(2.25)' color='rgb(  0, 100,   0)'/>
	<use xlink:href='#gpPt5' transform='translate(105.6,98.6) scale(2.25)' color='rgb(  0, 100,   0)'/>
	<use xlink:href='#gpPt5' transform='translate(106.3,104.6) scale(2.25)' color='rgb(  0, 100,   0)'/>
	<use xlink:href='#gpPt5' transform='translate(106.9,111.8) scale(2.25)' color='rgb(  0, 100,   0)'/>
	<use xlink:href='#gpPt5' transform='translate(107.5,119.7) scale(2.25)' color='rgb(  0, 100,   0)'/>
	<use xlink:href='#gpPt5' transform='translate(108.2,128.2) scale(2.25)' color='rgb(  0, 100,   0)'/>
	<use xlink:href='#gpPt5' transform='translate(108.8,136.7) scale(2.25)' color='rgb(  0, 100,   0)'/>
	<use xlink:href='#gpPt5' transform='translate(109.5,144.9) scale(2.25)' color='rgb(  0, 100,   0)'/>
	<use xlink:href='#gpPt5' transform='translate(110.1,152.7) scale(2.25)' color='rgb(  0, 100,   0)'/>
	<use xlink:href='#gpPt5' transform='translate(110.7,159.9) scale(2.25)' color='rgb(  0, 100,   0)'/>
	<use xlink:href='#gpPt5' transform='translate(111.4,166.6) scale(2.25)' color='rgb(  0, 100,   0)'/>
	<use xlink:href='#gpPt5' transform='translate(112.0,172.7) scale(2.25)' color='rgb(  0, 100,   0)'/>
	<use xlink:href='#gpPt5' transform='translate(112.7,178.5) scale(2.25)' color='rgb(  0, 100,   0)'/>
	<use xlink:href='#gpPt5' transform='translate(113.3,183.9) scale(2.25)' color='rgb(  0, 100,   0)'/>
	<use xlink:href='#gpPt5' transform='translate(113.9,189.0) scale(2.25)' color='rgb(  0, 100,   0)'/>
	<use xlink:href='#gpPt5' transform='translate(114.6,193.8) scale(2.25)' color='rgb(  0, 100,   0)'/>
	<use xlink:href='#gpPt5' transform='translate(115.2,198.3) scale(2.25)' color='rgb(  0, 100,   0)'/>
	<use xlink:href='#gpPt5' transform='translate(115.9,202.5) scale(2.25)' color='rgb(  0, 100,   0)'/>
	<use xlink:href='#gpPt5' transform='translate(116.5,206.4) scale(2.25)' color='rgb(  0, 100,   0)'/>
	<use xlink:href='#gpPt5' transform='translate(122.9,234.8) scale(2.25)' color='rgb(  0, 100,   0)'/>
	<use xlink:href='#gpPt5' transform='translate(129.3,250.9) scale(2.25)' color='rgb(  0, 100,   0)'/>
	<use xlink:href='#gpPt5' transform='translate(135.7,261.2) scale(2.25)' color='rgb(  0, 100,   0)'/>
	<use xlink:href='#gpPt5' transform='translate(142.1,268.5) scale(2.25)' color='rgb(  0, 100,   0)'/>
	<use xlink:href='#gpPt5' transform='translate(154.9,279.4) scale(2.25)' color='rgb(  0, 100,   0)'/>
	<use xlink:href='#gpPt5' transform='translate(167.7,288.5) scale(2.25)' color='rgb(  0, 100,   0)'/>
	<use xlink:href='#gpPt5' transform='translate(180.5,297.2) scale(2.25)' color='rgb(  0, 100,   0)'/>
	<use xlink:href='#gpPt5' transform='translate(193.2,305.9) scale(2.25)' color='rgb(  0, 100,   0)'/>
	<use xlink:href='#gpPt5' transform='translate(206.0,314.7) scale(2.25)' color='rgb(  0, 100,   0)'/>
	<use xlink:href='#gpPt5' transform='translate(218.8,323.8) scale(2.25)' color='rgb(  0, 100,   0)'/>
	<use xlink:href='#gpPt5' transform='translate(231.6,333.0) scale(2.25)' color='rgb(  0, 100,   0)'/>
	<use xlink:href='#gpPt5' transform='translate(244.4,342.4) scale(2.25)' color='rgb(  0, 100,   0)'/>
	<use xlink:href='#gpPt5' transform='translate(257.2,351.9) scale(2.25)' color='rgb(  0, 100,   0)'/>
	<use xlink:href='#gpPt5' transform='translate(270.0,361.4) scale(2.25)' color='rgb(  0, 100,   0)'/>
	<use xlink:href='#gpPt5' transform='translate(282.8,371.1) scale(2.25)' color='rgb(  0, 100,   0)'/>
	<use xlink:href='#gpPt5' transform='translate(295.6,380.8) scale(2.25)' color='rgb(  0, 100,   0)'/>
	<use xlink:href='#gpPt5' transform='translate(308.4,390.5) scale(2.25)' color='rgb(  0, 100,   0)'/>
	<use xlink:href='#gpPt5' transform='translate(321.2,400.3) scale(2.25)' color='rgb(  0, 100,   0)'/>
	<use xlink:href='#gpPt5' transform='translate(334.0,410.0) scale(2.25)' color='rgb(  0, 100,   0)'/>
	<use xlink:href='#gpPt5' transform='translate(346.8,419.6) scale(2.25)' color='rgb(  0, 100,   0)'/>
	<use xlink:href='#gpPt5' transform='translate(359.5,429.2) scale(2.25)' color='rgb(  0, 100,   0)'/>
	<use xlink:href='#gpPt5' transform='translate(372.3,438.9) scale(2.25)' color='rgb(  0, 100,   0)'/>
	<use xlink:href='#gpPt5' transform='translate(385.1,448.3) scale(2.25)' color='rgb(  0, 100,   0)'/>
	<use xlink:href='#gpPt5' transform='translate(397.9,457.7) scale(2.25)' color='rgb(  0, 100,   0)'/>
	<use xlink:href='#gpPt5' transform='translate(410.7,467.1) scale(2.25)' color='rgb(  0, 100,   0)'/>
	<use xlink:href='#gpPt5' transform='translate(423.5,476.3) scale(2.25)' color='rgb(  0, 100,   0)'/>
	<use xlink:href='#gpPt5' transform='translate(436.3,485.4) scale(2.25)' color='rgb(  0, 100,   0)'/>
	<use xlink:href='#gpPt5' transform='translate(449.1,494.4) scale(2.25)' color='rgb(  0, 100,   0)'/>
	<use xlink:href='#gpPt5' transform='translate(461.9,503.3) scale(2.25)' color='rgb(  0, 100,   0)'/>
	<use xlink:href='#gpPt5' transform='translate(474.7,512.0) scale(2.25)' color='rgb(  0, 100,   0)'/>
	<use xlink:href='#gpPt5' transform='translate(487.5,520.6) scale(2.25)' color='rgb(  0, 100,   0)'/>
	<use xlink:href='#gpPt5' transform='translate(500.3,529.1) scale(2.25)' color='rgb(  0, 100,   0)'/>
	<use xlink:href='#gpPt5' transform='translate(513.1,537.4) scale(2.25)' color='rgb(  0, 100,   0)'/>
	<use xlink:href='#gpPt5' transform='translate(525.8,545.5) scale(2.25)' color='rgb(  0, 100,   0)'/>
	<use xlink:href='#gpPt5' transform='translate(538.6,553.5) scale(2.25)' color='rgb(  0, 100,   0)'/>
	<use xlink:href='#gpPt5' transform='translate(551.4,561.3) scale(2.25)' color='rgb(  0, 100,   0)'/>
	<use xlink:href='#gpPt5' transform='translate(564.2,568.9) scale(2.25)' color='rgb(  0, 100,   0)'/>
	<use xlink:href='#gpPt5' transform='translate(577.0,576.3) scale(2.25)' color='rgb(  0, 100,   0)'/>
	<use xlink:href='#gpPt5' transform='translate(589.8,583.5) scale(2.25)' color='rgb(  0, 100,   0)'/>
	<use xlink:href='#gpPt5' transform='translate(602.6,590.5) scale(2.25)' color='rgb(  0, 100,   0)'/>
	<use xlink:href='#gpPt5' transform='translate(615.4,597.3) scale(2.25)' color='rgb(  0, 100,   0)'/>
	<use xlink:href='#gpPt5' transform='translate(628.2,603.9) scale(2.25)' color='rgb(  0, 100,   0)'/>
	<use xlink:href='#gpPt5' transform='translate(641.0,610.2) scale(2.25)' color='rgb(  0, 100,   0)'/>
	<use xlink:href='#gpPt5' transform='translate(653.8,616.3) scale(2.25)' color='rgb(  0, 100,   0)'/>
	<use xlink:href='#gpPt5' transform='translate(666.6,622.1) scale(2.25)' color='rgb(  0, 100,   0)'/>
	<use xlink:href='#gpPt5' transform='translate(679.4,627.6) scale(2.25)' color='rgb(  0, 100,   0)'/>
	<use xlink:href='#gpPt5' transform='translate(692.1,632.9) scale(2.25)' color='rgb(  0, 100,   0)'/>
	<use xlink:href='#gpPt5' transform='translate(704.9,637.9) scale(2.25)' color='rgb(  0, 100,   0)'/>
	<use xlink:href='#gpPt5' transform='translate(717.7,642.6) scale(2.25)' color='rgb(  0, 100,   0)'/>
	<use xlink:href='#gpPt5' transform='translate(730.5,646.9) scale(2.25)' color='rgb(  0, 100,   0)'/>
	<use xlink:href='#gpPt5' transform='translate(743.3,651.0) scale(2.25)' color='rgb(  0, 100,   0)'/>
	<use xlink:href='#gpPt5' transform='translate(756.1,654.7) scale(2.25)' color='rgb(  0, 100,   0)'/>
	<use xlink:href='#gpPt5' transform='translate(768.9,658.2) scale(2.25)' color='rgb(  0, 100,   0)'/>
	<use xlink:href='#gpPt5' transform='translate(781.7,661.3) scale(2.25)' color='rgb(  0, 100,   0)'/>
	<use xlink:href='#gpPt5' transform='translate(794.5,664.1) scale(2.25)' color='rgb(  0, 100,   0)'/>
	<use xlink:href='#gpPt5' transform='translate(807.3,666.6) scale(2.25)' color='rgb(  0, 100,   0)'/>
	<use xlink:href='#gpPt5' transform='translate(820.1,668.7) scale(2.25)' color='rgb(  0, 100,   0)'/>
	<use xlink:href='#gpPt5' transform='translate(832.9,670.6) scale(2.25)' color='rgb(  0, 100,   0)'/>
	<use xlink:href='#gpPt5' transform='translate(845.6,672.1) scale(2.25)' color='rgb(  0, 100,   0)'/>
	<use xlink:href='#gpPt5' transform='translate(858.4,673.3) scale(2.25)' color='rgb(  0, 100,   0)'/>
	<use xlink:href='#gpPt5' transform='translate(871.2,674.2) scale(2.25)' color='rgb(  0, 100,   0)'/>
	<use xlink:href='#gpPt5' transform='translate(884.0,674.8) scale(2.25)' color='rgb(  0, 100,   0)'/>
	<use xlink:href='#gpPt5' transform='translate(896.8,675.1) scale(2.25)' color='rgb(  0, 100,   0)'/>
	<use xlink:href='#gpPt5' transform='translate(909.6,675.1) scale(2.25)' color='rgb(  0, 100,   0)'/>
	<use xlink:href='#gpPt5' transform='translate(922.4,674.9) scale(2.25)' color='rgb(  0, 100,   0)'/>
	<use xlink:href='#gpPt5' transform='translate(935.2,674.4) scale(2.25)' color='rgb(  0, 100,   0)'/>
	<use xlink:href='#gpPt5' transform='translate(948.0,673.5) scale(2.25)' color='rgb(  0, 100,   0)'/>
	<use xlink:href='#gpPt5' transform='translate(960.8,672.6) scale(2.25)' color='rgb(  0, 100,   0)'/>
	<use xlink:href='#gpPt5' transform='translate(973.6,671.3) scale(2.25)' color='rgb(  0, 100,   0)'/>
	<use xlink:href='#gpPt5' transform='translate(986.4,669.9) scale(2.25)' color='rgb(  0, 100,   0)'/>
	<use xlink:href='#gpPt5' transform='translate(999.2,668.2) scale(2.25)' color='rgb(  0, 100,   0)'/>
	<use xlink:href='#gpPt5' transform='translate(1011.9,666.3) scale(2.25)' color='rgb(  0, 100,   0)'/>
	<use xlink:href='#gpPt5' transform='translate(1024.7,664.3) scale(2.25)' color='rgb(  0, 100,   0)'/>
	<use xlink:href='#gpPt5' transform='translate(1037.5,662.2) scale(2.25)' color='rgb(  0, 100,   0)'/>
	<use xlink:href='#gpPt5' transform='translate(1050.3,659.9) scale(2.25)' color='rgb(  0, 100,   0)'/>
	<use xlink:href='#gpPt5' transform='translate(1063.1,657.7) scale(2.25)' color='rgb(  0, 100,   0)'/>
	<use xlink:href='#gpPt5' transform='translate(1075.9,655.3) scale(2.25)' color='rgb(  0, 100,   0)'/>
	<use xlink:href='#gpPt5' transform='translate(1088.7,653.0) scale(2.25)' color='rgb(  0, 100,   0)'/>
	<use xlink:href='#gpPt5' transform='translate(1101.5,650.7) scale(2.25)' color='rgb(  0, 100,   0)'/>
	<use xlink:href='#gpPt5' transform='translate(1114.3,648.7) scale(2.25)' color='rgb(  0, 100,   0)'/>
	<use xlink:href='#gpPt5' transform='translate(1127.1,646.8) scale(2.25)' color='rgb(  0, 100,   0)'/>
	<use xlink:href='#gpPt5' transform='translate(1139.9,645.4) scale(2.25)' color='rgb(  0, 100,   0)'/>
	<use xlink:href='#gpPt5' transform='translate(1152.7,644.5) scale(2.25)' color='rgb(  0, 100,   0)'/>
	<use xlink:href='#gpPt5' transform='translate(1165.5,644.0) scale(2.25)' color='rgb(  0, 100,   0)'/>
	<use xlink:href='#gpPt5' transform='translate(1178.2,643.4) scale(2.25)' color='rgb(  0, 100,   0)'/>
	<use xlink:href='#gpPt5' transform='translate(1191.0,642.4) scale(2.25)' color='rgb(  0, 100,   0)'/>
	<use xlink:href='#gpPt5' transform='translate(1203.8,640.6) scale(2.25)' color='rgb(  0, 100,   0)'/>
	<use xlink:href='#gpPt5' transform='translate(1216.6,638.3) scale(2.25)' color='rgb(  0, 100,   0)'/>
	<use xlink:href='#gpPt5' transform='translate(1229.4,636.0) scale(2.25)' color='rgb(  0, 100,   0)'/>
	<use xlink:href='#gpPt5' transform='translate(1242.2,634.2) scale(2.25)' color='rgb(  0, 100,   0)'/>
	<use xlink:href='#gpPt5' transform='translate(1255.0,633.1) scale(2.25)' color='rgb(  0, 100,   0)'/>
</g>
	</g>
	<g id="gnuplot_plot_3" ><title>gnuplot_plot_3</title>
<g fill="none" color="black" stroke="currentColor" stroke-width="1.00" stroke-linecap="butt" stroke-linejoin="miter">
	<use xlink:href='#gpPt5' transform='translate(103.7,54.1) scale(2.25)' color='rgb(  0,   0, 255)'/>
	<use xlink:href='#gpPt5' transform='translate(104.3,55.5) scale(2.25)' color='rgb(  0,   0, 255)'/>
	<use xlink:href='#gpPt5' transform='translate(105.0,59.6) scale(2.25)' color='rgb(  0,   0, 255)'/>
	<use xlink:href='#gpPt5' transform='translate(105.6,66.1) scale(2.25)' color='rgb(  0,   0, 255)'/>
	<use xlink:href='#gpPt5' transform='translate(106.3,74.5) scale(2.25)' color='rgb(  0,   0, 255)'/>
	<use xlink:href='#gpPt5' transform='translate(106.9,84.2) scale(2.25)' color='rgb(  0,   0, 255)'/>
	<use xlink:href='#gpPt5' transform='translate(107.5,94.5) scale(2.25)' color='rgb(  0,   0, 255)'/>
	<use xlink:href='#gpPt5' transform='translate(108.2,104.8) scale(2.25)' color='rgb(  0,   0, 255)'/>
	<use xlink:href='#gpPt5' transform='translate(108.8,114.4) scale(2.25)' color='rgb(  0,   0, 255)'/>
	<use xlink:href='#gpPt5' transform='translate(109.5,123.3) scale(2.25)' color='rgb(  0,   0, 255)'/>
	<use xlink:href='#gpPt5' transform='translate(110.1,131.3) scale(2.25)' color='rgb(  0,   0, 255)'/>
	<use xlink:href='#gpPt5' transform='translate(110.7,138.7) scale(2.25)' color='rgb(  0,   0, 255)'/>
	<use xlink:href='#gpPt5' transform='translate(111.4,145.4) scale(2.25)' color='rgb(  0,   0, 255)'/>
	<use xlink:href='#gpPt5' transform='translate(112.0,151.7) scale(2.25)' color='rgb(  0,   0, 255)'/>
	<use xlink:href='#gpPt5' transform='translate(112.7,157.5) scale(2.25)' color='rgb(  0,   0, 255)'/>
	<use xlink:href='#gpPt5' transform='translate(113.3,162.8) scale(2.25)' color='rgb(  0,   0, 255)'/>
	<use xlink:href='#gpPt5' transform='translate(113.9,167.8) scale(2.25)' color='rgb(  0,   0, 255)'/>
	<use xlink:href='#gpPt5' transform='translate(114.6,172.3) scale(2.25)' color='rgb(  0,   0, 255)'/>
	<use xlink:href='#gpPt5' transform='translate(115.2,176.5) scale(2.25)' color='rgb(  0,   0, 255)'/>
	<use xlink:href='#gpPt5' transform='translate(115.9,180.4) scale(2.25)' color='rgb(  0,   0, 255)'/>
	<use xlink:href='#gpPt5' transform='translate(116.5,184.0) scale(2.25)' color='rgb(  0,   0, 255)'/>
	<use xlink:href='#gpPt5' transform='translate(122.9,208.8) scale(2.25)' color='rgb(  0,   0, 255)'/>
	<use xlink:href='#gpPt5' transform='translate(129.3,222.1) scale(2.25)' color='rgb(  0,   0, 255)'/>
	<use xlink:href='#gpPt5' transform='translate(135.7,230.6) scale(2.25)' color='rgb(  0,   0, 255)'/>
	<use xlink:href='#gpPt5' transform='translate(142.1,237.0) scale(2.25)' color='rgb(  0,   0, 255)'/>
	<use xlink:href='#gpPt5' transform='translate(154.9,247.2) scale(2.25)' color='rgb(  0,   0, 255)'/>
	<use xlink:href='#gpPt5' transform='translate(167.7,256.5) scale(2.25)' color='rgb(  0,   0, 255)'/>
	<use xlink:href='#gpPt5' transform='translate(180.5,265.8) scale(2.25)' color='rgb(  0,   0, 255)'/>
	<use xlink:href='#gpPt5' transform='translate(193.2,275.1) scale(2.25)' color='rgb(  0,   0, 255)'/>
	<use xlink:href='#gpPt5' transform='translate(206.0,284.7) scale(2.25)' color='rgb(  0,   0, 255)'/>
	<use xlink:href='#gpPt5' transform='translate(218.8,294.4) scale(2.25)' color='rgb(  0,   0, 255)'/>
	<use xlink:href='#gpPt5' transform='translate(231.6,304.2) scale(2.25)' color='rgb(  0,   0, 255)'/>
	<use xlink:href='#gpPt5' transform='translate(244.4,314.2) scale(2.25)' color='rgb(  0,   0, 255)'/>
	<use xlink:href='#gpPt5' transform='translate(257.2,324.3) scale(2.25)' color='rgb(  0,   0, 255)'/>
	<use xlink:href='#gpPt5' transform='translate(270.0,334.4) scale(2.25)' color='rgb(  0,   0, 255)'/>
	<use xlink:href='#gpPt5' transform='translate(282.8,344.6) scale(2.25)' color='rgb(  0,   0, 255)'/>
	<use xlink:href='#gpPt5' transform='translate(295.6,354.8) scale(2.25)' color='rgb(  0,   0, 255)'/>
	<use xlink:href='#gpPt5' transform='translate(308.4,365.0) scale(2.25)' color='rgb(  0,   0, 255)'/>
	<use xlink:href='#gpPt5' transform='translate(321.2,375.2) scale(2.25)' color='rgb(  0,   0, 255)'/>
	<use xlink:href='#gpPt5' transform='translate(334.0,385.3) scale(2.25)' color='rgb(  0,   0, 255)'/>
	<use xlink:href='#gpPt5' transform='translate(346.8,395.4) scale(2.25)' color='rgb(  0,   0, 255)'/>
	<use xlink:href='#gpPt5' transform='translate(359.5,405.4) scale(2.25)' color='rgb(  0,   0, 255)'/>
	<use xlink:href='#gpPt5' transform='translate(372.3,415.3) scale(2.25)' color='rgb(  0,   0, 255)'/>
	<use xlink:href='#gpPt5' transform='translate(385.1,425.2) scale(2.25)' color='rgb(  0,   0, 255)'/>
	<use xlink:href='#gpPt5' transform='translate(397.9,434.9) scale(2.25)' color='rgb(  0,   0, 255)'/>
	<use xlink:href='#gpPt5' transform='translate(410.7,444.5) scale(2.25)' color='rgb(  0,   0, 255)'/>
	<use xlink:href='#gpPt5' transform='translate(423.5,454.0) scale(2.25)' color='rgb(  0,   0, 255)'/>
	<use xlink:href='#gpPt5' transform='translate(436.3,463.4) scale(2.25)' color='rgb(  0,   0, 255)'/>
	<use xlink:href='#gpPt5' transform='translate(449.1,472.6) scale(2.25)' color='rgb(  0,   0, 255)'/>
	<use xlink:href='#gpPt5' transform='translate(461.9,481.8) scale(2.25)' color='rgb(  0,   0, 255)'/>
	<use xlink:href='#gpPt5' transform='translate(474.7,490.6) scale(2.25)' color='rgb(  0,   0, 255)'/>
	<use xlink:href='#gpPt5' transform='translate(487.5,499.4) scale(2.25)' color='rgb(  0,   0, 255)'/>
	<use xlink:href='#gpPt5' transform='translate(500.3,508.0) scale(2.25)' color='rgb(  0,   0, 255)'/>
	<use xlink:href='#gpPt5' transform='translate(513.1,516.5) scale(2.25)' color='rgb(  0,   0, 255)'/>
	<use xlink:href='#gpPt5' transform='translate(525.8,524.7) scale(2.25)' color='rgb(  0,   0, 255)'/>
	<use xlink:href='#gpPt5' transform='translate(538.6,532.8) scale(2.25)' color='rgb(  0,   0, 255)'/>
	<use xlink:href='#gpPt5' transform='translate(551.4,540.7) scale(2.25)' color='rgb(  0,   0, 255)'/>
	<use xlink:href='#gpPt5' transform='translate(564.2,548.5) scale(2.25)' color='rgb(  0,   0, 255)'/>
	<use xlink:href='#gpPt5' transform='translate(577.0,555.9) scale(2.25)' color='rgb(  0,   0, 255)'/>
	<use xlink:href='#gpPt5' transform='translate(589.8,563.2) scale(2.25)' color='rgb(  0,   0, 255)'/>
	<use xlink:href='#gpPt5' transform='translate(602.6,570.3) scale(2.25)' color='rgb(  0,   0, 255)'/>
	<use xlink:href='#gpPt5' transform='translate(615.4,577.1) scale(2.25)' color='rgb(  0,   0, 255)'/>
	<use xlink:href='#gpPt5' transform='translate(628.2,583.8) scale(2.25)' color='rgb(  0,   0, 255)'/>
	<use xlink:href='#gpPt5' transform='translate(641.0,590.1) scale(2.25)' color='rgb(  0,   0, 255)'/>
	<use xlink:href='#gpPt5' transform='translate(653.8,596.2) scale(2.25)' color='rgb(  0,   0, 255)'/>
	<use xlink:href='#gpPt5' transform='translate(666.6,602.1) scale(2.25)' color='rgb(  0,   0, 255)'/>
	<use xlink:href='#gpPt5' transform='translate(679.4,607.6) scale(2.25)' color='rgb(  0,   0, 255)'/>
	<use xlink:href='#gpPt5' transform='translate(692.1,612.9) scale(2.25)' color='rgb(  0,   0, 255)'/>
	<use xlink:href='#gpPt5' transform='translate(704.9,618.0) scale(2.25)' color='rgb(  0,   0, 255)'/>
	<use xlink:href='#gpPt5' transform='translate(717.7,622.6) scale(2.25)' color='rgb(  0,   0, 255)'/>
	<use xlink:href='#gpPt5' transform='translate(730.5,627.1) scale(2.25)' color='rgb(  0,   0, 255)'/>
	<use xlink:href='#gpPt5' transform='translate(743.3,631.2) scale(2.25)' color='rgb(  0,   0, 255)'/>
	<use xlink:href='#gpPt5' transform='translate(756.1,634.9) scale(2.25)' color='rgb(  0,   0, 255)'/>
	<use xlink:href='#gpPt5' transform='translate(768.9,638.4) scale(2.25)' color='rgb(  0,   0, 255)'/>
	<use xlink:href='#gpPt5' transform='translate(781.7,641.6) scale(2.25)' color='rgb(  0,   0, 255)'/>
	<use xlink:href='#gpPt5' transform='translate(794.5,644.3) scale(2.25)' color='rgb(  0,   0, 255)'/>
	<use xlink:href='#gpPt5' transform='translate(807.3,646.8) scale(2.25)' color='rgb(  0,   0, 255)'/>
	<use xlink:href='#gpPt5' transform='translate(820.1,649.0) scale(2.25)' color='rgb(  0,   0, 255)'/>
	<use xlink:href='#gpPt5' transform='translate(832.9,650.8) scale(2.25)' color='rgb(  0,   0, 255)'/>
	<use xlink:href='#gpPt5' transform='translate(845.6,652.4) scale(2.25)' color='rgb(  0,   0, 255)'/>
	<use xlink:href='#gpPt5' transform='translate(858.4,653.6) scale(2.25)' color='rgb(  0,   0, 255)'/>
	<use xlink:href='#gpPt5' transform='translate(871.2,654.4) scale(2.25)' color='rgb(  0,   0, 255)'/>
	<use xlink:href='#gpPt5' transform='translate(884.0,655.0) scale(2.25)' color='rgb(  0,   0, 255)'/>
	<use xlink:href='#gpPt5' transform='translate(896.8,655.2) scale(2.25)' color='rgb(  0,   0, 255)'/>
	<use xlink:href='#gpPt5' transform='translate(909.6,655.1) scale(2.25)' color='rgb(  0,   0, 255)'/>
	<use xlink:href='#gpPt5' transform='translate(922.4,654.8) scale(2.25)' color='rgb(  0,   0, 255)'/>
	<use xlink:href='#gpPt5' transform='translate(935.2,654.1) scale(2.25)' color='rgb(  0,   0, 255)'/>
	<use xlink:href='#gpPt5' transform='translate(948.0,653.2) scale(2.25)' color='rgb(  0,   0, 255)'/>
	<use xlink:href='#gpPt5' transform='translate(960.8,652.0) scale(2.25)' color='rgb(  0,   0, 255)'/>
	<use xlink:href='#gpPt5' transform='translate(973.6,650.5) scale(2.25)' color='rgb(  0,   0, 255)'/>
	<use xlink:href='#gpPt5' transform='translate(986.4,648.8) scale(2.25)' color='rgb(  0,   0, 255)'/>
	<use xlink:href='#gpPt5' transform='translate(999.2,646.8) scale(2.25)' color='rgb(  0,   0, 255)'/>
	<use xlink:href='#gpPt5' transform='translate(1011.9,644.6) scale(2.25)' color='rgb(  0,   0, 255)'/>
	<use xlink:href='#gpPt5' transform='translate(1024.7,642.3) scale(2.25)' color='rgb(  0,   0, 255)'/>
	<use xlink:href='#gpPt5' transform='translate(1037.5,639.7) scale(2.25)' color='rgb(  0,   0, 255)'/>
	<use xlink:href='#gpPt5' transform='translate(1050.3,637.1) scale(2.25)' color='rgb(  0,   0, 255)'/>
	<use xlink:href='#gpPt5' transform='translate(1063.1,634.4) scale(2.25)' color='rgb(  0,   0, 255)'/>
	<use xlink:href='#gpPt5' transform='translate(1075.9,631.6) scale(2.25)' color='rgb(  0,   0, 255)'/>
	<use xlink:href='#gpPt5' transform='translate(1088.7,629.0) scale(2.25)' color='rgb(  0,   0, 255)'/>
	<use xlink:href='#gpPt5' transform='translate(1101.5,626.5) scale(2.25)' color='rgb(  0,   0, 255)'/>
	<use xlink:href='#gpPt5' transform='translate(1114.3,624.2) scale(2.25)' color='rgb(  0,   0, 255)'/>
	<use xlink:href='#gpPt5' transform='translate(1127.1,622.5) scale(2.25)' color='rgb(  0,   0, 255)'/>
	<use xlink:href='#gpPt5' transform='translate(1139.9,621.3) scale(2.25)' color='rgb(  0,   0, 255)'/>
	<use xlink:href='#gpPt5' transform='translate(1152.7,620.9) scale(2.25)' color='rgb(  0,   0, 255)'/>
	<use xlink:href='#gpPt5' transform='translate(1165.5,620.9) scale(2.25)' color='rgb(  0,   0, 255)'/>
	<use xlink:href='#gpPt5' transform='translate(1178.2,620.9) scale(2.25)' color='rgb(  0,   0, 255)'/>
	<use xlink:href='#gpPt5' transform='translate(1191.0,620.4) scale(2.25)' color='rgb(  0,   0, 255)'/>
	<use xlink:href='#gpPt5' transform='translate(1203.8,619.1) scale(2.25)' color='rgb(  0,   0, 255)'/>
	<use xlink:href='#gpPt5' transform='translate(1216.6,616.5) scale(2.25)' color='rgb(  0,   0, 255)'/>
	<use xlink:href='#gpPt5' transform='translate(1229.4,613.5) scale(2.25)' color='rgb(  0,   0, 255)'/>
	<use xlink:href='#gpPt5' transform='translate(1242.2,611.1) scale(2.25)' color='rgb(  0,   0, 255)'/>
	<use xlink:href='#gpPt5' transform='translate(1255.0,609.7) scale(2.25)' color='rgb(  0,   0, 255)'/>
</g>
	</g>
	<g id="gnuplot_plot_4" ><title>fit</title>
<g fill="none" color="black" stroke="currentColor" stroke-width="1.00" stroke-linecap="butt" stroke-linejoin="miter">
	<g transform="translate(1187.9,94.0)" stroke="none" fill="black" font-family="Arial" font-size="12.00"  text-anchor="end">
		<text><tspan font-family="Arial" >fit</tspan></text>
	</g>
</g>
<g fill="none" color="black" stroke="currentColor" stroke-width="1.00" stroke-linecap="butt" stroke-linejoin="miter">
	<path stroke='rgb(255,   0,   0)'  d='M1196.2,90.1 L1238.4,90.1 M103.7,101.1 L104.8,103.8 L106.0,111.4 L107.1,122.7 L108.2,136.4 L109.3,151.0
		L110.5,165.4 L111.6,178.9 L112.7,191.2 L113.8,202.1 L115.0,211.6 L116.1,219.7 L117.2,226.6 L118.3,232.5
		L119.5,237.5 L120.6,241.7 L121.7,245.3 L122.8,248.5 L124.0,251.1 L125.1,253.5 L126.2,255.5 L127.3,257.3
		L128.5,258.9 L129.6,260.4 L130.7,261.7 L131.8,262.9 L133.0,264.0 L134.1,265.1 L135.2,266.1 L136.3,267.0
		L137.5,267.9 L138.6,268.7 L139.7,269.6 L140.8,270.4 L142.0,271.1 L143.1,271.9 L144.2,272.7 L145.3,273.4
		L146.5,274.2 L147.6,274.9 L148.7,275.7 L149.8,276.4 L151.0,277.1 L152.1,277.9 L153.2,278.6 L154.3,279.4
		L155.5,280.1 L156.6,280.9 L157.7,281.6 L158.8,282.4 L160.0,283.2 L161.1,284.0 L162.2,284.8 L163.3,285.5
		L164.5,286.3 L165.6,287.1 L166.7,288.0 L167.8,288.8 L169.0,289.6 L170.1,290.4 L171.2,291.3 L172.4,292.1
		L173.5,293.0 L174.6,293.8 L175.7,294.7 L176.9,295.6 L178.0,296.4 L179.1,297.3 L180.2,298.2 L181.4,299.1
		L182.5,300.0 L183.6,300.9 L184.7,301.8 L185.9,302.7 L187.0,303.7 L188.1,304.6 L189.2,305.5 L190.4,306.5
		L191.5,307.4 L192.6,308.4 L193.7,309.3 L194.9,310.3 L196.0,311.3 L197.1,312.2 L198.2,313.2 L199.4,314.2
		L200.5,315.2 L201.6,316.1 L202.7,317.1 L203.9,318.1 L205.0,319.1 L206.1,320.1 L207.2,321.1 L208.4,322.1
		L209.5,323.1 L210.6,324.2 L211.7,325.2 L212.9,326.2 L214.0,327.2 L215.1,328.2 L216.2,329.3 L217.4,330.3
		L218.5,331.3 L219.6,332.3 L220.7,333.4 L221.9,334.4 L223.0,335.4 L224.1,336.5 L225.2,337.5 L226.4,338.6
		L227.5,339.6 L228.6,340.7 L229.7,341.7 L230.9,342.7 L232.0,343.8 L233.1,344.8 L234.2,345.9 L235.4,346.9
		L236.5,348.0 L237.6,349.0 L238.7,350.1 L239.9,351.1 L241.0,352.2 L242.1,353.2 L243.3,354.3 L244.4,355.3
		L245.5,356.4 L246.6,357.5 L247.8,358.5 L248.9,359.6 L250.0,360.6 L251.1,361.7 L252.3,362.7 L253.4,363.8
		L254.5,364.8 L255.6,365.9 L256.8,366.9 L257.9,368.0 L259.0,369.0 L260.1,370.0 L261.3,371.1 L262.4,372.1
		L263.5,373.2 L264.6,374.2 L265.8,375.3 L266.9,376.3 L268.0,377.3 L269.1,378.4 L270.3,379.4 L271.4,380.5
		L272.5,381.5 L273.6,382.5 L274.8,383.6 L275.9,384.6 L277.0,385.6 L278.1,386.6 L279.3,387.7 L280.4,388.7
		L281.5,389.7 L282.6,390.7 L283.8,391.8 L284.9,392.8 L286.0,393.8 L287.1,394.8 L288.3,395.8 L289.4,396.8
		L290.5,397.8 L291.6,398.9 L292.8,399.9 L293.9,400.9 L295.0,401.9 L296.1,402.9 L297.3,403.9 L298.4,404.9
		L299.5,405.9 L300.6,406.9 L301.8,407.8 L302.9,408.8 L304.0,409.8 L305.1,410.8 L306.3,411.8 L307.4,412.8
		L308.5,413.7 L309.7,414.7 L310.8,415.7 L311.9,416.7 L313.0,417.6 L314.2,418.6 L315.3,419.6 L316.4,420.5
		L317.5,421.5 L318.7,422.5 L319.8,423.4 L320.9,424.4 L322.0,425.3 L323.2,426.3 L324.3,427.2 L325.4,428.2
		L326.5,429.1 L327.7,430.1 L328.8,431.0 L329.9,431.9 L331.0,432.9 L332.2,433.8 L333.3,434.7 L334.4,435.7
		L335.5,436.6 L336.7,437.5 L337.8,438.4 L338.9,439.4 L340.0,440.3 L341.2,441.2 L342.3,442.1 L343.4,443.0
		L344.5,443.9 L345.7,444.8 L346.8,445.7 L347.9,446.6 L349.0,447.5 L350.2,448.4 L351.3,449.3 L352.4,450.2
		L353.5,451.1 L354.7,452.0 L355.8,452.9 L356.9,453.7 L358.0,454.6 L359.2,455.5 L360.3,456.4 L361.4,457.2
		L362.5,458.1 L363.7,459.0 L364.8,459.8 L365.9,460.7 L367.0,461.6 L368.2,462.4 L369.3,463.3 L370.4,464.1
		L371.5,465.0 L372.7,465.8 L373.8,466.7 L374.9,467.5 L376.1,468.4 L377.2,469.2 L378.3,470.1 L379.4,470.9
		L380.6,471.7 L381.7,472.6 L382.8,473.4 L383.9,474.2 L385.1,475.0 L386.2,475.9 L387.3,476.7 L388.4,477.5
		L389.6,478.3 L390.7,479.1 L391.8,479.9 L392.9,480.7 L394.1,481.5 L395.2,482.4 L396.3,483.2 L397.4,484.0
		L398.6,484.7 L399.7,485.5 L400.8,486.3 L401.9,487.1 L403.1,487.9 L404.2,488.7 L405.3,489.5 L406.4,490.3
		L407.6,491.0 L408.7,491.8 L409.8,492.6 L410.9,493.4 L412.1,494.1 L413.2,494.9 L414.3,495.7 L415.4,496.4
		L416.6,497.2 L417.7,498.0 L418.8,498.7 L419.9,499.5 L421.1,500.2 L422.2,501.0 L423.3,501.7 L424.4,502.5
		L425.6,503.2 L426.7,504.0 L427.8,504.7 L428.9,505.4 L430.1,506.2 L431.2,506.9 L432.3,507.6 L433.4,508.4
		L434.6,509.1 L435.7,509.8 L436.8,510.6 L437.9,511.3 L439.1,512.0 L440.2,512.7 L441.3,513.4 L442.5,514.1
		L443.6,514.9 L444.7,515.6 L445.8,516.3 L447.0,517.0 L448.1,517.7 L449.2,518.4 L450.3,519.1 L451.5,519.8
		L452.6,520.5 L453.7,521.2 L454.8,521.9 L456.0,522.5 L457.1,523.2 L458.2,523.9 L459.3,524.6 L460.5,525.3
		L461.6,526.0 L462.7,526.6 L463.8,527.3 L465.0,528.0 L466.1,528.7 L467.2,529.3 L468.3,530.0 L469.5,530.7
		L470.6,531.3 L471.7,532.0 L472.8,532.6 L474.0,533.3 L475.1,534.0 L476.2,534.6 L477.3,535.3 L478.5,535.9
		L479.6,536.6 L480.7,537.2 L481.8,537.9 L483.0,538.5 L484.1,539.1 L485.2,539.8 L486.3,540.4 L487.5,541.1
		L488.6,541.7 L489.7,542.3 L490.8,543.0 L492.0,543.6 L493.1,544.2 L494.2,544.8 L495.3,545.5 L496.5,546.1
		L497.6,546.7 L498.7,547.3 L499.8,547.9 L501.0,548.5 L502.1,549.2 L503.2,549.8 L504.3,550.4 L505.5,551.0
		L506.6,551.6 L507.7,552.2 L508.8,552.8 L510.0,553.4 L511.1,554.0 L512.2,554.6 L513.4,555.2 L514.5,555.8
		L515.6,556.4 L516.7,557.0 L517.9,557.6 L519.0,558.1 L520.1,558.7 L521.2,559.3 L522.4,559.9 L523.5,560.5
		L524.6,561.0 L525.7,561.6 L526.9,562.2 L528.0,562.8 L529.1,563.3 L530.2,563.9 L531.4,564.5 L532.5,565.0
		L533.6,565.6 L534.7,566.2 L535.9,566.7 L537.0,567.3 L538.1,567.8 L539.2,568.4 L540.4,569.0 L541.5,569.5
		L542.6,570.1 L543.7,570.6 L544.9,571.2 L546.0,571.7 L547.1,572.3 L548.2,572.8 L549.4,573.3 L550.5,573.9
		L551.6,574.4 L552.7,575.0 L553.9,575.5 L555.0,576.0 L556.1,576.6 L557.2,577.1 L558.4,577.6 L559.5,578.1
		L560.6,578.7 L561.7,579.2 L562.9,579.7 L564.0,580.2 L565.1,580.8 L566.2,581.3 L567.4,581.8 L568.5,582.3
		L569.6,582.8 L570.7,583.3 L571.9,583.9 L573.0,584.4 L574.1,584.9 L575.2,585.4 L576.4,585.9 L577.5,586.4
		L578.6,586.9 L579.8,587.4 L580.9,587.9 L582.0,588.4 L583.1,588.9 L584.3,589.4 L585.4,589.9 L586.5,590.4
		L587.6,590.8 L588.8,591.3 L589.9,591.8 L591.0,592.3 L592.1,592.8 L593.3,593.3 L594.4,593.8 L595.5,594.2
		L596.6,594.7 L597.8,595.2 L598.9,595.7 L600.0,596.1 L601.1,596.6 L602.3,597.1 L603.4,597.6 L604.5,598.0
		L605.6,598.5 L606.8,599.0 L607.9,599.4 L609.0,599.9 L610.1,600.4 L611.3,600.8 L612.4,601.3 L613.5,601.7
		L614.6,602.2 L615.8,602.6 L616.9,603.1 L618.0,603.5 L619.1,604.0 L620.3,604.4 L621.4,604.9 L622.5,605.3
		L623.6,605.8 L624.8,606.2 L625.9,606.7 L627.0,607.1 L628.1,607.5 L629.3,608.0 L630.4,608.4 L631.5,608.9
		L632.6,609.3 L633.8,609.7 L634.9,610.2 L636.0,610.6 L637.1,611.0 L638.3,611.4 L639.4,611.9 L640.5,612.3
		L641.6,612.7 L642.8,613.1 L643.9,613.6 L645.0,614.0 L646.2,614.4 L647.3,614.8 L648.4,615.2 L649.5,615.6
		L650.7,616.1 L651.8,616.5 L652.9,616.9 L654.0,617.3 L655.2,617.7 L656.3,618.1 L657.4,618.5 L658.5,618.9
		L659.7,619.3 L660.8,619.7 L661.9,620.1 L663.0,620.5 L664.2,620.9 L665.3,621.3 L666.4,621.7 L667.5,622.1
		L668.7,622.5 L669.8,622.9 L670.9,623.3 L672.0,623.7 L673.2,624.0 L674.3,624.4 L675.4,624.8 L676.5,625.2
		L677.7,625.6 L678.8,626.0 L679.9,626.3 L681.0,626.7 L682.2,627.1 L683.3,627.5 L684.4,627.8 L685.5,628.2
		L686.7,628.6 L687.8,629.0 L688.9,629.3 L690.0,629.7 L691.2,630.1 L692.3,630.4 L693.4,630.8 L694.5,631.2
		L695.7,631.5 L696.8,631.9 L697.9,632.2 L699.0,632.6 L700.2,633.0 L701.3,633.3 L702.4,633.7 L703.5,634.0
		L704.7,634.4 L705.8,634.7 L706.9,635.1 L708.0,635.4 L709.2,635.8 L710.3,636.1 L711.4,636.5 L712.5,636.8
		L713.7,637.2 L714.8,637.5 L715.9,637.8 L717.1,638.2 L718.2,638.5 L719.3,638.8 L720.4,639.2 L721.6,639.5
		L722.7,639.8 L723.8,640.2 L724.9,640.5 L726.1,640.8 L727.2,641.2 L728.3,641.5 L729.4,641.8 L730.6,642.1
		L731.7,642.5 L732.8,642.8 L733.9,643.1 L735.1,643.4 L736.2,643.7 L737.3,644.1 L738.4,644.4 L739.6,644.7
		L740.7,645.0 L741.8,645.3 L742.9,645.6 L744.1,645.9 L745.2,646.2 L746.3,646.5 L747.4,646.9 L748.6,647.2
		L749.7,647.5 L750.8,647.8 L751.9,648.1 L753.1,648.4 L754.2,648.7 L755.3,649.0 L756.4,649.3 L757.6,649.6
		L758.7,649.8 L759.8,650.1 L760.9,650.4 L762.1,650.7 L763.2,651.0 L764.3,651.3 L765.4,651.6 L766.6,651.9
		L767.7,652.2 L768.8,652.4 L769.9,652.7 L771.1,653.0 L772.2,653.3 L773.3,653.6 L774.4,653.8 L775.6,654.1
		L776.7,654.4 L777.8,654.7 L778.9,654.9 L780.1,655.2 L781.2,655.5 L782.3,655.7 L783.5,656.0 L784.6,656.3
		L785.7,656.5 L786.8,656.8 L788.0,657.1 L789.1,657.3 L790.2,657.6 L791.3,657.8 L792.5,658.1 L793.6,658.3
		L794.7,658.6 L795.8,658.9 L797.0,659.1 L798.1,659.4 L799.2,659.6 L800.3,659.9 L801.5,660.1 L802.6,660.4
		L803.7,660.6 L804.8,660.8 L806.0,661.1 L807.1,661.3 L808.2,661.6 L809.3,661.8 L810.5,662.0 L811.6,662.3
		L812.7,662.5 L813.8,662.7 L815.0,663.0 L816.1,663.2 L817.2,663.4 L818.3,663.7 L819.5,663.9 L820.6,664.1
		L821.7,664.3 L822.8,664.6 L824.0,664.8 L825.1,665.0 L826.2,665.2 L827.3,665.4 L828.5,665.7 L829.6,665.9
		L830.7,666.1 L831.8,666.3 L833.0,666.5 L834.1,666.7 L835.2,666.9 L836.3,667.1 L837.5,667.4 L838.6,667.6
		L839.7,667.8 L840.8,668.0 L842.0,668.2 L843.1,668.4 L844.2,668.6 L845.3,668.8 L846.5,669.0 L847.6,669.2
		L848.7,669.3 L849.9,669.5 L851.0,669.7 L852.1,669.9 L853.2,670.1 L854.4,670.3 L855.5,670.5 L856.6,670.7
		L857.7,670.8 L858.9,671.0 L860.0,671.2 L861.1,671.4 L862.2,671.6 L863.4,671.7 L864.5,671.9 L865.6,672.1
		L866.7,672.3 L867.9,672.4 L869.0,672.6 L870.1,672.8 L871.2,672.9 L872.4,673.1 L873.5,673.3 L874.6,673.4
		L875.7,673.6 L876.9,673.7 L878.0,673.9 L879.1,674.0 L880.2,674.2 L881.4,674.4 L882.5,674.5 L883.6,674.7
		L884.7,674.8 L885.9,675.0 L887.0,675.1 L888.1,675.2 L889.2,675.4 L890.4,675.5 L891.5,675.7 L892.6,675.8
		L893.7,675.9 L894.9,676.1 L896.0,676.2 L897.1,676.3 L898.2,676.5 L899.4,676.6 L900.5,676.7 L901.6,676.9
		L902.7,677.0 L903.9,677.1 L905.0,677.2 L906.1,677.3 L907.2,677.5 L908.4,677.6 L909.5,677.7 L910.6,677.8
		L911.7,677.9 L912.9,678.0 L914.0,678.1 L915.1,678.2 L916.2,678.4 L917.4,678.5 L918.5,678.6 L919.6,678.7
		L920.8,678.8 L921.9,678.9 L923.0,678.9 L924.1,679.0 L925.3,679.1 L926.4,679.2 L927.5,679.3 L928.6,679.4
		L929.8,679.5 L930.9,679.6 L932.0,679.7 L933.1,679.7 L934.3,679.8 L935.4,679.9 L936.5,680.0 L937.6,680.0
		L938.8,680.1 L939.9,680.2 L941.0,680.2 L942.1,680.3 L943.3,680.4 L944.4,680.4 L945.5,680.5 L946.6,680.6
		L947.8,680.6 L948.9,680.7 L950.0,680.7 L951.1,680.8 L952.3,680.8 L953.4,680.9 L954.5,680.9 L955.6,681.0
		L956.8,681.0 L957.9,681.1 L959.0,681.1 L960.1,681.1 L961.3,681.2 L962.4,681.2 L963.5,681.2 L964.6,681.3
		L965.8,681.3 L966.9,681.3 L968.0,681.3 L969.1,681.4 L970.3,681.4 L971.4,681.4 L972.5,681.4 L973.6,681.4
		L974.8,681.4 L975.9,681.4 L977.0,681.5 L978.1,681.5 L979.3,681.5 L980.4,681.5 L981.5,681.5 L982.6,681.5
		L983.8,681.5 L984.9,681.5 L986.0,681.4 L987.2,681.4 L988.3,681.4 L989.4,681.4 L990.5,681.4 L991.7,681.4
		L992.8,681.3 L993.9,681.3 L995.0,681.3 L996.2,681.3 L997.3,681.2 L998.4,681.2 L999.5,681.2 L1000.7,681.1
		L1001.8,681.1 L1002.9,681.1 L1004.0,681.0 L1005.2,681.0 L1006.3,680.9 L1007.4,680.9 L1008.5,680.8 L1009.7,680.8
		L1010.8,680.7 L1011.9,680.7 L1013.0,680.6 L1014.2,680.5 L1015.3,680.5 L1016.4,680.4 L1017.5,680.3 L1018.7,680.3
		L1019.8,680.2 L1020.9,680.1 L1022.0,680.0 L1023.2,679.9 L1024.3,679.9 L1025.4,679.8 L1026.5,679.7 L1027.7,679.6
		L1028.8,679.5 L1029.9,679.4 L1031.0,679.3 L1032.2,679.2 L1033.3,679.1 L1034.4,679.0 L1035.5,678.9 L1036.7,678.8
		L1037.8,678.7 L1038.9,678.6 L1040.0,678.4 L1041.2,678.3 L1042.3,678.2 L1043.4,678.1 L1044.5,677.9 L1045.7,677.8
		L1046.8,677.7 L1047.9,677.6 L1049.0,677.4 L1050.2,677.3 L1051.3,677.1 L1052.4,677.0 L1053.6,676.9 L1054.7,676.7
		L1055.8,676.6 L1056.9,676.4 L1058.1,676.2 L1059.2,676.1 L1060.3,675.9 L1061.4,675.8 L1062.6,675.6 L1063.7,675.4
		L1064.8,675.3 L1065.9,675.1 L1067.1,674.9 L1068.2,674.8 L1069.3,674.6 L1070.4,674.4 L1071.6,674.2 L1072.7,674.0
		L1073.8,673.8 L1074.9,673.7 L1076.1,673.5 L1077.2,673.3 L1078.3,673.1 L1079.4,672.9 L1080.6,672.7 L1081.7,672.5
		L1082.8,672.3 L1083.9,672.1 L1085.1,671.9 L1086.2,671.6 L1087.3,671.4 L1088.4,671.2 L1089.6,671.0 L1090.7,670.8
		L1091.8,670.6 L1092.9,670.3 L1094.1,670.1 L1095.2,669.9 L1096.3,669.7 L1097.4,669.4 L1098.6,669.2 L1099.7,669.0
		L1100.8,668.7 L1101.9,668.5 L1103.1,668.2 L1104.2,668.0 L1105.3,667.7 L1106.4,667.5 L1107.6,667.3 L1108.7,667.0
		L1109.8,666.8 L1110.9,666.5 L1112.1,666.2 L1113.2,666.0 L1114.3,665.7 L1115.4,665.5 L1116.6,665.2 L1117.7,665.0
		L1118.8,664.7 L1120.0,664.4 L1121.1,664.2 L1122.2,663.9 L1123.3,663.6 L1124.5,663.4 L1125.6,663.1 L1126.7,662.8
		L1127.8,662.6 L1129.0,662.3 L1130.1,662.0 L1131.2,661.7 L1132.3,661.5 L1133.5,661.2 L1134.6,660.9 L1135.7,660.6
		L1136.8,660.3 L1138.0,660.1 L1139.1,659.8 L1140.2,659.5 L1141.3,659.2 L1142.5,658.9 L1143.6,658.7 L1144.7,658.4
		L1145.8,658.1 L1147.0,657.8 L1148.1,657.5 L1149.2,657.2 L1150.3,657.0 L1151.5,656.7 L1152.6,656.4 L1153.7,656.1
		L1154.8,655.8 L1156.0,655.6 L1157.1,655.3 L1158.2,655.0 L1159.3,654.7 L1160.5,654.4 L1161.6,654.2 L1162.7,653.9
		L1163.8,653.6 L1165.0,653.3 L1166.1,653.0 L1167.2,652.8 L1168.3,652.5 L1169.5,652.2 L1170.6,652.0 L1171.7,651.7
		L1172.8,651.4 L1174.0,651.2 L1175.1,650.9 L1176.2,650.6 L1177.3,650.4 L1178.5,650.1 L1179.6,649.8 L1180.7,649.6
		L1181.8,649.3 L1183.0,649.1 L1184.1,648.8 L1185.2,648.6 L1186.3,648.3 L1187.5,648.1 L1188.6,647.8 L1189.7,647.6
		L1190.9,647.4 L1192.0,647.1 L1193.1,646.9 L1194.2,646.7 L1195.4,646.4 L1196.5,646.2 L1197.6,646.0 L1198.7,645.8
		L1199.9,645.6 L1201.0,645.3 L1202.1,645.1 L1203.2,644.9 L1204.4,644.7 L1205.5,644.5 L1206.6,644.3 L1207.7,644.1
		L1208.9,643.9 L1210.0,643.8 L1211.1,643.6 L1212.2,643.4 L1213.4,643.2 L1214.5,643.1 L1215.6,642.9 L1216.7,642.7
		L1217.9,642.6 L1219.0,642.4 L1220.1,642.3 L1221.2,642.1 L1222.4,642.0 L1223.5,641.8 L1224.6,641.7 L1225.7,641.6
		L1226.9,641.5 L1228.0,641.3 L1229.1,641.2 L1230.2,641.1 L1231.4,641.0 L1232.5,640.9 L1233.6,640.8 L1234.7,640.7
		L1235.9,640.6 L1237.0,640.6 L1238.1,640.5 L1239.2,640.4 L1240.4,640.3 L1241.5,640.3 L1242.6,640.2 L1243.7,640.2
		L1244.9,640.1 L1246.0,640.1 L1247.1,640.0 L1248.2,640.0 L1249.4,640.0 L1250.5,640.0 L1251.6,639.9 L1252.7,639.9
		L1253.9,639.9 L1255.0,639.9  '/></g>
	</g>
	<g id="gnuplot_plot_5" ><title>gnuplot_plot_5</title>
<g fill="none" color="black" stroke="currentColor" stroke-width="1.00" stroke-linecap="butt" stroke-linejoin="miter">
	<path stroke='rgb(  0, 100,   0)'  d='M103.7,90.5 L104.8,93.2 L106.0,100.8 L107.1,112.1 L108.2,125.7 L109.3,140.2 L110.5,154.5 L111.6,168.0
		L112.7,180.2 L113.8,191.0 L115.0,200.4 L116.1,208.5 L117.2,215.3 L118.3,221.1 L119.5,226.1 L120.6,230.3
		L121.7,233.9 L122.8,236.9 L124.0,239.6 L125.1,241.9 L126.2,243.9 L127.3,245.7 L128.5,247.3 L129.6,248.8
		L130.7,250.1 L131.8,251.3 L133.0,252.4 L134.1,253.5 L135.2,254.4 L136.3,255.4 L137.5,256.3 L138.6,257.1
		L139.7,258.0 L140.8,258.8 L142.0,259.6 L143.1,260.3 L144.2,261.1 L145.3,261.9 L146.5,262.6 L147.6,263.4
		L148.7,264.1 L149.8,264.9 L151.0,265.6 L152.1,266.4 L153.2,267.2 L154.3,267.9 L155.5,268.7 L156.6,269.5
		L157.7,270.2 L158.8,271.0 L160.0,271.8 L161.1,272.6 L162.2,273.4 L163.3,274.2 L164.5,275.0 L165.6,275.8
		L166.7,276.6 L167.8,277.5 L169.0,278.3 L170.1,279.2 L171.2,280.0 L172.4,280.9 L173.5,281.7 L174.6,282.6
		L175.7,283.5 L176.9,284.4 L178.0,285.3 L179.1,286.2 L180.2,287.1 L181.4,288.0 L182.5,288.9 L183.6,289.8
		L184.7,290.8 L185.9,291.7 L187.0,292.6 L188.1,293.6 L189.2,294.5 L190.4,295.5 L191.5,296.5 L192.6,297.4
		L193.7,298.4 L194.9,299.4 L196.0,300.3 L197.1,301.3 L198.2,302.3 L199.4,303.3 L200.5,304.3 L201.6,305.3
		L202.7,306.3 L203.9,307.3 L205.0,308.3 L206.1,309.4 L207.2,310.4 L208.4,311.4 L209.5,312.4 L210.6,313.4
		L211.7,314.5 L212.9,315.5 L214.0,316.5 L215.1,317.6 L216.2,318.6 L217.4,319.7 L218.5,320.7 L219.6,321.7
		L220.7,322.8 L221.9,323.8 L223.0,324.9 L224.1,325.9 L225.2,327.0 L226.4,328.1 L227.5,329.1 L228.6,330.2
		L229.7,331.2 L230.9,332.3 L232.0,333.3 L233.1,334.4 L234.2,335.5 L235.4,336.5 L236.5,337.6 L237.6,338.7
		L238.7,339.7 L239.9,340.8 L241.0,341.8 L242.1,342.9 L243.3,344.0 L244.4,345.0 L245.5,346.1 L246.6,347.2
		L247.8,348.2 L248.9,349.3 L250.0,350.4 L251.1,351.4 L252.3,352.5 L253.4,353.5 L254.5,354.6 L255.6,355.7
		L256.8,356.7 L257.9,357.8 L259.0,358.8 L260.1,359.9 L261.3,361.0 L262.4,362.0 L263.5,363.1 L264.6,364.1
		L265.8,365.2 L266.9,366.2 L268.0,367.3 L269.1,368.3 L270.3,369.4 L271.4,370.4 L272.5,371.5 L273.6,372.5
		L274.8,373.5 L275.9,374.6 L277.0,375.6 L278.1,376.7 L279.3,377.7 L280.4,378.7 L281.5,379.8 L282.6,380.8
		L283.8,381.8 L284.9,382.8 L286.0,383.9 L287.1,384.9 L288.3,385.9 L289.4,386.9 L290.5,387.9 L291.6,389.0
		L292.8,390.0 L293.9,391.0 L295.0,392.0 L296.1,393.0 L297.3,394.0 L298.4,395.0 L299.5,396.0 L300.6,397.0
		L301.8,398.0 L302.9,399.0 L304.0,400.0 L305.1,401.0 L306.3,402.0 L307.4,403.0 L308.5,404.0 L309.7,405.0
		L310.8,405.9 L311.9,406.9 L313.0,407.9 L314.2,408.9 L315.3,409.8 L316.4,410.8 L317.5,411.8 L318.7,412.7
		L319.8,413.7 L320.9,414.7 L322.0,415.6 L323.2,416.6 L324.3,417.5 L325.4,418.5 L326.5,419.4 L327.7,420.4
		L328.8,421.3 L329.9,422.3 L331.0,423.2 L332.2,424.2 L333.3,425.1 L334.4,426.0 L335.5,427.0 L336.7,427.9
		L337.8,428.8 L338.9,429.7 L340.0,430.7 L341.2,431.6 L342.3,432.5 L343.4,433.4 L344.5,434.3 L345.7,435.2
		L346.8,436.1 L347.9,437.1 L349.0,438.0 L350.2,438.9 L351.3,439.8 L352.4,440.6 L353.5,441.5 L354.7,442.4
		L355.8,443.3 L356.9,444.2 L358.0,445.1 L359.2,446.0 L360.3,446.9 L361.4,447.7 L362.5,448.6 L363.7,449.5
		L364.8,450.4 L365.9,451.2 L367.0,452.1 L368.2,452.9 L369.3,453.8 L370.4,454.7 L371.5,455.5 L372.7,456.4
		L373.8,457.2 L374.9,458.1 L376.1,458.9 L377.2,459.8 L378.3,460.6 L379.4,461.4 L380.6,462.3 L381.7,463.1
		L382.8,464.0 L383.9,464.8 L385.1,465.6 L386.2,466.4 L387.3,467.3 L388.4,468.1 L389.6,468.9 L390.7,469.7
		L391.8,470.5 L392.9,471.3 L394.1,472.2 L395.2,473.0 L396.3,473.8 L397.4,474.6 L398.6,475.4 L399.7,476.2
		L400.8,477.0 L401.9,477.8 L403.1,478.5 L404.2,479.3 L405.3,480.1 L406.4,480.9 L407.6,481.7 L408.7,482.5
		L409.8,483.2 L410.9,484.0 L412.1,484.8 L413.2,485.6 L414.3,486.3 L415.4,487.1 L416.6,487.9 L417.7,488.6
		L418.8,489.4 L419.9,490.1 L421.1,490.9 L422.2,491.7 L423.3,492.4 L424.4,493.2 L425.6,493.9 L426.7,494.7
		L427.8,495.4 L428.9,496.1 L430.1,496.9 L431.2,497.6 L432.3,498.3 L433.4,499.1 L434.6,499.8 L435.7,500.5
		L436.8,501.3 L437.9,502.0 L439.1,502.7 L440.2,503.4 L441.3,504.2 L442.5,504.9 L443.6,505.6 L444.7,506.3
		L445.8,507.0 L447.0,507.7 L448.1,508.4 L449.2,509.1 L450.3,509.8 L451.5,510.5 L452.6,511.2 L453.7,511.9
		L454.8,512.6 L456.0,513.3 L457.1,514.0 L458.2,514.7 L459.3,515.4 L460.5,516.0 L461.6,516.7 L462.7,517.4
		L463.8,518.1 L465.0,518.8 L466.1,519.4 L467.2,520.1 L468.3,520.8 L469.5,521.4 L470.6,522.1 L471.7,522.8
		L472.8,523.4 L474.0,524.1 L475.1,524.8 L476.2,525.4 L477.3,526.1 L478.5,526.7 L479.6,527.4 L480.7,528.0
		L481.8,528.7 L483.0,529.3 L484.1,530.0 L485.2,530.6 L486.3,531.2 L487.5,531.9 L488.6,532.5 L489.7,533.1
		L490.8,533.8 L492.0,534.4 L493.1,535.0 L494.2,535.7 L495.3,536.3 L496.5,536.9 L497.6,537.5 L498.7,538.1
		L499.8,538.8 L501.0,539.4 L502.1,540.0 L503.2,540.6 L504.3,541.2 L505.5,541.8 L506.6,542.4 L507.7,543.0
		L508.8,543.6 L510.0,544.2 L511.1,544.8 L512.2,545.4 L513.4,546.0 L514.5,546.6 L515.6,547.2 L516.7,547.8
		L517.9,548.4 L519.0,549.0 L520.1,549.6 L521.2,550.2 L522.4,550.7 L523.5,551.3 L524.6,551.9 L525.7,552.5
		L526.9,553.1 L528.0,553.6 L529.1,554.2 L530.2,554.8 L531.4,555.3 L532.5,555.9 L533.6,556.5 L534.7,557.0
		L535.9,557.6 L537.0,558.2 L538.1,558.7 L539.2,559.3 L540.4,559.8 L541.5,560.4 L542.6,560.9 L543.7,561.5
		L544.9,562.0 L546.0,562.6 L547.1,563.1 L548.2,563.7 L549.4,564.2 L550.5,564.8 L551.6,565.3 L552.7,565.8
		L553.9,566.4 L555.0,566.9 L556.1,567.5 L557.2,568.0 L558.4,568.5 L559.5,569.0 L560.6,569.6 L561.7,570.1
		L562.9,570.6 L564.0,571.1 L565.1,571.7 L566.2,572.2 L567.4,572.7 L568.5,573.2 L569.6,573.7 L570.7,574.3
		L571.9,574.8 L573.0,575.3 L574.1,575.8 L575.2,576.3 L576.4,576.8 L577.5,577.3 L578.6,577.8 L579.8,578.3
		L580.9,578.8 L582.0,579.3 L583.1,579.8 L584.3,580.3 L585.4,580.8 L586.5,581.3 L587.6,581.8 L588.8,582.3
		L589.9,582.8 L591.0,583.2 L592.1,583.7 L593.3,584.2 L594.4,584.7 L595.5,585.2 L596.6,585.7 L597.8,586.1
		L598.9,586.6 L600.0,587.1 L601.1,587.6 L602.3,588.0 L603.4,588.5 L604.5,589.0 L605.6,589.4 L606.8,589.9
		L607.9,590.4 L609.0,590.8 L610.1,591.3 L611.3,591.8 L612.4,592.2 L613.5,592.7 L614.6,593.1 L615.8,593.6
		L616.9,594.0 L618.0,594.5 L619.1,594.9 L620.3,595.4 L621.4,595.8 L622.5,596.3 L623.6,596.7 L624.8,597.2
		L625.9,597.6 L627.0,598.1 L628.1,598.5 L629.3,598.9 L630.4,599.4 L631.5,599.8 L632.6,600.3 L633.8,600.7
		L634.9,601.1 L636.0,601.5 L637.1,602.0 L638.3,602.4 L639.4,602.8 L640.5,603.3 L641.6,603.7 L642.8,604.1
		L643.9,604.5 L645.0,604.9 L646.2,605.4 L647.3,605.8 L648.4,606.2 L649.5,606.6 L650.7,607.0 L651.8,607.4
		L652.9,607.9 L654.0,608.3 L655.2,608.7 L656.3,609.1 L657.4,609.5 L658.5,609.9 L659.7,610.3 L660.8,610.7
		L661.9,611.1 L663.0,611.5 L664.2,611.9 L665.3,612.3 L666.4,612.7 L667.5,613.1 L668.7,613.5 L669.8,613.9
		L670.9,614.3 L672.0,614.6 L673.2,615.0 L674.3,615.4 L675.4,615.8 L676.5,616.2 L677.7,616.6 L678.8,616.9
		L679.9,617.3 L681.0,617.7 L682.2,618.1 L683.3,618.5 L684.4,618.8 L685.5,619.2 L686.7,619.6 L687.8,620.0
		L688.9,620.3 L690.0,620.7 L691.2,621.1 L692.3,621.4 L693.4,621.8 L694.5,622.2 L695.7,622.5 L696.8,622.9
		L697.9,623.2 L699.0,623.6 L700.2,624.0 L701.3,624.3 L702.4,624.7 L703.5,625.0 L704.7,625.4 L705.8,625.7
		L706.9,626.1 L708.0,626.4 L709.2,626.8 L710.3,627.1 L711.4,627.5 L712.5,627.8 L713.7,628.1 L714.8,628.5
		L715.9,628.8 L717.1,629.2 L718.2,629.5 L719.3,629.8 L720.4,630.2 L721.6,630.5 L722.7,630.8 L723.8,631.2
		L724.9,631.5 L726.1,631.8 L727.2,632.2 L728.3,632.5 L729.4,632.8 L730.6,633.1 L731.7,633.5 L732.8,633.8
		L733.9,634.1 L735.1,634.4 L736.2,634.7 L737.3,635.1 L738.4,635.4 L739.6,635.7 L740.7,636.0 L741.8,636.3
		L742.9,636.6 L744.1,636.9 L745.2,637.3 L746.3,637.6 L747.4,637.9 L748.6,638.2 L749.7,638.5 L750.8,638.8
		L751.9,639.1 L753.1,639.4 L754.2,639.7 L755.3,640.0 L756.4,640.3 L757.6,640.6 L758.7,640.9 L759.8,641.2
		L760.9,641.4 L762.1,641.7 L763.2,642.0 L764.3,642.3 L765.4,642.6 L766.6,642.9 L767.7,643.2 L768.8,643.5
		L769.9,643.7 L771.1,644.0 L772.2,644.3 L773.3,644.6 L774.4,644.8 L775.6,645.1 L776.7,645.4 L777.8,645.7
		L778.9,645.9 L780.1,646.2 L781.2,646.5 L782.3,646.8 L783.5,647.0 L784.6,647.3 L785.7,647.6 L786.8,647.8
		L788.0,648.1 L789.1,648.3 L790.2,648.6 L791.3,648.9 L792.5,649.1 L793.6,649.4 L794.7,649.6 L795.8,649.9
		L797.0,650.1 L798.1,650.4 L799.2,650.6 L800.3,650.9 L801.5,651.1 L802.6,651.4 L803.7,651.6 L804.8,651.9
		L806.0,652.1 L807.1,652.4 L808.2,652.6 L809.3,652.8 L810.5,653.1 L811.6,653.3 L812.7,653.5 L813.8,653.8
		L815.0,654.0 L816.1,654.2 L817.2,654.5 L818.3,654.7 L819.5,654.9 L820.6,655.1 L821.7,655.4 L822.8,655.6
		L824.0,655.8 L825.1,656.0 L826.2,656.3 L827.3,656.5 L828.5,656.7 L829.6,656.9 L830.7,657.1 L831.8,657.3
		L833.0,657.5 L834.1,657.8 L835.2,658.0 L836.3,658.2 L837.5,658.4 L838.6,658.6 L839.7,658.8 L840.8,659.0
		L842.0,659.2 L843.1,659.4 L844.2,659.6 L845.3,659.8 L846.5,660.0 L847.6,660.2 L848.7,660.4 L849.9,660.6
		L851.0,660.8 L852.1,661.0 L853.2,661.1 L854.4,661.3 L855.5,661.5 L856.6,661.7 L857.7,661.9 L858.9,662.1
		L860.0,662.2 L861.1,662.4 L862.2,662.6 L863.4,662.8 L864.5,662.9 L865.6,663.1 L866.7,663.3 L867.9,663.5
		L869.0,663.6 L870.1,663.8 L871.2,664.0 L872.4,664.1 L873.5,664.3 L874.6,664.5 L875.7,664.6 L876.9,664.8
		L878.0,664.9 L879.1,665.1 L880.2,665.2 L881.4,665.4 L882.5,665.5 L883.6,665.7 L884.7,665.8 L885.9,666.0
		L887.0,666.1 L888.1,666.3 L889.2,666.4 L890.4,666.6 L891.5,666.7 L892.6,666.8 L893.7,667.0 L894.9,667.1
		L896.0,667.2 L897.1,667.4 L898.2,667.5 L899.4,667.6 L900.5,667.8 L901.6,667.9 L902.7,668.0 L903.9,668.1
		L905.0,668.3 L906.1,668.4 L907.2,668.5 L908.4,668.6 L909.5,668.7 L910.6,668.8 L911.7,669.0 L912.9,669.1
		L914.0,669.2 L915.1,669.3 L916.2,669.4 L917.4,669.5 L918.5,669.6 L919.6,669.7 L920.8,669.8 L921.9,669.9
		L923.0,670.0 L924.1,670.1 L925.3,670.2 L926.4,670.3 L927.5,670.4 L928.6,670.4 L929.8,670.5 L930.9,670.6
		L932.0,670.7 L933.1,670.8 L934.3,670.9 L935.4,670.9 L936.5,671.0 L937.6,671.1 L938.8,671.2 L939.9,671.2
		L941.0,671.3 L942.1,671.4 L943.3,671.4 L944.4,671.5 L945.5,671.5 L946.6,671.6 L947.8,671.7 L948.9,671.7
		L950.0,671.8 L951.1,671.8 L952.3,671.9 L953.4,671.9 L954.5,672.0 L955.6,672.0 L956.8,672.1 L957.9,672.1
		L959.0,672.1 L960.1,672.2 L961.3,672.2 L962.4,672.2 L963.5,672.3 L964.6,672.3 L965.8,672.3 L966.9,672.4
		L968.0,672.4 L969.1,672.4 L970.3,672.4 L971.4,672.4 L972.5,672.5 L973.6,672.5 L974.8,672.5 L975.9,672.5
		L977.0,672.5 L978.1,672.5 L979.3,672.5 L980.4,672.5 L981.5,672.5 L982.6,672.5 L983.8,672.5 L984.9,672.5
		L986.0,672.5 L987.2,672.5 L988.3,672.5 L989.4,672.4 L990.5,672.4 L991.7,672.4 L992.8,672.4 L993.9,672.4
		L995.0,672.3 L996.2,672.3 L997.3,672.3 L998.4,672.2 L999.5,672.2 L1000.7,672.2 L1001.8,672.1 L1002.9,672.1
		L1004.0,672.1 L1005.2,672.0 L1006.3,672.0 L1007.4,671.9 L1008.5,671.9 L1009.7,671.8 L1010.8,671.7 L1011.9,671.7
		L1013.0,671.6 L1014.2,671.6 L1015.3,671.5 L1016.4,671.4 L1017.5,671.4 L1018.7,671.3 L1019.8,671.2 L1020.9,671.1
		L1022.0,671.1 L1023.2,671.0 L1024.3,670.9 L1025.4,670.8 L1026.5,670.7 L1027.7,670.6 L1028.8,670.5 L1029.9,670.4
		L1031.0,670.3 L1032.2,670.2 L1033.3,670.1 L1034.4,670.0 L1035.5,669.9 L1036.7,669.8 L1037.8,669.7 L1038.9,669.6
		L1040.0,669.5 L1041.2,669.3 L1042.3,669.2 L1043.4,669.1 L1044.5,669.0 L1045.7,668.8 L1046.8,668.7 L1047.9,668.6
		L1049.0,668.4 L1050.2,668.3 L1051.3,668.2 L1052.4,668.0 L1053.6,667.9 L1054.7,667.7 L1055.8,667.6 L1056.9,667.4
		L1058.1,667.3 L1059.2,667.1 L1060.3,667.0 L1061.4,666.8 L1062.6,666.6 L1063.7,666.5 L1064.8,666.3 L1065.9,666.1
		L1067.1,666.0 L1068.2,665.8 L1069.3,665.6 L1070.4,665.4 L1071.6,665.2 L1072.7,665.1 L1073.8,664.9 L1074.9,664.7
		L1076.1,664.5 L1077.2,664.3 L1078.3,664.1 L1079.4,663.9 L1080.6,663.7 L1081.7,663.5 L1082.8,663.3 L1083.9,663.1
		L1085.1,662.9 L1086.2,662.7 L1087.3,662.5 L1088.4,662.2 L1089.6,662.0 L1090.7,661.8 L1091.8,661.6 L1092.9,661.4
		L1094.1,661.1 L1095.2,660.9 L1096.3,660.7 L1097.4,660.4 L1098.6,660.2 L1099.7,660.0 L1100.8,659.7 L1101.9,659.5
		L1103.1,659.3 L1104.2,659.0 L1105.3,658.8 L1106.4,658.5 L1107.6,658.3 L1108.7,658.0 L1109.8,657.8 L1110.9,657.5
		L1112.1,657.3 L1113.2,657.0 L1114.3,656.8 L1115.4,656.5 L1116.6,656.2 L1117.7,656.0 L1118.8,655.7 L1120.0,655.4
		L1121.1,655.2 L1122.2,654.9 L1123.3,654.6 L1124.5,654.4 L1125.6,654.1 L1126.7,653.8 L1127.8,653.6 L1129.0,653.3
		L1130.1,653.0 L1131.2,652.7 L1132.3,652.5 L1133.5,652.2 L1134.6,651.9 L1135.7,651.6 L1136.8,651.4 L1138.0,651.1
		L1139.1,650.8 L1140.2,650.5 L1141.3,650.2 L1142.5,649.9 L1143.6,649.7 L1144.7,649.4 L1145.8,649.1 L1147.0,648.8
		L1148.1,648.5 L1149.2,648.3 L1150.3,648.0 L1151.5,647.7 L1152.6,647.4 L1153.7,647.1 L1154.8,646.8 L1156.0,646.6
		L1157.1,646.3 L1158.2,646.0 L1159.3,645.7 L1160.5,645.4 L1161.6,645.2 L1162.7,644.9 L1163.8,644.6 L1165.0,644.3
		L1166.1,644.1 L1167.2,643.8 L1168.3,643.5 L1169.5,643.2 L1170.6,643.0 L1171.7,642.7 L1172.8,642.4 L1174.0,642.2
		L1175.1,641.9 L1176.2,641.6 L1177.3,641.4 L1178.5,641.1 L1179.6,640.8 L1180.7,640.6 L1181.8,640.3 L1183.0,640.1
		L1184.1,639.8 L1185.2,639.6 L1186.3,639.3 L1187.5,639.1 L1188.6,638.8 L1189.7,638.6 L1190.9,638.4 L1192.0,638.1
		L1193.1,637.9 L1194.2,637.7 L1195.4,637.4 L1196.5,637.2 L1197.6,637.0 L1198.7,636.8 L1199.9,636.5 L1201.0,636.3
		L1202.1,636.1 L1203.2,635.9 L1204.4,635.7 L1205.5,635.5 L1206.6,635.3 L1207.7,635.1 L1208.9,634.9 L1210.0,634.8
		L1211.1,634.6 L1212.2,634.4 L1213.4,634.2 L1214.5,634.1 L1215.6,633.9 L1216.7,633.7 L1217.9,633.6 L1219.0,633.4
		L1220.1,633.3 L1221.2,633.1 L1222.4,633.0 L1223.5,632.8 L1224.6,632.7 L1225.7,632.6 L1226.9,632.5 L1228.0,632.3
		L1229.1,632.2 L1230.2,632.1 L1231.4,632.0 L1232.5,631.9 L1233.6,631.8 L1234.7,631.7 L1235.9,631.6 L1237.0,631.5
		L1238.1,631.5 L1239.2,631.4 L1240.4,631.3 L1241.5,631.3 L1242.6,631.2 L1243.7,631.2 L1244.9,631.1 L1246.0,631.1
		L1247.1,631.0 L1248.2,631.0 L1249.4,631.0 L1250.5,630.9 L1251.6,630.9 L1252.7,630.9 L1253.9,630.9 L1255.0,630.9
		 '/></g>
	</g>
	<g id="gnuplot_plot_6" ><title>gnuplot_plot_6</title>
<g fill="none" color="black" stroke="currentColor" stroke-width="1.00" stroke-linecap="butt" stroke-linejoin="miter">
	<path stroke='rgb(  0,   0, 255)'  d='M103.7,64.6 L104.8,67.3 L106.0,74.8 L107.1,86.0 L108.2,99.5 L109.3,113.8 L110.5,128.0 L111.6,141.3
		L112.7,153.3 L113.8,163.9 L115.0,173.1 L116.1,181.0 L117.2,187.7 L118.3,193.4 L119.5,198.2 L120.6,202.3
		L121.7,205.8 L122.8,208.8 L124.0,211.4 L125.1,213.7 L126.2,215.7 L127.3,217.4 L128.5,219.0 L129.6,220.5
		L130.7,221.8 L131.8,223.0 L133.0,224.1 L134.1,225.1 L135.2,226.1 L136.3,227.1 L137.5,228.0 L138.6,228.8
		L139.7,229.7 L140.8,230.5 L142.0,231.3 L143.1,232.1 L144.2,232.9 L145.3,233.7 L146.5,234.5 L147.6,235.3
		L148.7,236.1 L149.8,236.8 L151.0,237.6 L152.1,238.4 L153.2,239.2 L154.3,240.0 L155.5,240.8 L156.6,241.6
		L157.7,242.4 L158.8,243.2 L160.0,244.0 L161.1,244.9 L162.2,245.7 L163.3,246.5 L164.5,247.4 L165.6,248.2
		L166.7,249.1 L167.8,250.0 L169.0,250.9 L170.1,251.7 L171.2,252.6 L172.4,253.5 L173.5,254.4 L174.6,255.4
		L175.7,256.3 L176.9,257.2 L178.0,258.1 L179.1,259.1 L180.2,260.0 L181.4,261.0 L182.5,261.9 L183.6,262.9
		L184.7,263.9 L185.9,264.8 L187.0,265.8 L188.1,266.8 L189.2,267.8 L190.4,268.8 L191.5,269.8 L192.6,270.8
		L193.7,271.8 L194.9,272.8 L196.0,273.9 L197.1,274.9 L198.2,275.9 L199.4,277.0 L200.5,278.0 L201.6,279.0
		L202.7,280.1 L203.9,281.1 L205.0,282.2 L206.1,283.2 L207.2,284.3 L208.4,285.4 L209.5,286.4 L210.6,287.5
		L211.7,288.6 L212.9,289.6 L214.0,290.7 L215.1,291.8 L216.2,292.9 L217.4,293.9 L218.5,295.0 L219.6,296.1
		L220.7,297.2 L221.9,298.3 L223.0,299.4 L224.1,300.4 L225.2,301.5 L226.4,302.6 L227.5,303.7 L228.6,304.8
		L229.7,305.9 L230.9,307.0 L232.0,308.1 L233.1,309.2 L234.2,310.3 L235.4,311.4 L236.5,312.5 L237.6,313.6
		L238.7,314.7 L239.9,315.8 L241.0,316.9 L242.1,318.0 L243.3,319.1 L244.4,320.2 L245.5,321.3 L246.6,322.4
		L247.8,323.4 L248.9,324.5 L250.0,325.6 L251.1,326.7 L252.3,327.8 L253.4,328.9 L254.5,330.0 L255.6,331.1
		L256.8,332.2 L257.9,333.3 L259.0,334.4 L260.1,335.4 L261.3,336.5 L262.4,337.6 L263.5,338.7 L264.6,339.8
		L265.8,340.9 L266.9,341.9 L268.0,343.0 L269.1,344.1 L270.3,345.2 L271.4,346.2 L272.5,347.3 L273.6,348.4
		L274.8,349.4 L275.9,350.5 L277.0,351.6 L278.1,352.6 L279.3,353.7 L280.4,354.7 L281.5,355.8 L282.6,356.9
		L283.8,357.9 L284.9,359.0 L286.0,360.0 L287.1,361.1 L288.3,362.1 L289.4,363.1 L290.5,364.2 L291.6,365.2
		L292.8,366.3 L293.9,367.3 L295.0,368.3 L296.1,369.4 L297.3,370.4 L298.4,371.4 L299.5,372.4 L300.6,373.5
		L301.8,374.5 L302.9,375.5 L304.0,376.5 L305.1,377.5 L306.3,378.5 L307.4,379.5 L308.5,380.5 L309.7,381.5
		L310.8,382.5 L311.9,383.5 L313.0,384.5 L314.2,385.5 L315.3,386.5 L316.4,387.5 L317.5,388.5 L318.7,389.5
		L319.8,390.5 L320.9,391.4 L322.0,392.4 L323.2,393.4 L324.3,394.4 L325.4,395.3 L326.5,396.3 L327.7,397.3
		L328.8,398.2 L329.9,399.2 L331.0,400.1 L332.2,401.1 L333.3,402.1 L334.4,403.0 L335.5,404.0 L336.7,404.9
		L337.8,405.8 L338.9,406.8 L340.0,407.7 L341.2,408.6 L342.3,409.6 L343.4,410.5 L344.5,411.4 L345.7,412.4
		L346.8,413.3 L347.9,414.2 L349.0,415.1 L350.2,416.0 L351.3,416.9 L352.4,417.9 L353.5,418.8 L354.7,419.7
		L355.8,420.6 L356.9,421.5 L358.0,422.4 L359.2,423.3 L360.3,424.2 L361.4,425.0 L362.5,425.9 L363.7,426.8
		L364.8,427.7 L365.9,428.6 L367.0,429.5 L368.2,430.3 L369.3,431.2 L370.4,432.1 L371.5,432.9 L372.7,433.8
		L373.8,434.7 L374.9,435.5 L376.1,436.4 L377.2,437.2 L378.3,438.1 L379.4,438.9 L380.6,439.8 L381.7,440.6
		L382.8,441.5 L383.9,442.3 L385.1,443.2 L386.2,444.0 L387.3,444.8 L388.4,445.7 L389.6,446.5 L390.7,447.3
		L391.8,448.1 L392.9,449.0 L394.1,449.8 L395.2,450.6 L396.3,451.4 L397.4,452.2 L398.6,453.0 L399.7,453.8
		L400.8,454.6 L401.9,455.5 L403.1,456.3 L404.2,457.0 L405.3,457.8 L406.4,458.6 L407.6,459.4 L408.7,460.2
		L409.8,461.0 L410.9,461.8 L412.1,462.6 L413.2,463.4 L414.3,464.1 L415.4,464.9 L416.6,465.7 L417.7,466.4
		L418.8,467.2 L419.9,468.0 L421.1,468.7 L422.2,469.5 L423.3,470.3 L424.4,471.0 L425.6,471.8 L426.7,472.5
		L427.8,473.3 L428.9,474.0 L430.1,474.8 L431.2,475.5 L432.3,476.3 L433.4,477.0 L434.6,477.7 L435.7,478.5
		L436.8,479.2 L437.9,479.9 L439.1,480.7 L440.2,481.4 L441.3,482.1 L442.5,482.8 L443.6,483.6 L444.7,484.3
		L445.8,485.0 L447.0,485.7 L448.1,486.4 L449.2,487.1 L450.3,487.8 L451.5,488.5 L452.6,489.3 L453.7,490.0
		L454.8,490.7 L456.0,491.4 L457.1,492.0 L458.2,492.7 L459.3,493.4 L460.5,494.1 L461.6,494.8 L462.7,495.5
		L463.8,496.2 L465.0,496.9 L466.1,497.5 L467.2,498.2 L468.3,498.9 L469.5,499.6 L470.6,500.2 L471.7,500.9
		L472.8,501.6 L474.0,502.2 L475.1,502.9 L476.2,503.6 L477.3,504.2 L478.5,504.9 L479.6,505.5 L480.7,506.2
		L481.8,506.8 L483.0,507.5 L484.1,508.1 L485.2,508.8 L486.3,509.4 L487.5,510.1 L488.6,510.7 L489.7,511.4
		L490.8,512.0 L492.0,512.6 L493.1,513.3 L494.2,513.9 L495.3,514.5 L496.5,515.1 L497.6,515.8 L498.7,516.4
		L499.8,517.0 L501.0,517.6 L502.1,518.3 L503.2,518.9 L504.3,519.5 L505.5,520.1 L506.6,520.7 L507.7,521.3
		L508.8,521.9 L510.0,522.5 L511.1,523.1 L512.2,523.7 L513.4,524.3 L514.5,524.9 L515.6,525.5 L516.7,526.1
		L517.9,526.7 L519.0,527.3 L520.1,527.9 L521.2,528.5 L522.4,529.1 L523.5,529.7 L524.6,530.2 L525.7,530.8
		L526.9,531.4 L528.0,532.0 L529.1,532.6 L530.2,533.1 L531.4,533.7 L532.5,534.3 L533.6,534.8 L534.7,535.4
		L535.9,536.0 L537.0,536.5 L538.1,537.1 L539.2,537.7 L540.4,538.2 L541.5,538.8 L542.6,539.3 L543.7,539.9
		L544.9,540.5 L546.0,541.0 L547.1,541.6 L548.2,542.1 L549.4,542.6 L550.5,543.2 L551.6,543.7 L552.7,544.3
		L553.9,544.8 L555.0,545.4 L556.1,545.9 L557.2,546.4 L558.4,547.0 L559.5,547.5 L560.6,548.0 L561.7,548.5
		L562.9,549.1 L564.0,549.6 L565.1,550.1 L566.2,550.6 L567.4,551.2 L568.5,551.7 L569.6,552.2 L570.7,552.7
		L571.9,553.2 L573.0,553.7 L574.1,554.3 L575.2,554.8 L576.4,555.3 L577.5,555.8 L578.6,556.3 L579.8,556.8
		L580.9,557.3 L582.0,557.8 L583.1,558.3 L584.3,558.8 L585.4,559.3 L586.5,559.8 L587.6,560.3 L588.8,560.8
		L589.9,561.3 L591.0,561.8 L592.1,562.2 L593.3,562.7 L594.4,563.2 L595.5,563.7 L596.6,564.2 L597.8,564.7
		L598.9,565.1 L600.0,565.6 L601.1,566.1 L602.3,566.6 L603.4,567.0 L604.5,567.5 L605.6,568.0 L606.8,568.4
		L607.9,568.9 L609.0,569.4 L610.1,569.8 L611.3,570.3 L612.4,570.8 L613.5,571.2 L614.6,571.7 L615.8,572.1
		L616.9,572.6 L618.0,573.1 L619.1,573.5 L620.3,574.0 L621.4,574.4 L622.5,574.9 L623.6,575.3 L624.8,575.8
		L625.9,576.2 L627.0,576.6 L628.1,577.1 L629.3,577.5 L630.4,578.0 L631.5,578.4 L632.6,578.8 L633.8,579.3
		L634.9,579.7 L636.0,580.1 L637.1,580.6 L638.3,581.0 L639.4,581.4 L640.5,581.9 L641.6,582.3 L642.8,582.7
		L643.9,583.1 L645.0,583.5 L646.2,584.0 L647.3,584.4 L648.4,584.8 L649.5,585.2 L650.7,585.6 L651.8,586.0
		L652.9,586.5 L654.0,586.9 L655.2,587.3 L656.3,587.7 L657.4,588.1 L658.5,588.5 L659.7,588.9 L660.8,589.3
		L661.9,589.7 L663.0,590.1 L664.2,590.5 L665.3,590.9 L666.4,591.3 L667.5,591.7 L668.7,592.1 L669.8,592.5
		L670.9,592.9 L672.0,593.3 L673.2,593.7 L674.3,594.0 L675.4,594.4 L676.5,594.8 L677.7,595.2 L678.8,595.6
		L679.9,596.0 L681.0,596.3 L682.2,596.7 L683.3,597.1 L684.4,597.5 L685.5,597.8 L686.7,598.2 L687.8,598.6
		L688.9,599.0 L690.0,599.3 L691.2,599.7 L692.3,600.1 L693.4,600.4 L694.5,600.8 L695.7,601.2 L696.8,601.5
		L697.9,601.9 L699.0,602.2 L700.2,602.6 L701.3,603.0 L702.4,603.3 L703.5,603.7 L704.7,604.0 L705.8,604.4
		L706.9,604.7 L708.0,605.1 L709.2,605.4 L710.3,605.8 L711.4,606.1 L712.5,606.5 L713.7,606.8 L714.8,607.1
		L715.9,607.5 L717.1,607.8 L718.2,608.2 L719.3,608.5 L720.4,608.8 L721.6,609.2 L722.7,609.5 L723.8,609.8
		L724.9,610.2 L726.1,610.5 L727.2,610.8 L728.3,611.2 L729.4,611.5 L730.6,611.8 L731.7,612.1 L732.8,612.4
		L733.9,612.8 L735.1,613.1 L736.2,613.4 L737.3,613.7 L738.4,614.0 L739.6,614.4 L740.7,614.7 L741.8,615.0
		L742.9,615.3 L744.1,615.6 L745.2,615.9 L746.3,616.2 L747.4,616.5 L748.6,616.8 L749.7,617.1 L750.8,617.4
		L751.9,617.7 L753.1,618.0 L754.2,618.3 L755.3,618.6 L756.4,618.9 L757.6,619.2 L758.7,619.5 L759.8,619.8
		L760.9,620.1 L762.1,620.4 L763.2,620.7 L764.3,621.0 L765.4,621.3 L766.6,621.5 L767.7,621.8 L768.8,622.1
		L769.9,622.4 L771.1,622.7 L772.2,622.9 L773.3,623.2 L774.4,623.5 L775.6,623.8 L776.7,624.1 L777.8,624.3
		L778.9,624.6 L780.1,624.9 L781.2,625.1 L782.3,625.4 L783.5,625.7 L784.6,625.9 L785.7,626.2 L786.8,626.5
		L788.0,626.7 L789.1,627.0 L790.2,627.2 L791.3,627.5 L792.5,627.8 L793.6,628.0 L794.7,628.3 L795.8,628.5
		L797.0,628.8 L798.1,629.0 L799.2,629.3 L800.3,629.5 L801.5,629.8 L802.6,630.0 L803.7,630.3 L804.8,630.5
		L806.0,630.7 L807.1,631.0 L808.2,631.2 L809.3,631.5 L810.5,631.7 L811.6,631.9 L812.7,632.2 L813.8,632.4
		L815.0,632.6 L816.1,632.9 L817.2,633.1 L818.3,633.3 L819.5,633.5 L820.6,633.8 L821.7,634.0 L822.8,634.2
		L824.0,634.4 L825.1,634.7 L826.2,634.9 L827.3,635.1 L828.5,635.3 L829.6,635.5 L830.7,635.7 L831.8,635.9
		L833.0,636.2 L834.1,636.4 L835.2,636.6 L836.3,636.8 L837.5,637.0 L838.6,637.2 L839.7,637.4 L840.8,637.6
		L842.0,637.8 L843.1,638.0 L844.2,638.2 L845.3,638.4 L846.5,638.6 L847.6,638.8 L848.7,639.0 L849.9,639.2
		L851.0,639.3 L852.1,639.5 L853.2,639.7 L854.4,639.9 L855.5,640.1 L856.6,640.3 L857.7,640.4 L858.9,640.6
		L860.0,640.8 L861.1,641.0 L862.2,641.2 L863.4,641.3 L864.5,641.5 L865.6,641.7 L866.7,641.8 L867.9,642.0
		L869.0,642.2 L870.1,642.3 L871.2,642.5 L872.4,642.7 L873.5,642.8 L874.6,643.0 L875.7,643.1 L876.9,643.3
		L878.0,643.5 L879.1,643.6 L880.2,643.8 L881.4,643.9 L882.5,644.1 L883.6,644.2 L884.7,644.4 L885.9,644.5
		L887.0,644.6 L888.1,644.8 L889.2,644.9 L890.4,645.1 L891.5,645.2 L892.6,645.3 L893.7,645.5 L894.9,645.6
		L896.0,645.7 L897.1,645.9 L898.2,646.0 L899.4,646.1 L900.5,646.2 L901.6,646.4 L902.7,646.5 L903.9,646.6
		L905.0,646.7 L906.1,646.8 L907.2,647.0 L908.4,647.1 L909.5,647.2 L910.6,647.3 L911.7,647.4 L912.9,647.5
		L914.0,647.6 L915.1,647.7 L916.2,647.8 L917.4,647.9 L918.5,648.0 L919.6,648.1 L920.8,648.2 L921.9,648.3
		L923.0,648.4 L924.1,648.5 L925.3,648.6 L926.4,648.7 L927.5,648.7 L928.6,648.8 L929.8,648.9 L930.9,649.0
		L932.0,649.1 L933.1,649.1 L934.3,649.2 L935.4,649.3 L936.5,649.4 L937.6,649.4 L938.8,649.5 L939.9,649.6
		L941.0,649.6 L942.1,649.7 L943.3,649.8 L944.4,649.8 L945.5,649.9 L946.6,649.9 L947.8,650.0 L948.9,650.0
		L950.0,650.1 L951.1,650.1 L952.3,650.2 L953.4,650.2 L954.5,650.3 L955.6,650.3 L956.8,650.3 L957.9,650.4
		L959.0,650.4 L960.1,650.4 L961.3,650.5 L962.4,650.5 L963.5,650.5 L964.6,650.5 L965.8,650.6 L966.9,650.6
		L968.0,650.6 L969.1,650.6 L970.3,650.6 L971.4,650.6 L972.5,650.7 L973.6,650.7 L974.8,650.7 L975.9,650.7
		L977.0,650.7 L978.1,650.7 L979.3,650.7 L980.4,650.7 L981.5,650.7 L982.6,650.7 L983.8,650.6 L984.9,650.6
		L986.0,650.6 L987.2,650.6 L988.3,650.6 L989.4,650.6 L990.5,650.5 L991.7,650.5 L992.8,650.5 L993.9,650.5
		L995.0,650.4 L996.2,650.4 L997.3,650.3 L998.4,650.3 L999.5,650.3 L1000.7,650.2 L1001.8,650.2 L1002.9,650.1
		L1004.0,650.1 L1005.2,650.0 L1006.3,650.0 L1007.4,649.9 L1008.5,649.9 L1009.7,649.8 L1010.8,649.7 L1011.9,649.7
		L1013.0,649.6 L1014.2,649.5 L1015.3,649.5 L1016.4,649.4 L1017.5,649.3 L1018.7,649.2 L1019.8,649.1 L1020.9,649.1
		L1022.0,649.0 L1023.2,648.9 L1024.3,648.8 L1025.4,648.7 L1026.5,648.6 L1027.7,648.5 L1028.8,648.4 L1029.9,648.3
		L1031.0,648.2 L1032.2,648.1 L1033.3,648.0 L1034.4,647.9 L1035.5,647.8 L1036.7,647.6 L1037.8,647.5 L1038.9,647.4
		L1040.0,647.3 L1041.2,647.1 L1042.3,647.0 L1043.4,646.9 L1044.5,646.7 L1045.7,646.6 L1046.8,646.5 L1047.9,646.3
		L1049.0,646.2 L1050.2,646.0 L1051.3,645.9 L1052.4,645.7 L1053.6,645.6 L1054.7,645.4 L1055.8,645.3 L1056.9,645.1
		L1058.1,644.9 L1059.2,644.8 L1060.3,644.6 L1061.4,644.4 L1062.6,644.3 L1063.7,644.1 L1064.8,643.9 L1065.9,643.7
		L1067.1,643.6 L1068.2,643.4 L1069.3,643.2 L1070.4,643.0 L1071.6,642.8 L1072.7,642.6 L1073.8,642.4 L1074.9,642.2
		L1076.1,642.0 L1077.2,641.8 L1078.3,641.6 L1079.4,641.4 L1080.6,641.2 L1081.7,641.0 L1082.8,640.8 L1083.9,640.5
		L1085.1,640.3 L1086.2,640.1 L1087.3,639.9 L1088.4,639.7 L1089.6,639.4 L1090.7,639.2 L1091.8,639.0 L1092.9,638.7
		L1094.1,638.5 L1095.2,638.3 L1096.3,638.0 L1097.4,637.8 L1098.6,637.6 L1099.7,637.3 L1100.8,637.1 L1101.9,636.8
		L1103.1,636.6 L1104.2,636.3 L1105.3,636.1 L1106.4,635.8 L1107.6,635.5 L1108.7,635.3 L1109.8,635.0 L1110.9,634.8
		L1112.1,634.5 L1113.2,634.2 L1114.3,634.0 L1115.4,633.7 L1116.6,633.4 L1117.7,633.2 L1118.8,632.9 L1120.0,632.6
		L1121.1,632.3 L1122.2,632.1 L1123.3,631.8 L1124.5,631.5 L1125.6,631.2 L1126.7,631.0 L1127.8,630.7 L1129.0,630.4
		L1130.1,630.1 L1131.2,629.8 L1132.3,629.5 L1133.5,629.3 L1134.6,629.0 L1135.7,628.7 L1136.8,628.4 L1138.0,628.1
		L1139.1,627.8 L1140.2,627.5 L1141.3,627.2 L1142.5,626.9 L1143.6,626.7 L1144.7,626.4 L1145.8,626.1 L1147.0,625.8
		L1148.1,625.5 L1149.2,625.2 L1150.3,624.9 L1151.5,624.6 L1152.6,624.3 L1153.7,624.0 L1154.8,623.7 L1156.0,623.5
		L1157.1,623.2 L1158.2,622.9 L1159.3,622.6 L1160.5,622.3 L1161.6,622.0 L1162.7,621.7 L1163.8,621.4 L1165.0,621.2
		L1166.1,620.9 L1167.2,620.6 L1168.3,620.3 L1169.5,620.0 L1170.6,619.8 L1171.7,619.5 L1172.8,619.2 L1174.0,618.9
		L1175.1,618.7 L1176.2,618.4 L1177.3,618.1 L1178.5,617.8 L1179.6,617.6 L1180.7,617.3 L1181.8,617.1 L1183.0,616.8
		L1184.1,616.5 L1185.2,616.3 L1186.3,616.0 L1187.5,615.8 L1188.6,615.5 L1189.7,615.3 L1190.9,615.0 L1192.0,614.8
		L1193.1,614.6 L1194.2,614.3 L1195.4,614.1 L1196.5,613.9 L1197.6,613.6 L1198.7,613.4 L1199.9,613.2 L1201.0,613.0
		L1202.1,612.8 L1203.2,612.5 L1204.4,612.3 L1205.5,612.1 L1206.6,611.9 L1207.7,611.7 L1208.9,611.5 L1210.0,611.4
		L1211.1,611.2 L1212.2,611.0 L1213.4,610.8 L1214.5,610.6 L1215.6,610.5 L1216.7,610.3 L1217.9,610.1 L1219.0,610.0
		L1220.1,609.8 L1221.2,609.7 L1222.4,609.5 L1223.5,609.4 L1224.6,609.3 L1225.7,609.1 L1226.9,609.0 L1228.0,608.9
		L1229.1,608.8 L1230.2,608.6 L1231.4,608.5 L1232.5,608.4 L1233.6,608.3 L1234.7,608.2 L1235.9,608.2 L1237.0,608.1
		L1238.1,608.0 L1239.2,607.9 L1240.4,607.9 L1241.5,607.8 L1242.6,607.7 L1243.7,607.7 L1244.9,607.6 L1246.0,607.6
		L1247.1,607.5 L1248.2,607.5 L1249.4,607.5 L1250.5,607.5 L1251.6,607.4 L1252.7,607.4 L1253.9,607.4 L1255.0,607.4
		 '/></g>
	</g>
<g fill="none" color="white" stroke="rgb(  0,   0, 255)" stroke-width="2.00" stroke-linecap="butt" stroke-linejoin="miter">
</g>
<g fill="none" color="black" stroke="currentColor" stroke-width="2.00" stroke-linecap="butt" stroke-linejoin="miter">
</g>
<g fill="none" color="black" stroke="black" stroke-width="1.00" stroke-linecap="butt" stroke-linejoin="miter">
</g>
<g fill="none" color="black" stroke="currentColor" stroke-width="1.00" stroke-linecap="butt" stroke-linejoin="miter">
	<path stroke='black'  d='M103.7,54.1 L103.7,684.0 L1255.0,684.0 L1255.0,54.1 L103.7,54.1 Z  '/></g>
<g fill="none" color="black" stroke="currentColor" stroke-width="1.00" stroke-linecap="butt" stroke-linejoin="miter">
</g>
</g>
</svg>

