<?xml version="1.0" encoding="utf-8"  standalone="no"?>
<svg 
 width="1280" height="720"
 viewBox="0 0 1280 720"
 xmlns="http://www.w3.org/2000/svg"
 xmlns:xlink="http://www.w3.org/1999/xlink"
>

<title>Gnuplot</title>
<desc>Produced by GNUPLOT 5.0 patchlevel 6 </desc>

<g id="gnuplot_canvas">

<rect x="0" y="0" width="1280" height="720" fill="none"/>
<defs>

	<circle id='gpDot' r='0.5' stroke-width='0.5'/>
	<path id='gpPt0' stroke-width='0.222' stroke='currentColor' d='M-1,0 h2 M0,-1 v2'/>
	<path id='gpPt1' stroke-width='0.222' stroke='currentColor' d='M-1,-1 L1,1 M1,-1 L-1,1'/>
	<path id='gpPt2' stroke-width='0.222' stroke='currentColor' d='M-1,0 L1,0 M0,-1 L0,1 M-1,-1 L1,1 M-1,1 L1,-1'/>
	<rect id='gpPt3' stroke-width='0.222' stroke='currentColor' x='-1' y='-1' width='2' height='2'/>
	<rect id='gpPt4' stroke-width='0.222' stroke='currentColor' fill='currentColor' x='-1' y='-1' width='2' height='2'/>
	<circle id='gpPt5' stroke-width='0.222' stroke='currentColor' cx='0' cy='0' r='1'/>
	<use xlink:href='#gpPt5' id='gpPt6' fill='currentColor' stroke='none'/>
	<path id='gpPt7' stroke-width='0.222' stroke='currentColor' d='M0,-1.33 L-1.33,0.67 L1.33,0.67 z'/>
	<use xlink:href='#gpPt7' id='gpPt8' fill='currentColor' stroke='none'/>
	<use xlink:href='#gpPt7' id='gpPt9' stroke='currentColor' transform='rotate(180)'/>
	<use xlink:href='#gpPt9' id='gpPt10' fill='currentColor' stroke='none'/>
	<use xlink:href='#gpPt3' id='gpPt11' stroke='currentColor' transform='rotate(45)'/>
	<use xlink:href='#gpPt11' id='gpPt12' fill='currentColor' stroke='none'/>
	<path id='gpPt13' stroke-width='0.222' stroke='currentColor' d='M0,1.330 L1.265,0.411 L0.782,-1.067 L-0.782,-1.076 L-1.265,0.411 z'/>
	<use xlink:href='#gpPt13' id='gpPt14' fill='currentColor' stroke='none'/>
	<filter id='textbox' filterUnits='objectBoundingBox' x='0' y='0' height='1' width='1'>
	  <feFlood flood-color='white' flood-opacity='1' result='bgnd'/>
	  <feComposite in='SourceGraphic' in2='bgnd' operator='atop'/>
	</filter>
	<filter id='greybox' filterUnits='objectBoundingBox' x='0' y='0' height='1' width='1'>
	  <feFlood flood-color='lightgrey' flood-opacity='1' result='grey'/>
	  <feComposite in='SourceGraphic' in2='grey' operator='atop'/>
	</filter>
</defs>
<g fill="none" color="white" stroke="currentColor" stroke-width="1.00" stroke-linecap="butt" stroke-linejoin="miter">
</g>
<g fill="none" color="black" stroke="currentColor" stroke-width="1.00" stroke-linecap="butt" stroke-linejoin="miter">
	<path stroke='black'  d='M53.9,684.2 L62.9,684.2 M1255.0,684.2 L1246.0,684.2  '/>	<g transform="translate(45.6,688.1)" stroke="none" fill="black" font-family="Arial" font-size="12.00"  text-anchor="end">
		<text><tspan font-family="Arial" > 0</tspan></text>
	</g>
</g>
<g fill="none" color="black" stroke="currentColor" stroke-width="1.00" stroke-linecap="butt" stroke-linejoin="miter">
	<path stroke='black'  d='M53.9,338.0 L62.9,338.0 M1255.0,338.0 L1246.0,338.0  '/>	<g transform="translate(45.6,341.9)" stroke="none" fill="black" font-family="Arial" font-size="12.00"  text-anchor="end">
		<text><tspan font-family="Arial" > 0.5</tspan></text>
	</g>
</g>
<g fill="none" color="black" stroke="currentColor" stroke-width="1.00" stroke-linecap="butt" stroke-linejoin="miter">
	<path stroke='black'  d='M53.9,684.0 L53.9,675.0 M53.9,54.1 L53.9,63.1  '/>	<g transform="translate(53.9,705.9)" stroke="none" fill="black" font-family="Arial" font-size="12.00"  text-anchor="middle">
		<text><tspan font-family="Arial" > 0</tspan></text>
	</g>
</g>
<g fill="none" color="black" stroke="currentColor" stroke-width="1.00" stroke-linecap="butt" stroke-linejoin="miter">
	<path stroke='black'  d='M654.5,684.0 L654.5,675.0 M654.5,54.1 L654.5,63.1  '/>	<g transform="translate(654.5,705.9)" stroke="none" fill="black" font-family="Arial" font-size="12.00"  text-anchor="middle">
		<text><tspan font-family="Arial" >pi/2</tspan></text>
	</g>
</g>
<g fill="none" color="black" stroke="currentColor" stroke-width="1.00" stroke-linecap="butt" stroke-linejoin="miter">
	<path stroke='black'  d='M1255.0,684.0 L1255.0,675.0 M1255.0,54.1 L1255.0,63.1  '/>	<g transform="translate(1255.0,705.9)" stroke="none" fill="black" font-family="Arial" font-size="12.00"  text-anchor="middle">
		<text><tspan font-family="Arial" >pi</tspan></text>
	</g>
</g>
<g fill="none" color="black" stroke="currentColor" stroke-width="1.00" stroke-linecap="butt" stroke-linejoin="miter">
</g>
<g fill="none" color="black" stroke="currentColor" stroke-width="1.00" stroke-linecap="butt" stroke-linejoin="miter">
	<path stroke='black'  d='M53.9,54.1 L53.9,684.0 L1255.0,684.0 L1255.0,54.1 L53.9,54.1 Z  '/></g>
<g fill="none" color="black" stroke="currentColor" stroke-width="1.00" stroke-linecap="butt" stroke-linejoin="miter">
	<g transform="translate(654.4,31.0)" stroke="none" fill="black" font-family="Arial" font-size="12.00"  text-anchor="middle">
		<text><tspan font-family="Arial" >Material 1, with 1 components</tspan></text>
	</g>
</g>
	<g id="gnuplot_plot_1" ><title>scattering function</title>
<g fill="none" color="black" stroke="currentColor" stroke-width="1.00" stroke-linecap="butt" stroke-linejoin="miter">
	<g transform="translate(1187.9,76.0)" stroke="none" fill="black" font-family="Arial" font-size="12.00"  text-anchor="end">
		<text><tspan font-family="Arial" >scattering function</tspan></text>
	</g>
</g>
<g fill="none" color="black" stroke="currentColor" stroke-width="1.00" stroke-linecap="butt" stroke-linejoin="miter">
	<use xlink:href='#gpPt5' transform='translate(57.0,54.1) scale(2.25)' color='rgb(255,   0,   0)'/>
	<use xlink:href='#gpPt5' transform='translate(62.3,116.3) scale(2.25)' color='rgb(255,   0,   0)'/>
	<use xlink:href='#gpPt5' transform='translate(67.5,178.5) scale(2.25)' color='rgb(255,   0,   0)'/>
	<use xlink:href='#gpPt5' transform='translate(72.8,240.7) scale(2.25)' color='rgb(255,   0,   0)'/>
	<use xlink:href='#gpPt5' transform='translate(78.0,302.9) scale(2.25)' color='rgb(255,   0,   0)'/>
	<use xlink:href='#gpPt5' transform='translate(83.2,365.2) scale(2.25)' color='rgb(255,   0,   0)'/>
	<use xlink:href='#gpPt5' transform='translate(88.5,427.4) scale(2.25)' color='rgb(255,   0,   0)'/>
	<use xlink:href='#gpPt5' transform='translate(93.7,489.6) scale(2.25)' color='rgb(255,   0,   0)'/>
	<use xlink:href='#gpPt5' transform='translate(105.9,561.7) scale(2.25)' color='rgb(255,   0,   0)'/>
	<use xlink:href='#gpPt5' transform='translate(128.7,604.5) scale(2.25)' color='rgb(255,   0,   0)'/>
	<use xlink:href='#gpPt5' transform='translate(177.6,646.4) scale(2.25)' color='rgb(255,   0,   0)'/>
	<use xlink:href='#gpPt5' transform='translate(265.6,669.2) scale(2.25)' color='rgb(255,   0,   0)'/>
	<use xlink:href='#gpPt5' transform='translate(363.4,678.7) scale(2.25)' color='rgb(255,   0,   0)'/>
	<use xlink:href='#gpPt5' transform='translate(577.2,682.1) scale(2.25)' color='rgb(255,   0,   0)'/>
	<use xlink:href='#gpPt5' transform='translate(890.3,683.2) scale(2.25)' color='rgb(255,   0,   0)'/>
	<use xlink:href='#gpPt5' transform='translate(1255.0,683.8) scale(2.25)' color='rgb(255,   0,   0)'/>
	<use xlink:href='#gpPt5' transform='translate(1217.3,72.1) scale(2.25)' color='rgb(255,   0,   0)'/>
</g>
	</g>
	<g id="gnuplot_plot_2" ><title>fit</title>
<g fill="none" color="black" stroke="currentColor" stroke-width="1.00" stroke-linecap="butt" stroke-linejoin="miter">
	<g transform="translate(1187.9,94.0)" stroke="none" fill="black" font-family="Arial" font-size="12.00"  text-anchor="end">
		<text><tspan font-family="Arial" >fit</tspan></text>
	</g>
</g>
<g fill="none" color="black" stroke="currentColor" stroke-width="1.00" stroke-linecap="butt" stroke-linejoin="miter">
	<path stroke='rgb(255,   0,   0)'  d='M1196.2,90.1 L1238.4,90.1 M53.9,236.7 L55.1,236.9 L56.2,237.5 L57.4,238.6 L58.6,240.2 L59.8,242.1
		L60.9,244.5 L62.1,247.3 L63.3,250.5 L64.5,254.0 L65.6,257.9 L66.8,262.2 L68.0,266.7 L69.2,271.6
		L70.3,276.8 L71.5,282.2 L72.7,287.9 L73.9,293.8 L75.0,299.9 L76.2,306.1 L77.4,312.6 L78.6,319.1
		L79.7,325.8 L80.9,332.6 L82.1,339.4 L83.3,346.3 L84.4,353.2 L85.6,360.2 L86.8,367.2 L87.9,374.2
		L89.1,381.1 L90.3,388.0 L91.5,394.9 L92.6,401.7 L93.8,408.4 L95.0,415.1 L96.2,421.7 L97.3,428.2
		L98.5,434.6 L99.7,440.9 L100.9,447.1 L102.0,453.1 L103.2,459.1 L104.4,464.9 L105.6,470.7 L106.7,476.3
		L107.9,481.7 L109.1,487.1 L110.3,492.3 L111.4,497.4 L112.6,502.4 L113.8,507.3 L115.0,512.0 L116.1,516.6
		L117.3,521.1 L118.5,525.5 L119.6,529.7 L120.8,533.8 L122.0,537.9 L123.2,541.8 L124.3,545.6 L125.5,549.3
		L126.7,552.9 L127.9,556.4 L129.0,559.7 L130.2,563.0 L131.4,566.2 L132.6,569.3 L133.7,572.3 L134.9,575.3
		L136.1,578.1 L137.3,580.9 L138.4,583.5 L139.6,586.1 L140.8,588.6 L142.0,591.1 L143.1,593.5 L144.3,595.8
		L145.5,598.0 L146.7,600.2 L147.8,602.3 L149.0,604.3 L150.2,606.3 L151.3,608.2 L152.5,610.1 L153.7,611.9
		L154.9,613.7 L156.0,615.4 L157.2,617.0 L158.4,618.6 L159.6,620.2 L160.7,621.7 L161.9,623.2 L163.1,624.6
		L164.3,626.0 L165.4,627.4 L166.6,628.7 L167.8,630.0 L169.0,631.2 L170.1,632.4 L171.3,633.6 L172.5,634.7
		L173.7,635.8 L174.8,636.9 L176.0,637.9 L177.2,639.0 L178.4,640.0 L179.5,640.9 L180.7,641.9 L181.9,642.8
		L183.1,643.7 L184.2,644.5 L185.4,645.4 L186.6,646.2 L187.7,647.0 L188.9,647.8 L190.1,648.5 L191.3,649.2
		L192.4,650.0 L193.6,650.7 L194.8,651.3 L196.0,652.0 L197.1,652.6 L198.3,653.3 L199.5,653.9 L200.7,654.5
		L201.8,655.1 L203.0,655.6 L204.2,656.2 L205.4,656.7 L206.5,657.3 L207.7,657.8 L208.9,658.3 L210.1,658.8
		L211.2,659.2 L212.4,659.7 L213.6,660.2 L214.8,660.6 L215.9,661.0 L217.1,661.5 L218.3,661.9 L219.4,662.3
		L220.6,662.7 L221.8,663.1 L223.0,663.4 L224.1,663.8 L225.3,664.2 L226.5,664.5 L227.7,664.9 L228.8,665.2
		L230.0,665.5 L231.2,665.8 L232.4,666.1 L233.5,666.5 L234.7,666.8 L235.9,667.0 L237.1,667.3 L238.2,667.6
		L239.4,667.9 L240.6,668.2 L241.8,668.4 L242.9,668.7 L244.1,668.9 L245.3,669.2 L246.5,669.4 L247.6,669.7
		L248.8,669.9 L250.0,670.1 L251.1,670.3 L252.3,670.5 L253.5,670.8 L254.7,671.0 L255.8,671.2 L257.0,671.4
		L258.2,671.6 L259.4,671.8 L260.5,671.9 L261.7,672.1 L262.9,672.3 L264.1,672.5 L265.2,672.7 L266.4,672.8
		L267.6,673.0 L268.8,673.2 L269.9,673.3 L271.1,673.5 L272.3,673.6 L273.5,673.8 L274.6,673.9 L275.8,674.1
		L277.0,674.2 L278.2,674.4 L279.3,674.5 L280.5,674.6 L281.7,674.8 L282.8,674.9 L284.0,675.0 L285.2,675.2
		L286.4,675.3 L287.5,675.4 L288.7,675.5 L289.9,675.6 L291.1,675.8 L292.2,675.9 L293.4,676.0 L294.6,676.1
		L295.8,676.2 L296.9,676.3 L298.1,676.4 L299.3,676.5 L300.5,676.6 L301.6,676.7 L302.8,676.8 L304.0,676.9
		L305.2,677.0 L306.3,677.1 L307.5,677.2 L308.7,677.2 L309.9,677.3 L311.0,677.4 L312.2,677.5 L313.4,677.6
		L314.5,677.7 L315.7,677.7 L316.9,677.8 L318.1,677.9 L319.2,678.0 L320.4,678.1 L321.6,678.1 L322.8,678.2
		L323.9,678.3 L325.1,678.3 L326.3,678.4 L327.5,678.5 L328.6,678.5 L329.8,678.6 L331.0,678.7 L332.2,678.7
		L333.3,678.8 L334.5,678.9 L335.7,678.9 L336.9,679.0 L338.0,679.0 L339.2,679.1 L340.4,679.2 L341.6,679.2
		L342.7,679.3 L343.9,679.3 L345.1,679.4 L346.2,679.4 L347.4,679.5 L348.6,679.5 L349.8,679.6 L350.9,679.6
		L352.1,679.7 L353.3,679.7 L354.5,679.8 L355.6,679.8 L356.8,679.9 L358.0,679.9 L359.2,680.0 L360.3,680.0
		L361.5,680.1 L362.7,680.1 L363.9,680.1 L365.0,680.2 L366.2,680.2 L367.4,680.3 L368.6,680.3 L369.7,680.3
		L370.9,680.4 L372.1,680.4 L373.3,680.5 L374.4,680.5 L375.6,680.5 L376.8,680.6 L378.0,680.6 L379.1,680.6
		L380.3,680.7 L381.5,680.7 L382.6,680.8 L383.8,680.8 L385.0,680.8 L386.2,680.9 L387.3,680.9 L388.5,680.9
		L389.7,680.9 L390.9,681.0 L392.0,681.0 L393.2,681.0 L394.4,681.1 L395.6,681.1 L396.7,681.1 L397.9,681.2
		L399.1,681.2 L400.3,681.2 L401.4,681.2 L402.6,681.3 L403.8,681.3 L405.0,681.3 L406.1,681.3 L407.3,681.4
		L408.5,681.4 L409.7,681.4 L410.8,681.4 L412.0,681.5 L413.2,681.5 L414.3,681.5 L415.5,681.5 L416.7,681.6
		L417.9,681.6 L419.0,681.6 L420.2,681.6 L421.4,681.7 L422.6,681.7 L423.7,681.7 L424.9,681.7 L426.1,681.7
		L427.3,681.8 L428.4,681.8 L429.6,681.8 L430.8,681.8 L432.0,681.9 L433.1,681.9 L434.3,681.9 L435.5,681.9
		L436.7,681.9 L437.8,681.9 L439.0,682.0 L440.2,682.0 L441.4,682.0 L442.5,682.0 L443.7,682.0 L444.9,682.1
		L446.0,682.1 L447.2,682.1 L448.4,682.1 L449.6,682.1 L450.7,682.1 L451.9,682.2 L453.1,682.2 L454.3,682.2
		L455.4,682.2 L456.6,682.2 L457.8,682.2 L459.0,682.3 L460.1,682.3 L461.3,682.3 L462.5,682.3 L463.7,682.3
		L464.8,682.3 L466.0,682.3 L467.2,682.4 L468.4,682.4 L469.5,682.4 L470.7,682.4 L471.9,682.4 L473.1,682.4
		L474.2,682.4 L475.4,682.5 L476.6,682.5 L477.7,682.5 L478.9,682.5 L480.1,682.5 L481.3,682.5 L482.4,682.5
		L483.6,682.5 L484.8,682.6 L486.0,682.6 L487.1,682.6 L488.3,682.6 L489.5,682.6 L490.7,682.6 L491.8,682.6
		L493.0,682.6 L494.2,682.7 L495.4,682.7 L496.5,682.7 L497.7,682.7 L498.9,682.7 L500.1,682.7 L501.2,682.7
		L502.4,682.7 L503.6,682.7 L504.8,682.7 L505.9,682.8 L507.1,682.8 L508.3,682.8 L509.4,682.8 L510.6,682.8
		L511.8,682.8 L513.0,682.8 L514.1,682.8 L515.3,682.8 L516.5,682.8 L517.7,682.9 L518.8,682.9 L520.0,682.9
		L521.2,682.9 L522.4,682.9 L523.5,682.9 L524.7,682.9 L525.9,682.9 L527.1,682.9 L528.2,682.9 L529.4,682.9
		L530.6,682.9 L531.8,683.0 L532.9,683.0 L534.1,683.0 L535.3,683.0 L536.5,683.0 L537.6,683.0 L538.8,683.0
		L540.0,683.0 L541.1,683.0 L542.3,683.0 L543.5,683.0 L544.7,683.0 L545.8,683.1 L547.0,683.1 L548.2,683.1
		L549.4,683.1 L550.5,683.1 L551.7,683.1 L552.9,683.1 L554.1,683.1 L555.2,683.1 L556.4,683.1 L557.6,683.1
		L558.8,683.1 L559.9,683.1 L561.1,683.1 L562.3,683.1 L563.5,683.2 L564.6,683.2 L565.8,683.2 L567.0,683.2
		L568.2,683.2 L569.3,683.2 L570.5,683.2 L571.7,683.2 L572.9,683.2 L574.0,683.2 L575.2,683.2 L576.4,683.2
		L577.5,683.2 L578.7,683.2 L579.9,683.2 L581.1,683.2 L582.2,683.2 L583.4,683.3 L584.6,683.3 L585.8,683.3
		L586.9,683.3 L588.1,683.3 L589.3,683.3 L590.5,683.3 L591.6,683.3 L592.8,683.3 L594.0,683.3 L595.2,683.3
		L596.3,683.3 L597.5,683.3 L598.7,683.3 L599.9,683.3 L601.0,683.3 L602.2,683.3 L603.4,683.3 L604.6,683.3
		L605.7,683.4 L606.9,683.4 L608.1,683.4 L609.2,683.4 L610.4,683.4 L611.6,683.4 L612.8,683.4 L613.9,683.4
		L615.1,683.4 L616.3,683.4 L617.5,683.4 L618.6,683.4 L619.8,683.4 L621.0,683.4 L622.2,683.4 L623.3,683.4
		L624.5,683.4 L625.7,683.4 L626.9,683.4 L628.0,683.4 L629.2,683.4 L630.4,683.4 L631.6,683.4 L632.7,683.5
		L633.9,683.5 L635.1,683.5 L636.3,683.5 L637.4,683.5 L638.6,683.5 L639.8,683.5 L640.9,683.5 L642.1,683.5
		L643.3,683.5 L644.5,683.5 L645.6,683.5 L646.8,683.5 L648.0,683.5 L649.2,683.5 L650.3,683.5 L651.5,683.5
		L652.7,683.5 L653.9,683.5 L655.0,683.5 L656.2,683.5 L657.4,683.5 L658.6,683.5 L659.7,683.5 L660.9,683.5
		L662.1,683.5 L663.3,683.5 L664.4,683.5 L665.6,683.5 L666.8,683.6 L668.0,683.6 L669.1,683.6 L670.3,683.6
		L671.5,683.6 L672.6,683.6 L673.8,683.6 L675.0,683.6 L676.2,683.6 L677.3,683.6 L678.5,683.6 L679.7,683.6
		L680.9,683.6 L682.0,683.6 L683.2,683.6 L684.4,683.6 L685.6,683.6 L686.7,683.6 L687.9,683.6 L689.1,683.6
		L690.3,683.6 L691.4,683.6 L692.6,683.6 L693.8,683.6 L695.0,683.6 L696.1,683.6 L697.3,683.6 L698.5,683.6
		L699.7,683.6 L700.8,683.6 L702.0,683.6 L703.2,683.6 L704.3,683.6 L705.5,683.6 L706.7,683.6 L707.9,683.7
		L709.0,683.7 L710.2,683.7 L711.4,683.7 L712.6,683.7 L713.7,683.7 L714.9,683.7 L716.1,683.7 L717.3,683.7
		L718.4,683.7 L719.6,683.7 L720.8,683.7 L722.0,683.7 L723.1,683.7 L724.3,683.7 L725.5,683.7 L726.7,683.7
		L727.8,683.7 L729.0,683.7 L730.2,683.7 L731.4,683.7 L732.5,683.7 L733.7,683.7 L734.9,683.7 L736.0,683.7
		L737.2,683.7 L738.4,683.7 L739.6,683.7 L740.7,683.7 L741.9,683.7 L743.1,683.7 L744.3,683.7 L745.4,683.7
		L746.6,683.7 L747.8,683.7 L749.0,683.7 L750.1,683.7 L751.3,683.7 L752.5,683.7 L753.7,683.7 L754.8,683.7
		L756.0,683.7 L757.2,683.7 L758.4,683.7 L759.5,683.7 L760.7,683.7 L761.9,683.7 L763.1,683.7 L764.2,683.7
		L765.4,683.8 L766.6,683.8 L767.8,683.8 L768.9,683.8 L770.1,683.8 L771.3,683.8 L772.4,683.8 L773.6,683.8
		L774.8,683.8 L776.0,683.8 L777.1,683.8 L778.3,683.8 L779.5,683.8 L780.7,683.8 L781.8,683.8 L783.0,683.8
		L784.2,683.8 L785.4,683.8 L786.5,683.8 L787.7,683.8 L788.9,683.8 L790.1,683.8 L791.2,683.8 L792.4,683.8
		L793.6,683.8 L794.8,683.8 L795.9,683.8 L797.1,683.8 L798.3,683.8 L799.5,683.8 L800.6,683.8 L801.8,683.8
		L803.0,683.8 L804.1,683.8 L805.3,683.8 L806.5,683.8 L807.7,683.8 L808.8,683.8 L810.0,683.8 L811.2,683.8
		L812.4,683.8 L813.5,683.8 L814.7,683.8 L815.9,683.8 L817.1,683.8 L818.2,683.8 L819.4,683.8 L820.6,683.8
		L821.8,683.8 L822.9,683.8 L824.1,683.8 L825.3,683.8 L826.5,683.8 L827.6,683.8 L828.8,683.8 L830.0,683.8
		L831.2,683.8 L832.3,683.8 L833.5,683.8 L834.7,683.8 L835.8,683.8 L837.0,683.8 L838.2,683.8 L839.4,683.8
		L840.5,683.8 L841.7,683.8 L842.9,683.8 L844.1,683.8 L845.2,683.8 L846.4,683.8 L847.6,683.9 L848.8,683.9
		L849.9,683.9 L851.1,683.9 L852.3,683.9 L853.5,683.9 L854.6,683.9 L855.8,683.9 L857.0,683.9 L858.2,683.9
		L859.3,683.9 L860.5,683.9 L861.7,683.9 L862.9,683.9 L864.0,683.9 L865.2,683.9 L866.4,683.9 L867.5,683.9
		L868.7,683.9 L869.9,683.9 L871.1,683.9 L872.2,683.9 L873.4,683.9 L874.6,683.9 L875.8,683.9 L876.9,683.9
		L878.1,683.9 L879.3,683.9 L880.5,683.9 L881.6,683.9 L882.8,683.9 L884.0,683.9 L885.2,683.9 L886.3,683.9
		L887.5,683.9 L888.7,683.9 L889.9,683.9 L891.0,683.9 L892.2,683.9 L893.4,683.9 L894.6,683.9 L895.7,683.9
		L896.9,683.9 L898.1,683.9 L899.2,683.9 L900.4,683.9 L901.6,683.9 L902.8,683.9 L903.9,683.9 L905.1,683.9
		L906.3,683.9 L907.5,683.9 L908.6,683.9 L909.8,683.9 L911.0,683.9 L912.2,683.9 L913.3,683.9 L914.5,683.9
		L915.7,683.9 L916.9,683.9 L918.0,683.9 L919.2,683.9 L920.4,683.9 L921.6,683.9 L922.7,683.9 L923.9,683.9
		L925.1,683.9 L926.3,683.9 L927.4,683.9 L928.6,683.9 L929.8,683.9 L930.9,683.9 L932.1,683.9 L933.3,683.9
		L934.5,683.9 L935.6,683.9 L936.8,683.9 L938.0,683.9 L939.2,683.9 L940.3,683.9 L941.5,683.9 L942.7,683.9
		L943.9,683.9 L945.0,683.9 L946.2,683.9 L947.4,683.9 L948.6,683.9 L949.7,683.9 L950.9,683.9 L952.1,683.9
		L953.3,683.9 L954.4,683.9 L955.6,683.9 L956.8,683.9 L958.0,683.9 L959.1,683.9 L960.3,683.9 L961.5,683.9
		L962.7,683.9 L963.8,683.9 L965.0,683.9 L966.2,683.9 L967.3,683.9 L968.5,683.9 L969.7,683.9 L970.9,683.9
		L972.0,683.9 L973.2,683.9 L974.4,683.9 L975.6,683.9 L976.7,683.9 L977.9,683.9 L979.1,683.9 L980.3,683.9
		L981.4,683.9 L982.6,683.9 L983.8,683.9 L985.0,683.9 L986.1,683.9 L987.3,683.9 L988.5,683.9 L989.7,683.9
		L990.8,683.9 L992.0,683.9 L993.2,683.9 L994.4,683.9 L995.5,683.9 L996.7,683.9 L997.9,683.9 L999.0,684.0
		L1000.2,684.0 L1001.4,684.0 L1002.6,684.0 L1003.7,684.0 L1004.9,684.0 L1006.1,684.0 L1007.3,684.0 L1008.4,684.0
		L1009.6,684.0 L1010.8,684.0 L1012.0,684.0 L1013.1,684.0 L1014.3,684.0 L1015.5,684.0 L1016.7,684.0 L1017.8,684.0
		L1019.0,684.0 L1020.2,684.0 L1021.4,684.0 L1022.5,684.0 L1023.7,684.0 L1024.9,684.0 L1026.1,684.0 L1027.2,684.0
		L1028.4,684.0 L1029.6,684.0 L1030.7,684.0 L1031.9,684.0 L1033.1,684.0 L1034.3,684.0 L1035.4,684.0 L1036.6,684.0
		L1037.8,684.0 L1039.0,684.0 L1040.1,684.0 L1041.3,684.0 L1042.5,684.0 L1043.7,684.0 L1044.8,684.0 L1046.0,684.0
		L1047.2,684.0 L1048.4,684.0 L1049.5,684.0 L1050.7,684.0 L1051.9,684.0 L1053.1,684.0 L1054.2,684.0 L1055.4,684.0
		L1056.6,684.0 L1057.8,684.0 L1058.9,684.0 L1060.1,684.0 L1061.3,684.0 L1062.4,684.0 L1063.6,684.0 L1064.8,684.0
		L1066.0,684.0 L1067.1,684.0 L1068.3,684.0 L1069.5,684.0 L1070.7,684.0 L1071.8,684.0 L1073.0,684.0 L1074.2,684.0
		L1075.4,684.0 L1076.5,684.0 L1077.7,684.0 L1078.9,684.0 L1080.1,684.0 L1081.2,684.0 L1082.4,684.0 L1083.6,684.0
		L1084.8,684.0 L1085.9,684.0 L1087.1,684.0 L1088.3,684.0 L1089.5,684.0 L1090.6,684.0 L1091.8,684.0 L1093.0,684.0
		L1094.1,684.0 L1095.3,684.0 L1096.5,684.0 L1097.7,684.0 L1098.8,684.0 L1100.0,684.0 L1101.2,684.0 L1102.4,684.0
		L1103.5,684.0 L1104.7,684.0 L1105.9,684.0 L1107.1,684.0 L1108.2,684.0 L1109.4,684.0 L1110.6,684.0 L1111.8,684.0
		L1112.9,684.0 L1114.1,684.0 L1115.3,684.0 L1116.5,684.0 L1117.6,684.0 L1118.8,684.0 L1120.0,684.0 L1121.2,684.0
		L1122.3,684.0 L1123.5,684.0 L1124.7,684.0 L1125.8,684.0 L1127.0,684.0 L1128.2,684.0 L1129.4,684.0 L1130.5,684.0
		L1131.7,684.0 L1132.9,684.0 L1134.1,684.0 L1135.2,684.0 L1136.4,684.0 L1137.6,684.0 L1138.8,684.0 L1139.9,684.0
		L1141.1,684.0 L1142.3,684.0 L1143.5,684.0 L1144.6,684.0 L1145.8,684.0 L1147.0,684.0 L1148.2,684.0 L1149.3,684.0
		L1150.5,684.0 L1151.7,684.0 L1152.9,684.0 L1154.0,684.0 L1155.2,684.0 L1156.4,684.0 L1157.6,684.0 L1158.7,684.0
		L1159.9,684.0 L1161.1,684.0 L1162.2,684.0 L1163.4,684.0 L1164.6,684.0 L1165.8,684.0 L1166.9,684.0 L1168.1,684.0
		L1169.3,684.0 L1170.5,684.0 L1171.6,684.0 L1172.8,684.0 L1174.0,684.0 L1175.2,684.0 L1176.3,684.0 L1177.5,684.0
		L1178.7,684.0 L1179.9,684.0 L1181.0,684.0 L1182.2,684.0 L1183.4,684.0 L1184.6,684.0 L1185.7,684.0 L1186.9,684.0
		L1188.1,684.0 L1189.3,684.0 L1190.4,684.0 L1191.6,684.0 L1192.8,684.0 L1193.9,684.0 L1195.1,684.0 L1196.3,684.0
		L1197.5,684.0 L1198.6,684.0 L1199.8,684.0 L1201.0,684.0 L1202.2,684.0 L1203.3,684.0 L1204.5,684.0 L1205.7,684.0
		L1206.9,684.0 L1208.0,684.0 L1209.2,684.0 L1210.4,684.0 L1211.6,684.0 L1212.7,684.0 L1213.9,684.0 L1215.1,684.0
		L1216.3,684.0 L1217.4,684.0 L1218.6,684.0 L1219.8,684.0 L1221.0,684.0 L1222.1,684.0 L1223.3,684.0 L1224.5,684.0
		L1225.6,684.0 L1226.8,684.0 L1228.0,684.0 L1229.2,684.0 L1230.3,684.0 L1231.5,684.0 L1232.7,684.0 L1233.9,684.0
		L1235.0,684.0 L1236.2,684.0 L1237.4,684.0 L1238.6,684.0 L1239.7,684.0 L1240.9,684.0 L1242.1,684.0 L1243.3,684.0
		L1244.4,684.0 L1245.6,684.0 L1246.8,684.0 L1248.0,684.0 L1249.1,684.0 L1250.3,684.0 L1251.5,684.0 L1252.7,684.0
		L1253.8,684.0 L1255.0,684.0  '/></g>
	</g>
<g fill="none" color="white" stroke="rgb(255,   0,   0)" stroke-width="2.00" stroke-linecap="butt" stroke-linejoin="miter">
</g>
<g fill="none" color="black" stroke="currentColor" stroke-width="2.00" stroke-linecap="butt" stroke-linejoin="miter">
</g>
<g fill="none" color="black" stroke="black" stroke-width="1.00" stroke-linecap="butt" stroke-linejoin="miter">
</g>
<g fill="none" color="black" stroke="currentColor" stroke-width="1.00" stroke-linecap="butt" stroke-linejoin="miter">
	<path stroke='black'  d='M53.9,54.1 L53.9,684.0 L1255.0,684.0 L1255.0,54.1 L53.9,54.1 Z  '/></g>
<g fill="none" color="black" stroke="currentColor" stroke-width="1.00" stroke-linecap="butt" stroke-linejoin="miter">
</g>
</g>
</svg>

