<?xml version="1.0" encoding="utf-8"  standalone="no"?>
<svg 
 width="1280" height="720"
 viewBox="0 0 1280 720"
 xmlns="http://www.w3.org/2000/svg"
 xmlns:xlink="http://www.w3.org/1999/xlink"
>

<title>Gnuplot</title>
<desc>Produced by GNUPLOT 5.0 patchlevel 6 </desc>

<g id="gnuplot_canvas">

<rect x="0" y="0" width="1280" height="720" fill="none"/>
<defs>

	<circle id='gpDot' r='0.5' stroke-width='0.5'/>
	<path id='gpPt0' stroke-width='0.222' stroke='currentColor' d='M-1,0 h2 M0,-1 v2'/>
	<path id='gpPt1' stroke-width='0.222' stroke='currentColor' d='M-1,-1 L1,1 M1,-1 L-1,1'/>
	<path id='gpPt2' stroke-width='0.222' stroke='currentColor' d='M-1,0 L1,0 M0,-1 L0,1 M-1,-1 L1,1 M-1,1 L1,-1'/>
	<rect id='gpPt3' stroke-width='0.222' stroke='currentColor' x='-1' y='-1' width='2' height='2'/>
	<rect id='gpPt4' stroke-width='0.222' stroke='currentColor' fill='currentColor' x='-1' y='-1' width='2' height='2'/>
	<circle id='gpPt5' stroke-width='0.222' stroke='currentColor' cx='0' cy='0' r='1'/>
	<use xlink:href='#gpPt5' id='gpPt6' fill='currentColor' stroke='none'/>
	<path id='gpPt7' stroke-width='0.222' stroke='currentColor' d='M0,-1.33 L-1.33,0.67 L1.33,0.67 z'/>
	<use xlink:href='#gpPt7' id='gpPt8' fill='currentColor' stroke='none'/>
	<use xlink:href='#gpPt7' id='gpPt9' stroke='currentColor' transform='rotate(180)'/>
	<use xlink:href='#gpPt9' id='gpPt10' fill='currentColor' stroke='none'/>
	<use xlink:href='#gpPt3' id='gpPt11' stroke='currentColor' transform='rotate(45)'/>
	<use xlink:href='#gpPt11' id='gpPt12' fill='currentColor' stroke='none'/>
	<path id='gpPt13' stroke-width='0.222' stroke='currentColor' d='M0,1.330 L1.265,0.411 L0.782,-1.067 L-0.782,-1.076 L-1.265,0.411 z'/>
	<use xlink:href='#gpPt13' id='gpPt14' fill='currentColor' stroke='none'/>
	<filter id='textbox' filterUnits='objectBoundingBox' x='0' y='0' height='1' width='1'>
	  <feFlood flood-color='white' flood-opacity='1' result='bgnd'/>
	  <feComposite in='SourceGraphic' in2='bgnd' operator='atop'/>
	</filter>
	<filter id='greybox' filterUnits='objectBoundingBox' x='0' y='0' height='1' width='1'>
	  <feFlood flood-color='lightgrey' flood-opacity='1' result='grey'/>
	  <feComposite in='SourceGraphic' in2='grey' operator='atop'/>
	</filter>
</defs>
<g fill="none" color="white" stroke="currentColor" stroke-width="1.00" stroke-linecap="butt" stroke-linejoin="miter">
</g>
<g fill="none" color="black" stroke="currentColor" stroke-width="1.00" stroke-linecap="butt" stroke-linejoin="miter">
	<path stroke='black'  d='M87.1,684.0 L96.1,684.0 M1255.0,684.0 L1246.0,684.0  '/>	<g transform="translate(78.8,687.9)" stroke="none" fill="black" font-family="Arial" font-size="12.00"  text-anchor="end">
		<text><tspan font-family="Arial" > 0.1278</tspan></text>
	</g>
</g>
<g fill="none" color="black" stroke="currentColor" stroke-width="1.00" stroke-linecap="butt" stroke-linejoin="miter">
	<path stroke='black'  d='M87.1,369.0 L96.1,369.0 M1255.0,369.0 L1246.0,369.0  '/>	<g transform="translate(78.8,372.9)" stroke="none" fill="black" font-family="Arial" font-size="12.00"  text-anchor="end">
		<text><tspan font-family="Arial" > 51.3221</tspan></text>
	</g>
</g>
<g fill="none" color="black" stroke="currentColor" stroke-width="1.00" stroke-linecap="butt" stroke-linejoin="miter">
	<path stroke='black'  d='M87.1,54.1 L96.1,54.1 M1255.0,54.1 L1246.0,54.1  '/>	<g transform="translate(78.8,58.0)" stroke="none" fill="black" font-family="Arial" font-size="12.00"  text-anchor="end">
		<text><tspan font-family="Arial" > 20610</tspan></text>
	</g>
</g>
<g fill="none" color="black" stroke="currentColor" stroke-width="1.00" stroke-linecap="butt" stroke-linejoin="miter">
	<path stroke='black'  d='M87.1,684.0 L87.1,675.0 M87.1,54.1 L87.1,63.1  '/>	<g transform="translate(87.1,705.9)" stroke="none" fill="black" font-family="Arial" font-size="12.00"  text-anchor="middle">
		<text><tspan font-family="Arial" > 0</tspan></text>
	</g>
</g>
<g fill="none" color="black" stroke="currentColor" stroke-width="1.00" stroke-linecap="butt" stroke-linejoin="miter">
	<path stroke='black'  d='M671.1,684.0 L671.1,675.0 M671.1,54.1 L671.1,63.1  '/>	<g transform="translate(671.1,705.9)" stroke="none" fill="black" font-family="Arial" font-size="12.00"  text-anchor="middle">
		<text><tspan font-family="Arial" >pi/2</tspan></text>
	</g>
</g>
<g fill="none" color="black" stroke="currentColor" stroke-width="1.00" stroke-linecap="butt" stroke-linejoin="miter">
	<path stroke='black'  d='M1255.0,684.0 L1255.0,675.0 M1255.0,54.1 L1255.0,63.1  '/>	<g transform="translate(1255.0,705.9)" stroke="none" fill="black" font-family="Arial" font-size="12.00"  text-anchor="middle">
		<text><tspan font-family="Arial" >pi</tspan></text>
	</g>
</g>
<g fill="none" color="black" stroke="currentColor" stroke-width="1.00" stroke-linecap="butt" stroke-linejoin="miter">
</g>
<g fill="none" color="black" stroke="currentColor" stroke-width="1.00" stroke-linecap="butt" stroke-linejoin="miter">
	<path stroke='black'  d='M87.1,54.1 L87.1,684.0 L1255.0,684.0 L1255.0,54.1 L87.1,54.1 Z  '/></g>
<g fill="none" color="black" stroke="currentColor" stroke-width="1.00" stroke-linecap="butt" stroke-linejoin="miter">
	<g transform="translate(671.0,31.0)" stroke="none" fill="black" font-family="Arial" font-size="12.00"  text-anchor="middle">
		<text><tspan font-family="Arial" >Material 51, with 4 components</tspan></text>
	</g>
</g>
	<g id="gnuplot_plot_1" ><title>scattering function</title>
<g fill="none" color="black" stroke="currentColor" stroke-width="1.00" stroke-linecap="butt" stroke-linejoin="miter">
	<g transform="translate(1187.9,76.0)" stroke="none" fill="black" font-family="Arial" font-size="12.00"  text-anchor="end">
		<text><tspan font-family="Arial" >scattering function</tspan></text>
	</g>
</g>
<g fill="none" color="black" stroke="currentColor" stroke-width="1.00" stroke-linecap="butt" stroke-linejoin="miter">
	<use xlink:href='#gpPt5' transform='translate(87.1,82.8) scale(2.25)' color='rgb(255,   0,   0)'/>
	<use xlink:href='#gpPt5' transform='translate(87.7,83.0) scale(2.25)' color='rgb(255,   0,   0)'/>
	<use xlink:href='#gpPt5' transform='translate(88.4,83.6) scale(2.25)' color='rgb(255,   0,   0)'/>
	<use xlink:href='#gpPt5' transform='translate(89.0,84.6) scale(2.25)' color='rgb(255,   0,   0)'/>
	<use xlink:href='#gpPt5' transform='translate(89.7,86.0) scale(2.25)' color='rgb(255,   0,   0)'/>
	<use xlink:href='#gpPt5' transform='translate(90.3,87.9) scale(2.25)' color='rgb(255,   0,   0)'/>
	<use xlink:href='#gpPt5' transform='translate(91.0,90.0) scale(2.25)' color='rgb(255,   0,   0)'/>
	<use xlink:href='#gpPt5' transform='translate(91.6,92.6) scale(2.25)' color='rgb(255,   0,   0)'/>
	<use xlink:href='#gpPt5' transform='translate(92.3,95.7) scale(2.25)' color='rgb(255,   0,   0)'/>
	<use xlink:href='#gpPt5' transform='translate(92.9,99.1) scale(2.25)' color='rgb(255,   0,   0)'/>
	<use xlink:href='#gpPt5' transform='translate(93.6,102.9) scale(2.25)' color='rgb(255,   0,   0)'/>
	<use xlink:href='#gpPt5' transform='translate(94.2,107.1) scale(2.25)' color='rgb(255,   0,   0)'/>
	<use xlink:href='#gpPt5' transform='translate(94.9,111.7) scale(2.25)' color='rgb(255,   0,   0)'/>
	<use xlink:href='#gpPt5' transform='translate(95.5,116.7) scale(2.25)' color='rgb(255,   0,   0)'/>
	<use xlink:href='#gpPt5' transform='translate(96.2,122.1) scale(2.25)' color='rgb(255,   0,   0)'/>
	<use xlink:href='#gpPt5' transform='translate(96.8,128.0) scale(2.25)' color='rgb(255,   0,   0)'/>
	<use xlink:href='#gpPt5' transform='translate(97.5,134.1) scale(2.25)' color='rgb(255,   0,   0)'/>
	<use xlink:href='#gpPt5' transform='translate(98.1,140.7) scale(2.25)' color='rgb(255,   0,   0)'/>
	<use xlink:href='#gpPt5' transform='translate(98.8,147.7) scale(2.25)' color='rgb(255,   0,   0)'/>
	<use xlink:href='#gpPt5' transform='translate(99.4,155.0) scale(2.25)' color='rgb(255,   0,   0)'/>
	<use xlink:href='#gpPt5' transform='translate(100.1,162.6) scale(2.25)' color='rgb(255,   0,   0)'/>
	<use xlink:href='#gpPt5' transform='translate(106.6,247.0) scale(2.25)' color='rgb(255,   0,   0)'/>
	<use xlink:href='#gpPt5' transform='translate(113.1,294.6) scale(2.25)' color='rgb(255,   0,   0)'/>
	<use xlink:href='#gpPt5' transform='translate(119.5,317.1) scale(2.25)' color='rgb(255,   0,   0)'/>
	<use xlink:href='#gpPt5' transform='translate(126.0,335.5) scale(2.25)' color='rgb(255,   0,   0)'/>
	<use xlink:href='#gpPt5' transform='translate(139.0,358.1) scale(2.25)' color='rgb(255,   0,   0)'/>
	<use xlink:href='#gpPt5' transform='translate(152.0,372.6) scale(2.25)' color='rgb(255,   0,   0)'/>
	<use xlink:href='#gpPt5' transform='translate(165.0,380.7) scale(2.25)' color='rgb(255,   0,   0)'/>
	<use xlink:href='#gpPt5' transform='translate(177.9,389.8) scale(2.25)' color='rgb(255,   0,   0)'/>
	<use xlink:href='#gpPt5' transform='translate(190.9,394.8) scale(2.25)' color='rgb(255,   0,   0)'/>
	<use xlink:href='#gpPt5' transform='translate(203.9,401.6) scale(2.25)' color='rgb(255,   0,   0)'/>
	<use xlink:href='#gpPt5' transform='translate(216.9,408.5) scale(2.25)' color='rgb(255,   0,   0)'/>
	<use xlink:href='#gpPt5' transform='translate(229.8,414.9) scale(2.25)' color='rgb(255,   0,   0)'/>
	<use xlink:href='#gpPt5' transform='translate(242.8,420.8) scale(2.25)' color='rgb(255,   0,   0)'/>
	<use xlink:href='#gpPt5' transform='translate(255.8,427.7) scale(2.25)' color='rgb(255,   0,   0)'/>
	<use xlink:href='#gpPt5' transform='translate(268.8,433.7) scale(2.25)' color='rgb(255,   0,   0)'/>
	<use xlink:href='#gpPt5' transform='translate(281.8,441.3) scale(2.25)' color='rgb(255,   0,   0)'/>
	<use xlink:href='#gpPt5' transform='translate(294.7,447.6) scale(2.25)' color='rgb(255,   0,   0)'/>
	<use xlink:href='#gpPt5' transform='translate(307.7,455.4) scale(2.25)' color='rgb(255,   0,   0)'/>
	<use xlink:href='#gpPt5' transform='translate(320.7,460.8) scale(2.25)' color='rgb(255,   0,   0)'/>
	<use xlink:href='#gpPt5' transform='translate(333.7,468.4) scale(2.25)' color='rgb(255,   0,   0)'/>
	<use xlink:href='#gpPt5' transform='translate(346.6,476.1) scale(2.25)' color='rgb(255,   0,   0)'/>
	<use xlink:href='#gpPt5' transform='translate(359.6,482.7) scale(2.25)' color='rgb(255,   0,   0)'/>
	<use xlink:href='#gpPt5' transform='translate(372.6,489.5) scale(2.25)' color='rgb(255,   0,   0)'/>
	<use xlink:href='#gpPt5' transform='translate(385.6,497.3) scale(2.25)' color='rgb(255,   0,   0)'/>
	<use xlink:href='#gpPt5' transform='translate(398.5,502.9) scale(2.25)' color='rgb(255,   0,   0)'/>
	<use xlink:href='#gpPt5' transform='translate(411.5,510.9) scale(2.25)' color='rgb(255,   0,   0)'/>
	<use xlink:href='#gpPt5' transform='translate(424.5,518.6) scale(2.25)' color='rgb(255,   0,   0)'/>
	<use xlink:href='#gpPt5' transform='translate(437.5,525.5) scale(2.25)' color='rgb(255,   0,   0)'/>
	<use xlink:href='#gpPt5' transform='translate(450.4,532.2) scale(2.25)' color='rgb(255,   0,   0)'/>
	<use xlink:href='#gpPt5' transform='translate(463.4,540.5) scale(2.25)' color='rgb(255,   0,   0)'/>
	<use xlink:href='#gpPt5' transform='translate(476.4,547.9) scale(2.25)' color='rgb(255,   0,   0)'/>
	<use xlink:href='#gpPt5' transform='translate(489.4,556.8) scale(2.25)' color='rgb(255,   0,   0)'/>
	<use xlink:href='#gpPt5' transform='translate(502.4,561.9) scale(2.25)' color='rgb(255,   0,   0)'/>
	<use xlink:href='#gpPt5' transform='translate(515.3,573.2) scale(2.25)' color='rgb(255,   0,   0)'/>
	<use xlink:href='#gpPt5' transform='translate(528.3,579.1) scale(2.25)' color='rgb(255,   0,   0)'/>
	<use xlink:href='#gpPt5' transform='translate(541.3,583.5) scale(2.25)' color='rgb(255,   0,   0)'/>
	<use xlink:href='#gpPt5' transform='translate(554.3,594.1) scale(2.25)' color='rgb(255,   0,   0)'/>
	<use xlink:href='#gpPt5' transform='translate(567.2,598.8) scale(2.25)' color='rgb(255,   0,   0)'/>
	<use xlink:href='#gpPt5' transform='translate(580.2,607.4) scale(2.25)' color='rgb(255,   0,   0)'/>
	<use xlink:href='#gpPt5' transform='translate(593.2,617.1) scale(2.25)' color='rgb(255,   0,   0)'/>
	<use xlink:href='#gpPt5' transform='translate(606.2,624.1) scale(2.25)' color='rgb(255,   0,   0)'/>
	<use xlink:href='#gpPt5' transform='translate(619.1,628.4) scale(2.25)' color='rgb(255,   0,   0)'/>
	<use xlink:href='#gpPt5' transform='translate(632.1,638.3) scale(2.25)' color='rgb(255,   0,   0)'/>
	<use xlink:href='#gpPt5' transform='translate(645.1,644.6) scale(2.25)' color='rgb(255,   0,   0)'/>
	<use xlink:href='#gpPt5' transform='translate(658.1,645.0) scale(2.25)' color='rgb(255,   0,   0)'/>
	<use xlink:href='#gpPt5' transform='translate(671.1,645.4) scale(2.25)' color='rgb(255,   0,   0)'/>
	<use xlink:href='#gpPt5' transform='translate(684.0,656.9) scale(2.25)' color='rgb(255,   0,   0)'/>
	<use xlink:href='#gpPt5' transform='translate(697.0,665.2) scale(2.25)' color='rgb(255,   0,   0)'/>
	<use xlink:href='#gpPt5' transform='translate(710.0,669.7) scale(2.25)' color='rgb(255,   0,   0)'/>
	<use xlink:href='#gpPt5' transform='translate(723.0,669.1) scale(2.25)' color='rgb(255,   0,   0)'/>
	<use xlink:href='#gpPt5' transform='translate(735.9,662.8) scale(2.25)' color='rgb(255,   0,   0)'/>
	<use xlink:href='#gpPt5' transform='translate(748.9,665.9) scale(2.25)' color='rgb(255,   0,   0)'/>
	<use xlink:href='#gpPt5' transform='translate(761.9,671.0) scale(2.25)' color='rgb(255,   0,   0)'/>
	<use xlink:href='#gpPt5' transform='translate(774.9,674.1) scale(2.25)' color='rgb(255,   0,   0)'/>
	<use xlink:href='#gpPt5' transform='translate(787.8,672.7) scale(2.25)' color='rgb(255,   0,   0)'/>
	<use xlink:href='#gpPt5' transform='translate(800.8,675.1) scale(2.25)' color='rgb(255,   0,   0)'/>
	<use xlink:href='#gpPt5' transform='translate(813.8,664.2) scale(2.25)' color='rgb(255,   0,   0)'/>
	<use xlink:href='#gpPt5' transform='translate(826.8,665.9) scale(2.25)' color='rgb(255,   0,   0)'/>
	<use xlink:href='#gpPt5' transform='translate(839.7,655.3) scale(2.25)' color='rgb(255,   0,   0)'/>
	<use xlink:href='#gpPt5' transform='translate(852.7,654.4) scale(2.25)' color='rgb(255,   0,   0)'/>
	<use xlink:href='#gpPt5' transform='translate(865.7,642.7) scale(2.25)' color='rgb(255,   0,   0)'/>
	<use xlink:href='#gpPt5' transform='translate(878.7,638.5) scale(2.25)' color='rgb(255,   0,   0)'/>
	<use xlink:href='#gpPt5' transform='translate(891.7,642.6) scale(2.25)' color='rgb(255,   0,   0)'/>
	<use xlink:href='#gpPt5' transform='translate(904.6,637.9) scale(2.25)' color='rgb(255,   0,   0)'/>
	<use xlink:href='#gpPt5' transform='translate(917.6,644.8) scale(2.25)' color='rgb(255,   0,   0)'/>
	<use xlink:href='#gpPt5' transform='translate(930.6,627.5) scale(2.25)' color='rgb(255,   0,   0)'/>
	<use xlink:href='#gpPt5' transform='translate(943.6,623.8) scale(2.25)' color='rgb(255,   0,   0)'/>
	<use xlink:href='#gpPt5' transform='translate(956.5,609.7) scale(2.25)' color='rgb(255,   0,   0)'/>
	<use xlink:href='#gpPt5' transform='translate(969.5,589.2) scale(2.25)' color='rgb(255,   0,   0)'/>
	<use xlink:href='#gpPt5' transform='translate(982.5,574.2) scale(2.25)' color='rgb(255,   0,   0)'/>
	<use xlink:href='#gpPt5' transform='translate(995.5,559.1) scale(2.25)' color='rgb(255,   0,   0)'/>
	<use xlink:href='#gpPt5' transform='translate(1008.4,546.7) scale(2.25)' color='rgb(255,   0,   0)'/>
	<use xlink:href='#gpPt5' transform='translate(1021.4,551.1) scale(2.25)' color='rgb(255,   0,   0)'/>
	<use xlink:href='#gpPt5' transform='translate(1034.4,555.8) scale(2.25)' color='rgb(255,   0,   0)'/>
	<use xlink:href='#gpPt5' transform='translate(1047.4,571.7) scale(2.25)' color='rgb(255,   0,   0)'/>
	<use xlink:href='#gpPt5' transform='translate(1060.3,582.2) scale(2.25)' color='rgb(255,   0,   0)'/>
	<use xlink:href='#gpPt5' transform='translate(1073.3,586.3) scale(2.25)' color='rgb(255,   0,   0)'/>
	<use xlink:href='#gpPt5' transform='translate(1086.3,579.4) scale(2.25)' color='rgb(255,   0,   0)'/>
	<use xlink:href='#gpPt5' transform='translate(1099.3,578.6) scale(2.25)' color='rgb(255,   0,   0)'/>
	<use xlink:href='#gpPt5' transform='translate(1112.3,583.6) scale(2.25)' color='rgb(255,   0,   0)'/>
	<use xlink:href='#gpPt5' transform='translate(1125.2,583.0) scale(2.25)' color='rgb(255,   0,   0)'/>
	<use xlink:href='#gpPt5' transform='translate(1138.2,580.3) scale(2.25)' color='rgb(255,   0,   0)'/>
	<use xlink:href='#gpPt5' transform='translate(1151.2,579.5) scale(2.25)' color='rgb(255,   0,   0)'/>
	<use xlink:href='#gpPt5' transform='translate(1164.2,589.6) scale(2.25)' color='rgb(255,   0,   0)'/>
	<use xlink:href='#gpPt5' transform='translate(1177.1,579.3) scale(2.25)' color='rgb(255,   0,   0)'/>
	<use xlink:href='#gpPt5' transform='translate(1190.1,576.8) scale(2.25)' color='rgb(255,   0,   0)'/>
	<use xlink:href='#gpPt5' transform='translate(1203.1,569.6) scale(2.25)' color='rgb(255,   0,   0)'/>
	<use xlink:href='#gpPt5' transform='translate(1216.1,558.0) scale(2.25)' color='rgb(255,   0,   0)'/>
	<use xlink:href='#gpPt5' transform='translate(1229.0,533.2) scale(2.25)' color='rgb(255,   0,   0)'/>
	<use xlink:href='#gpPt5' transform='translate(1242.0,523.5) scale(2.25)' color='rgb(255,   0,   0)'/>
	<use xlink:href='#gpPt5' transform='translate(1255.0,487.4) scale(2.25)' color='rgb(255,   0,   0)'/>
	<use xlink:href='#gpPt5' transform='translate(1217.3,72.1) scale(2.25)' color='rgb(255,   0,   0)'/>
</g>
	</g>
	<g id="gnuplot_plot_2" ><title>gnuplot_plot_2</title>
<g fill="none" color="black" stroke="currentColor" stroke-width="1.00" stroke-linecap="butt" stroke-linejoin="miter">
	<use xlink:href='#gpPt5' transform='translate(87.1,74.4) scale(2.25)' color='rgb(  0, 100,   0)'/>
	<use xlink:href='#gpPt5' transform='translate(87.7,74.6) scale(2.25)' color='rgb(  0, 100,   0)'/>
	<use xlink:href='#gpPt5' transform='translate(88.4,75.3) scale(2.25)' color='rgb(  0, 100,   0)'/>
	<use xlink:href='#gpPt5' transform='translate(89.0,76.5) scale(2.25)' color='rgb(  0, 100,   0)'/>
	<use xlink:href='#gpPt5' transform='translate(89.7,78.2) scale(2.25)' color='rgb(  0, 100,   0)'/>
	<use xlink:href='#gpPt5' transform='translate(90.3,80.3) scale(2.25)' color='rgb(  0, 100,   0)'/>
	<use xlink:href='#gpPt5' transform='translate(91.0,83.0) scale(2.25)' color='rgb(  0, 100,   0)'/>
	<use xlink:href='#gpPt5' transform='translate(91.6,86.0) scale(2.25)' color='rgb(  0, 100,   0)'/>
	<use xlink:href='#gpPt5' transform='translate(92.3,89.6) scale(2.25)' color='rgb(  0, 100,   0)'/>
	<use xlink:href='#gpPt5' transform='translate(92.9,93.6) scale(2.25)' color='rgb(  0, 100,   0)'/>
	<use xlink:href='#gpPt5' transform='translate(93.6,98.2) scale(2.25)' color='rgb(  0, 100,   0)'/>
	<use xlink:href='#gpPt5' transform='translate(94.2,103.2) scale(2.25)' color='rgb(  0, 100,   0)'/>
	<use xlink:href='#gpPt5' transform='translate(94.9,108.6) scale(2.25)' color='rgb(  0, 100,   0)'/>
	<use xlink:href='#gpPt5' transform='translate(95.5,114.6) scale(2.25)' color='rgb(  0, 100,   0)'/>
	<use xlink:href='#gpPt5' transform='translate(96.2,121.0) scale(2.25)' color='rgb(  0, 100,   0)'/>
	<use xlink:href='#gpPt5' transform='translate(96.8,127.8) scale(2.25)' color='rgb(  0, 100,   0)'/>
	<use xlink:href='#gpPt5' transform='translate(97.5,135.2) scale(2.25)' color='rgb(  0, 100,   0)'/>
	<use xlink:href='#gpPt5' transform='translate(98.1,142.9) scale(2.25)' color='rgb(  0, 100,   0)'/>
	<use xlink:href='#gpPt5' transform='translate(98.8,151.1) scale(2.25)' color='rgb(  0, 100,   0)'/>
	<use xlink:href='#gpPt5' transform='translate(99.4,159.6) scale(2.25)' color='rgb(  0, 100,   0)'/>
	<use xlink:href='#gpPt5' transform='translate(100.1,168.5) scale(2.25)' color='rgb(  0, 100,   0)'/>
	<use xlink:href='#gpPt5' transform='translate(106.6,257.6) scale(2.25)' color='rgb(  0, 100,   0)'/>
	<use xlink:href='#gpPt5' transform='translate(113.1,295.9) scale(2.25)' color='rgb(  0, 100,   0)'/>
	<use xlink:href='#gpPt5' transform='translate(119.5,318.6) scale(2.25)' color='rgb(  0, 100,   0)'/>
	<use xlink:href='#gpPt5' transform='translate(126.0,337.5) scale(2.25)' color='rgb(  0, 100,   0)'/>
	<use xlink:href='#gpPt5' transform='translate(139.0,361.0) scale(2.25)' color='rgb(  0, 100,   0)'/>
	<use xlink:href='#gpPt5' transform='translate(152.0,373.2) scale(2.25)' color='rgb(  0, 100,   0)'/>
	<use xlink:href='#gpPt5' transform='translate(165.0,381.6) scale(2.25)' color='rgb(  0, 100,   0)'/>
	<use xlink:href='#gpPt5' transform='translate(177.9,389.5) scale(2.25)' color='rgb(  0, 100,   0)'/>
	<use xlink:href='#gpPt5' transform='translate(190.9,395.6) scale(2.25)' color='rgb(  0, 100,   0)'/>
	<use xlink:href='#gpPt5' transform='translate(203.9,402.4) scale(2.25)' color='rgb(  0, 100,   0)'/>
	<use xlink:href='#gpPt5' transform='translate(216.9,408.7) scale(2.25)' color='rgb(  0, 100,   0)'/>
	<use xlink:href='#gpPt5' transform='translate(229.8,414.5) scale(2.25)' color='rgb(  0, 100,   0)'/>
	<use xlink:href='#gpPt5' transform='translate(242.8,419.9) scale(2.25)' color='rgb(  0, 100,   0)'/>
	<use xlink:href='#gpPt5' transform='translate(255.8,427.4) scale(2.25)' color='rgb(  0, 100,   0)'/>
	<use xlink:href='#gpPt5' transform='translate(268.8,435.4) scale(2.25)' color='rgb(  0, 100,   0)'/>
	<use xlink:href='#gpPt5' transform='translate(281.8,442.2) scale(2.25)' color='rgb(  0, 100,   0)'/>
	<use xlink:href='#gpPt5' transform='translate(294.7,449.0) scale(2.25)' color='rgb(  0, 100,   0)'/>
	<use xlink:href='#gpPt5' transform='translate(307.7,454.3) scale(2.25)' color='rgb(  0, 100,   0)'/>
	<use xlink:href='#gpPt5' transform='translate(320.7,462.0) scale(2.25)' color='rgb(  0, 100,   0)'/>
	<use xlink:href='#gpPt5' transform='translate(333.7,469.5) scale(2.25)' color='rgb(  0, 100,   0)'/>
	<use xlink:href='#gpPt5' transform='translate(346.6,476.5) scale(2.25)' color='rgb(  0, 100,   0)'/>
	<use xlink:href='#gpPt5' transform='translate(359.6,483.8) scale(2.25)' color='rgb(  0, 100,   0)'/>
	<use xlink:href='#gpPt5' transform='translate(372.6,490.1) scale(2.25)' color='rgb(  0, 100,   0)'/>
	<use xlink:href='#gpPt5' transform='translate(385.6,497.0) scale(2.25)' color='rgb(  0, 100,   0)'/>
	<use xlink:href='#gpPt5' transform='translate(398.5,504.2) scale(2.25)' color='rgb(  0, 100,   0)'/>
	<use xlink:href='#gpPt5' transform='translate(411.5,511.4) scale(2.25)' color='rgb(  0, 100,   0)'/>
	<use xlink:href='#gpPt5' transform='translate(424.5,517.3) scale(2.25)' color='rgb(  0, 100,   0)'/>
	<use xlink:href='#gpPt5' transform='translate(437.5,526.2) scale(2.25)' color='rgb(  0, 100,   0)'/>
	<use xlink:href='#gpPt5' transform='translate(450.4,532.4) scale(2.25)' color='rgb(  0, 100,   0)'/>
	<use xlink:href='#gpPt5' transform='translate(463.4,541.1) scale(2.25)' color='rgb(  0, 100,   0)'/>
	<use xlink:href='#gpPt5' transform='translate(476.4,549.3) scale(2.25)' color='rgb(  0, 100,   0)'/>
	<use xlink:href='#gpPt5' transform='translate(489.4,557.1) scale(2.25)' color='rgb(  0, 100,   0)'/>
	<use xlink:href='#gpPt5' transform='translate(502.4,566.5) scale(2.25)' color='rgb(  0, 100,   0)'/>
	<use xlink:href='#gpPt5' transform='translate(515.3,573.5) scale(2.25)' color='rgb(  0, 100,   0)'/>
	<use xlink:href='#gpPt5' transform='translate(528.3,583.8) scale(2.25)' color='rgb(  0, 100,   0)'/>
	<use xlink:href='#gpPt5' transform='translate(541.3,592.4) scale(2.25)' color='rgb(  0, 100,   0)'/>
	<use xlink:href='#gpPt5' transform='translate(554.3,596.7) scale(2.25)' color='rgb(  0, 100,   0)'/>
	<use xlink:href='#gpPt5' transform='translate(567.2,611.5) scale(2.25)' color='rgb(  0, 100,   0)'/>
	<use xlink:href='#gpPt5' transform='translate(580.2,616.3) scale(2.25)' color='rgb(  0, 100,   0)'/>
	<use xlink:href='#gpPt5' transform='translate(593.2,618.1) scale(2.25)' color='rgb(  0, 100,   0)'/>
	<use xlink:href='#gpPt5' transform='translate(606.2,626.5) scale(2.25)' color='rgb(  0, 100,   0)'/>
	<use xlink:href='#gpPt5' transform='translate(619.1,635.6) scale(2.25)' color='rgb(  0, 100,   0)'/>
	<use xlink:href='#gpPt5' transform='translate(632.1,639.4) scale(2.25)' color='rgb(  0, 100,   0)'/>
	<use xlink:href='#gpPt5' transform='translate(645.1,646.3) scale(2.25)' color='rgb(  0, 100,   0)'/>
	<use xlink:href='#gpPt5' transform='translate(658.1,658.5) scale(2.25)' color='rgb(  0, 100,   0)'/>
	<use xlink:href='#gpPt5' transform='translate(671.1,659.7) scale(2.25)' color='rgb(  0, 100,   0)'/>
	<use xlink:href='#gpPt5' transform='translate(684.0,664.2) scale(2.25)' color='rgb(  0, 100,   0)'/>
	<use xlink:href='#gpPt5' transform='translate(697.0,662.8) scale(2.25)' color='rgb(  0, 100,   0)'/>
	<use xlink:href='#gpPt5' transform='translate(710.0,664.7) scale(2.25)' color='rgb(  0, 100,   0)'/>
	<use xlink:href='#gpPt5' transform='translate(723.0,675.9) scale(2.25)' color='rgb(  0, 100,   0)'/>
	<use xlink:href='#gpPt5' transform='translate(735.9,677.4) scale(2.25)' color='rgb(  0, 100,   0)'/>
	<use xlink:href='#gpPt5' transform='translate(748.9,676.1) scale(2.25)' color='rgb(  0, 100,   0)'/>
	<use xlink:href='#gpPt5' transform='translate(761.9,677.8) scale(2.25)' color='rgb(  0, 100,   0)'/>
	<use xlink:href='#gpPt5' transform='translate(774.9,678.9) scale(2.25)' color='rgb(  0, 100,   0)'/>
	<use xlink:href='#gpPt5' transform='translate(787.8,680.0) scale(2.25)' color='rgb(  0, 100,   0)'/>
	<use xlink:href='#gpPt5' transform='translate(800.8,676.0) scale(2.25)' color='rgb(  0, 100,   0)'/>
	<use xlink:href='#gpPt5' transform='translate(813.8,672.3) scale(2.25)' color='rgb(  0, 100,   0)'/>
	<use xlink:href='#gpPt5' transform='translate(826.8,666.3) scale(2.25)' color='rgb(  0, 100,   0)'/>
	<use xlink:href='#gpPt5' transform='translate(839.7,660.2) scale(2.25)' color='rgb(  0, 100,   0)'/>
	<use xlink:href='#gpPt5' transform='translate(852.7,655.5) scale(2.25)' color='rgb(  0, 100,   0)'/>
	<use xlink:href='#gpPt5' transform='translate(865.7,646.3) scale(2.25)' color='rgb(  0, 100,   0)'/>
	<use xlink:href='#gpPt5' transform='translate(878.7,643.7) scale(2.25)' color='rgb(  0, 100,   0)'/>
	<use xlink:href='#gpPt5' transform='translate(891.7,640.8) scale(2.25)' color='rgb(  0, 100,   0)'/>
	<use xlink:href='#gpPt5' transform='translate(904.6,650.3) scale(2.25)' color='rgb(  0, 100,   0)'/>
	<use xlink:href='#gpPt5' transform='translate(917.6,645.1) scale(2.25)' color='rgb(  0, 100,   0)'/>
	<use xlink:href='#gpPt5' transform='translate(930.6,642.9) scale(2.25)' color='rgb(  0, 100,   0)'/>
	<use xlink:href='#gpPt5' transform='translate(943.6,621.6) scale(2.25)' color='rgb(  0, 100,   0)'/>
	<use xlink:href='#gpPt5' transform='translate(956.5,612.0) scale(2.25)' color='rgb(  0, 100,   0)'/>
	<use xlink:href='#gpPt5' transform='translate(969.5,591.7) scale(2.25)' color='rgb(  0, 100,   0)'/>
	<use xlink:href='#gpPt5' transform='translate(982.5,569.3) scale(2.25)' color='rgb(  0, 100,   0)'/>
	<use xlink:href='#gpPt5' transform='translate(995.5,555.2) scale(2.25)' color='rgb(  0, 100,   0)'/>
	<use xlink:href='#gpPt5' transform='translate(1008.4,549.1) scale(2.25)' color='rgb(  0, 100,   0)'/>
	<use xlink:href='#gpPt5' transform='translate(1021.4,549.2) scale(2.25)' color='rgb(  0, 100,   0)'/>
	<use xlink:href='#gpPt5' transform='translate(1034.4,559.5) scale(2.25)' color='rgb(  0, 100,   0)'/>
	<use xlink:href='#gpPt5' transform='translate(1047.4,578.5) scale(2.25)' color='rgb(  0, 100,   0)'/>
	<use xlink:href='#gpPt5' transform='translate(1060.3,586.0) scale(2.25)' color='rgb(  0, 100,   0)'/>
	<use xlink:href='#gpPt5' transform='translate(1073.3,582.7) scale(2.25)' color='rgb(  0, 100,   0)'/>
	<use xlink:href='#gpPt5' transform='translate(1086.3,579.7) scale(2.25)' color='rgb(  0, 100,   0)'/>
	<use xlink:href='#gpPt5' transform='translate(1099.3,586.1) scale(2.25)' color='rgb(  0, 100,   0)'/>
	<use xlink:href='#gpPt5' transform='translate(1112.3,589.0) scale(2.25)' color='rgb(  0, 100,   0)'/>
	<use xlink:href='#gpPt5' transform='translate(1125.2,588.0) scale(2.25)' color='rgb(  0, 100,   0)'/>
	<use xlink:href='#gpPt5' transform='translate(1138.2,587.0) scale(2.25)' color='rgb(  0, 100,   0)'/>
	<use xlink:href='#gpPt5' transform='translate(1151.2,587.2) scale(2.25)' color='rgb(  0, 100,   0)'/>
	<use xlink:href='#gpPt5' transform='translate(1164.2,588.2) scale(2.25)' color='rgb(  0, 100,   0)'/>
	<use xlink:href='#gpPt5' transform='translate(1177.1,580.2) scale(2.25)' color='rgb(  0, 100,   0)'/>
	<use xlink:href='#gpPt5' transform='translate(1190.1,581.7) scale(2.25)' color='rgb(  0, 100,   0)'/>
	<use xlink:href='#gpPt5' transform='translate(1203.1,578.7) scale(2.25)' color='rgb(  0, 100,   0)'/>
	<use xlink:href='#gpPt5' transform='translate(1216.1,562.0) scale(2.25)' color='rgb(  0, 100,   0)'/>
	<use xlink:href='#gpPt5' transform='translate(1229.0,550.3) scale(2.25)' color='rgb(  0, 100,   0)'/>
	<use xlink:href='#gpPt5' transform='translate(1242.0,524.7) scale(2.25)' color='rgb(  0, 100,   0)'/>
	<use xlink:href='#gpPt5' transform='translate(1255.0,497.5) scale(2.25)' color='rgb(  0, 100,   0)'/>
</g>
	</g>
	<g id="gnuplot_plot_3" ><title>gnuplot_plot_3</title>
<g fill="none" color="black" stroke="currentColor" stroke-width="1.00" stroke-linecap="butt" stroke-linejoin="miter">
	<use xlink:href='#gpPt5' transform='translate(87.1,54.1) scale(2.25)' color='rgb(  0,   0, 255)'/>
	<use xlink:href='#gpPt5' transform='translate(87.7,54.4) scale(2.25)' color='rgb(  0,   0, 255)'/>
	<use xlink:href='#gpPt5' transform='translate(88.4,55.5) scale(2.25)' color='rgb(  0,   0, 255)'/>
	<use xlink:href='#gpPt5' transform='translate(89.0,57.3) scale(2.25)' color='rgb(  0,   0, 255)'/>
	<use xlink:href='#gpPt5' transform='translate(89.7,59.7) scale(2.25)' color='rgb(  0,   0, 255)'/>
	<use xlink:href='#gpPt5' transform='translate(90.3,62.9) scale(2.25)' color='rgb(  0,   0, 255)'/>
	<use xlink:href='#gpPt5' transform='translate(91.0,66.8) scale(2.25)' color='rgb(  0,   0, 255)'/>
	<use xlink:href='#gpPt5' transform='translate(91.6,71.4) scale(2.25)' color='rgb(  0,   0, 255)'/>
	<use xlink:href='#gpPt5' transform='translate(92.3,76.7) scale(2.25)' color='rgb(  0,   0, 255)'/>
	<use xlink:href='#gpPt5' transform='translate(92.9,82.7) scale(2.25)' color='rgb(  0,   0, 255)'/>
	<use xlink:href='#gpPt5' transform='translate(93.6,89.4) scale(2.25)' color='rgb(  0,   0, 255)'/>
	<use xlink:href='#gpPt5' transform='translate(94.2,96.9) scale(2.25)' color='rgb(  0,   0, 255)'/>
	<use xlink:href='#gpPt5' transform='translate(94.9,105.0) scale(2.25)' color='rgb(  0,   0, 255)'/>
	<use xlink:href='#gpPt5' transform='translate(95.5,113.8) scale(2.25)' color='rgb(  0,   0, 255)'/>
	<use xlink:href='#gpPt5' transform='translate(96.2,123.2) scale(2.25)' color='rgb(  0,   0, 255)'/>
	<use xlink:href='#gpPt5' transform='translate(96.8,133.2) scale(2.25)' color='rgb(  0,   0, 255)'/>
	<use xlink:href='#gpPt5' transform='translate(97.5,143.9) scale(2.25)' color='rgb(  0,   0, 255)'/>
	<use xlink:href='#gpPt5' transform='translate(98.1,154.9) scale(2.25)' color='rgb(  0,   0, 255)'/>
	<use xlink:href='#gpPt5' transform='translate(98.8,166.4) scale(2.25)' color='rgb(  0,   0, 255)'/>
	<use xlink:href='#gpPt5' transform='translate(99.4,178.1) scale(2.25)' color='rgb(  0,   0, 255)'/>
	<use xlink:href='#gpPt5' transform='translate(100.1,189.9) scale(2.25)' color='rgb(  0,   0, 255)'/>
	<use xlink:href='#gpPt5' transform='translate(106.6,269.2) scale(2.25)' color='rgb(  0,   0, 255)'/>
	<use xlink:href='#gpPt5' transform='translate(113.1,301.4) scale(2.25)' color='rgb(  0,   0, 255)'/>
	<use xlink:href='#gpPt5' transform='translate(119.5,327.0) scale(2.25)' color='rgb(  0,   0, 255)'/>
	<use xlink:href='#gpPt5' transform='translate(126.0,344.5) scale(2.25)' color='rgb(  0,   0, 255)'/>
	<use xlink:href='#gpPt5' transform='translate(139.0,364.4) scale(2.25)' color='rgb(  0,   0, 255)'/>
	<use xlink:href='#gpPt5' transform='translate(152.0,375.6) scale(2.25)' color='rgb(  0,   0, 255)'/>
	<use xlink:href='#gpPt5' transform='translate(165.0,384.7) scale(2.25)' color='rgb(  0,   0, 255)'/>
	<use xlink:href='#gpPt5' transform='translate(177.9,390.1) scale(2.25)' color='rgb(  0,   0, 255)'/>
	<use xlink:href='#gpPt5' transform='translate(190.9,396.9) scale(2.25)' color='rgb(  0,   0, 255)'/>
	<use xlink:href='#gpPt5' transform='translate(203.9,404.0) scale(2.25)' color='rgb(  0,   0, 255)'/>
	<use xlink:href='#gpPt5' transform='translate(216.9,408.4) scale(2.25)' color='rgb(  0,   0, 255)'/>
	<use xlink:href='#gpPt5' transform='translate(229.8,414.4) scale(2.25)' color='rgb(  0,   0, 255)'/>
	<use xlink:href='#gpPt5' transform='translate(242.8,422.2) scale(2.25)' color='rgb(  0,   0, 255)'/>
	<use xlink:href='#gpPt5' transform='translate(255.8,428.2) scale(2.25)' color='rgb(  0,   0, 255)'/>
	<use xlink:href='#gpPt5' transform='translate(268.8,433.7) scale(2.25)' color='rgb(  0,   0, 255)'/>
	<use xlink:href='#gpPt5' transform='translate(281.8,440.1) scale(2.25)' color='rgb(  0,   0, 255)'/>
	<use xlink:href='#gpPt5' transform='translate(294.7,448.3) scale(2.25)' color='rgb(  0,   0, 255)'/>
	<use xlink:href='#gpPt5' transform='translate(307.7,455.6) scale(2.25)' color='rgb(  0,   0, 255)'/>
	<use xlink:href='#gpPt5' transform='translate(320.7,461.7) scale(2.25)' color='rgb(  0,   0, 255)'/>
	<use xlink:href='#gpPt5' transform='translate(333.7,468.8) scale(2.25)' color='rgb(  0,   0, 255)'/>
	<use xlink:href='#gpPt5' transform='translate(346.6,474.8) scale(2.25)' color='rgb(  0,   0, 255)'/>
	<use xlink:href='#gpPt5' transform='translate(359.6,482.3) scale(2.25)' color='rgb(  0,   0, 255)'/>
	<use xlink:href='#gpPt5' transform='translate(372.6,489.5) scale(2.25)' color='rgb(  0,   0, 255)'/>
	<use xlink:href='#gpPt5' transform='translate(385.6,496.8) scale(2.25)' color='rgb(  0,   0, 255)'/>
	<use xlink:href='#gpPt5' transform='translate(398.5,504.6) scale(2.25)' color='rgb(  0,   0, 255)'/>
	<use xlink:href='#gpPt5' transform='translate(411.5,511.7) scale(2.25)' color='rgb(  0,   0, 255)'/>
	<use xlink:href='#gpPt5' transform='translate(424.5,519.2) scale(2.25)' color='rgb(  0,   0, 255)'/>
	<use xlink:href='#gpPt5' transform='translate(437.5,529.3) scale(2.25)' color='rgb(  0,   0, 255)'/>
	<use xlink:href='#gpPt5' transform='translate(450.4,538.7) scale(2.25)' color='rgb(  0,   0, 255)'/>
	<use xlink:href='#gpPt5' transform='translate(463.4,546.6) scale(2.25)' color='rgb(  0,   0, 255)'/>
	<use xlink:href='#gpPt5' transform='translate(476.4,554.2) scale(2.25)' color='rgb(  0,   0, 255)'/>
	<use xlink:href='#gpPt5' transform='translate(489.4,560.8) scale(2.25)' color='rgb(  0,   0, 255)'/>
	<use xlink:href='#gpPt5' transform='translate(502.4,568.3) scale(2.25)' color='rgb(  0,   0, 255)'/>
	<use xlink:href='#gpPt5' transform='translate(515.3,575.2) scale(2.25)' color='rgb(  0,   0, 255)'/>
	<use xlink:href='#gpPt5' transform='translate(528.3,584.8) scale(2.25)' color='rgb(  0,   0, 255)'/>
	<use xlink:href='#gpPt5' transform='translate(541.3,591.4) scale(2.25)' color='rgb(  0,   0, 255)'/>
	<use xlink:href='#gpPt5' transform='translate(554.3,602.0) scale(2.25)' color='rgb(  0,   0, 255)'/>
	<use xlink:href='#gpPt5' transform='translate(567.2,612.9) scale(2.25)' color='rgb(  0,   0, 255)'/>
	<use xlink:href='#gpPt5' transform='translate(580.2,620.0) scale(2.25)' color='rgb(  0,   0, 255)'/>
	<use xlink:href='#gpPt5' transform='translate(593.2,625.7) scale(2.25)' color='rgb(  0,   0, 255)'/>
	<use xlink:href='#gpPt5' transform='translate(606.2,635.9) scale(2.25)' color='rgb(  0,   0, 255)'/>
	<use xlink:href='#gpPt5' transform='translate(619.1,636.7) scale(2.25)' color='rgb(  0,   0, 255)'/>
	<use xlink:href='#gpPt5' transform='translate(632.1,643.1) scale(2.25)' color='rgb(  0,   0, 255)'/>
	<use xlink:href='#gpPt5' transform='translate(645.1,659.6) scale(2.25)' color='rgb(  0,   0, 255)'/>
	<use xlink:href='#gpPt5' transform='translate(658.1,664.3) scale(2.25)' color='rgb(  0,   0, 255)'/>
	<use xlink:href='#gpPt5' transform='translate(671.1,662.3) scale(2.25)' color='rgb(  0,   0, 255)'/>
	<use xlink:href='#gpPt5' transform='translate(684.0,664.3) scale(2.25)' color='rgb(  0,   0, 255)'/>
	<use xlink:href='#gpPt5' transform='translate(697.0,675.9) scale(2.25)' color='rgb(  0,   0, 255)'/>
	<use xlink:href='#gpPt5' transform='translate(710.0,684.0) scale(2.25)' color='rgb(  0,   0, 255)'/>
	<use xlink:href='#gpPt5' transform='translate(723.0,682.9) scale(2.25)' color='rgb(  0,   0, 255)'/>
	<use xlink:href='#gpPt5' transform='translate(735.9,682.8) scale(2.25)' color='rgb(  0,   0, 255)'/>
	<use xlink:href='#gpPt5' transform='translate(748.9,677.6) scale(2.25)' color='rgb(  0,   0, 255)'/>
	<use xlink:href='#gpPt5' transform='translate(761.9,676.4) scale(2.25)' color='rgb(  0,   0, 255)'/>
	<use xlink:href='#gpPt5' transform='translate(774.9,675.9) scale(2.25)' color='rgb(  0,   0, 255)'/>
	<use xlink:href='#gpPt5' transform='translate(787.8,681.6) scale(2.25)' color='rgb(  0,   0, 255)'/>
	<use xlink:href='#gpPt5' transform='translate(800.8,681.6) scale(2.25)' color='rgb(  0,   0, 255)'/>
	<use xlink:href='#gpPt5' transform='translate(813.8,677.9) scale(2.25)' color='rgb(  0,   0, 255)'/>
	<use xlink:href='#gpPt5' transform='translate(826.8,666.5) scale(2.25)' color='rgb(  0,   0, 255)'/>
	<use xlink:href='#gpPt5' transform='translate(839.7,657.5) scale(2.25)' color='rgb(  0,   0, 255)'/>
	<use xlink:href='#gpPt5' transform='translate(852.7,648.8) scale(2.25)' color='rgb(  0,   0, 255)'/>
	<use xlink:href='#gpPt5' transform='translate(865.7,646.8) scale(2.25)' color='rgb(  0,   0, 255)'/>
	<use xlink:href='#gpPt5' transform='translate(878.7,650.7) scale(2.25)' color='rgb(  0,   0, 255)'/>
	<use xlink:href='#gpPt5' transform='translate(891.7,648.3) scale(2.25)' color='rgb(  0,   0, 255)'/>
	<use xlink:href='#gpPt5' transform='translate(904.6,643.5) scale(2.25)' color='rgb(  0,   0, 255)'/>
	<use xlink:href='#gpPt5' transform='translate(917.6,646.4) scale(2.25)' color='rgb(  0,   0, 255)'/>
	<use xlink:href='#gpPt5' transform='translate(930.6,654.7) scale(2.25)' color='rgb(  0,   0, 255)'/>
	<use xlink:href='#gpPt5' transform='translate(943.6,635.4) scale(2.25)' color='rgb(  0,   0, 255)'/>
	<use xlink:href='#gpPt5' transform='translate(956.5,624.2) scale(2.25)' color='rgb(  0,   0, 255)'/>
	<use xlink:href='#gpPt5' transform='translate(969.5,603.7) scale(2.25)' color='rgb(  0,   0, 255)'/>
	<use xlink:href='#gpPt5' transform='translate(982.5,577.9) scale(2.25)' color='rgb(  0,   0, 255)'/>
	<use xlink:href='#gpPt5' transform='translate(995.5,559.6) scale(2.25)' color='rgb(  0,   0, 255)'/>
	<use xlink:href='#gpPt5' transform='translate(1008.4,548.9) scale(2.25)' color='rgb(  0,   0, 255)'/>
	<use xlink:href='#gpPt5' transform='translate(1021.4,547.1) scale(2.25)' color='rgb(  0,   0, 255)'/>
	<use xlink:href='#gpPt5' transform='translate(1034.4,563.7) scale(2.25)' color='rgb(  0,   0, 255)'/>
	<use xlink:href='#gpPt5' transform='translate(1047.4,578.5) scale(2.25)' color='rgb(  0,   0, 255)'/>
	<use xlink:href='#gpPt5' transform='translate(1060.3,587.7) scale(2.25)' color='rgb(  0,   0, 255)'/>
	<use xlink:href='#gpPt5' transform='translate(1073.3,580.3) scale(2.25)' color='rgb(  0,   0, 255)'/>
	<use xlink:href='#gpPt5' transform='translate(1086.3,584.0) scale(2.25)' color='rgb(  0,   0, 255)'/>
	<use xlink:href='#gpPt5' transform='translate(1099.3,585.1) scale(2.25)' color='rgb(  0,   0, 255)'/>
	<use xlink:href='#gpPt5' transform='translate(1112.3,585.2) scale(2.25)' color='rgb(  0,   0, 255)'/>
	<use xlink:href='#gpPt5' transform='translate(1125.2,591.3) scale(2.25)' color='rgb(  0,   0, 255)'/>
	<use xlink:href='#gpPt5' transform='translate(1138.2,592.7) scale(2.25)' color='rgb(  0,   0, 255)'/>
	<use xlink:href='#gpPt5' transform='translate(1151.2,585.7) scale(2.25)' color='rgb(  0,   0, 255)'/>
	<use xlink:href='#gpPt5' transform='translate(1164.2,589.1) scale(2.25)' color='rgb(  0,   0, 255)'/>
	<use xlink:href='#gpPt5' transform='translate(1177.1,593.5) scale(2.25)' color='rgb(  0,   0, 255)'/>
	<use xlink:href='#gpPt5' transform='translate(1190.1,584.9) scale(2.25)' color='rgb(  0,   0, 255)'/>
	<use xlink:href='#gpPt5' transform='translate(1203.1,588.1) scale(2.25)' color='rgb(  0,   0, 255)'/>
	<use xlink:href='#gpPt5' transform='translate(1216.1,575.1) scale(2.25)' color='rgb(  0,   0, 255)'/>
	<use xlink:href='#gpPt5' transform='translate(1229.0,556.8) scale(2.25)' color='rgb(  0,   0, 255)'/>
	<use xlink:href='#gpPt5' transform='translate(1242.0,516.5) scale(2.25)' color='rgb(  0,   0, 255)'/>
	<use xlink:href='#gpPt5' transform='translate(1255.0,516.8) scale(2.25)' color='rgb(  0,   0, 255)'/>
</g>
	</g>
	<g id="gnuplot_plot_4" ><title>fit</title>
<g fill="none" color="black" stroke="currentColor" stroke-width="1.00" stroke-linecap="butt" stroke-linejoin="miter">
	<g transform="translate(1187.9,94.0)" stroke="none" fill="black" font-family="Arial" font-size="12.00"  text-anchor="end">
		<text><tspan font-family="Arial" >fit</tspan></text>
	</g>
</g>
<g fill="none" color="black" stroke="currentColor" stroke-width="1.00" stroke-linecap="butt" stroke-linejoin="miter">
	<path stroke='rgb(255,   0,   0)'  d='M1196.2,90.1 L1238.4,90.1 M87.1,66.0 L88.2,68.0 L89.4,73.8 L90.5,82.6 L91.7,93.5 L92.8,105.5
		L93.9,118.0 L95.1,130.5 L96.2,142.7 L97.4,154.5 L98.5,165.7 L99.7,176.4 L100.8,186.5 L101.9,195.9
		L103.1,204.9 L104.2,213.2 L105.4,221.1 L106.5,228.5 L107.6,235.5 L108.8,242.0 L109.9,248.1 L111.1,253.9
		L112.2,259.3 L113.4,264.5 L114.5,269.3 L115.6,273.9 L116.8,278.2 L117.9,282.2 L119.1,286.1 L120.2,289.7
		L121.3,293.2 L122.5,296.5 L123.6,299.7 L124.8,302.7 L125.9,305.6 L127.1,308.3 L128.2,311.0 L129.3,313.5
		L130.5,315.9 L131.6,318.3 L132.8,320.6 L133.9,322.8 L135.0,324.9 L136.2,327.0 L137.3,329.0 L138.5,330.9
		L139.6,332.8 L140.8,334.7 L141.9,336.5 L143.0,338.3 L144.2,340.0 L145.3,341.8 L146.5,343.4 L147.6,345.1
		L148.7,346.7 L149.9,348.3 L151.0,349.9 L152.2,351.4 L153.3,353.0 L154.5,354.5 L155.6,356.0 L156.7,357.4
		L157.9,358.9 L159.0,360.3 L160.2,361.8 L161.3,363.2 L162.4,364.6 L163.6,365.9 L164.7,367.3 L165.9,368.7
		L167.0,370.0 L168.2,371.4 L169.3,372.7 L170.4,374.0 L171.6,375.3 L172.7,376.6 L173.9,377.9 L175.0,379.2
		L176.1,380.5 L177.3,381.7 L178.4,383.0 L179.6,384.2 L180.7,385.5 L181.9,386.7 L183.0,387.9 L184.1,389.1
		L185.3,390.3 L186.4,391.5 L187.6,392.7 L188.7,393.9 L189.8,395.1 L191.0,396.3 L192.1,397.4 L193.3,398.6
		L194.4,399.7 L195.6,400.9 L196.7,402.0 L197.8,403.2 L199.0,404.3 L200.1,405.4 L201.3,406.5 L202.4,407.6
		L203.5,408.7 L204.7,409.8 L205.8,410.9 L207.0,412.0 L208.1,413.1 L209.3,414.2 L210.4,415.2 L211.5,416.3
		L212.7,417.3 L213.8,418.4 L215.0,419.4 L216.1,420.5 L217.2,421.5 L218.4,422.5 L219.5,423.6 L220.7,424.6
		L221.8,425.6 L223.0,426.6 L224.1,427.6 L225.2,428.6 L226.4,429.6 L227.5,430.6 L228.7,431.6 L229.8,432.5
		L230.9,433.5 L232.1,434.5 L233.2,435.4 L234.4,436.4 L235.5,437.3 L236.7,438.3 L237.8,439.2 L238.9,440.2
		L240.1,441.1 L241.2,442.0 L242.4,442.9 L243.5,443.9 L244.6,444.8 L245.8,445.7 L246.9,446.6 L248.1,447.5
		L249.2,448.4 L250.4,449.3 L251.5,450.2 L252.6,451.0 L253.8,451.9 L254.9,452.8 L256.1,453.7 L257.2,454.5
		L258.3,455.4 L259.5,456.2 L260.6,457.1 L261.8,457.9 L262.9,458.8 L264.1,459.6 L265.2,460.5 L266.3,461.3
		L267.5,462.1 L268.6,462.9 L269.8,463.8 L270.9,464.6 L272.0,465.4 L273.2,466.2 L274.3,467.0 L275.5,467.8
		L276.6,468.6 L277.8,469.4 L278.9,470.2 L280.0,471.0 L281.2,471.8 L282.3,472.5 L283.5,473.3 L284.6,474.1
		L285.7,474.8 L286.9,475.6 L288.0,476.4 L289.2,477.1 L290.3,477.9 L291.5,478.6 L292.6,479.4 L293.7,480.1
		L294.9,480.8 L296.0,481.6 L297.2,482.3 L298.3,483.0 L299.4,483.8 L300.6,484.5 L301.7,485.2 L302.9,485.9
		L304.0,486.6 L305.2,487.3 L306.3,488.1 L307.4,488.8 L308.6,489.5 L309.7,490.2 L310.9,490.8 L312.0,491.5
		L313.1,492.2 L314.3,492.9 L315.4,493.6 L316.6,494.3 L317.7,494.9 L318.9,495.6 L320.0,496.3 L321.1,496.9
		L322.3,497.6 L323.4,498.3 L324.6,498.9 L325.7,499.6 L326.8,500.2 L328.0,500.9 L329.1,501.5 L330.3,502.2
		L331.4,502.8 L332.6,503.5 L333.7,504.1 L334.8,504.7 L336.0,505.3 L337.1,506.0 L338.3,506.6 L339.4,507.2
		L340.5,507.8 L341.7,508.5 L342.8,509.1 L344.0,509.7 L345.1,510.3 L346.3,510.9 L347.4,511.5 L348.5,512.1
		L349.7,512.7 L350.8,513.3 L352.0,513.9 L353.1,514.5 L354.2,515.1 L355.4,515.7 L356.5,516.2 L357.7,516.8
		L358.8,517.4 L360.0,518.0 L361.1,518.5 L362.2,519.1 L363.4,519.7 L364.5,520.3 L365.7,520.8 L366.8,521.4
		L367.9,521.9 L369.1,522.5 L370.2,523.1 L371.4,523.6 L372.5,524.2 L373.7,524.7 L374.8,525.3 L375.9,525.8
		L377.1,526.3 L378.2,526.9 L379.4,527.4 L380.5,528.0 L381.6,528.5 L382.8,529.0 L383.9,529.5 L385.1,530.1
		L386.2,530.6 L387.4,531.1 L388.5,531.6 L389.6,532.2 L390.8,532.7 L391.9,533.2 L393.1,533.7 L394.2,534.2
		L395.3,534.7 L396.5,535.2 L397.6,535.7 L398.8,536.2 L399.9,536.7 L401.1,537.2 L402.2,537.7 L403.3,538.2
		L404.5,538.7 L405.6,539.2 L406.8,539.7 L407.9,540.2 L409.0,540.7 L410.2,541.2 L411.3,541.6 L412.5,542.1
		L413.6,542.6 L414.8,543.1 L415.9,543.6 L417.0,544.0 L418.2,544.5 L419.3,545.0 L420.5,545.4 L421.6,545.9
		L422.7,546.4 L423.9,546.8 L425.0,547.3 L426.2,547.7 L427.3,548.2 L428.5,548.7 L429.6,549.1 L430.7,549.6
		L431.9,550.0 L433.0,550.5 L434.2,550.9 L435.3,551.3 L436.4,551.8 L437.6,552.2 L438.7,552.7 L439.9,553.1
		L441.0,553.5 L442.2,554.0 L443.3,554.4 L444.4,554.8 L445.6,555.3 L446.7,555.7 L447.9,556.1 L449.0,556.6
		L450.1,557.0 L451.3,557.4 L452.4,557.8 L453.6,558.2 L454.7,558.7 L455.9,559.1 L457.0,559.5 L458.1,559.9
		L459.3,560.3 L460.4,560.7 L461.6,561.1 L462.7,561.5 L463.8,561.9 L465.0,562.3 L466.1,562.7 L467.3,563.1
		L468.4,563.5 L469.6,563.9 L470.7,564.3 L471.8,564.7 L473.0,565.1 L474.1,565.5 L475.3,565.9 L476.4,566.3
		L477.5,566.7 L478.7,567.1 L479.8,567.4 L481.0,567.8 L482.1,568.2 L483.2,568.6 L484.4,569.0 L485.5,569.3
		L486.7,569.7 L487.8,570.1 L489.0,570.5 L490.1,570.8 L491.2,571.2 L492.4,571.6 L493.5,571.9 L494.7,572.3
		L495.8,572.7 L496.9,573.0 L498.1,573.4 L499.2,573.8 L500.4,574.1 L501.5,574.5 L502.7,574.8 L503.8,575.2
		L504.9,575.5 L506.1,575.9 L507.2,576.2 L508.4,576.6 L509.5,576.9 L510.6,577.3 L511.8,577.6 L512.9,578.0
		L514.1,578.3 L515.2,578.7 L516.4,579.0 L517.5,579.3 L518.6,579.7 L519.8,580.0 L520.9,580.3 L522.1,580.7
		L523.2,581.0 L524.3,581.3 L525.5,581.7 L526.6,582.0 L527.8,582.3 L528.9,582.7 L530.1,583.0 L531.2,583.3
		L532.3,583.6 L533.5,583.9 L534.6,584.3 L535.8,584.6 L536.9,584.9 L538.0,585.2 L539.2,585.5 L540.3,585.8
		L541.5,586.2 L542.6,586.5 L543.8,586.8 L544.9,587.1 L546.0,587.4 L547.2,587.7 L548.3,588.0 L549.5,588.3
		L550.6,588.6 L551.7,588.9 L552.9,589.2 L554.0,589.5 L555.2,589.8 L556.3,590.1 L557.5,590.4 L558.6,590.7
		L559.7,591.0 L560.9,591.3 L562.0,591.6 L563.2,591.9 L564.3,592.2 L565.4,592.5 L566.6,592.7 L567.7,593.0
		L568.9,593.3 L570.0,593.6 L571.2,593.9 L572.3,594.2 L573.4,594.4 L574.6,594.7 L575.7,595.0 L576.9,595.3
		L578.0,595.5 L579.1,595.8 L580.3,596.1 L581.4,596.4 L582.6,596.6 L583.7,596.9 L584.9,597.2 L586.0,597.4
		L587.1,597.7 L588.3,598.0 L589.4,598.2 L590.6,598.5 L591.7,598.7 L592.8,599.0 L594.0,599.3 L595.1,599.5
		L596.3,599.8 L597.4,600.0 L598.6,600.3 L599.7,600.5 L600.8,600.8 L602.0,601.0 L603.1,601.3 L604.3,601.5
		L605.4,601.8 L606.5,602.0 L607.7,602.3 L608.8,602.5 L610.0,602.8 L611.1,603.0 L612.3,603.3 L613.4,603.5
		L614.5,603.7 L615.7,604.0 L616.8,604.2 L618.0,604.4 L619.1,604.7 L620.2,604.9 L621.4,605.1 L622.5,605.4
		L623.7,605.6 L624.8,605.8 L626.0,606.1 L627.1,606.3 L628.2,606.5 L629.4,606.7 L630.5,607.0 L631.7,607.2
		L632.8,607.4 L633.9,607.6 L635.1,607.9 L636.2,608.1 L637.4,608.3 L638.5,608.5 L639.7,608.7 L640.8,608.9
		L641.9,609.1 L643.1,609.4 L644.2,609.6 L645.4,609.8 L646.5,610.0 L647.6,610.2 L648.8,610.4 L649.9,610.6
		L651.1,610.8 L652.2,611.0 L653.4,611.2 L654.5,611.4 L655.6,611.6 L656.8,611.8 L657.9,612.0 L659.1,612.2
		L660.2,612.4 L661.3,612.6 L662.5,612.8 L663.6,613.0 L664.8,613.2 L665.9,613.4 L667.1,613.5 L668.2,613.7
		L669.3,613.9 L670.5,614.1 L671.6,614.3 L672.8,614.5 L673.9,614.7 L675.0,614.8 L676.2,615.0 L677.3,615.2
		L678.5,615.4 L679.6,615.5 L680.8,615.7 L681.9,615.9 L683.0,616.1 L684.2,616.2 L685.3,616.4 L686.5,616.6
		L687.6,616.7 L688.7,616.9 L689.9,617.1 L691.0,617.2 L692.2,617.4 L693.3,617.6 L694.5,617.7 L695.6,617.9
		L696.7,618.1 L697.9,618.2 L699.0,618.4 L700.2,618.5 L701.3,618.7 L702.4,618.8 L703.6,619.0 L704.7,619.1
		L705.9,619.3 L707.0,619.4 L708.2,619.6 L709.3,619.7 L710.4,619.9 L711.6,620.0 L712.7,620.2 L713.9,620.3
		L715.0,620.5 L716.1,620.6 L717.3,620.7 L718.4,620.9 L719.6,621.0 L720.7,621.1 L721.9,621.3 L723.0,621.4
		L724.1,621.5 L725.3,621.7 L726.4,621.8 L727.6,621.9 L728.7,622.1 L729.8,622.2 L731.0,622.3 L732.1,622.4
		L733.3,622.6 L734.4,622.7 L735.6,622.8 L736.7,622.9 L737.8,623.0 L739.0,623.2 L740.1,623.3 L741.3,623.4
		L742.4,623.5 L743.5,623.6 L744.7,623.7 L745.8,623.8 L747.0,623.9 L748.1,624.0 L749.3,624.1 L750.4,624.2
		L751.5,624.4 L752.7,624.5 L753.8,624.6 L755.0,624.7 L756.1,624.8 L757.2,624.8 L758.4,624.9 L759.5,625.0
		L760.7,625.1 L761.8,625.2 L763.0,625.3 L764.1,625.4 L765.2,625.5 L766.4,625.6 L767.5,625.7 L768.7,625.7
		L769.8,625.8 L770.9,625.9 L772.1,626.0 L773.2,626.1 L774.4,626.2 L775.5,626.2 L776.7,626.3 L777.8,626.4
		L778.9,626.4 L780.1,626.5 L781.2,626.6 L782.4,626.7 L783.5,626.7 L784.6,626.8 L785.8,626.9 L786.9,626.9
		L788.1,627.0 L789.2,627.0 L790.4,627.1 L791.5,627.2 L792.6,627.2 L793.8,627.3 L794.9,627.3 L796.1,627.4
		L797.2,627.4 L798.3,627.5 L799.5,627.5 L800.6,627.6 L801.8,627.6 L802.9,627.7 L804.1,627.7 L805.2,627.7
		L806.3,627.8 L807.5,627.8 L808.6,627.9 L809.8,627.9 L810.9,627.9 L812.0,628.0 L813.2,628.0 L814.3,628.0
		L815.5,628.1 L816.6,628.1 L817.8,628.1 L818.9,628.1 L820.0,628.2 L821.2,628.2 L822.3,628.2 L823.5,628.2
		L824.6,628.2 L825.7,628.2 L826.9,628.3 L828.0,628.3 L829.2,628.3 L830.3,628.3 L831.5,628.3 L832.6,628.3
		L833.7,628.3 L834.9,628.3 L836.0,628.3 L837.2,628.3 L838.3,628.3 L839.4,628.3 L840.6,628.3 L841.7,628.3
		L842.9,628.3 L844.0,628.3 L845.2,628.3 L846.3,628.2 L847.4,628.2 L848.6,628.2 L849.7,628.2 L850.9,628.2
		L852.0,628.2 L853.1,628.1 L854.3,628.1 L855.4,628.1 L856.6,628.1 L857.7,628.0 L858.9,628.0 L860.0,628.0
		L861.1,627.9 L862.3,627.9 L863.4,627.9 L864.6,627.8 L865.7,627.8 L866.8,627.7 L868.0,627.7 L869.1,627.7
		L870.3,627.6 L871.4,627.6 L872.5,627.5 L873.7,627.5 L874.8,627.4 L876.0,627.3 L877.1,627.3 L878.3,627.2
		L879.4,627.2 L880.5,627.1 L881.7,627.0 L882.8,627.0 L884.0,626.9 L885.1,626.8 L886.2,626.8 L887.4,626.7
		L888.5,626.6 L889.7,626.5 L890.8,626.5 L892.0,626.4 L893.1,626.3 L894.2,626.2 L895.4,626.1 L896.5,626.0
		L897.7,626.0 L898.8,625.9 L899.9,625.8 L901.1,625.7 L902.2,625.6 L903.4,625.5 L904.5,625.4 L905.7,625.3
		L906.8,625.2 L907.9,625.1 L909.1,625.0 L910.2,624.8 L911.4,624.7 L912.5,624.6 L913.6,624.5 L914.8,624.4
		L915.9,624.3 L917.1,624.1 L918.2,624.0 L919.4,623.9 L920.5,623.8 L921.6,623.6 L922.8,623.5 L923.9,623.4
		L925.1,623.2 L926.2,623.1 L927.3,623.0 L928.5,622.8 L929.6,622.7 L930.8,622.5 L931.9,622.4 L933.1,622.2
		L934.2,622.1 L935.3,621.9 L936.5,621.8 L937.6,621.6 L938.8,621.5 L939.9,621.3 L941.0,621.1 L942.2,621.0
		L943.3,620.8 L944.5,620.6 L945.6,620.5 L946.8,620.3 L947.9,620.1 L949.0,619.9 L950.2,619.8 L951.3,619.6
		L952.5,619.4 L953.6,619.2 L954.7,619.0 L955.9,618.8 L957.0,618.6 L958.2,618.5 L959.3,618.3 L960.5,618.1
		L961.6,617.9 L962.7,617.7 L963.9,617.5 L965.0,617.3 L966.2,617.0 L967.3,616.8 L968.4,616.6 L969.6,616.4
		L970.7,616.2 L971.9,616.0 L973.0,615.8 L974.2,615.5 L975.3,615.3 L976.4,615.1 L977.6,614.8 L978.7,614.6
		L979.9,614.4 L981.0,614.1 L982.1,613.9 L983.3,613.7 L984.4,613.4 L985.6,613.2 L986.7,612.9 L987.9,612.7
		L989.0,612.4 L990.1,612.2 L991.3,611.9 L992.4,611.7 L993.6,611.4 L994.7,611.2 L995.8,610.9 L997.0,610.6
		L998.1,610.4 L999.3,610.1 L1000.4,609.8 L1001.6,609.6 L1002.7,609.3 L1003.8,609.0 L1005.0,608.7 L1006.1,608.4
		L1007.3,608.2 L1008.4,607.9 L1009.5,607.6 L1010.7,607.3 L1011.8,607.0 L1013.0,606.7 L1014.1,606.4 L1015.3,606.1
		L1016.4,605.8 L1017.5,605.5 L1018.7,605.2 L1019.8,604.9 L1021.0,604.6 L1022.1,604.3 L1023.2,604.0 L1024.4,603.7
		L1025.5,603.4 L1026.7,603.0 L1027.8,602.7 L1029.0,602.4 L1030.1,602.1 L1031.2,601.7 L1032.4,601.4 L1033.5,601.1
		L1034.7,600.8 L1035.8,600.4 L1036.9,600.1 L1038.1,599.8 L1039.2,599.4 L1040.4,599.1 L1041.5,598.7 L1042.7,598.4
		L1043.8,598.0 L1044.9,597.7 L1046.1,597.3 L1047.2,597.0 L1048.4,596.6 L1049.5,596.3 L1050.6,595.9 L1051.8,595.6
		L1052.9,595.2 L1054.1,594.8 L1055.2,594.5 L1056.4,594.1 L1057.5,593.7 L1058.6,593.4 L1059.8,593.0 L1060.9,592.6
		L1062.1,592.3 L1063.2,591.9 L1064.3,591.5 L1065.5,591.1 L1066.6,590.7 L1067.8,590.4 L1068.9,590.0 L1070.1,589.6
		L1071.2,589.2 L1072.3,588.8 L1073.5,588.4 L1074.6,588.0 L1075.8,587.6 L1076.9,587.3 L1078.0,586.9 L1079.2,586.5
		L1080.3,586.1 L1081.5,585.7 L1082.6,585.3 L1083.8,584.9 L1084.9,584.5 L1086.0,584.1 L1087.2,583.7 L1088.3,583.2
		L1089.5,582.8 L1090.6,582.4 L1091.7,582.0 L1092.9,581.6 L1094.0,581.2 L1095.2,580.8 L1096.3,580.4 L1097.5,580.0
		L1098.6,579.5 L1099.7,579.1 L1100.9,578.7 L1102.0,578.3 L1103.2,577.9 L1104.3,577.5 L1105.4,577.0 L1106.6,576.6
		L1107.7,576.2 L1108.9,575.8 L1110.0,575.4 L1111.2,574.9 L1112.3,574.5 L1113.4,574.1 L1114.6,573.7 L1115.7,573.2
		L1116.9,572.8 L1118.0,572.4 L1119.1,572.0 L1120.3,571.6 L1121.4,571.1 L1122.6,570.7 L1123.7,570.3 L1124.9,569.9
		L1126.0,569.4 L1127.1,569.0 L1128.3,568.6 L1129.4,568.2 L1130.6,567.7 L1131.7,567.3 L1132.8,566.9 L1134.0,566.5
		L1135.1,566.1 L1136.3,565.6 L1137.4,565.2 L1138.6,564.8 L1139.7,564.4 L1140.8,564.0 L1142.0,563.6 L1143.1,563.1
		L1144.3,562.7 L1145.4,562.3 L1146.5,561.9 L1147.7,561.5 L1148.8,561.1 L1150.0,560.7 L1151.1,560.3 L1152.3,559.9
		L1153.4,559.5 L1154.5,559.1 L1155.7,558.7 L1156.8,558.3 L1158.0,557.9 L1159.1,557.5 L1160.2,557.1 L1161.4,556.7
		L1162.5,556.3 L1163.7,555.9 L1164.8,555.5 L1166.0,555.1 L1167.1,554.8 L1168.2,554.4 L1169.4,554.0 L1170.5,553.6
		L1171.7,553.3 L1172.8,552.9 L1173.9,552.5 L1175.1,552.2 L1176.2,551.8 L1177.4,551.4 L1178.5,551.1 L1179.7,550.7
		L1180.8,550.4 L1181.9,550.1 L1183.1,549.7 L1184.2,549.4 L1185.4,549.0 L1186.5,548.7 L1187.6,548.4 L1188.8,548.1
		L1189.9,547.7 L1191.1,547.4 L1192.2,547.1 L1193.4,546.8 L1194.5,546.5 L1195.6,546.2 L1196.8,545.9 L1197.9,545.6
		L1199.1,545.3 L1200.2,545.1 L1201.3,544.8 L1202.5,544.5 L1203.6,544.2 L1204.8,544.0 L1205.9,543.7 L1207.1,543.5
		L1208.2,543.2 L1209.3,543.0 L1210.5,542.7 L1211.6,542.5 L1212.8,542.3 L1213.9,542.1 L1215.0,541.8 L1216.2,541.6
		L1217.3,541.4 L1218.5,541.2 L1219.6,541.0 L1220.8,540.8 L1221.9,540.7 L1223.0,540.5 L1224.2,540.3 L1225.3,540.1
		L1226.5,540.0 L1227.6,539.8 L1228.7,539.7 L1229.9,539.5 L1231.0,539.4 L1232.2,539.3 L1233.3,539.1 L1234.5,539.0
		L1235.6,538.9 L1236.7,538.8 L1237.9,538.7 L1239.0,538.6 L1240.2,538.5 L1241.3,538.4 L1242.4,538.4 L1243.6,538.3
		L1244.7,538.2 L1245.9,538.2 L1247.0,538.1 L1248.2,538.1 L1249.3,538.0 L1250.4,538.0 L1251.6,538.0 L1252.7,538.0
		L1253.9,538.0 L1255.0,538.0  '/></g>
	</g>
	<g id="gnuplot_plot_5" ><title>gnuplot_plot_5</title>
<g fill="none" color="black" stroke="currentColor" stroke-width="1.00" stroke-linecap="butt" stroke-linejoin="miter">
	<path stroke='rgb(  0, 100,   0)'  d='M87.1,63.2 L88.2,65.3 L89.4,71.1 L90.5,79.9 L91.7,90.7 L92.8,102.8 L93.9,115.3 L95.1,127.8
		L96.2,140.1 L97.4,151.9 L98.5,163.2 L99.7,173.9 L100.8,184.1 L101.9,193.6 L103.1,202.6 L104.2,211.1
		L105.4,219.0 L106.5,226.5 L107.6,233.6 L108.8,240.2 L109.9,246.5 L111.1,252.4 L112.2,257.9 L113.4,263.2
		L114.5,268.2 L115.6,272.8 L116.8,277.3 L117.9,281.5 L119.1,285.5 L120.2,289.3 L121.3,292.9 L122.5,296.3
		L123.6,299.6 L124.8,302.7 L125.9,305.7 L127.1,308.5 L128.2,311.3 L129.3,313.9 L130.5,316.5 L131.6,319.0
		L132.8,321.3 L133.9,323.6 L135.0,325.8 L136.2,328.0 L137.3,330.1 L138.5,332.1 L139.6,334.1 L140.8,336.1
		L141.9,338.0 L143.0,339.8 L144.2,341.6 L145.3,343.4 L146.5,345.2 L147.6,346.9 L148.7,348.6 L149.9,350.2
		L151.0,351.8 L152.2,353.4 L153.3,355.0 L154.5,356.6 L155.6,358.1 L156.7,359.6 L157.9,361.1 L159.0,362.6
		L160.2,364.1 L161.3,365.6 L162.4,367.0 L163.6,368.4 L164.7,369.8 L165.9,371.2 L167.0,372.6 L168.2,374.0
		L169.3,375.3 L170.4,376.7 L171.6,378.0 L172.7,379.4 L173.9,380.7 L175.0,382.0 L176.1,383.3 L177.3,384.6
		L178.4,385.8 L179.6,387.1 L180.7,388.4 L181.9,389.6 L183.0,390.9 L184.1,392.1 L185.3,393.3 L186.4,394.6
		L187.6,395.8 L188.7,397.0 L189.8,398.2 L191.0,399.4 L192.1,400.6 L193.3,401.7 L194.4,402.9 L195.6,404.1
		L196.7,405.2 L197.8,406.4 L199.0,407.5 L200.1,408.7 L201.3,409.8 L202.4,410.9 L203.5,412.0 L204.7,413.1
		L205.8,414.2 L207.0,415.3 L208.1,416.4 L209.3,417.5 L210.4,418.6 L211.5,419.7 L212.7,420.7 L213.8,421.8
		L215.0,422.9 L216.1,423.9 L217.2,425.0 L218.4,426.0 L219.5,427.0 L220.7,428.1 L221.8,429.1 L223.0,430.1
		L224.1,431.1 L225.2,432.1 L226.4,433.1 L227.5,434.1 L228.7,435.1 L229.8,436.1 L230.9,437.1 L232.1,438.0
		L233.2,439.0 L234.4,440.0 L235.5,440.9 L236.7,441.9 L237.8,442.8 L238.9,443.8 L240.1,444.7 L241.2,445.7
		L242.4,446.6 L243.5,447.5 L244.6,448.4 L245.8,449.3 L246.9,450.3 L248.1,451.2 L249.2,452.1 L250.4,453.0
		L251.5,453.9 L252.6,454.7 L253.8,455.6 L254.9,456.5 L256.1,457.4 L257.2,458.3 L258.3,459.1 L259.5,460.0
		L260.6,460.8 L261.8,461.7 L262.9,462.5 L264.1,463.4 L265.2,464.2 L266.3,465.1 L267.5,465.9 L268.6,466.7
		L269.8,467.5 L270.9,468.4 L272.0,469.2 L273.2,470.0 L274.3,470.8 L275.5,471.6 L276.6,472.4 L277.8,473.2
		L278.9,474.0 L280.0,474.8 L281.2,475.6 L282.3,476.4 L283.5,477.1 L284.6,477.9 L285.7,478.7 L286.9,479.4
		L288.0,480.2 L289.2,481.0 L290.3,481.7 L291.5,482.5 L292.6,483.2 L293.7,484.0 L294.9,484.7 L296.0,485.5
		L297.2,486.2 L298.3,486.9 L299.4,487.7 L300.6,488.4 L301.7,489.1 L302.9,489.8 L304.0,490.5 L305.2,491.2
		L306.3,492.0 L307.4,492.7 L308.6,493.4 L309.7,494.1 L310.9,494.8 L312.0,495.5 L313.1,496.1 L314.3,496.8
		L315.4,497.5 L316.6,498.2 L317.7,498.9 L318.9,499.5 L320.0,500.2 L321.1,500.9 L322.3,501.6 L323.4,502.2
		L324.6,502.9 L325.7,503.5 L326.8,504.2 L328.0,504.8 L329.1,505.5 L330.3,506.1 L331.4,506.8 L332.6,507.4
		L333.7,508.1 L334.8,508.7 L336.0,509.3 L337.1,509.9 L338.3,510.6 L339.4,511.2 L340.5,511.8 L341.7,512.4
		L342.8,513.1 L344.0,513.7 L345.1,514.3 L346.3,514.9 L347.4,515.5 L348.5,516.1 L349.7,516.7 L350.8,517.3
		L352.0,517.9 L353.1,518.5 L354.2,519.1 L355.4,519.7 L356.5,520.2 L357.7,520.8 L358.8,521.4 L360.0,522.0
		L361.1,522.6 L362.2,523.1 L363.4,523.7 L364.5,524.3 L365.7,524.8 L366.8,525.4 L367.9,526.0 L369.1,526.5
		L370.2,527.1 L371.4,527.6 L372.5,528.2 L373.7,528.7 L374.8,529.3 L375.9,529.8 L377.1,530.4 L378.2,530.9
		L379.4,531.5 L380.5,532.0 L381.6,532.5 L382.8,533.1 L383.9,533.6 L385.1,534.1 L386.2,534.7 L387.4,535.2
		L388.5,535.7 L389.6,536.2 L390.8,536.7 L391.9,537.3 L393.1,537.8 L394.2,538.3 L395.3,538.8 L396.5,539.3
		L397.6,539.8 L398.8,540.3 L399.9,540.8 L401.1,541.3 L402.2,541.8 L403.3,542.3 L404.5,542.8 L405.6,543.3
		L406.8,543.8 L407.9,544.3 L409.0,544.8 L410.2,545.3 L411.3,545.7 L412.5,546.2 L413.6,546.7 L414.8,547.2
		L415.9,547.7 L417.0,548.1 L418.2,548.6 L419.3,549.1 L420.5,549.5 L421.6,550.0 L422.7,550.5 L423.9,550.9
		L425.0,551.4 L426.2,551.9 L427.3,552.3 L428.5,552.8 L429.6,553.2 L430.7,553.7 L431.9,554.1 L433.0,554.6
		L434.2,555.0 L435.3,555.5 L436.4,555.9 L437.6,556.4 L438.7,556.8 L439.9,557.2 L441.0,557.7 L442.2,558.1
		L443.3,558.6 L444.4,559.0 L445.6,559.4 L446.7,559.9 L447.9,560.3 L449.0,560.7 L450.1,561.1 L451.3,561.6
		L452.4,562.0 L453.6,562.4 L454.7,562.8 L455.9,563.2 L457.0,563.6 L458.1,564.1 L459.3,564.5 L460.4,564.9
		L461.6,565.3 L462.7,565.7 L463.8,566.1 L465.0,566.5 L466.1,566.9 L467.3,567.3 L468.4,567.7 L469.6,568.1
		L470.7,568.5 L471.8,568.9 L473.0,569.3 L474.1,569.7 L475.3,570.1 L476.4,570.5 L477.5,570.9 L478.7,571.3
		L479.8,571.6 L481.0,572.0 L482.1,572.4 L483.2,572.8 L484.4,573.2 L485.5,573.5 L486.7,573.9 L487.8,574.3
		L489.0,574.7 L490.1,575.0 L491.2,575.4 L492.4,575.8 L493.5,576.2 L494.7,576.5 L495.8,576.9 L496.9,577.3
		L498.1,577.6 L499.2,578.0 L500.4,578.3 L501.5,578.7 L502.7,579.1 L503.8,579.4 L504.9,579.8 L506.1,580.1
		L507.2,580.5 L508.4,580.8 L509.5,581.2 L510.6,581.5 L511.8,581.9 L512.9,582.2 L514.1,582.6 L515.2,582.9
		L516.4,583.3 L517.5,583.6 L518.6,583.9 L519.8,584.3 L520.9,584.6 L522.1,584.9 L523.2,585.3 L524.3,585.6
		L525.5,585.9 L526.6,586.3 L527.8,586.6 L528.9,586.9 L530.1,587.3 L531.2,587.6 L532.3,587.9 L533.5,588.2
		L534.6,588.6 L535.8,588.9 L536.9,589.2 L538.0,589.5 L539.2,589.8 L540.3,590.1 L541.5,590.5 L542.6,590.8
		L543.8,591.1 L544.9,591.4 L546.0,591.7 L547.2,592.0 L548.3,592.3 L549.5,592.6 L550.6,592.9 L551.7,593.2
		L552.9,593.5 L554.0,593.8 L555.2,594.1 L556.3,594.4 L557.5,594.7 L558.6,595.0 L559.7,595.3 L560.9,595.6
		L562.0,595.9 L563.2,596.2 L564.3,596.5 L565.4,596.8 L566.6,597.1 L567.7,597.4 L568.9,597.7 L570.0,598.0
		L571.2,598.2 L572.3,598.5 L573.4,598.8 L574.6,599.1 L575.7,599.4 L576.9,599.6 L578.0,599.9 L579.1,600.2
		L580.3,600.5 L581.4,600.7 L582.6,601.0 L583.7,601.3 L584.9,601.6 L586.0,601.8 L587.1,602.1 L588.3,602.4
		L589.4,602.6 L590.6,602.9 L591.7,603.2 L592.8,603.4 L594.0,603.7 L595.1,603.9 L596.3,604.2 L597.4,604.5
		L598.6,604.7 L599.7,605.0 L600.8,605.2 L602.0,605.5 L603.1,605.7 L604.3,606.0 L605.4,606.2 L606.5,606.5
		L607.7,606.7 L608.8,607.0 L610.0,607.2 L611.1,607.5 L612.3,607.7 L613.4,608.0 L614.5,608.2 L615.7,608.5
		L616.8,608.7 L618.0,608.9 L619.1,609.2 L620.2,609.4 L621.4,609.6 L622.5,609.9 L623.7,610.1 L624.8,610.3
		L626.0,610.6 L627.1,610.8 L628.2,611.0 L629.4,611.3 L630.5,611.5 L631.7,611.7 L632.8,611.9 L633.9,612.2
		L635.1,612.4 L636.2,612.6 L637.4,612.8 L638.5,613.0 L639.7,613.3 L640.8,613.5 L641.9,613.7 L643.1,613.9
		L644.2,614.1 L645.4,614.3 L646.5,614.6 L647.6,614.8 L648.8,615.0 L649.9,615.2 L651.1,615.4 L652.2,615.6
		L653.4,615.8 L654.5,616.0 L655.6,616.2 L656.8,616.4 L657.9,616.6 L659.1,616.8 L660.2,617.0 L661.3,617.2
		L662.5,617.4 L663.6,617.6 L664.8,617.8 L665.9,618.0 L667.1,618.2 L668.2,618.4 L669.3,618.6 L670.5,618.8
		L671.6,618.9 L672.8,619.1 L673.9,619.3 L675.0,619.5 L676.2,619.7 L677.3,619.9 L678.5,620.1 L679.6,620.2
		L680.8,620.4 L681.9,620.6 L683.0,620.8 L684.2,620.9 L685.3,621.1 L686.5,621.3 L687.6,621.5 L688.7,621.6
		L689.9,621.8 L691.0,622.0 L692.2,622.2 L693.3,622.3 L694.5,622.5 L695.6,622.7 L696.7,622.8 L697.9,623.0
		L699.0,623.1 L700.2,623.3 L701.3,623.5 L702.4,623.6 L703.6,623.8 L704.7,623.9 L705.9,624.1 L707.0,624.2
		L708.2,624.4 L709.3,624.6 L710.4,624.7 L711.6,624.9 L712.7,625.0 L713.9,625.2 L715.0,625.3 L716.1,625.4
		L717.3,625.6 L718.4,625.7 L719.6,625.9 L720.7,626.0 L721.9,626.2 L723.0,626.3 L724.1,626.4 L725.3,626.6
		L726.4,626.7 L727.6,626.8 L728.7,627.0 L729.8,627.1 L731.0,627.2 L732.1,627.4 L733.3,627.5 L734.4,627.6
		L735.6,627.7 L736.7,627.9 L737.8,628.0 L739.0,628.1 L740.1,628.2 L741.3,628.4 L742.4,628.5 L743.5,628.6
		L744.7,628.7 L745.8,628.8 L747.0,628.9 L748.1,629.1 L749.3,629.2 L750.4,629.3 L751.5,629.4 L752.7,629.5
		L753.8,629.6 L755.0,629.7 L756.1,629.8 L757.2,629.9 L758.4,630.0 L759.5,630.1 L760.7,630.2 L761.8,630.3
		L763.0,630.4 L764.1,630.5 L765.2,630.6 L766.4,630.7 L767.5,630.8 L768.7,630.9 L769.8,631.0 L770.9,631.1
		L772.1,631.2 L773.2,631.2 L774.4,631.3 L775.5,631.4 L776.7,631.5 L777.8,631.6 L778.9,631.7 L780.1,631.7
		L781.2,631.8 L782.4,631.9 L783.5,632.0 L784.6,632.0 L785.8,632.1 L786.9,632.2 L788.1,632.2 L789.2,632.3
		L790.4,632.4 L791.5,632.4 L792.6,632.5 L793.8,632.6 L794.9,632.6 L796.1,632.7 L797.2,632.8 L798.3,632.8
		L799.5,632.9 L800.6,632.9 L801.8,633.0 L802.9,633.0 L804.1,633.1 L805.2,633.1 L806.3,633.2 L807.5,633.2
		L808.6,633.3 L809.8,633.3 L810.9,633.4 L812.0,633.4 L813.2,633.4 L814.3,633.5 L815.5,633.5 L816.6,633.5
		L817.8,633.6 L818.9,633.6 L820.0,633.6 L821.2,633.7 L822.3,633.7 L823.5,633.7 L824.6,633.8 L825.7,633.8
		L826.9,633.8 L828.0,633.8 L829.2,633.8 L830.3,633.9 L831.5,633.9 L832.6,633.9 L833.7,633.9 L834.9,633.9
		L836.0,633.9 L837.2,633.9 L838.3,633.9 L839.4,634.0 L840.6,634.0 L841.7,634.0 L842.9,634.0 L844.0,634.0
		L845.2,634.0 L846.3,634.0 L847.4,634.0 L848.6,633.9 L849.7,633.9 L850.9,633.9 L852.0,633.9 L853.1,633.9
		L854.3,633.9 L855.4,633.9 L856.6,633.9 L857.7,633.8 L858.9,633.8 L860.0,633.8 L861.1,633.8 L862.3,633.7
		L863.4,633.7 L864.6,633.7 L865.7,633.7 L866.8,633.6 L868.0,633.6 L869.1,633.6 L870.3,633.5 L871.4,633.5
		L872.5,633.4 L873.7,633.4 L874.8,633.4 L876.0,633.3 L877.1,633.3 L878.3,633.2 L879.4,633.2 L880.5,633.1
		L881.7,633.1 L882.8,633.0 L884.0,633.0 L885.1,632.9 L886.2,632.8 L887.4,632.8 L888.5,632.7 L889.7,632.6
		L890.8,632.6 L892.0,632.5 L893.1,632.4 L894.2,632.4 L895.4,632.3 L896.5,632.2 L897.7,632.1 L898.8,632.0
		L899.9,632.0 L901.1,631.9 L902.2,631.8 L903.4,631.7 L904.5,631.6 L905.7,631.5 L906.8,631.4 L907.9,631.3
		L909.1,631.2 L910.2,631.1 L911.4,631.0 L912.5,630.9 L913.6,630.8 L914.8,630.7 L915.9,630.6 L917.1,630.5
		L918.2,630.4 L919.4,630.3 L920.5,630.2 L921.6,630.1 L922.8,629.9 L923.9,629.8 L925.1,629.7 L926.2,629.6
		L927.3,629.4 L928.5,629.3 L929.6,629.2 L930.8,629.0 L931.9,628.9 L933.1,628.8 L934.2,628.6 L935.3,628.5
		L936.5,628.4 L937.6,628.2 L938.8,628.1 L939.9,627.9 L941.0,627.8 L942.2,627.6 L943.3,627.5 L944.5,627.3
		L945.6,627.1 L946.8,627.0 L947.9,626.8 L949.0,626.6 L950.2,626.5 L951.3,626.3 L952.5,626.1 L953.6,626.0
		L954.7,625.8 L955.9,625.6 L957.0,625.4 L958.2,625.3 L959.3,625.1 L960.5,624.9 L961.6,624.7 L962.7,624.5
		L963.9,624.3 L965.0,624.1 L966.2,623.9 L967.3,623.7 L968.4,623.5 L969.6,623.3 L970.7,623.1 L971.9,622.9
		L973.0,622.7 L974.2,622.5 L975.3,622.3 L976.4,622.1 L977.6,621.9 L978.7,621.6 L979.9,621.4 L981.0,621.2
		L982.1,621.0 L983.3,620.7 L984.4,620.5 L985.6,620.3 L986.7,620.0 L987.9,619.8 L989.0,619.6 L990.1,619.3
		L991.3,619.1 L992.4,618.8 L993.6,618.6 L994.7,618.4 L995.8,618.1 L997.0,617.8 L998.1,617.6 L999.3,617.3
		L1000.4,617.1 L1001.6,616.8 L1002.7,616.6 L1003.8,616.3 L1005.0,616.0 L1006.1,615.7 L1007.3,615.5 L1008.4,615.2
		L1009.5,614.9 L1010.7,614.7 L1011.8,614.4 L1013.0,614.1 L1014.1,613.8 L1015.3,613.5 L1016.4,613.2 L1017.5,612.9
		L1018.7,612.6 L1019.8,612.4 L1021.0,612.1 L1022.1,611.8 L1023.2,611.5 L1024.4,611.2 L1025.5,610.9 L1026.7,610.5
		L1027.8,610.2 L1029.0,609.9 L1030.1,609.6 L1031.2,609.3 L1032.4,609.0 L1033.5,608.7 L1034.7,608.3 L1035.8,608.0
		L1036.9,607.7 L1038.1,607.4 L1039.2,607.0 L1040.4,606.7 L1041.5,606.4 L1042.7,606.0 L1043.8,605.7 L1044.9,605.4
		L1046.1,605.0 L1047.2,604.7 L1048.4,604.3 L1049.5,604.0 L1050.6,603.7 L1051.8,603.3 L1052.9,603.0 L1054.1,602.6
		L1055.2,602.2 L1056.4,601.9 L1057.5,601.5 L1058.6,601.2 L1059.8,600.8 L1060.9,600.4 L1062.1,600.1 L1063.2,599.7
		L1064.3,599.3 L1065.5,599.0 L1066.6,598.6 L1067.8,598.2 L1068.9,597.9 L1070.1,597.5 L1071.2,597.1 L1072.3,596.7
		L1073.5,596.3 L1074.6,596.0 L1075.8,595.6 L1076.9,595.2 L1078.0,594.8 L1079.2,594.4 L1080.3,594.0 L1081.5,593.6
		L1082.6,593.3 L1083.8,592.9 L1084.9,592.5 L1086.0,592.1 L1087.2,591.7 L1088.3,591.3 L1089.5,590.9 L1090.6,590.5
		L1091.7,590.1 L1092.9,589.7 L1094.0,589.3 L1095.2,588.9 L1096.3,588.5 L1097.5,588.1 L1098.6,587.7 L1099.7,587.2
		L1100.9,586.8 L1102.0,586.4 L1103.2,586.0 L1104.3,585.6 L1105.4,585.2 L1106.6,584.8 L1107.7,584.4 L1108.9,584.0
		L1110.0,583.5 L1111.2,583.1 L1112.3,582.7 L1113.4,582.3 L1114.6,581.9 L1115.7,581.5 L1116.9,581.0 L1118.0,580.6
		L1119.1,580.2 L1120.3,579.8 L1121.4,579.4 L1122.6,579.0 L1123.7,578.5 L1124.9,578.1 L1126.0,577.7 L1127.1,577.3
		L1128.3,576.9 L1129.4,576.5 L1130.6,576.0 L1131.7,575.6 L1132.8,575.2 L1134.0,574.8 L1135.1,574.4 L1136.3,574.0
		L1137.4,573.6 L1138.6,573.1 L1139.7,572.7 L1140.8,572.3 L1142.0,571.9 L1143.1,571.5 L1144.3,571.1 L1145.4,570.7
		L1146.5,570.3 L1147.7,569.9 L1148.8,569.5 L1150.0,569.1 L1151.1,568.7 L1152.3,568.3 L1153.4,567.9 L1154.5,567.5
		L1155.7,567.1 L1156.8,566.7 L1158.0,566.3 L1159.1,565.9 L1160.2,565.5 L1161.4,565.1 L1162.5,564.7 L1163.7,564.3
		L1164.8,564.0 L1166.0,563.6 L1167.1,563.2 L1168.2,562.8 L1169.4,562.5 L1170.5,562.1 L1171.7,561.7 L1172.8,561.4
		L1173.9,561.0 L1175.1,560.6 L1176.2,560.3 L1177.4,559.9 L1178.5,559.6 L1179.7,559.2 L1180.8,558.9 L1181.9,558.6
		L1183.1,558.2 L1184.2,557.9 L1185.4,557.6 L1186.5,557.2 L1187.6,556.9 L1188.8,556.6 L1189.9,556.3 L1191.1,556.0
		L1192.2,555.7 L1193.4,555.4 L1194.5,555.1 L1195.6,554.8 L1196.8,554.5 L1197.9,554.2 L1199.1,553.9 L1200.2,553.6
		L1201.3,553.3 L1202.5,553.1 L1203.6,552.8 L1204.8,552.5 L1205.9,552.3 L1207.1,552.0 L1208.2,551.8 L1209.3,551.5
		L1210.5,551.3 L1211.6,551.1 L1212.8,550.9 L1213.9,550.6 L1215.0,550.4 L1216.2,550.2 L1217.3,550.0 L1218.5,549.8
		L1219.6,549.6 L1220.8,549.4 L1221.9,549.2 L1223.0,549.1 L1224.2,548.9 L1225.3,548.7 L1226.5,548.6 L1227.6,548.4
		L1228.7,548.3 L1229.9,548.1 L1231.0,548.0 L1232.2,547.9 L1233.3,547.7 L1234.5,547.6 L1235.6,547.5 L1236.7,547.4
		L1237.9,547.3 L1239.0,547.2 L1240.2,547.1 L1241.3,547.0 L1242.4,547.0 L1243.6,546.9 L1244.7,546.8 L1245.9,546.8
		L1247.0,546.7 L1248.2,546.7 L1249.3,546.7 L1250.4,546.6 L1251.6,546.6 L1252.7,546.6 L1253.9,546.6 L1255.0,546.6
		 '/></g>
	</g>
	<g id="gnuplot_plot_6" ><title>gnuplot_plot_6</title>
<g fill="none" color="black" stroke="currentColor" stroke-width="1.00" stroke-linecap="butt" stroke-linejoin="miter">
	<path stroke='rgb(  0,   0, 255)'  d='M87.1,61.8 L88.2,63.8 L89.4,69.7 L90.5,78.5 L91.7,89.3 L92.8,101.4 L93.9,113.9 L95.1,126.5
		L96.2,138.8 L97.4,150.6 L98.5,161.9 L99.7,172.7 L100.8,182.8 L101.9,192.4 L103.1,201.5 L104.2,210.0
		L105.4,218.0 L106.5,225.6 L107.6,232.7 L108.8,239.4 L109.9,245.7 L111.1,251.7 L112.2,257.4 L113.4,262.7
		L114.5,267.7 L115.6,272.5 L116.8,277.0 L117.9,281.3 L119.1,285.4 L120.2,289.3 L121.3,292.9 L122.5,296.5
		L123.6,299.8 L124.8,303.0 L125.9,306.1 L127.1,309.0 L128.2,311.9 L129.3,314.6 L130.5,317.2 L131.6,319.7
		L132.8,322.2 L133.9,324.5 L135.0,326.8 L136.2,329.1 L137.3,331.2 L138.5,333.3 L139.6,335.4 L140.8,337.4
		L141.9,339.3 L143.0,341.2 L144.2,343.1 L145.3,344.9 L146.5,346.7 L147.6,348.5 L148.7,350.2 L149.9,351.9
		L151.0,353.6 L152.2,355.2 L153.3,356.8 L154.5,358.4 L155.6,360.0 L156.7,361.6 L157.9,363.1 L159.0,364.6
		L160.2,366.1 L161.3,367.6 L162.4,369.1 L163.6,370.5 L164.7,372.0 L165.9,373.4 L167.0,374.8 L168.2,376.2
		L169.3,377.6 L170.4,379.0 L171.6,380.3 L172.7,381.7 L173.9,383.0 L175.0,384.4 L176.1,385.7 L177.3,387.0
		L178.4,388.3 L179.6,389.6 L180.7,390.9 L181.9,392.1 L183.0,393.4 L184.1,394.7 L185.3,395.9 L186.4,397.2
		L187.6,398.4 L188.7,399.6 L189.8,400.8 L191.0,402.0 L192.1,403.2 L193.3,404.4 L194.4,405.6 L195.6,406.8
		L196.7,408.0 L197.8,409.1 L199.0,410.3 L200.1,411.4 L201.3,412.6 L202.4,413.7 L203.5,414.8 L204.7,416.0
		L205.8,417.1 L207.0,418.2 L208.1,419.3 L209.3,420.4 L210.4,421.5 L211.5,422.6 L212.7,423.6 L213.8,424.7
		L215.0,425.8 L216.1,426.8 L217.2,427.9 L218.4,428.9 L219.5,430.0 L220.7,431.0 L221.8,432.1 L223.0,433.1
		L224.1,434.1 L225.2,435.1 L226.4,436.1 L227.5,437.1 L228.7,438.1 L229.8,439.1 L230.9,440.1 L232.1,441.1
		L233.2,442.1 L234.4,443.0 L235.5,444.0 L236.7,445.0 L237.8,445.9 L238.9,446.9 L240.1,447.8 L241.2,448.8
		L242.4,449.7 L243.5,450.6 L244.6,451.6 L245.8,452.5 L246.9,453.4 L248.1,454.3 L249.2,455.2 L250.4,456.1
		L251.5,457.0 L252.6,457.9 L253.8,458.8 L254.9,459.7 L256.1,460.6 L257.2,461.4 L258.3,462.3 L259.5,463.2
		L260.6,464.0 L261.8,464.9 L262.9,465.7 L264.1,466.6 L265.2,467.4 L266.3,468.3 L267.5,469.1 L268.6,470.0
		L269.8,470.8 L270.9,471.6 L272.0,472.4 L273.2,473.2 L274.3,474.1 L275.5,474.9 L276.6,475.7 L277.8,476.5
		L278.9,477.3 L280.0,478.1 L281.2,478.8 L282.3,479.6 L283.5,480.4 L284.6,481.2 L285.7,482.0 L286.9,482.7
		L288.0,483.5 L289.2,484.3 L290.3,485.0 L291.5,485.8 L292.6,486.5 L293.7,487.3 L294.9,488.0 L296.0,488.8
		L297.2,489.5 L298.3,490.2 L299.4,491.0 L300.6,491.7 L301.7,492.4 L302.9,493.1 L304.0,493.9 L305.2,494.6
		L306.3,495.3 L307.4,496.0 L308.6,496.7 L309.7,497.4 L310.9,498.1 L312.0,498.8 L313.1,499.5 L314.3,500.2
		L315.4,500.9 L316.6,501.6 L317.7,502.2 L318.9,502.9 L320.0,503.6 L321.1,504.3 L322.3,504.9 L323.4,505.6
		L324.6,506.3 L325.7,506.9 L326.8,507.6 L328.0,508.2 L329.1,508.9 L330.3,509.5 L331.4,510.2 L332.6,510.8
		L333.7,511.4 L334.8,512.1 L336.0,512.7 L337.1,513.3 L338.3,514.0 L339.4,514.6 L340.5,515.2 L341.7,515.8
		L342.8,516.5 L344.0,517.1 L345.1,517.7 L346.3,518.3 L347.4,518.9 L348.5,519.5 L349.7,520.1 L350.8,520.7
		L352.0,521.3 L353.1,521.9 L354.2,522.5 L355.4,523.1 L356.5,523.7 L357.7,524.3 L358.8,524.8 L360.0,525.4
		L361.1,526.0 L362.2,526.6 L363.4,527.2 L364.5,527.7 L365.7,528.3 L366.8,528.9 L367.9,529.4 L369.1,530.0
		L370.2,530.5 L371.4,531.1 L372.5,531.7 L373.7,532.2 L374.8,532.8 L375.9,533.3 L377.1,533.8 L378.2,534.4
		L379.4,534.9 L380.5,535.5 L381.6,536.0 L382.8,536.5 L383.9,537.1 L385.1,537.6 L386.2,538.1 L387.4,538.7
		L388.5,539.2 L389.6,539.7 L390.8,540.2 L391.9,540.7 L393.1,541.3 L394.2,541.8 L395.3,542.3 L396.5,542.8
		L397.6,543.3 L398.8,543.8 L399.9,544.3 L401.1,544.8 L402.2,545.3 L403.3,545.8 L404.5,546.3 L405.6,546.8
		L406.8,547.3 L407.9,547.8 L409.0,548.3 L410.2,548.8 L411.3,549.3 L412.5,549.7 L413.6,550.2 L414.8,550.7
		L415.9,551.2 L417.0,551.6 L418.2,552.1 L419.3,552.6 L420.5,553.1 L421.6,553.5 L422.7,554.0 L423.9,554.5
		L425.0,554.9 L426.2,555.4 L427.3,555.8 L428.5,556.3 L429.6,556.8 L430.7,557.2 L431.9,557.7 L433.0,558.1
		L434.2,558.6 L435.3,559.0 L436.4,559.5 L437.6,559.9 L438.7,560.3 L439.9,560.8 L441.0,561.2 L442.2,561.7
		L443.3,562.1 L444.4,562.5 L445.6,563.0 L446.7,563.4 L447.9,563.8 L449.0,564.3 L450.1,564.7 L451.3,565.1
		L452.4,565.5 L453.6,566.0 L454.7,566.4 L455.9,566.8 L457.0,567.2 L458.1,567.6 L459.3,568.0 L460.4,568.4
		L461.6,568.9 L462.7,569.3 L463.8,569.7 L465.0,570.1 L466.1,570.5 L467.3,570.9 L468.4,571.3 L469.6,571.7
		L470.7,572.1 L471.8,572.5 L473.0,572.9 L474.1,573.3 L475.3,573.7 L476.4,574.1 L477.5,574.4 L478.7,574.8
		L479.8,575.2 L481.0,575.6 L482.1,576.0 L483.2,576.4 L484.4,576.8 L485.5,577.1 L486.7,577.5 L487.8,577.9
		L489.0,578.3 L490.1,578.6 L491.2,579.0 L492.4,579.4 L493.5,579.8 L494.7,580.1 L495.8,580.5 L496.9,580.9
		L498.1,581.2 L499.2,581.6 L500.4,582.0 L501.5,582.3 L502.7,582.7 L503.8,583.0 L504.9,583.4 L506.1,583.7
		L507.2,584.1 L508.4,584.4 L509.5,584.8 L510.6,585.2 L511.8,585.5 L512.9,585.8 L514.1,586.2 L515.2,586.5
		L516.4,586.9 L517.5,587.2 L518.6,587.6 L519.8,587.9 L520.9,588.2 L522.1,588.6 L523.2,588.9 L524.3,589.3
		L525.5,589.6 L526.6,589.9 L527.8,590.3 L528.9,590.6 L530.1,590.9 L531.2,591.2 L532.3,591.6 L533.5,591.9
		L534.6,592.2 L535.8,592.5 L536.9,592.9 L538.0,593.2 L539.2,593.5 L540.3,593.8 L541.5,594.1 L542.6,594.4
		L543.8,594.8 L544.9,595.1 L546.0,595.4 L547.2,595.7 L548.3,596.0 L549.5,596.3 L550.6,596.6 L551.7,596.9
		L552.9,597.2 L554.0,597.5 L555.2,597.8 L556.3,598.1 L557.5,598.4 L558.6,598.7 L559.7,599.0 L560.9,599.3
		L562.0,599.6 L563.2,599.9 L564.3,600.2 L565.4,600.5 L566.6,600.8 L567.7,601.1 L568.9,601.4 L570.0,601.7
		L571.2,601.9 L572.3,602.2 L573.4,602.5 L574.6,602.8 L575.7,603.1 L576.9,603.4 L578.0,603.6 L579.1,603.9
		L580.3,604.2 L581.4,604.5 L582.6,604.7 L583.7,605.0 L584.9,605.3 L586.0,605.6 L587.1,605.8 L588.3,606.1
		L589.4,606.4 L590.6,606.6 L591.7,606.9 L592.8,607.2 L594.0,607.4 L595.1,607.7 L596.3,608.0 L597.4,608.2
		L598.6,608.5 L599.7,608.7 L600.8,609.0 L602.0,609.3 L603.1,609.5 L604.3,609.8 L605.4,610.0 L606.5,610.3
		L607.7,610.5 L608.8,610.8 L610.0,611.0 L611.1,611.3 L612.3,611.5 L613.4,611.8 L614.5,612.0 L615.7,612.2
		L616.8,612.5 L618.0,612.7 L619.1,613.0 L620.2,613.2 L621.4,613.4 L622.5,613.7 L623.7,613.9 L624.8,614.2
		L626.0,614.4 L627.1,614.6 L628.2,614.9 L629.4,615.1 L630.5,615.3 L631.7,615.5 L632.8,615.8 L633.9,616.0
		L635.1,616.2 L636.2,616.4 L637.4,616.7 L638.5,616.9 L639.7,617.1 L640.8,617.3 L641.9,617.5 L643.1,617.8
		L644.2,618.0 L645.4,618.2 L646.5,618.4 L647.6,618.6 L648.8,618.8 L649.9,619.1 L651.1,619.3 L652.2,619.5
		L653.4,619.7 L654.5,619.9 L655.6,620.1 L656.8,620.3 L657.9,620.5 L659.1,620.7 L660.2,620.9 L661.3,621.1
		L662.5,621.3 L663.6,621.5 L664.8,621.7 L665.9,621.9 L667.1,622.1 L668.2,622.3 L669.3,622.5 L670.5,622.7
		L671.6,622.9 L672.8,623.1 L673.9,623.2 L675.0,623.4 L676.2,623.6 L677.3,623.8 L678.5,624.0 L679.6,624.2
		L680.8,624.4 L681.9,624.5 L683.0,624.7 L684.2,624.9 L685.3,625.1 L686.5,625.3 L687.6,625.4 L688.7,625.6
		L689.9,625.8 L691.0,626.0 L692.2,626.1 L693.3,626.3 L694.5,626.5 L695.6,626.6 L696.7,626.8 L697.9,627.0
		L699.0,627.1 L700.2,627.3 L701.3,627.5 L702.4,627.6 L703.6,627.8 L704.7,628.0 L705.9,628.1 L707.0,628.3
		L708.2,628.4 L709.3,628.6 L710.4,628.7 L711.6,628.9 L712.7,629.1 L713.9,629.2 L715.0,629.4 L716.1,629.5
		L717.3,629.7 L718.4,629.8 L719.6,629.9 L720.7,630.1 L721.9,630.2 L723.0,630.4 L724.1,630.5 L725.3,630.7
		L726.4,630.8 L727.6,630.9 L728.7,631.1 L729.8,631.2 L731.0,631.3 L732.1,631.5 L733.3,631.6 L734.4,631.7
		L735.6,631.9 L736.7,632.0 L737.8,632.1 L739.0,632.3 L740.1,632.4 L741.3,632.5 L742.4,632.6 L743.5,632.8
		L744.7,632.9 L745.8,633.0 L747.0,633.1 L748.1,633.2 L749.3,633.3 L750.4,633.5 L751.5,633.6 L752.7,633.7
		L753.8,633.8 L755.0,633.9 L756.1,634.0 L757.2,634.1 L758.4,634.2 L759.5,634.3 L760.7,634.5 L761.8,634.6
		L763.0,634.7 L764.1,634.8 L765.2,634.9 L766.4,635.0 L767.5,635.1 L768.7,635.2 L769.8,635.2 L770.9,635.3
		L772.1,635.4 L773.2,635.5 L774.4,635.6 L775.5,635.7 L776.7,635.8 L777.8,635.9 L778.9,636.0 L780.1,636.0
		L781.2,636.1 L782.4,636.2 L783.5,636.3 L784.6,636.4 L785.8,636.4 L786.9,636.5 L788.1,636.6 L789.2,636.7
		L790.4,636.7 L791.5,636.8 L792.6,636.9 L793.8,637.0 L794.9,637.0 L796.1,637.1 L797.2,637.2 L798.3,637.2
		L799.5,637.3 L800.6,637.3 L801.8,637.4 L802.9,637.5 L804.1,637.5 L805.2,637.6 L806.3,637.6 L807.5,637.7
		L808.6,637.7 L809.8,637.8 L810.9,637.8 L812.0,637.9 L813.2,637.9 L814.3,638.0 L815.5,638.0 L816.6,638.0
		L817.8,638.1 L818.9,638.1 L820.0,638.2 L821.2,638.2 L822.3,638.2 L823.5,638.3 L824.6,638.3 L825.7,638.3
		L826.9,638.4 L828.0,638.4 L829.2,638.4 L830.3,638.4 L831.5,638.5 L832.6,638.5 L833.7,638.5 L834.9,638.5
		L836.0,638.5 L837.2,638.6 L838.3,638.6 L839.4,638.6 L840.6,638.6 L841.7,638.6 L842.9,638.6 L844.0,638.6
		L845.2,638.6 L846.3,638.6 L847.4,638.6 L848.6,638.6 L849.7,638.6 L850.9,638.6 L852.0,638.6 L853.1,638.6
		L854.3,638.6 L855.4,638.6 L856.6,638.6 L857.7,638.6 L858.9,638.6 L860.0,638.6 L861.1,638.5 L862.3,638.5
		L863.4,638.5 L864.6,638.5 L865.7,638.5 L866.8,638.4 L868.0,638.4 L869.1,638.4 L870.3,638.4 L871.4,638.3
		L872.5,638.3 L873.7,638.3 L874.8,638.2 L876.0,638.2 L877.1,638.2 L878.3,638.1 L879.4,638.1 L880.5,638.0
		L881.7,638.0 L882.8,637.9 L884.0,637.9 L885.1,637.8 L886.2,637.8 L887.4,637.7 L888.5,637.7 L889.7,637.6
		L890.8,637.6 L892.0,637.5 L893.1,637.4 L894.2,637.4 L895.4,637.3 L896.5,637.2 L897.7,637.2 L898.8,637.1
		L899.9,637.0 L901.1,636.9 L902.2,636.9 L903.4,636.8 L904.5,636.7 L905.7,636.6 L906.8,636.5 L907.9,636.4
		L909.1,636.4 L910.2,636.3 L911.4,636.2 L912.5,636.1 L913.6,636.0 L914.8,635.9 L915.9,635.8 L917.1,635.7
		L918.2,635.6 L919.4,635.5 L920.5,635.4 L921.6,635.3 L922.8,635.2 L923.9,635.0 L925.1,634.9 L926.2,634.8
		L927.3,634.7 L928.5,634.6 L929.6,634.5 L930.8,634.3 L931.9,634.2 L933.1,634.1 L934.2,633.9 L935.3,633.8
		L936.5,633.7 L937.6,633.5 L938.8,633.4 L939.9,633.3 L941.0,633.1 L942.2,633.0 L943.3,632.8 L944.5,632.7
		L945.6,632.5 L946.8,632.4 L947.9,632.2 L949.0,632.1 L950.2,631.9 L951.3,631.8 L952.5,631.6 L953.6,631.4
		L954.7,631.3 L955.9,631.1 L957.0,630.9 L958.2,630.8 L959.3,630.6 L960.5,630.4 L961.6,630.2 L962.7,630.0
		L963.9,629.9 L965.0,629.7 L966.2,629.5 L967.3,629.3 L968.4,629.1 L969.6,628.9 L970.7,628.7 L971.9,628.5
		L973.0,628.3 L974.2,628.1 L975.3,627.9 L976.4,627.7 L977.6,627.5 L978.7,627.3 L979.9,627.1 L981.0,626.9
		L982.1,626.7 L983.3,626.4 L984.4,626.2 L985.6,626.0 L986.7,625.8 L987.9,625.5 L989.0,625.3 L990.1,625.1
		L991.3,624.9 L992.4,624.6 L993.6,624.4 L994.7,624.1 L995.8,623.9 L997.0,623.7 L998.1,623.4 L999.3,623.2
		L1000.4,622.9 L1001.6,622.7 L1002.7,622.4 L1003.8,622.1 L1005.0,621.9 L1006.1,621.6 L1007.3,621.4 L1008.4,621.1
		L1009.5,620.8 L1010.7,620.6 L1011.8,620.3 L1013.0,620.0 L1014.1,619.7 L1015.3,619.5 L1016.4,619.2 L1017.5,618.9
		L1018.7,618.6 L1019.8,618.3 L1021.0,618.1 L1022.1,617.8 L1023.2,617.5 L1024.4,617.2 L1025.5,616.9 L1026.7,616.6
		L1027.8,616.3 L1029.0,616.0 L1030.1,615.7 L1031.2,615.4 L1032.4,615.1 L1033.5,614.7 L1034.7,614.4 L1035.8,614.1
		L1036.9,613.8 L1038.1,613.5 L1039.2,613.2 L1040.4,612.8 L1041.5,612.5 L1042.7,612.2 L1043.8,611.9 L1044.9,611.5
		L1046.1,611.2 L1047.2,610.9 L1048.4,610.5 L1049.5,610.2 L1050.6,609.9 L1051.8,609.5 L1052.9,609.2 L1054.1,608.8
		L1055.2,608.5 L1056.4,608.1 L1057.5,607.8 L1058.6,607.4 L1059.8,607.1 L1060.9,606.7 L1062.1,606.4 L1063.2,606.0
		L1064.3,605.7 L1065.5,605.3 L1066.6,604.9 L1067.8,604.6 L1068.9,604.2 L1070.1,603.8 L1071.2,603.5 L1072.3,603.1
		L1073.5,602.7 L1074.6,602.3 L1075.8,602.0 L1076.9,601.6 L1078.0,601.2 L1079.2,600.8 L1080.3,600.4 L1081.5,600.1
		L1082.6,599.7 L1083.8,599.3 L1084.9,598.9 L1086.0,598.5 L1087.2,598.1 L1088.3,597.7 L1089.5,597.3 L1090.6,596.9
		L1091.7,596.5 L1092.9,596.2 L1094.0,595.8 L1095.2,595.4 L1096.3,595.0 L1097.5,594.6 L1098.6,594.2 L1099.7,593.8
		L1100.9,593.4 L1102.0,593.0 L1103.2,592.5 L1104.3,592.1 L1105.4,591.7 L1106.6,591.3 L1107.7,590.9 L1108.9,590.5
		L1110.0,590.1 L1111.2,589.7 L1112.3,589.3 L1113.4,588.9 L1114.6,588.5 L1115.7,588.1 L1116.9,587.6 L1118.0,587.2
		L1119.1,586.8 L1120.3,586.4 L1121.4,586.0 L1122.6,585.6 L1123.7,585.2 L1124.9,584.8 L1126.0,584.4 L1127.1,583.9
		L1128.3,583.5 L1129.4,583.1 L1130.6,582.7 L1131.7,582.3 L1132.8,581.9 L1134.0,581.5 L1135.1,581.1 L1136.3,580.7
		L1137.4,580.2 L1138.6,579.8 L1139.7,579.4 L1140.8,579.0 L1142.0,578.6 L1143.1,578.2 L1144.3,577.8 L1145.4,577.4
		L1146.5,577.0 L1147.7,576.6 L1148.8,576.2 L1150.0,575.8 L1151.1,575.4 L1152.3,575.0 L1153.4,574.6 L1154.5,574.2
		L1155.7,573.8 L1156.8,573.4 L1158.0,573.0 L1159.1,572.7 L1160.2,572.3 L1161.4,571.9 L1162.5,571.5 L1163.7,571.1
		L1164.8,570.8 L1166.0,570.4 L1167.1,570.0 L1168.2,569.6 L1169.4,569.3 L1170.5,568.9 L1171.7,568.5 L1172.8,568.2
		L1173.9,567.8 L1175.1,567.5 L1176.2,567.1 L1177.4,566.8 L1178.5,566.4 L1179.7,566.1 L1180.8,565.7 L1181.9,565.4
		L1183.1,565.1 L1184.2,564.7 L1185.4,564.4 L1186.5,564.1 L1187.6,563.8 L1188.8,563.4 L1189.9,563.1 L1191.1,562.8
		L1192.2,562.5 L1193.4,562.2 L1194.5,561.9 L1195.6,561.6 L1196.8,561.3 L1197.9,561.0 L1199.1,560.8 L1200.2,560.5
		L1201.3,560.2 L1202.5,559.9 L1203.6,559.7 L1204.8,559.4 L1205.9,559.2 L1207.1,558.9 L1208.2,558.7 L1209.3,558.4
		L1210.5,558.2 L1211.6,558.0 L1212.8,557.7 L1213.9,557.5 L1215.0,557.3 L1216.2,557.1 L1217.3,556.9 L1218.5,556.7
		L1219.6,556.5 L1220.8,556.3 L1221.9,556.1 L1223.0,556.0 L1224.2,555.8 L1225.3,555.6 L1226.5,555.5 L1227.6,555.3
		L1228.7,555.2 L1229.9,555.0 L1231.0,554.9 L1232.2,554.8 L1233.3,554.6 L1234.5,554.5 L1235.6,554.4 L1236.7,554.3
		L1237.9,554.2 L1239.0,554.1 L1240.2,554.0 L1241.3,554.0 L1242.4,553.9 L1243.6,553.8 L1244.7,553.8 L1245.9,553.7
		L1247.0,553.6 L1248.2,553.6 L1249.3,553.6 L1250.4,553.5 L1251.6,553.5 L1252.7,553.5 L1253.9,553.5 L1255.0,553.5
		 '/></g>
	</g>
<g fill="none" color="white" stroke="rgb(  0,   0, 255)" stroke-width="2.00" stroke-linecap="butt" stroke-linejoin="miter">
</g>
<g fill="none" color="black" stroke="currentColor" stroke-width="2.00" stroke-linecap="butt" stroke-linejoin="miter">
</g>
<g fill="none" color="black" stroke="black" stroke-width="1.00" stroke-linecap="butt" stroke-linejoin="miter">
</g>
<g fill="none" color="black" stroke="currentColor" stroke-width="1.00" stroke-linecap="butt" stroke-linejoin="miter">
	<path stroke='black'  d='M87.1,54.1 L87.1,684.0 L1255.0,684.0 L1255.0,54.1 L87.1,54.1 Z  '/></g>
<g fill="none" color="black" stroke="currentColor" stroke-width="1.00" stroke-linecap="butt" stroke-linejoin="miter">
</g>
</g>
</svg>

