<?xml version="1.0" encoding="utf-8"  standalone="no"?>
<svg 
 width="1280" height="720"
 viewBox="0 0 1280 720"
 xmlns="http://www.w3.org/2000/svg"
 xmlns:xlink="http://www.w3.org/1999/xlink"
>

<title>Gnuplot</title>
<desc>Produced by GNUPLOT 5.0 patchlevel 6 </desc>

<g id="gnuplot_canvas">

<rect x="0" y="0" width="1280" height="720" fill="none"/>
<defs>

	<circle id='gpDot' r='0.5' stroke-width='0.5'/>
	<path id='gpPt0' stroke-width='0.222' stroke='currentColor' d='M-1,0 h2 M0,-1 v2'/>
	<path id='gpPt1' stroke-width='0.222' stroke='currentColor' d='M-1,-1 L1,1 M1,-1 L-1,1'/>
	<path id='gpPt2' stroke-width='0.222' stroke='currentColor' d='M-1,0 L1,0 M0,-1 L0,1 M-1,-1 L1,1 M-1,1 L1,-1'/>
	<rect id='gpPt3' stroke-width='0.222' stroke='currentColor' x='-1' y='-1' width='2' height='2'/>
	<rect id='gpPt4' stroke-width='0.222' stroke='currentColor' fill='currentColor' x='-1' y='-1' width='2' height='2'/>
	<circle id='gpPt5' stroke-width='0.222' stroke='currentColor' cx='0' cy='0' r='1'/>
	<use xlink:href='#gpPt5' id='gpPt6' fill='currentColor' stroke='none'/>
	<path id='gpPt7' stroke-width='0.222' stroke='currentColor' d='M0,-1.33 L-1.33,0.67 L1.33,0.67 z'/>
	<use xlink:href='#gpPt7' id='gpPt8' fill='currentColor' stroke='none'/>
	<use xlink:href='#gpPt7' id='gpPt9' stroke='currentColor' transform='rotate(180)'/>
	<use xlink:href='#gpPt9' id='gpPt10' fill='currentColor' stroke='none'/>
	<use xlink:href='#gpPt3' id='gpPt11' stroke='currentColor' transform='rotate(45)'/>
	<use xlink:href='#gpPt11' id='gpPt12' fill='currentColor' stroke='none'/>
	<path id='gpPt13' stroke-width='0.222' stroke='currentColor' d='M0,1.330 L1.265,0.411 L0.782,-1.067 L-0.782,-1.076 L-1.265,0.411 z'/>
	<use xlink:href='#gpPt13' id='gpPt14' fill='currentColor' stroke='none'/>
	<filter id='textbox' filterUnits='objectBoundingBox' x='0' y='0' height='1' width='1'>
	  <feFlood flood-color='white' flood-opacity='1' result='bgnd'/>
	  <feComposite in='SourceGraphic' in2='bgnd' operator='atop'/>
	</filter>
	<filter id='greybox' filterUnits='objectBoundingBox' x='0' y='0' height='1' width='1'>
	  <feFlood flood-color='lightgrey' flood-opacity='1' result='grey'/>
	  <feComposite in='SourceGraphic' in2='grey' operator='atop'/>
	</filter>
</defs>
<g fill="none" color="white" stroke="currentColor" stroke-width="1.00" stroke-linecap="butt" stroke-linejoin="miter">
</g>
<g fill="none" color="black" stroke="currentColor" stroke-width="1.00" stroke-linecap="butt" stroke-linejoin="miter">
	<path stroke='black'  d='M53.9,683.7 L62.9,683.7 M1255.0,683.7 L1246.0,683.7  '/>	<g transform="translate(45.6,687.6)" stroke="none" fill="black" font-family="Arial" font-size="12.00"  text-anchor="end">
		<text><tspan font-family="Arial" > 0</tspan></text>
	</g>
</g>
<g fill="none" color="black" stroke="currentColor" stroke-width="1.00" stroke-linecap="butt" stroke-linejoin="miter">
	<path stroke='black'  d='M53.9,368.9 L62.9,368.9 M1255.0,368.9 L1246.0,368.9  '/>	<g transform="translate(45.6,372.8)" stroke="none" fill="black" font-family="Arial" font-size="12.00"  text-anchor="end">
		<text><tspan font-family="Arial" > 0.5</tspan></text>
	</g>
</g>
<g fill="none" color="black" stroke="currentColor" stroke-width="1.00" stroke-linecap="butt" stroke-linejoin="miter">
	<path stroke='black'  d='M53.9,54.1 L62.9,54.1 M1255.0,54.1 L1246.0,54.1  '/>	<g transform="translate(45.6,58.0)" stroke="none" fill="black" font-family="Arial" font-size="12.00"  text-anchor="end">
		<text><tspan font-family="Arial" > 1</tspan></text>
	</g>
</g>
<g fill="none" color="black" stroke="currentColor" stroke-width="1.00" stroke-linecap="butt" stroke-linejoin="miter">
	<path stroke='black'  d='M53.9,684.0 L53.9,675.0 M53.9,54.1 L53.9,63.1  '/>	<g transform="translate(53.9,705.9)" stroke="none" fill="black" font-family="Arial" font-size="12.00"  text-anchor="middle">
		<text><tspan font-family="Arial" > 0</tspan></text>
	</g>
</g>
<g fill="none" color="black" stroke="currentColor" stroke-width="1.00" stroke-linecap="butt" stroke-linejoin="miter">
	<path stroke='black'  d='M654.5,684.0 L654.5,675.0 M654.5,54.1 L654.5,63.1  '/>	<g transform="translate(654.5,705.9)" stroke="none" fill="black" font-family="Arial" font-size="12.00"  text-anchor="middle">
		<text><tspan font-family="Arial" >pi/2</tspan></text>
	</g>
</g>
<g fill="none" color="black" stroke="currentColor" stroke-width="1.00" stroke-linecap="butt" stroke-linejoin="miter">
	<path stroke='black'  d='M1255.0,684.0 L1255.0,675.0 M1255.0,54.1 L1255.0,63.1  '/>	<g transform="translate(1255.0,705.9)" stroke="none" fill="black" font-family="Arial" font-size="12.00"  text-anchor="middle">
		<text><tspan font-family="Arial" >pi</tspan></text>
	</g>
</g>
<g fill="none" color="black" stroke="currentColor" stroke-width="1.00" stroke-linecap="butt" stroke-linejoin="miter">
</g>
<g fill="none" color="black" stroke="currentColor" stroke-width="1.00" stroke-linecap="butt" stroke-linejoin="miter">
	<path stroke='black'  d='M53.9,54.1 L53.9,684.0 L1255.0,684.0 L1255.0,54.1 L53.9,54.1 Z  '/></g>
<g fill="none" color="black" stroke="currentColor" stroke-width="1.00" stroke-linecap="butt" stroke-linejoin="miter">
	<g transform="translate(654.4,31.0)" stroke="none" fill="black" font-family="Arial" font-size="12.00"  text-anchor="middle">
		<text><tspan font-family="Arial" >Material 7, with 2 components</tspan></text>
	</g>
</g>
	<g id="gnuplot_plot_1" ><title>scattering function</title>
<g fill="none" color="black" stroke="currentColor" stroke-width="1.00" stroke-linecap="butt" stroke-linejoin="miter">
	<g transform="translate(1187.9,76.0)" stroke="none" fill="black" font-family="Arial" font-size="12.00"  text-anchor="end">
		<text><tspan font-family="Arial" >scattering function</tspan></text>
	</g>
</g>
<g fill="none" color="black" stroke="currentColor" stroke-width="1.00" stroke-linecap="butt" stroke-linejoin="miter">
	<use xlink:href='#gpPt5' transform='translate(54.3,54.1) scale(2.25)' color='rgb(255,   0,   0)'/>
	<use xlink:href='#gpPt5' transform='translate(79.3,62.2) scale(2.25)' color='rgb(255,   0,   0)'/>
	<use xlink:href='#gpPt5' transform='translate(105.2,83.6) scale(2.25)' color='rgb(255,   0,   0)'/>
	<use xlink:href='#gpPt5' transform='translate(133.7,125.3) scale(2.25)' color='rgb(255,   0,   0)'/>
	<use xlink:href='#gpPt5' transform='translate(164.1,177.3) scale(2.25)' color='rgb(255,   0,   0)'/>
	<use xlink:href='#gpPt5' transform='translate(192.6,233.0) scale(2.25)' color='rgb(255,   0,   0)'/>
	<use xlink:href='#gpPt5' transform='translate(246.1,330.0) scale(2.25)' color='rgb(255,   0,   0)'/>
	<use xlink:href='#gpPt5' transform='translate(283.6,391.2) scale(2.25)' color='rgb(255,   0,   0)'/>
	<use xlink:href='#gpPt5' transform='translate(318.4,439.2) scale(2.25)' color='rgb(255,   0,   0)'/>
	<use xlink:href='#gpPt5' transform='translate(352.3,478.3) scale(2.25)' color='rgb(255,   0,   0)'/>
	<use xlink:href='#gpPt5' transform='translate(384.4,506.7) scale(2.25)' color='rgb(255,   0,   0)'/>
	<use xlink:href='#gpPt5' transform='translate(418.3,532.1) scale(2.25)' color='rgb(255,   0,   0)'/>
	<use xlink:href='#gpPt5' transform='translate(454.9,556.5) scale(2.25)' color='rgb(255,   0,   0)'/>
	<use xlink:href='#gpPt5' transform='translate(497.7,580.4) scale(2.25)' color='rgb(255,   0,   0)'/>
	<use xlink:href='#gpPt5' transform='translate(546.7,602.2) scale(2.25)' color='rgb(255,   0,   0)'/>
	<use xlink:href='#gpPt5' transform='translate(601.2,619.5) scale(2.25)' color='rgb(255,   0,   0)'/>
	<use xlink:href='#gpPt5' transform='translate(675.2,636.9) scale(2.25)' color='rgb(255,   0,   0)'/>
	<use xlink:href='#gpPt5' transform='translate(737.6,648.7) scale(2.25)' color='rgb(255,   0,   0)'/>
	<use xlink:href='#gpPt5' transform='translate(797.4,659.0) scale(2.25)' color='rgb(255,   0,   0)'/>
	<use xlink:href='#gpPt5' transform='translate(858.1,665.6) scale(2.25)' color='rgb(255,   0,   0)'/>
	<use xlink:href='#gpPt5' transform='translate(968.7,674.9) scale(2.25)' color='rgb(255,   0,   0)'/>
	<use xlink:href='#gpPt5' transform='translate(1055.2,679.7) scale(2.25)' color='rgb(255,   0,   0)'/>
	<use xlink:href='#gpPt5' transform='translate(1153.3,682.6) scale(2.25)' color='rgb(255,   0,   0)'/>
	<use xlink:href='#gpPt5' transform='translate(1255.0,683.0) scale(2.25)' color='rgb(255,   0,   0)'/>
	<use xlink:href='#gpPt5' transform='translate(1217.3,72.1) scale(2.25)' color='rgb(255,   0,   0)'/>
</g>
	</g>
	<g id="gnuplot_plot_2" ><title>fit</title>
<g fill="none" color="black" stroke="currentColor" stroke-width="1.00" stroke-linecap="butt" stroke-linejoin="miter">
	<g transform="translate(1187.9,94.0)" stroke="none" fill="black" font-family="Arial" font-size="12.00"  text-anchor="end">
		<text><tspan font-family="Arial" >fit</tspan></text>
	</g>
</g>
<g fill="none" color="black" stroke="currentColor" stroke-width="1.00" stroke-linecap="butt" stroke-linejoin="miter">
	<path stroke='rgb(255,   0,   0)'  d='M1196.2,90.1 L1238.4,90.1 M53.9,54.1 L55.1,54.2 L56.2,54.2 L57.4,54.3 L58.6,54.4 L59.8,54.6
		L60.9,54.8 L62.1,55.0 L63.3,55.3 L64.5,55.5 L65.6,55.9 L66.8,56.2 L68.0,56.6 L69.2,57.1
		L70.3,57.5 L71.5,58.0 L72.7,58.5 L73.9,59.1 L75.0,59.7 L76.2,60.3 L77.4,61.0 L78.6,61.7
		L79.7,62.4 L80.9,63.2 L82.1,64.0 L83.3,64.8 L84.4,65.7 L85.6,66.5 L86.8,67.5 L87.9,68.4
		L89.1,69.4 L90.3,70.4 L91.5,71.4 L92.6,72.5 L93.8,73.6 L95.0,74.7 L96.2,75.9 L97.3,77.1
		L98.5,78.3 L99.7,79.5 L100.9,80.8 L102.0,82.1 L103.2,83.4 L104.4,84.8 L105.6,86.1 L106.7,87.5
		L107.9,89.0 L109.1,90.4 L110.3,91.9 L111.4,93.4 L112.6,94.9 L113.8,96.5 L115.0,98.0 L116.1,99.6
		L117.3,101.3 L118.5,102.9 L119.6,104.6 L120.8,106.3 L122.0,108.0 L123.2,109.7 L124.3,111.4 L125.5,113.2
		L126.7,115.0 L127.9,116.8 L129.0,118.6 L130.2,120.4 L131.4,122.3 L132.6,124.2 L133.7,126.1 L134.9,128.0
		L136.1,129.9 L137.3,131.9 L138.4,133.8 L139.6,135.8 L140.8,137.8 L142.0,139.8 L143.1,141.8 L144.3,143.8
		L145.5,145.8 L146.7,147.9 L147.8,150.0 L149.0,152.0 L150.2,154.1 L151.3,156.2 L152.5,158.3 L153.7,160.5
		L154.9,162.6 L156.0,164.7 L157.2,166.9 L158.4,169.0 L159.6,171.2 L160.7,173.4 L161.9,175.6 L163.1,177.7
		L164.3,179.9 L165.4,182.1 L166.6,184.3 L167.8,186.6 L169.0,188.8 L170.1,191.0 L171.3,193.2 L172.5,195.5
		L173.7,197.7 L174.8,199.9 L176.0,202.2 L177.2,204.4 L178.4,206.7 L179.5,208.9 L180.7,211.2 L181.9,213.5
		L183.1,215.7 L184.2,218.0 L185.4,220.2 L186.6,222.5 L187.7,224.8 L188.9,227.0 L190.1,229.3 L191.3,231.5
		L192.4,233.8 L193.6,236.1 L194.8,238.3 L196.0,240.6 L197.1,242.8 L198.3,245.1 L199.5,247.3 L200.7,249.6
		L201.8,251.8 L203.0,254.1 L204.2,256.3 L205.4,258.6 L206.5,260.8 L207.7,263.0 L208.9,265.3 L210.1,267.5
		L211.2,269.7 L212.4,271.9 L213.6,274.1 L214.8,276.3 L215.9,278.5 L217.1,280.7 L218.3,282.9 L219.4,285.1
		L220.6,287.3 L221.8,289.4 L223.0,291.6 L224.1,293.8 L225.3,295.9 L226.5,298.1 L227.7,300.2 L228.8,302.3
		L230.0,304.5 L231.2,306.6 L232.4,308.7 L233.5,310.8 L234.7,312.9 L235.9,315.0 L237.1,317.1 L238.2,319.2
		L239.4,321.2 L240.6,323.3 L241.8,325.3 L242.9,327.4 L244.1,329.4 L245.3,331.5 L246.5,333.5 L247.6,335.5
		L248.8,337.5 L250.0,339.5 L251.1,341.5 L252.3,343.5 L253.5,345.4 L254.7,347.4 L255.8,349.3 L257.0,351.3
		L258.2,353.2 L259.4,355.1 L260.5,357.1 L261.7,359.0 L262.9,360.9 L264.1,362.8 L265.2,364.6 L266.4,366.5
		L267.6,368.4 L268.8,370.2 L269.9,372.1 L271.1,373.9 L272.3,375.7 L273.5,377.6 L274.6,379.4 L275.8,381.2
		L277.0,382.9 L278.2,384.7 L279.3,386.5 L280.5,388.2 L281.7,390.0 L282.8,391.7 L284.0,393.5 L285.2,395.2
		L286.4,396.9 L287.5,398.6 L288.7,400.3 L289.9,402.0 L291.1,403.7 L292.2,405.3 L293.4,407.0 L294.6,408.6
		L295.8,410.3 L296.9,411.9 L298.1,413.5 L299.3,415.1 L300.5,416.7 L301.6,418.3 L302.8,419.9 L304.0,421.5
		L305.2,423.0 L306.3,424.6 L307.5,426.1 L308.7,427.7 L309.9,429.2 L311.0,430.7 L312.2,432.2 L313.4,433.7
		L314.5,435.2 L315.7,436.7 L316.9,438.2 L318.1,439.6 L319.2,441.1 L320.4,442.5 L321.6,443.9 L322.8,445.4
		L323.9,446.8 L325.1,448.2 L326.3,449.6 L327.5,451.0 L328.6,452.4 L329.8,453.7 L331.0,455.1 L332.2,456.5
		L333.3,457.8 L334.5,459.2 L335.7,460.5 L336.9,461.8 L338.0,463.1 L339.2,464.4 L340.4,465.7 L341.6,467.0
		L342.7,468.3 L343.9,469.6 L345.1,470.8 L346.2,472.1 L347.4,473.3 L348.6,474.6 L349.8,475.8 L350.9,477.0
		L352.1,478.3 L353.3,479.5 L354.5,480.7 L355.6,481.9 L356.8,483.1 L358.0,484.2 L359.2,485.4 L360.3,486.6
		L361.5,487.7 L362.7,488.9 L363.9,490.0 L365.0,491.1 L366.2,492.3 L367.4,493.4 L368.6,494.5 L369.7,495.6
		L370.9,496.7 L372.1,497.8 L373.3,498.9 L374.4,499.9 L375.6,501.0 L376.8,502.1 L378.0,503.1 L379.1,504.2
		L380.3,505.2 L381.5,506.2 L382.6,507.3 L383.8,508.3 L385.0,509.3 L386.2,510.3 L387.3,511.3 L388.5,512.3
		L389.7,513.3 L390.9,514.3 L392.0,515.2 L393.2,516.2 L394.4,517.2 L395.6,518.1 L396.7,519.1 L397.9,520.0
		L399.1,521.0 L400.3,521.9 L401.4,522.8 L402.6,523.7 L403.8,524.6 L405.0,525.5 L406.1,526.4 L407.3,527.3
		L408.5,528.2 L409.7,529.1 L410.8,530.0 L412.0,530.9 L413.2,531.7 L414.3,532.6 L415.5,533.4 L416.7,534.3
		L417.9,535.1 L419.0,536.0 L420.2,536.8 L421.4,537.6 L422.6,538.4 L423.7,539.3 L424.9,540.1 L426.1,540.9
		L427.3,541.7 L428.4,542.5 L429.6,543.3 L430.8,544.1 L432.0,544.8 L433.1,545.6 L434.3,546.4 L435.5,547.1
		L436.7,547.9 L437.8,548.7 L439.0,549.4 L440.2,550.2 L441.4,550.9 L442.5,551.6 L443.7,552.4 L444.9,553.1
		L446.0,553.8 L447.2,554.5 L448.4,555.2 L449.6,555.9 L450.7,556.7 L451.9,557.3 L453.1,558.0 L454.3,558.7
		L455.4,559.4 L456.6,560.1 L457.8,560.8 L459.0,561.5 L460.1,562.1 L461.3,562.8 L462.5,563.4 L463.7,564.1
		L464.8,564.8 L466.0,565.4 L467.2,566.0 L468.4,566.7 L469.5,567.3 L470.7,568.0 L471.9,568.6 L473.1,569.2
		L474.2,569.8 L475.4,570.4 L476.6,571.1 L477.7,571.7 L478.9,572.3 L480.1,572.9 L481.3,573.5 L482.4,574.1
		L483.6,574.7 L484.8,575.2 L486.0,575.8 L487.1,576.4 L488.3,577.0 L489.5,577.6 L490.7,578.1 L491.8,578.7
		L493.0,579.3 L494.2,579.8 L495.4,580.4 L496.5,580.9 L497.7,581.5 L498.9,582.0 L500.1,582.6 L501.2,583.1
		L502.4,583.6 L503.6,584.2 L504.8,584.7 L505.9,585.2 L507.1,585.7 L508.3,586.3 L509.4,586.8 L510.6,587.3
		L511.8,587.8 L513.0,588.3 L514.1,588.8 L515.3,589.3 L516.5,589.8 L517.7,590.3 L518.8,590.8 L520.0,591.3
		L521.2,591.8 L522.4,592.3 L523.5,592.8 L524.7,593.2 L525.9,593.7 L527.1,594.2 L528.2,594.7 L529.4,595.1
		L530.6,595.6 L531.8,596.0 L532.9,596.5 L534.1,597.0 L535.3,597.4 L536.5,597.9 L537.6,598.3 L538.8,598.8
		L540.0,599.2 L541.1,599.7 L542.3,600.1 L543.5,600.5 L544.7,601.0 L545.8,601.4 L547.0,601.8 L548.2,602.3
		L549.4,602.7 L550.5,603.1 L551.7,603.5 L552.9,603.9 L554.1,604.4 L555.2,604.8 L556.4,605.2 L557.6,605.6
		L558.8,606.0 L559.9,606.4 L561.1,606.8 L562.3,607.2 L563.5,607.6 L564.6,608.0 L565.8,608.4 L567.0,608.8
		L568.2,609.2 L569.3,609.5 L570.5,609.9 L571.7,610.3 L572.9,610.7 L574.0,611.1 L575.2,611.4 L576.4,611.8
		L577.5,612.2 L578.7,612.6 L579.9,612.9 L581.1,613.3 L582.2,613.7 L583.4,614.0 L584.6,614.4 L585.8,614.7
		L586.9,615.1 L588.1,615.5 L589.3,615.8 L590.5,616.2 L591.6,616.5 L592.8,616.9 L594.0,617.2 L595.2,617.5
		L596.3,617.9 L597.5,618.2 L598.7,618.6 L599.9,618.9 L601.0,619.2 L602.2,619.6 L603.4,619.9 L604.6,620.2
		L605.7,620.6 L606.9,620.9 L608.1,621.2 L609.2,621.5 L610.4,621.9 L611.6,622.2 L612.8,622.5 L613.9,622.8
		L615.1,623.1 L616.3,623.4 L617.5,623.7 L618.6,624.1 L619.8,624.4 L621.0,624.7 L622.2,625.0 L623.3,625.3
		L624.5,625.6 L625.7,625.9 L626.9,626.2 L628.0,626.5 L629.2,626.8 L630.4,627.1 L631.6,627.4 L632.7,627.7
		L633.9,627.9 L635.1,628.2 L636.3,628.5 L637.4,628.8 L638.6,629.1 L639.8,629.4 L640.9,629.7 L642.1,629.9
		L643.3,630.2 L644.5,630.5 L645.6,630.8 L646.8,631.0 L648.0,631.3 L649.2,631.6 L650.3,631.9 L651.5,632.1
		L652.7,632.4 L653.9,632.7 L655.0,632.9 L656.2,633.2 L657.4,633.5 L658.6,633.7 L659.7,634.0 L660.9,634.3
		L662.1,634.5 L663.3,634.8 L664.4,635.0 L665.6,635.3 L666.8,635.5 L668.0,635.8 L669.1,636.0 L670.3,636.3
		L671.5,636.5 L672.6,636.8 L673.8,637.0 L675.0,637.3 L676.2,637.5 L677.3,637.8 L678.5,638.0 L679.7,638.2
		L680.9,638.5 L682.0,638.7 L683.2,639.0 L684.4,639.2 L685.6,639.4 L686.7,639.7 L687.9,639.9 L689.1,640.1
		L690.3,640.4 L691.4,640.6 L692.6,640.8 L693.8,641.0 L695.0,641.3 L696.1,641.5 L697.3,641.7 L698.5,642.0
		L699.7,642.2 L700.8,642.4 L702.0,642.6 L703.2,642.8 L704.3,643.1 L705.5,643.3 L706.7,643.5 L707.9,643.7
		L709.0,643.9 L710.2,644.1 L711.4,644.3 L712.6,644.6 L713.7,644.8 L714.9,645.0 L716.1,645.2 L717.3,645.4
		L718.4,645.6 L719.6,645.8 L720.8,646.0 L722.0,646.2 L723.1,646.4 L724.3,646.6 L725.5,646.8 L726.7,647.0
		L727.8,647.2 L729.0,647.4 L730.2,647.6 L731.4,647.8 L732.5,648.0 L733.7,648.2 L734.9,648.4 L736.0,648.6
		L737.2,648.8 L738.4,649.0 L739.6,649.2 L740.7,649.4 L741.9,649.6 L743.1,649.8 L744.3,649.9 L745.4,650.1
		L746.6,650.3 L747.8,650.5 L749.0,650.7 L750.1,650.9 L751.3,651.1 L752.5,651.2 L753.7,651.4 L754.8,651.6
		L756.0,651.8 L757.2,652.0 L758.4,652.1 L759.5,652.3 L760.7,652.5 L761.9,652.7 L763.1,652.8 L764.2,653.0
		L765.4,653.2 L766.6,653.4 L767.8,653.5 L768.9,653.7 L770.1,653.9 L771.3,654.1 L772.4,654.2 L773.6,654.4
		L774.8,654.6 L776.0,654.7 L777.1,654.9 L778.3,655.1 L779.5,655.2 L780.7,655.4 L781.8,655.6 L783.0,655.7
		L784.2,655.9 L785.4,656.0 L786.5,656.2 L787.7,656.4 L788.9,656.5 L790.1,656.7 L791.2,656.8 L792.4,657.0
		L793.6,657.2 L794.8,657.3 L795.9,657.5 L797.1,657.6 L798.3,657.8 L799.5,657.9 L800.6,658.1 L801.8,658.2
		L803.0,658.4 L804.1,658.5 L805.3,658.7 L806.5,658.8 L807.7,659.0 L808.8,659.1 L810.0,659.3 L811.2,659.4
		L812.4,659.6 L813.5,659.7 L814.7,659.9 L815.9,660.0 L817.1,660.2 L818.2,660.3 L819.4,660.5 L820.6,660.6
		L821.8,660.7 L822.9,660.9 L824.1,661.0 L825.3,661.2 L826.5,661.3 L827.6,661.4 L828.8,661.6 L830.0,661.7
		L831.2,661.9 L832.3,662.0 L833.5,662.1 L834.7,662.3 L835.8,662.4 L837.0,662.5 L838.2,662.7 L839.4,662.8
		L840.5,662.9 L841.7,663.1 L842.9,663.2 L844.1,663.3 L845.2,663.5 L846.4,663.6 L847.6,663.7 L848.8,663.9
		L849.9,664.0 L851.1,664.1 L852.3,664.2 L853.5,664.4 L854.6,664.5 L855.8,664.6 L857.0,664.7 L858.2,664.9
		L859.3,665.0 L860.5,665.1 L861.7,665.2 L862.9,665.4 L864.0,665.5 L865.2,665.6 L866.4,665.7 L867.5,665.8
		L868.7,666.0 L869.9,666.1 L871.1,666.2 L872.2,666.3 L873.4,666.4 L874.6,666.6 L875.8,666.7 L876.9,666.8
		L878.1,666.9 L879.3,667.0 L880.5,667.1 L881.6,667.3 L882.8,667.4 L884.0,667.5 L885.2,667.6 L886.3,667.7
		L887.5,667.8 L888.7,667.9 L889.9,668.0 L891.0,668.2 L892.2,668.3 L893.4,668.4 L894.6,668.5 L895.7,668.6
		L896.9,668.7 L898.1,668.8 L899.2,668.9 L900.4,669.0 L901.6,669.1 L902.8,669.2 L903.9,669.3 L905.1,669.4
		L906.3,669.5 L907.5,669.7 L908.6,669.8 L909.8,669.9 L911.0,670.0 L912.2,670.1 L913.3,670.2 L914.5,670.3
		L915.7,670.4 L916.9,670.5 L918.0,670.6 L919.2,670.7 L920.4,670.8 L921.6,670.9 L922.7,671.0 L923.9,671.1
		L925.1,671.2 L926.3,671.3 L927.4,671.4 L928.6,671.4 L929.8,671.5 L930.9,671.6 L932.1,671.7 L933.3,671.8
		L934.5,671.9 L935.6,672.0 L936.8,672.1 L938.0,672.2 L939.2,672.3 L940.3,672.4 L941.5,672.5 L942.7,672.6
		L943.9,672.7 L945.0,672.7 L946.2,672.8 L947.4,672.9 L948.6,673.0 L949.7,673.1 L950.9,673.2 L952.1,673.3
		L953.3,673.4 L954.4,673.5 L955.6,673.5 L956.8,673.6 L958.0,673.7 L959.1,673.8 L960.3,673.9 L961.5,674.0
		L962.7,674.0 L963.8,674.1 L965.0,674.2 L966.2,674.3 L967.3,674.4 L968.5,674.5 L969.7,674.5 L970.9,674.6
		L972.0,674.7 L973.2,674.8 L974.4,674.9 L975.6,674.9 L976.7,675.0 L977.9,675.1 L979.1,675.2 L980.3,675.3
		L981.4,675.3 L982.6,675.4 L983.8,675.5 L985.0,675.6 L986.1,675.6 L987.3,675.7 L988.5,675.8 L989.7,675.9
		L990.8,675.9 L992.0,676.0 L993.2,676.1 L994.4,676.2 L995.5,676.2 L996.7,676.3 L997.9,676.4 L999.0,676.5
		L1000.2,676.5 L1001.4,676.6 L1002.6,676.7 L1003.7,676.7 L1004.9,676.8 L1006.1,676.9 L1007.3,676.9 L1008.4,677.0
		L1009.6,677.1 L1010.8,677.2 L1012.0,677.2 L1013.1,677.3 L1014.3,677.4 L1015.5,677.4 L1016.7,677.5 L1017.8,677.6
		L1019.0,677.6 L1020.2,677.7 L1021.4,677.7 L1022.5,677.8 L1023.7,677.9 L1024.9,677.9 L1026.1,678.0 L1027.2,678.1
		L1028.4,678.1 L1029.6,678.2 L1030.7,678.3 L1031.9,678.3 L1033.1,678.4 L1034.3,678.4 L1035.4,678.5 L1036.6,678.6
		L1037.8,678.6 L1039.0,678.7 L1040.1,678.7 L1041.3,678.8 L1042.5,678.9 L1043.7,678.9 L1044.8,679.0 L1046.0,679.0
		L1047.2,679.1 L1048.4,679.1 L1049.5,679.2 L1050.7,679.3 L1051.9,679.3 L1053.1,679.4 L1054.2,679.4 L1055.4,679.5
		L1056.6,679.5 L1057.8,679.6 L1058.9,679.6 L1060.1,679.7 L1061.3,679.7 L1062.4,679.8 L1063.6,679.8 L1064.8,679.9
		L1066.0,679.9 L1067.1,680.0 L1068.3,680.0 L1069.5,680.1 L1070.7,680.1 L1071.8,680.2 L1073.0,680.2 L1074.2,680.3
		L1075.4,680.3 L1076.5,680.4 L1077.7,680.4 L1078.9,680.5 L1080.1,680.5 L1081.2,680.6 L1082.4,680.6 L1083.6,680.7
		L1084.8,680.7 L1085.9,680.8 L1087.1,680.8 L1088.3,680.9 L1089.5,680.9 L1090.6,680.9 L1091.8,681.0 L1093.0,681.0
		L1094.1,681.1 L1095.3,681.1 L1096.5,681.2 L1097.7,681.2 L1098.8,681.2 L1100.0,681.3 L1101.2,681.3 L1102.4,681.4
		L1103.5,681.4 L1104.7,681.5 L1105.9,681.5 L1107.1,681.5 L1108.2,681.6 L1109.4,681.6 L1110.6,681.7 L1111.8,681.7
		L1112.9,681.7 L1114.1,681.8 L1115.3,681.8 L1116.5,681.8 L1117.6,681.9 L1118.8,681.9 L1120.0,681.9 L1121.2,682.0
		L1122.3,682.0 L1123.5,682.1 L1124.7,682.1 L1125.8,682.1 L1127.0,682.2 L1128.2,682.2 L1129.4,682.2 L1130.5,682.3
		L1131.7,682.3 L1132.9,682.3 L1134.1,682.4 L1135.2,682.4 L1136.4,682.4 L1137.6,682.5 L1138.8,682.5 L1139.9,682.5
		L1141.1,682.5 L1142.3,682.6 L1143.5,682.6 L1144.6,682.6 L1145.8,682.7 L1147.0,682.7 L1148.2,682.7 L1149.3,682.7
		L1150.5,682.8 L1151.7,682.8 L1152.9,682.8 L1154.0,682.9 L1155.2,682.9 L1156.4,682.9 L1157.6,682.9 L1158.7,683.0
		L1159.9,683.0 L1161.1,683.0 L1162.2,683.0 L1163.4,683.1 L1164.6,683.1 L1165.8,683.1 L1166.9,683.1 L1168.1,683.2
		L1169.3,683.2 L1170.5,683.2 L1171.6,683.2 L1172.8,683.2 L1174.0,683.3 L1175.2,683.3 L1176.3,683.3 L1177.5,683.3
		L1178.7,683.3 L1179.9,683.4 L1181.0,683.4 L1182.2,683.4 L1183.4,683.4 L1184.6,683.4 L1185.7,683.5 L1186.9,683.5
		L1188.1,683.5 L1189.3,683.5 L1190.4,683.5 L1191.6,683.6 L1192.8,683.6 L1193.9,683.6 L1195.1,683.6 L1196.3,683.6
		L1197.5,683.6 L1198.6,683.6 L1199.8,683.7 L1201.0,683.7 L1202.2,683.7 L1203.3,683.7 L1204.5,683.7 L1205.7,683.7
		L1206.9,683.7 L1208.0,683.8 L1209.2,683.8 L1210.4,683.8 L1211.6,683.8 L1212.7,683.8 L1213.9,683.8 L1215.1,683.8
		L1216.3,683.8 L1217.4,683.8 L1218.6,683.9 L1219.8,683.9 L1221.0,683.9 L1222.1,683.9 L1223.3,683.9 L1224.5,683.9
		L1225.6,683.9 L1226.8,683.9 L1228.0,683.9 L1229.2,683.9 L1230.3,683.9 L1231.5,683.9 L1232.7,683.9 L1233.9,684.0
		L1235.0,684.0 L1236.2,684.0 L1237.4,684.0 L1238.6,684.0 L1239.7,684.0 L1240.9,684.0 L1242.1,684.0 L1243.3,684.0
		L1244.4,684.0 L1245.6,684.0 L1246.8,684.0 L1248.0,684.0 L1249.1,684.0 L1250.3,684.0 L1251.5,684.0 L1252.7,684.0
		L1253.8,684.0 L1255.0,684.0  '/></g>
	</g>
<g fill="none" color="white" stroke="rgb(255,   0,   0)" stroke-width="2.00" stroke-linecap="butt" stroke-linejoin="miter">
</g>
<g fill="none" color="black" stroke="currentColor" stroke-width="2.00" stroke-linecap="butt" stroke-linejoin="miter">
</g>
<g fill="none" color="black" stroke="black" stroke-width="1.00" stroke-linecap="butt" stroke-linejoin="miter">
</g>
<g fill="none" color="black" stroke="currentColor" stroke-width="1.00" stroke-linecap="butt" stroke-linejoin="miter">
	<path stroke='black'  d='M53.9,54.1 L53.9,684.0 L1255.0,684.0 L1255.0,54.1 L53.9,54.1 Z  '/></g>
<g fill="none" color="black" stroke="currentColor" stroke-width="1.00" stroke-linecap="butt" stroke-linejoin="miter">
</g>
</g>
</svg>

