<?xml version="1.0" encoding="utf-8"  standalone="no"?>
<svg 
 width="1280" height="720"
 viewBox="0 0 1280 720"
 xmlns="http://www.w3.org/2000/svg"
 xmlns:xlink="http://www.w3.org/1999/xlink"
>

<title>Gnuplot</title>
<desc>Produced by GNUPLOT 5.0 patchlevel 6 </desc>

<g id="gnuplot_canvas">

<rect x="0" y="0" width="1280" height="720" fill="none"/>
<defs>

	<circle id='gpDot' r='0.5' stroke-width='0.5'/>
	<path id='gpPt0' stroke-width='0.222' stroke='currentColor' d='M-1,0 h2 M0,-1 v2'/>
	<path id='gpPt1' stroke-width='0.222' stroke='currentColor' d='M-1,-1 L1,1 M1,-1 L-1,1'/>
	<path id='gpPt2' stroke-width='0.222' stroke='currentColor' d='M-1,0 L1,0 M0,-1 L0,1 M-1,-1 L1,1 M-1,1 L1,-1'/>
	<rect id='gpPt3' stroke-width='0.222' stroke='currentColor' x='-1' y='-1' width='2' height='2'/>
	<rect id='gpPt4' stroke-width='0.222' stroke='currentColor' fill='currentColor' x='-1' y='-1' width='2' height='2'/>
	<circle id='gpPt5' stroke-width='0.222' stroke='currentColor' cx='0' cy='0' r='1'/>
	<use xlink:href='#gpPt5' id='gpPt6' fill='currentColor' stroke='none'/>
	<path id='gpPt7' stroke-width='0.222' stroke='currentColor' d='M0,-1.33 L-1.33,0.67 L1.33,0.67 z'/>
	<use xlink:href='#gpPt7' id='gpPt8' fill='currentColor' stroke='none'/>
	<use xlink:href='#gpPt7' id='gpPt9' stroke='currentColor' transform='rotate(180)'/>
	<use xlink:href='#gpPt9' id='gpPt10' fill='currentColor' stroke='none'/>
	<use xlink:href='#gpPt3' id='gpPt11' stroke='currentColor' transform='rotate(45)'/>
	<use xlink:href='#gpPt11' id='gpPt12' fill='currentColor' stroke='none'/>
	<path id='gpPt13' stroke-width='0.222' stroke='currentColor' d='M0,1.330 L1.265,0.411 L0.782,-1.067 L-0.782,-1.076 L-1.265,0.411 z'/>
	<use xlink:href='#gpPt13' id='gpPt14' fill='currentColor' stroke='none'/>
	<filter id='textbox' filterUnits='objectBoundingBox' x='0' y='0' height='1' width='1'>
	  <feFlood flood-color='white' flood-opacity='1' result='bgnd'/>
	  <feComposite in='SourceGraphic' in2='bgnd' operator='atop'/>
	</filter>
	<filter id='greybox' filterUnits='objectBoundingBox' x='0' y='0' height='1' width='1'>
	  <feFlood flood-color='lightgrey' flood-opacity='1' result='grey'/>
	  <feComposite in='SourceGraphic' in2='grey' operator='atop'/>
	</filter>
</defs>
<g fill="none" color="white" stroke="currentColor" stroke-width="1.00" stroke-linecap="butt" stroke-linejoin="miter">
</g>
<g fill="none" color="black" stroke="currentColor" stroke-width="1.00" stroke-linecap="butt" stroke-linejoin="miter">
	<path stroke='black'  d='M53.9,369.4 L62.9,369.4 M1255.0,369.4 L1246.0,369.4  '/>	<g transform="translate(45.6,373.3)" stroke="none" fill="black" font-family="Arial" font-size="12.00"  text-anchor="end">
		<text><tspan font-family="Arial" > 0.5</tspan></text>
	</g>
</g>
<g fill="none" color="black" stroke="currentColor" stroke-width="1.00" stroke-linecap="butt" stroke-linejoin="miter">
	<path stroke='black'  d='M53.9,54.1 L62.9,54.1 M1255.0,54.1 L1246.0,54.1  '/>	<g transform="translate(45.6,58.0)" stroke="none" fill="black" font-family="Arial" font-size="12.00"  text-anchor="end">
		<text><tspan font-family="Arial" > 1</tspan></text>
	</g>
</g>
<g fill="none" color="black" stroke="currentColor" stroke-width="1.00" stroke-linecap="butt" stroke-linejoin="miter">
	<path stroke='black'  d='M53.9,684.0 L53.9,675.0 M53.9,54.1 L53.9,63.1  '/>	<g transform="translate(53.9,705.9)" stroke="none" fill="black" font-family="Arial" font-size="12.00"  text-anchor="middle">
		<text><tspan font-family="Arial" > 0</tspan></text>
	</g>
</g>
<g fill="none" color="black" stroke="currentColor" stroke-width="1.00" stroke-linecap="butt" stroke-linejoin="miter">
	<path stroke='black'  d='M654.5,684.0 L654.5,675.0 M654.5,54.1 L654.5,63.1  '/>	<g transform="translate(654.5,705.9)" stroke="none" fill="black" font-family="Arial" font-size="12.00"  text-anchor="middle">
		<text><tspan font-family="Arial" >pi/2</tspan></text>
	</g>
</g>
<g fill="none" color="black" stroke="currentColor" stroke-width="1.00" stroke-linecap="butt" stroke-linejoin="miter">
	<path stroke='black'  d='M1255.0,684.0 L1255.0,675.0 M1255.0,54.1 L1255.0,63.1  '/>	<g transform="translate(1255.0,705.9)" stroke="none" fill="black" font-family="Arial" font-size="12.00"  text-anchor="middle">
		<text><tspan font-family="Arial" >pi</tspan></text>
	</g>
</g>
<g fill="none" color="black" stroke="currentColor" stroke-width="1.00" stroke-linecap="butt" stroke-linejoin="miter">
</g>
<g fill="none" color="black" stroke="currentColor" stroke-width="1.00" stroke-linecap="butt" stroke-linejoin="miter">
	<path stroke='black'  d='M53.9,54.1 L53.9,684.0 L1255.0,684.0 L1255.0,54.1 L53.9,54.1 Z  '/></g>
<g fill="none" color="black" stroke="currentColor" stroke-width="1.00" stroke-linecap="butt" stroke-linejoin="miter">
	<g transform="translate(654.4,31.0)" stroke="none" fill="black" font-family="Arial" font-size="12.00"  text-anchor="middle">
		<text><tspan font-family="Arial" >Material 7, with 1 components</tspan></text>
	</g>
</g>
	<g id="gnuplot_plot_1" ><title>scattering function</title>
<g fill="none" color="black" stroke="currentColor" stroke-width="1.00" stroke-linecap="butt" stroke-linejoin="miter">
	<g transform="translate(1187.9,76.0)" stroke="none" fill="black" font-family="Arial" font-size="12.00"  text-anchor="end">
		<text><tspan font-family="Arial" >scattering function</tspan></text>
	</g>
</g>
<g fill="none" color="black" stroke="currentColor" stroke-width="1.00" stroke-linecap="butt" stroke-linejoin="miter">
	<use xlink:href='#gpPt5' transform='translate(54.3,54.1) scale(2.25)' color='rgb(255,   0,   0)'/>
	<use xlink:href='#gpPt5' transform='translate(79.3,62.2) scale(2.25)' color='rgb(255,   0,   0)'/>
	<use xlink:href='#gpPt5' transform='translate(105.2,83.7) scale(2.25)' color='rgb(255,   0,   0)'/>
	<use xlink:href='#gpPt5' transform='translate(133.7,125.4) scale(2.25)' color='rgb(255,   0,   0)'/>
	<use xlink:href='#gpPt5' transform='translate(164.1,177.5) scale(2.25)' color='rgb(255,   0,   0)'/>
	<use xlink:href='#gpPt5' transform='translate(192.6,233.3) scale(2.25)' color='rgb(255,   0,   0)'/>
	<use xlink:href='#gpPt5' transform='translate(246.1,330.4) scale(2.25)' color='rgb(255,   0,   0)'/>
	<use xlink:href='#gpPt5' transform='translate(283.6,391.8) scale(2.25)' color='rgb(255,   0,   0)'/>
	<use xlink:href='#gpPt5' transform='translate(318.4,439.8) scale(2.25)' color='rgb(255,   0,   0)'/>
	<use xlink:href='#gpPt5' transform='translate(352.3,479.0) scale(2.25)' color='rgb(255,   0,   0)'/>
	<use xlink:href='#gpPt5' transform='translate(384.4,507.4) scale(2.25)' color='rgb(255,   0,   0)'/>
	<use xlink:href='#gpPt5' transform='translate(418.3,532.9) scale(2.25)' color='rgb(255,   0,   0)'/>
	<use xlink:href='#gpPt5' transform='translate(454.9,557.3) scale(2.25)' color='rgb(255,   0,   0)'/>
	<use xlink:href='#gpPt5' transform='translate(497.7,581.3) scale(2.25)' color='rgb(255,   0,   0)'/>
	<use xlink:href='#gpPt5' transform='translate(546.7,603.1) scale(2.25)' color='rgb(255,   0,   0)'/>
	<use xlink:href='#gpPt5' transform='translate(601.2,620.5) scale(2.25)' color='rgb(255,   0,   0)'/>
	<use xlink:href='#gpPt5' transform='translate(675.2,637.8) scale(2.25)' color='rgb(255,   0,   0)'/>
	<use xlink:href='#gpPt5' transform='translate(737.6,649.6) scale(2.25)' color='rgb(255,   0,   0)'/>
	<use xlink:href='#gpPt5' transform='translate(797.4,660.0) scale(2.25)' color='rgb(255,   0,   0)'/>
	<use xlink:href='#gpPt5' transform='translate(858.1,666.6) scale(2.25)' color='rgb(255,   0,   0)'/>
	<use xlink:href='#gpPt5' transform='translate(968.7,675.9) scale(2.25)' color='rgb(255,   0,   0)'/>
	<use xlink:href='#gpPt5' transform='translate(1055.2,680.7) scale(2.25)' color='rgb(255,   0,   0)'/>
	<use xlink:href='#gpPt5' transform='translate(1153.3,683.6) scale(2.25)' color='rgb(255,   0,   0)'/>
	<use xlink:href='#gpPt5' transform='translate(1255.0,684.0) scale(2.25)' color='rgb(255,   0,   0)'/>
	<use xlink:href='#gpPt5' transform='translate(1217.3,72.1) scale(2.25)' color='rgb(255,   0,   0)'/>
</g>
	</g>
	<g id="gnuplot_plot_2" ><title>fit</title>
<g fill="none" color="black" stroke="currentColor" stroke-width="1.00" stroke-linecap="butt" stroke-linejoin="miter">
	<g transform="translate(1187.9,94.0)" stroke="none" fill="black" font-family="Arial" font-size="12.00"  text-anchor="end">
		<text><tspan font-family="Arial" >fit</tspan></text>
	</g>
</g>
<g fill="none" color="black" stroke="currentColor" stroke-width="1.00" stroke-linecap="butt" stroke-linejoin="miter">
	<path stroke='rgb(255,   0,   0)'  d='M1196.2,90.1 L1238.4,90.1 M53.9,79.4 L55.1,79.4 L56.2,79.4 L57.4,79.5 L58.6,79.6 L59.8,79.7
		L60.9,79.9 L62.1,80.0 L63.3,80.2 L64.5,80.5 L65.6,80.7 L66.8,81.0 L68.0,81.3 L69.2,81.7
		L70.3,82.0 L71.5,82.4 L72.7,82.8 L73.9,83.3 L75.0,83.7 L76.2,84.2 L77.4,84.8 L78.6,85.3
		L79.7,85.9 L80.9,86.5 L82.1,87.1 L83.3,87.8 L84.4,88.5 L85.6,89.2 L86.8,89.9 L87.9,90.6
		L89.1,91.4 L90.3,92.2 L91.5,93.1 L92.6,93.9 L93.8,94.8 L95.0,95.7 L96.2,96.6 L97.3,97.6
		L98.5,98.5 L99.7,99.5 L100.9,100.5 L102.0,101.6 L103.2,102.6 L104.4,103.7 L105.6,104.8 L106.7,106.0
		L107.9,107.1 L109.1,108.3 L110.3,109.5 L111.4,110.7 L112.6,111.9 L113.8,113.2 L115.0,114.4 L116.1,115.7
		L117.3,117.0 L118.5,118.4 L119.6,119.7 L120.8,121.1 L122.0,122.5 L123.2,123.9 L124.3,125.3 L125.5,126.8
		L126.7,128.2 L127.9,129.7 L129.0,131.2 L130.2,132.7 L131.4,134.2 L132.6,135.8 L133.7,137.4 L134.9,138.9
		L136.1,140.5 L137.3,142.1 L138.4,143.8 L139.6,145.4 L140.8,147.0 L142.0,148.7 L143.1,150.4 L144.3,152.1
		L145.5,153.8 L146.7,155.5 L147.8,157.2 L149.0,159.0 L150.2,160.7 L151.3,162.5 L152.5,164.3 L153.7,166.1
		L154.9,167.9 L156.0,169.7 L157.2,171.5 L158.4,173.3 L159.6,175.2 L160.7,177.0 L161.9,178.9 L163.1,180.8
		L164.3,182.6 L165.4,184.5 L166.6,186.4 L167.8,188.3 L169.0,190.2 L170.1,192.1 L171.3,194.1 L172.5,196.0
		L173.7,197.9 L174.8,199.9 L176.0,201.8 L177.2,203.8 L178.4,205.7 L179.5,207.7 L180.7,209.7 L181.9,211.7
		L183.1,213.6 L184.2,215.6 L185.4,217.6 L186.6,219.6 L187.7,221.6 L188.9,223.6 L190.1,225.6 L191.3,227.6
		L192.4,229.6 L193.6,231.6 L194.8,233.6 L196.0,235.7 L197.1,237.7 L198.3,239.7 L199.5,241.7 L200.7,243.7
		L201.8,245.8 L203.0,247.8 L204.2,249.8 L205.4,251.8 L206.5,253.9 L207.7,255.9 L208.9,257.9 L210.1,259.9
		L211.2,262.0 L212.4,264.0 L213.6,266.0 L214.8,268.0 L215.9,270.0 L217.1,272.1 L218.3,274.1 L219.4,276.1
		L220.6,278.1 L221.8,280.1 L223.0,282.1 L224.1,284.1 L225.3,286.1 L226.5,288.1 L227.7,290.1 L228.8,292.1
		L230.0,294.1 L231.2,296.1 L232.4,298.1 L233.5,300.1 L234.7,302.0 L235.9,304.0 L237.1,306.0 L238.2,308.0
		L239.4,309.9 L240.6,311.9 L241.8,313.8 L242.9,315.8 L244.1,317.7 L245.3,319.7 L246.5,321.6 L247.6,323.5
		L248.8,325.4 L250.0,327.4 L251.1,329.3 L252.3,331.2 L253.5,333.1 L254.7,335.0 L255.8,336.9 L257.0,338.8
		L258.2,340.6 L259.4,342.5 L260.5,344.4 L261.7,346.2 L262.9,348.1 L264.1,349.9 L265.2,351.8 L266.4,353.6
		L267.6,355.5 L268.8,357.3 L269.9,359.1 L271.1,360.9 L272.3,362.7 L273.5,364.5 L274.6,366.3 L275.8,368.1
		L277.0,369.9 L278.2,371.6 L279.3,373.4 L280.5,375.2 L281.7,376.9 L282.8,378.7 L284.0,380.4 L285.2,382.1
		L286.4,383.8 L287.5,385.6 L288.7,387.3 L289.9,389.0 L291.1,390.7 L292.2,392.3 L293.4,394.0 L294.6,395.7
		L295.8,397.4 L296.9,399.0 L298.1,400.7 L299.3,402.3 L300.5,403.9 L301.6,405.6 L302.8,407.2 L304.0,408.8
		L305.2,410.4 L306.3,412.0 L307.5,413.6 L308.7,415.2 L309.9,416.7 L311.0,418.3 L312.2,419.9 L313.4,421.4
		L314.5,423.0 L315.7,424.5 L316.9,426.0 L318.1,427.5 L319.2,429.0 L320.4,430.6 L321.6,432.0 L322.8,433.5
		L323.9,435.0 L325.1,436.5 L326.3,438.0 L327.5,439.4 L328.6,440.9 L329.8,442.3 L331.0,443.8 L332.2,445.2
		L333.3,446.6 L334.5,448.0 L335.7,449.4 L336.9,450.8 L338.0,452.2 L339.2,453.6 L340.4,455.0 L341.6,456.3
		L342.7,457.7 L343.9,459.1 L345.1,460.4 L346.2,461.7 L347.4,463.1 L348.6,464.4 L349.8,465.7 L350.9,467.0
		L352.1,468.3 L353.3,469.6 L354.5,470.9 L355.6,472.2 L356.8,473.5 L358.0,474.7 L359.2,476.0 L360.3,477.3
		L361.5,478.5 L362.7,479.7 L363.9,481.0 L365.0,482.2 L366.2,483.4 L367.4,484.6 L368.6,485.8 L369.7,487.0
		L370.9,488.2 L372.1,489.4 L373.3,490.6 L374.4,491.7 L375.6,492.9 L376.8,494.0 L378.0,495.2 L379.1,496.3
		L380.3,497.5 L381.5,498.6 L382.6,499.7 L383.8,500.8 L385.0,501.9 L386.2,503.0 L387.3,504.1 L388.5,505.2
		L389.7,506.3 L390.9,507.4 L392.0,508.5 L393.2,509.5 L394.4,510.6 L395.6,511.6 L396.7,512.7 L397.9,513.7
		L399.1,514.7 L400.3,515.8 L401.4,516.8 L402.6,517.8 L403.8,518.8 L405.0,519.8 L406.1,520.8 L407.3,521.8
		L408.5,522.8 L409.7,523.7 L410.8,524.7 L412.0,525.7 L413.2,526.6 L414.3,527.6 L415.5,528.5 L416.7,529.5
		L417.9,530.4 L419.0,531.3 L420.2,532.3 L421.4,533.2 L422.6,534.1 L423.7,535.0 L424.9,535.9 L426.1,536.8
		L427.3,537.7 L428.4,538.6 L429.6,539.4 L430.8,540.3 L432.0,541.2 L433.1,542.1 L434.3,542.9 L435.5,543.8
		L436.7,544.6 L437.8,545.5 L439.0,546.3 L440.2,547.1 L441.4,547.9 L442.5,548.8 L443.7,549.6 L444.9,550.4
		L446.0,551.2 L447.2,552.0 L448.4,552.8 L449.6,553.6 L450.7,554.4 L451.9,555.2 L453.1,555.9 L454.3,556.7
		L455.4,557.5 L456.6,558.2 L457.8,559.0 L459.0,559.7 L460.1,560.5 L461.3,561.2 L462.5,562.0 L463.7,562.7
		L464.8,563.4 L466.0,564.2 L467.2,564.9 L468.4,565.6 L469.5,566.3 L470.7,567.0 L471.9,567.7 L473.1,568.4
		L474.2,569.1 L475.4,569.8 L476.6,570.5 L477.7,571.2 L478.9,571.9 L480.1,572.5 L481.3,573.2 L482.4,573.9
		L483.6,574.5 L484.8,575.2 L486.0,575.8 L487.1,576.5 L488.3,577.1 L489.5,577.8 L490.7,578.4 L491.8,579.0
		L493.0,579.7 L494.2,580.3 L495.4,580.9 L496.5,581.5 L497.7,582.1 L498.9,582.7 L500.1,583.3 L501.2,583.9
		L502.4,584.5 L503.6,585.1 L504.8,585.7 L505.9,586.3 L507.1,586.9 L508.3,587.5 L509.4,588.1 L510.6,588.6
		L511.8,589.2 L513.0,589.8 L514.1,590.3 L515.3,590.9 L516.5,591.4 L517.7,592.0 L518.8,592.5 L520.0,593.1
		L521.2,593.6 L522.4,594.2 L523.5,594.7 L524.7,595.2 L525.9,595.8 L527.1,596.3 L528.2,596.8 L529.4,597.3
		L530.6,597.8 L531.8,598.4 L532.9,598.9 L534.1,599.4 L535.3,599.9 L536.5,600.4 L537.6,600.9 L538.8,601.4
		L540.0,601.8 L541.1,602.3 L542.3,602.8 L543.5,603.3 L544.7,603.8 L545.8,604.3 L547.0,604.7 L548.2,605.2
		L549.4,605.7 L550.5,606.1 L551.7,606.6 L552.9,607.1 L554.1,607.5 L555.2,608.0 L556.4,608.4 L557.6,608.9
		L558.8,609.3 L559.9,609.7 L561.1,610.2 L562.3,610.6 L563.5,611.1 L564.6,611.5 L565.8,611.9 L567.0,612.3
		L568.2,612.8 L569.3,613.2 L570.5,613.6 L571.7,614.0 L572.9,614.4 L574.0,614.9 L575.2,615.3 L576.4,615.7
		L577.5,616.1 L578.7,616.5 L579.9,616.9 L581.1,617.3 L582.2,617.7 L583.4,618.1 L584.6,618.4 L585.8,618.8
		L586.9,619.2 L588.1,619.6 L589.3,620.0 L590.5,620.4 L591.6,620.7 L592.8,621.1 L594.0,621.5 L595.2,621.8
		L596.3,622.2 L597.5,622.6 L598.7,622.9 L599.9,623.3 L601.0,623.7 L602.2,624.0 L603.4,624.4 L604.6,624.7
		L605.7,625.1 L606.9,625.4 L608.1,625.8 L609.2,626.1 L610.4,626.4 L611.6,626.8 L612.8,627.1 L613.9,627.5
		L615.1,627.8 L616.3,628.1 L617.5,628.5 L618.6,628.8 L619.8,629.1 L621.0,629.4 L622.2,629.8 L623.3,630.1
		L624.5,630.4 L625.7,630.7 L626.9,631.0 L628.0,631.3 L629.2,631.7 L630.4,632.0 L631.6,632.3 L632.7,632.6
		L633.9,632.9 L635.1,633.2 L636.3,633.5 L637.4,633.8 L638.6,634.1 L639.8,634.4 L640.9,634.7 L642.1,635.0
		L643.3,635.2 L644.5,635.5 L645.6,635.8 L646.8,636.1 L648.0,636.4 L649.2,636.7 L650.3,636.9 L651.5,637.2
		L652.7,637.5 L653.9,637.8 L655.0,638.1 L656.2,638.3 L657.4,638.6 L658.6,638.9 L659.7,639.1 L660.9,639.4
		L662.1,639.7 L663.3,639.9 L664.4,640.2 L665.6,640.4 L666.8,640.7 L668.0,641.0 L669.1,641.2 L670.3,641.5
		L671.5,641.7 L672.6,642.0 L673.8,642.2 L675.0,642.5 L676.2,642.7 L677.3,643.0 L678.5,643.2 L679.7,643.5
		L680.9,643.7 L682.0,643.9 L683.2,644.2 L684.4,644.4 L685.6,644.6 L686.7,644.9 L687.9,645.1 L689.1,645.3
		L690.3,645.6 L691.4,645.8 L692.6,646.0 L693.8,646.3 L695.0,646.5 L696.1,646.7 L697.3,646.9 L698.5,647.2
		L699.7,647.4 L700.8,647.6 L702.0,647.8 L703.2,648.0 L704.3,648.2 L705.5,648.5 L706.7,648.7 L707.9,648.9
		L709.0,649.1 L710.2,649.3 L711.4,649.5 L712.6,649.7 L713.7,649.9 L714.9,650.1 L716.1,650.3 L717.3,650.5
		L718.4,650.7 L719.6,650.9 L720.8,651.1 L722.0,651.3 L723.1,651.5 L724.3,651.7 L725.5,651.9 L726.7,652.1
		L727.8,652.3 L729.0,652.5 L730.2,652.7 L731.4,652.9 L732.5,653.1 L733.7,653.3 L734.9,653.4 L736.0,653.6
		L737.2,653.8 L738.4,654.0 L739.6,654.2 L740.7,654.4 L741.9,654.5 L743.1,654.7 L744.3,654.9 L745.4,655.1
		L746.6,655.3 L747.8,655.4 L749.0,655.6 L750.1,655.8 L751.3,655.9 L752.5,656.1 L753.7,656.3 L754.8,656.5
		L756.0,656.6 L757.2,656.8 L758.4,657.0 L759.5,657.1 L760.7,657.3 L761.9,657.5 L763.1,657.6 L764.2,657.8
		L765.4,657.9 L766.6,658.1 L767.8,658.3 L768.9,658.4 L770.1,658.6 L771.3,658.7 L772.4,658.9 L773.6,659.1
		L774.8,659.2 L776.0,659.4 L777.1,659.5 L778.3,659.7 L779.5,659.8 L780.7,660.0 L781.8,660.1 L783.0,660.3
		L784.2,660.4 L785.4,660.6 L786.5,660.7 L787.7,660.9 L788.9,661.0 L790.1,661.1 L791.2,661.3 L792.4,661.4
		L793.6,661.6 L794.8,661.7 L795.9,661.9 L797.1,662.0 L798.3,662.1 L799.5,662.3 L800.6,662.4 L801.8,662.5
		L803.0,662.7 L804.1,662.8 L805.3,662.9 L806.5,663.1 L807.7,663.2 L808.8,663.3 L810.0,663.5 L811.2,663.6
		L812.4,663.7 L813.5,663.9 L814.7,664.0 L815.9,664.1 L817.1,664.3 L818.2,664.4 L819.4,664.5 L820.6,664.6
		L821.8,664.8 L822.9,664.9 L824.1,665.0 L825.3,665.1 L826.5,665.2 L827.6,665.4 L828.8,665.5 L830.0,665.6
		L831.2,665.7 L832.3,665.8 L833.5,666.0 L834.7,666.1 L835.8,666.2 L837.0,666.3 L838.2,666.4 L839.4,666.5
		L840.5,666.7 L841.7,666.8 L842.9,666.9 L844.1,667.0 L845.2,667.1 L846.4,667.2 L847.6,667.3 L848.8,667.4
		L849.9,667.5 L851.1,667.7 L852.3,667.8 L853.5,667.9 L854.6,668.0 L855.8,668.1 L857.0,668.2 L858.2,668.3
		L859.3,668.4 L860.5,668.5 L861.7,668.6 L862.9,668.7 L864.0,668.8 L865.2,668.9 L866.4,669.0 L867.5,669.1
		L868.7,669.2 L869.9,669.3 L871.1,669.4 L872.2,669.5 L873.4,669.6 L874.6,669.7 L875.8,669.8 L876.9,669.9
		L878.1,670.0 L879.3,670.1 L880.5,670.2 L881.6,670.3 L882.8,670.4 L884.0,670.5 L885.2,670.6 L886.3,670.7
		L887.5,670.8 L888.7,670.8 L889.9,670.9 L891.0,671.0 L892.2,671.1 L893.4,671.2 L894.6,671.3 L895.7,671.4
		L896.9,671.5 L898.1,671.6 L899.2,671.6 L900.4,671.7 L901.6,671.8 L902.8,671.9 L903.9,672.0 L905.1,672.1
		L906.3,672.2 L907.5,672.2 L908.6,672.3 L909.8,672.4 L911.0,672.5 L912.2,672.6 L913.3,672.7 L914.5,672.7
		L915.7,672.8 L916.9,672.9 L918.0,673.0 L919.2,673.1 L920.4,673.1 L921.6,673.2 L922.7,673.3 L923.9,673.4
		L925.1,673.4 L926.3,673.5 L927.4,673.6 L928.6,673.7 L929.8,673.8 L930.9,673.8 L932.1,673.9 L933.3,674.0
		L934.5,674.0 L935.6,674.1 L936.8,674.2 L938.0,674.3 L939.2,674.3 L940.3,674.4 L941.5,674.5 L942.7,674.6
		L943.9,674.6 L945.0,674.7 L946.2,674.8 L947.4,674.8 L948.6,674.9 L949.7,675.0 L950.9,675.0 L952.1,675.1
		L953.3,675.2 L954.4,675.2 L955.6,675.3 L956.8,675.4 L958.0,675.4 L959.1,675.5 L960.3,675.6 L961.5,675.6
		L962.7,675.7 L963.8,675.8 L965.0,675.8 L966.2,675.9 L967.3,676.0 L968.5,676.0 L969.7,676.1 L970.9,676.1
		L972.0,676.2 L973.2,676.3 L974.4,676.3 L975.6,676.4 L976.7,676.4 L977.9,676.5 L979.1,676.6 L980.3,676.6
		L981.4,676.7 L982.6,676.7 L983.8,676.8 L985.0,676.9 L986.1,676.9 L987.3,677.0 L988.5,677.0 L989.7,677.1
		L990.8,677.1 L992.0,677.2 L993.2,677.2 L994.4,677.3 L995.5,677.4 L996.7,677.4 L997.9,677.5 L999.0,677.5
		L1000.2,677.6 L1001.4,677.6 L1002.6,677.7 L1003.7,677.7 L1004.9,677.8 L1006.1,677.8 L1007.3,677.9 L1008.4,677.9
		L1009.6,678.0 L1010.8,678.0 L1012.0,678.1 L1013.1,678.1 L1014.3,678.2 L1015.5,678.2 L1016.7,678.3 L1017.8,678.3
		L1019.0,678.4 L1020.2,678.4 L1021.4,678.5 L1022.5,678.5 L1023.7,678.6 L1024.9,678.6 L1026.1,678.7 L1027.2,678.7
		L1028.4,678.8 L1029.6,678.8 L1030.7,678.8 L1031.9,678.9 L1033.1,678.9 L1034.3,679.0 L1035.4,679.0 L1036.6,679.1
		L1037.8,679.1 L1039.0,679.1 L1040.1,679.2 L1041.3,679.2 L1042.5,679.3 L1043.7,679.3 L1044.8,679.4 L1046.0,679.4
		L1047.2,679.4 L1048.4,679.5 L1049.5,679.5 L1050.7,679.6 L1051.9,679.6 L1053.1,679.6 L1054.2,679.7 L1055.4,679.7
		L1056.6,679.8 L1057.8,679.8 L1058.9,679.8 L1060.1,679.9 L1061.3,679.9 L1062.4,679.9 L1063.6,680.0 L1064.8,680.0
		L1066.0,680.1 L1067.1,680.1 L1068.3,680.1 L1069.5,680.2 L1070.7,680.2 L1071.8,680.2 L1073.0,680.3 L1074.2,680.3
		L1075.4,680.3 L1076.5,680.4 L1077.7,680.4 L1078.9,680.4 L1080.1,680.5 L1081.2,680.5 L1082.4,680.5 L1083.6,680.6
		L1084.8,680.6 L1085.9,680.6 L1087.1,680.7 L1088.3,680.7 L1089.5,680.7 L1090.6,680.8 L1091.8,680.8 L1093.0,680.8
		L1094.1,680.9 L1095.3,680.9 L1096.5,680.9 L1097.7,681.0 L1098.8,681.0 L1100.0,681.0 L1101.2,681.0 L1102.4,681.1
		L1103.5,681.1 L1104.7,681.1 L1105.9,681.2 L1107.1,681.2 L1108.2,681.2 L1109.4,681.2 L1110.6,681.3 L1111.8,681.3
		L1112.9,681.3 L1114.1,681.3 L1115.3,681.4 L1116.5,681.4 L1117.6,681.4 L1118.8,681.4 L1120.0,681.5 L1121.2,681.5
		L1122.3,681.5 L1123.5,681.5 L1124.7,681.6 L1125.8,681.6 L1127.0,681.6 L1128.2,681.6 L1129.4,681.7 L1130.5,681.7
		L1131.7,681.7 L1132.9,681.7 L1134.1,681.8 L1135.2,681.8 L1136.4,681.8 L1137.6,681.8 L1138.8,681.8 L1139.9,681.9
		L1141.1,681.9 L1142.3,681.9 L1143.5,681.9 L1144.6,681.9 L1145.8,682.0 L1147.0,682.0 L1148.2,682.0 L1149.3,682.0
		L1150.5,682.0 L1151.7,682.1 L1152.9,682.1 L1154.0,682.1 L1155.2,682.1 L1156.4,682.1 L1157.6,682.1 L1158.7,682.2
		L1159.9,682.2 L1161.1,682.2 L1162.2,682.2 L1163.4,682.2 L1164.6,682.2 L1165.8,682.3 L1166.9,682.3 L1168.1,682.3
		L1169.3,682.3 L1170.5,682.3 L1171.6,682.3 L1172.8,682.4 L1174.0,682.4 L1175.2,682.4 L1176.3,682.4 L1177.5,682.4
		L1178.7,682.4 L1179.9,682.4 L1181.0,682.5 L1182.2,682.5 L1183.4,682.5 L1184.6,682.5 L1185.7,682.5 L1186.9,682.5
		L1188.1,682.5 L1189.3,682.5 L1190.4,682.6 L1191.6,682.6 L1192.8,682.6 L1193.9,682.6 L1195.1,682.6 L1196.3,682.6
		L1197.5,682.6 L1198.6,682.6 L1199.8,682.6 L1201.0,682.6 L1202.2,682.7 L1203.3,682.7 L1204.5,682.7 L1205.7,682.7
		L1206.9,682.7 L1208.0,682.7 L1209.2,682.7 L1210.4,682.7 L1211.6,682.7 L1212.7,682.7 L1213.9,682.7 L1215.1,682.7
		L1216.3,682.8 L1217.4,682.8 L1218.6,682.8 L1219.8,682.8 L1221.0,682.8 L1222.1,682.8 L1223.3,682.8 L1224.5,682.8
		L1225.6,682.8 L1226.8,682.8 L1228.0,682.8 L1229.2,682.8 L1230.3,682.8 L1231.5,682.8 L1232.7,682.8 L1233.9,682.8
		L1235.0,682.8 L1236.2,682.8 L1237.4,682.8 L1238.6,682.8 L1239.7,682.9 L1240.9,682.9 L1242.1,682.9 L1243.3,682.9
		L1244.4,682.9 L1245.6,682.9 L1246.8,682.9 L1248.0,682.9 L1249.1,682.9 L1250.3,682.9 L1251.5,682.9 L1252.7,682.9
		L1253.8,682.9 L1255.0,682.9  '/></g>
	</g>
<g fill="none" color="white" stroke="rgb(255,   0,   0)" stroke-width="2.00" stroke-linecap="butt" stroke-linejoin="miter">
</g>
<g fill="none" color="black" stroke="currentColor" stroke-width="2.00" stroke-linecap="butt" stroke-linejoin="miter">
</g>
<g fill="none" color="black" stroke="black" stroke-width="1.00" stroke-linecap="butt" stroke-linejoin="miter">
</g>
<g fill="none" color="black" stroke="currentColor" stroke-width="1.00" stroke-linecap="butt" stroke-linejoin="miter">
	<path stroke='black'  d='M53.9,54.1 L53.9,684.0 L1255.0,684.0 L1255.0,54.1 L53.9,54.1 Z  '/></g>
<g fill="none" color="black" stroke="currentColor" stroke-width="1.00" stroke-linecap="butt" stroke-linejoin="miter">
</g>
</g>
</svg>

