<?xml version="1.0" encoding="utf-8"  standalone="no"?>
<svg 
 width="1280" height="720"
 viewBox="0 0 1280 720"
 xmlns="http://www.w3.org/2000/svg"
 xmlns:xlink="http://www.w3.org/1999/xlink"
>

<title>Gnuplot</title>
<desc>Produced by GNUPLOT 5.0 patchlevel 6 </desc>

<g id="gnuplot_canvas">

<rect x="0" y="0" width="1280" height="720" fill="none"/>
<defs>

	<circle id='gpDot' r='0.5' stroke-width='0.5'/>
	<path id='gpPt0' stroke-width='0.222' stroke='currentColor' d='M-1,0 h2 M0,-1 v2'/>
	<path id='gpPt1' stroke-width='0.222' stroke='currentColor' d='M-1,-1 L1,1 M1,-1 L-1,1'/>
	<path id='gpPt2' stroke-width='0.222' stroke='currentColor' d='M-1,0 L1,0 M0,-1 L0,1 M-1,-1 L1,1 M-1,1 L1,-1'/>
	<rect id='gpPt3' stroke-width='0.222' stroke='currentColor' x='-1' y='-1' width='2' height='2'/>
	<rect id='gpPt4' stroke-width='0.222' stroke='currentColor' fill='currentColor' x='-1' y='-1' width='2' height='2'/>
	<circle id='gpPt5' stroke-width='0.222' stroke='currentColor' cx='0' cy='0' r='1'/>
	<use xlink:href='#gpPt5' id='gpPt6' fill='currentColor' stroke='none'/>
	<path id='gpPt7' stroke-width='0.222' stroke='currentColor' d='M0,-1.33 L-1.33,0.67 L1.33,0.67 z'/>
	<use xlink:href='#gpPt7' id='gpPt8' fill='currentColor' stroke='none'/>
	<use xlink:href='#gpPt7' id='gpPt9' stroke='currentColor' transform='rotate(180)'/>
	<use xlink:href='#gpPt9' id='gpPt10' fill='currentColor' stroke='none'/>
	<use xlink:href='#gpPt3' id='gpPt11' stroke='currentColor' transform='rotate(45)'/>
	<use xlink:href='#gpPt11' id='gpPt12' fill='currentColor' stroke='none'/>
	<path id='gpPt13' stroke-width='0.222' stroke='currentColor' d='M0,1.330 L1.265,0.411 L0.782,-1.067 L-0.782,-1.076 L-1.265,0.411 z'/>
	<use xlink:href='#gpPt13' id='gpPt14' fill='currentColor' stroke='none'/>
	<filter id='textbox' filterUnits='objectBoundingBox' x='0' y='0' height='1' width='1'>
	  <feFlood flood-color='white' flood-opacity='1' result='bgnd'/>
	  <feComposite in='SourceGraphic' in2='bgnd' operator='atop'/>
	</filter>
	<filter id='greybox' filterUnits='objectBoundingBox' x='0' y='0' height='1' width='1'>
	  <feFlood flood-color='lightgrey' flood-opacity='1' result='grey'/>
	  <feComposite in='SourceGraphic' in2='grey' operator='atop'/>
	</filter>
</defs>
<g fill="none" color="white" stroke="currentColor" stroke-width="1.00" stroke-linecap="butt" stroke-linejoin="miter">
</g>
<g fill="none" color="black" stroke="currentColor" stroke-width="1.00" stroke-linecap="butt" stroke-linejoin="miter">
	<path stroke='black'  d='M103.7,684.0 L112.7,684.0 M1255.0,684.0 L1246.0,684.0  '/>	<g transform="translate(95.4,687.9)" stroke="none" fill="black" font-family="Arial" font-size="12.00"  text-anchor="end">
		<text><tspan font-family="Arial" > 0.003009</tspan></text>
	</g>
</g>
<g fill="none" color="black" stroke="currentColor" stroke-width="1.00" stroke-linecap="butt" stroke-linejoin="miter">
	<path stroke='black'  d='M103.7,369.0 L112.7,369.0 M1255.0,369.0 L1246.0,369.0  '/>	<g transform="translate(95.4,372.9)" stroke="none" fill="black" font-family="Arial" font-size="12.00"  text-anchor="end">
		<text><tspan font-family="Arial" > 0.0912958</tspan></text>
	</g>
</g>
<g fill="none" color="black" stroke="currentColor" stroke-width="1.00" stroke-linecap="butt" stroke-linejoin="miter">
	<path stroke='black'  d='M103.7,54.1 L112.7,54.1 M1255.0,54.1 L1246.0,54.1  '/>	<g transform="translate(95.4,58.0)" stroke="none" fill="black" font-family="Arial" font-size="12.00"  text-anchor="end">
		<text><tspan font-family="Arial" > 2.77</tspan></text>
	</g>
</g>
<g fill="none" color="black" stroke="currentColor" stroke-width="1.00" stroke-linecap="butt" stroke-linejoin="miter">
	<path stroke='black'  d='M103.7,684.0 L103.7,675.0 M103.7,54.1 L103.7,63.1  '/>	<g transform="translate(103.7,705.9)" stroke="none" fill="black" font-family="Arial" font-size="12.00"  text-anchor="middle">
		<text><tspan font-family="Arial" > 0</tspan></text>
	</g>
</g>
<g fill="none" color="black" stroke="currentColor" stroke-width="1.00" stroke-linecap="butt" stroke-linejoin="miter">
	<path stroke='black'  d='M679.4,684.0 L679.4,675.0 M679.4,54.1 L679.4,63.1  '/>	<g transform="translate(679.4,705.9)" stroke="none" fill="black" font-family="Arial" font-size="12.00"  text-anchor="middle">
		<text><tspan font-family="Arial" >pi/2</tspan></text>
	</g>
</g>
<g fill="none" color="black" stroke="currentColor" stroke-width="1.00" stroke-linecap="butt" stroke-linejoin="miter">
	<path stroke='black'  d='M1255.0,684.0 L1255.0,675.0 M1255.0,54.1 L1255.0,63.1  '/>	<g transform="translate(1255.0,705.9)" stroke="none" fill="black" font-family="Arial" font-size="12.00"  text-anchor="middle">
		<text><tspan font-family="Arial" >pi</tspan></text>
	</g>
</g>
<g fill="none" color="black" stroke="currentColor" stroke-width="1.00" stroke-linecap="butt" stroke-linejoin="miter">
</g>
<g fill="none" color="black" stroke="currentColor" stroke-width="1.00" stroke-linecap="butt" stroke-linejoin="miter">
	<path stroke='black'  d='M103.7,54.1 L103.7,684.0 L1255.0,684.0 L1255.0,54.1 L103.7,54.1 Z  '/></g>
<g fill="none" color="black" stroke="currentColor" stroke-width="1.00" stroke-linecap="butt" stroke-linejoin="miter">
	<g transform="translate(679.3,31.0)" stroke="none" fill="black" font-family="Arial" font-size="12.00"  text-anchor="middle">
		<text><tspan font-family="Arial" >Material 42, with 8 components</tspan></text>
	</g>
</g>
	<g id="gnuplot_plot_1" ><title>scattering function</title>
<g fill="none" color="black" stroke="currentColor" stroke-width="1.00" stroke-linecap="butt" stroke-linejoin="miter">
	<g transform="translate(1187.9,76.0)" stroke="none" fill="black" font-family="Arial" font-size="12.00"  text-anchor="end">
		<text><tspan font-family="Arial" >scattering function</tspan></text>
	</g>
</g>
<g fill="none" color="black" stroke="currentColor" stroke-width="1.00" stroke-linecap="butt" stroke-linejoin="miter">
	<use xlink:href='#gpPt5' transform='translate(103.7,105.8) scale(2.25)' color='rgb(255,   0,   0)'/>
	<use xlink:href='#gpPt5' transform='translate(104.3,106.5) scale(2.25)' color='rgb(255,   0,   0)'/>
	<use xlink:href='#gpPt5' transform='translate(105.0,108.8) scale(2.25)' color='rgb(255,   0,   0)'/>
	<use xlink:href='#gpPt5' transform='translate(105.6,112.4) scale(2.25)' color='rgb(255,   0,   0)'/>
	<use xlink:href='#gpPt5' transform='translate(106.3,117.2) scale(2.25)' color='rgb(255,   0,   0)'/>
	<use xlink:href='#gpPt5' transform='translate(106.9,123.1) scale(2.25)' color='rgb(255,   0,   0)'/>
	<use xlink:href='#gpPt5' transform='translate(107.5,129.7) scale(2.25)' color='rgb(255,   0,   0)'/>
	<use xlink:href='#gpPt5' transform='translate(108.2,136.8) scale(2.25)' color='rgb(255,   0,   0)'/>
	<use xlink:href='#gpPt5' transform='translate(108.8,144.1) scale(2.25)' color='rgb(255,   0,   0)'/>
	<use xlink:href='#gpPt5' transform='translate(109.5,151.2) scale(2.25)' color='rgb(255,   0,   0)'/>
	<use xlink:href='#gpPt5' transform='translate(110.1,158.2) scale(2.25)' color='rgb(255,   0,   0)'/>
	<use xlink:href='#gpPt5' transform='translate(110.7,164.7) scale(2.25)' color='rgb(255,   0,   0)'/>
	<use xlink:href='#gpPt5' transform='translate(111.4,170.7) scale(2.25)' color='rgb(255,   0,   0)'/>
	<use xlink:href='#gpPt5' transform='translate(112.0,176.3) scale(2.25)' color='rgb(255,   0,   0)'/>
	<use xlink:href='#gpPt5' transform='translate(112.7,181.5) scale(2.25)' color='rgb(255,   0,   0)'/>
	<use xlink:href='#gpPt5' transform='translate(113.3,186.3) scale(2.25)' color='rgb(255,   0,   0)'/>
	<use xlink:href='#gpPt5' transform='translate(113.9,190.9) scale(2.25)' color='rgb(255,   0,   0)'/>
	<use xlink:href='#gpPt5' transform='translate(114.6,195.2) scale(2.25)' color='rgb(255,   0,   0)'/>
	<use xlink:href='#gpPt5' transform='translate(115.2,199.2) scale(2.25)' color='rgb(255,   0,   0)'/>
	<use xlink:href='#gpPt5' transform='translate(115.9,203.0) scale(2.25)' color='rgb(255,   0,   0)'/>
	<use xlink:href='#gpPt5' transform='translate(116.5,206.6) scale(2.25)' color='rgb(255,   0,   0)'/>
	<use xlink:href='#gpPt5' transform='translate(122.9,232.4) scale(2.25)' color='rgb(255,   0,   0)'/>
	<use xlink:href='#gpPt5' transform='translate(129.3,247.5) scale(2.25)' color='rgb(255,   0,   0)'/>
	<use xlink:href='#gpPt5' transform='translate(135.7,257.4) scale(2.25)' color='rgb(255,   0,   0)'/>
	<use xlink:href='#gpPt5' transform='translate(142.1,264.7) scale(2.25)' color='rgb(255,   0,   0)'/>
	<use xlink:href='#gpPt5' transform='translate(154.9,275.9) scale(2.25)' color='rgb(255,   0,   0)'/>
	<use xlink:href='#gpPt5' transform='translate(167.7,285.6) scale(2.25)' color='rgb(255,   0,   0)'/>
	<use xlink:href='#gpPt5' transform='translate(180.5,295.0) scale(2.25)' color='rgb(255,   0,   0)'/>
	<use xlink:href='#gpPt5' transform='translate(193.2,304.5) scale(2.25)' color='rgb(255,   0,   0)'/>
	<use xlink:href='#gpPt5' transform='translate(206.0,314.0) scale(2.25)' color='rgb(255,   0,   0)'/>
	<use xlink:href='#gpPt5' transform='translate(218.8,323.8) scale(2.25)' color='rgb(255,   0,   0)'/>
	<use xlink:href='#gpPt5' transform='translate(231.6,333.8) scale(2.25)' color='rgb(255,   0,   0)'/>
	<use xlink:href='#gpPt5' transform='translate(244.4,343.8) scale(2.25)' color='rgb(255,   0,   0)'/>
	<use xlink:href='#gpPt5' transform='translate(257.2,354.1) scale(2.25)' color='rgb(255,   0,   0)'/>
	<use xlink:href='#gpPt5' transform='translate(270.0,364.3) scale(2.25)' color='rgb(255,   0,   0)'/>
	<use xlink:href='#gpPt5' transform='translate(282.8,374.6) scale(2.25)' color='rgb(255,   0,   0)'/>
	<use xlink:href='#gpPt5' transform='translate(295.6,385.0) scale(2.25)' color='rgb(255,   0,   0)'/>
	<use xlink:href='#gpPt5' transform='translate(308.4,395.3) scale(2.25)' color='rgb(255,   0,   0)'/>
	<use xlink:href='#gpPt5' transform='translate(321.2,405.6) scale(2.25)' color='rgb(255,   0,   0)'/>
	<use xlink:href='#gpPt5' transform='translate(334.0,415.8) scale(2.25)' color='rgb(255,   0,   0)'/>
	<use xlink:href='#gpPt5' transform='translate(346.8,426.0) scale(2.25)' color='rgb(255,   0,   0)'/>
	<use xlink:href='#gpPt5' transform='translate(359.5,436.1) scale(2.25)' color='rgb(255,   0,   0)'/>
	<use xlink:href='#gpPt5' transform='translate(372.3,446.1) scale(2.25)' color='rgb(255,   0,   0)'/>
	<use xlink:href='#gpPt5' transform='translate(385.1,456.0) scale(2.25)' color='rgb(255,   0,   0)'/>
	<use xlink:href='#gpPt5' transform='translate(397.9,465.8) scale(2.25)' color='rgb(255,   0,   0)'/>
	<use xlink:href='#gpPt5' transform='translate(410.7,475.5) scale(2.25)' color='rgb(255,   0,   0)'/>
	<use xlink:href='#gpPt5' transform='translate(423.5,485.0) scale(2.25)' color='rgb(255,   0,   0)'/>
	<use xlink:href='#gpPt5' transform='translate(436.3,494.4) scale(2.25)' color='rgb(255,   0,   0)'/>
	<use xlink:href='#gpPt5' transform='translate(449.1,503.7) scale(2.25)' color='rgb(255,   0,   0)'/>
	<use xlink:href='#gpPt5' transform='translate(461.9,512.8) scale(2.25)' color='rgb(255,   0,   0)'/>
	<use xlink:href='#gpPt5' transform='translate(474.7,521.8) scale(2.25)' color='rgb(255,   0,   0)'/>
	<use xlink:href='#gpPt5' transform='translate(487.5,530.6) scale(2.25)' color='rgb(255,   0,   0)'/>
	<use xlink:href='#gpPt5' transform='translate(500.3,539.2) scale(2.25)' color='rgb(255,   0,   0)'/>
	<use xlink:href='#gpPt5' transform='translate(513.1,547.7) scale(2.25)' color='rgb(255,   0,   0)'/>
	<use xlink:href='#gpPt5' transform='translate(525.8,555.9) scale(2.25)' color='rgb(255,   0,   0)'/>
	<use xlink:href='#gpPt5' transform='translate(538.6,564.0) scale(2.25)' color='rgb(255,   0,   0)'/>
	<use xlink:href='#gpPt5' transform='translate(551.4,572.0) scale(2.25)' color='rgb(255,   0,   0)'/>
	<use xlink:href='#gpPt5' transform='translate(564.2,579.6) scale(2.25)' color='rgb(255,   0,   0)'/>
	<use xlink:href='#gpPt5' transform='translate(577.0,587.1) scale(2.25)' color='rgb(255,   0,   0)'/>
	<use xlink:href='#gpPt5' transform='translate(589.8,594.4) scale(2.25)' color='rgb(255,   0,   0)'/>
	<use xlink:href='#gpPt5' transform='translate(602.6,601.4) scale(2.25)' color='rgb(255,   0,   0)'/>
	<use xlink:href='#gpPt5' transform='translate(615.4,608.3) scale(2.25)' color='rgb(255,   0,   0)'/>
	<use xlink:href='#gpPt5' transform='translate(628.2,614.8) scale(2.25)' color='rgb(255,   0,   0)'/>
	<use xlink:href='#gpPt5' transform='translate(641.0,621.2) scale(2.25)' color='rgb(255,   0,   0)'/>
	<use xlink:href='#gpPt5' transform='translate(653.8,627.2) scale(2.25)' color='rgb(255,   0,   0)'/>
	<use xlink:href='#gpPt5' transform='translate(666.6,633.0) scale(2.25)' color='rgb(255,   0,   0)'/>
	<use xlink:href='#gpPt5' transform='translate(679.4,638.5) scale(2.25)' color='rgb(255,   0,   0)'/>
	<use xlink:href='#gpPt5' transform='translate(692.1,643.7) scale(2.25)' color='rgb(255,   0,   0)'/>
	<use xlink:href='#gpPt5' transform='translate(704.9,648.6) scale(2.25)' color='rgb(255,   0,   0)'/>
	<use xlink:href='#gpPt5' transform='translate(717.7,653.2) scale(2.25)' color='rgb(255,   0,   0)'/>
	<use xlink:href='#gpPt5' transform='translate(730.5,657.5) scale(2.25)' color='rgb(255,   0,   0)'/>
	<use xlink:href='#gpPt5' transform='translate(743.3,661.4) scale(2.25)' color='rgb(255,   0,   0)'/>
	<use xlink:href='#gpPt5' transform='translate(756.1,665.1) scale(2.25)' color='rgb(255,   0,   0)'/>
	<use xlink:href='#gpPt5' transform='translate(768.9,668.4) scale(2.25)' color='rgb(255,   0,   0)'/>
	<use xlink:href='#gpPt5' transform='translate(781.7,671.4) scale(2.25)' color='rgb(255,   0,   0)'/>
	<use xlink:href='#gpPt5' transform='translate(794.5,674.1) scale(2.25)' color='rgb(255,   0,   0)'/>
	<use xlink:href='#gpPt5' transform='translate(807.3,676.4) scale(2.25)' color='rgb(255,   0,   0)'/>
	<use xlink:href='#gpPt5' transform='translate(820.1,678.4) scale(2.25)' color='rgb(255,   0,   0)'/>
	<use xlink:href='#gpPt5' transform='translate(832.9,680.1) scale(2.25)' color='rgb(255,   0,   0)'/>
	<use xlink:href='#gpPt5' transform='translate(845.6,681.5) scale(2.25)' color='rgb(255,   0,   0)'/>
	<use xlink:href='#gpPt5' transform='translate(858.4,682.6) scale(2.25)' color='rgb(255,   0,   0)'/>
	<use xlink:href='#gpPt5' transform='translate(871.2,683.4) scale(2.25)' color='rgb(255,   0,   0)'/>
	<use xlink:href='#gpPt5' transform='translate(884.0,683.8) scale(2.25)' color='rgb(255,   0,   0)'/>
	<use xlink:href='#gpPt5' transform='translate(896.8,684.0) scale(2.25)' color='rgb(255,   0,   0)'/>
	<use xlink:href='#gpPt5' transform='translate(909.6,683.9) scale(2.25)' color='rgb(255,   0,   0)'/>
	<use xlink:href='#gpPt5' transform='translate(922.4,683.5) scale(2.25)' color='rgb(255,   0,   0)'/>
	<use xlink:href='#gpPt5' transform='translate(935.2,682.9) scale(2.25)' color='rgb(255,   0,   0)'/>
	<use xlink:href='#gpPt5' transform='translate(948.0,682.1) scale(2.25)' color='rgb(255,   0,   0)'/>
	<use xlink:href='#gpPt5' transform='translate(960.8,681.0) scale(2.25)' color='rgb(255,   0,   0)'/>
	<use xlink:href='#gpPt5' transform='translate(973.6,679.6) scale(2.25)' color='rgb(255,   0,   0)'/>
	<use xlink:href='#gpPt5' transform='translate(986.4,678.1) scale(2.25)' color='rgb(255,   0,   0)'/>
	<use xlink:href='#gpPt5' transform='translate(999.2,676.4) scale(2.25)' color='rgb(255,   0,   0)'/>
	<use xlink:href='#gpPt5' transform='translate(1011.9,674.5) scale(2.25)' color='rgb(255,   0,   0)'/>
	<use xlink:href='#gpPt5' transform='translate(1024.7,672.4) scale(2.25)' color='rgb(255,   0,   0)'/>
	<use xlink:href='#gpPt5' transform='translate(1037.5,670.2) scale(2.25)' color='rgb(255,   0,   0)'/>
	<use xlink:href='#gpPt5' transform='translate(1050.3,668.0) scale(2.25)' color='rgb(255,   0,   0)'/>
	<use xlink:href='#gpPt5' transform='translate(1063.1,665.5) scale(2.25)' color='rgb(255,   0,   0)'/>
	<use xlink:href='#gpPt5' transform='translate(1075.9,663.1) scale(2.25)' color='rgb(255,   0,   0)'/>
	<use xlink:href='#gpPt5' transform='translate(1088.7,660.7) scale(2.25)' color='rgb(255,   0,   0)'/>
	<use xlink:href='#gpPt5' transform='translate(1101.5,658.3) scale(2.25)' color='rgb(255,   0,   0)'/>
	<use xlink:href='#gpPt5' transform='translate(1114.3,656.0) scale(2.25)' color='rgb(255,   0,   0)'/>
	<use xlink:href='#gpPt5' transform='translate(1127.1,654.1) scale(2.25)' color='rgb(255,   0,   0)'/>
	<use xlink:href='#gpPt5' transform='translate(1139.9,652.7) scale(2.25)' color='rgb(255,   0,   0)'/>
	<use xlink:href='#gpPt5' transform='translate(1152.7,651.8) scale(2.25)' color='rgb(255,   0,   0)'/>
	<use xlink:href='#gpPt5' transform='translate(1165.5,651.1) scale(2.25)' color='rgb(255,   0,   0)'/>
	<use xlink:href='#gpPt5' transform='translate(1178.2,650.8) scale(2.25)' color='rgb(255,   0,   0)'/>
	<use xlink:href='#gpPt5' transform='translate(1191.0,650.4) scale(2.25)' color='rgb(255,   0,   0)'/>
	<use xlink:href='#gpPt5' transform='translate(1203.8,649.5) scale(2.25)' color='rgb(255,   0,   0)'/>
	<use xlink:href='#gpPt5' transform='translate(1216.6,648.0) scale(2.25)' color='rgb(255,   0,   0)'/>
	<use xlink:href='#gpPt5' transform='translate(1229.4,646.1) scale(2.25)' color='rgb(255,   0,   0)'/>
	<use xlink:href='#gpPt5' transform='translate(1242.2,644.5) scale(2.25)' color='rgb(255,   0,   0)'/>
	<use xlink:href='#gpPt5' transform='translate(1255.0,643.4) scale(2.25)' color='rgb(255,   0,   0)'/>
	<use xlink:href='#gpPt5' transform='translate(1217.3,72.1) scale(2.25)' color='rgb(255,   0,   0)'/>
</g>
	</g>
	<g id="gnuplot_plot_2" ><title>gnuplot_plot_2</title>
<g fill="none" color="black" stroke="currentColor" stroke-width="1.00" stroke-linecap="butt" stroke-linejoin="miter">
	<use xlink:href='#gpPt5' transform='translate(103.7,90.1) scale(2.25)' color='rgb(  0, 100,   0)'/>
	<use xlink:href='#gpPt5' transform='translate(104.3,91.0) scale(2.25)' color='rgb(  0, 100,   0)'/>
	<use xlink:href='#gpPt5' transform='translate(105.0,93.6) scale(2.25)' color='rgb(  0, 100,   0)'/>
	<use xlink:href='#gpPt5' transform='translate(105.6,97.9) scale(2.25)' color='rgb(  0, 100,   0)'/>
	<use xlink:href='#gpPt5' transform='translate(106.3,103.5) scale(2.25)' color='rgb(  0, 100,   0)'/>
	<use xlink:href='#gpPt5' transform='translate(106.9,110.3) scale(2.25)' color='rgb(  0, 100,   0)'/>
	<use xlink:href='#gpPt5' transform='translate(107.5,117.7) scale(2.25)' color='rgb(  0, 100,   0)'/>
	<use xlink:href='#gpPt5' transform='translate(108.2,125.6) scale(2.25)' color='rgb(  0, 100,   0)'/>
	<use xlink:href='#gpPt5' transform='translate(108.8,133.5) scale(2.25)' color='rgb(  0, 100,   0)'/>
	<use xlink:href='#gpPt5' transform='translate(109.5,141.1) scale(2.25)' color='rgb(  0, 100,   0)'/>
	<use xlink:href='#gpPt5' transform='translate(110.1,148.2) scale(2.25)' color='rgb(  0, 100,   0)'/>
	<use xlink:href='#gpPt5' transform='translate(110.7,154.8) scale(2.25)' color='rgb(  0, 100,   0)'/>
	<use xlink:href='#gpPt5' transform='translate(111.4,160.9) scale(2.25)' color='rgb(  0, 100,   0)'/>
	<use xlink:href='#gpPt5' transform='translate(112.0,166.5) scale(2.25)' color='rgb(  0, 100,   0)'/>
	<use xlink:href='#gpPt5' transform='translate(112.7,171.6) scale(2.25)' color='rgb(  0, 100,   0)'/>
	<use xlink:href='#gpPt5' transform='translate(113.3,176.4) scale(2.25)' color='rgb(  0, 100,   0)'/>
	<use xlink:href='#gpPt5' transform='translate(113.9,181.0) scale(2.25)' color='rgb(  0, 100,   0)'/>
	<use xlink:href='#gpPt5' transform='translate(114.6,185.3) scale(2.25)' color='rgb(  0, 100,   0)'/>
	<use xlink:href='#gpPt5' transform='translate(115.2,189.2) scale(2.25)' color='rgb(  0, 100,   0)'/>
	<use xlink:href='#gpPt5' transform='translate(115.9,192.9) scale(2.25)' color='rgb(  0, 100,   0)'/>
	<use xlink:href='#gpPt5' transform='translate(116.5,196.4) scale(2.25)' color='rgb(  0, 100,   0)'/>
	<use xlink:href='#gpPt5' transform='translate(122.9,220.9) scale(2.25)' color='rgb(  0, 100,   0)'/>
	<use xlink:href='#gpPt5' transform='translate(129.3,234.8) scale(2.25)' color='rgb(  0, 100,   0)'/>
	<use xlink:href='#gpPt5' transform='translate(135.7,244.0) scale(2.25)' color='rgb(  0, 100,   0)'/>
	<use xlink:href='#gpPt5' transform='translate(142.1,250.8) scale(2.25)' color='rgb(  0, 100,   0)'/>
	<use xlink:href='#gpPt5' transform='translate(154.9,261.8) scale(2.25)' color='rgb(  0, 100,   0)'/>
	<use xlink:href='#gpPt5' transform='translate(167.7,271.6) scale(2.25)' color='rgb(  0, 100,   0)'/>
	<use xlink:href='#gpPt5' transform='translate(180.5,281.2) scale(2.25)' color='rgb(  0, 100,   0)'/>
	<use xlink:href='#gpPt5' transform='translate(193.2,290.9) scale(2.25)' color='rgb(  0, 100,   0)'/>
	<use xlink:href='#gpPt5' transform='translate(206.0,300.8) scale(2.25)' color='rgb(  0, 100,   0)'/>
	<use xlink:href='#gpPt5' transform='translate(218.8,310.8) scale(2.25)' color='rgb(  0, 100,   0)'/>
	<use xlink:href='#gpPt5' transform='translate(231.6,321.0) scale(2.25)' color='rgb(  0, 100,   0)'/>
	<use xlink:href='#gpPt5' transform='translate(244.4,331.4) scale(2.25)' color='rgb(  0, 100,   0)'/>
	<use xlink:href='#gpPt5' transform='translate(257.2,341.9) scale(2.25)' color='rgb(  0, 100,   0)'/>
	<use xlink:href='#gpPt5' transform='translate(270.0,352.4) scale(2.25)' color='rgb(  0, 100,   0)'/>
	<use xlink:href='#gpPt5' transform='translate(282.8,362.9) scale(2.25)' color='rgb(  0, 100,   0)'/>
	<use xlink:href='#gpPt5' transform='translate(295.6,373.5) scale(2.25)' color='rgb(  0, 100,   0)'/>
	<use xlink:href='#gpPt5' transform='translate(308.4,384.0) scale(2.25)' color='rgb(  0, 100,   0)'/>
	<use xlink:href='#gpPt5' transform='translate(321.2,394.5) scale(2.25)' color='rgb(  0, 100,   0)'/>
	<use xlink:href='#gpPt5' transform='translate(334.0,405.0) scale(2.25)' color='rgb(  0, 100,   0)'/>
	<use xlink:href='#gpPt5' transform='translate(346.8,415.4) scale(2.25)' color='rgb(  0, 100,   0)'/>
	<use xlink:href='#gpPt5' transform='translate(359.5,425.6) scale(2.25)' color='rgb(  0, 100,   0)'/>
	<use xlink:href='#gpPt5' transform='translate(372.3,435.8) scale(2.25)' color='rgb(  0, 100,   0)'/>
	<use xlink:href='#gpPt5' transform='translate(385.1,445.8) scale(2.25)' color='rgb(  0, 100,   0)'/>
	<use xlink:href='#gpPt5' transform='translate(397.9,455.8) scale(2.25)' color='rgb(  0, 100,   0)'/>
	<use xlink:href='#gpPt5' transform='translate(410.7,465.6) scale(2.25)' color='rgb(  0, 100,   0)'/>
	<use xlink:href='#gpPt5' transform='translate(423.5,475.2) scale(2.25)' color='rgb(  0, 100,   0)'/>
	<use xlink:href='#gpPt5' transform='translate(436.3,484.8) scale(2.25)' color='rgb(  0, 100,   0)'/>
	<use xlink:href='#gpPt5' transform='translate(449.1,494.1) scale(2.25)' color='rgb(  0, 100,   0)'/>
	<use xlink:href='#gpPt5' transform='translate(461.9,503.3) scale(2.25)' color='rgb(  0, 100,   0)'/>
	<use xlink:href='#gpPt5' transform='translate(474.7,512.4) scale(2.25)' color='rgb(  0, 100,   0)'/>
	<use xlink:href='#gpPt5' transform='translate(487.5,521.2) scale(2.25)' color='rgb(  0, 100,   0)'/>
	<use xlink:href='#gpPt5' transform='translate(500.3,530.0) scale(2.25)' color='rgb(  0, 100,   0)'/>
	<use xlink:href='#gpPt5' transform='translate(513.1,538.5) scale(2.25)' color='rgb(  0, 100,   0)'/>
	<use xlink:href='#gpPt5' transform='translate(525.8,546.8) scale(2.25)' color='rgb(  0, 100,   0)'/>
	<use xlink:href='#gpPt5' transform='translate(538.6,555.0) scale(2.25)' color='rgb(  0, 100,   0)'/>
	<use xlink:href='#gpPt5' transform='translate(551.4,562.9) scale(2.25)' color='rgb(  0, 100,   0)'/>
	<use xlink:href='#gpPt5' transform='translate(564.2,570.7) scale(2.25)' color='rgb(  0, 100,   0)'/>
	<use xlink:href='#gpPt5' transform='translate(577.0,578.2) scale(2.25)' color='rgb(  0, 100,   0)'/>
	<use xlink:href='#gpPt5' transform='translate(589.8,585.5) scale(2.25)' color='rgb(  0, 100,   0)'/>
	<use xlink:href='#gpPt5' transform='translate(602.6,592.6) scale(2.25)' color='rgb(  0, 100,   0)'/>
	<use xlink:href='#gpPt5' transform='translate(615.4,599.4) scale(2.25)' color='rgb(  0, 100,   0)'/>
	<use xlink:href='#gpPt5' transform='translate(628.2,606.0) scale(2.25)' color='rgb(  0, 100,   0)'/>
	<use xlink:href='#gpPt5' transform='translate(641.0,612.3) scale(2.25)' color='rgb(  0, 100,   0)'/>
	<use xlink:href='#gpPt5' transform='translate(653.8,618.4) scale(2.25)' color='rgb(  0, 100,   0)'/>
	<use xlink:href='#gpPt5' transform='translate(666.6,624.2) scale(2.25)' color='rgb(  0, 100,   0)'/>
	<use xlink:href='#gpPt5' transform='translate(679.4,629.7) scale(2.25)' color='rgb(  0, 100,   0)'/>
	<use xlink:href='#gpPt5' transform='translate(692.1,634.9) scale(2.25)' color='rgb(  0, 100,   0)'/>
	<use xlink:href='#gpPt5' transform='translate(704.9,639.8) scale(2.25)' color='rgb(  0, 100,   0)'/>
	<use xlink:href='#gpPt5' transform='translate(717.7,644.3) scale(2.25)' color='rgb(  0, 100,   0)'/>
	<use xlink:href='#gpPt5' transform='translate(730.5,648.6) scale(2.25)' color='rgb(  0, 100,   0)'/>
	<use xlink:href='#gpPt5' transform='translate(743.3,652.6) scale(2.25)' color='rgb(  0, 100,   0)'/>
	<use xlink:href='#gpPt5' transform='translate(756.1,656.3) scale(2.25)' color='rgb(  0, 100,   0)'/>
	<use xlink:href='#gpPt5' transform='translate(768.9,659.6) scale(2.25)' color='rgb(  0, 100,   0)'/>
	<use xlink:href='#gpPt5' transform='translate(781.7,662.6) scale(2.25)' color='rgb(  0, 100,   0)'/>
	<use xlink:href='#gpPt5' transform='translate(794.5,665.2) scale(2.25)' color='rgb(  0, 100,   0)'/>
	<use xlink:href='#gpPt5' transform='translate(807.3,667.6) scale(2.25)' color='rgb(  0, 100,   0)'/>
	<use xlink:href='#gpPt5' transform='translate(820.1,669.6) scale(2.25)' color='rgb(  0, 100,   0)'/>
	<use xlink:href='#gpPt5' transform='translate(832.9,671.3) scale(2.25)' color='rgb(  0, 100,   0)'/>
	<use xlink:href='#gpPt5' transform='translate(845.6,672.8) scale(2.25)' color='rgb(  0, 100,   0)'/>
	<use xlink:href='#gpPt5' transform='translate(858.4,673.8) scale(2.25)' color='rgb(  0, 100,   0)'/>
	<use xlink:href='#gpPt5' transform='translate(871.2,674.5) scale(2.25)' color='rgb(  0, 100,   0)'/>
	<use xlink:href='#gpPt5' transform='translate(884.0,675.0) scale(2.25)' color='rgb(  0, 100,   0)'/>
	<use xlink:href='#gpPt5' transform='translate(896.8,675.2) scale(2.25)' color='rgb(  0, 100,   0)'/>
	<use xlink:href='#gpPt5' transform='translate(909.6,675.1) scale(2.25)' color='rgb(  0, 100,   0)'/>
	<use xlink:href='#gpPt5' transform='translate(922.4,674.6) scale(2.25)' color='rgb(  0, 100,   0)'/>
	<use xlink:href='#gpPt5' transform='translate(935.2,674.0) scale(2.25)' color='rgb(  0, 100,   0)'/>
	<use xlink:href='#gpPt5' transform='translate(948.0,673.1) scale(2.25)' color='rgb(  0, 100,   0)'/>
	<use xlink:href='#gpPt5' transform='translate(960.8,671.9) scale(2.25)' color='rgb(  0, 100,   0)'/>
	<use xlink:href='#gpPt5' transform='translate(973.6,670.5) scale(2.25)' color='rgb(  0, 100,   0)'/>
	<use xlink:href='#gpPt5' transform='translate(986.4,668.9) scale(2.25)' color='rgb(  0, 100,   0)'/>
	<use xlink:href='#gpPt5' transform='translate(999.2,667.0) scale(2.25)' color='rgb(  0, 100,   0)'/>
	<use xlink:href='#gpPt5' transform='translate(1011.9,665.0) scale(2.25)' color='rgb(  0, 100,   0)'/>
	<use xlink:href='#gpPt5' transform='translate(1024.7,662.8) scale(2.25)' color='rgb(  0, 100,   0)'/>
	<use xlink:href='#gpPt5' transform='translate(1037.5,660.5) scale(2.25)' color='rgb(  0, 100,   0)'/>
	<use xlink:href='#gpPt5' transform='translate(1050.3,658.1) scale(2.25)' color='rgb(  0, 100,   0)'/>
	<use xlink:href='#gpPt5' transform='translate(1063.1,655.6) scale(2.25)' color='rgb(  0, 100,   0)'/>
	<use xlink:href='#gpPt5' transform='translate(1075.9,653.1) scale(2.25)' color='rgb(  0, 100,   0)'/>
	<use xlink:href='#gpPt5' transform='translate(1088.7,650.6) scale(2.25)' color='rgb(  0, 100,   0)'/>
	<use xlink:href='#gpPt5' transform='translate(1101.5,648.3) scale(2.25)' color='rgb(  0, 100,   0)'/>
	<use xlink:href='#gpPt5' transform='translate(1114.3,646.1) scale(2.25)' color='rgb(  0, 100,   0)'/>
	<use xlink:href='#gpPt5' transform='translate(1127.1,644.1) scale(2.25)' color='rgb(  0, 100,   0)'/>
	<use xlink:href='#gpPt5' transform='translate(1139.9,642.5) scale(2.25)' color='rgb(  0, 100,   0)'/>
	<use xlink:href='#gpPt5' transform='translate(1152.7,641.7) scale(2.25)' color='rgb(  0, 100,   0)'/>
	<use xlink:href='#gpPt5' transform='translate(1165.5,641.7) scale(2.25)' color='rgb(  0, 100,   0)'/>
	<use xlink:href='#gpPt5' transform='translate(1178.2,641.8) scale(2.25)' color='rgb(  0, 100,   0)'/>
	<use xlink:href='#gpPt5' transform='translate(1191.0,641.8) scale(2.25)' color='rgb(  0, 100,   0)'/>
	<use xlink:href='#gpPt5' transform='translate(1203.8,641.1) scale(2.25)' color='rgb(  0, 100,   0)'/>
	<use xlink:href='#gpPt5' transform='translate(1216.6,639.4) scale(2.25)' color='rgb(  0, 100,   0)'/>
	<use xlink:href='#gpPt5' transform='translate(1229.4,637.2) scale(2.25)' color='rgb(  0, 100,   0)'/>
	<use xlink:href='#gpPt5' transform='translate(1242.2,635.3) scale(2.25)' color='rgb(  0, 100,   0)'/>
	<use xlink:href='#gpPt5' transform='translate(1255.0,634.0) scale(2.25)' color='rgb(  0, 100,   0)'/>
</g>
	</g>
	<g id="gnuplot_plot_3" ><title>gnuplot_plot_3</title>
<g fill="none" color="black" stroke="currentColor" stroke-width="1.00" stroke-linecap="butt" stroke-linejoin="miter">
	<use xlink:href='#gpPt5' transform='translate(103.7,54.1) scale(2.25)' color='rgb(  0,   0, 255)'/>
	<use xlink:href='#gpPt5' transform='translate(104.3,55.4) scale(2.25)' color='rgb(  0,   0, 255)'/>
	<use xlink:href='#gpPt5' transform='translate(105.0,59.3) scale(2.25)' color='rgb(  0,   0, 255)'/>
	<use xlink:href='#gpPt5' transform='translate(105.6,65.5) scale(2.25)' color='rgb(  0,   0, 255)'/>
	<use xlink:href='#gpPt5' transform='translate(106.3,73.4) scale(2.25)' color='rgb(  0,   0, 255)'/>
	<use xlink:href='#gpPt5' transform='translate(106.9,82.5) scale(2.25)' color='rgb(  0,   0, 255)'/>
	<use xlink:href='#gpPt5' transform='translate(107.5,92.2) scale(2.25)' color='rgb(  0,   0, 255)'/>
	<use xlink:href='#gpPt5' transform='translate(108.2,101.7) scale(2.25)' color='rgb(  0,   0, 255)'/>
	<use xlink:href='#gpPt5' transform='translate(108.8,110.6) scale(2.25)' color='rgb(  0,   0, 255)'/>
	<use xlink:href='#gpPt5' transform='translate(109.5,118.7) scale(2.25)' color='rgb(  0,   0, 255)'/>
	<use xlink:href='#gpPt5' transform='translate(110.1,126.0) scale(2.25)' color='rgb(  0,   0, 255)'/>
	<use xlink:href='#gpPt5' transform='translate(110.7,132.6) scale(2.25)' color='rgb(  0,   0, 255)'/>
	<use xlink:href='#gpPt5' transform='translate(111.4,138.7) scale(2.25)' color='rgb(  0,   0, 255)'/>
	<use xlink:href='#gpPt5' transform='translate(112.0,144.2) scale(2.25)' color='rgb(  0,   0, 255)'/>
	<use xlink:href='#gpPt5' transform='translate(112.7,149.4) scale(2.25)' color='rgb(  0,   0, 255)'/>
	<use xlink:href='#gpPt5' transform='translate(113.3,154.2) scale(2.25)' color='rgb(  0,   0, 255)'/>
	<use xlink:href='#gpPt5' transform='translate(113.9,158.5) scale(2.25)' color='rgb(  0,   0, 255)'/>
	<use xlink:href='#gpPt5' transform='translate(114.6,162.5) scale(2.25)' color='rgb(  0,   0, 255)'/>
	<use xlink:href='#gpPt5' transform='translate(115.2,166.1) scale(2.25)' color='rgb(  0,   0, 255)'/>
	<use xlink:href='#gpPt5' transform='translate(115.9,169.5) scale(2.25)' color='rgb(  0,   0, 255)'/>
	<use xlink:href='#gpPt5' transform='translate(116.5,172.6) scale(2.25)' color='rgb(  0,   0, 255)'/>
	<use xlink:href='#gpPt5' transform='translate(122.9,194.0) scale(2.25)' color='rgb(  0,   0, 255)'/>
	<use xlink:href='#gpPt5' transform='translate(129.3,205.8) scale(2.25)' color='rgb(  0,   0, 255)'/>
	<use xlink:href='#gpPt5' transform='translate(135.7,213.7) scale(2.25)' color='rgb(  0,   0, 255)'/>
	<use xlink:href='#gpPt5' transform='translate(142.1,220.0) scale(2.25)' color='rgb(  0,   0, 255)'/>
	<use xlink:href='#gpPt5' transform='translate(154.9,230.9) scale(2.25)' color='rgb(  0,   0, 255)'/>
	<use xlink:href='#gpPt5' transform='translate(167.7,241.3) scale(2.25)' color='rgb(  0,   0, 255)'/>
	<use xlink:href='#gpPt5' transform='translate(180.5,251.6) scale(2.25)' color='rgb(  0,   0, 255)'/>
	<use xlink:href='#gpPt5' transform='translate(193.2,262.0) scale(2.25)' color='rgb(  0,   0, 255)'/>
	<use xlink:href='#gpPt5' transform='translate(206.0,272.6) scale(2.25)' color='rgb(  0,   0, 255)'/>
	<use xlink:href='#gpPt5' transform='translate(218.8,283.3) scale(2.25)' color='rgb(  0,   0, 255)'/>
	<use xlink:href='#gpPt5' transform='translate(231.6,294.2) scale(2.25)' color='rgb(  0,   0, 255)'/>
	<use xlink:href='#gpPt5' transform='translate(244.4,305.2) scale(2.25)' color='rgb(  0,   0, 255)'/>
	<use xlink:href='#gpPt5' transform='translate(257.2,316.2) scale(2.25)' color='rgb(  0,   0, 255)'/>
	<use xlink:href='#gpPt5' transform='translate(270.0,327.2) scale(2.25)' color='rgb(  0,   0, 255)'/>
	<use xlink:href='#gpPt5' transform='translate(282.8,338.3) scale(2.25)' color='rgb(  0,   0, 255)'/>
	<use xlink:href='#gpPt5' transform='translate(295.6,349.3) scale(2.25)' color='rgb(  0,   0, 255)'/>
	<use xlink:href='#gpPt5' transform='translate(308.4,360.3) scale(2.25)' color='rgb(  0,   0, 255)'/>
	<use xlink:href='#gpPt5' transform='translate(321.2,371.2) scale(2.25)' color='rgb(  0,   0, 255)'/>
	<use xlink:href='#gpPt5' transform='translate(334.0,382.1) scale(2.25)' color='rgb(  0,   0, 255)'/>
	<use xlink:href='#gpPt5' transform='translate(346.8,392.8) scale(2.25)' color='rgb(  0,   0, 255)'/>
	<use xlink:href='#gpPt5' transform='translate(359.5,403.4) scale(2.25)' color='rgb(  0,   0, 255)'/>
	<use xlink:href='#gpPt5' transform='translate(372.3,413.9) scale(2.25)' color='rgb(  0,   0, 255)'/>
	<use xlink:href='#gpPt5' transform='translate(385.1,424.2) scale(2.25)' color='rgb(  0,   0, 255)'/>
	<use xlink:href='#gpPt5' transform='translate(397.9,434.4) scale(2.25)' color='rgb(  0,   0, 255)'/>
	<use xlink:href='#gpPt5' transform='translate(410.7,444.5) scale(2.25)' color='rgb(  0,   0, 255)'/>
	<use xlink:href='#gpPt5' transform='translate(423.5,454.3) scale(2.25)' color='rgb(  0,   0, 255)'/>
	<use xlink:href='#gpPt5' transform='translate(436.3,464.0) scale(2.25)' color='rgb(  0,   0, 255)'/>
	<use xlink:href='#gpPt5' transform='translate(449.1,473.6) scale(2.25)' color='rgb(  0,   0, 255)'/>
	<use xlink:href='#gpPt5' transform='translate(461.9,483.0) scale(2.25)' color='rgb(  0,   0, 255)'/>
	<use xlink:href='#gpPt5' transform='translate(474.7,492.2) scale(2.25)' color='rgb(  0,   0, 255)'/>
	<use xlink:href='#gpPt5' transform='translate(487.5,501.2) scale(2.25)' color='rgb(  0,   0, 255)'/>
	<use xlink:href='#gpPt5' transform='translate(500.3,510.0) scale(2.25)' color='rgb(  0,   0, 255)'/>
	<use xlink:href='#gpPt5' transform='translate(513.1,518.6) scale(2.25)' color='rgb(  0,   0, 255)'/>
	<use xlink:href='#gpPt5' transform='translate(525.8,527.1) scale(2.25)' color='rgb(  0,   0, 255)'/>
	<use xlink:href='#gpPt5' transform='translate(538.6,535.2) scale(2.25)' color='rgb(  0,   0, 255)'/>
	<use xlink:href='#gpPt5' transform='translate(551.4,543.2) scale(2.25)' color='rgb(  0,   0, 255)'/>
	<use xlink:href='#gpPt5' transform='translate(564.2,551.0) scale(2.25)' color='rgb(  0,   0, 255)'/>
	<use xlink:href='#gpPt5' transform='translate(577.0,558.6) scale(2.25)' color='rgb(  0,   0, 255)'/>
	<use xlink:href='#gpPt5' transform='translate(589.8,565.9) scale(2.25)' color='rgb(  0,   0, 255)'/>
	<use xlink:href='#gpPt5' transform='translate(602.6,573.0) scale(2.25)' color='rgb(  0,   0, 255)'/>
	<use xlink:href='#gpPt5' transform='translate(615.4,579.8) scale(2.25)' color='rgb(  0,   0, 255)'/>
	<use xlink:href='#gpPt5' transform='translate(628.2,586.4) scale(2.25)' color='rgb(  0,   0, 255)'/>
	<use xlink:href='#gpPt5' transform='translate(641.0,592.7) scale(2.25)' color='rgb(  0,   0, 255)'/>
	<use xlink:href='#gpPt5' transform='translate(653.8,598.8) scale(2.25)' color='rgb(  0,   0, 255)'/>
	<use xlink:href='#gpPt5' transform='translate(666.6,604.5) scale(2.25)' color='rgb(  0,   0, 255)'/>
	<use xlink:href='#gpPt5' transform='translate(679.4,610.1) scale(2.25)' color='rgb(  0,   0, 255)'/>
	<use xlink:href='#gpPt5' transform='translate(692.1,615.3) scale(2.25)' color='rgb(  0,   0, 255)'/>
	<use xlink:href='#gpPt5' transform='translate(704.9,620.2) scale(2.25)' color='rgb(  0,   0, 255)'/>
	<use xlink:href='#gpPt5' transform='translate(717.7,624.7) scale(2.25)' color='rgb(  0,   0, 255)'/>
	<use xlink:href='#gpPt5' transform='translate(730.5,629.0) scale(2.25)' color='rgb(  0,   0, 255)'/>
	<use xlink:href='#gpPt5' transform='translate(743.3,633.0) scale(2.25)' color='rgb(  0,   0, 255)'/>
	<use xlink:href='#gpPt5' transform='translate(756.1,636.6) scale(2.25)' color='rgb(  0,   0, 255)'/>
	<use xlink:href='#gpPt5' transform='translate(768.9,639.9) scale(2.25)' color='rgb(  0,   0, 255)'/>
	<use xlink:href='#gpPt5' transform='translate(781.7,642.9) scale(2.25)' color='rgb(  0,   0, 255)'/>
	<use xlink:href='#gpPt5' transform='translate(794.5,645.6) scale(2.25)' color='rgb(  0,   0, 255)'/>
	<use xlink:href='#gpPt5' transform='translate(807.3,647.9) scale(2.25)' color='rgb(  0,   0, 255)'/>
	<use xlink:href='#gpPt5' transform='translate(820.1,649.9) scale(2.25)' color='rgb(  0,   0, 255)'/>
	<use xlink:href='#gpPt5' transform='translate(832.9,651.6) scale(2.25)' color='rgb(  0,   0, 255)'/>
	<use xlink:href='#gpPt5' transform='translate(845.6,653.0) scale(2.25)' color='rgb(  0,   0, 255)'/>
	<use xlink:href='#gpPt5' transform='translate(858.4,654.1) scale(2.25)' color='rgb(  0,   0, 255)'/>
	<use xlink:href='#gpPt5' transform='translate(871.2,654.7) scale(2.25)' color='rgb(  0,   0, 255)'/>
	<use xlink:href='#gpPt5' transform='translate(884.0,655.1) scale(2.25)' color='rgb(  0,   0, 255)'/>
	<use xlink:href='#gpPt5' transform='translate(896.8,655.2) scale(2.25)' color='rgb(  0,   0, 255)'/>
	<use xlink:href='#gpPt5' transform='translate(909.6,655.0) scale(2.25)' color='rgb(  0,   0, 255)'/>
	<use xlink:href='#gpPt5' transform='translate(922.4,654.5) scale(2.25)' color='rgb(  0,   0, 255)'/>
	<use xlink:href='#gpPt5' transform='translate(935.2,653.6) scale(2.25)' color='rgb(  0,   0, 255)'/>
	<use xlink:href='#gpPt5' transform='translate(948.0,652.6) scale(2.25)' color='rgb(  0,   0, 255)'/>
	<use xlink:href='#gpPt5' transform='translate(960.8,651.2) scale(2.25)' color='rgb(  0,   0, 255)'/>
	<use xlink:href='#gpPt5' transform='translate(973.6,649.6) scale(2.25)' color='rgb(  0,   0, 255)'/>
	<use xlink:href='#gpPt5' transform='translate(986.4,647.7) scale(2.25)' color='rgb(  0,   0, 255)'/>
	<use xlink:href='#gpPt5' transform='translate(999.2,645.6) scale(2.25)' color='rgb(  0,   0, 255)'/>
	<use xlink:href='#gpPt5' transform='translate(1011.9,643.3) scale(2.25)' color='rgb(  0,   0, 255)'/>
	<use xlink:href='#gpPt5' transform='translate(1024.7,640.7) scale(2.25)' color='rgb(  0,   0, 255)'/>
	<use xlink:href='#gpPt5' transform='translate(1037.5,638.1) scale(2.25)' color='rgb(  0,   0, 255)'/>
	<use xlink:href='#gpPt5' transform='translate(1050.3,635.3) scale(2.25)' color='rgb(  0,   0, 255)'/>
	<use xlink:href='#gpPt5' transform='translate(1063.1,632.4) scale(2.25)' color='rgb(  0,   0, 255)'/>
	<use xlink:href='#gpPt5' transform='translate(1075.9,629.5) scale(2.25)' color='rgb(  0,   0, 255)'/>
	<use xlink:href='#gpPt5' transform='translate(1088.7,626.7) scale(2.25)' color='rgb(  0,   0, 255)'/>
	<use xlink:href='#gpPt5' transform='translate(1101.5,624.1) scale(2.25)' color='rgb(  0,   0, 255)'/>
	<use xlink:href='#gpPt5' transform='translate(1114.3,621.8) scale(2.25)' color='rgb(  0,   0, 255)'/>
	<use xlink:href='#gpPt5' transform='translate(1127.1,619.8) scale(2.25)' color='rgb(  0,   0, 255)'/>
	<use xlink:href='#gpPt5' transform='translate(1139.9,618.5) scale(2.25)' color='rgb(  0,   0, 255)'/>
	<use xlink:href='#gpPt5' transform='translate(1152.7,618.1) scale(2.25)' color='rgb(  0,   0, 255)'/>
	<use xlink:href='#gpPt5' transform='translate(1165.5,618.6) scale(2.25)' color='rgb(  0,   0, 255)'/>
	<use xlink:href='#gpPt5' transform='translate(1178.2,619.5) scale(2.25)' color='rgb(  0,   0, 255)'/>
	<use xlink:href='#gpPt5' transform='translate(1191.0,620.4) scale(2.25)' color='rgb(  0,   0, 255)'/>
	<use xlink:href='#gpPt5' transform='translate(1203.8,620.6) scale(2.25)' color='rgb(  0,   0, 255)'/>
	<use xlink:href='#gpPt5' transform='translate(1216.6,619.1) scale(2.25)' color='rgb(  0,   0, 255)'/>
	<use xlink:href='#gpPt5' transform='translate(1229.4,616.3) scale(2.25)' color='rgb(  0,   0, 255)'/>
	<use xlink:href='#gpPt5' transform='translate(1242.2,613.6) scale(2.25)' color='rgb(  0,   0, 255)'/>
	<use xlink:href='#gpPt5' transform='translate(1255.0,612.0) scale(2.25)' color='rgb(  0,   0, 255)'/>
</g>
	</g>
	<g id="gnuplot_plot_4" ><title>fit</title>
<g fill="none" color="black" stroke="currentColor" stroke-width="1.00" stroke-linecap="butt" stroke-linejoin="miter">
	<g transform="translate(1187.9,94.0)" stroke="none" fill="black" font-family="Arial" font-size="12.00"  text-anchor="end">
		<text><tspan font-family="Arial" >fit</tspan></text>
	</g>
</g>
<g fill="none" color="black" stroke="currentColor" stroke-width="1.00" stroke-linecap="butt" stroke-linejoin="miter">
	<path stroke='rgb(255,   0,   0)'  d='M1196.2,90.1 L1238.4,90.1 M103.7,105.4 L104.8,107.8 L106.0,114.4 L107.1,124.3 L108.2,135.9 L109.3,148.1
		L110.5,160.2 L111.6,171.5 L112.7,181.8 L113.8,191.0 L115.0,199.0 L116.1,205.9 L117.2,211.8 L118.3,216.9
		L119.5,221.2 L120.6,225.0 L121.7,228.2 L122.8,231.0 L124.0,233.4 L125.1,235.6 L126.2,237.5 L127.3,239.2
		L128.5,240.7 L129.6,242.1 L130.7,243.4 L131.8,244.6 L133.0,245.7 L134.1,246.8 L135.2,247.8 L136.3,248.7
		L137.5,249.7 L138.6,250.6 L139.7,251.5 L140.8,252.3 L142.0,253.2 L143.1,254.0 L144.2,254.9 L145.3,255.7
		L146.5,256.6 L147.6,257.4 L148.7,258.2 L149.8,259.1 L151.0,259.9 L152.1,260.8 L153.2,261.6 L154.3,262.5
		L155.5,263.3 L156.6,264.2 L157.7,265.1 L158.8,265.9 L160.0,266.8 L161.1,267.7 L162.2,268.6 L163.3,269.5
		L164.5,270.4 L165.6,271.4 L166.7,272.3 L167.8,273.2 L169.0,274.2 L170.1,275.1 L171.2,276.1 L172.4,277.1
		L173.5,278.0 L174.6,279.0 L175.7,280.0 L176.9,281.0 L178.0,282.0 L179.1,283.0 L180.2,284.0 L181.4,285.1
		L182.5,286.1 L183.6,287.1 L184.7,288.2 L185.9,289.2 L187.0,290.3 L188.1,291.3 L189.2,292.4 L190.4,293.5
		L191.5,294.5 L192.6,295.6 L193.7,296.7 L194.9,297.8 L196.0,298.9 L197.1,299.9 L198.2,301.0 L199.4,302.1
		L200.5,303.2 L201.6,304.4 L202.7,305.5 L203.9,306.6 L205.0,307.7 L206.1,308.8 L207.2,309.9 L208.4,311.1
		L209.5,312.2 L210.6,313.3 L211.7,314.4 L212.9,315.6 L214.0,316.7 L215.1,317.8 L216.2,319.0 L217.4,320.1
		L218.5,321.3 L219.6,322.4 L220.7,323.6 L221.9,324.7 L223.0,325.8 L224.1,327.0 L225.2,328.1 L226.4,329.3
		L227.5,330.4 L228.6,331.6 L229.7,332.7 L230.9,333.9 L232.0,335.0 L233.1,336.2 L234.2,337.3 L235.4,338.5
		L236.5,339.6 L237.6,340.8 L238.7,341.9 L239.9,343.1 L241.0,344.2 L242.1,345.4 L243.3,346.5 L244.4,347.6
		L245.5,348.8 L246.6,349.9 L247.8,351.1 L248.9,352.2 L250.0,353.3 L251.1,354.5 L252.3,355.6 L253.4,356.8
		L254.5,357.9 L255.6,359.0 L256.8,360.2 L257.9,361.3 L259.0,362.4 L260.1,363.5 L261.3,364.7 L262.4,365.8
		L263.5,366.9 L264.6,368.0 L265.8,369.2 L266.9,370.3 L268.0,371.4 L269.1,372.5 L270.3,373.6 L271.4,374.7
		L272.5,375.8 L273.6,376.9 L274.8,378.0 L275.9,379.1 L277.0,380.2 L278.1,381.3 L279.3,382.4 L280.4,383.5
		L281.5,384.6 L282.6,385.7 L283.8,386.8 L284.9,387.9 L286.0,388.9 L287.1,390.0 L288.3,391.1 L289.4,392.2
		L290.5,393.2 L291.6,394.3 L292.8,395.4 L293.9,396.4 L295.0,397.5 L296.1,398.6 L297.3,399.6 L298.4,400.7
		L299.5,401.7 L300.6,402.8 L301.8,403.8 L302.9,404.9 L304.0,405.9 L305.1,406.9 L306.3,408.0 L307.4,409.0
		L308.5,410.0 L309.7,411.1 L310.8,412.1 L311.9,413.1 L313.0,414.1 L314.2,415.1 L315.3,416.2 L316.4,417.2
		L317.5,418.2 L318.7,419.2 L319.8,420.2 L320.9,421.2 L322.0,422.2 L323.2,423.2 L324.3,424.2 L325.4,425.2
		L326.5,426.2 L327.7,427.1 L328.8,428.1 L329.9,429.1 L331.0,430.1 L332.2,431.0 L333.3,432.0 L334.4,433.0
		L335.5,434.0 L336.7,434.9 L337.8,435.9 L338.9,436.8 L340.0,437.8 L341.2,438.7 L342.3,439.7 L343.4,440.6
		L344.5,441.6 L345.7,442.5 L346.8,443.5 L347.9,444.4 L349.0,445.3 L350.2,446.3 L351.3,447.2 L352.4,448.1
		L353.5,449.0 L354.7,450.0 L355.8,450.9 L356.9,451.8 L358.0,452.7 L359.2,453.6 L360.3,454.5 L361.4,455.4
		L362.5,456.3 L363.7,457.2 L364.8,458.1 L365.9,459.0 L367.0,459.9 L368.2,460.8 L369.3,461.7 L370.4,462.5
		L371.5,463.4 L372.7,464.3 L373.8,465.2 L374.9,466.1 L376.1,466.9 L377.2,467.8 L378.3,468.7 L379.4,469.5
		L380.6,470.4 L381.7,471.2 L382.8,472.1 L383.9,472.9 L385.1,473.8 L386.2,474.6 L387.3,475.5 L388.4,476.3
		L389.6,477.2 L390.7,478.0 L391.8,478.8 L392.9,479.7 L394.1,480.5 L395.2,481.3 L396.3,482.1 L397.4,483.0
		L398.6,483.8 L399.7,484.6 L400.8,485.4 L401.9,486.2 L403.1,487.0 L404.2,487.8 L405.3,488.6 L406.4,489.4
		L407.6,490.2 L408.7,491.0 L409.8,491.8 L410.9,492.6 L412.1,493.4 L413.2,494.2 L414.3,495.0 L415.4,495.8
		L416.6,496.5 L417.7,497.3 L418.8,498.1 L419.9,498.9 L421.1,499.6 L422.2,500.4 L423.3,501.2 L424.4,501.9
		L425.6,502.7 L426.7,503.5 L427.8,504.2 L428.9,505.0 L430.1,505.7 L431.2,506.5 L432.3,507.2 L433.4,508.0
		L434.6,508.7 L435.7,509.5 L436.8,510.2 L437.9,510.9 L439.1,511.7 L440.2,512.4 L441.3,513.1 L442.5,513.9
		L443.6,514.6 L444.7,515.3 L445.8,516.0 L447.0,516.7 L448.1,517.5 L449.2,518.2 L450.3,518.9 L451.5,519.6
		L452.6,520.3 L453.7,521.0 L454.8,521.7 L456.0,522.4 L457.1,523.1 L458.2,523.8 L459.3,524.5 L460.5,525.2
		L461.6,525.9 L462.7,526.6 L463.8,527.3 L465.0,528.0 L466.1,528.6 L467.2,529.3 L468.3,530.0 L469.5,530.7
		L470.6,531.4 L471.7,532.0 L472.8,532.7 L474.0,533.4 L475.1,534.0 L476.2,534.7 L477.3,535.4 L478.5,536.0
		L479.6,536.7 L480.7,537.3 L481.8,538.0 L483.0,538.7 L484.1,539.3 L485.2,540.0 L486.3,540.6 L487.5,541.2
		L488.6,541.9 L489.7,542.5 L490.8,543.2 L492.0,543.8 L493.1,544.4 L494.2,545.1 L495.3,545.7 L496.5,546.3
		L497.6,547.0 L498.7,547.6 L499.8,548.2 L501.0,548.8 L502.1,549.5 L503.2,550.1 L504.3,550.7 L505.5,551.3
		L506.6,551.9 L507.7,552.5 L508.8,553.1 L510.0,553.8 L511.1,554.4 L512.2,555.0 L513.4,555.6 L514.5,556.2
		L515.6,556.8 L516.7,557.4 L517.9,558.0 L519.0,558.6 L520.1,559.1 L521.2,559.7 L522.4,560.3 L523.5,560.9
		L524.6,561.5 L525.7,562.1 L526.9,562.7 L528.0,563.2 L529.1,563.8 L530.2,564.4 L531.4,565.0 L532.5,565.5
		L533.6,566.1 L534.7,566.7 L535.9,567.2 L537.0,567.8 L538.1,568.4 L539.2,568.9 L540.4,569.5 L541.5,570.1
		L542.6,570.6 L543.7,571.2 L544.9,571.7 L546.0,572.3 L547.1,572.8 L548.2,573.4 L549.4,573.9 L550.5,574.5
		L551.6,575.0 L552.7,575.5 L553.9,576.1 L555.0,576.6 L556.1,577.2 L557.2,577.7 L558.4,578.2 L559.5,578.8
		L560.6,579.3 L561.7,579.8 L562.9,580.4 L564.0,580.9 L565.1,581.4 L566.2,581.9 L567.4,582.4 L568.5,583.0
		L569.6,583.5 L570.7,584.0 L571.9,584.5 L573.0,585.0 L574.1,585.5 L575.2,586.1 L576.4,586.6 L577.5,587.1
		L578.6,587.6 L579.8,588.1 L580.9,588.6 L582.0,589.1 L583.1,589.6 L584.3,590.1 L585.4,590.6 L586.5,591.1
		L587.6,591.6 L588.8,592.1 L589.9,592.5 L591.0,593.0 L592.1,593.5 L593.3,594.0 L594.4,594.5 L595.5,595.0
		L596.6,595.5 L597.8,595.9 L598.9,596.4 L600.0,596.9 L601.1,597.4 L602.3,597.8 L603.4,598.3 L604.5,598.8
		L605.6,599.3 L606.8,599.7 L607.9,600.2 L609.0,600.7 L610.1,601.1 L611.3,601.6 L612.4,602.0 L613.5,602.5
		L614.6,603.0 L615.8,603.4 L616.9,603.9 L618.0,604.3 L619.1,604.8 L620.3,605.2 L621.4,605.7 L622.5,606.1
		L623.6,606.6 L624.8,607.0 L625.9,607.5 L627.0,607.9 L628.1,608.3 L629.3,608.8 L630.4,609.2 L631.5,609.7
		L632.6,610.1 L633.8,610.5 L634.9,611.0 L636.0,611.4 L637.1,611.8 L638.3,612.2 L639.4,612.7 L640.5,613.1
		L641.6,613.5 L642.8,613.9 L643.9,614.4 L645.0,614.8 L646.2,615.2 L647.3,615.6 L648.4,616.0 L649.5,616.5
		L650.7,616.9 L651.8,617.3 L652.9,617.7 L654.0,618.1 L655.2,618.5 L656.3,618.9 L657.4,619.3 L658.5,619.7
		L659.7,620.1 L660.8,620.5 L661.9,620.9 L663.0,621.3 L664.2,621.7 L665.3,622.1 L666.4,622.5 L667.5,622.9
		L668.7,623.3 L669.8,623.7 L670.9,624.1 L672.0,624.5 L673.2,624.9 L674.3,625.2 L675.4,625.6 L676.5,626.0
		L677.7,626.4 L678.8,626.8 L679.9,627.2 L681.0,627.5 L682.2,627.9 L683.3,628.3 L684.4,628.7 L685.5,629.0
		L686.7,629.4 L687.8,629.8 L688.9,630.1 L690.0,630.5 L691.2,630.9 L692.3,631.2 L693.4,631.6 L694.5,632.0
		L695.7,632.3 L696.8,632.7 L697.9,633.0 L699.0,633.4 L700.2,633.8 L701.3,634.1 L702.4,634.5 L703.5,634.8
		L704.7,635.2 L705.8,635.5 L706.9,635.9 L708.0,636.2 L709.2,636.6 L710.3,636.9 L711.4,637.3 L712.5,637.6
		L713.7,637.9 L714.8,638.3 L715.9,638.6 L717.1,639.0 L718.2,639.3 L719.3,639.6 L720.4,640.0 L721.6,640.3
		L722.7,640.6 L723.8,640.9 L724.9,641.3 L726.1,641.6 L727.2,641.9 L728.3,642.3 L729.4,642.6 L730.6,642.9
		L731.7,643.2 L732.8,643.5 L733.9,643.9 L735.1,644.2 L736.2,644.5 L737.3,644.8 L738.4,645.1 L739.6,645.4
		L740.7,645.7 L741.8,646.0 L742.9,646.4 L744.1,646.7 L745.2,647.0 L746.3,647.3 L747.4,647.6 L748.6,647.9
		L749.7,648.2 L750.8,648.5 L751.9,648.8 L753.1,649.1 L754.2,649.4 L755.3,649.7 L756.4,650.0 L757.6,650.3
		L758.7,650.5 L759.8,650.8 L760.9,651.1 L762.1,651.4 L763.2,651.7 L764.3,652.0 L765.4,652.3 L766.6,652.5
		L767.7,652.8 L768.8,653.1 L769.9,653.4 L771.1,653.7 L772.2,653.9 L773.3,654.2 L774.4,654.5 L775.6,654.8
		L776.7,655.0 L777.8,655.3 L778.9,655.6 L780.1,655.8 L781.2,656.1 L782.3,656.4 L783.5,656.6 L784.6,656.9
		L785.7,657.1 L786.8,657.4 L788.0,657.7 L789.1,657.9 L790.2,658.2 L791.3,658.4 L792.5,658.7 L793.6,658.9
		L794.7,659.2 L795.8,659.4 L797.0,659.7 L798.1,659.9 L799.2,660.2 L800.3,660.4 L801.5,660.7 L802.6,660.9
		L803.7,661.1 L804.8,661.4 L806.0,661.6 L807.1,661.9 L808.2,662.1 L809.3,662.3 L810.5,662.6 L811.6,662.8
		L812.7,663.0 L813.8,663.2 L815.0,663.5 L816.1,663.7 L817.2,663.9 L818.3,664.1 L819.5,664.4 L820.6,664.6
		L821.7,664.8 L822.8,665.0 L824.0,665.2 L825.1,665.5 L826.2,665.7 L827.3,665.9 L828.5,666.1 L829.6,666.3
		L830.7,666.5 L831.8,666.7 L833.0,666.9 L834.1,667.1 L835.2,667.3 L836.3,667.5 L837.5,667.7 L838.6,667.9
		L839.7,668.1 L840.8,668.3 L842.0,668.5 L843.1,668.7 L844.2,668.9 L845.3,669.1 L846.5,669.3 L847.6,669.5
		L848.7,669.7 L849.9,669.9 L851.0,670.0 L852.1,670.2 L853.2,670.4 L854.4,670.6 L855.5,670.8 L856.6,670.9
		L857.7,671.1 L858.9,671.3 L860.0,671.5 L861.1,671.6 L862.2,671.8 L863.4,672.0 L864.5,672.1 L865.6,672.3
		L866.7,672.5 L867.9,672.6 L869.0,672.8 L870.1,672.9 L871.2,673.1 L872.4,673.3 L873.5,673.4 L874.6,673.6
		L875.7,673.7 L876.9,673.9 L878.0,674.0 L879.1,674.2 L880.2,674.3 L881.4,674.5 L882.5,674.6 L883.6,674.7
		L884.7,674.9 L885.9,675.0 L887.0,675.2 L888.1,675.3 L889.2,675.4 L890.4,675.6 L891.5,675.7 L892.6,675.8
		L893.7,676.0 L894.9,676.1 L896.0,676.2 L897.1,676.3 L898.2,676.5 L899.4,676.6 L900.5,676.7 L901.6,676.8
		L902.7,676.9 L903.9,677.0 L905.0,677.1 L906.1,677.3 L907.2,677.4 L908.4,677.5 L909.5,677.6 L910.6,677.7
		L911.7,677.8 L912.9,677.9 L914.0,678.0 L915.1,678.1 L916.2,678.2 L917.4,678.3 L918.5,678.4 L919.6,678.5
		L920.8,678.5 L921.9,678.6 L923.0,678.7 L924.1,678.8 L925.3,678.9 L926.4,679.0 L927.5,679.0 L928.6,679.1
		L929.8,679.2 L930.9,679.3 L932.0,679.3 L933.1,679.4 L934.3,679.5 L935.4,679.5 L936.5,679.6 L937.6,679.7
		L938.8,679.7 L939.9,679.8 L941.0,679.8 L942.1,679.9 L943.3,680.0 L944.4,680.0 L945.5,680.1 L946.6,680.1
		L947.8,680.2 L948.9,680.2 L950.0,680.2 L951.1,680.3 L952.3,680.3 L953.4,680.4 L954.5,680.4 L955.6,680.4
		L956.8,680.5 L957.9,680.5 L959.0,680.5 L960.1,680.5 L961.3,680.6 L962.4,680.6 L963.5,680.6 L964.6,680.6
		L965.8,680.6 L966.9,680.6 L968.0,680.7 L969.1,680.7 L970.3,680.7 L971.4,680.7 L972.5,680.7 L973.6,680.7
		L974.8,680.7 L975.9,680.7 L977.0,680.7 L978.1,680.7 L979.3,680.7 L980.4,680.7 L981.5,680.6 L982.6,680.6
		L983.8,680.6 L984.9,680.6 L986.0,680.6 L987.2,680.5 L988.3,680.5 L989.4,680.5 L990.5,680.5 L991.7,680.4
		L992.8,680.4 L993.9,680.4 L995.0,680.3 L996.2,680.3 L997.3,680.2 L998.4,680.2 L999.5,680.1 L1000.7,680.1
		L1001.8,680.0 L1002.9,680.0 L1004.0,679.9 L1005.2,679.9 L1006.3,679.8 L1007.4,679.8 L1008.5,679.7 L1009.7,679.6
		L1010.8,679.6 L1011.9,679.5 L1013.0,679.4 L1014.2,679.3 L1015.3,679.3 L1016.4,679.2 L1017.5,679.1 L1018.7,679.0
		L1019.8,678.9 L1020.9,678.8 L1022.0,678.7 L1023.2,678.6 L1024.3,678.6 L1025.4,678.5 L1026.5,678.4 L1027.7,678.2
		L1028.8,678.1 L1029.9,678.0 L1031.0,677.9 L1032.2,677.8 L1033.3,677.7 L1034.4,677.6 L1035.5,677.5 L1036.7,677.3
		L1037.8,677.2 L1038.9,677.1 L1040.0,677.0 L1041.2,676.8 L1042.3,676.7 L1043.4,676.6 L1044.5,676.4 L1045.7,676.3
		L1046.8,676.1 L1047.9,676.0 L1049.0,675.9 L1050.2,675.7 L1051.3,675.5 L1052.4,675.4 L1053.6,675.2 L1054.7,675.1
		L1055.8,674.9 L1056.9,674.8 L1058.1,674.6 L1059.2,674.4 L1060.3,674.3 L1061.4,674.1 L1062.6,673.9 L1063.7,673.7
		L1064.8,673.6 L1065.9,673.4 L1067.1,673.2 L1068.2,673.0 L1069.3,672.8 L1070.4,672.6 L1071.6,672.4 L1072.7,672.2
		L1073.8,672.0 L1074.9,671.9 L1076.1,671.7 L1077.2,671.4 L1078.3,671.2 L1079.4,671.0 L1080.6,670.8 L1081.7,670.6
		L1082.8,670.4 L1083.9,670.2 L1085.1,670.0 L1086.2,669.8 L1087.3,669.5 L1088.4,669.3 L1089.6,669.1 L1090.7,668.9
		L1091.8,668.6 L1092.9,668.4 L1094.1,668.2 L1095.2,667.9 L1096.3,667.7 L1097.4,667.5 L1098.6,667.2 L1099.7,667.0
		L1100.8,666.7 L1101.9,666.5 L1103.1,666.3 L1104.2,666.0 L1105.3,665.8 L1106.4,665.5 L1107.6,665.3 L1108.7,665.0
		L1109.8,664.8 L1110.9,664.5 L1112.1,664.2 L1113.2,664.0 L1114.3,663.7 L1115.4,663.5 L1116.6,663.2 L1117.7,662.9
		L1118.8,662.7 L1120.0,662.4 L1121.1,662.1 L1122.2,661.9 L1123.3,661.6 L1124.5,661.3 L1125.6,661.1 L1126.7,660.8
		L1127.8,660.5 L1129.0,660.2 L1130.1,660.0 L1131.2,659.7 L1132.3,659.4 L1133.5,659.1 L1134.6,658.9 L1135.7,658.6
		L1136.8,658.3 L1138.0,658.0 L1139.1,657.8 L1140.2,657.5 L1141.3,657.2 L1142.5,656.9 L1143.6,656.6 L1144.7,656.4
		L1145.8,656.1 L1147.0,655.8 L1148.1,655.5 L1149.2,655.2 L1150.3,655.0 L1151.5,654.7 L1152.6,654.4 L1153.7,654.1
		L1154.8,653.9 L1156.0,653.6 L1157.1,653.3 L1158.2,653.0 L1159.3,652.7 L1160.5,652.5 L1161.6,652.2 L1162.7,651.9
		L1163.8,651.7 L1165.0,651.4 L1166.1,651.1 L1167.2,650.8 L1168.3,650.6 L1169.5,650.3 L1170.6,650.0 L1171.7,649.8
		L1172.8,649.5 L1174.0,649.3 L1175.1,649.0 L1176.2,648.7 L1177.3,648.5 L1178.5,648.2 L1179.6,648.0 L1180.7,647.7
		L1181.8,647.5 L1183.0,647.2 L1184.1,647.0 L1185.2,646.7 L1186.3,646.5 L1187.5,646.3 L1188.6,646.0 L1189.7,645.8
		L1190.9,645.6 L1192.0,645.3 L1193.1,645.1 L1194.2,644.9 L1195.4,644.7 L1196.5,644.5 L1197.6,644.2 L1198.7,644.0
		L1199.9,643.8 L1201.0,643.6 L1202.1,643.4 L1203.2,643.2 L1204.4,643.0 L1205.5,642.8 L1206.6,642.6 L1207.7,642.5
		L1208.9,642.3 L1210.0,642.1 L1211.1,641.9 L1212.2,641.8 L1213.4,641.6 L1214.5,641.4 L1215.6,641.3 L1216.7,641.1
		L1217.9,641.0 L1219.0,640.8 L1220.1,640.7 L1221.2,640.5 L1222.4,640.4 L1223.5,640.3 L1224.6,640.1 L1225.7,640.0
		L1226.9,639.9 L1228.0,639.8 L1229.1,639.7 L1230.2,639.6 L1231.4,639.5 L1232.5,639.4 L1233.6,639.3 L1234.7,639.2
		L1235.9,639.1 L1237.0,639.0 L1238.1,638.9 L1239.2,638.9 L1240.4,638.8 L1241.5,638.8 L1242.6,638.7 L1243.7,638.6
		L1244.9,638.6 L1246.0,638.6 L1247.1,638.5 L1248.2,638.5 L1249.4,638.5 L1250.5,638.4 L1251.6,638.4 L1252.7,638.4
		L1253.9,638.4 L1255.0,638.4  '/></g>
	</g>
	<g id="gnuplot_plot_5" ><title>gnuplot_plot_5</title>
<g fill="none" color="black" stroke="currentColor" stroke-width="1.00" stroke-linecap="butt" stroke-linejoin="miter">
	<path stroke='rgb(  0, 100,   0)'  d='M103.7,89.2 L104.8,92.2 L106.0,100.5 L107.1,112.5 L108.2,126.1 L109.3,140.0 L110.5,153.1 L111.6,164.8
		L112.7,175.1 L113.8,183.9 L115.0,191.3 L116.1,197.6 L117.2,202.8 L118.3,207.2 L119.5,210.9 L120.6,214.1
		L121.7,216.8 L122.8,219.1 L124.0,221.1 L125.1,222.8 L126.2,224.4 L127.3,225.8 L128.5,227.1 L129.6,228.3
		L130.7,229.4 L131.8,230.5 L133.0,231.5 L134.1,232.4 L135.2,233.3 L136.3,234.2 L137.5,235.1 L138.6,235.9
		L139.7,236.8 L140.8,237.6 L142.0,238.4 L143.1,239.2 L144.2,240.1 L145.3,240.9 L146.5,241.7 L147.6,242.6
		L148.7,243.4 L149.8,244.2 L151.0,245.1 L152.1,246.0 L153.2,246.8 L154.3,247.7 L155.5,248.6 L156.6,249.5
		L157.7,250.4 L158.8,251.3 L160.0,252.2 L161.1,253.1 L162.2,254.1 L163.3,255.0 L164.5,255.9 L165.6,256.9
		L166.7,257.9 L167.8,258.9 L169.0,259.8 L170.1,260.8 L171.2,261.8 L172.4,262.8 L173.5,263.9 L174.6,264.9
		L175.7,265.9 L176.9,267.0 L178.0,268.0 L179.1,269.1 L180.2,270.1 L181.4,271.2 L182.5,272.3 L183.6,273.3
		L184.7,274.4 L185.9,275.5 L187.0,276.6 L188.1,277.7 L189.2,278.8 L190.4,279.9 L191.5,281.1 L192.6,282.2
		L193.7,283.3 L194.9,284.4 L196.0,285.6 L197.1,286.7 L198.2,287.9 L199.4,289.0 L200.5,290.2 L201.6,291.3
		L202.7,292.5 L203.9,293.6 L205.0,294.8 L206.1,295.9 L207.2,297.1 L208.4,298.3 L209.5,299.5 L210.6,300.6
		L211.7,301.8 L212.9,303.0 L214.0,304.2 L215.1,305.3 L216.2,306.5 L217.4,307.7 L218.5,308.9 L219.6,310.1
		L220.7,311.3 L221.9,312.4 L223.0,313.6 L224.1,314.8 L225.2,316.0 L226.4,317.2 L227.5,318.4 L228.6,319.6
		L229.7,320.8 L230.9,321.9 L232.0,323.1 L233.1,324.3 L234.2,325.5 L235.4,326.7 L236.5,327.9 L237.6,329.1
		L238.7,330.2 L239.9,331.4 L241.0,332.6 L242.1,333.8 L243.3,335.0 L244.4,336.2 L245.5,337.3 L246.6,338.5
		L247.8,339.7 L248.9,340.9 L250.0,342.0 L251.1,343.2 L252.3,344.4 L253.4,345.6 L254.5,346.7 L255.6,347.9
		L256.8,349.1 L257.9,350.2 L259.0,351.4 L260.1,352.5 L261.3,353.7 L262.4,354.8 L263.5,356.0 L264.6,357.2
		L265.8,358.3 L266.9,359.4 L268.0,360.6 L269.1,361.7 L270.3,362.9 L271.4,364.0 L272.5,365.1 L273.6,366.3
		L274.8,367.4 L275.9,368.5 L277.0,369.7 L278.1,370.8 L279.3,371.9 L280.4,373.0 L281.5,374.1 L282.6,375.3
		L283.8,376.4 L284.9,377.5 L286.0,378.6 L287.1,379.7 L288.3,380.8 L289.4,381.9 L290.5,383.0 L291.6,384.1
		L292.8,385.2 L293.9,386.3 L295.0,387.3 L296.1,388.4 L297.3,389.5 L298.4,390.6 L299.5,391.7 L300.6,392.7
		L301.8,393.8 L302.9,394.9 L304.0,395.9 L305.1,397.0 L306.3,398.0 L307.4,399.1 L308.5,400.1 L309.7,401.2
		L310.8,402.2 L311.9,403.3 L313.0,404.3 L314.2,405.4 L315.3,406.4 L316.4,407.4 L317.5,408.4 L318.7,409.5
		L319.8,410.5 L320.9,411.5 L322.0,412.5 L323.2,413.5 L324.3,414.6 L325.4,415.6 L326.5,416.6 L327.7,417.6
		L328.8,418.6 L329.9,419.6 L331.0,420.6 L332.2,421.6 L333.3,422.5 L334.4,423.5 L335.5,424.5 L336.7,425.5
		L337.8,426.5 L338.9,427.4 L340.0,428.4 L341.2,429.4 L342.3,430.3 L343.4,431.3 L344.5,432.3 L345.7,433.2
		L346.8,434.2 L347.9,435.1 L349.0,436.1 L350.2,437.0 L351.3,438.0 L352.4,438.9 L353.5,439.8 L354.7,440.8
		L355.8,441.7 L356.9,442.6 L358.0,443.6 L359.2,444.5 L360.3,445.4 L361.4,446.3 L362.5,447.2 L363.7,448.1
		L364.8,449.0 L365.9,450.0 L367.0,450.9 L368.2,451.8 L369.3,452.7 L370.4,453.5 L371.5,454.4 L372.7,455.3
		L373.8,456.2 L374.9,457.1 L376.1,458.0 L377.2,458.9 L378.3,459.7 L379.4,460.6 L380.6,461.5 L381.7,462.3
		L382.8,463.2 L383.9,464.1 L385.1,464.9 L386.2,465.8 L387.3,466.6 L388.4,467.5 L389.6,468.3 L390.7,469.2
		L391.8,470.0 L392.9,470.9 L394.1,471.7 L395.2,472.6 L396.3,473.4 L397.4,474.2 L398.6,475.0 L399.7,475.9
		L400.8,476.7 L401.9,477.5 L403.1,478.3 L404.2,479.1 L405.3,480.0 L406.4,480.8 L407.6,481.6 L408.7,482.4
		L409.8,483.2 L410.9,484.0 L412.1,484.8 L413.2,485.6 L414.3,486.4 L415.4,487.2 L416.6,488.0 L417.7,488.7
		L418.8,489.5 L419.9,490.3 L421.1,491.1 L422.2,491.9 L423.3,492.6 L424.4,493.4 L425.6,494.2 L426.7,494.9
		L427.8,495.7 L428.9,496.5 L430.1,497.2 L431.2,498.0 L432.3,498.7 L433.4,499.5 L434.6,500.3 L435.7,501.0
		L436.8,501.7 L437.9,502.5 L439.1,503.2 L440.2,504.0 L441.3,504.7 L442.5,505.4 L443.6,506.2 L444.7,506.9
		L445.8,507.6 L447.0,508.4 L448.1,509.1 L449.2,509.8 L450.3,510.5 L451.5,511.2 L452.6,512.0 L453.7,512.7
		L454.8,513.4 L456.0,514.1 L457.1,514.8 L458.2,515.5 L459.3,516.2 L460.5,516.9 L461.6,517.6 L462.7,518.3
		L463.8,519.0 L465.0,519.7 L466.1,520.4 L467.2,521.0 L468.3,521.7 L469.5,522.4 L470.6,523.1 L471.7,523.8
		L472.8,524.4 L474.0,525.1 L475.1,525.8 L476.2,526.5 L477.3,527.1 L478.5,527.8 L479.6,528.5 L480.7,529.1
		L481.8,529.8 L483.0,530.4 L484.1,531.1 L485.2,531.7 L486.3,532.4 L487.5,533.1 L488.6,533.7 L489.7,534.3
		L490.8,535.0 L492.0,535.6 L493.1,536.3 L494.2,536.9 L495.3,537.5 L496.5,538.2 L497.6,538.8 L498.7,539.4
		L499.8,540.1 L501.0,540.7 L502.1,541.3 L503.2,541.9 L504.3,542.6 L505.5,543.2 L506.6,543.8 L507.7,544.4
		L508.8,545.0 L510.0,545.6 L511.1,546.2 L512.2,546.9 L513.4,547.5 L514.5,548.1 L515.6,548.7 L516.7,549.3
		L517.9,549.9 L519.0,550.5 L520.1,551.1 L521.2,551.7 L522.4,552.2 L523.5,552.8 L524.6,553.4 L525.7,554.0
		L526.9,554.6 L528.0,555.2 L529.1,555.8 L530.2,556.3 L531.4,556.9 L532.5,557.5 L533.6,558.1 L534.7,558.6
		L535.9,559.2 L537.0,559.8 L538.1,560.3 L539.2,560.9 L540.4,561.5 L541.5,562.0 L542.6,562.6 L543.7,563.1
		L544.9,563.7 L546.0,564.2 L547.1,564.8 L548.2,565.4 L549.4,565.9 L550.5,566.5 L551.6,567.0 L552.7,567.5
		L553.9,568.1 L555.0,568.6 L556.1,569.2 L557.2,569.7 L558.4,570.2 L559.5,570.8 L560.6,571.3 L561.7,571.8
		L562.9,572.4 L564.0,572.9 L565.1,573.4 L566.2,573.9 L567.4,574.5 L568.5,575.0 L569.6,575.5 L570.7,576.0
		L571.9,576.5 L573.0,577.1 L574.1,577.6 L575.2,578.1 L576.4,578.6 L577.5,579.1 L578.6,579.6 L579.8,580.1
		L580.9,580.6 L582.0,581.1 L583.1,581.6 L584.3,582.1 L585.4,582.6 L586.5,583.1 L587.6,583.6 L588.8,584.1
		L589.9,584.6 L591.0,585.1 L592.1,585.6 L593.3,586.1 L594.4,586.5 L595.5,587.0 L596.6,587.5 L597.8,588.0
		L598.9,588.5 L600.0,588.9 L601.1,589.4 L602.3,589.9 L603.4,590.4 L604.5,590.8 L605.6,591.3 L606.8,591.8
		L607.9,592.3 L609.0,592.7 L610.1,593.2 L611.3,593.6 L612.4,594.1 L613.5,594.6 L614.6,595.0 L615.8,595.5
		L616.9,595.9 L618.0,596.4 L619.1,596.8 L620.3,597.3 L621.4,597.7 L622.5,598.2 L623.6,598.6 L624.8,599.1
		L625.9,599.5 L627.0,600.0 L628.1,600.4 L629.3,600.9 L630.4,601.3 L631.5,601.7 L632.6,602.2 L633.8,602.6
		L634.9,603.0 L636.0,603.5 L637.1,603.9 L638.3,604.3 L639.4,604.8 L640.5,605.2 L641.6,605.6 L642.8,606.0
		L643.9,606.4 L645.0,606.9 L646.2,607.3 L647.3,607.7 L648.4,608.1 L649.5,608.5 L650.7,608.9 L651.8,609.4
		L652.9,609.8 L654.0,610.2 L655.2,610.6 L656.3,611.0 L657.4,611.4 L658.5,611.8 L659.7,612.2 L660.8,612.6
		L661.9,613.0 L663.0,613.4 L664.2,613.8 L665.3,614.2 L666.4,614.6 L667.5,615.0 L668.7,615.4 L669.8,615.8
		L670.9,616.2 L672.0,616.5 L673.2,616.9 L674.3,617.3 L675.4,617.7 L676.5,618.1 L677.7,618.5 L678.8,618.8
		L679.9,619.2 L681.0,619.6 L682.2,620.0 L683.3,620.3 L684.4,620.7 L685.5,621.1 L686.7,621.5 L687.8,621.8
		L688.9,622.2 L690.0,622.6 L691.2,622.9 L692.3,623.3 L693.4,623.7 L694.5,624.0 L695.7,624.4 L696.8,624.7
		L697.9,625.1 L699.0,625.4 L700.2,625.8 L701.3,626.2 L702.4,626.5 L703.5,626.9 L704.7,627.2 L705.8,627.6
		L706.9,627.9 L708.0,628.2 L709.2,628.6 L710.3,628.9 L711.4,629.3 L712.5,629.6 L713.7,630.0 L714.8,630.3
		L715.9,630.6 L717.1,631.0 L718.2,631.3 L719.3,631.6 L720.4,632.0 L721.6,632.3 L722.7,632.6 L723.8,632.9
		L724.9,633.3 L726.1,633.6 L727.2,633.9 L728.3,634.2 L729.4,634.6 L730.6,634.9 L731.7,635.2 L732.8,635.5
		L733.9,635.8 L735.1,636.1 L736.2,636.5 L737.3,636.8 L738.4,637.1 L739.6,637.4 L740.7,637.7 L741.8,638.0
		L742.9,638.3 L744.1,638.6 L745.2,638.9 L746.3,639.2 L747.4,639.5 L748.6,639.8 L749.7,640.1 L750.8,640.4
		L751.9,640.7 L753.1,641.0 L754.2,641.3 L755.3,641.6 L756.4,641.9 L757.6,642.2 L758.7,642.5 L759.8,642.7
		L760.9,643.0 L762.1,643.3 L763.2,643.6 L764.3,643.9 L765.4,644.2 L766.6,644.4 L767.7,644.7 L768.8,645.0
		L769.9,645.3 L771.1,645.5 L772.2,645.8 L773.3,646.1 L774.4,646.3 L775.6,646.6 L776.7,646.9 L777.8,647.1
		L778.9,647.4 L780.1,647.7 L781.2,647.9 L782.3,648.2 L783.5,648.5 L784.6,648.7 L785.7,649.0 L786.8,649.2
		L788.0,649.5 L789.1,649.7 L790.2,650.0 L791.3,650.2 L792.5,650.5 L793.6,650.7 L794.7,651.0 L795.8,651.2
		L797.0,651.5 L798.1,651.7 L799.2,651.9 L800.3,652.2 L801.5,652.4 L802.6,652.7 L803.7,652.9 L804.8,653.1
		L806.0,653.4 L807.1,653.6 L808.2,653.8 L809.3,654.0 L810.5,654.3 L811.6,654.5 L812.7,654.7 L813.8,654.9
		L815.0,655.2 L816.1,655.4 L817.2,655.6 L818.3,655.8 L819.5,656.0 L820.6,656.3 L821.7,656.5 L822.8,656.7
		L824.0,656.9 L825.1,657.1 L826.2,657.3 L827.3,657.5 L828.5,657.7 L829.6,657.9 L830.7,658.1 L831.8,658.3
		L833.0,658.5 L834.1,658.7 L835.2,658.9 L836.3,659.1 L837.5,659.3 L838.6,659.5 L839.7,659.7 L840.8,659.9
		L842.0,660.1 L843.1,660.3 L844.2,660.5 L845.3,660.6 L846.5,660.8 L847.6,661.0 L848.7,661.2 L849.9,661.4
		L851.0,661.5 L852.1,661.7 L853.2,661.9 L854.4,662.1 L855.5,662.2 L856.6,662.4 L857.7,662.6 L858.9,662.7
		L860.0,662.9 L861.1,663.1 L862.2,663.2 L863.4,663.4 L864.5,663.6 L865.6,663.7 L866.7,663.9 L867.9,664.0
		L869.0,664.2 L870.1,664.3 L871.2,664.5 L872.4,664.6 L873.5,664.8 L874.6,664.9 L875.7,665.1 L876.9,665.2
		L878.0,665.4 L879.1,665.5 L880.2,665.6 L881.4,665.8 L882.5,665.9 L883.6,666.0 L884.7,666.2 L885.9,666.3
		L887.0,666.4 L888.1,666.6 L889.2,666.7 L890.4,666.8 L891.5,666.9 L892.6,667.0 L893.7,667.2 L894.9,667.3
		L896.0,667.4 L897.1,667.5 L898.2,667.6 L899.4,667.7 L900.5,667.9 L901.6,668.0 L902.7,668.1 L903.9,668.2
		L905.0,668.3 L906.1,668.4 L907.2,668.5 L908.4,668.6 L909.5,668.7 L910.6,668.8 L911.7,668.9 L912.9,668.9
		L914.0,669.0 L915.1,669.1 L916.2,669.2 L917.4,669.3 L918.5,669.4 L919.6,669.5 L920.8,669.5 L921.9,669.6
		L923.0,669.7 L924.1,669.8 L925.3,669.8 L926.4,669.9 L927.5,670.0 L928.6,670.0 L929.8,670.1 L930.9,670.2
		L932.0,670.2 L933.1,670.3 L934.3,670.3 L935.4,670.4 L936.5,670.5 L937.6,670.5 L938.8,670.6 L939.9,670.6
		L941.0,670.7 L942.1,670.7 L943.3,670.7 L944.4,670.8 L945.5,670.8 L946.6,670.9 L947.8,670.9 L948.9,670.9
		L950.0,671.0 L951.1,671.0 L952.3,671.0 L953.4,671.0 L954.5,671.1 L955.6,671.1 L956.8,671.1 L957.9,671.1
		L959.0,671.1 L960.1,671.2 L961.3,671.2 L962.4,671.2 L963.5,671.2 L964.6,671.2 L965.8,671.2 L966.9,671.2
		L968.0,671.2 L969.1,671.2 L970.3,671.2 L971.4,671.2 L972.5,671.2 L973.6,671.2 L974.8,671.2 L975.9,671.2
		L977.0,671.1 L978.1,671.1 L979.3,671.1 L980.4,671.1 L981.5,671.1 L982.6,671.0 L983.8,671.0 L984.9,671.0
		L986.0,670.9 L987.2,670.9 L988.3,670.9 L989.4,670.8 L990.5,670.8 L991.7,670.7 L992.8,670.7 L993.9,670.7
		L995.0,670.6 L996.2,670.5 L997.3,670.5 L998.4,670.4 L999.5,670.4 L1000.7,670.3 L1001.8,670.3 L1002.9,670.2
		L1004.0,670.1 L1005.2,670.1 L1006.3,670.0 L1007.4,669.9 L1008.5,669.8 L1009.7,669.8 L1010.8,669.7 L1011.9,669.6
		L1013.0,669.5 L1014.2,669.4 L1015.3,669.3 L1016.4,669.2 L1017.5,669.2 L1018.7,669.1 L1019.8,669.0 L1020.9,668.9
		L1022.0,668.8 L1023.2,668.7 L1024.3,668.5 L1025.4,668.4 L1026.5,668.3 L1027.7,668.2 L1028.8,668.1 L1029.9,668.0
		L1031.0,667.9 L1032.2,667.7 L1033.3,667.6 L1034.4,667.5 L1035.5,667.4 L1036.7,667.2 L1037.8,667.1 L1038.9,667.0
		L1040.0,666.8 L1041.2,666.7 L1042.3,666.5 L1043.4,666.4 L1044.5,666.3 L1045.7,666.1 L1046.8,666.0 L1047.9,665.8
		L1049.0,665.6 L1050.2,665.5 L1051.3,665.3 L1052.4,665.2 L1053.6,665.0 L1054.7,664.8 L1055.8,664.7 L1056.9,664.5
		L1058.1,664.3 L1059.2,664.2 L1060.3,664.0 L1061.4,663.8 L1062.6,663.6 L1063.7,663.4 L1064.8,663.3 L1065.9,663.1
		L1067.1,662.9 L1068.2,662.7 L1069.3,662.5 L1070.4,662.3 L1071.6,662.1 L1072.7,661.9 L1073.8,661.7 L1074.9,661.5
		L1076.1,661.3 L1077.2,661.1 L1078.3,660.9 L1079.4,660.7 L1080.6,660.5 L1081.7,660.2 L1082.8,660.0 L1083.9,659.8
		L1085.1,659.6 L1086.2,659.4 L1087.3,659.1 L1088.4,658.9 L1089.6,658.7 L1090.7,658.5 L1091.8,658.2 L1092.9,658.0
		L1094.1,657.8 L1095.2,657.5 L1096.3,657.3 L1097.4,657.1 L1098.6,656.8 L1099.7,656.6 L1100.8,656.3 L1101.9,656.1
		L1103.1,655.8 L1104.2,655.6 L1105.3,655.4 L1106.4,655.1 L1107.6,654.9 L1108.7,654.6 L1109.8,654.4 L1110.9,654.1
		L1112.1,653.8 L1113.2,653.6 L1114.3,653.3 L1115.4,653.1 L1116.6,652.8 L1117.7,652.5 L1118.8,652.3 L1120.0,652.0
		L1121.1,651.8 L1122.2,651.5 L1123.3,651.2 L1124.5,651.0 L1125.6,650.7 L1126.7,650.4 L1127.8,650.2 L1129.0,649.9
		L1130.1,649.6 L1131.2,649.4 L1132.3,649.1 L1133.5,648.8 L1134.6,648.6 L1135.7,648.3 L1136.8,648.0 L1138.0,647.7
		L1139.1,647.5 L1140.2,647.2 L1141.3,646.9 L1142.5,646.7 L1143.6,646.4 L1144.7,646.1 L1145.8,645.8 L1147.0,645.6
		L1148.1,645.3 L1149.2,645.0 L1150.3,644.8 L1151.5,644.5 L1152.6,644.2 L1153.7,644.0 L1154.8,643.7 L1156.0,643.4
		L1157.1,643.2 L1158.2,642.9 L1159.3,642.6 L1160.5,642.4 L1161.6,642.1 L1162.7,641.8 L1163.8,641.6 L1165.0,641.3
		L1166.1,641.1 L1167.2,640.8 L1168.3,640.5 L1169.5,640.3 L1170.6,640.0 L1171.7,639.8 L1172.8,639.5 L1174.0,639.3
		L1175.1,639.0 L1176.2,638.8 L1177.3,638.5 L1178.5,638.3 L1179.6,638.1 L1180.7,637.8 L1181.8,637.6 L1183.0,637.3
		L1184.1,637.1 L1185.2,636.9 L1186.3,636.7 L1187.5,636.4 L1188.6,636.2 L1189.7,636.0 L1190.9,635.8 L1192.0,635.6
		L1193.1,635.3 L1194.2,635.1 L1195.4,634.9 L1196.5,634.7 L1197.6,634.5 L1198.7,634.3 L1199.9,634.1 L1201.0,633.9
		L1202.1,633.7 L1203.2,633.5 L1204.4,633.4 L1205.5,633.2 L1206.6,633.0 L1207.7,632.8 L1208.9,632.7 L1210.0,632.5
		L1211.1,632.3 L1212.2,632.2 L1213.4,632.0 L1214.5,631.8 L1215.6,631.7 L1216.7,631.6 L1217.9,631.4 L1219.0,631.3
		L1220.1,631.1 L1221.2,631.0 L1222.4,630.9 L1223.5,630.8 L1224.6,630.6 L1225.7,630.5 L1226.9,630.4 L1228.0,630.3
		L1229.1,630.2 L1230.2,630.1 L1231.4,630.0 L1232.5,629.9 L1233.6,629.8 L1234.7,629.7 L1235.9,629.7 L1237.0,629.6
		L1238.1,629.5 L1239.2,629.5 L1240.4,629.4 L1241.5,629.3 L1242.6,629.3 L1243.7,629.2 L1244.9,629.2 L1246.0,629.2
		L1247.1,629.1 L1248.2,629.1 L1249.4,629.1 L1250.5,629.1 L1251.6,629.0 L1252.7,629.0 L1253.9,629.0 L1255.0,629.0
		 '/></g>
	</g>
	<g id="gnuplot_plot_6" ><title>gnuplot_plot_6</title>
<g fill="none" color="black" stroke="currentColor" stroke-width="1.00" stroke-linecap="butt" stroke-linejoin="miter">
	<path stroke='rgb(  0,   0, 255)'  d='M103.7,58.2 L104.8,61.7 L106.0,71.3 L107.1,84.9 L108.2,100.4 L109.3,115.7 L110.5,129.7 L111.6,142.0
		L112.7,152.4 L113.8,161.0 L115.0,168.0 L116.1,173.8 L117.2,178.5 L118.3,182.4 L119.5,185.6 L120.6,188.3
		L121.7,190.5 L122.8,192.5 L124.0,194.2 L125.1,195.7 L126.2,197.0 L127.3,198.3 L128.5,199.4 L129.6,200.4
		L130.7,201.4 L131.8,202.3 L133.0,203.2 L134.1,204.1 L135.2,205.0 L136.3,205.8 L137.5,206.6 L138.6,207.4
		L139.7,208.3 L140.8,209.1 L142.0,209.9 L143.1,210.7 L144.2,211.5 L145.3,212.4 L146.5,213.2 L147.6,214.1
		L148.7,214.9 L149.8,215.8 L151.0,216.6 L152.1,217.5 L153.2,218.4 L154.3,219.3 L155.5,220.2 L156.6,221.2
		L157.7,222.1 L158.8,223.0 L160.0,224.0 L161.1,224.9 L162.2,225.9 L163.3,226.9 L164.5,227.9 L165.6,228.9
		L166.7,229.9 L167.8,230.9 L169.0,231.9 L170.1,233.0 L171.2,234.0 L172.4,235.1 L173.5,236.1 L174.6,237.2
		L175.7,238.3 L176.9,239.3 L178.0,240.4 L179.1,241.5 L180.2,242.6 L181.4,243.8 L182.5,244.9 L183.6,246.0
		L184.7,247.1 L185.9,248.3 L187.0,249.4 L188.1,250.5 L189.2,251.7 L190.4,252.8 L191.5,254.0 L192.6,255.2
		L193.7,256.3 L194.9,257.5 L196.0,258.7 L197.1,259.9 L198.2,261.1 L199.4,262.2 L200.5,263.4 L201.6,264.6
		L202.7,265.8 L203.9,267.0 L205.0,268.2 L206.1,269.4 L207.2,270.6 L208.4,271.9 L209.5,273.1 L210.6,274.3
		L211.7,275.5 L212.9,276.7 L214.0,277.9 L215.1,279.1 L216.2,280.4 L217.4,281.6 L218.5,282.8 L219.6,284.0
		L220.7,285.2 L221.9,286.5 L223.0,287.7 L224.1,288.9 L225.2,290.1 L226.4,291.4 L227.5,292.6 L228.6,293.8
		L229.7,295.0 L230.9,296.3 L232.0,297.5 L233.1,298.7 L234.2,299.9 L235.4,301.1 L236.5,302.4 L237.6,303.6
		L238.7,304.8 L239.9,306.0 L241.0,307.2 L242.1,308.4 L243.3,309.6 L244.4,310.9 L245.5,312.1 L246.6,313.3
		L247.8,314.5 L248.9,315.7 L250.0,316.9 L251.1,318.1 L252.3,319.3 L253.4,320.5 L254.5,321.7 L255.6,322.9
		L256.8,324.1 L257.9,325.2 L259.0,326.4 L260.1,327.6 L261.3,328.8 L262.4,330.0 L263.5,331.2 L264.6,332.3
		L265.8,333.5 L266.9,334.7 L268.0,335.8 L269.1,337.0 L270.3,338.2 L271.4,339.3 L272.5,340.5 L273.6,341.7
		L274.8,342.8 L275.9,344.0 L277.0,345.1 L278.1,346.2 L279.3,347.4 L280.4,348.5 L281.5,349.7 L282.6,350.8
		L283.8,351.9 L284.9,353.1 L286.0,354.2 L287.1,355.3 L288.3,356.4 L289.4,357.6 L290.5,358.7 L291.6,359.8
		L292.8,360.9 L293.9,362.0 L295.0,363.1 L296.1,364.2 L297.3,365.3 L298.4,366.4 L299.5,367.5 L300.6,368.6
		L301.8,369.7 L302.9,370.7 L304.0,371.8 L305.1,372.9 L306.3,374.0 L307.4,375.0 L308.5,376.1 L309.7,377.2
		L310.8,378.2 L311.9,379.3 L313.0,380.3 L314.2,381.4 L315.3,382.4 L316.4,383.5 L317.5,384.5 L318.7,385.6
		L319.8,386.6 L320.9,387.6 L322.0,388.7 L323.2,389.7 L324.3,390.7 L325.4,391.7 L326.5,392.8 L327.7,393.8
		L328.8,394.8 L329.9,395.8 L331.0,396.8 L332.2,397.8 L333.3,398.8 L334.4,399.8 L335.5,400.8 L336.7,401.8
		L337.8,402.8 L338.9,403.8 L340.0,404.8 L341.2,405.7 L342.3,406.7 L343.4,407.7 L344.5,408.7 L345.7,409.6
		L346.8,410.6 L347.9,411.5 L349.0,412.5 L350.2,413.5 L351.3,414.4 L352.4,415.4 L353.5,416.3 L354.7,417.3
		L355.8,418.2 L356.9,419.1 L358.0,420.1 L359.2,421.0 L360.3,421.9 L361.4,422.9 L362.5,423.8 L363.7,424.7
		L364.8,425.6 L365.9,426.5 L367.0,427.4 L368.2,428.4 L369.3,429.3 L370.4,430.2 L371.5,431.1 L372.7,432.0
		L373.8,432.9 L374.9,433.8 L376.1,434.6 L377.2,435.5 L378.3,436.4 L379.4,437.3 L380.6,438.2 L381.7,439.1
		L382.8,439.9 L383.9,440.8 L385.1,441.7 L386.2,442.5 L387.3,443.4 L388.4,444.3 L389.6,445.1 L390.7,446.0
		L391.8,446.8 L392.9,447.7 L394.1,448.5 L395.2,449.4 L396.3,450.2 L397.4,451.0 L398.6,451.9 L399.7,452.7
		L400.8,453.5 L401.9,454.4 L403.1,455.2 L404.2,456.0 L405.3,456.8 L406.4,457.6 L407.6,458.5 L408.7,459.3
		L409.8,460.1 L410.9,460.9 L412.1,461.7 L413.2,462.5 L414.3,463.3 L415.4,464.1 L416.6,464.9 L417.7,465.7
		L418.8,466.5 L419.9,467.3 L421.1,468.0 L422.2,468.8 L423.3,469.6 L424.4,470.4 L425.6,471.2 L426.7,471.9
		L427.8,472.7 L428.9,473.5 L430.1,474.2 L431.2,475.0 L432.3,475.8 L433.4,476.5 L434.6,477.3 L435.7,478.0
		L436.8,478.8 L437.9,479.5 L439.1,480.3 L440.2,481.0 L441.3,481.8 L442.5,482.5 L443.6,483.2 L444.7,484.0
		L445.8,484.7 L447.0,485.4 L448.1,486.2 L449.2,486.9 L450.3,487.6 L451.5,488.3 L452.6,489.0 L453.7,489.8
		L454.8,490.5 L456.0,491.2 L457.1,491.9 L458.2,492.6 L459.3,493.3 L460.5,494.0 L461.6,494.7 L462.7,495.4
		L463.8,496.1 L465.0,496.8 L466.1,497.5 L467.2,498.2 L468.3,498.9 L469.5,499.6 L470.6,500.3 L471.7,500.9
		L472.8,501.6 L474.0,502.3 L475.1,503.0 L476.2,503.6 L477.3,504.3 L478.5,505.0 L479.6,505.7 L480.7,506.3
		L481.8,507.0 L483.0,507.6 L484.1,508.3 L485.2,509.0 L486.3,509.6 L487.5,510.3 L488.6,510.9 L489.7,511.6
		L490.8,512.2 L492.0,512.9 L493.1,513.5 L494.2,514.1 L495.3,514.8 L496.5,515.4 L497.6,516.1 L498.7,516.7
		L499.8,517.3 L501.0,518.0 L502.1,518.6 L503.2,519.2 L504.3,519.8 L505.5,520.5 L506.6,521.1 L507.7,521.7
		L508.8,522.3 L510.0,522.9 L511.1,523.5 L512.2,524.1 L513.4,524.8 L514.5,525.4 L515.6,526.0 L516.7,526.6
		L517.9,527.2 L519.0,527.8 L520.1,528.4 L521.2,529.0 L522.4,529.6 L523.5,530.2 L524.6,530.7 L525.7,531.3
		L526.9,531.9 L528.0,532.5 L529.1,533.1 L530.2,533.7 L531.4,534.2 L532.5,534.8 L533.6,535.4 L534.7,536.0
		L535.9,536.5 L537.0,537.1 L538.1,537.7 L539.2,538.3 L540.4,538.8 L541.5,539.4 L542.6,539.9 L543.7,540.5
		L544.9,541.1 L546.0,541.6 L547.1,542.2 L548.2,542.7 L549.4,543.3 L550.5,543.8 L551.6,544.4 L552.7,544.9
		L553.9,545.5 L555.0,546.0 L556.1,546.6 L557.2,547.1 L558.4,547.6 L559.5,548.2 L560.6,548.7 L561.7,549.2
		L562.9,549.8 L564.0,550.3 L565.1,550.8 L566.2,551.4 L567.4,551.9 L568.5,552.4 L569.6,552.9 L570.7,553.4
		L571.9,554.0 L573.0,554.5 L574.1,555.0 L575.2,555.5 L576.4,556.0 L577.5,556.5 L578.6,557.0 L579.8,557.6
		L580.9,558.1 L582.0,558.6 L583.1,559.1 L584.3,559.6 L585.4,560.1 L586.5,560.6 L587.6,561.1 L588.8,561.6
		L589.9,562.0 L591.0,562.5 L592.1,563.0 L593.3,563.5 L594.4,564.0 L595.5,564.5 L596.6,565.0 L597.8,565.5
		L598.9,565.9 L600.0,566.4 L601.1,566.9 L602.3,567.4 L603.4,567.8 L604.5,568.3 L605.6,568.8 L606.8,569.3
		L607.9,569.7 L609.0,570.2 L610.1,570.7 L611.3,571.1 L612.4,571.6 L613.5,572.1 L614.6,572.5 L615.8,573.0
		L616.9,573.4 L618.0,573.9 L619.1,574.3 L620.3,574.8 L621.4,575.2 L622.5,575.7 L623.6,576.1 L624.8,576.6
		L625.9,577.0 L627.0,577.5 L628.1,577.9 L629.3,578.4 L630.4,578.8 L631.5,579.2 L632.6,579.7 L633.8,580.1
		L634.9,580.6 L636.0,581.0 L637.1,581.4 L638.3,581.8 L639.4,582.3 L640.5,582.7 L641.6,583.1 L642.8,583.6
		L643.9,584.0 L645.0,584.4 L646.2,584.8 L647.3,585.2 L648.4,585.7 L649.5,586.1 L650.7,586.5 L651.8,586.9
		L652.9,587.3 L654.0,587.7 L655.2,588.1 L656.3,588.5 L657.4,588.9 L658.5,589.3 L659.7,589.8 L660.8,590.2
		L661.9,590.6 L663.0,591.0 L664.2,591.4 L665.3,591.7 L666.4,592.1 L667.5,592.5 L668.7,592.9 L669.8,593.3
		L670.9,593.7 L672.0,594.1 L673.2,594.5 L674.3,594.9 L675.4,595.3 L676.5,595.6 L677.7,596.0 L678.8,596.4
		L679.9,596.8 L681.0,597.2 L682.2,597.5 L683.3,597.9 L684.4,598.3 L685.5,598.7 L686.7,599.0 L687.8,599.4
		L688.9,599.8 L690.0,600.1 L691.2,600.5 L692.3,600.9 L693.4,601.2 L694.5,601.6 L695.7,602.0 L696.8,602.3
		L697.9,602.7 L699.0,603.0 L700.2,603.4 L701.3,603.7 L702.4,604.1 L703.5,604.4 L704.7,604.8 L705.8,605.1
		L706.9,605.5 L708.0,605.8 L709.2,606.2 L710.3,606.5 L711.4,606.9 L712.5,607.2 L713.7,607.5 L714.8,607.9
		L715.9,608.2 L717.1,608.6 L718.2,608.9 L719.3,609.2 L720.4,609.6 L721.6,609.9 L722.7,610.2 L723.8,610.5
		L724.9,610.9 L726.1,611.2 L727.2,611.5 L728.3,611.8 L729.4,612.2 L730.6,612.5 L731.7,612.8 L732.8,613.1
		L733.9,613.4 L735.1,613.8 L736.2,614.1 L737.3,614.4 L738.4,614.7 L739.6,615.0 L740.7,615.3 L741.8,615.6
		L742.9,615.9 L744.1,616.2 L745.2,616.5 L746.3,616.8 L747.4,617.1 L748.6,617.4 L749.7,617.7 L750.8,618.0
		L751.9,618.3 L753.1,618.6 L754.2,618.9 L755.3,619.2 L756.4,619.5 L757.6,619.8 L758.7,620.1 L759.8,620.4
		L760.9,620.7 L762.1,620.9 L763.2,621.2 L764.3,621.5 L765.4,621.8 L766.6,622.1 L767.7,622.3 L768.8,622.6
		L769.9,622.9 L771.1,623.2 L772.2,623.4 L773.3,623.7 L774.4,624.0 L775.6,624.3 L776.7,624.5 L777.8,624.8
		L778.9,625.1 L780.1,625.3 L781.2,625.6 L782.3,625.8 L783.5,626.1 L784.6,626.4 L785.7,626.6 L786.8,626.9
		L788.0,627.1 L789.1,627.4 L790.2,627.6 L791.3,627.9 L792.5,628.1 L793.6,628.4 L794.7,628.6 L795.8,628.9
		L797.0,629.1 L798.1,629.4 L799.2,629.6 L800.3,629.8 L801.5,630.1 L802.6,630.3 L803.7,630.5 L804.8,630.8
		L806.0,631.0 L807.1,631.2 L808.2,631.5 L809.3,631.7 L810.5,631.9 L811.6,632.2 L812.7,632.4 L813.8,632.6
		L815.0,632.8 L816.1,633.1 L817.2,633.3 L818.3,633.5 L819.5,633.7 L820.6,633.9 L821.7,634.1 L822.8,634.4
		L824.0,634.6 L825.1,634.8 L826.2,635.0 L827.3,635.2 L828.5,635.4 L829.6,635.6 L830.7,635.8 L831.8,636.0
		L833.0,636.2 L834.1,636.4 L835.2,636.6 L836.3,636.8 L837.5,637.0 L838.6,637.2 L839.7,637.4 L840.8,637.6
		L842.0,637.8 L843.1,637.9 L844.2,638.1 L845.3,638.3 L846.5,638.5 L847.6,638.7 L848.7,638.9 L849.9,639.0
		L851.0,639.2 L852.1,639.4 L853.2,639.6 L854.4,639.7 L855.5,639.9 L856.6,640.1 L857.7,640.3 L858.9,640.4
		L860.0,640.6 L861.1,640.8 L862.2,640.9 L863.4,641.1 L864.5,641.2 L865.6,641.4 L866.7,641.6 L867.9,641.7
		L869.0,641.9 L870.1,642.0 L871.2,642.2 L872.4,642.3 L873.5,642.5 L874.6,642.6 L875.7,642.8 L876.9,642.9
		L878.0,643.0 L879.1,643.2 L880.2,643.3 L881.4,643.5 L882.5,643.6 L883.6,643.7 L884.7,643.9 L885.9,644.0
		L887.0,644.1 L888.1,644.3 L889.2,644.4 L890.4,644.5 L891.5,644.6 L892.6,644.8 L893.7,644.9 L894.9,645.0
		L896.0,645.1 L897.1,645.2 L898.2,645.3 L899.4,645.4 L900.5,645.6 L901.6,645.7 L902.7,645.8 L903.9,645.9
		L905.0,646.0 L906.1,646.1 L907.2,646.2 L908.4,646.3 L909.5,646.4 L910.6,646.5 L911.7,646.6 L912.9,646.7
		L914.0,646.8 L915.1,646.8 L916.2,646.9 L917.4,647.0 L918.5,647.1 L919.6,647.2 L920.8,647.3 L921.9,647.3
		L923.0,647.4 L924.1,647.5 L925.3,647.6 L926.4,647.6 L927.5,647.7 L928.6,647.8 L929.8,647.8 L930.9,647.9
		L932.0,648.0 L933.1,648.0 L934.3,648.1 L935.4,648.1 L936.5,648.2 L937.6,648.2 L938.8,648.3 L939.9,648.4
		L941.0,648.4 L942.1,648.4 L943.3,648.5 L944.4,648.5 L945.5,648.6 L946.6,648.6 L947.8,648.6 L948.9,648.7
		L950.0,648.7 L951.1,648.7 L952.3,648.8 L953.4,648.8 L954.5,648.8 L955.6,648.9 L956.8,648.9 L957.9,648.9
		L959.0,648.9 L960.1,648.9 L961.3,648.9 L962.4,648.9 L963.5,649.0 L964.6,649.0 L965.8,649.0 L966.9,649.0
		L968.0,649.0 L969.1,649.0 L970.3,649.0 L971.4,649.0 L972.5,649.0 L973.6,649.0 L974.8,648.9 L975.9,648.9
		L977.0,648.9 L978.1,648.9 L979.3,648.9 L980.4,648.9 L981.5,648.8 L982.6,648.8 L983.8,648.8 L984.9,648.8
		L986.0,648.7 L987.2,648.7 L988.3,648.7 L989.4,648.6 L990.5,648.6 L991.7,648.5 L992.8,648.5 L993.9,648.5
		L995.0,648.4 L996.2,648.4 L997.3,648.3 L998.4,648.3 L999.5,648.2 L1000.7,648.1 L1001.8,648.1 L1002.9,648.0
		L1004.0,648.0 L1005.2,647.9 L1006.3,647.8 L1007.4,647.7 L1008.5,647.7 L1009.7,647.6 L1010.8,647.5 L1011.9,647.4
		L1013.0,647.4 L1014.2,647.3 L1015.3,647.2 L1016.4,647.1 L1017.5,647.0 L1018.7,646.9 L1019.8,646.8 L1020.9,646.7
		L1022.0,646.6 L1023.2,646.5 L1024.3,646.4 L1025.4,646.3 L1026.5,646.2 L1027.7,646.1 L1028.8,646.0 L1029.9,645.9
		L1031.0,645.8 L1032.2,645.6 L1033.3,645.5 L1034.4,645.4 L1035.5,645.3 L1036.7,645.1 L1037.8,645.0 L1038.9,644.9
		L1040.0,644.7 L1041.2,644.6 L1042.3,644.5 L1043.4,644.3 L1044.5,644.2 L1045.7,644.0 L1046.8,643.9 L1047.9,643.7
		L1049.0,643.6 L1050.2,643.4 L1051.3,643.3 L1052.4,643.1 L1053.6,643.0 L1054.7,642.8 L1055.8,642.6 L1056.9,642.5
		L1058.1,642.3 L1059.2,642.1 L1060.3,642.0 L1061.4,641.8 L1062.6,641.6 L1063.7,641.4 L1064.8,641.2 L1065.9,641.1
		L1067.1,640.9 L1068.2,640.7 L1069.3,640.5 L1070.4,640.3 L1071.6,640.1 L1072.7,639.9 L1073.8,639.7 L1074.9,639.5
		L1076.1,639.3 L1077.2,639.1 L1078.3,638.9 L1079.4,638.7 L1080.6,638.5 L1081.7,638.3 L1082.8,638.1 L1083.9,637.9
		L1085.1,637.7 L1086.2,637.4 L1087.3,637.2 L1088.4,637.0 L1089.6,636.8 L1090.7,636.6 L1091.8,636.3 L1092.9,636.1
		L1094.1,635.9 L1095.2,635.7 L1096.3,635.4 L1097.4,635.2 L1098.6,635.0 L1099.7,634.7 L1100.8,634.5 L1101.9,634.3
		L1103.1,634.0 L1104.2,633.8 L1105.3,633.5 L1106.4,633.3 L1107.6,633.0 L1108.7,632.8 L1109.8,632.6 L1110.9,632.3
		L1112.1,632.1 L1113.2,631.8 L1114.3,631.6 L1115.4,631.3 L1116.6,631.0 L1117.7,630.8 L1118.8,630.5 L1120.0,630.3
		L1121.1,630.0 L1122.2,629.8 L1123.3,629.5 L1124.5,629.3 L1125.6,629.0 L1126.7,628.7 L1127.8,628.5 L1129.0,628.2
		L1130.1,627.9 L1131.2,627.7 L1132.3,627.4 L1133.5,627.2 L1134.6,626.9 L1135.7,626.6 L1136.8,626.4 L1138.0,626.1
		L1139.1,625.8 L1140.2,625.6 L1141.3,625.3 L1142.5,625.0 L1143.6,624.8 L1144.7,624.5 L1145.8,624.3 L1147.0,624.0
		L1148.1,623.7 L1149.2,623.5 L1150.3,623.2 L1151.5,622.9 L1152.6,622.7 L1153.7,622.4 L1154.8,622.2 L1156.0,621.9
		L1157.1,621.6 L1158.2,621.4 L1159.3,621.1 L1160.5,620.9 L1161.6,620.6 L1162.7,620.4 L1163.8,620.1 L1165.0,619.8
		L1166.1,619.6 L1167.2,619.3 L1168.3,619.1 L1169.5,618.8 L1170.6,618.6 L1171.7,618.4 L1172.8,618.1 L1174.0,617.9
		L1175.1,617.6 L1176.2,617.4 L1177.3,617.1 L1178.5,616.9 L1179.6,616.7 L1180.7,616.4 L1181.8,616.2 L1183.0,616.0
		L1184.1,615.8 L1185.2,615.5 L1186.3,615.3 L1187.5,615.1 L1188.6,614.9 L1189.7,614.7 L1190.9,614.5 L1192.0,614.2
		L1193.1,614.0 L1194.2,613.8 L1195.4,613.6 L1196.5,613.4 L1197.6,613.2 L1198.7,613.0 L1199.9,612.9 L1201.0,612.7
		L1202.1,612.5 L1203.2,612.3 L1204.4,612.1 L1205.5,611.9 L1206.6,611.8 L1207.7,611.6 L1208.9,611.4 L1210.0,611.3
		L1211.1,611.1 L1212.2,611.0 L1213.4,610.8 L1214.5,610.7 L1215.6,610.5 L1216.7,610.4 L1217.9,610.2 L1219.0,610.1
		L1220.1,610.0 L1221.2,609.8 L1222.4,609.7 L1223.5,609.6 L1224.6,609.5 L1225.7,609.4 L1226.9,609.3 L1228.0,609.2
		L1229.1,609.1 L1230.2,609.0 L1231.4,608.9 L1232.5,608.8 L1233.6,608.7 L1234.7,608.6 L1235.9,608.5 L1237.0,608.5
		L1238.1,608.4 L1239.2,608.3 L1240.4,608.3 L1241.5,608.2 L1242.6,608.2 L1243.7,608.1 L1244.9,608.1 L1246.0,608.1
		L1247.1,608.0 L1248.2,608.0 L1249.4,608.0 L1250.5,607.9 L1251.6,607.9 L1252.7,607.9 L1253.9,607.9 L1255.0,607.9
		 '/></g>
	</g>
<g fill="none" color="white" stroke="rgb(  0,   0, 255)" stroke-width="2.00" stroke-linecap="butt" stroke-linejoin="miter">
</g>
<g fill="none" color="black" stroke="currentColor" stroke-width="2.00" stroke-linecap="butt" stroke-linejoin="miter">
</g>
<g fill="none" color="black" stroke="black" stroke-width="1.00" stroke-linecap="butt" stroke-linejoin="miter">
</g>
<g fill="none" color="black" stroke="currentColor" stroke-width="1.00" stroke-linecap="butt" stroke-linejoin="miter">
	<path stroke='black'  d='M103.7,54.1 L103.7,684.0 L1255.0,684.0 L1255.0,54.1 L103.7,54.1 Z  '/></g>
<g fill="none" color="black" stroke="currentColor" stroke-width="1.00" stroke-linecap="butt" stroke-linejoin="miter">
</g>
</g>
</svg>

