<?xml version="1.0" encoding="utf-8"  standalone="no"?>
<svg 
 width="1280" height="720"
 viewBox="0 0 1280 720"
 xmlns="http://www.w3.org/2000/svg"
 xmlns:xlink="http://www.w3.org/1999/xlink"
>

<title>Gnuplot</title>
<desc>Produced by GNUPLOT 5.0 patchlevel 6 </desc>

<g id="gnuplot_canvas">

<rect x="0" y="0" width="1280" height="720" fill="none"/>
<defs>

	<circle id='gpDot' r='0.5' stroke-width='0.5'/>
	<path id='gpPt0' stroke-width='0.222' stroke='currentColor' d='M-1,0 h2 M0,-1 v2'/>
	<path id='gpPt1' stroke-width='0.222' stroke='currentColor' d='M-1,-1 L1,1 M1,-1 L-1,1'/>
	<path id='gpPt2' stroke-width='0.222' stroke='currentColor' d='M-1,0 L1,0 M0,-1 L0,1 M-1,-1 L1,1 M-1,1 L1,-1'/>
	<rect id='gpPt3' stroke-width='0.222' stroke='currentColor' x='-1' y='-1' width='2' height='2'/>
	<rect id='gpPt4' stroke-width='0.222' stroke='currentColor' fill='currentColor' x='-1' y='-1' width='2' height='2'/>
	<circle id='gpPt5' stroke-width='0.222' stroke='currentColor' cx='0' cy='0' r='1'/>
	<use xlink:href='#gpPt5' id='gpPt6' fill='currentColor' stroke='none'/>
	<path id='gpPt7' stroke-width='0.222' stroke='currentColor' d='M0,-1.33 L-1.33,0.67 L1.33,0.67 z'/>
	<use xlink:href='#gpPt7' id='gpPt8' fill='currentColor' stroke='none'/>
	<use xlink:href='#gpPt7' id='gpPt9' stroke='currentColor' transform='rotate(180)'/>
	<use xlink:href='#gpPt9' id='gpPt10' fill='currentColor' stroke='none'/>
	<use xlink:href='#gpPt3' id='gpPt11' stroke='currentColor' transform='rotate(45)'/>
	<use xlink:href='#gpPt11' id='gpPt12' fill='currentColor' stroke='none'/>
	<path id='gpPt13' stroke-width='0.222' stroke='currentColor' d='M0,1.330 L1.265,0.411 L0.782,-1.067 L-0.782,-1.076 L-1.265,0.411 z'/>
	<use xlink:href='#gpPt13' id='gpPt14' fill='currentColor' stroke='none'/>
	<filter id='textbox' filterUnits='objectBoundingBox' x='0' y='0' height='1' width='1'>
	  <feFlood flood-color='white' flood-opacity='1' result='bgnd'/>
	  <feComposite in='SourceGraphic' in2='bgnd' operator='atop'/>
	</filter>
	<filter id='greybox' filterUnits='objectBoundingBox' x='0' y='0' height='1' width='1'>
	  <feFlood flood-color='lightgrey' flood-opacity='1' result='grey'/>
	  <feComposite in='SourceGraphic' in2='grey' operator='atop'/>
	</filter>
</defs>
<g fill="none" color="white" stroke="currentColor" stroke-width="1.00" stroke-linecap="butt" stroke-linejoin="miter">
</g>
<g fill="none" color="black" stroke="currentColor" stroke-width="1.00" stroke-linecap="butt" stroke-linejoin="miter">
	<path stroke='black'  d='M78.8,684.0 L87.8,684.0 M1255.0,684.0 L1246.0,684.0  '/>	<g transform="translate(70.5,687.9)" stroke="none" fill="black" font-family="Arial" font-size="12.00"  text-anchor="end">
		<text><tspan font-family="Arial" >0.00000</tspan></text>
	</g>
</g>
<g fill="none" color="black" stroke="currentColor" stroke-width="1.00" stroke-linecap="butt" stroke-linejoin="miter">
	<path stroke='black'  d='M78.8,371.1 L87.8,371.1 M1255.0,371.1 L1246.0,371.1  '/>	<g transform="translate(70.5,375.0)" stroke="none" fill="black" font-family="Arial" font-size="12.00"  text-anchor="end">
		<text><tspan font-family="Arial" >0.50000</tspan></text>
	</g>
</g>
<g fill="none" color="black" stroke="currentColor" stroke-width="1.00" stroke-linecap="butt" stroke-linejoin="miter">
	<path stroke='black'  d='M78.8,58.3 L87.8,58.3 M1255.0,58.3 L1246.0,58.3  '/>	<g transform="translate(70.5,62.2)" stroke="none" fill="black" font-family="Arial" font-size="12.00"  text-anchor="end">
		<text><tspan font-family="Arial" >1.00000</tspan></text>
	</g>
</g>
<g fill="none" color="black" stroke="currentColor" stroke-width="1.00" stroke-linecap="butt" stroke-linejoin="miter">
	<path stroke='black'  d='M78.8,684.0 L78.8,675.0 M78.8,54.1 L78.8,63.1  '/>	<g transform="translate(78.8,705.9)" stroke="none" fill="black" font-family="Arial" font-size="12.00"  text-anchor="middle">
		<text><tspan font-family="Arial" > 0</tspan></text>
	</g>
</g>
<g fill="none" color="black" stroke="currentColor" stroke-width="1.00" stroke-linecap="butt" stroke-linejoin="miter">
	<path stroke='black'  d='M666.9,684.0 L666.9,675.0 M666.9,54.1 L666.9,63.1  '/>	<g transform="translate(666.9,705.9)" stroke="none" fill="black" font-family="Arial" font-size="12.00"  text-anchor="middle">
		<text><tspan font-family="Arial" >pi/2</tspan></text>
	</g>
</g>
<g fill="none" color="black" stroke="currentColor" stroke-width="1.00" stroke-linecap="butt" stroke-linejoin="miter">
	<path stroke='black'  d='M1255.0,684.0 L1255.0,675.0 M1255.0,54.1 L1255.0,63.1  '/>	<g transform="translate(1255.0,705.9)" stroke="none" fill="black" font-family="Arial" font-size="12.00"  text-anchor="middle">
		<text><tspan font-family="Arial" >pi</tspan></text>
	</g>
</g>
<g fill="none" color="black" stroke="currentColor" stroke-width="1.00" stroke-linecap="butt" stroke-linejoin="miter">
</g>
<g fill="none" color="black" stroke="currentColor" stroke-width="1.00" stroke-linecap="butt" stroke-linejoin="miter">
	<path stroke='black'  d='M78.8,54.1 L78.8,684.0 L1255.0,684.0 L1255.0,54.1 L78.8,54.1 Z  '/></g>
<g fill="none" color="black" stroke="currentColor" stroke-width="1.00" stroke-linecap="butt" stroke-linejoin="miter">
	<g transform="translate(666.9,31.0)" stroke="none" fill="black" font-family="Arial" font-size="12.00"  text-anchor="middle">
		<text><tspan font-family="Arial" >Material 5, with 4 components</tspan></text>
	</g>
</g>
	<g id="gnuplot_plot_1" ><title>scattering function</title>
<g fill="none" color="black" stroke="currentColor" stroke-width="1.00" stroke-linecap="butt" stroke-linejoin="miter">
	<g transform="translate(1187.9,76.0)" stroke="none" fill="black" font-family="Arial" font-size="12.00"  text-anchor="end">
		<text><tspan font-family="Arial" >scattering function</tspan></text>
	</g>
</g>
<g fill="none" color="black" stroke="currentColor" stroke-width="1.00" stroke-linecap="butt" stroke-linejoin="miter">
	<use xlink:href='#gpPt5' transform='translate(80.2,58.3) scale(2.25)' color='rgb(255,   0,   0)'/>
	<use xlink:href='#gpPt5' transform='translate(102.6,66.3) scale(2.25)' color='rgb(255,   0,   0)'/>
	<use xlink:href='#gpPt5' transform='translate(129.6,116.6) scale(2.25)' color='rgb(255,   0,   0)'/>
	<use xlink:href='#gpPt5' transform='translate(156.7,184.7) scale(2.25)' color='rgb(255,   0,   0)'/>
	<use xlink:href='#gpPt5' transform='translate(177.2,243.8) scale(2.25)' color='rgb(255,   0,   0)'/>
	<use xlink:href='#gpPt5' transform='translate(194.9,295.5) scale(2.25)' color='rgb(255,   0,   0)'/>
	<use xlink:href='#gpPt5' transform='translate(214.5,348.7) scale(2.25)' color='rgb(255,   0,   0)'/>
	<use xlink:href='#gpPt5' transform='translate(235.0,400.1) scale(2.25)' color='rgb(255,   0,   0)'/>
	<use xlink:href='#gpPt5' transform='translate(250.8,435.8) scale(2.25)' color='rgb(255,   0,   0)'/>
	<use xlink:href='#gpPt5' transform='translate(268.5,470.1) scale(2.25)' color='rgb(255,   0,   0)'/>
	<use xlink:href='#gpPt5' transform='translate(294.6,509.1) scale(2.25)' color='rgb(255,   0,   0)'/>
	<use xlink:href='#gpPt5' transform='translate(316.1,536.8) scale(2.25)' color='rgb(255,   0,   0)'/>
	<use xlink:href='#gpPt5' transform='translate(338.5,561.9) scale(2.25)' color='rgb(255,   0,   0)'/>
	<use xlink:href='#gpPt5' transform='translate(364.6,586.4) scale(2.25)' color='rgb(255,   0,   0)'/>
	<use xlink:href='#gpPt5' transform='translate(390.7,606.4) scale(2.25)' color='rgb(255,   0,   0)'/>
	<use xlink:href='#gpPt5' transform='translate(416.8,622.4) scale(2.25)' color='rgb(255,   0,   0)'/>
	<use xlink:href='#gpPt5' transform='translate(447.6,635.6) scale(2.25)' color='rgb(255,   0,   0)'/>
	<use xlink:href='#gpPt5' transform='translate(484.9,649.4) scale(2.25)' color='rgb(255,   0,   0)'/>
	<use xlink:href='#gpPt5' transform='translate(546.4,664.7) scale(2.25)' color='rgb(255,   0,   0)'/>
	<use xlink:href='#gpPt5' transform='translate(601.4,673.5) scale(2.25)' color='rgb(255,   0,   0)'/>
	<use xlink:href='#gpPt5' transform='translate(666.7,678.9) scale(2.25)' color='rgb(255,   0,   0)'/>
	<use xlink:href='#gpPt5' transform='translate(728.2,682.2) scale(2.25)' color='rgb(255,   0,   0)'/>
	<use xlink:href='#gpPt5' transform='translate(805.6,683.7) scale(2.25)' color='rgb(255,   0,   0)'/>
	<use xlink:href='#gpPt5' transform='translate(848.5,683.3) scale(2.25)' color='rgb(255,   0,   0)'/>
	<use xlink:href='#gpPt5' transform='translate(901.6,680.8) scale(2.25)' color='rgb(255,   0,   0)'/>
	<use xlink:href='#gpPt5' transform='translate(964.1,677.8) scale(2.25)' color='rgb(255,   0,   0)'/>
	<use xlink:href='#gpPt5' transform='translate(1028.4,670.5) scale(2.25)' color='rgb(255,   0,   0)'/>
	<use xlink:href='#gpPt5' transform='translate(1092.8,658.9) scale(2.25)' color='rgb(255,   0,   0)'/>
	<use xlink:href='#gpPt5' transform='translate(1149.6,647.6) scale(2.25)' color='rgb(255,   0,   0)'/>
	<use xlink:href='#gpPt5' transform='translate(1189.7,639.6) scale(2.25)' color='rgb(255,   0,   0)'/>
	<use xlink:href='#gpPt5' transform='translate(1225.2,635.2) scale(2.25)' color='rgb(255,   0,   0)'/>
	<use xlink:href='#gpPt5' transform='translate(1255.0,634.8) scale(2.25)' color='rgb(255,   0,   0)'/>
	<use xlink:href='#gpPt5' transform='translate(1217.3,72.1) scale(2.25)' color='rgb(255,   0,   0)'/>
</g>
	</g>
	<g id="gnuplot_plot_2" ><title>fit</title>
<g fill="none" color="black" stroke="currentColor" stroke-width="1.00" stroke-linecap="butt" stroke-linejoin="miter">
	<g transform="translate(1187.9,94.0)" stroke="none" fill="black" font-family="Arial" font-size="12.00"  text-anchor="end">
		<text><tspan font-family="Arial" >fit</tspan></text>
	</g>
</g>
<g fill="none" color="black" stroke="currentColor" stroke-width="1.00" stroke-linecap="butt" stroke-linejoin="miter">
	<path stroke='rgb(255,   0,   0)'  d='M1196.2,90.1 L1238.4,90.1 M78.8,54.1 L79.9,54.1 L81.1,54.2 L82.2,54.4 L83.4,54.7 L84.5,55.0
		L85.7,55.4 L86.8,55.8 L88.0,56.4 L89.1,56.9 L90.3,57.6 L91.4,58.3 L92.6,59.1 L93.7,60.0
		L94.9,61.0 L96.0,62.0 L97.2,63.0 L98.3,64.2 L99.5,65.4 L100.6,66.6 L101.8,68.0 L102.9,69.3
		L104.1,70.8 L105.2,72.3 L106.4,73.9 L107.5,75.5 L108.7,77.2 L109.8,79.0 L111.0,80.8 L112.1,82.7
		L113.3,84.6 L114.4,86.6 L115.6,88.6 L116.7,90.7 L117.9,92.8 L119.0,95.0 L120.2,97.2 L121.3,99.5
		L122.5,101.9 L123.6,104.2 L124.8,106.7 L125.9,109.1 L127.1,111.6 L128.2,114.2 L129.4,116.8 L130.5,119.4
		L131.7,122.1 L132.8,124.8 L134.0,127.5 L135.1,130.3 L136.3,133.1 L137.4,136.0 L138.6,138.9 L139.7,141.8
		L140.9,144.7 L142.0,147.7 L143.2,150.7 L144.3,153.7 L145.5,156.7 L146.6,159.8 L147.8,162.9 L148.9,166.0
		L150.1,169.1 L151.2,172.3 L152.4,175.5 L153.5,178.7 L154.7,181.9 L155.8,185.1 L157.0,188.3 L158.1,191.6
		L159.3,194.8 L160.4,198.1 L161.6,201.4 L162.7,204.7 L163.9,207.9 L165.0,211.3 L166.2,214.6 L167.3,217.9
		L168.5,221.2 L169.6,224.5 L170.8,227.9 L171.9,231.2 L173.1,234.5 L174.2,237.8 L175.4,241.2 L176.5,244.5
		L177.7,247.8 L178.8,251.2 L180.0,254.5 L181.1,257.8 L182.3,261.1 L183.4,264.4 L184.6,267.7 L185.7,271.0
		L186.9,274.3 L188.0,277.6 L189.2,280.8 L190.3,284.1 L191.5,287.4 L192.6,290.6 L193.8,293.8 L194.9,297.1
		L196.1,300.3 L197.2,303.5 L198.4,306.6 L199.5,309.8 L200.7,313.0 L201.8,316.1 L203.0,319.3 L204.1,322.4
		L205.3,325.5 L206.4,328.6 L207.6,331.6 L208.7,334.7 L209.9,337.7 L211.0,340.8 L212.2,343.8 L213.3,346.8
		L214.5,349.7 L215.6,352.7 L216.8,355.6 L217.9,358.6 L219.1,361.5 L220.2,364.3 L221.4,367.2 L222.5,370.1
		L223.7,372.9 L224.8,375.7 L226.0,378.5 L227.1,381.3 L228.3,384.0 L229.4,386.8 L230.6,389.5 L231.7,392.2
		L232.9,394.9 L234.0,397.5 L235.2,400.2 L236.3,402.8 L237.5,405.4 L238.6,408.0 L239.8,410.5 L240.9,413.1
		L242.1,415.6 L243.2,418.1 L244.4,420.6 L245.5,423.0 L246.7,425.5 L247.8,427.9 L249.0,430.3 L250.1,432.7
		L251.3,435.1 L252.4,437.4 L253.6,439.7 L254.7,442.0 L255.9,444.3 L257.0,446.6 L258.2,448.8 L259.3,451.1
		L260.5,453.3 L261.6,455.5 L262.8,457.6 L263.9,459.8 L265.1,461.9 L266.2,464.0 L267.4,466.1 L268.5,468.2
		L269.7,470.3 L270.8,472.3 L272.0,474.3 L273.1,476.3 L274.3,478.3 L275.4,480.3 L276.6,482.2 L277.7,484.2
		L278.9,486.1 L280.0,488.0 L281.2,489.9 L282.3,491.7 L283.5,493.6 L284.6,495.4 L285.8,497.2 L286.9,499.0
		L288.1,500.8 L289.2,502.5 L290.4,504.3 L291.5,506.0 L292.7,507.7 L293.8,509.4 L295.0,511.1 L296.1,512.7
		L297.3,514.4 L298.4,516.0 L299.6,517.6 L300.7,519.2 L301.9,520.8 L303.0,522.4 L304.2,523.9 L305.3,525.5
		L306.5,527.0 L307.6,528.5 L308.8,530.0 L309.9,531.5 L311.1,533.0 L312.2,534.4 L313.4,535.8 L314.5,537.3
		L315.6,538.7 L316.8,540.1 L317.9,541.5 L319.1,542.8 L320.2,544.2 L321.4,545.5 L322.5,546.9 L323.7,548.2
		L324.8,549.5 L326.0,550.8 L327.1,552.1 L328.3,553.3 L329.4,554.6 L330.6,555.8 L331.7,557.1 L332.9,558.3
		L334.0,559.5 L335.2,560.7 L336.3,561.9 L337.5,563.0 L338.6,564.2 L339.8,565.3 L340.9,566.5 L342.1,567.6
		L343.2,568.7 L344.4,569.8 L345.5,570.9 L346.7,572.0 L347.8,573.1 L349.0,574.1 L350.1,575.2 L351.3,576.2
		L352.4,577.3 L353.6,578.3 L354.7,579.3 L355.9,580.3 L357.0,581.3 L358.2,582.3 L359.3,583.2 L360.5,584.2
		L361.6,585.2 L362.8,586.1 L363.9,587.0 L365.1,588.0 L366.2,588.9 L367.4,589.8 L368.5,590.7 L369.7,591.6
		L370.8,592.5 L372.0,593.3 L373.1,594.2 L374.3,595.1 L375.4,595.9 L376.6,596.8 L377.7,597.6 L378.9,598.4
		L380.0,599.2 L381.2,600.0 L382.3,600.9 L383.5,601.6 L384.6,602.4 L385.8,603.2 L386.9,604.0 L388.1,604.7
		L389.2,605.5 L390.4,606.3 L391.5,607.0 L392.7,607.7 L393.8,608.5 L395.0,609.2 L396.1,609.9 L397.3,610.6
		L398.4,611.3 L399.6,612.0 L400.7,612.7 L401.9,613.4 L403.0,614.1 L404.2,614.7 L405.3,615.4 L406.5,616.0
		L407.6,616.7 L408.8,617.3 L409.9,618.0 L411.1,618.6 L412.2,619.2 L413.4,619.9 L414.5,620.5 L415.7,621.1
		L416.8,621.7 L418.0,622.3 L419.1,622.9 L420.3,623.5 L421.4,624.1 L422.6,624.6 L423.7,625.2 L424.9,625.8
		L426.0,626.3 L427.2,626.9 L428.3,627.4 L429.5,628.0 L430.6,628.5 L431.8,629.1 L432.9,629.6 L434.1,630.1
		L435.2,630.6 L436.4,631.1 L437.5,631.7 L438.7,632.2 L439.8,632.7 L441.0,633.2 L442.1,633.7 L443.3,634.1
		L444.4,634.6 L445.6,635.1 L446.7,635.6 L447.9,636.1 L449.0,636.5 L450.2,637.0 L451.3,637.4 L452.5,637.9
		L453.6,638.4 L454.8,638.8 L455.9,639.2 L457.1,639.7 L458.2,640.1 L459.4,640.5 L460.5,641.0 L461.7,641.4
		L462.8,641.8 L464.0,642.2 L465.1,642.6 L466.3,643.1 L467.4,643.5 L468.6,643.9 L469.7,644.3 L470.9,644.7
		L472.0,645.0 L473.2,645.4 L474.3,645.8 L475.5,646.2 L476.6,646.6 L477.8,646.9 L478.9,647.3 L480.1,647.7
		L481.2,648.0 L482.4,648.4 L483.5,648.8 L484.7,649.1 L485.8,649.5 L487.0,649.8 L488.1,650.2 L489.3,650.5
		L490.4,650.8 L491.6,651.2 L492.7,651.5 L493.9,651.8 L495.0,652.2 L496.2,652.5 L497.3,652.8 L498.5,653.1
		L499.6,653.5 L500.8,653.8 L501.9,654.1 L503.1,654.4 L504.2,654.7 L505.4,655.0 L506.5,655.3 L507.7,655.6
		L508.8,655.9 L510.0,656.2 L511.1,656.5 L512.3,656.8 L513.4,657.1 L514.6,657.3 L515.7,657.6 L516.9,657.9
		L518.0,658.2 L519.2,658.4 L520.3,658.7 L521.5,659.0 L522.6,659.2 L523.8,659.5 L524.9,659.8 L526.1,660.0
		L527.2,660.3 L528.4,660.5 L529.5,660.8 L530.7,661.0 L531.8,661.3 L533.0,661.5 L534.1,661.8 L535.3,662.0
		L536.4,662.3 L537.6,662.5 L538.7,662.7 L539.9,663.0 L541.0,663.2 L542.2,663.4 L543.3,663.7 L544.5,663.9
		L545.6,664.1 L546.8,664.3 L547.9,664.6 L549.1,664.8 L550.2,665.0 L551.3,665.2 L552.5,665.4 L553.6,665.6
		L554.8,665.8 L555.9,666.1 L557.1,666.3 L558.2,666.5 L559.4,666.7 L560.5,666.9 L561.7,667.1 L562.8,667.3
		L564.0,667.5 L565.1,667.7 L566.3,667.8 L567.4,668.0 L568.6,668.2 L569.7,668.4 L570.9,668.6 L572.0,668.8
		L573.2,669.0 L574.3,669.1 L575.5,669.3 L576.6,669.5 L577.8,669.7 L578.9,669.9 L580.1,670.0 L581.2,670.2
		L582.4,670.4 L583.5,670.5 L584.7,670.7 L585.8,670.9 L587.0,671.0 L588.1,671.2 L589.3,671.4 L590.4,671.5
		L591.6,671.7 L592.7,671.8 L593.9,672.0 L595.0,672.1 L596.2,672.3 L597.3,672.4 L598.5,672.6 L599.6,672.7
		L600.8,672.9 L601.9,673.0 L603.1,673.2 L604.2,673.3 L605.4,673.5 L606.5,673.6 L607.7,673.8 L608.8,673.9
		L610.0,674.0 L611.1,674.2 L612.3,674.3 L613.4,674.4 L614.6,674.6 L615.7,674.7 L616.9,674.8 L618.0,675.0
		L619.2,675.1 L620.3,675.2 L621.5,675.3 L622.6,675.5 L623.8,675.6 L624.9,675.7 L626.1,675.8 L627.2,675.9
		L628.4,676.1 L629.5,676.2 L630.7,676.3 L631.8,676.4 L633.0,676.5 L634.1,676.6 L635.3,676.8 L636.4,676.9
		L637.6,677.0 L638.7,677.1 L639.9,677.2 L641.0,677.3 L642.2,677.4 L643.3,677.5 L644.5,677.6 L645.6,677.7
		L646.8,677.8 L647.9,677.9 L649.1,678.0 L650.2,678.1 L651.4,678.2 L652.5,678.3 L653.7,678.4 L654.8,678.5
		L656.0,678.6 L657.1,678.7 L658.3,678.8 L659.4,678.9 L660.6,679.0 L661.7,679.0 L662.9,679.1 L664.0,679.2
		L665.2,679.3 L666.3,679.4 L667.5,679.5 L668.6,679.6 L669.8,679.6 L670.9,679.7 L672.1,679.8 L673.2,679.9
		L674.4,680.0 L675.5,680.0 L676.7,680.1 L677.8,680.2 L679.0,680.3 L680.1,680.3 L681.3,680.4 L682.4,680.5
		L683.6,680.6 L684.7,680.6 L685.9,680.7 L687.0,680.8 L688.2,680.8 L689.3,680.9 L690.5,681.0 L691.6,681.0
		L692.8,681.1 L693.9,681.2 L695.1,681.2 L696.2,681.3 L697.4,681.4 L698.5,681.4 L699.7,681.5 L700.8,681.5
		L702.0,681.6 L703.1,681.7 L704.3,681.7 L705.4,681.8 L706.6,681.8 L707.7,681.9 L708.9,681.9 L710.0,682.0
		L711.2,682.0 L712.3,682.1 L713.5,682.1 L714.6,682.2 L715.8,682.2 L716.9,682.3 L718.1,682.3 L719.2,682.4
		L720.4,682.4 L721.5,682.5 L722.7,682.5 L723.8,682.6 L725.0,682.6 L726.1,682.7 L727.3,682.7 L728.4,682.7
		L729.6,682.8 L730.7,682.8 L731.9,682.9 L733.0,682.9 L734.2,682.9 L735.3,683.0 L736.5,683.0 L737.6,683.1
		L738.8,683.1 L739.9,683.1 L741.1,683.2 L742.2,683.2 L743.4,683.2 L744.5,683.3 L745.7,683.3 L746.8,683.3
		L748.0,683.3 L749.1,683.4 L750.3,683.4 L751.4,683.4 L752.6,683.5 L753.7,683.5 L754.9,683.5 L756.0,683.5
		L757.2,683.6 L758.3,683.6 L759.5,683.6 L760.6,683.6 L761.8,683.6 L762.9,683.7 L764.1,683.7 L765.2,683.7
		L766.4,683.7 L767.5,683.7 L768.7,683.8 L769.8,683.8 L771.0,683.8 L772.1,683.8 L773.3,683.8 L774.4,683.8
		L775.6,683.9 L776.7,683.9 L777.9,683.9 L779.0,683.9 L780.2,683.9 L781.3,683.9 L782.5,683.9 L783.6,683.9
		L784.7,683.9 L785.9,684.0 L787.0,684.0 L788.2,684.0 L789.3,684.0 L790.5,684.0 L791.6,684.0 L792.8,684.0
		L793.9,684.0 L795.1,684.0 L796.2,684.0 L797.4,684.0 L798.5,684.0 L799.7,684.0 L800.8,684.0 L802.0,684.0
		L803.1,684.0 L804.3,684.0 L805.4,684.0 L806.6,684.0 L807.7,684.0 L808.9,684.0 L810.0,684.0 L811.2,684.0
		L812.3,684.0 L813.5,684.0 L814.6,683.9 L815.8,683.9 L816.9,683.9 L818.1,683.9 L819.2,683.9 L820.4,683.9
		L821.5,683.9 L822.7,683.9 L823.8,683.9 L825.0,683.9 L826.1,683.8 L827.3,683.8 L828.4,683.8 L829.6,683.8
		L830.7,683.8 L831.9,683.8 L833.0,683.7 L834.2,683.7 L835.3,683.7 L836.5,683.7 L837.6,683.7 L838.8,683.6
		L839.9,683.6 L841.1,683.6 L842.2,683.6 L843.4,683.6 L844.5,683.5 L845.7,683.5 L846.8,683.5 L848.0,683.5
		L849.1,683.4 L850.3,683.4 L851.4,683.4 L852.6,683.3 L853.7,683.3 L854.9,683.3 L856.0,683.2 L857.2,683.2
		L858.3,683.2 L859.5,683.2 L860.6,683.1 L861.8,683.1 L862.9,683.1 L864.1,683.0 L865.2,683.0 L866.4,682.9
		L867.5,682.9 L868.7,682.9 L869.8,682.8 L871.0,682.8 L872.1,682.8 L873.3,682.7 L874.4,682.7 L875.6,682.6
		L876.7,682.6 L877.9,682.5 L879.0,682.5 L880.2,682.5 L881.3,682.4 L882.5,682.4 L883.6,682.3 L884.8,682.3
		L885.9,682.2 L887.1,682.2 L888.2,682.1 L889.4,682.1 L890.5,682.0 L891.7,682.0 L892.8,681.9 L894.0,681.9
		L895.1,681.8 L896.3,681.8 L897.4,681.7 L898.6,681.6 L899.7,681.6 L900.9,681.5 L902.0,681.5 L903.2,681.4
		L904.3,681.3 L905.5,681.3 L906.6,681.2 L907.8,681.2 L908.9,681.1 L910.1,681.0 L911.2,681.0 L912.4,680.9
		L913.5,680.8 L914.7,680.8 L915.8,680.7 L917.0,680.6 L918.1,680.6 L919.3,680.5 L920.4,680.4 L921.6,680.4
		L922.7,680.3 L923.9,680.2 L925.0,680.1 L926.2,680.1 L927.3,680.0 L928.5,679.9 L929.6,679.8 L930.8,679.8
		L931.9,679.7 L933.1,679.6 L934.2,679.5 L935.4,679.4 L936.5,679.4 L937.7,679.3 L938.8,679.2 L940.0,679.1
		L941.1,679.0 L942.3,678.9 L943.4,678.9 L944.6,678.8 L945.7,678.7 L946.9,678.6 L948.0,678.5 L949.2,678.4
		L950.3,678.3 L951.5,678.2 L952.6,678.1 L953.8,678.0 L954.9,677.9 L956.1,677.8 L957.2,677.8 L958.4,677.7
		L959.5,677.6 L960.7,677.5 L961.8,677.4 L963.0,677.3 L964.1,677.2 L965.3,677.0 L966.4,676.9 L967.6,676.8
		L968.7,676.7 L969.9,676.6 L971.0,676.5 L972.2,676.4 L973.3,676.3 L974.5,676.2 L975.6,676.1 L976.8,676.0
		L977.9,675.8 L979.1,675.7 L980.2,675.6 L981.4,675.5 L982.5,675.4 L983.7,675.3 L984.8,675.1 L986.0,675.0
		L987.1,674.9 L988.3,674.8 L989.4,674.7 L990.6,674.5 L991.7,674.4 L992.9,674.3 L994.0,674.1 L995.2,674.0
		L996.3,673.9 L997.5,673.8 L998.6,673.6 L999.8,673.5 L1000.9,673.4 L1002.1,673.2 L1003.2,673.1 L1004.4,672.9
		L1005.5,672.8 L1006.7,672.7 L1007.8,672.5 L1009.0,672.4 L1010.1,672.2 L1011.3,672.1 L1012.4,672.0 L1013.6,671.8
		L1014.7,671.7 L1015.9,671.5 L1017.0,671.4 L1018.2,671.2 L1019.3,671.1 L1020.4,670.9 L1021.6,670.7 L1022.7,670.6
		L1023.9,670.4 L1025.0,670.3 L1026.2,670.1 L1027.3,670.0 L1028.5,669.8 L1029.6,669.6 L1030.8,669.5 L1031.9,669.3
		L1033.1,669.1 L1034.2,669.0 L1035.4,668.8 L1036.5,668.6 L1037.7,668.5 L1038.8,668.3 L1040.0,668.1 L1041.1,668.0
		L1042.3,667.8 L1043.4,667.6 L1044.6,667.4 L1045.7,667.3 L1046.9,667.1 L1048.0,666.9 L1049.2,666.7 L1050.3,666.5
		L1051.5,666.3 L1052.6,666.2 L1053.8,666.0 L1054.9,665.8 L1056.1,665.6 L1057.2,665.4 L1058.4,665.2 L1059.5,665.0
		L1060.7,664.8 L1061.8,664.6 L1063.0,664.5 L1064.1,664.3 L1065.3,664.1 L1066.4,663.9 L1067.6,663.7 L1068.7,663.5
		L1069.9,663.3 L1071.0,663.1 L1072.2,662.9 L1073.3,662.7 L1074.5,662.4 L1075.6,662.2 L1076.8,662.0 L1077.9,661.8
		L1079.1,661.6 L1080.2,661.4 L1081.4,661.2 L1082.5,661.0 L1083.7,660.8 L1084.8,660.6 L1086.0,660.3 L1087.1,660.1
		L1088.3,659.9 L1089.4,659.7 L1090.6,659.5 L1091.7,659.2 L1092.9,659.0 L1094.0,658.8 L1095.2,658.6 L1096.3,658.4
		L1097.5,658.1 L1098.6,657.9 L1099.8,657.7 L1100.9,657.5 L1102.1,657.2 L1103.2,657.0 L1104.4,656.8 L1105.5,656.5
		L1106.7,656.3 L1107.8,656.1 L1109.0,655.9 L1110.1,655.6 L1111.3,655.4 L1112.4,655.2 L1113.6,654.9 L1114.7,654.7
		L1115.9,654.5 L1117.0,654.2 L1118.2,654.0 L1119.3,653.8 L1120.5,653.5 L1121.6,653.3 L1122.8,653.0 L1123.9,652.8
		L1125.1,652.6 L1126.2,652.3 L1127.4,652.1 L1128.5,651.9 L1129.7,651.6 L1130.8,651.4 L1132.0,651.1 L1133.1,650.9
		L1134.3,650.7 L1135.4,650.4 L1136.6,650.2 L1137.7,649.9 L1138.9,649.7 L1140.0,649.5 L1141.2,649.2 L1142.3,649.0
		L1143.5,648.8 L1144.6,648.5 L1145.8,648.3 L1146.9,648.0 L1148.1,647.8 L1149.2,647.6 L1150.4,647.3 L1151.5,647.1
		L1152.7,646.9 L1153.8,646.6 L1155.0,646.4 L1156.1,646.2 L1157.3,645.9 L1158.4,645.7 L1159.6,645.5 L1160.7,645.3
		L1161.9,645.0 L1163.0,644.8 L1164.2,644.6 L1165.3,644.3 L1166.5,644.1 L1167.6,643.9 L1168.8,643.7 L1169.9,643.5
		L1171.1,643.2 L1172.2,643.0 L1173.4,642.8 L1174.5,642.6 L1175.7,642.4 L1176.8,642.2 L1178.0,642.0 L1179.1,641.8
		L1180.3,641.6 L1181.4,641.3 L1182.6,641.1 L1183.7,640.9 L1184.9,640.7 L1186.0,640.6 L1187.2,640.4 L1188.3,640.2
		L1189.5,640.0 L1190.6,639.8 L1191.8,639.6 L1192.9,639.4 L1194.1,639.2 L1195.2,639.1 L1196.4,638.9 L1197.5,638.7
		L1198.7,638.5 L1199.8,638.4 L1201.0,638.2 L1202.1,638.0 L1203.3,637.9 L1204.4,637.7 L1205.6,637.6 L1206.7,637.4
		L1207.9,637.3 L1209.0,637.1 L1210.2,637.0 L1211.3,636.8 L1212.5,636.7 L1213.6,636.6 L1214.8,636.4 L1215.9,636.3
		L1217.1,636.2 L1218.2,636.1 L1219.4,635.9 L1220.5,635.8 L1221.7,635.7 L1222.8,635.6 L1224.0,635.5 L1225.1,635.4
		L1226.3,635.3 L1227.4,635.2 L1228.6,635.1 L1229.7,635.0 L1230.9,634.9 L1232.0,634.9 L1233.2,634.8 L1234.3,634.7
		L1235.5,634.7 L1236.6,634.6 L1237.8,634.5 L1238.9,634.5 L1240.1,634.4 L1241.2,634.4 L1242.4,634.3 L1243.5,634.3
		L1244.7,634.2 L1245.8,634.2 L1247.0,634.2 L1248.1,634.2 L1249.3,634.1 L1250.4,634.1 L1251.6,634.1 L1252.7,634.1
		L1253.9,634.1 L1255.0,634.1  '/></g>
	</g>
<g fill="none" color="white" stroke="rgb(255,   0,   0)" stroke-width="2.00" stroke-linecap="butt" stroke-linejoin="miter">
</g>
<g fill="none" color="black" stroke="currentColor" stroke-width="2.00" stroke-linecap="butt" stroke-linejoin="miter">
</g>
<g fill="none" color="black" stroke="black" stroke-width="1.00" stroke-linecap="butt" stroke-linejoin="miter">
</g>
<g fill="none" color="black" stroke="currentColor" stroke-width="1.00" stroke-linecap="butt" stroke-linejoin="miter">
	<path stroke='black'  d='M78.8,54.1 L78.8,684.0 L1255.0,684.0 L1255.0,54.1 L78.8,54.1 Z  '/></g>
<g fill="none" color="black" stroke="currentColor" stroke-width="1.00" stroke-linecap="butt" stroke-linejoin="miter">
</g>
</g>
</svg>

