<?xml version="1.0" encoding="utf-8"  standalone="no"?>
<svg 
 width="1280" height="720"
 viewBox="0 0 1280 720"
 xmlns="http://www.w3.org/2000/svg"
 xmlns:xlink="http://www.w3.org/1999/xlink"
>

<title>Gnuplot</title>
<desc>Produced by GNUPLOT 5.0 patchlevel 6 </desc>

<g id="gnuplot_canvas">

<rect x="0" y="0" width="1280" height="720" fill="none"/>
<defs>

	<circle id='gpDot' r='0.5' stroke-width='0.5'/>
	<path id='gpPt0' stroke-width='0.222' stroke='currentColor' d='M-1,0 h2 M0,-1 v2'/>
	<path id='gpPt1' stroke-width='0.222' stroke='currentColor' d='M-1,-1 L1,1 M1,-1 L-1,1'/>
	<path id='gpPt2' stroke-width='0.222' stroke='currentColor' d='M-1,0 L1,0 M0,-1 L0,1 M-1,-1 L1,1 M-1,1 L1,-1'/>
	<rect id='gpPt3' stroke-width='0.222' stroke='currentColor' x='-1' y='-1' width='2' height='2'/>
	<rect id='gpPt4' stroke-width='0.222' stroke='currentColor' fill='currentColor' x='-1' y='-1' width='2' height='2'/>
	<circle id='gpPt5' stroke-width='0.222' stroke='currentColor' cx='0' cy='0' r='1'/>
	<use xlink:href='#gpPt5' id='gpPt6' fill='currentColor' stroke='none'/>
	<path id='gpPt7' stroke-width='0.222' stroke='currentColor' d='M0,-1.33 L-1.33,0.67 L1.33,0.67 z'/>
	<use xlink:href='#gpPt7' id='gpPt8' fill='currentColor' stroke='none'/>
	<use xlink:href='#gpPt7' id='gpPt9' stroke='currentColor' transform='rotate(180)'/>
	<use xlink:href='#gpPt9' id='gpPt10' fill='currentColor' stroke='none'/>
	<use xlink:href='#gpPt3' id='gpPt11' stroke='currentColor' transform='rotate(45)'/>
	<use xlink:href='#gpPt11' id='gpPt12' fill='currentColor' stroke='none'/>
	<path id='gpPt13' stroke-width='0.222' stroke='currentColor' d='M0,1.330 L1.265,0.411 L0.782,-1.067 L-0.782,-1.076 L-1.265,0.411 z'/>
	<use xlink:href='#gpPt13' id='gpPt14' fill='currentColor' stroke='none'/>
	<filter id='textbox' filterUnits='objectBoundingBox' x='0' y='0' height='1' width='1'>
	  <feFlood flood-color='white' flood-opacity='1' result='bgnd'/>
	  <feComposite in='SourceGraphic' in2='bgnd' operator='atop'/>
	</filter>
	<filter id='greybox' filterUnits='objectBoundingBox' x='0' y='0' height='1' width='1'>
	  <feFlood flood-color='lightgrey' flood-opacity='1' result='grey'/>
	  <feComposite in='SourceGraphic' in2='grey' operator='atop'/>
	</filter>
</defs>
<g fill="none" color="white" stroke="currentColor" stroke-width="1.00" stroke-linecap="butt" stroke-linejoin="miter">
</g>
<g fill="none" color="black" stroke="currentColor" stroke-width="1.00" stroke-linecap="butt" stroke-linejoin="miter">
	<path stroke='black'  d='M78.8,671.9 L87.8,671.9 M1255.0,671.9 L1246.0,671.9  '/>	<g transform="translate(70.5,675.8)" stroke="none" fill="black" font-family="Arial" font-size="12.00"  text-anchor="end">
		<text><tspan font-family="Arial" >0.00005</tspan></text>
	</g>
</g>
<g fill="none" color="black" stroke="currentColor" stroke-width="1.00" stroke-linecap="butt" stroke-linejoin="miter">
	<path stroke='black'  d='M78.8,363.0 L87.8,363.0 M1255.0,363.0 L1246.0,363.0  '/>	<g transform="translate(70.5,366.9)" stroke="none" fill="black" font-family="Arial" font-size="12.00"  text-anchor="end">
		<text><tspan font-family="Arial" >0.00115</tspan></text>
	</g>
</g>
<g fill="none" color="black" stroke="currentColor" stroke-width="1.00" stroke-linecap="butt" stroke-linejoin="miter">
	<path stroke='black'  d='M78.8,54.1 L87.8,54.1 M1255.0,54.1 L1246.0,54.1  '/>	<g transform="translate(70.5,58.0)" stroke="none" fill="black" font-family="Arial" font-size="12.00"  text-anchor="end">
		<text><tspan font-family="Arial" >0.02648</tspan></text>
	</g>
</g>
<g fill="none" color="black" stroke="currentColor" stroke-width="1.00" stroke-linecap="butt" stroke-linejoin="miter">
	<path stroke='black'  d='M78.8,684.0 L78.8,675.0 M78.8,54.1 L78.8,63.1  '/>	<g transform="translate(78.8,705.9)" stroke="none" fill="black" font-family="Arial" font-size="12.00"  text-anchor="middle">
		<text><tspan font-family="Arial" > 0</tspan></text>
	</g>
</g>
<g fill="none" color="black" stroke="currentColor" stroke-width="1.00" stroke-linecap="butt" stroke-linejoin="miter">
	<path stroke='black'  d='M666.9,684.0 L666.9,675.0 M666.9,54.1 L666.9,63.1  '/>	<g transform="translate(666.9,705.9)" stroke="none" fill="black" font-family="Arial" font-size="12.00"  text-anchor="middle">
		<text><tspan font-family="Arial" >pi/2</tspan></text>
	</g>
</g>
<g fill="none" color="black" stroke="currentColor" stroke-width="1.00" stroke-linecap="butt" stroke-linejoin="miter">
	<path stroke='black'  d='M1255.0,684.0 L1255.0,675.0 M1255.0,54.1 L1255.0,63.1  '/>	<g transform="translate(1255.0,705.9)" stroke="none" fill="black" font-family="Arial" font-size="12.00"  text-anchor="middle">
		<text><tspan font-family="Arial" >pi</tspan></text>
	</g>
</g>
<g fill="none" color="black" stroke="currentColor" stroke-width="1.00" stroke-linecap="butt" stroke-linejoin="miter">
</g>
<g fill="none" color="black" stroke="currentColor" stroke-width="1.00" stroke-linecap="butt" stroke-linejoin="miter">
	<path stroke='black'  d='M78.8,54.1 L78.8,684.0 L1255.0,684.0 L1255.0,54.1 L78.8,54.1 Z  '/></g>
<g fill="none" color="black" stroke="currentColor" stroke-width="1.00" stroke-linecap="butt" stroke-linejoin="miter">
	<g transform="translate(666.9,31.0)" stroke="none" fill="black" font-family="Arial" font-size="12.00"  text-anchor="middle">
		<text><tspan font-family="Arial" >Material 29, with 1 components</tspan></text>
	</g>
</g>
	<g id="gnuplot_plot_1" ><title>scattering function</title>
<g fill="none" color="black" stroke="currentColor" stroke-width="1.00" stroke-linecap="butt" stroke-linejoin="miter">
	<g transform="translate(1187.9,76.0)" stroke="none" fill="black" font-family="Arial" font-size="12.00"  text-anchor="end">
		<text><tspan font-family="Arial" >scattering function</tspan></text>
	</g>
</g>
<g fill="none" color="black" stroke="currentColor" stroke-width="1.00" stroke-linecap="butt" stroke-linejoin="miter">
	<use xlink:href='#gpPt5' transform='translate(78.8,100.4) scale(2.25)' color='rgb(255,   0,   0)'/>
	<use xlink:href='#gpPt5' transform='translate(79.5,100.4) scale(2.25)' color='rgb(255,   0,   0)'/>
	<use xlink:href='#gpPt5' transform='translate(80.1,100.5) scale(2.25)' color='rgb(255,   0,   0)'/>
	<use xlink:href='#gpPt5' transform='translate(80.8,100.7) scale(2.25)' color='rgb(255,   0,   0)'/>
	<use xlink:href='#gpPt5' transform='translate(81.4,100.9) scale(2.25)' color='rgb(255,   0,   0)'/>
	<use xlink:href='#gpPt5' transform='translate(82.1,101.2) scale(2.25)' color='rgb(255,   0,   0)'/>
	<use xlink:href='#gpPt5' transform='translate(82.7,101.4) scale(2.25)' color='rgb(255,   0,   0)'/>
	<use xlink:href='#gpPt5' transform='translate(83.4,101.8) scale(2.25)' color='rgb(255,   0,   0)'/>
	<use xlink:href='#gpPt5' transform='translate(84.0,102.1) scale(2.25)' color='rgb(255,   0,   0)'/>
	<use xlink:href='#gpPt5' transform='translate(84.7,102.5) scale(2.25)' color='rgb(255,   0,   0)'/>
	<use xlink:href='#gpPt5' transform='translate(85.3,103.0) scale(2.25)' color='rgb(255,   0,   0)'/>
	<use xlink:href='#gpPt5' transform='translate(86.0,103.4) scale(2.25)' color='rgb(255,   0,   0)'/>
	<use xlink:href='#gpPt5' transform='translate(86.6,103.9) scale(2.25)' color='rgb(255,   0,   0)'/>
	<use xlink:href='#gpPt5' transform='translate(87.3,104.4) scale(2.25)' color='rgb(255,   0,   0)'/>
	<use xlink:href='#gpPt5' transform='translate(87.9,105.0) scale(2.25)' color='rgb(255,   0,   0)'/>
	<use xlink:href='#gpPt5' transform='translate(88.6,105.5) scale(2.25)' color='rgb(255,   0,   0)'/>
	<use xlink:href='#gpPt5' transform='translate(89.3,106.0) scale(2.25)' color='rgb(255,   0,   0)'/>
	<use xlink:href='#gpPt5' transform='translate(89.9,106.6) scale(2.25)' color='rgb(255,   0,   0)'/>
	<use xlink:href='#gpPt5' transform='translate(90.6,107.2) scale(2.25)' color='rgb(255,   0,   0)'/>
	<use xlink:href='#gpPt5' transform='translate(91.2,107.7) scale(2.25)' color='rgb(255,   0,   0)'/>
	<use xlink:href='#gpPt5' transform='translate(91.9,108.3) scale(2.25)' color='rgb(255,   0,   0)'/>
	<use xlink:href='#gpPt5' transform='translate(98.4,114.5) scale(2.25)' color='rgb(255,   0,   0)'/>
	<use xlink:href='#gpPt5' transform='translate(104.9,121.0) scale(2.25)' color='rgb(255,   0,   0)'/>
	<use xlink:href='#gpPt5' transform='translate(111.5,127.6) scale(2.25)' color='rgb(255,   0,   0)'/>
	<use xlink:href='#gpPt5' transform='translate(118.0,134.4) scale(2.25)' color='rgb(255,   0,   0)'/>
	<use xlink:href='#gpPt5' transform='translate(131.1,148.2) scale(2.25)' color='rgb(255,   0,   0)'/>
	<use xlink:href='#gpPt5' transform='translate(144.1,162.2) scale(2.25)' color='rgb(255,   0,   0)'/>
	<use xlink:href='#gpPt5' transform='translate(157.2,176.5) scale(2.25)' color='rgb(255,   0,   0)'/>
	<use xlink:href='#gpPt5' transform='translate(170.3,190.8) scale(2.25)' color='rgb(255,   0,   0)'/>
	<use xlink:href='#gpPt5' transform='translate(183.4,205.3) scale(2.25)' color='rgb(255,   0,   0)'/>
	<use xlink:href='#gpPt5' transform='translate(196.4,219.8) scale(2.25)' color='rgb(255,   0,   0)'/>
	<use xlink:href='#gpPt5' transform='translate(209.5,234.3) scale(2.25)' color='rgb(255,   0,   0)'/>
	<use xlink:href='#gpPt5' transform='translate(222.6,248.9) scale(2.25)' color='rgb(255,   0,   0)'/>
	<use xlink:href='#gpPt5' transform='translate(235.6,263.4) scale(2.25)' color='rgb(255,   0,   0)'/>
	<use xlink:href='#gpPt5' transform='translate(248.7,277.9) scale(2.25)' color='rgb(255,   0,   0)'/>
	<use xlink:href='#gpPt5' transform='translate(261.8,292.3) scale(2.25)' color='rgb(255,   0,   0)'/>
	<use xlink:href='#gpPt5' transform='translate(274.8,306.5) scale(2.25)' color='rgb(255,   0,   0)'/>
	<use xlink:href='#gpPt5' transform='translate(287.9,320.7) scale(2.25)' color='rgb(255,   0,   0)'/>
	<use xlink:href='#gpPt5' transform='translate(301.0,334.7) scale(2.25)' color='rgb(255,   0,   0)'/>
	<use xlink:href='#gpPt5' transform='translate(314.0,348.5) scale(2.25)' color='rgb(255,   0,   0)'/>
	<use xlink:href='#gpPt5' transform='translate(327.1,362.1) scale(2.25)' color='rgb(255,   0,   0)'/>
	<use xlink:href='#gpPt5' transform='translate(340.2,375.6) scale(2.25)' color='rgb(255,   0,   0)'/>
	<use xlink:href='#gpPt5' transform='translate(353.2,388.8) scale(2.25)' color='rgb(255,   0,   0)'/>
	<use xlink:href='#gpPt5' transform='translate(366.3,401.7) scale(2.25)' color='rgb(255,   0,   0)'/>
	<use xlink:href='#gpPt5' transform='translate(379.4,414.5) scale(2.25)' color='rgb(255,   0,   0)'/>
	<use xlink:href='#gpPt5' transform='translate(392.5,427.0) scale(2.25)' color='rgb(255,   0,   0)'/>
	<use xlink:href='#gpPt5' transform='translate(405.5,439.3) scale(2.25)' color='rgb(255,   0,   0)'/>
	<use xlink:href='#gpPt5' transform='translate(418.6,451.3) scale(2.25)' color='rgb(255,   0,   0)'/>
	<use xlink:href='#gpPt5' transform='translate(431.7,463.0) scale(2.25)' color='rgb(255,   0,   0)'/>
	<use xlink:href='#gpPt5' transform='translate(444.7,474.5) scale(2.25)' color='rgb(255,   0,   0)'/>
	<use xlink:href='#gpPt5' transform='translate(457.8,485.7) scale(2.25)' color='rgb(255,   0,   0)'/>
	<use xlink:href='#gpPt5' transform='translate(470.9,496.6) scale(2.25)' color='rgb(255,   0,   0)'/>
	<use xlink:href='#gpPt5' transform='translate(483.9,507.2) scale(2.25)' color='rgb(255,   0,   0)'/>
	<use xlink:href='#gpPt5' transform='translate(497.0,517.6) scale(2.25)' color='rgb(255,   0,   0)'/>
	<use xlink:href='#gpPt5' transform='translate(510.1,527.7) scale(2.25)' color='rgb(255,   0,   0)'/>
	<use xlink:href='#gpPt5' transform='translate(523.1,537.5) scale(2.25)' color='rgb(255,   0,   0)'/>
	<use xlink:href='#gpPt5' transform='translate(536.2,547.0) scale(2.25)' color='rgb(255,   0,   0)'/>
	<use xlink:href='#gpPt5' transform='translate(549.3,556.2) scale(2.25)' color='rgb(255,   0,   0)'/>
	<use xlink:href='#gpPt5' transform='translate(562.3,565.1) scale(2.25)' color='rgb(255,   0,   0)'/>
	<use xlink:href='#gpPt5' transform='translate(575.4,573.6) scale(2.25)' color='rgb(255,   0,   0)'/>
	<use xlink:href='#gpPt5' transform='translate(588.5,581.9) scale(2.25)' color='rgb(255,   0,   0)'/>
	<use xlink:href='#gpPt5' transform='translate(601.6,589.8) scale(2.25)' color='rgb(255,   0,   0)'/>
	<use xlink:href='#gpPt5' transform='translate(614.6,597.5) scale(2.25)' color='rgb(255,   0,   0)'/>
	<use xlink:href='#gpPt5' transform='translate(627.7,604.8) scale(2.25)' color='rgb(255,   0,   0)'/>
	<use xlink:href='#gpPt5' transform='translate(640.8,611.6) scale(2.25)' color='rgb(255,   0,   0)'/>
	<use xlink:href='#gpPt5' transform='translate(653.8,618.2) scale(2.25)' color='rgb(255,   0,   0)'/>
	<use xlink:href='#gpPt5' transform='translate(666.9,624.4) scale(2.25)' color='rgb(255,   0,   0)'/>
	<use xlink:href='#gpPt5' transform='translate(680.0,630.3) scale(2.25)' color='rgb(255,   0,   0)'/>
	<use xlink:href='#gpPt5' transform='translate(693.0,635.7) scale(2.25)' color='rgb(255,   0,   0)'/>
	<use xlink:href='#gpPt5' transform='translate(706.1,640.9) scale(2.25)' color='rgb(255,   0,   0)'/>
	<use xlink:href='#gpPt5' transform='translate(719.2,645.7) scale(2.25)' color='rgb(255,   0,   0)'/>
	<use xlink:href='#gpPt5' transform='translate(732.2,650.1) scale(2.25)' color='rgb(255,   0,   0)'/>
	<use xlink:href='#gpPt5' transform='translate(745.3,654.0) scale(2.25)' color='rgb(255,   0,   0)'/>
	<use xlink:href='#gpPt5' transform='translate(758.4,657.6) scale(2.25)' color='rgb(255,   0,   0)'/>
	<use xlink:href='#gpPt5' transform='translate(771.5,660.8) scale(2.25)' color='rgb(255,   0,   0)'/>
	<use xlink:href='#gpPt5' transform='translate(784.5,663.7) scale(2.25)' color='rgb(255,   0,   0)'/>
	<use xlink:href='#gpPt5' transform='translate(797.6,666.0) scale(2.25)' color='rgb(255,   0,   0)'/>
	<use xlink:href='#gpPt5' transform='translate(810.7,668.0) scale(2.25)' color='rgb(255,   0,   0)'/>
	<use xlink:href='#gpPt5' transform='translate(823.7,669.7) scale(2.25)' color='rgb(255,   0,   0)'/>
	<use xlink:href='#gpPt5' transform='translate(836.8,670.9) scale(2.25)' color='rgb(255,   0,   0)'/>
	<use xlink:href='#gpPt5' transform='translate(849.9,671.7) scale(2.25)' color='rgb(255,   0,   0)'/>
	<use xlink:href='#gpPt5' transform='translate(862.9,671.9) scale(2.25)' color='rgb(255,   0,   0)'/>
	<use xlink:href='#gpPt5' transform='translate(876.0,671.8) scale(2.25)' color='rgb(255,   0,   0)'/>
	<use xlink:href='#gpPt5' transform='translate(889.1,671.2) scale(2.25)' color='rgb(255,   0,   0)'/>
	<use xlink:href='#gpPt5' transform='translate(902.1,670.1) scale(2.25)' color='rgb(255,   0,   0)'/>
	<use xlink:href='#gpPt5' transform='translate(915.2,668.7) scale(2.25)' color='rgb(255,   0,   0)'/>
	<use xlink:href='#gpPt5' transform='translate(928.3,666.8) scale(2.25)' color='rgb(255,   0,   0)'/>
	<use xlink:href='#gpPt5' transform='translate(941.3,664.5) scale(2.25)' color='rgb(255,   0,   0)'/>
	<use xlink:href='#gpPt5' transform='translate(954.4,661.8) scale(2.25)' color='rgb(255,   0,   0)'/>
	<use xlink:href='#gpPt5' transform='translate(967.5,658.7) scale(2.25)' color='rgb(255,   0,   0)'/>
	<use xlink:href='#gpPt5' transform='translate(980.6,655.3) scale(2.25)' color='rgb(255,   0,   0)'/>
	<use xlink:href='#gpPt5' transform='translate(993.6,651.6) scale(2.25)' color='rgb(255,   0,   0)'/>
	<use xlink:href='#gpPt5' transform='translate(1006.7,647.4) scale(2.25)' color='rgb(255,   0,   0)'/>
	<use xlink:href='#gpPt5' transform='translate(1019.8,643.1) scale(2.25)' color='rgb(255,   0,   0)'/>
	<use xlink:href='#gpPt5' transform='translate(1032.8,638.9) scale(2.25)' color='rgb(255,   0,   0)'/>
	<use xlink:href='#gpPt5' transform='translate(1045.9,634.6) scale(2.25)' color='rgb(255,   0,   0)'/>
	<use xlink:href='#gpPt5' transform='translate(1059.0,630.5) scale(2.25)' color='rgb(255,   0,   0)'/>
	<use xlink:href='#gpPt5' transform='translate(1072.0,626.4) scale(2.25)' color='rgb(255,   0,   0)'/>
	<use xlink:href='#gpPt5' transform='translate(1085.1,622.5) scale(2.25)' color='rgb(255,   0,   0)'/>
	<use xlink:href='#gpPt5' transform='translate(1098.2,619.1) scale(2.25)' color='rgb(255,   0,   0)'/>
	<use xlink:href='#gpPt5' transform='translate(1111.2,616.2) scale(2.25)' color='rgb(255,   0,   0)'/>
	<use xlink:href='#gpPt5' transform='translate(1124.3,613.9) scale(2.25)' color='rgb(255,   0,   0)'/>
	<use xlink:href='#gpPt5' transform='translate(1137.4,612.5) scale(2.25)' color='rgb(255,   0,   0)'/>
	<use xlink:href='#gpPt5' transform='translate(1150.4,612.2) scale(2.25)' color='rgb(255,   0,   0)'/>
	<use xlink:href='#gpPt5' transform='translate(1163.5,613.6) scale(2.25)' color='rgb(255,   0,   0)'/>
	<use xlink:href='#gpPt5' transform='translate(1176.6,616.8) scale(2.25)' color='rgb(255,   0,   0)'/>
	<use xlink:href='#gpPt5' transform='translate(1189.7,621.3) scale(2.25)' color='rgb(255,   0,   0)'/>
	<use xlink:href='#gpPt5' transform='translate(1202.7,625.0) scale(2.25)' color='rgb(255,   0,   0)'/>
	<use xlink:href='#gpPt5' transform='translate(1215.8,625.0) scale(2.25)' color='rgb(255,   0,   0)'/>
	<use xlink:href='#gpPt5' transform='translate(1228.9,619.5) scale(2.25)' color='rgb(255,   0,   0)'/>
	<use xlink:href='#gpPt5' transform='translate(1241.9,611.2) scale(2.25)' color='rgb(255,   0,   0)'/>
	<use xlink:href='#gpPt5' transform='translate(1255.0,606.9) scale(2.25)' color='rgb(255,   0,   0)'/>
	<use xlink:href='#gpPt5' transform='translate(1217.3,72.1) scale(2.25)' color='rgb(255,   0,   0)'/>
</g>
	</g>
	<g id="gnuplot_plot_2" ><title>gnuplot_plot_2</title>
<g fill="none" color="black" stroke="currentColor" stroke-width="1.00" stroke-linecap="butt" stroke-linejoin="miter">
	<use xlink:href='#gpPt5' transform='translate(78.8,85.9) scale(2.25)' color='rgb(  0, 100,   0)'/>
	<use xlink:href='#gpPt5' transform='translate(79.5,86.0) scale(2.25)' color='rgb(  0, 100,   0)'/>
	<use xlink:href='#gpPt5' transform='translate(80.1,86.1) scale(2.25)' color='rgb(  0, 100,   0)'/>
	<use xlink:href='#gpPt5' transform='translate(80.8,86.2) scale(2.25)' color='rgb(  0, 100,   0)'/>
	<use xlink:href='#gpPt5' transform='translate(81.4,86.5) scale(2.25)' color='rgb(  0, 100,   0)'/>
	<use xlink:href='#gpPt5' transform='translate(82.1,86.8) scale(2.25)' color='rgb(  0, 100,   0)'/>
	<use xlink:href='#gpPt5' transform='translate(82.7,87.2) scale(2.25)' color='rgb(  0, 100,   0)'/>
	<use xlink:href='#gpPt5' transform='translate(83.4,87.5) scale(2.25)' color='rgb(  0, 100,   0)'/>
	<use xlink:href='#gpPt5' transform='translate(84.0,88.0) scale(2.25)' color='rgb(  0, 100,   0)'/>
	<use xlink:href='#gpPt5' transform='translate(84.7,88.4) scale(2.25)' color='rgb(  0, 100,   0)'/>
	<use xlink:href='#gpPt5' transform='translate(85.3,88.9) scale(2.25)' color='rgb(  0, 100,   0)'/>
	<use xlink:href='#gpPt5' transform='translate(86.0,89.5) scale(2.25)' color='rgb(  0, 100,   0)'/>
	<use xlink:href='#gpPt5' transform='translate(86.6,90.0) scale(2.25)' color='rgb(  0, 100,   0)'/>
	<use xlink:href='#gpPt5' transform='translate(87.3,90.6) scale(2.25)' color='rgb(  0, 100,   0)'/>
	<use xlink:href='#gpPt5' transform='translate(87.9,91.2) scale(2.25)' color='rgb(  0, 100,   0)'/>
	<use xlink:href='#gpPt5' transform='translate(88.6,91.8) scale(2.25)' color='rgb(  0, 100,   0)'/>
	<use xlink:href='#gpPt5' transform='translate(89.3,92.4) scale(2.25)' color='rgb(  0, 100,   0)'/>
	<use xlink:href='#gpPt5' transform='translate(89.9,93.0) scale(2.25)' color='rgb(  0, 100,   0)'/>
	<use xlink:href='#gpPt5' transform='translate(90.6,93.7) scale(2.25)' color='rgb(  0, 100,   0)'/>
	<use xlink:href='#gpPt5' transform='translate(91.2,94.3) scale(2.25)' color='rgb(  0, 100,   0)'/>
	<use xlink:href='#gpPt5' transform='translate(91.9,94.9) scale(2.25)' color='rgb(  0, 100,   0)'/>
	<use xlink:href='#gpPt5' transform='translate(98.4,101.8) scale(2.25)' color='rgb(  0, 100,   0)'/>
	<use xlink:href='#gpPt5' transform='translate(104.9,109.0) scale(2.25)' color='rgb(  0, 100,   0)'/>
	<use xlink:href='#gpPt5' transform='translate(111.5,116.2) scale(2.25)' color='rgb(  0, 100,   0)'/>
	<use xlink:href='#gpPt5' transform='translate(118.0,123.6) scale(2.25)' color='rgb(  0, 100,   0)'/>
	<use xlink:href='#gpPt5' transform='translate(131.1,138.4) scale(2.25)' color='rgb(  0, 100,   0)'/>
	<use xlink:href='#gpPt5' transform='translate(144.1,153.2) scale(2.25)' color='rgb(  0, 100,   0)'/>
	<use xlink:href='#gpPt5' transform='translate(157.2,168.2) scale(2.25)' color='rgb(  0, 100,   0)'/>
	<use xlink:href='#gpPt5' transform='translate(170.3,183.2) scale(2.25)' color='rgb(  0, 100,   0)'/>
	<use xlink:href='#gpPt5' transform='translate(183.4,198.1) scale(2.25)' color='rgb(  0, 100,   0)'/>
	<use xlink:href='#gpPt5' transform='translate(196.4,213.0) scale(2.25)' color='rgb(  0, 100,   0)'/>
	<use xlink:href='#gpPt5' transform='translate(209.5,228.0) scale(2.25)' color='rgb(  0, 100,   0)'/>
	<use xlink:href='#gpPt5' transform='translate(222.6,242.9) scale(2.25)' color='rgb(  0, 100,   0)'/>
	<use xlink:href='#gpPt5' transform='translate(235.6,257.7) scale(2.25)' color='rgb(  0, 100,   0)'/>
	<use xlink:href='#gpPt5' transform='translate(248.7,272.4) scale(2.25)' color='rgb(  0, 100,   0)'/>
	<use xlink:href='#gpPt5' transform='translate(261.8,287.0) scale(2.25)' color='rgb(  0, 100,   0)'/>
	<use xlink:href='#gpPt5' transform='translate(274.8,301.5) scale(2.25)' color='rgb(  0, 100,   0)'/>
	<use xlink:href='#gpPt5' transform='translate(287.9,315.8) scale(2.25)' color='rgb(  0, 100,   0)'/>
	<use xlink:href='#gpPt5' transform='translate(301.0,329.9) scale(2.25)' color='rgb(  0, 100,   0)'/>
	<use xlink:href='#gpPt5' transform='translate(314.0,343.9) scale(2.25)' color='rgb(  0, 100,   0)'/>
	<use xlink:href='#gpPt5' transform='translate(327.1,357.6) scale(2.25)' color='rgb(  0, 100,   0)'/>
	<use xlink:href='#gpPt5' transform='translate(340.2,371.1) scale(2.25)' color='rgb(  0, 100,   0)'/>
	<use xlink:href='#gpPt5' transform='translate(353.2,384.4) scale(2.25)' color='rgb(  0, 100,   0)'/>
	<use xlink:href='#gpPt5' transform='translate(366.3,397.5) scale(2.25)' color='rgb(  0, 100,   0)'/>
	<use xlink:href='#gpPt5' transform='translate(379.4,410.4) scale(2.25)' color='rgb(  0, 100,   0)'/>
	<use xlink:href='#gpPt5' transform='translate(392.5,422.9) scale(2.25)' color='rgb(  0, 100,   0)'/>
	<use xlink:href='#gpPt5' transform='translate(405.5,435.3) scale(2.25)' color='rgb(  0, 100,   0)'/>
	<use xlink:href='#gpPt5' transform='translate(418.6,447.3) scale(2.25)' color='rgb(  0, 100,   0)'/>
	<use xlink:href='#gpPt5' transform='translate(431.7,459.1) scale(2.25)' color='rgb(  0, 100,   0)'/>
	<use xlink:href='#gpPt5' transform='translate(444.7,470.6) scale(2.25)' color='rgb(  0, 100,   0)'/>
	<use xlink:href='#gpPt5' transform='translate(457.8,481.7) scale(2.25)' color='rgb(  0, 100,   0)'/>
	<use xlink:href='#gpPt5' transform='translate(470.9,492.7) scale(2.25)' color='rgb(  0, 100,   0)'/>
	<use xlink:href='#gpPt5' transform='translate(483.9,503.5) scale(2.25)' color='rgb(  0, 100,   0)'/>
	<use xlink:href='#gpPt5' transform='translate(497.0,513.8) scale(2.25)' color='rgb(  0, 100,   0)'/>
	<use xlink:href='#gpPt5' transform='translate(510.1,523.9) scale(2.25)' color='rgb(  0, 100,   0)'/>
	<use xlink:href='#gpPt5' transform='translate(523.1,533.7) scale(2.25)' color='rgb(  0, 100,   0)'/>
	<use xlink:href='#gpPt5' transform='translate(536.2,543.2) scale(2.25)' color='rgb(  0, 100,   0)'/>
	<use xlink:href='#gpPt5' transform='translate(549.3,552.3) scale(2.25)' color='rgb(  0, 100,   0)'/>
	<use xlink:href='#gpPt5' transform='translate(562.3,561.2) scale(2.25)' color='rgb(  0, 100,   0)'/>
	<use xlink:href='#gpPt5' transform='translate(575.4,569.8) scale(2.25)' color='rgb(  0, 100,   0)'/>
	<use xlink:href='#gpPt5' transform='translate(588.5,578.0) scale(2.25)' color='rgb(  0, 100,   0)'/>
	<use xlink:href='#gpPt5' transform='translate(601.6,585.9) scale(2.25)' color='rgb(  0, 100,   0)'/>
	<use xlink:href='#gpPt5' transform='translate(614.6,593.3) scale(2.25)' color='rgb(  0, 100,   0)'/>
	<use xlink:href='#gpPt5' transform='translate(627.7,600.6) scale(2.25)' color='rgb(  0, 100,   0)'/>
	<use xlink:href='#gpPt5' transform='translate(640.8,607.5) scale(2.25)' color='rgb(  0, 100,   0)'/>
	<use xlink:href='#gpPt5' transform='translate(653.8,614.0) scale(2.25)' color='rgb(  0, 100,   0)'/>
	<use xlink:href='#gpPt5' transform='translate(666.9,620.2) scale(2.25)' color='rgb(  0, 100,   0)'/>
	<use xlink:href='#gpPt5' transform='translate(680.0,626.1) scale(2.25)' color='rgb(  0, 100,   0)'/>
	<use xlink:href='#gpPt5' transform='translate(693.0,631.5) scale(2.25)' color='rgb(  0, 100,   0)'/>
	<use xlink:href='#gpPt5' transform='translate(706.1,636.6) scale(2.25)' color='rgb(  0, 100,   0)'/>
	<use xlink:href='#gpPt5' transform='translate(719.2,641.2) scale(2.25)' color='rgb(  0, 100,   0)'/>
	<use xlink:href='#gpPt5' transform='translate(732.2,645.6) scale(2.25)' color='rgb(  0, 100,   0)'/>
	<use xlink:href='#gpPt5' transform='translate(745.3,649.6) scale(2.25)' color='rgb(  0, 100,   0)'/>
	<use xlink:href='#gpPt5' transform='translate(758.4,653.1) scale(2.25)' color='rgb(  0, 100,   0)'/>
	<use xlink:href='#gpPt5' transform='translate(771.5,656.3) scale(2.25)' color='rgb(  0, 100,   0)'/>
	<use xlink:href='#gpPt5' transform='translate(784.5,659.0) scale(2.25)' color='rgb(  0, 100,   0)'/>
	<use xlink:href='#gpPt5' transform='translate(797.6,661.4) scale(2.25)' color='rgb(  0, 100,   0)'/>
	<use xlink:href='#gpPt5' transform='translate(810.7,663.3) scale(2.25)' color='rgb(  0, 100,   0)'/>
	<use xlink:href='#gpPt5' transform='translate(823.7,664.8) scale(2.25)' color='rgb(  0, 100,   0)'/>
	<use xlink:href='#gpPt5' transform='translate(836.8,665.8) scale(2.25)' color='rgb(  0, 100,   0)'/>
	<use xlink:href='#gpPt5' transform='translate(849.9,666.5) scale(2.25)' color='rgb(  0, 100,   0)'/>
	<use xlink:href='#gpPt5' transform='translate(862.9,666.6) scale(2.25)' color='rgb(  0, 100,   0)'/>
	<use xlink:href='#gpPt5' transform='translate(876.0,666.3) scale(2.25)' color='rgb(  0, 100,   0)'/>
	<use xlink:href='#gpPt5' transform='translate(889.1,665.6) scale(2.25)' color='rgb(  0, 100,   0)'/>
	<use xlink:href='#gpPt5' transform='translate(902.1,664.4) scale(2.25)' color='rgb(  0, 100,   0)'/>
	<use xlink:href='#gpPt5' transform='translate(915.2,662.7) scale(2.25)' color='rgb(  0, 100,   0)'/>
	<use xlink:href='#gpPt5' transform='translate(928.3,660.6) scale(2.25)' color='rgb(  0, 100,   0)'/>
	<use xlink:href='#gpPt5' transform='translate(941.3,658.1) scale(2.25)' color='rgb(  0, 100,   0)'/>
	<use xlink:href='#gpPt5' transform='translate(954.4,655.2) scale(2.25)' color='rgb(  0, 100,   0)'/>
	<use xlink:href='#gpPt5' transform='translate(967.5,651.7) scale(2.25)' color='rgb(  0, 100,   0)'/>
	<use xlink:href='#gpPt5' transform='translate(980.6,647.8) scale(2.25)' color='rgb(  0, 100,   0)'/>
	<use xlink:href='#gpPt5' transform='translate(993.6,643.7) scale(2.25)' color='rgb(  0, 100,   0)'/>
	<use xlink:href='#gpPt5' transform='translate(1006.7,639.5) scale(2.25)' color='rgb(  0, 100,   0)'/>
	<use xlink:href='#gpPt5' transform='translate(1019.8,635.0) scale(2.25)' color='rgb(  0, 100,   0)'/>
	<use xlink:href='#gpPt5' transform='translate(1032.8,630.3) scale(2.25)' color='rgb(  0, 100,   0)'/>
	<use xlink:href='#gpPt5' transform='translate(1045.9,625.4) scale(2.25)' color='rgb(  0, 100,   0)'/>
	<use xlink:href='#gpPt5' transform='translate(1059.0,620.8) scale(2.25)' color='rgb(  0, 100,   0)'/>
	<use xlink:href='#gpPt5' transform='translate(1072.0,616.7) scale(2.25)' color='rgb(  0, 100,   0)'/>
	<use xlink:href='#gpPt5' transform='translate(1085.1,612.9) scale(2.25)' color='rgb(  0, 100,   0)'/>
	<use xlink:href='#gpPt5' transform='translate(1098.2,609.2) scale(2.25)' color='rgb(  0, 100,   0)'/>
	<use xlink:href='#gpPt5' transform='translate(1111.2,606.2) scale(2.25)' color='rgb(  0, 100,   0)'/>
	<use xlink:href='#gpPt5' transform='translate(1124.3,603.8) scale(2.25)' color='rgb(  0, 100,   0)'/>
	<use xlink:href='#gpPt5' transform='translate(1137.4,602.2) scale(2.25)' color='rgb(  0, 100,   0)'/>
	<use xlink:href='#gpPt5' transform='translate(1150.4,601.9) scale(2.25)' color='rgb(  0, 100,   0)'/>
	<use xlink:href='#gpPt5' transform='translate(1163.5,603.6) scale(2.25)' color='rgb(  0, 100,   0)'/>
	<use xlink:href='#gpPt5' transform='translate(1176.6,607.4) scale(2.25)' color='rgb(  0, 100,   0)'/>
	<use xlink:href='#gpPt5' transform='translate(1189.7,613.0) scale(2.25)' color='rgb(  0, 100,   0)'/>
	<use xlink:href='#gpPt5' transform='translate(1202.7,618.0) scale(2.25)' color='rgb(  0, 100,   0)'/>
	<use xlink:href='#gpPt5' transform='translate(1215.8,618.1) scale(2.25)' color='rgb(  0, 100,   0)'/>
	<use xlink:href='#gpPt5' transform='translate(1228.9,611.5) scale(2.25)' color='rgb(  0, 100,   0)'/>
	<use xlink:href='#gpPt5' transform='translate(1241.9,601.5) scale(2.25)' color='rgb(  0, 100,   0)'/>
	<use xlink:href='#gpPt5' transform='translate(1255.0,596.2) scale(2.25)' color='rgb(  0, 100,   0)'/>
</g>
	</g>
	<g id="gnuplot_plot_3" ><title>gnuplot_plot_3</title>
<g fill="none" color="black" stroke="currentColor" stroke-width="1.00" stroke-linecap="butt" stroke-linejoin="miter">
	<use xlink:href='#gpPt5' transform='translate(78.8,54.1) scale(2.25)' color='rgb(  0,   0, 255)'/>
	<use xlink:href='#gpPt5' transform='translate(79.5,54.1) scale(2.25)' color='rgb(  0,   0, 255)'/>
	<use xlink:href='#gpPt5' transform='translate(80.1,54.3) scale(2.25)' color='rgb(  0,   0, 255)'/>
	<use xlink:href='#gpPt5' transform='translate(80.8,54.6) scale(2.25)' color='rgb(  0,   0, 255)'/>
	<use xlink:href='#gpPt5' transform='translate(81.4,55.0) scale(2.25)' color='rgb(  0,   0, 255)'/>
	<use xlink:href='#gpPt5' transform='translate(82.1,55.4) scale(2.25)' color='rgb(  0,   0, 255)'/>
	<use xlink:href='#gpPt5' transform='translate(82.7,55.9) scale(2.25)' color='rgb(  0,   0, 255)'/>
	<use xlink:href='#gpPt5' transform='translate(83.4,56.5) scale(2.25)' color='rgb(  0,   0, 255)'/>
	<use xlink:href='#gpPt5' transform='translate(84.0,57.1) scale(2.25)' color='rgb(  0,   0, 255)'/>
	<use xlink:href='#gpPt5' transform='translate(84.7,57.8) scale(2.25)' color='rgb(  0,   0, 255)'/>
	<use xlink:href='#gpPt5' transform='translate(85.3,58.5) scale(2.25)' color='rgb(  0,   0, 255)'/>
	<use xlink:href='#gpPt5' transform='translate(86.0,59.2) scale(2.25)' color='rgb(  0,   0, 255)'/>
	<use xlink:href='#gpPt5' transform='translate(86.6,60.0) scale(2.25)' color='rgb(  0,   0, 255)'/>
	<use xlink:href='#gpPt5' transform='translate(87.3,60.7) scale(2.25)' color='rgb(  0,   0, 255)'/>
	<use xlink:href='#gpPt5' transform='translate(87.9,61.5) scale(2.25)' color='rgb(  0,   0, 255)'/>
	<use xlink:href='#gpPt5' transform='translate(88.6,62.3) scale(2.25)' color='rgb(  0,   0, 255)'/>
	<use xlink:href='#gpPt5' transform='translate(89.3,63.1) scale(2.25)' color='rgb(  0,   0, 255)'/>
	<use xlink:href='#gpPt5' transform='translate(89.9,63.9) scale(2.25)' color='rgb(  0,   0, 255)'/>
	<use xlink:href='#gpPt5' transform='translate(90.6,64.8) scale(2.25)' color='rgb(  0,   0, 255)'/>
	<use xlink:href='#gpPt5' transform='translate(91.2,65.6) scale(2.25)' color='rgb(  0,   0, 255)'/>
	<use xlink:href='#gpPt5' transform='translate(91.9,66.5) scale(2.25)' color='rgb(  0,   0, 255)'/>
	<use xlink:href='#gpPt5' transform='translate(98.4,75.2) scale(2.25)' color='rgb(  0,   0, 255)'/>
	<use xlink:href='#gpPt5' transform='translate(104.9,84.1) scale(2.25)' color='rgb(  0,   0, 255)'/>
	<use xlink:href='#gpPt5' transform='translate(111.5,92.9) scale(2.25)' color='rgb(  0,   0, 255)'/>
	<use xlink:href='#gpPt5' transform='translate(118.0,101.7) scale(2.25)' color='rgb(  0,   0, 255)'/>
	<use xlink:href='#gpPt5' transform='translate(131.1,119.0) scale(2.25)' color='rgb(  0,   0, 255)'/>
	<use xlink:href='#gpPt5' transform='translate(144.1,136.1) scale(2.25)' color='rgb(  0,   0, 255)'/>
	<use xlink:href='#gpPt5' transform='translate(157.2,152.9) scale(2.25)' color='rgb(  0,   0, 255)'/>
	<use xlink:href='#gpPt5' transform='translate(170.3,169.4) scale(2.25)' color='rgb(  0,   0, 255)'/>
	<use xlink:href='#gpPt5' transform='translate(183.4,185.6) scale(2.25)' color='rgb(  0,   0, 255)'/>
	<use xlink:href='#gpPt5' transform='translate(196.4,201.5) scale(2.25)' color='rgb(  0,   0, 255)'/>
	<use xlink:href='#gpPt5' transform='translate(209.5,217.2) scale(2.25)' color='rgb(  0,   0, 255)'/>
	<use xlink:href='#gpPt5' transform='translate(222.6,232.8) scale(2.25)' color='rgb(  0,   0, 255)'/>
	<use xlink:href='#gpPt5' transform='translate(235.6,248.2) scale(2.25)' color='rgb(  0,   0, 255)'/>
	<use xlink:href='#gpPt5' transform='translate(248.7,263.3) scale(2.25)' color='rgb(  0,   0, 255)'/>
	<use xlink:href='#gpPt5' transform='translate(261.8,278.3) scale(2.25)' color='rgb(  0,   0, 255)'/>
	<use xlink:href='#gpPt5' transform='translate(274.8,293.0) scale(2.25)' color='rgb(  0,   0, 255)'/>
	<use xlink:href='#gpPt5' transform='translate(287.9,307.6) scale(2.25)' color='rgb(  0,   0, 255)'/>
	<use xlink:href='#gpPt5' transform='translate(301.0,322.0) scale(2.25)' color='rgb(  0,   0, 255)'/>
	<use xlink:href='#gpPt5' transform='translate(314.0,336.1) scale(2.25)' color='rgb(  0,   0, 255)'/>
	<use xlink:href='#gpPt5' transform='translate(327.1,350.0) scale(2.25)' color='rgb(  0,   0, 255)'/>
	<use xlink:href='#gpPt5' transform='translate(340.2,363.6) scale(2.25)' color='rgb(  0,   0, 255)'/>
	<use xlink:href='#gpPt5' transform='translate(353.2,376.9) scale(2.25)' color='rgb(  0,   0, 255)'/>
	<use xlink:href='#gpPt5' transform='translate(366.3,390.1) scale(2.25)' color='rgb(  0,   0, 255)'/>
	<use xlink:href='#gpPt5' transform='translate(379.4,403.0) scale(2.25)' color='rgb(  0,   0, 255)'/>
	<use xlink:href='#gpPt5' transform='translate(392.5,415.5) scale(2.25)' color='rgb(  0,   0, 255)'/>
	<use xlink:href='#gpPt5' transform='translate(405.5,427.8) scale(2.25)' color='rgb(  0,   0, 255)'/>
	<use xlink:href='#gpPt5' transform='translate(418.6,439.9) scale(2.25)' color='rgb(  0,   0, 255)'/>
	<use xlink:href='#gpPt5' transform='translate(431.7,451.7) scale(2.25)' color='rgb(  0,   0, 255)'/>
	<use xlink:href='#gpPt5' transform='translate(444.7,463.1) scale(2.25)' color='rgb(  0,   0, 255)'/>
	<use xlink:href='#gpPt5' transform='translate(457.8,474.2) scale(2.25)' color='rgb(  0,   0, 255)'/>
	<use xlink:href='#gpPt5' transform='translate(470.9,485.1) scale(2.25)' color='rgb(  0,   0, 255)'/>
	<use xlink:href='#gpPt5' transform='translate(483.9,495.9) scale(2.25)' color='rgb(  0,   0, 255)'/>
	<use xlink:href='#gpPt5' transform='translate(497.0,506.2) scale(2.25)' color='rgb(  0,   0, 255)'/>
	<use xlink:href='#gpPt5' transform='translate(510.1,516.2) scale(2.25)' color='rgb(  0,   0, 255)'/>
	<use xlink:href='#gpPt5' transform='translate(523.1,525.8) scale(2.25)' color='rgb(  0,   0, 255)'/>
	<use xlink:href='#gpPt5' transform='translate(536.2,535.3) scale(2.25)' color='rgb(  0,   0, 255)'/>
	<use xlink:href='#gpPt5' transform='translate(549.3,544.4) scale(2.25)' color='rgb(  0,   0, 255)'/>
	<use xlink:href='#gpPt5' transform='translate(562.3,553.2) scale(2.25)' color='rgb(  0,   0, 255)'/>
	<use xlink:href='#gpPt5' transform='translate(575.4,561.7) scale(2.25)' color='rgb(  0,   0, 255)'/>
	<use xlink:href='#gpPt5' transform='translate(588.5,569.9) scale(2.25)' color='rgb(  0,   0, 255)'/>
	<use xlink:href='#gpPt5' transform='translate(601.6,577.7) scale(2.25)' color='rgb(  0,   0, 255)'/>
	<use xlink:href='#gpPt5' transform='translate(614.6,585.0) scale(2.25)' color='rgb(  0,   0, 255)'/>
	<use xlink:href='#gpPt5' transform='translate(627.7,592.0) scale(2.25)' color='rgb(  0,   0, 255)'/>
	<use xlink:href='#gpPt5' transform='translate(640.8,599.0) scale(2.25)' color='rgb(  0,   0, 255)'/>
	<use xlink:href='#gpPt5' transform='translate(653.8,605.4) scale(2.25)' color='rgb(  0,   0, 255)'/>
	<use xlink:href='#gpPt5' transform='translate(666.9,611.4) scale(2.25)' color='rgb(  0,   0, 255)'/>
	<use xlink:href='#gpPt5' transform='translate(680.0,617.2) scale(2.25)' color='rgb(  0,   0, 255)'/>
	<use xlink:href='#gpPt5' transform='translate(693.0,622.5) scale(2.25)' color='rgb(  0,   0, 255)'/>
	<use xlink:href='#gpPt5' transform='translate(706.1,627.2) scale(2.25)' color='rgb(  0,   0, 255)'/>
	<use xlink:href='#gpPt5' transform='translate(719.2,631.7) scale(2.25)' color='rgb(  0,   0, 255)'/>
	<use xlink:href='#gpPt5' transform='translate(732.2,636.1) scale(2.25)' color='rgb(  0,   0, 255)'/>
	<use xlink:href='#gpPt5' transform='translate(745.3,640.2) scale(2.25)' color='rgb(  0,   0, 255)'/>
	<use xlink:href='#gpPt5' transform='translate(758.4,643.6) scale(2.25)' color='rgb(  0,   0, 255)'/>
	<use xlink:href='#gpPt5' transform='translate(771.5,646.4) scale(2.25)' color='rgb(  0,   0, 255)'/>
	<use xlink:href='#gpPt5' transform='translate(784.5,649.1) scale(2.25)' color='rgb(  0,   0, 255)'/>
	<use xlink:href='#gpPt5' transform='translate(797.6,651.3) scale(2.25)' color='rgb(  0,   0, 255)'/>
	<use xlink:href='#gpPt5' transform='translate(810.7,653.1) scale(2.25)' color='rgb(  0,   0, 255)'/>
	<use xlink:href='#gpPt5' transform='translate(823.7,654.4) scale(2.25)' color='rgb(  0,   0, 255)'/>
	<use xlink:href='#gpPt5' transform='translate(836.8,655.4) scale(2.25)' color='rgb(  0,   0, 255)'/>
	<use xlink:href='#gpPt5' transform='translate(849.9,655.8) scale(2.25)' color='rgb(  0,   0, 255)'/>
	<use xlink:href='#gpPt5' transform='translate(862.9,655.7) scale(2.25)' color='rgb(  0,   0, 255)'/>
	<use xlink:href='#gpPt5' transform='translate(876.0,655.1) scale(2.25)' color='rgb(  0,   0, 255)'/>
	<use xlink:href='#gpPt5' transform='translate(889.1,654.1) scale(2.25)' color='rgb(  0,   0, 255)'/>
	<use xlink:href='#gpPt5' transform='translate(902.1,652.5) scale(2.25)' color='rgb(  0,   0, 255)'/>
	<use xlink:href='#gpPt5' transform='translate(915.2,650.1) scale(2.25)' color='rgb(  0,   0, 255)'/>
	<use xlink:href='#gpPt5' transform='translate(928.3,647.5) scale(2.25)' color='rgb(  0,   0, 255)'/>
	<use xlink:href='#gpPt5' transform='translate(941.3,644.5) scale(2.25)' color='rgb(  0,   0, 255)'/>
	<use xlink:href='#gpPt5' transform='translate(954.4,641.0) scale(2.25)' color='rgb(  0,   0, 255)'/>
	<use xlink:href='#gpPt5' transform='translate(967.5,636.9) scale(2.25)' color='rgb(  0,   0, 255)'/>
	<use xlink:href='#gpPt5' transform='translate(980.6,632.3) scale(2.25)' color='rgb(  0,   0, 255)'/>
	<use xlink:href='#gpPt5' transform='translate(993.6,627.3) scale(2.25)' color='rgb(  0,   0, 255)'/>
	<use xlink:href='#gpPt5' transform='translate(1006.7,622.2) scale(2.25)' color='rgb(  0,   0, 255)'/>
	<use xlink:href='#gpPt5' transform='translate(1019.8,616.9) scale(2.25)' color='rgb(  0,   0, 255)'/>
	<use xlink:href='#gpPt5' transform='translate(1032.8,611.5) scale(2.25)' color='rgb(  0,   0, 255)'/>
	<use xlink:href='#gpPt5' transform='translate(1045.9,606.1) scale(2.25)' color='rgb(  0,   0, 255)'/>
	<use xlink:href='#gpPt5' transform='translate(1059.0,600.7) scale(2.25)' color='rgb(  0,   0, 255)'/>
	<use xlink:href='#gpPt5' transform='translate(1072.0,595.4) scale(2.25)' color='rgb(  0,   0, 255)'/>
	<use xlink:href='#gpPt5' transform='translate(1085.1,591.0) scale(2.25)' color='rgb(  0,   0, 255)'/>
	<use xlink:href='#gpPt5' transform='translate(1098.2,587.4) scale(2.25)' color='rgb(  0,   0, 255)'/>
	<use xlink:href='#gpPt5' transform='translate(1111.2,584.1) scale(2.25)' color='rgb(  0,   0, 255)'/>
	<use xlink:href='#gpPt5' transform='translate(1124.3,581.0) scale(2.25)' color='rgb(  0,   0, 255)'/>
	<use xlink:href='#gpPt5' transform='translate(1137.4,578.6) scale(2.25)' color='rgb(  0,   0, 255)'/>
	<use xlink:href='#gpPt5' transform='translate(1150.4,578.0) scale(2.25)' color='rgb(  0,   0, 255)'/>
	<use xlink:href='#gpPt5' transform='translate(1163.5,580.0) scale(2.25)' color='rgb(  0,   0, 255)'/>
	<use xlink:href='#gpPt5' transform='translate(1176.6,585.2) scale(2.25)' color='rgb(  0,   0, 255)'/>
	<use xlink:href='#gpPt5' transform='translate(1189.7,592.8) scale(2.25)' color='rgb(  0,   0, 255)'/>
	<use xlink:href='#gpPt5' transform='translate(1202.7,599.7) scale(2.25)' color='rgb(  0,   0, 255)'/>
	<use xlink:href='#gpPt5' transform='translate(1215.8,601.2) scale(2.25)' color='rgb(  0,   0, 255)'/>
	<use xlink:href='#gpPt5' transform='translate(1228.9,594.1) scale(2.25)' color='rgb(  0,   0, 255)'/>
	<use xlink:href='#gpPt5' transform='translate(1241.9,582.0) scale(2.25)' color='rgb(  0,   0, 255)'/>
	<use xlink:href='#gpPt5' transform='translate(1255.0,575.0) scale(2.25)' color='rgb(  0,   0, 255)'/>
</g>
	</g>
	<g id="gnuplot_plot_4" ><title>fit</title>
<g fill="none" color="black" stroke="currentColor" stroke-width="1.00" stroke-linecap="butt" stroke-linejoin="miter">
	<g transform="translate(1187.9,94.0)" stroke="none" fill="black" font-family="Arial" font-size="12.00"  text-anchor="end">
		<text><tspan font-family="Arial" >fit</tspan></text>
	</g>
</g>
<g fill="none" color="black" stroke="currentColor" stroke-width="1.00" stroke-linecap="butt" stroke-linejoin="miter">
	<path stroke='rgb(255,   0,   0)'  d='M1196.2,90.1 L1238.4,90.1 M78.8,97.5 L79.9,97.6 L81.1,97.6 L82.2,97.7 L83.4,97.8 L84.5,98.0
		L85.7,98.2 L86.8,98.4 L88.0,98.7 L89.1,99.0 L90.3,99.3 L91.4,99.7 L92.6,100.1 L93.7,100.6
		L94.9,101.0 L96.0,101.6 L97.2,102.1 L98.3,102.7 L99.5,103.3 L100.6,103.9 L101.8,104.6 L102.9,105.3
		L104.1,106.0 L105.2,106.8 L106.4,107.6 L107.5,108.4 L108.7,109.3 L109.8,110.2 L111.0,111.1 L112.1,112.0
		L113.3,113.0 L114.4,114.0 L115.6,115.0 L116.7,116.0 L117.9,117.1 L119.0,118.2 L120.2,119.3 L121.3,120.4
		L122.5,121.6 L123.6,122.8 L124.8,124.0 L125.9,125.2 L127.1,126.4 L128.2,127.7 L129.4,129.0 L130.5,130.2
		L131.7,131.6 L132.8,132.9 L134.0,134.2 L135.1,135.6 L136.3,137.0 L137.4,138.3 L138.6,139.8 L139.7,141.2
		L140.9,142.6 L142.0,144.0 L143.2,145.5 L144.3,147.0 L145.5,148.4 L146.6,149.9 L147.8,151.4 L148.9,152.9
		L150.1,154.4 L151.2,156.0 L152.4,157.5 L153.5,159.0 L154.7,160.6 L155.8,162.1 L157.0,163.7 L158.1,165.2
		L159.3,166.8 L160.4,168.4 L161.6,170.0 L162.7,171.6 L163.9,173.2 L165.0,174.7 L166.2,176.3 L167.3,177.9
		L168.5,179.6 L169.6,181.2 L170.8,182.8 L171.9,184.4 L173.1,186.0 L174.2,187.6 L175.4,189.2 L176.5,190.8
		L177.7,192.5 L178.8,194.1 L180.0,195.7 L181.1,197.3 L182.3,198.9 L183.4,200.6 L184.6,202.2 L185.7,203.8
		L186.9,205.4 L188.0,207.0 L189.2,208.7 L190.3,210.3 L191.5,211.9 L192.6,213.5 L193.8,215.1 L194.9,216.7
		L196.1,218.3 L197.2,219.9 L198.4,221.5 L199.5,223.1 L200.7,224.7 L201.8,226.3 L203.0,227.9 L204.1,229.5
		L205.3,231.1 L206.4,232.6 L207.6,234.2 L208.7,235.8 L209.9,237.4 L211.0,238.9 L212.2,240.5 L213.3,242.1
		L214.5,243.6 L215.6,245.2 L216.8,246.7 L217.9,248.3 L219.1,249.8 L220.2,251.4 L221.4,252.9 L222.5,254.4
		L223.7,255.9 L224.8,257.5 L226.0,259.0 L227.1,260.5 L228.3,262.0 L229.4,263.5 L230.6,265.0 L231.7,266.5
		L232.9,268.0 L234.0,269.5 L235.2,271.0 L236.3,272.4 L237.5,273.9 L238.6,275.4 L239.8,276.8 L240.9,278.3
		L242.1,279.7 L243.2,281.2 L244.4,282.6 L245.5,284.1 L246.7,285.5 L247.8,286.9 L249.0,288.4 L250.1,289.8
		L251.3,291.2 L252.4,292.6 L253.6,294.0 L254.7,295.4 L255.9,296.8 L257.0,298.2 L258.2,299.6 L259.3,301.0
		L260.5,302.3 L261.6,303.7 L262.8,305.1 L263.9,306.5 L265.1,307.8 L266.2,309.2 L267.4,310.5 L268.5,311.9
		L269.7,313.2 L270.8,314.5 L272.0,315.9 L273.1,317.2 L274.3,318.5 L275.4,319.8 L276.6,321.1 L277.7,322.4
		L278.9,323.7 L280.0,325.0 L281.2,326.3 L282.3,327.6 L283.5,328.9 L284.6,330.2 L285.8,331.4 L286.9,332.7
		L288.1,334.0 L289.2,335.2 L290.4,336.5 L291.5,337.7 L292.7,339.0 L293.8,340.2 L295.0,341.5 L296.1,342.7
		L297.3,343.9 L298.4,345.2 L299.6,346.4 L300.7,347.6 L301.9,348.8 L303.0,350.0 L304.2,351.2 L305.3,352.4
		L306.5,353.6 L307.6,354.8 L308.8,356.0 L309.9,357.1 L311.1,358.3 L312.2,359.5 L313.4,360.7 L314.5,361.8
		L315.6,363.0 L316.8,364.1 L317.9,365.3 L319.1,366.4 L320.2,367.6 L321.4,368.7 L322.5,369.8 L323.7,371.0
		L324.8,372.1 L326.0,373.2 L327.1,374.3 L328.3,375.4 L329.4,376.6 L330.6,377.7 L331.7,378.8 L332.9,379.9
		L334.0,380.9 L335.2,382.0 L336.3,383.1 L337.5,384.2 L338.6,385.3 L339.8,386.4 L340.9,387.4 L342.1,388.5
		L343.2,389.6 L344.4,390.6 L345.5,391.7 L346.7,392.7 L347.8,393.8 L349.0,394.8 L350.1,395.8 L351.3,396.9
		L352.4,397.9 L353.6,398.9 L354.7,400.0 L355.9,401.0 L357.0,402.0 L358.2,403.0 L359.3,404.0 L360.5,405.0
		L361.6,406.0 L362.8,407.0 L363.9,408.0 L365.1,409.0 L366.2,410.0 L367.4,411.0 L368.5,412.0 L369.7,413.0
		L370.8,413.9 L372.0,414.9 L373.1,415.9 L374.3,416.9 L375.4,417.8 L376.6,418.8 L377.7,419.7 L378.9,420.7
		L380.0,421.6 L381.2,422.6 L382.3,423.5 L383.5,424.5 L384.6,425.4 L385.8,426.3 L386.9,427.3 L388.1,428.2
		L389.2,429.1 L390.4,430.0 L391.5,430.9 L392.7,431.9 L393.8,432.8 L395.0,433.7 L396.1,434.6 L397.3,435.5
		L398.4,436.4 L399.6,437.3 L400.7,438.2 L401.9,439.1 L403.0,439.9 L404.2,440.8 L405.3,441.7 L406.5,442.6
		L407.6,443.5 L408.8,444.3 L409.9,445.2 L411.1,446.1 L412.2,446.9 L413.4,447.8 L414.5,448.6 L415.7,449.5
		L416.8,450.3 L418.0,451.2 L419.1,452.0 L420.3,452.9 L421.4,453.7 L422.6,454.6 L423.7,455.4 L424.9,456.2
		L426.0,457.1 L427.2,457.9 L428.3,458.7 L429.5,459.5 L430.6,460.3 L431.8,461.2 L432.9,462.0 L434.1,462.8
		L435.2,463.6 L436.4,464.4 L437.5,465.2 L438.7,466.0 L439.8,466.8 L441.0,467.6 L442.1,468.4 L443.3,469.2
		L444.4,469.9 L445.6,470.7 L446.7,471.5 L447.9,472.3 L449.0,473.1 L450.2,473.8 L451.3,474.6 L452.5,475.4
		L453.6,476.2 L454.8,476.9 L455.9,477.7 L457.1,478.4 L458.2,479.2 L459.4,479.9 L460.5,480.7 L461.7,481.4
		L462.8,482.2 L464.0,482.9 L465.1,483.7 L466.3,484.4 L467.4,485.2 L468.6,485.9 L469.7,486.6 L470.9,487.4
		L472.0,488.1 L473.2,488.8 L474.3,489.5 L475.5,490.3 L476.6,491.0 L477.8,491.7 L478.9,492.4 L480.1,493.1
		L481.2,493.8 L482.4,494.5 L483.5,495.2 L484.7,496.0 L485.8,496.7 L487.0,497.4 L488.1,498.0 L489.3,498.7
		L490.4,499.4 L491.6,500.1 L492.7,500.8 L493.9,501.5 L495.0,502.2 L496.2,502.9 L497.3,503.5 L498.5,504.2
		L499.6,504.9 L500.8,505.6 L501.9,506.2 L503.1,506.9 L504.2,507.6 L505.4,508.2 L506.5,508.9 L507.7,509.6
		L508.8,510.2 L510.0,510.9 L511.1,511.5 L512.3,512.2 L513.4,512.8 L514.6,513.5 L515.7,514.1 L516.9,514.8
		L518.0,515.4 L519.2,516.1 L520.3,516.7 L521.5,517.4 L522.6,518.0 L523.8,518.6 L524.9,519.3 L526.1,519.9
		L527.2,520.5 L528.4,521.1 L529.5,521.8 L530.7,522.4 L531.8,523.0 L533.0,523.6 L534.1,524.2 L535.3,524.9
		L536.4,525.5 L537.6,526.1 L538.7,526.7 L539.9,527.3 L541.0,527.9 L542.2,528.5 L543.3,529.1 L544.5,529.7
		L545.6,530.3 L546.8,530.9 L547.9,531.5 L549.1,532.1 L550.2,532.7 L551.3,533.3 L552.5,533.9 L553.6,534.4
		L554.8,535.0 L555.9,535.6 L557.1,536.2 L558.2,536.8 L559.4,537.3 L560.5,537.9 L561.7,538.5 L562.8,539.1
		L564.0,539.6 L565.1,540.2 L566.3,540.8 L567.4,541.3 L568.6,541.9 L569.7,542.5 L570.9,543.0 L572.0,543.6
		L573.2,544.1 L574.3,544.7 L575.5,545.2 L576.6,545.8 L577.8,546.3 L578.9,546.9 L580.1,547.4 L581.2,548.0
		L582.4,548.5 L583.5,549.1 L584.7,549.6 L585.8,550.1 L587.0,550.7 L588.1,551.2 L589.3,551.7 L590.4,552.3
		L591.6,552.8 L592.7,553.3 L593.9,553.9 L595.0,554.4 L596.2,554.9 L597.3,555.4 L598.5,556.0 L599.6,556.5
		L600.8,557.0 L601.9,557.5 L603.1,558.0 L604.2,558.5 L605.4,559.1 L606.5,559.6 L607.7,560.1 L608.8,560.6
		L610.0,561.1 L611.1,561.6 L612.3,562.1 L613.4,562.6 L614.6,563.1 L615.7,563.6 L616.9,564.1 L618.0,564.6
		L619.2,565.1 L620.3,565.6 L621.5,566.1 L622.6,566.6 L623.8,567.1 L624.9,567.5 L626.1,568.0 L627.2,568.5
		L628.4,569.0 L629.5,569.5 L630.7,570.0 L631.8,570.4 L633.0,570.9 L634.1,571.4 L635.3,571.9 L636.4,572.3
		L637.6,572.8 L638.7,573.3 L639.9,573.7 L641.0,574.2 L642.2,574.7 L643.3,575.1 L644.5,575.6 L645.6,576.1
		L646.8,576.5 L647.9,577.0 L649.1,577.4 L650.2,577.9 L651.4,578.4 L652.5,578.8 L653.7,579.3 L654.8,579.7
		L656.0,580.2 L657.1,580.6 L658.3,581.1 L659.4,581.5 L660.6,582.0 L661.7,582.4 L662.9,582.8 L664.0,583.3
		L665.2,583.7 L666.3,584.2 L667.5,584.6 L668.6,585.0 L669.8,585.5 L670.9,585.9 L672.1,586.3 L673.2,586.8
		L674.4,587.2 L675.5,587.6 L676.7,588.0 L677.8,588.5 L679.0,588.9 L680.1,589.3 L681.3,589.7 L682.4,590.2
		L683.6,590.6 L684.7,591.0 L685.9,591.4 L687.0,591.8 L688.2,592.2 L689.3,592.7 L690.5,593.1 L691.6,593.5
		L692.8,593.9 L693.9,594.3 L695.1,594.7 L696.2,595.1 L697.4,595.5 L698.5,595.9 L699.7,596.3 L700.8,596.7
		L702.0,597.1 L703.1,597.5 L704.3,597.9 L705.4,598.3 L706.6,598.7 L707.7,599.1 L708.9,599.5 L710.0,599.9
		L711.2,600.3 L712.3,600.7 L713.5,601.0 L714.6,601.4 L715.8,601.8 L716.9,602.2 L718.1,602.6 L719.2,603.0
		L720.4,603.3 L721.5,603.7 L722.7,604.1 L723.8,604.5 L725.0,604.9 L726.1,605.2 L727.3,605.6 L728.4,606.0
		L729.6,606.4 L730.7,606.7 L731.9,607.1 L733.0,607.5 L734.2,607.8 L735.3,608.2 L736.5,608.6 L737.6,608.9
		L738.8,609.3 L739.9,609.6 L741.1,610.0 L742.2,610.4 L743.4,610.7 L744.5,611.1 L745.7,611.4 L746.8,611.8
		L748.0,612.1 L749.1,612.5 L750.3,612.9 L751.4,613.2 L752.6,613.6 L753.7,613.9 L754.9,614.2 L756.0,614.6
		L757.2,614.9 L758.3,615.3 L759.5,615.6 L760.6,616.0 L761.8,616.3 L762.9,616.7 L764.1,617.0 L765.2,617.3
		L766.4,617.7 L767.5,618.0 L768.7,618.3 L769.8,618.7 L771.0,619.0 L772.1,619.3 L773.3,619.7 L774.4,620.0
		L775.6,620.3 L776.7,620.7 L777.9,621.0 L779.0,621.3 L780.2,621.6 L781.3,622.0 L782.5,622.3 L783.6,622.6
		L784.7,622.9 L785.9,623.2 L787.0,623.6 L788.2,623.9 L789.3,624.2 L790.5,624.5 L791.6,624.8 L792.8,625.1
		L793.9,625.4 L795.1,625.8 L796.2,626.1 L797.4,626.4 L798.5,626.7 L799.7,627.0 L800.8,627.3 L802.0,627.6
		L803.1,627.9 L804.3,628.2 L805.4,628.5 L806.6,628.8 L807.7,629.1 L808.9,629.4 L810.0,629.7 L811.2,630.0
		L812.3,630.3 L813.5,630.6 L814.6,630.9 L815.8,631.2 L816.9,631.5 L818.1,631.8 L819.2,632.1 L820.4,632.4
		L821.5,632.6 L822.7,632.9 L823.8,633.2 L825.0,633.5 L826.1,633.8 L827.3,634.1 L828.4,634.4 L829.6,634.6
		L830.7,634.9 L831.9,635.2 L833.0,635.5 L834.2,635.8 L835.3,636.0 L836.5,636.3 L837.6,636.6 L838.8,636.9
		L839.9,637.1 L841.1,637.4 L842.2,637.7 L843.4,638.0 L844.5,638.2 L845.7,638.5 L846.8,638.8 L848.0,639.0
		L849.1,639.3 L850.3,639.6 L851.4,639.8 L852.6,640.1 L853.7,640.4 L854.9,640.6 L856.0,640.9 L857.2,641.1
		L858.3,641.4 L859.5,641.7 L860.6,641.9 L861.8,642.2 L862.9,642.4 L864.1,642.7 L865.2,642.9 L866.4,643.2
		L867.5,643.4 L868.7,643.7 L869.8,643.9 L871.0,644.2 L872.1,644.4 L873.3,644.7 L874.4,644.9 L875.6,645.2
		L876.7,645.4 L877.9,645.7 L879.0,645.9 L880.2,646.2 L881.3,646.4 L882.5,646.6 L883.6,646.9 L884.8,647.1
		L885.9,647.4 L887.1,647.6 L888.2,647.8 L889.4,648.1 L890.5,648.3 L891.7,648.5 L892.8,648.8 L894.0,649.0
		L895.1,649.2 L896.3,649.5 L897.4,649.7 L898.6,649.9 L899.7,650.2 L900.9,650.4 L902.0,650.6 L903.2,650.8
		L904.3,651.1 L905.5,651.3 L906.6,651.5 L907.8,651.7 L908.9,651.9 L910.1,652.2 L911.2,652.4 L912.4,652.6
		L913.5,652.8 L914.7,653.0 L915.8,653.3 L917.0,653.5 L918.1,653.7 L919.3,653.9 L920.4,654.1 L921.6,654.3
		L922.7,654.5 L923.9,654.7 L925.0,655.0 L926.2,655.2 L927.3,655.4 L928.5,655.6 L929.6,655.8 L930.8,656.0
		L931.9,656.2 L933.1,656.4 L934.2,656.6 L935.4,656.8 L936.5,657.0 L937.7,657.2 L938.8,657.4 L940.0,657.6
		L941.1,657.8 L942.3,658.0 L943.4,658.2 L944.6,658.4 L945.7,658.6 L946.9,658.8 L948.0,659.0 L949.2,659.2
		L950.3,659.4 L951.5,659.5 L952.6,659.7 L953.8,659.9 L954.9,660.1 L956.1,660.3 L957.2,660.5 L958.4,660.7
		L959.5,660.9 L960.7,661.0 L961.8,661.2 L963.0,661.4 L964.1,661.6 L965.3,661.8 L966.4,662.0 L967.6,662.1
		L968.7,662.3 L969.9,662.5 L971.0,662.7 L972.2,662.8 L973.3,663.0 L974.5,663.2 L975.6,663.4 L976.8,663.5
		L977.9,663.7 L979.1,663.9 L980.2,664.1 L981.4,664.2 L982.5,664.4 L983.7,664.6 L984.8,664.7 L986.0,664.9
		L987.1,665.1 L988.3,665.2 L989.4,665.4 L990.6,665.6 L991.7,665.7 L992.9,665.9 L994.0,666.0 L995.2,666.2
		L996.3,666.4 L997.5,666.5 L998.6,666.7 L999.8,666.8 L1000.9,667.0 L1002.1,667.2 L1003.2,667.3 L1004.4,667.5
		L1005.5,667.6 L1006.7,667.8 L1007.8,667.9 L1009.0,668.1 L1010.1,668.2 L1011.3,668.4 L1012.4,668.5 L1013.6,668.7
		L1014.7,668.8 L1015.9,669.0 L1017.0,669.1 L1018.2,669.3 L1019.3,669.4 L1020.4,669.6 L1021.6,669.7 L1022.7,669.8
		L1023.9,670.0 L1025.0,670.1 L1026.2,670.3 L1027.3,670.4 L1028.5,670.5 L1029.6,670.7 L1030.8,670.8 L1031.9,671.0
		L1033.1,671.1 L1034.2,671.2 L1035.4,671.4 L1036.5,671.5 L1037.7,671.6 L1038.8,671.8 L1040.0,671.9 L1041.1,672.0
		L1042.3,672.2 L1043.4,672.3 L1044.6,672.4 L1045.7,672.5 L1046.9,672.7 L1048.0,672.8 L1049.2,672.9 L1050.3,673.0
		L1051.5,673.2 L1052.6,673.3 L1053.8,673.4 L1054.9,673.5 L1056.1,673.7 L1057.2,673.8 L1058.4,673.9 L1059.5,674.0
		L1060.7,674.1 L1061.8,674.3 L1063.0,674.4 L1064.1,674.5 L1065.3,674.6 L1066.4,674.7 L1067.6,674.8 L1068.7,674.9
		L1069.9,675.1 L1071.0,675.2 L1072.2,675.3 L1073.3,675.4 L1074.5,675.5 L1075.6,675.6 L1076.8,675.7 L1077.9,675.8
		L1079.1,675.9 L1080.2,676.0 L1081.4,676.1 L1082.5,676.2 L1083.7,676.4 L1084.8,676.5 L1086.0,676.6 L1087.1,676.7
		L1088.3,676.8 L1089.4,676.9 L1090.6,677.0 L1091.7,677.1 L1092.9,677.2 L1094.0,677.3 L1095.2,677.4 L1096.3,677.4
		L1097.5,677.5 L1098.6,677.6 L1099.8,677.7 L1100.9,677.8 L1102.1,677.9 L1103.2,678.0 L1104.4,678.1 L1105.5,678.2
		L1106.7,678.3 L1107.8,678.4 L1109.0,678.5 L1110.1,678.5 L1111.3,678.6 L1112.4,678.7 L1113.6,678.8 L1114.7,678.9
		L1115.9,679.0 L1117.0,679.1 L1118.2,679.1 L1119.3,679.2 L1120.5,679.3 L1121.6,679.4 L1122.8,679.5 L1123.9,679.5
		L1125.1,679.6 L1126.2,679.7 L1127.4,679.8 L1128.5,679.8 L1129.7,679.9 L1130.8,680.0 L1132.0,680.1 L1133.1,680.1
		L1134.3,680.2 L1135.4,680.3 L1136.6,680.4 L1137.7,680.4 L1138.9,680.5 L1140.0,680.6 L1141.2,680.6 L1142.3,680.7
		L1143.5,680.8 L1144.6,680.8 L1145.8,680.9 L1146.9,681.0 L1148.1,681.0 L1149.2,681.1 L1150.4,681.2 L1151.5,681.2
		L1152.7,681.3 L1153.8,681.3 L1155.0,681.4 L1156.1,681.5 L1157.3,681.5 L1158.4,681.6 L1159.6,681.6 L1160.7,681.7
		L1161.9,681.8 L1163.0,681.8 L1164.2,681.9 L1165.3,681.9 L1166.5,682.0 L1167.6,682.0 L1168.8,682.1 L1169.9,682.1
		L1171.1,682.2 L1172.2,682.2 L1173.4,682.3 L1174.5,682.3 L1175.7,682.4 L1176.8,682.4 L1178.0,682.5 L1179.1,682.5
		L1180.3,682.6 L1181.4,682.6 L1182.6,682.6 L1183.7,682.7 L1184.9,682.7 L1186.0,682.8 L1187.2,682.8 L1188.3,682.8
		L1189.5,682.9 L1190.6,682.9 L1191.8,683.0 L1192.9,683.0 L1194.1,683.0 L1195.2,683.1 L1196.4,683.1 L1197.5,683.1
		L1198.7,683.2 L1199.8,683.2 L1201.0,683.2 L1202.1,683.3 L1203.3,683.3 L1204.4,683.3 L1205.6,683.4 L1206.7,683.4
		L1207.9,683.4 L1209.0,683.5 L1210.2,683.5 L1211.3,683.5 L1212.5,683.5 L1213.6,683.6 L1214.8,683.6 L1215.9,683.6
		L1217.1,683.6 L1218.2,683.6 L1219.4,683.7 L1220.5,683.7 L1221.7,683.7 L1222.8,683.7 L1224.0,683.8 L1225.1,683.8
		L1226.3,683.8 L1227.4,683.8 L1228.6,683.8 L1229.7,683.8 L1230.9,683.8 L1232.0,683.9 L1233.2,683.9 L1234.3,683.9
		L1235.5,683.9 L1236.6,683.9 L1237.8,683.9 L1238.9,683.9 L1240.1,683.9 L1241.2,684.0 L1242.4,684.0 L1243.5,684.0
		L1244.7,684.0 L1245.8,684.0 L1247.0,684.0 L1248.1,684.0 L1249.3,684.0 L1250.4,684.0 L1251.6,684.0 L1252.7,684.0
		L1253.9,684.0 L1255.0,684.0  '/></g>
	</g>
	<g id="gnuplot_plot_5" ><title>gnuplot_plot_5</title>
<g fill="none" color="black" stroke="currentColor" stroke-width="1.00" stroke-linecap="butt" stroke-linejoin="miter">
	<path stroke='rgb(  0, 100,   0)'  d='M78.8,90.5 L79.9,90.5 L81.1,90.5 L82.2,90.6 L83.4,90.8 L84.5,90.9 L85.7,91.1 L86.8,91.4
		L88.0,91.6 L89.1,91.9 L90.3,92.3 L91.4,92.7 L92.6,93.1 L93.7,93.5 L94.9,94.0 L96.0,94.5
		L97.2,95.0 L98.3,95.6 L99.5,96.2 L100.6,96.9 L101.8,97.5 L102.9,98.3 L104.1,99.0 L105.2,99.8
		L106.4,100.6 L107.5,101.4 L108.7,102.2 L109.8,103.1 L111.0,104.0 L112.1,105.0 L113.3,105.9 L114.4,106.9
		L115.6,107.9 L116.7,109.0 L117.9,110.0 L119.0,111.1 L120.2,112.2 L121.3,113.4 L122.5,114.5 L123.6,115.7
		L124.8,116.9 L125.9,118.1 L127.1,119.4 L128.2,120.6 L129.4,121.9 L130.5,123.2 L131.7,124.5 L132.8,125.8
		L134.0,127.2 L135.1,128.5 L136.3,129.9 L137.4,131.3 L138.6,132.7 L139.7,134.1 L140.9,135.5 L142.0,137.0
		L143.2,138.4 L144.3,139.9 L145.5,141.4 L146.6,142.9 L147.8,144.4 L148.9,145.9 L150.1,147.4 L151.2,148.9
		L152.4,150.4 L153.5,152.0 L154.7,153.5 L155.8,155.1 L157.0,156.6 L158.1,158.2 L159.3,159.8 L160.4,161.3
		L161.6,162.9 L162.7,164.5 L163.9,166.1 L165.0,167.7 L166.2,169.3 L167.3,170.9 L168.5,172.5 L169.6,174.1
		L170.8,175.7 L171.9,177.3 L173.1,178.9 L174.2,180.6 L175.4,182.2 L176.5,183.8 L177.7,185.4 L178.8,187.0
		L180.0,188.6 L181.1,190.3 L182.3,191.9 L183.4,193.5 L184.6,195.1 L185.7,196.7 L186.9,198.4 L188.0,200.0
		L189.2,201.6 L190.3,203.2 L191.5,204.8 L192.6,206.4 L193.8,208.0 L194.9,209.6 L196.1,211.3 L197.2,212.9
		L198.4,214.5 L199.5,216.1 L200.7,217.7 L201.8,219.2 L203.0,220.8 L204.1,222.4 L205.3,224.0 L206.4,225.6
		L207.6,227.2 L208.7,228.7 L209.9,230.3 L211.0,231.9 L212.2,233.4 L213.3,235.0 L214.5,236.6 L215.6,238.1
		L216.8,239.7 L217.9,241.2 L219.1,242.8 L220.2,244.3 L221.4,245.8 L222.5,247.4 L223.7,248.9 L224.8,250.4
		L226.0,251.9 L227.1,253.4 L228.3,254.9 L229.4,256.4 L230.6,257.9 L231.7,259.4 L232.9,260.9 L234.0,262.4
		L235.2,263.9 L236.3,265.4 L237.5,266.8 L238.6,268.3 L239.8,269.8 L240.9,271.2 L242.1,272.7 L243.2,274.1
		L244.4,275.6 L245.5,277.0 L246.7,278.4 L247.8,279.9 L249.0,281.3 L250.1,282.7 L251.3,284.1 L252.4,285.5
		L253.6,287.0 L254.7,288.4 L255.9,289.8 L257.0,291.1 L258.2,292.5 L259.3,293.9 L260.5,295.3 L261.6,296.7
		L262.8,298.0 L263.9,299.4 L265.1,300.8 L266.2,302.1 L267.4,303.5 L268.5,304.8 L269.7,306.1 L270.8,307.5
		L272.0,308.8 L273.1,310.1 L274.3,311.4 L275.4,312.8 L276.6,314.1 L277.7,315.4 L278.9,316.7 L280.0,318.0
		L281.2,319.3 L282.3,320.6 L283.5,321.8 L284.6,323.1 L285.8,324.4 L286.9,325.7 L288.1,326.9 L289.2,328.2
		L290.4,329.4 L291.5,330.7 L292.7,331.9 L293.8,333.2 L295.0,334.4 L296.1,335.6 L297.3,336.9 L298.4,338.1
		L299.6,339.3 L300.7,340.5 L301.9,341.7 L303.0,342.9 L304.2,344.1 L305.3,345.3 L306.5,346.5 L307.6,347.7
		L308.8,348.9 L309.9,350.1 L311.1,351.3 L312.2,352.4 L313.4,353.6 L314.5,354.8 L315.6,355.9 L316.8,357.1
		L317.9,358.2 L319.1,359.4 L320.2,360.5 L321.4,361.6 L322.5,362.8 L323.7,363.9 L324.8,365.0 L326.0,366.2
		L327.1,367.3 L328.3,368.4 L329.4,369.5 L330.6,370.6 L331.7,371.7 L332.9,372.8 L334.0,373.9 L335.2,375.0
		L336.3,376.1 L337.5,377.1 L338.6,378.2 L339.8,379.3 L340.9,380.4 L342.1,381.4 L343.2,382.5 L344.4,383.6
		L345.5,384.6 L346.7,385.7 L347.8,386.7 L349.0,387.7 L350.1,388.8 L351.3,389.8 L352.4,390.9 L353.6,391.9
		L354.7,392.9 L355.9,393.9 L357.0,394.9 L358.2,396.0 L359.3,397.0 L360.5,398.0 L361.6,399.0 L362.8,400.0
		L363.9,401.0 L365.1,402.0 L366.2,403.0 L367.4,403.9 L368.5,404.9 L369.7,405.9 L370.8,406.9 L372.0,407.9
		L373.1,408.8 L374.3,409.8 L375.4,410.8 L376.6,411.7 L377.7,412.7 L378.9,413.6 L380.0,414.6 L381.2,415.5
		L382.3,416.5 L383.5,417.4 L384.6,418.3 L385.8,419.3 L386.9,420.2 L388.1,421.1 L389.2,422.0 L390.4,423.0
		L391.5,423.9 L392.7,424.8 L393.8,425.7 L395.0,426.6 L396.1,427.5 L397.3,428.4 L398.4,429.3 L399.6,430.2
		L400.7,431.1 L401.9,432.0 L403.0,432.9 L404.2,433.8 L405.3,434.6 L406.5,435.5 L407.6,436.4 L408.8,437.3
		L409.9,438.1 L411.1,439.0 L412.2,439.9 L413.4,440.7 L414.5,441.6 L415.7,442.4 L416.8,443.3 L418.0,444.1
		L419.1,445.0 L420.3,445.8 L421.4,446.7 L422.6,447.5 L423.7,448.3 L424.9,449.2 L426.0,450.0 L427.2,450.8
		L428.3,451.6 L429.5,452.5 L430.6,453.3 L431.8,454.1 L432.9,454.9 L434.1,455.7 L435.2,456.5 L436.4,457.3
		L437.5,458.1 L438.7,458.9 L439.8,459.7 L441.0,460.5 L442.1,461.3 L443.3,462.1 L444.4,462.9 L445.6,463.7
		L446.7,464.5 L447.9,465.2 L449.0,466.0 L450.2,466.8 L451.3,467.6 L452.5,468.3 L453.6,469.1 L454.8,469.9
		L455.9,470.6 L457.1,471.4 L458.2,472.1 L459.4,472.9 L460.5,473.6 L461.7,474.4 L462.8,475.1 L464.0,475.9
		L465.1,476.6 L466.3,477.4 L467.4,478.1 L468.6,478.8 L469.7,479.6 L470.9,480.3 L472.0,481.0 L473.2,481.8
		L474.3,482.5 L475.5,483.2 L476.6,483.9 L477.8,484.6 L478.9,485.4 L480.1,486.1 L481.2,486.8 L482.4,487.5
		L483.5,488.2 L484.7,488.9 L485.8,489.6 L487.0,490.3 L488.1,491.0 L489.3,491.7 L490.4,492.4 L491.6,493.1
		L492.7,493.8 L493.9,494.4 L495.0,495.1 L496.2,495.8 L497.3,496.5 L498.5,497.2 L499.6,497.8 L500.8,498.5
		L501.9,499.2 L503.1,499.9 L504.2,500.5 L505.4,501.2 L506.5,501.9 L507.7,502.5 L508.8,503.2 L510.0,503.8
		L511.1,504.5 L512.3,505.1 L513.4,505.8 L514.6,506.4 L515.7,507.1 L516.9,507.7 L518.0,508.4 L519.2,509.0
		L520.3,509.7 L521.5,510.3 L522.6,510.9 L523.8,511.6 L524.9,512.2 L526.1,512.8 L527.2,513.5 L528.4,514.1
		L529.5,514.7 L530.7,515.3 L531.8,515.9 L533.0,516.6 L534.1,517.2 L535.3,517.8 L536.4,518.4 L537.6,519.0
		L538.7,519.6 L539.9,520.2 L541.0,520.8 L542.2,521.4 L543.3,522.0 L544.5,522.6 L545.6,523.2 L546.8,523.8
		L547.9,524.4 L549.1,525.0 L550.2,525.6 L551.3,526.2 L552.5,526.8 L553.6,527.4 L554.8,528.0 L555.9,528.5
		L557.1,529.1 L558.2,529.7 L559.4,530.3 L560.5,530.9 L561.7,531.4 L562.8,532.0 L564.0,532.6 L565.1,533.1
		L566.3,533.7 L567.4,534.3 L568.6,534.8 L569.7,535.4 L570.9,536.0 L572.0,536.5 L573.2,537.1 L574.3,537.6
		L575.5,538.2 L576.6,538.7 L577.8,539.3 L578.9,539.8 L580.1,540.4 L581.2,540.9 L582.4,541.5 L583.5,542.0
		L584.7,542.5 L585.8,543.1 L587.0,543.6 L588.1,544.2 L589.3,544.7 L590.4,545.2 L591.6,545.8 L592.7,546.3
		L593.9,546.8 L595.0,547.3 L596.2,547.9 L597.3,548.4 L598.5,548.9 L599.6,549.4 L600.8,549.9 L601.9,550.5
		L603.1,551.0 L604.2,551.5 L605.4,552.0 L606.5,552.5 L607.7,553.0 L608.8,553.5 L610.0,554.0 L611.1,554.5
		L612.3,555.0 L613.4,555.5 L614.6,556.0 L615.7,556.5 L616.9,557.0 L618.0,557.5 L619.2,558.0 L620.3,558.5
		L621.5,559.0 L622.6,559.5 L623.8,560.0 L624.9,560.5 L626.1,561.0 L627.2,561.5 L628.4,561.9 L629.5,562.4
		L630.7,562.9 L631.8,563.4 L633.0,563.9 L634.1,564.3 L635.3,564.8 L636.4,565.3 L637.6,565.7 L638.7,566.2
		L639.9,566.7 L641.0,567.2 L642.2,567.6 L643.3,568.1 L644.5,568.5 L645.6,569.0 L646.8,569.5 L647.9,569.9
		L649.1,570.4 L650.2,570.8 L651.4,571.3 L652.5,571.8 L653.7,572.2 L654.8,572.7 L656.0,573.1 L657.1,573.6
		L658.3,574.0 L659.4,574.4 L660.6,574.9 L661.7,575.3 L662.9,575.8 L664.0,576.2 L665.2,576.7 L666.3,577.1
		L667.5,577.5 L668.6,578.0 L669.8,578.4 L670.9,578.8 L672.1,579.3 L673.2,579.7 L674.4,580.1 L675.5,580.6
		L676.7,581.0 L677.8,581.4 L679.0,581.8 L680.1,582.3 L681.3,582.7 L682.4,583.1 L683.6,583.5 L684.7,583.9
		L685.9,584.4 L687.0,584.8 L688.2,585.2 L689.3,585.6 L690.5,586.0 L691.6,586.4 L692.8,586.8 L693.9,587.2
		L695.1,587.6 L696.2,588.0 L697.4,588.4 L698.5,588.9 L699.7,589.3 L700.8,589.7 L702.0,590.1 L703.1,590.5
		L704.3,590.8 L705.4,591.2 L706.6,591.6 L707.7,592.0 L708.9,592.4 L710.0,592.8 L711.2,593.2 L712.3,593.6
		L713.5,594.0 L714.6,594.4 L715.8,594.8 L716.9,595.1 L718.1,595.5 L719.2,595.9 L720.4,596.3 L721.5,596.7
		L722.7,597.0 L723.8,597.4 L725.0,597.8 L726.1,598.2 L727.3,598.5 L728.4,598.9 L729.6,599.3 L730.7,599.7
		L731.9,600.0 L733.0,600.4 L734.2,600.8 L735.3,601.1 L736.5,601.5 L737.6,601.9 L738.8,602.2 L739.9,602.6
		L741.1,602.9 L742.2,603.3 L743.4,603.7 L744.5,604.0 L745.7,604.4 L746.8,604.7 L748.0,605.1 L749.1,605.4
		L750.3,605.8 L751.4,606.1 L752.6,606.5 L753.7,606.8 L754.9,607.2 L756.0,607.5 L757.2,607.9 L758.3,608.2
		L759.5,608.6 L760.6,608.9 L761.8,609.3 L762.9,609.6 L764.1,609.9 L765.2,610.3 L766.4,610.6 L767.5,610.9
		L768.7,611.3 L769.8,611.6 L771.0,611.9 L772.1,612.3 L773.3,612.6 L774.4,612.9 L775.6,613.3 L776.7,613.6
		L777.9,613.9 L779.0,614.2 L780.2,614.6 L781.3,614.9 L782.5,615.2 L783.6,615.5 L784.7,615.9 L785.9,616.2
		L787.0,616.5 L788.2,616.8 L789.3,617.1 L790.5,617.4 L791.6,617.8 L792.8,618.1 L793.9,618.4 L795.1,618.7
		L796.2,619.0 L797.4,619.3 L798.5,619.6 L799.7,619.9 L800.8,620.2 L802.0,620.5 L803.1,620.8 L804.3,621.2
		L805.4,621.5 L806.6,621.8 L807.7,622.1 L808.9,622.4 L810.0,622.7 L811.2,623.0 L812.3,623.2 L813.5,623.5
		L814.6,623.8 L815.8,624.1 L816.9,624.4 L818.1,624.7 L819.2,625.0 L820.4,625.3 L821.5,625.6 L822.7,625.9
		L823.8,626.2 L825.0,626.5 L826.1,626.7 L827.3,627.0 L828.4,627.3 L829.6,627.6 L830.7,627.9 L831.9,628.1
		L833.0,628.4 L834.2,628.7 L835.3,629.0 L836.5,629.3 L837.6,629.5 L838.8,629.8 L839.9,630.1 L841.1,630.4
		L842.2,630.6 L843.4,630.9 L844.5,631.2 L845.7,631.4 L846.8,631.7 L848.0,632.0 L849.1,632.2 L850.3,632.5
		L851.4,632.8 L852.6,633.0 L853.7,633.3 L854.9,633.6 L856.0,633.8 L857.2,634.1 L858.3,634.3 L859.5,634.6
		L860.6,634.9 L861.8,635.1 L862.9,635.4 L864.1,635.6 L865.2,635.9 L866.4,636.1 L867.5,636.4 L868.7,636.6
		L869.8,636.9 L871.0,637.1 L872.1,637.4 L873.3,637.6 L874.4,637.9 L875.6,638.1 L876.7,638.4 L877.9,638.6
		L879.0,638.9 L880.2,639.1 L881.3,639.3 L882.5,639.6 L883.6,639.8 L884.8,640.1 L885.9,640.3 L887.1,640.5
		L888.2,640.8 L889.4,641.0 L890.5,641.2 L891.7,641.5 L892.8,641.7 L894.0,641.9 L895.1,642.2 L896.3,642.4
		L897.4,642.6 L898.6,642.9 L899.7,643.1 L900.9,643.3 L902.0,643.5 L903.2,643.8 L904.3,644.0 L905.5,644.2
		L906.6,644.4 L907.8,644.7 L908.9,644.9 L910.1,645.1 L911.2,645.3 L912.4,645.5 L913.5,645.8 L914.7,646.0
		L915.8,646.2 L917.0,646.4 L918.1,646.6 L919.3,646.8 L920.4,647.1 L921.6,647.3 L922.7,647.5 L923.9,647.7
		L925.0,647.9 L926.2,648.1 L927.3,648.3 L928.5,648.5 L929.6,648.7 L930.8,648.9 L931.9,649.1 L933.1,649.3
		L934.2,649.5 L935.4,649.7 L936.5,649.9 L937.7,650.1 L938.8,650.3 L940.0,650.5 L941.1,650.7 L942.3,650.9
		L943.4,651.1 L944.6,651.3 L945.7,651.5 L946.9,651.7 L948.0,651.9 L949.2,652.1 L950.3,652.3 L951.5,652.5
		L952.6,652.7 L953.8,652.9 L954.9,653.1 L956.1,653.2 L957.2,653.4 L958.4,653.6 L959.5,653.8 L960.7,654.0
		L961.8,654.2 L963.0,654.3 L964.1,654.5 L965.3,654.7 L966.4,654.9 L967.6,655.1 L968.7,655.3 L969.9,655.4
		L971.0,655.6 L972.2,655.8 L973.3,656.0 L974.5,656.1 L975.6,656.3 L976.8,656.5 L977.9,656.7 L979.1,656.8
		L980.2,657.0 L981.4,657.2 L982.5,657.3 L983.7,657.5 L984.8,657.7 L986.0,657.8 L987.1,658.0 L988.3,658.2
		L989.4,658.3 L990.6,658.5 L991.7,658.7 L992.9,658.8 L994.0,659.0 L995.2,659.1 L996.3,659.3 L997.5,659.5
		L998.6,659.6 L999.8,659.8 L1000.9,659.9 L1002.1,660.1 L1003.2,660.3 L1004.4,660.4 L1005.5,660.6 L1006.7,660.7
		L1007.8,660.9 L1009.0,661.0 L1010.1,661.2 L1011.3,661.3 L1012.4,661.5 L1013.6,661.6 L1014.7,661.8 L1015.9,661.9
		L1017.0,662.1 L1018.2,662.2 L1019.3,662.4 L1020.4,662.5 L1021.6,662.6 L1022.7,662.8 L1023.9,662.9 L1025.0,663.1
		L1026.2,663.2 L1027.3,663.3 L1028.5,663.5 L1029.6,663.6 L1030.8,663.8 L1031.9,663.9 L1033.1,664.0 L1034.2,664.2
		L1035.4,664.3 L1036.5,664.4 L1037.7,664.6 L1038.8,664.7 L1040.0,664.8 L1041.1,665.0 L1042.3,665.1 L1043.4,665.2
		L1044.6,665.4 L1045.7,665.5 L1046.9,665.6 L1048.0,665.7 L1049.2,665.9 L1050.3,666.0 L1051.5,666.1 L1052.6,666.2
		L1053.8,666.4 L1054.9,666.5 L1056.1,666.6 L1057.2,666.7 L1058.4,666.8 L1059.5,667.0 L1060.7,667.1 L1061.8,667.2
		L1063.0,667.3 L1064.1,667.4 L1065.3,667.5 L1066.4,667.7 L1067.6,667.8 L1068.7,667.9 L1069.9,668.0 L1071.0,668.1
		L1072.2,668.2 L1073.3,668.3 L1074.5,668.4 L1075.6,668.5 L1076.8,668.7 L1077.9,668.8 L1079.1,668.9 L1080.2,669.0
		L1081.4,669.1 L1082.5,669.2 L1083.7,669.3 L1084.8,669.4 L1086.0,669.5 L1087.1,669.6 L1088.3,669.7 L1089.4,669.8
		L1090.6,669.9 L1091.7,670.0 L1092.9,670.1 L1094.0,670.2 L1095.2,670.3 L1096.3,670.4 L1097.5,670.5 L1098.6,670.6
		L1099.8,670.7 L1100.9,670.8 L1102.1,670.9 L1103.2,670.9 L1104.4,671.0 L1105.5,671.1 L1106.7,671.2 L1107.8,671.3
		L1109.0,671.4 L1110.1,671.5 L1111.3,671.6 L1112.4,671.7 L1113.6,671.7 L1114.7,671.8 L1115.9,671.9 L1117.0,672.0
		L1118.2,672.1 L1119.3,672.2 L1120.5,672.2 L1121.6,672.3 L1122.8,672.4 L1123.9,672.5 L1125.1,672.6 L1126.2,672.6
		L1127.4,672.7 L1128.5,672.8 L1129.7,672.9 L1130.8,672.9 L1132.0,673.0 L1133.1,673.1 L1134.3,673.2 L1135.4,673.2
		L1136.6,673.3 L1137.7,673.4 L1138.9,673.4 L1140.0,673.5 L1141.2,673.6 L1142.3,673.6 L1143.5,673.7 L1144.6,673.8
		L1145.8,673.8 L1146.9,673.9 L1148.1,674.0 L1149.2,674.0 L1150.4,674.1 L1151.5,674.2 L1152.7,674.2 L1153.8,674.3
		L1155.0,674.3 L1156.1,674.4 L1157.3,674.5 L1158.4,674.5 L1159.6,674.6 L1160.7,674.6 L1161.9,674.7 L1163.0,674.7
		L1164.2,674.8 L1165.3,674.9 L1166.5,674.9 L1167.6,675.0 L1168.8,675.0 L1169.9,675.1 L1171.1,675.1 L1172.2,675.2
		L1173.4,675.2 L1174.5,675.3 L1175.7,675.3 L1176.8,675.4 L1178.0,675.4 L1179.1,675.4 L1180.3,675.5 L1181.4,675.5
		L1182.6,675.6 L1183.7,675.6 L1184.9,675.7 L1186.0,675.7 L1187.2,675.7 L1188.3,675.8 L1189.5,675.8 L1190.6,675.9
		L1191.8,675.9 L1192.9,675.9 L1194.1,676.0 L1195.2,676.0 L1196.4,676.1 L1197.5,676.1 L1198.7,676.1 L1199.8,676.2
		L1201.0,676.2 L1202.1,676.2 L1203.3,676.2 L1204.4,676.3 L1205.6,676.3 L1206.7,676.3 L1207.9,676.4 L1209.0,676.4
		L1210.2,676.4 L1211.3,676.4 L1212.5,676.5 L1213.6,676.5 L1214.8,676.5 L1215.9,676.5 L1217.1,676.6 L1218.2,676.6
		L1219.4,676.6 L1220.5,676.6 L1221.7,676.7 L1222.8,676.7 L1224.0,676.7 L1225.1,676.7 L1226.3,676.7 L1227.4,676.7
		L1228.6,676.8 L1229.7,676.8 L1230.9,676.8 L1232.0,676.8 L1233.2,676.8 L1234.3,676.8 L1235.5,676.8 L1236.6,676.9
		L1237.8,676.9 L1238.9,676.9 L1240.1,676.9 L1241.2,676.9 L1242.4,676.9 L1243.5,676.9 L1244.7,676.9 L1245.8,676.9
		L1247.0,676.9 L1248.1,676.9 L1249.3,676.9 L1250.4,676.9 L1251.6,676.9 L1252.7,676.9 L1253.9,676.9 L1255.0,676.9
		 '/></g>
	</g>
	<g id="gnuplot_plot_6" ><title>gnuplot_plot_6</title>
<g fill="none" color="black" stroke="currentColor" stroke-width="1.00" stroke-linecap="butt" stroke-linejoin="miter">
	<path stroke='rgb(  0,   0, 255)'  d='M78.8,73.3 L79.9,73.4 L81.1,73.4 L82.2,73.5 L83.4,73.6 L84.5,73.8 L85.7,74.0 L86.8,74.2
		L88.0,74.5 L89.1,74.8 L90.3,75.1 L91.4,75.5 L92.6,75.9 L93.7,76.4 L94.9,76.8 L96.0,77.4
		L97.2,77.9 L98.3,78.5 L99.5,79.1 L100.6,79.7 L101.8,80.4 L102.9,81.1 L104.1,81.9 L105.2,82.6
		L106.4,83.4 L107.5,84.2 L108.7,85.1 L109.8,86.0 L111.0,86.9 L112.1,87.8 L113.3,88.8 L114.4,89.8
		L115.6,90.8 L116.7,91.8 L117.9,92.9 L119.0,94.0 L120.2,95.1 L121.3,96.2 L122.5,97.4 L123.6,98.6
		L124.8,99.8 L125.9,101.0 L127.1,102.2 L128.2,103.5 L129.4,104.8 L130.5,106.0 L131.7,107.4 L132.8,108.7
		L134.0,110.0 L135.1,111.4 L136.3,112.8 L137.4,114.2 L138.6,115.6 L139.7,117.0 L140.9,118.4 L142.0,119.8
		L143.2,121.3 L144.3,122.8 L145.5,124.2 L146.6,125.7 L147.8,127.2 L148.9,128.7 L150.1,130.2 L151.2,131.8
		L152.4,133.3 L153.5,134.8 L154.7,136.4 L155.8,137.9 L157.0,139.5 L158.1,141.0 L159.3,142.6 L160.4,144.2
		L161.6,145.8 L162.7,147.4 L163.9,149.0 L165.0,150.6 L166.2,152.1 L167.3,153.8 L168.5,155.4 L169.6,157.0
		L170.8,158.6 L171.9,160.2 L173.1,161.8 L174.2,163.4 L175.4,165.0 L176.5,166.6 L177.7,168.3 L178.8,169.9
		L180.0,171.5 L181.1,173.1 L182.3,174.7 L183.4,176.4 L184.6,178.0 L185.7,179.6 L186.9,181.2 L188.0,182.8
		L189.2,184.5 L190.3,186.1 L191.5,187.7 L192.6,189.3 L193.8,190.9 L194.9,192.5 L196.1,194.1 L197.2,195.7
		L198.4,197.3 L199.5,198.9 L200.7,200.5 L201.8,202.1 L203.0,203.7 L204.1,205.3 L205.3,206.9 L206.4,208.5
		L207.6,210.0 L208.7,211.6 L209.9,213.2 L211.0,214.7 L212.2,216.3 L213.3,217.9 L214.5,219.4 L215.6,221.0
		L216.8,222.5 L217.9,224.1 L219.1,225.6 L220.2,227.2 L221.4,228.7 L222.5,230.2 L223.7,231.7 L224.8,233.3
		L226.0,234.8 L227.1,236.3 L228.3,237.8 L229.4,239.3 L230.6,240.8 L231.7,242.3 L232.9,243.8 L234.0,245.3
		L235.2,246.8 L236.3,248.2 L237.5,249.7 L238.6,251.2 L239.8,252.6 L240.9,254.1 L242.1,255.5 L243.2,257.0
		L244.4,258.4 L245.5,259.9 L246.7,261.3 L247.8,262.7 L249.0,264.2 L250.1,265.6 L251.3,267.0 L252.4,268.4
		L253.6,269.8 L254.7,271.2 L255.9,272.6 L257.0,274.0 L258.2,275.4 L259.3,276.8 L260.5,278.2 L261.6,279.5
		L262.8,280.9 L263.9,282.3 L265.1,283.6 L266.2,285.0 L267.4,286.3 L268.5,287.7 L269.7,289.0 L270.8,290.3
		L272.0,291.7 L273.1,293.0 L274.3,294.3 L275.4,295.6 L276.6,296.9 L277.7,298.2 L278.9,299.5 L280.0,300.8
		L281.2,302.1 L282.3,303.4 L283.5,304.7 L284.6,306.0 L285.8,307.2 L286.9,308.5 L288.1,309.8 L289.2,311.0
		L290.4,312.3 L291.5,313.5 L292.7,314.8 L293.8,316.0 L295.0,317.3 L296.1,318.5 L297.3,319.7 L298.4,321.0
		L299.6,322.2 L300.7,323.4 L301.9,324.6 L303.0,325.8 L304.2,327.0 L305.3,328.2 L306.5,329.4 L307.6,330.6
		L308.8,331.8 L309.9,332.9 L311.1,334.1 L312.2,335.3 L313.4,336.5 L314.5,337.6 L315.6,338.8 L316.8,339.9
		L317.9,341.1 L319.1,342.2 L320.2,343.4 L321.4,344.5 L322.5,345.6 L323.7,346.8 L324.8,347.9 L326.0,349.0
		L327.1,350.1 L328.3,351.2 L329.4,352.4 L330.6,353.5 L331.7,354.6 L332.9,355.7 L334.0,356.8 L335.2,357.8
		L336.3,358.9 L337.5,360.0 L338.6,361.1 L339.8,362.2 L340.9,363.2 L342.1,364.3 L343.2,365.4 L344.4,366.4
		L345.5,367.5 L346.7,368.5 L347.8,369.6 L349.0,370.6 L350.1,371.6 L351.3,372.7 L352.4,373.7 L353.6,374.7
		L354.7,375.8 L355.9,376.8 L357.0,377.8 L358.2,378.8 L359.3,379.8 L360.5,380.8 L361.6,381.8 L362.8,382.8
		L363.9,383.8 L365.1,384.8 L366.2,385.8 L367.4,386.8 L368.5,387.8 L369.7,388.8 L370.8,389.7 L372.0,390.7
		L373.1,391.7 L374.3,392.7 L375.4,393.6 L376.6,394.6 L377.7,395.5 L378.9,396.5 L380.0,397.4 L381.2,398.4
		L382.3,399.3 L383.5,400.3 L384.6,401.2 L385.8,402.1 L386.9,403.1 L388.1,404.0 L389.2,404.9 L390.4,405.8
		L391.5,406.7 L392.7,407.7 L393.8,408.6 L395.0,409.5 L396.1,410.4 L397.3,411.3 L398.4,412.2 L399.6,413.1
		L400.7,414.0 L401.9,414.9 L403.0,415.7 L404.2,416.6 L405.3,417.5 L406.5,418.4 L407.6,419.3 L408.8,420.1
		L409.9,421.0 L411.1,421.9 L412.2,422.7 L413.4,423.6 L414.5,424.4 L415.7,425.3 L416.8,426.1 L418.0,427.0
		L419.1,427.8 L420.3,428.7 L421.4,429.5 L422.6,430.4 L423.7,431.2 L424.9,432.0 L426.0,432.9 L427.2,433.7
		L428.3,434.5 L429.5,435.3 L430.6,436.1 L431.8,437.0 L432.9,437.8 L434.1,438.6 L435.2,439.4 L436.4,440.2
		L437.5,441.0 L438.7,441.8 L439.8,442.6 L441.0,443.4 L442.1,444.2 L443.3,445.0 L444.4,445.8 L445.6,446.5
		L446.7,447.3 L447.9,448.1 L449.0,448.9 L450.2,449.6 L451.3,450.4 L452.5,451.2 L453.6,452.0 L454.8,452.7
		L455.9,453.5 L457.1,454.2 L458.2,455.0 L459.4,455.8 L460.5,456.5 L461.7,457.3 L462.8,458.0 L464.0,458.7
		L465.1,459.5 L466.3,460.2 L467.4,461.0 L468.6,461.7 L469.7,462.4 L470.9,463.2 L472.0,463.9 L473.2,464.6
		L474.3,465.3 L475.5,466.1 L476.6,466.8 L477.8,467.5 L478.9,468.2 L480.1,468.9 L481.2,469.6 L482.4,470.3
		L483.5,471.1 L484.7,471.8 L485.8,472.5 L487.0,473.2 L488.1,473.9 L489.3,474.5 L490.4,475.2 L491.6,475.9
		L492.7,476.6 L493.9,477.3 L495.0,478.0 L496.2,478.7 L497.3,479.4 L498.5,480.0 L499.6,480.7 L500.8,481.4
		L501.9,482.1 L503.1,482.7 L504.2,483.4 L505.4,484.1 L506.5,484.7 L507.7,485.4 L508.8,486.0 L510.0,486.7
		L511.1,487.3 L512.3,488.0 L513.4,488.7 L514.6,489.3 L515.7,489.9 L516.9,490.6 L518.0,491.2 L519.2,491.9
		L520.3,492.5 L521.5,493.2 L522.6,493.8 L523.8,494.4 L524.9,495.1 L526.1,495.7 L527.2,496.3 L528.4,496.9
		L529.5,497.6 L530.7,498.2 L531.8,498.8 L533.0,499.4 L534.1,500.0 L535.3,500.7 L536.4,501.3 L537.6,501.9
		L538.7,502.5 L539.9,503.1 L541.0,503.7 L542.2,504.3 L543.3,504.9 L544.5,505.5 L545.6,506.1 L546.8,506.7
		L547.9,507.3 L549.1,507.9 L550.2,508.5 L551.3,509.1 L552.5,509.7 L553.6,510.2 L554.8,510.8 L555.9,511.4
		L557.1,512.0 L558.2,512.6 L559.4,513.1 L560.5,513.7 L561.7,514.3 L562.8,514.9 L564.0,515.4 L565.1,516.0
		L566.3,516.6 L567.4,517.1 L568.6,517.7 L569.7,518.3 L570.9,518.8 L572.0,519.4 L573.2,519.9 L574.3,520.5
		L575.5,521.0 L576.6,521.6 L577.8,522.1 L578.9,522.7 L580.1,523.2 L581.2,523.8 L582.4,524.3 L583.5,524.9
		L584.7,525.4 L585.8,525.9 L587.0,526.5 L588.1,527.0 L589.3,527.6 L590.4,528.1 L591.6,528.6 L592.7,529.1
		L593.9,529.7 L595.0,530.2 L596.2,530.7 L597.3,531.2 L598.5,531.8 L599.6,532.3 L600.8,532.8 L601.9,533.3
		L603.1,533.8 L604.2,534.4 L605.4,534.9 L606.5,535.4 L607.7,535.9 L608.8,536.4 L610.0,536.9 L611.1,537.4
		L612.3,537.9 L613.4,538.4 L614.6,538.9 L615.7,539.4 L616.9,539.9 L618.0,540.4 L619.2,540.9 L620.3,541.4
		L621.5,541.9 L622.6,542.4 L623.8,542.9 L624.9,543.3 L626.1,543.8 L627.2,544.3 L628.4,544.8 L629.5,545.3
		L630.7,545.8 L631.8,546.2 L633.0,546.7 L634.1,547.2 L635.3,547.7 L636.4,548.1 L637.6,548.6 L638.7,549.1
		L639.9,549.5 L641.0,550.0 L642.2,550.5 L643.3,550.9 L644.5,551.4 L645.6,551.9 L646.8,552.3 L647.9,552.8
		L649.1,553.3 L650.2,553.7 L651.4,554.2 L652.5,554.6 L653.7,555.1 L654.8,555.5 L656.0,556.0 L657.1,556.4
		L658.3,556.9 L659.4,557.3 L660.6,557.8 L661.7,558.2 L662.9,558.6 L664.0,559.1 L665.2,559.5 L666.3,560.0
		L667.5,560.4 L668.6,560.8 L669.8,561.3 L670.9,561.7 L672.1,562.1 L673.2,562.6 L674.4,563.0 L675.5,563.4
		L676.7,563.8 L677.8,564.3 L679.0,564.7 L680.1,565.1 L681.3,565.5 L682.4,566.0 L683.6,566.4 L684.7,566.8
		L685.9,567.2 L687.0,567.6 L688.2,568.0 L689.3,568.5 L690.5,568.9 L691.6,569.3 L692.8,569.7 L693.9,570.1
		L695.1,570.5 L696.2,570.9 L697.4,571.3 L698.5,571.7 L699.7,572.1 L700.8,572.5 L702.0,572.9 L703.1,573.3
		L704.3,573.7 L705.4,574.1 L706.6,574.5 L707.7,574.9 L708.9,575.3 L710.0,575.7 L711.2,576.1 L712.3,576.5
		L713.5,576.8 L714.6,577.2 L715.8,577.6 L716.9,578.0 L718.1,578.4 L719.2,578.8 L720.4,579.1 L721.5,579.5
		L722.7,579.9 L723.8,580.3 L725.0,580.7 L726.1,581.0 L727.3,581.4 L728.4,581.8 L729.6,582.2 L730.7,582.5
		L731.9,582.9 L733.0,583.3 L734.2,583.6 L735.3,584.0 L736.5,584.4 L737.6,584.7 L738.8,585.1 L739.9,585.5
		L741.1,585.8 L742.2,586.2 L743.4,586.5 L744.5,586.9 L745.7,587.2 L746.8,587.6 L748.0,588.0 L749.1,588.3
		L750.3,588.7 L751.4,589.0 L752.6,589.4 L753.7,589.7 L754.9,590.1 L756.0,590.4 L757.2,590.7 L758.3,591.1
		L759.5,591.4 L760.6,591.8 L761.8,592.1 L762.9,592.5 L764.1,592.8 L765.2,593.1 L766.4,593.5 L767.5,593.8
		L768.7,594.1 L769.8,594.5 L771.0,594.8 L772.1,595.1 L773.3,595.5 L774.4,595.8 L775.6,596.1 L776.7,596.5
		L777.9,596.8 L779.0,597.1 L780.2,597.4 L781.3,597.8 L782.5,598.1 L783.6,598.4 L784.7,598.7 L785.9,599.0
		L787.0,599.4 L788.2,599.7 L789.3,600.0 L790.5,600.3 L791.6,600.6 L792.8,600.9 L793.9,601.2 L795.1,601.6
		L796.2,601.9 L797.4,602.2 L798.5,602.5 L799.7,602.8 L800.8,603.1 L802.0,603.4 L803.1,603.7 L804.3,604.0
		L805.4,604.3 L806.6,604.6 L807.7,604.9 L808.9,605.2 L810.0,605.5 L811.2,605.8 L812.3,606.1 L813.5,606.4
		L814.6,606.7 L815.8,607.0 L816.9,607.3 L818.1,607.6 L819.2,607.9 L820.4,608.2 L821.5,608.5 L822.7,608.7
		L823.8,609.0 L825.0,609.3 L826.1,609.6 L827.3,609.9 L828.4,610.2 L829.6,610.4 L830.7,610.7 L831.9,611.0
		L833.0,611.3 L834.2,611.6 L835.3,611.8 L836.5,612.1 L837.6,612.4 L838.8,612.7 L839.9,612.9 L841.1,613.2
		L842.2,613.5 L843.4,613.8 L844.5,614.0 L845.7,614.3 L846.8,614.6 L848.0,614.8 L849.1,615.1 L850.3,615.4
		L851.4,615.6 L852.6,615.9 L853.7,616.2 L854.9,616.4 L856.0,616.7 L857.2,616.9 L858.3,617.2 L859.5,617.5
		L860.6,617.7 L861.8,618.0 L862.9,618.2 L864.1,618.5 L865.2,618.7 L866.4,619.0 L867.5,619.2 L868.7,619.5
		L869.8,619.8 L871.0,620.0 L872.1,620.2 L873.3,620.5 L874.4,620.7 L875.6,621.0 L876.7,621.2 L877.9,621.5
		L879.0,621.7 L880.2,622.0 L881.3,622.2 L882.5,622.4 L883.6,622.7 L884.8,622.9 L885.9,623.2 L887.1,623.4
		L888.2,623.6 L889.4,623.9 L890.5,624.1 L891.7,624.3 L892.8,624.6 L894.0,624.8 L895.1,625.0 L896.3,625.3
		L897.4,625.5 L898.6,625.7 L899.7,626.0 L900.9,626.2 L902.0,626.4 L903.2,626.6 L904.3,626.9 L905.5,627.1
		L906.6,627.3 L907.8,627.5 L908.9,627.7 L910.1,628.0 L911.2,628.2 L912.4,628.4 L913.5,628.6 L914.7,628.8
		L915.8,629.1 L917.0,629.3 L918.1,629.5 L919.3,629.7 L920.4,629.9 L921.6,630.1 L922.7,630.3 L923.9,630.5
		L925.0,630.8 L926.2,631.0 L927.3,631.2 L928.5,631.4 L929.6,631.6 L930.8,631.8 L931.9,632.0 L933.1,632.2
		L934.2,632.4 L935.4,632.6 L936.5,632.8 L937.7,633.0 L938.8,633.2 L940.0,633.4 L941.1,633.6 L942.3,633.8
		L943.4,634.0 L944.6,634.2 L945.7,634.4 L946.9,634.6 L948.0,634.8 L949.2,635.0 L950.3,635.2 L951.5,635.3
		L952.6,635.5 L953.8,635.7 L954.9,635.9 L956.1,636.1 L957.2,636.3 L958.4,636.5 L959.5,636.7 L960.7,636.8
		L961.8,637.0 L963.0,637.2 L964.1,637.4 L965.3,637.6 L966.4,637.8 L967.6,637.9 L968.7,638.1 L969.9,638.3
		L971.0,638.5 L972.2,638.6 L973.3,638.8 L974.5,639.0 L975.6,639.2 L976.8,639.3 L977.9,639.5 L979.1,639.7
		L980.2,639.9 L981.4,640.0 L982.5,640.2 L983.7,640.4 L984.8,640.5 L986.0,640.7 L987.1,640.9 L988.3,641.0
		L989.4,641.2 L990.6,641.4 L991.7,641.5 L992.9,641.7 L994.0,641.8 L995.2,642.0 L996.3,642.2 L997.5,642.3
		L998.6,642.5 L999.8,642.6 L1000.9,642.8 L1002.1,643.0 L1003.2,643.1 L1004.4,643.3 L1005.5,643.4 L1006.7,643.6
		L1007.8,643.7 L1009.0,643.9 L1010.1,644.0 L1011.3,644.2 L1012.4,644.3 L1013.6,644.5 L1014.7,644.6 L1015.9,644.8
		L1017.0,644.9 L1018.2,645.1 L1019.3,645.2 L1020.4,645.4 L1021.6,645.5 L1022.7,645.6 L1023.9,645.8 L1025.0,645.9
		L1026.2,646.1 L1027.3,646.2 L1028.5,646.3 L1029.6,646.5 L1030.8,646.6 L1031.9,646.8 L1033.1,646.9 L1034.2,647.0
		L1035.4,647.2 L1036.5,647.3 L1037.7,647.4 L1038.8,647.6 L1040.0,647.7 L1041.1,647.8 L1042.3,648.0 L1043.4,648.1
		L1044.6,648.2 L1045.7,648.3 L1046.9,648.5 L1048.0,648.6 L1049.2,648.7 L1050.3,648.8 L1051.5,649.0 L1052.6,649.1
		L1053.8,649.2 L1054.9,649.3 L1056.1,649.5 L1057.2,649.6 L1058.4,649.7 L1059.5,649.8 L1060.7,649.9 L1061.8,650.1
		L1063.0,650.2 L1064.1,650.3 L1065.3,650.4 L1066.4,650.5 L1067.6,650.6 L1068.7,650.7 L1069.9,650.9 L1071.0,651.0
		L1072.2,651.1 L1073.3,651.2 L1074.5,651.3 L1075.6,651.4 L1076.8,651.5 L1077.9,651.6 L1079.1,651.7 L1080.2,651.8
		L1081.4,651.9 L1082.5,652.1 L1083.7,652.2 L1084.8,652.3 L1086.0,652.4 L1087.1,652.5 L1088.3,652.6 L1089.4,652.7
		L1090.6,652.8 L1091.7,652.9 L1092.9,653.0 L1094.0,653.1 L1095.2,653.2 L1096.3,653.2 L1097.5,653.3 L1098.6,653.4
		L1099.8,653.5 L1100.9,653.6 L1102.1,653.7 L1103.2,653.8 L1104.4,653.9 L1105.5,654.0 L1106.7,654.1 L1107.8,654.2
		L1109.0,654.3 L1110.1,654.3 L1111.3,654.4 L1112.4,654.5 L1113.6,654.6 L1114.7,654.7 L1115.9,654.8 L1117.0,654.9
		L1118.2,654.9 L1119.3,655.0 L1120.5,655.1 L1121.6,655.2 L1122.8,655.3 L1123.9,655.3 L1125.1,655.4 L1126.2,655.5
		L1127.4,655.6 L1128.5,655.7 L1129.7,655.7 L1130.8,655.8 L1132.0,655.9 L1133.1,655.9 L1134.3,656.0 L1135.4,656.1
		L1136.6,656.2 L1137.7,656.2 L1138.9,656.3 L1140.0,656.4 L1141.2,656.4 L1142.3,656.5 L1143.5,656.6 L1144.6,656.6
		L1145.8,656.7 L1146.9,656.8 L1148.1,656.8 L1149.2,656.9 L1150.4,657.0 L1151.5,657.0 L1152.7,657.1 L1153.8,657.1
		L1155.0,657.2 L1156.1,657.3 L1157.3,657.3 L1158.4,657.4 L1159.6,657.4 L1160.7,657.5 L1161.9,657.6 L1163.0,657.6
		L1164.2,657.7 L1165.3,657.7 L1166.5,657.8 L1167.6,657.8 L1168.8,657.9 L1169.9,657.9 L1171.1,658.0 L1172.2,658.0
		L1173.4,658.1 L1174.5,658.1 L1175.7,658.2 L1176.8,658.2 L1178.0,658.3 L1179.1,658.3 L1180.3,658.4 L1181.4,658.4
		L1182.6,658.4 L1183.7,658.5 L1184.9,658.5 L1186.0,658.6 L1187.2,658.6 L1188.3,658.7 L1189.5,658.7 L1190.6,658.7
		L1191.8,658.8 L1192.9,658.8 L1194.1,658.8 L1195.2,658.9 L1196.4,658.9 L1197.5,658.9 L1198.7,659.0 L1199.8,659.0
		L1201.0,659.0 L1202.1,659.1 L1203.3,659.1 L1204.4,659.1 L1205.6,659.2 L1206.7,659.2 L1207.9,659.2 L1209.0,659.3
		L1210.2,659.3 L1211.3,659.3 L1212.5,659.3 L1213.6,659.4 L1214.8,659.4 L1215.9,659.4 L1217.1,659.4 L1218.2,659.5
		L1219.4,659.5 L1220.5,659.5 L1221.7,659.5 L1222.8,659.5 L1224.0,659.6 L1225.1,659.6 L1226.3,659.6 L1227.4,659.6
		L1228.6,659.6 L1229.7,659.6 L1230.9,659.7 L1232.0,659.7 L1233.2,659.7 L1234.3,659.7 L1235.5,659.7 L1236.6,659.7
		L1237.8,659.7 L1238.9,659.7 L1240.1,659.7 L1241.2,659.8 L1242.4,659.8 L1243.5,659.8 L1244.7,659.8 L1245.8,659.8
		L1247.0,659.8 L1248.1,659.8 L1249.3,659.8 L1250.4,659.8 L1251.6,659.8 L1252.7,659.8 L1253.9,659.8 L1255.0,659.8
		 '/></g>
	</g>
<g fill="none" color="white" stroke="rgb(  0,   0, 255)" stroke-width="2.00" stroke-linecap="butt" stroke-linejoin="miter">
</g>
<g fill="none" color="black" stroke="currentColor" stroke-width="2.00" stroke-linecap="butt" stroke-linejoin="miter">
</g>
<g fill="none" color="black" stroke="black" stroke-width="1.00" stroke-linecap="butt" stroke-linejoin="miter">
</g>
<g fill="none" color="black" stroke="currentColor" stroke-width="1.00" stroke-linecap="butt" stroke-linejoin="miter">
	<path stroke='black'  d='M78.8,54.1 L78.8,684.0 L1255.0,684.0 L1255.0,54.1 L78.8,54.1 Z  '/></g>
<g fill="none" color="black" stroke="currentColor" stroke-width="1.00" stroke-linecap="butt" stroke-linejoin="miter">
</g>
</g>
</svg>

