<?xml version="1.0" encoding="utf-8"  standalone="no"?>
<svg 
 width="1280" height="720"
 viewBox="0 0 1280 720"
 xmlns="http://www.w3.org/2000/svg"
 xmlns:xlink="http://www.w3.org/1999/xlink"
>

<title>Gnuplot</title>
<desc>Produced by GNUPLOT 5.0 patchlevel 6 </desc>

<g id="gnuplot_canvas">

<rect x="0" y="0" width="1280" height="720" fill="none"/>
<defs>

	<circle id='gpDot' r='0.5' stroke-width='0.5'/>
	<path id='gpPt0' stroke-width='0.222' stroke='currentColor' d='M-1,0 h2 M0,-1 v2'/>
	<path id='gpPt1' stroke-width='0.222' stroke='currentColor' d='M-1,-1 L1,1 M1,-1 L-1,1'/>
	<path id='gpPt2' stroke-width='0.222' stroke='currentColor' d='M-1,0 L1,0 M0,-1 L0,1 M-1,-1 L1,1 M-1,1 L1,-1'/>
	<rect id='gpPt3' stroke-width='0.222' stroke='currentColor' x='-1' y='-1' width='2' height='2'/>
	<rect id='gpPt4' stroke-width='0.222' stroke='currentColor' fill='currentColor' x='-1' y='-1' width='2' height='2'/>
	<circle id='gpPt5' stroke-width='0.222' stroke='currentColor' cx='0' cy='0' r='1'/>
	<use xlink:href='#gpPt5' id='gpPt6' fill='currentColor' stroke='none'/>
	<path id='gpPt7' stroke-width='0.222' stroke='currentColor' d='M0,-1.33 L-1.33,0.67 L1.33,0.67 z'/>
	<use xlink:href='#gpPt7' id='gpPt8' fill='currentColor' stroke='none'/>
	<use xlink:href='#gpPt7' id='gpPt9' stroke='currentColor' transform='rotate(180)'/>
	<use xlink:href='#gpPt9' id='gpPt10' fill='currentColor' stroke='none'/>
	<use xlink:href='#gpPt3' id='gpPt11' stroke='currentColor' transform='rotate(45)'/>
	<use xlink:href='#gpPt11' id='gpPt12' fill='currentColor' stroke='none'/>
	<path id='gpPt13' stroke-width='0.222' stroke='currentColor' d='M0,1.330 L1.265,0.411 L0.782,-1.067 L-0.782,-1.076 L-1.265,0.411 z'/>
	<use xlink:href='#gpPt13' id='gpPt14' fill='currentColor' stroke='none'/>
	<filter id='textbox' filterUnits='objectBoundingBox' x='0' y='0' height='1' width='1'>
	  <feFlood flood-color='white' flood-opacity='1' result='bgnd'/>
	  <feComposite in='SourceGraphic' in2='bgnd' operator='atop'/>
	</filter>
	<filter id='greybox' filterUnits='objectBoundingBox' x='0' y='0' height='1' width='1'>
	  <feFlood flood-color='lightgrey' flood-opacity='1' result='grey'/>
	  <feComposite in='SourceGraphic' in2='grey' operator='atop'/>
	</filter>
</defs>
<g fill="none" color="white" stroke="currentColor" stroke-width="1.00" stroke-linecap="butt" stroke-linejoin="miter">
</g>
<g fill="none" color="black" stroke="currentColor" stroke-width="1.00" stroke-linecap="butt" stroke-linejoin="miter">
	<path stroke='black'  d='M103.7,684.0 L112.7,684.0 M1255.0,684.0 L1246.0,684.0  '/>	<g transform="translate(95.4,687.9)" stroke="none" fill="black" font-family="Arial" font-size="12.00"  text-anchor="end">
		<text><tspan font-family="Arial" > 0.0006262</tspan></text>
	</g>
</g>
<g fill="none" color="black" stroke="currentColor" stroke-width="1.00" stroke-linecap="butt" stroke-linejoin="miter">
	<path stroke='black'  d='M103.7,369.0 L112.7,369.0 M1255.0,369.0 L1246.0,369.0  '/>	<g transform="translate(95.4,372.9)" stroke="none" fill="black" font-family="Arial" font-size="12.00"  text-anchor="end">
		<text><tspan font-family="Arial" > 0.0304121</tspan></text>
	</g>
</g>
<g fill="none" color="black" stroke="currentColor" stroke-width="1.00" stroke-linecap="butt" stroke-linejoin="miter">
	<path stroke='black'  d='M103.7,54.1 L112.7,54.1 M1255.0,54.1 L1246.0,54.1  '/>	<g transform="translate(95.4,58.0)" stroke="none" fill="black" font-family="Arial" font-size="12.00"  text-anchor="end">
		<text><tspan font-family="Arial" > 1.477</tspan></text>
	</g>
</g>
<g fill="none" color="black" stroke="currentColor" stroke-width="1.00" stroke-linecap="butt" stroke-linejoin="miter">
	<path stroke='black'  d='M103.7,684.0 L103.7,675.0 M103.7,54.1 L103.7,63.1  '/>	<g transform="translate(103.7,705.9)" stroke="none" fill="black" font-family="Arial" font-size="12.00"  text-anchor="middle">
		<text><tspan font-family="Arial" > 0</tspan></text>
	</g>
</g>
<g fill="none" color="black" stroke="currentColor" stroke-width="1.00" stroke-linecap="butt" stroke-linejoin="miter">
	<path stroke='black'  d='M679.4,684.0 L679.4,675.0 M679.4,54.1 L679.4,63.1  '/>	<g transform="translate(679.4,705.9)" stroke="none" fill="black" font-family="Arial" font-size="12.00"  text-anchor="middle">
		<text><tspan font-family="Arial" >pi/2</tspan></text>
	</g>
</g>
<g fill="none" color="black" stroke="currentColor" stroke-width="1.00" stroke-linecap="butt" stroke-linejoin="miter">
	<path stroke='black'  d='M1255.0,684.0 L1255.0,675.0 M1255.0,54.1 L1255.0,63.1  '/>	<g transform="translate(1255.0,705.9)" stroke="none" fill="black" font-family="Arial" font-size="12.00"  text-anchor="middle">
		<text><tspan font-family="Arial" >pi</tspan></text>
	</g>
</g>
<g fill="none" color="black" stroke="currentColor" stroke-width="1.00" stroke-linecap="butt" stroke-linejoin="miter">
</g>
<g fill="none" color="black" stroke="currentColor" stroke-width="1.00" stroke-linecap="butt" stroke-linejoin="miter">
	<path stroke='black'  d='M103.7,54.1 L103.7,684.0 L1255.0,684.0 L1255.0,54.1 L103.7,54.1 Z  '/></g>
<g fill="none" color="black" stroke="currentColor" stroke-width="1.00" stroke-linecap="butt" stroke-linejoin="miter">
	<g transform="translate(679.3,31.0)" stroke="none" fill="black" font-family="Arial" font-size="12.00"  text-anchor="middle">
		<text><tspan font-family="Arial" >Material 26, with 8 components</tspan></text>
	</g>
</g>
	<g id="gnuplot_plot_1" ><title>scattering function</title>
<g fill="none" color="black" stroke="currentColor" stroke-width="1.00" stroke-linecap="butt" stroke-linejoin="miter">
	<g transform="translate(1187.9,76.0)" stroke="none" fill="black" font-family="Arial" font-size="12.00"  text-anchor="end">
		<text><tspan font-family="Arial" >scattering function</tspan></text>
	</g>
</g>
<g fill="none" color="black" stroke="currentColor" stroke-width="1.00" stroke-linecap="butt" stroke-linejoin="miter">
	<use xlink:href='#gpPt5' transform='translate(103.7,97.2) scale(2.25)' color='rgb(255,   0,   0)'/>
	<use xlink:href='#gpPt5' transform='translate(104.3,99.3) scale(2.25)' color='rgb(255,   0,   0)'/>
	<use xlink:href='#gpPt5' transform='translate(105.0,104.3) scale(2.25)' color='rgb(255,   0,   0)'/>
	<use xlink:href='#gpPt5' transform='translate(105.6,109.7) scale(2.25)' color='rgb(255,   0,   0)'/>
	<use xlink:href='#gpPt5' transform='translate(106.3,114.7) scale(2.25)' color='rgb(255,   0,   0)'/>
	<use xlink:href='#gpPt5' transform='translate(106.9,119.1) scale(2.25)' color='rgb(255,   0,   0)'/>
	<use xlink:href='#gpPt5' transform='translate(107.5,123.1) scale(2.25)' color='rgb(255,   0,   0)'/>
	<use xlink:href='#gpPt5' transform='translate(108.2,126.5) scale(2.25)' color='rgb(255,   0,   0)'/>
	<use xlink:href='#gpPt5' transform='translate(108.8,129.7) scale(2.25)' color='rgb(255,   0,   0)'/>
	<use xlink:href='#gpPt5' transform='translate(109.5,132.5) scale(2.25)' color='rgb(255,   0,   0)'/>
	<use xlink:href='#gpPt5' transform='translate(110.1,135.2) scale(2.25)' color='rgb(255,   0,   0)'/>
	<use xlink:href='#gpPt5' transform='translate(110.7,137.6) scale(2.25)' color='rgb(255,   0,   0)'/>
	<use xlink:href='#gpPt5' transform='translate(111.4,140.0) scale(2.25)' color='rgb(255,   0,   0)'/>
	<use xlink:href='#gpPt5' transform='translate(112.0,142.2) scale(2.25)' color='rgb(255,   0,   0)'/>
	<use xlink:href='#gpPt5' transform='translate(112.7,144.4) scale(2.25)' color='rgb(255,   0,   0)'/>
	<use xlink:href='#gpPt5' transform='translate(113.3,146.6) scale(2.25)' color='rgb(255,   0,   0)'/>
	<use xlink:href='#gpPt5' transform='translate(113.9,148.6) scale(2.25)' color='rgb(255,   0,   0)'/>
	<use xlink:href='#gpPt5' transform='translate(114.6,150.7) scale(2.25)' color='rgb(255,   0,   0)'/>
	<use xlink:href='#gpPt5' transform='translate(115.2,152.7) scale(2.25)' color='rgb(255,   0,   0)'/>
	<use xlink:href='#gpPt5' transform='translate(115.9,154.7) scale(2.25)' color='rgb(255,   0,   0)'/>
	<use xlink:href='#gpPt5' transform='translate(116.5,156.7) scale(2.25)' color='rgb(255,   0,   0)'/>
	<use xlink:href='#gpPt5' transform='translate(122.9,176.0) scale(2.25)' color='rgb(255,   0,   0)'/>
	<use xlink:href='#gpPt5' transform='translate(129.3,194.4) scale(2.25)' color='rgb(255,   0,   0)'/>
	<use xlink:href='#gpPt5' transform='translate(135.7,211.7) scale(2.25)' color='rgb(255,   0,   0)'/>
	<use xlink:href='#gpPt5' transform='translate(142.1,227.9) scale(2.25)' color='rgb(255,   0,   0)'/>
	<use xlink:href='#gpPt5' transform='translate(154.9,256.3) scale(2.25)' color='rgb(255,   0,   0)'/>
	<use xlink:href='#gpPt5' transform='translate(167.7,279.8) scale(2.25)' color='rgb(255,   0,   0)'/>
	<use xlink:href='#gpPt5' transform='translate(180.5,299.7) scale(2.25)' color='rgb(255,   0,   0)'/>
	<use xlink:href='#gpPt5' transform='translate(193.2,316.9) scale(2.25)' color='rgb(255,   0,   0)'/>
	<use xlink:href='#gpPt5' transform='translate(206.0,332.1) scale(2.25)' color='rgb(255,   0,   0)'/>
	<use xlink:href='#gpPt5' transform='translate(218.8,345.8) scale(2.25)' color='rgb(255,   0,   0)'/>
	<use xlink:href='#gpPt5' transform='translate(231.6,358.4) scale(2.25)' color='rgb(255,   0,   0)'/>
	<use xlink:href='#gpPt5' transform='translate(244.4,370.0) scale(2.25)' color='rgb(255,   0,   0)'/>
	<use xlink:href='#gpPt5' transform='translate(257.2,381.0) scale(2.25)' color='rgb(255,   0,   0)'/>
	<use xlink:href='#gpPt5' transform='translate(270.0,391.7) scale(2.25)' color='rgb(255,   0,   0)'/>
	<use xlink:href='#gpPt5' transform='translate(282.8,402.3) scale(2.25)' color='rgb(255,   0,   0)'/>
	<use xlink:href='#gpPt5' transform='translate(295.6,412.7) scale(2.25)' color='rgb(255,   0,   0)'/>
	<use xlink:href='#gpPt5' transform='translate(308.4,422.6) scale(2.25)' color='rgb(255,   0,   0)'/>
	<use xlink:href='#gpPt5' transform='translate(321.2,432.1) scale(2.25)' color='rgb(255,   0,   0)'/>
	<use xlink:href='#gpPt5' transform='translate(334.0,441.8) scale(2.25)' color='rgb(255,   0,   0)'/>
	<use xlink:href='#gpPt5' transform='translate(346.8,451.5) scale(2.25)' color='rgb(255,   0,   0)'/>
	<use xlink:href='#gpPt5' transform='translate(359.5,461.0) scale(2.25)' color='rgb(255,   0,   0)'/>
	<use xlink:href='#gpPt5' transform='translate(372.3,470.3) scale(2.25)' color='rgb(255,   0,   0)'/>
	<use xlink:href='#gpPt5' transform='translate(385.1,479.5) scale(2.25)' color='rgb(255,   0,   0)'/>
	<use xlink:href='#gpPt5' transform='translate(397.9,488.4) scale(2.25)' color='rgb(255,   0,   0)'/>
	<use xlink:href='#gpPt5' transform='translate(410.7,497.4) scale(2.25)' color='rgb(255,   0,   0)'/>
	<use xlink:href='#gpPt5' transform='translate(423.5,506.4) scale(2.25)' color='rgb(255,   0,   0)'/>
	<use xlink:href='#gpPt5' transform='translate(436.3,515.0) scale(2.25)' color='rgb(255,   0,   0)'/>
	<use xlink:href='#gpPt5' transform='translate(449.1,523.2) scale(2.25)' color='rgb(255,   0,   0)'/>
	<use xlink:href='#gpPt5' transform='translate(461.9,531.8) scale(2.25)' color='rgb(255,   0,   0)'/>
	<use xlink:href='#gpPt5' transform='translate(474.7,540.4) scale(2.25)' color='rgb(255,   0,   0)'/>
	<use xlink:href='#gpPt5' transform='translate(487.5,548.7) scale(2.25)' color='rgb(255,   0,   0)'/>
	<use xlink:href='#gpPt5' transform='translate(500.3,556.1) scale(2.25)' color='rgb(255,   0,   0)'/>
	<use xlink:href='#gpPt5' transform='translate(513.1,563.6) scale(2.25)' color='rgb(255,   0,   0)'/>
	<use xlink:href='#gpPt5' transform='translate(525.8,571.7) scale(2.25)' color='rgb(255,   0,   0)'/>
	<use xlink:href='#gpPt5' transform='translate(538.6,579.5) scale(2.25)' color='rgb(255,   0,   0)'/>
	<use xlink:href='#gpPt5' transform='translate(551.4,586.4) scale(2.25)' color='rgb(255,   0,   0)'/>
	<use xlink:href='#gpPt5' transform='translate(564.2,593.2) scale(2.25)' color='rgb(255,   0,   0)'/>
	<use xlink:href='#gpPt5' transform='translate(577.0,600.5) scale(2.25)' color='rgb(255,   0,   0)'/>
	<use xlink:href='#gpPt5' transform='translate(589.8,607.2) scale(2.25)' color='rgb(255,   0,   0)'/>
	<use xlink:href='#gpPt5' transform='translate(602.6,613.1) scale(2.25)' color='rgb(255,   0,   0)'/>
	<use xlink:href='#gpPt5' transform='translate(615.4,619.4) scale(2.25)' color='rgb(255,   0,   0)'/>
	<use xlink:href='#gpPt5' transform='translate(628.2,626.1) scale(2.25)' color='rgb(255,   0,   0)'/>
	<use xlink:href='#gpPt5' transform='translate(641.0,631.9) scale(2.25)' color='rgb(255,   0,   0)'/>
	<use xlink:href='#gpPt5' transform='translate(653.8,636.8) scale(2.25)' color='rgb(255,   0,   0)'/>
	<use xlink:href='#gpPt5' transform='translate(666.6,641.8) scale(2.25)' color='rgb(255,   0,   0)'/>
	<use xlink:href='#gpPt5' transform='translate(679.4,647.3) scale(2.25)' color='rgb(255,   0,   0)'/>
	<use xlink:href='#gpPt5' transform='translate(692.1,651.7) scale(2.25)' color='rgb(255,   0,   0)'/>
	<use xlink:href='#gpPt5' transform='translate(704.9,655.7) scale(2.25)' color='rgb(255,   0,   0)'/>
	<use xlink:href='#gpPt5' transform='translate(717.7,660.3) scale(2.25)' color='rgb(255,   0,   0)'/>
	<use xlink:href='#gpPt5' transform='translate(730.5,664.8) scale(2.25)' color='rgb(255,   0,   0)'/>
	<use xlink:href='#gpPt5' transform='translate(743.3,667.5) scale(2.25)' color='rgb(255,   0,   0)'/>
	<use xlink:href='#gpPt5' transform='translate(756.1,669.8) scale(2.25)' color='rgb(255,   0,   0)'/>
	<use xlink:href='#gpPt5' transform='translate(768.9,673.0) scale(2.25)' color='rgb(255,   0,   0)'/>
	<use xlink:href='#gpPt5' transform='translate(781.7,675.7) scale(2.25)' color='rgb(255,   0,   0)'/>
	<use xlink:href='#gpPt5' transform='translate(794.5,677.3) scale(2.25)' color='rgb(255,   0,   0)'/>
	<use xlink:href='#gpPt5' transform='translate(807.3,679.1) scale(2.25)' color='rgb(255,   0,   0)'/>
	<use xlink:href='#gpPt5' transform='translate(820.1,681.2) scale(2.25)' color='rgb(255,   0,   0)'/>
	<use xlink:href='#gpPt5' transform='translate(832.9,682.1) scale(2.25)' color='rgb(255,   0,   0)'/>
	<use xlink:href='#gpPt5' transform='translate(845.6,682.6) scale(2.25)' color='rgb(255,   0,   0)'/>
	<use xlink:href='#gpPt5' transform='translate(858.4,683.4) scale(2.25)' color='rgb(255,   0,   0)'/>
	<use xlink:href='#gpPt5' transform='translate(871.2,684.0) scale(2.25)' color='rgb(255,   0,   0)'/>
	<use xlink:href='#gpPt5' transform='translate(884.0,683.4) scale(2.25)' color='rgb(255,   0,   0)'/>
	<use xlink:href='#gpPt5' transform='translate(896.8,682.7) scale(2.25)' color='rgb(255,   0,   0)'/>
	<use xlink:href='#gpPt5' transform='translate(909.6,681.4) scale(2.25)' color='rgb(255,   0,   0)'/>
	<use xlink:href='#gpPt5' transform='translate(922.4,679.6) scale(2.25)' color='rgb(255,   0,   0)'/>
	<use xlink:href='#gpPt5' transform='translate(935.2,676.9) scale(2.25)' color='rgb(255,   0,   0)'/>
	<use xlink:href='#gpPt5' transform='translate(948.0,673.1) scale(2.25)' color='rgb(255,   0,   0)'/>
	<use xlink:href='#gpPt5' transform='translate(960.8,668.5) scale(2.25)' color='rgb(255,   0,   0)'/>
	<use xlink:href='#gpPt5' transform='translate(973.6,664.4) scale(2.25)' color='rgb(255,   0,   0)'/>
	<use xlink:href='#gpPt5' transform='translate(986.4,659.6) scale(2.25)' color='rgb(255,   0,   0)'/>
	<use xlink:href='#gpPt5' transform='translate(999.2,653.4) scale(2.25)' color='rgb(255,   0,   0)'/>
	<use xlink:href='#gpPt5' transform='translate(1011.9,646.7) scale(2.25)' color='rgb(255,   0,   0)'/>
	<use xlink:href='#gpPt5' transform='translate(1024.7,640.5) scale(2.25)' color='rgb(255,   0,   0)'/>
	<use xlink:href='#gpPt5' transform='translate(1037.5,634.2) scale(2.25)' color='rgb(255,   0,   0)'/>
	<use xlink:href='#gpPt5' transform='translate(1050.3,629.2) scale(2.25)' color='rgb(255,   0,   0)'/>
	<use xlink:href='#gpPt5' transform='translate(1063.1,625.5) scale(2.25)' color='rgb(255,   0,   0)'/>
	<use xlink:href='#gpPt5' transform='translate(1075.9,622.3) scale(2.25)' color='rgb(255,   0,   0)'/>
	<use xlink:href='#gpPt5' transform='translate(1088.7,618.6) scale(2.25)' color='rgb(255,   0,   0)'/>
	<use xlink:href='#gpPt5' transform='translate(1101.5,615.1) scale(2.25)' color='rgb(255,   0,   0)'/>
	<use xlink:href='#gpPt5' transform='translate(1114.3,612.1) scale(2.25)' color='rgb(255,   0,   0)'/>
	<use xlink:href='#gpPt5' transform='translate(1127.1,609.4) scale(2.25)' color='rgb(255,   0,   0)'/>
	<use xlink:href='#gpPt5' transform='translate(1139.9,606.8) scale(2.25)' color='rgb(255,   0,   0)'/>
	<use xlink:href='#gpPt5' transform='translate(1152.7,604.2) scale(2.25)' color='rgb(255,   0,   0)'/>
	<use xlink:href='#gpPt5' transform='translate(1165.5,601.2) scale(2.25)' color='rgb(255,   0,   0)'/>
	<use xlink:href='#gpPt5' transform='translate(1178.2,599.4) scale(2.25)' color='rgb(255,   0,   0)'/>
	<use xlink:href='#gpPt5' transform='translate(1191.0,600.3) scale(2.25)' color='rgb(255,   0,   0)'/>
	<use xlink:href='#gpPt5' transform='translate(1203.8,605.2) scale(2.25)' color='rgb(255,   0,   0)'/>
	<use xlink:href='#gpPt5' transform='translate(1216.6,610.2) scale(2.25)' color='rgb(255,   0,   0)'/>
	<use xlink:href='#gpPt5' transform='translate(1229.4,606.9) scale(2.25)' color='rgb(255,   0,   0)'/>
	<use xlink:href='#gpPt5' transform='translate(1242.2,595.6) scale(2.25)' color='rgb(255,   0,   0)'/>
	<use xlink:href='#gpPt5' transform='translate(1255.0,585.7) scale(2.25)' color='rgb(255,   0,   0)'/>
	<use xlink:href='#gpPt5' transform='translate(1217.3,72.1) scale(2.25)' color='rgb(255,   0,   0)'/>
</g>
	</g>
	<g id="gnuplot_plot_2" ><title>gnuplot_plot_2</title>
<g fill="none" color="black" stroke="currentColor" stroke-width="1.00" stroke-linecap="butt" stroke-linejoin="miter">
	<use xlink:href='#gpPt5' transform='translate(103.7,84.4) scale(2.25)' color='rgb(  0, 100,   0)'/>
	<use xlink:href='#gpPt5' transform='translate(104.3,87.0) scale(2.25)' color='rgb(  0, 100,   0)'/>
	<use xlink:href='#gpPt5' transform='translate(105.0,92.6) scale(2.25)' color='rgb(  0, 100,   0)'/>
	<use xlink:href='#gpPt5' transform='translate(105.6,98.5) scale(2.25)' color='rgb(  0, 100,   0)'/>
	<use xlink:href='#gpPt5' transform='translate(106.3,103.9) scale(2.25)' color='rgb(  0, 100,   0)'/>
	<use xlink:href='#gpPt5' transform='translate(106.9,108.5) scale(2.25)' color='rgb(  0, 100,   0)'/>
	<use xlink:href='#gpPt5' transform='translate(107.5,112.7) scale(2.25)' color='rgb(  0, 100,   0)'/>
	<use xlink:href='#gpPt5' transform='translate(108.2,116.3) scale(2.25)' color='rgb(  0, 100,   0)'/>
	<use xlink:href='#gpPt5' transform='translate(108.8,119.5) scale(2.25)' color='rgb(  0, 100,   0)'/>
	<use xlink:href='#gpPt5' transform='translate(109.5,122.5) scale(2.25)' color='rgb(  0, 100,   0)'/>
	<use xlink:href='#gpPt5' transform='translate(110.1,125.3) scale(2.25)' color='rgb(  0, 100,   0)'/>
	<use xlink:href='#gpPt5' transform='translate(110.7,127.9) scale(2.25)' color='rgb(  0, 100,   0)'/>
	<use xlink:href='#gpPt5' transform='translate(111.4,130.4) scale(2.25)' color='rgb(  0, 100,   0)'/>
	<use xlink:href='#gpPt5' transform='translate(112.0,132.9) scale(2.25)' color='rgb(  0, 100,   0)'/>
	<use xlink:href='#gpPt5' transform='translate(112.7,135.2) scale(2.25)' color='rgb(  0, 100,   0)'/>
	<use xlink:href='#gpPt5' transform='translate(113.3,137.5) scale(2.25)' color='rgb(  0, 100,   0)'/>
	<use xlink:href='#gpPt5' transform='translate(113.9,139.8) scale(2.25)' color='rgb(  0, 100,   0)'/>
	<use xlink:href='#gpPt5' transform='translate(114.6,142.1) scale(2.25)' color='rgb(  0, 100,   0)'/>
	<use xlink:href='#gpPt5' transform='translate(115.2,144.3) scale(2.25)' color='rgb(  0, 100,   0)'/>
	<use xlink:href='#gpPt5' transform='translate(115.9,146.5) scale(2.25)' color='rgb(  0, 100,   0)'/>
	<use xlink:href='#gpPt5' transform='translate(116.5,148.7) scale(2.25)' color='rgb(  0, 100,   0)'/>
	<use xlink:href='#gpPt5' transform='translate(122.9,170.0) scale(2.25)' color='rgb(  0, 100,   0)'/>
	<use xlink:href='#gpPt5' transform='translate(129.3,190.2) scale(2.25)' color='rgb(  0, 100,   0)'/>
	<use xlink:href='#gpPt5' transform='translate(135.7,208.7) scale(2.25)' color='rgb(  0, 100,   0)'/>
	<use xlink:href='#gpPt5' transform='translate(142.1,225.5) scale(2.25)' color='rgb(  0, 100,   0)'/>
	<use xlink:href='#gpPt5' transform='translate(154.9,254.9) scale(2.25)' color='rgb(  0, 100,   0)'/>
	<use xlink:href='#gpPt5' transform='translate(167.7,279.3) scale(2.25)' color='rgb(  0, 100,   0)'/>
	<use xlink:href='#gpPt5' transform='translate(180.5,299.6) scale(2.25)' color='rgb(  0, 100,   0)'/>
	<use xlink:href='#gpPt5' transform='translate(193.2,316.9) scale(2.25)' color='rgb(  0, 100,   0)'/>
	<use xlink:href='#gpPt5' transform='translate(206.0,331.7) scale(2.25)' color='rgb(  0, 100,   0)'/>
	<use xlink:href='#gpPt5' transform='translate(218.8,344.7) scale(2.25)' color='rgb(  0, 100,   0)'/>
	<use xlink:href='#gpPt5' transform='translate(231.6,356.6) scale(2.25)' color='rgb(  0, 100,   0)'/>
	<use xlink:href='#gpPt5' transform='translate(244.4,368.2) scale(2.25)' color='rgb(  0, 100,   0)'/>
	<use xlink:href='#gpPt5' transform='translate(257.2,379.3) scale(2.25)' color='rgb(  0, 100,   0)'/>
	<use xlink:href='#gpPt5' transform='translate(270.0,389.8) scale(2.25)' color='rgb(  0, 100,   0)'/>
	<use xlink:href='#gpPt5' transform='translate(282.8,399.9) scale(2.25)' color='rgb(  0, 100,   0)'/>
	<use xlink:href='#gpPt5' transform='translate(295.6,409.6) scale(2.25)' color='rgb(  0, 100,   0)'/>
	<use xlink:href='#gpPt5' transform='translate(308.4,419.4) scale(2.25)' color='rgb(  0, 100,   0)'/>
	<use xlink:href='#gpPt5' transform='translate(321.2,429.4) scale(2.25)' color='rgb(  0, 100,   0)'/>
	<use xlink:href='#gpPt5' transform='translate(334.0,439.1) scale(2.25)' color='rgb(  0, 100,   0)'/>
	<use xlink:href='#gpPt5' transform='translate(346.8,448.5) scale(2.25)' color='rgb(  0, 100,   0)'/>
	<use xlink:href='#gpPt5' transform='translate(359.5,457.7) scale(2.25)' color='rgb(  0, 100,   0)'/>
	<use xlink:href='#gpPt5' transform='translate(372.3,466.9) scale(2.25)' color='rgb(  0, 100,   0)'/>
	<use xlink:href='#gpPt5' transform='translate(385.1,476.1) scale(2.25)' color='rgb(  0, 100,   0)'/>
	<use xlink:href='#gpPt5' transform='translate(397.9,485.3) scale(2.25)' color='rgb(  0, 100,   0)'/>
	<use xlink:href='#gpPt5' transform='translate(410.7,494.2) scale(2.25)' color='rgb(  0, 100,   0)'/>
	<use xlink:href='#gpPt5' transform='translate(423.5,502.7) scale(2.25)' color='rgb(  0, 100,   0)'/>
	<use xlink:href='#gpPt5' transform='translate(436.3,511.5) scale(2.25)' color='rgb(  0, 100,   0)'/>
	<use xlink:href='#gpPt5' transform='translate(449.1,520.5) scale(2.25)' color='rgb(  0, 100,   0)'/>
	<use xlink:href='#gpPt5' transform='translate(461.9,528.7) scale(2.25)' color='rgb(  0, 100,   0)'/>
	<use xlink:href='#gpPt5' transform='translate(474.7,536.7) scale(2.25)' color='rgb(  0, 100,   0)'/>
	<use xlink:href='#gpPt5' transform='translate(487.5,544.7) scale(2.25)' color='rgb(  0, 100,   0)'/>
	<use xlink:href='#gpPt5' transform='translate(500.3,553.2) scale(2.25)' color='rgb(  0, 100,   0)'/>
	<use xlink:href='#gpPt5' transform='translate(513.1,561.0) scale(2.25)' color='rgb(  0, 100,   0)'/>
	<use xlink:href='#gpPt5' transform='translate(525.8,568.5) scale(2.25)' color='rgb(  0, 100,   0)'/>
	<use xlink:href='#gpPt5' transform='translate(538.6,575.8) scale(2.25)' color='rgb(  0, 100,   0)'/>
	<use xlink:href='#gpPt5' transform='translate(551.4,583.3) scale(2.25)' color='rgb(  0, 100,   0)'/>
	<use xlink:href='#gpPt5' transform='translate(564.2,590.5) scale(2.25)' color='rgb(  0, 100,   0)'/>
	<use xlink:href='#gpPt5' transform='translate(577.0,597.3) scale(2.25)' color='rgb(  0, 100,   0)'/>
	<use xlink:href='#gpPt5' transform='translate(589.8,603.7) scale(2.25)' color='rgb(  0, 100,   0)'/>
	<use xlink:href='#gpPt5' transform='translate(602.6,610.7) scale(2.25)' color='rgb(  0, 100,   0)'/>
	<use xlink:href='#gpPt5' transform='translate(615.4,617.0) scale(2.25)' color='rgb(  0, 100,   0)'/>
	<use xlink:href='#gpPt5' transform='translate(628.2,622.7) scale(2.25)' color='rgb(  0, 100,   0)'/>
	<use xlink:href='#gpPt5' transform='translate(641.0,628.0) scale(2.25)' color='rgb(  0, 100,   0)'/>
	<use xlink:href='#gpPt5' transform='translate(653.8,634.1) scale(2.25)' color='rgb(  0, 100,   0)'/>
	<use xlink:href='#gpPt5' transform='translate(666.6,639.4) scale(2.25)' color='rgb(  0, 100,   0)'/>
	<use xlink:href='#gpPt5' transform='translate(679.4,644.3) scale(2.25)' color='rgb(  0, 100,   0)'/>
	<use xlink:href='#gpPt5' transform='translate(692.1,648.8) scale(2.25)' color='rgb(  0, 100,   0)'/>
	<use xlink:href='#gpPt5' transform='translate(704.9,653.2) scale(2.25)' color='rgb(  0, 100,   0)'/>
	<use xlink:href='#gpPt5' transform='translate(717.7,656.7) scale(2.25)' color='rgb(  0, 100,   0)'/>
	<use xlink:href='#gpPt5' transform='translate(730.5,660.2) scale(2.25)' color='rgb(  0, 100,   0)'/>
	<use xlink:href='#gpPt5' transform='translate(743.3,664.0) scale(2.25)' color='rgb(  0, 100,   0)'/>
	<use xlink:href='#gpPt5' transform='translate(756.1,667.6) scale(2.25)' color='rgb(  0, 100,   0)'/>
	<use xlink:href='#gpPt5' transform='translate(768.9,669.9) scale(2.25)' color='rgb(  0, 100,   0)'/>
	<use xlink:href='#gpPt5' transform='translate(781.7,672.3) scale(2.25)' color='rgb(  0, 100,   0)'/>
	<use xlink:href='#gpPt5' transform='translate(794.5,674.9) scale(2.25)' color='rgb(  0, 100,   0)'/>
	<use xlink:href='#gpPt5' transform='translate(807.3,677.3) scale(2.25)' color='rgb(  0, 100,   0)'/>
	<use xlink:href='#gpPt5' transform='translate(820.1,678.8) scale(2.25)' color='rgb(  0, 100,   0)'/>
	<use xlink:href='#gpPt5' transform='translate(832.9,680.0) scale(2.25)' color='rgb(  0, 100,   0)'/>
	<use xlink:href='#gpPt5' transform='translate(845.6,681.2) scale(2.25)' color='rgb(  0, 100,   0)'/>
	<use xlink:href='#gpPt5' transform='translate(858.4,682.1) scale(2.25)' color='rgb(  0, 100,   0)'/>
	<use xlink:href='#gpPt5' transform='translate(871.2,681.7) scale(2.25)' color='rgb(  0, 100,   0)'/>
	<use xlink:href='#gpPt5' transform='translate(884.0,681.5) scale(2.25)' color='rgb(  0, 100,   0)'/>
	<use xlink:href='#gpPt5' transform='translate(896.8,680.7) scale(2.25)' color='rgb(  0, 100,   0)'/>
	<use xlink:href='#gpPt5' transform='translate(909.6,678.7) scale(2.25)' color='rgb(  0, 100,   0)'/>
	<use xlink:href='#gpPt5' transform='translate(922.4,676.3) scale(2.25)' color='rgb(  0, 100,   0)'/>
	<use xlink:href='#gpPt5' transform='translate(935.2,674.2) scale(2.25)' color='rgb(  0, 100,   0)'/>
	<use xlink:href='#gpPt5' transform='translate(948.0,671.3) scale(2.25)' color='rgb(  0, 100,   0)'/>
	<use xlink:href='#gpPt5' transform='translate(960.8,667.5) scale(2.25)' color='rgb(  0, 100,   0)'/>
	<use xlink:href='#gpPt5' transform='translate(973.6,662.5) scale(2.25)' color='rgb(  0, 100,   0)'/>
	<use xlink:href='#gpPt5' transform='translate(986.4,656.6) scale(2.25)' color='rgb(  0, 100,   0)'/>
	<use xlink:href='#gpPt5' transform='translate(999.2,650.9) scale(2.25)' color='rgb(  0, 100,   0)'/>
	<use xlink:href='#gpPt5' transform='translate(1011.9,644.5) scale(2.25)' color='rgb(  0, 100,   0)'/>
	<use xlink:href='#gpPt5' transform='translate(1024.7,637.8) scale(2.25)' color='rgb(  0, 100,   0)'/>
	<use xlink:href='#gpPt5' transform='translate(1037.5,631.4) scale(2.25)' color='rgb(  0, 100,   0)'/>
	<use xlink:href='#gpPt5' transform='translate(1050.3,626.1) scale(2.25)' color='rgb(  0, 100,   0)'/>
	<use xlink:href='#gpPt5' transform='translate(1063.1,621.1) scale(2.25)' color='rgb(  0, 100,   0)'/>
	<use xlink:href='#gpPt5' transform='translate(1075.9,616.6) scale(2.25)' color='rgb(  0, 100,   0)'/>
	<use xlink:href='#gpPt5' transform='translate(1088.7,613.5) scale(2.25)' color='rgb(  0, 100,   0)'/>
	<use xlink:href='#gpPt5' transform='translate(1101.5,612.2) scale(2.25)' color='rgb(  0, 100,   0)'/>
	<use xlink:href='#gpPt5' transform='translate(1114.3,610.8) scale(2.25)' color='rgb(  0, 100,   0)'/>
	<use xlink:href='#gpPt5' transform='translate(1127.1,607.6) scale(2.25)' color='rgb(  0, 100,   0)'/>
	<use xlink:href='#gpPt5' transform='translate(1139.9,603.2) scale(2.25)' color='rgb(  0, 100,   0)'/>
	<use xlink:href='#gpPt5' transform='translate(1152.7,599.3) scale(2.25)' color='rgb(  0, 100,   0)'/>
	<use xlink:href='#gpPt5' transform='translate(1165.5,597.5) scale(2.25)' color='rgb(  0, 100,   0)'/>
	<use xlink:href='#gpPt5' transform='translate(1178.2,597.2) scale(2.25)' color='rgb(  0, 100,   0)'/>
	<use xlink:href='#gpPt5' transform='translate(1191.0,600.2) scale(2.25)' color='rgb(  0, 100,   0)'/>
	<use xlink:href='#gpPt5' transform='translate(1203.8,605.1) scale(2.25)' color='rgb(  0, 100,   0)'/>
	<use xlink:href='#gpPt5' transform='translate(1216.6,606.7) scale(2.25)' color='rgb(  0, 100,   0)'/>
	<use xlink:href='#gpPt5' transform='translate(1229.4,601.4) scale(2.25)' color='rgb(  0, 100,   0)'/>
	<use xlink:href='#gpPt5' transform='translate(1242.2,587.3) scale(2.25)' color='rgb(  0, 100,   0)'/>
	<use xlink:href='#gpPt5' transform='translate(1255.0,574.3) scale(2.25)' color='rgb(  0, 100,   0)'/>
</g>
	</g>
	<g id="gnuplot_plot_3" ><title>gnuplot_plot_3</title>
<g fill="none" color="black" stroke="currentColor" stroke-width="1.00" stroke-linecap="butt" stroke-linejoin="miter">
	<use xlink:href='#gpPt5' transform='translate(103.7,54.1) scale(2.25)' color='rgb(  0,   0, 255)'/>
	<use xlink:href='#gpPt5' transform='translate(104.3,57.8) scale(2.25)' color='rgb(  0,   0, 255)'/>
	<use xlink:href='#gpPt5' transform='translate(105.0,65.1) scale(2.25)' color='rgb(  0,   0, 255)'/>
	<use xlink:href='#gpPt5' transform='translate(105.6,72.2) scale(2.25)' color='rgb(  0,   0, 255)'/>
	<use xlink:href='#gpPt5' transform='translate(106.3,78.2) scale(2.25)' color='rgb(  0,   0, 255)'/>
	<use xlink:href='#gpPt5' transform='translate(106.9,83.3) scale(2.25)' color='rgb(  0,   0, 255)'/>
	<use xlink:href='#gpPt5' transform='translate(107.5,87.8) scale(2.25)' color='rgb(  0,   0, 255)'/>
	<use xlink:href='#gpPt5' transform='translate(108.2,91.7) scale(2.25)' color='rgb(  0,   0, 255)'/>
	<use xlink:href='#gpPt5' transform='translate(108.8,95.3) scale(2.25)' color='rgb(  0,   0, 255)'/>
	<use xlink:href='#gpPt5' transform='translate(109.5,98.6) scale(2.25)' color='rgb(  0,   0, 255)'/>
	<use xlink:href='#gpPt5' transform='translate(110.1,101.7) scale(2.25)' color='rgb(  0,   0, 255)'/>
	<use xlink:href='#gpPt5' transform='translate(110.7,104.7) scale(2.25)' color='rgb(  0,   0, 255)'/>
	<use xlink:href='#gpPt5' transform='translate(111.4,107.6) scale(2.25)' color='rgb(  0,   0, 255)'/>
	<use xlink:href='#gpPt5' transform='translate(112.0,110.5) scale(2.25)' color='rgb(  0,   0, 255)'/>
	<use xlink:href='#gpPt5' transform='translate(112.7,113.3) scale(2.25)' color='rgb(  0,   0, 255)'/>
	<use xlink:href='#gpPt5' transform='translate(113.3,116.1) scale(2.25)' color='rgb(  0,   0, 255)'/>
	<use xlink:href='#gpPt5' transform='translate(113.9,118.8) scale(2.25)' color='rgb(  0,   0, 255)'/>
	<use xlink:href='#gpPt5' transform='translate(114.6,121.6) scale(2.25)' color='rgb(  0,   0, 255)'/>
	<use xlink:href='#gpPt5' transform='translate(115.2,124.3) scale(2.25)' color='rgb(  0,   0, 255)'/>
	<use xlink:href='#gpPt5' transform='translate(115.9,127.0) scale(2.25)' color='rgb(  0,   0, 255)'/>
	<use xlink:href='#gpPt5' transform='translate(116.5,129.7) scale(2.25)' color='rgb(  0,   0, 255)'/>
	<use xlink:href='#gpPt5' transform='translate(122.9,155.6) scale(2.25)' color='rgb(  0,   0, 255)'/>
	<use xlink:href='#gpPt5' transform='translate(129.3,179.7) scale(2.25)' color='rgb(  0,   0, 255)'/>
	<use xlink:href='#gpPt5' transform='translate(135.7,201.3) scale(2.25)' color='rgb(  0,   0, 255)'/>
	<use xlink:href='#gpPt5' transform='translate(142.1,220.6) scale(2.25)' color='rgb(  0,   0, 255)'/>
	<use xlink:href='#gpPt5' transform='translate(154.9,252.5) scale(2.25)' color='rgb(  0,   0, 255)'/>
	<use xlink:href='#gpPt5' transform='translate(167.7,277.6) scale(2.25)' color='rgb(  0,   0, 255)'/>
	<use xlink:href='#gpPt5' transform='translate(180.5,297.8) scale(2.25)' color='rgb(  0,   0, 255)'/>
	<use xlink:href='#gpPt5' transform='translate(193.2,314.4) scale(2.25)' color='rgb(  0,   0, 255)'/>
	<use xlink:href='#gpPt5' transform='translate(206.0,328.4) scale(2.25)' color='rgb(  0,   0, 255)'/>
	<use xlink:href='#gpPt5' transform='translate(218.8,340.9) scale(2.25)' color='rgb(  0,   0, 255)'/>
	<use xlink:href='#gpPt5' transform='translate(231.6,352.3) scale(2.25)' color='rgb(  0,   0, 255)'/>
	<use xlink:href='#gpPt5' transform='translate(244.4,363.1) scale(2.25)' color='rgb(  0,   0, 255)'/>
	<use xlink:href='#gpPt5' transform='translate(257.2,373.7) scale(2.25)' color='rgb(  0,   0, 255)'/>
	<use xlink:href='#gpPt5' transform='translate(270.0,383.8) scale(2.25)' color='rgb(  0,   0, 255)'/>
	<use xlink:href='#gpPt5' transform='translate(282.8,393.8) scale(2.25)' color='rgb(  0,   0, 255)'/>
	<use xlink:href='#gpPt5' transform='translate(295.6,403.5) scale(2.25)' color='rgb(  0,   0, 255)'/>
	<use xlink:href='#gpPt5' transform='translate(308.4,412.9) scale(2.25)' color='rgb(  0,   0, 255)'/>
	<use xlink:href='#gpPt5' transform='translate(321.2,422.3) scale(2.25)' color='rgb(  0,   0, 255)'/>
	<use xlink:href='#gpPt5' transform='translate(334.0,431.8) scale(2.25)' color='rgb(  0,   0, 255)'/>
	<use xlink:href='#gpPt5' transform='translate(346.8,441.4) scale(2.25)' color='rgb(  0,   0, 255)'/>
	<use xlink:href='#gpPt5' transform='translate(359.5,450.7) scale(2.25)' color='rgb(  0,   0, 255)'/>
	<use xlink:href='#gpPt5' transform='translate(372.3,459.2) scale(2.25)' color='rgb(  0,   0, 255)'/>
	<use xlink:href='#gpPt5' transform='translate(385.1,468.3) scale(2.25)' color='rgb(  0,   0, 255)'/>
	<use xlink:href='#gpPt5' transform='translate(397.9,477.7) scale(2.25)' color='rgb(  0,   0, 255)'/>
	<use xlink:href='#gpPt5' transform='translate(410.7,486.5) scale(2.25)' color='rgb(  0,   0, 255)'/>
	<use xlink:href='#gpPt5' transform='translate(423.5,494.8) scale(2.25)' color='rgb(  0,   0, 255)'/>
	<use xlink:href='#gpPt5' transform='translate(436.3,503.3) scale(2.25)' color='rgb(  0,   0, 255)'/>
	<use xlink:href='#gpPt5' transform='translate(449.1,511.9) scale(2.25)' color='rgb(  0,   0, 255)'/>
	<use xlink:href='#gpPt5' transform='translate(461.9,520.6) scale(2.25)' color='rgb(  0,   0, 255)'/>
	<use xlink:href='#gpPt5' transform='translate(474.7,529.0) scale(2.25)' color='rgb(  0,   0, 255)'/>
	<use xlink:href='#gpPt5' transform='translate(487.5,536.5) scale(2.25)' color='rgb(  0,   0, 255)'/>
	<use xlink:href='#gpPt5' transform='translate(500.3,544.3) scale(2.25)' color='rgb(  0,   0, 255)'/>
	<use xlink:href='#gpPt5' transform='translate(513.1,552.5) scale(2.25)' color='rgb(  0,   0, 255)'/>
	<use xlink:href='#gpPt5' transform='translate(525.8,560.5) scale(2.25)' color='rgb(  0,   0, 255)'/>
	<use xlink:href='#gpPt5' transform='translate(538.6,567.5) scale(2.25)' color='rgb(  0,   0, 255)'/>
	<use xlink:href='#gpPt5' transform='translate(551.4,574.6) scale(2.25)' color='rgb(  0,   0, 255)'/>
	<use xlink:href='#gpPt5' transform='translate(564.2,582.4) scale(2.25)' color='rgb(  0,   0, 255)'/>
	<use xlink:href='#gpPt5' transform='translate(577.0,589.5) scale(2.25)' color='rgb(  0,   0, 255)'/>
	<use xlink:href='#gpPt5' transform='translate(589.8,595.9) scale(2.25)' color='rgb(  0,   0, 255)'/>
	<use xlink:href='#gpPt5' transform='translate(602.6,601.8) scale(2.25)' color='rgb(  0,   0, 255)'/>
	<use xlink:href='#gpPt5' transform='translate(615.4,608.6) scale(2.25)' color='rgb(  0,   0, 255)'/>
	<use xlink:href='#gpPt5' transform='translate(628.2,615.3) scale(2.25)' color='rgb(  0,   0, 255)'/>
	<use xlink:href='#gpPt5' transform='translate(641.0,621.3) scale(2.25)' color='rgb(  0,   0, 255)'/>
	<use xlink:href='#gpPt5' transform='translate(653.8,625.9) scale(2.25)' color='rgb(  0,   0, 255)'/>
	<use xlink:href='#gpPt5' transform='translate(666.6,631.5) scale(2.25)' color='rgb(  0,   0, 255)'/>
	<use xlink:href='#gpPt5' transform='translate(679.4,637.1) scale(2.25)' color='rgb(  0,   0, 255)'/>
	<use xlink:href='#gpPt5' transform='translate(692.1,641.2) scale(2.25)' color='rgb(  0,   0, 255)'/>
	<use xlink:href='#gpPt5' transform='translate(704.9,645.1) scale(2.25)' color='rgb(  0,   0, 255)'/>
	<use xlink:href='#gpPt5' transform='translate(717.7,649.8) scale(2.25)' color='rgb(  0,   0, 255)'/>
	<use xlink:href='#gpPt5' transform='translate(730.5,653.6) scale(2.25)' color='rgb(  0,   0, 255)'/>
	<use xlink:href='#gpPt5' transform='translate(743.3,656.7) scale(2.25)' color='rgb(  0,   0, 255)'/>
	<use xlink:href='#gpPt5' transform='translate(756.1,659.5) scale(2.25)' color='rgb(  0,   0, 255)'/>
	<use xlink:href='#gpPt5' transform='translate(768.9,662.2) scale(2.25)' color='rgb(  0,   0, 255)'/>
	<use xlink:href='#gpPt5' transform='translate(781.7,664.8) scale(2.25)' color='rgb(  0,   0, 255)'/>
	<use xlink:href='#gpPt5' transform='translate(794.5,667.4) scale(2.25)' color='rgb(  0,   0, 255)'/>
	<use xlink:href='#gpPt5' transform='translate(807.3,669.2) scale(2.25)' color='rgb(  0,   0, 255)'/>
	<use xlink:href='#gpPt5' transform='translate(820.1,670.3) scale(2.25)' color='rgb(  0,   0, 255)'/>
	<use xlink:href='#gpPt5' transform='translate(832.9,672.9) scale(2.25)' color='rgb(  0,   0, 255)'/>
	<use xlink:href='#gpPt5' transform='translate(845.6,674.9) scale(2.25)' color='rgb(  0,   0, 255)'/>
	<use xlink:href='#gpPt5' transform='translate(858.4,675.8) scale(2.25)' color='rgb(  0,   0, 255)'/>
	<use xlink:href='#gpPt5' transform='translate(871.2,676.3) scale(2.25)' color='rgb(  0,   0, 255)'/>
	<use xlink:href='#gpPt5' transform='translate(884.0,676.3) scale(2.25)' color='rgb(  0,   0, 255)'/>
	<use xlink:href='#gpPt5' transform='translate(896.8,674.9) scale(2.25)' color='rgb(  0,   0, 255)'/>
	<use xlink:href='#gpPt5' transform='translate(909.6,673.7) scale(2.25)' color='rgb(  0,   0, 255)'/>
	<use xlink:href='#gpPt5' transform='translate(922.4,672.2) scale(2.25)' color='rgb(  0,   0, 255)'/>
	<use xlink:href='#gpPt5' transform='translate(935.2,669.5) scale(2.25)' color='rgb(  0,   0, 255)'/>
	<use xlink:href='#gpPt5' transform='translate(948.0,666.2) scale(2.25)' color='rgb(  0,   0, 255)'/>
	<use xlink:href='#gpPt5' transform='translate(960.8,661.5) scale(2.25)' color='rgb(  0,   0, 255)'/>
	<use xlink:href='#gpPt5' transform='translate(973.6,657.0) scale(2.25)' color='rgb(  0,   0, 255)'/>
	<use xlink:href='#gpPt5' transform='translate(986.4,652.4) scale(2.25)' color='rgb(  0,   0, 255)'/>
	<use xlink:href='#gpPt5' transform='translate(999.2,645.7) scale(2.25)' color='rgb(  0,   0, 255)'/>
	<use xlink:href='#gpPt5' transform='translate(1011.9,638.3) scale(2.25)' color='rgb(  0,   0, 255)'/>
	<use xlink:href='#gpPt5' transform='translate(1024.7,631.2) scale(2.25)' color='rgb(  0,   0, 255)'/>
	<use xlink:href='#gpPt5' transform='translate(1037.5,622.7) scale(2.25)' color='rgb(  0,   0, 255)'/>
	<use xlink:href='#gpPt5' transform='translate(1050.3,616.5) scale(2.25)' color='rgb(  0,   0, 255)'/>
	<use xlink:href='#gpPt5' transform='translate(1063.1,612.6) scale(2.25)' color='rgb(  0,   0, 255)'/>
	<use xlink:href='#gpPt5' transform='translate(1075.9,607.8) scale(2.25)' color='rgb(  0,   0, 255)'/>
	<use xlink:href='#gpPt5' transform='translate(1088.7,604.2) scale(2.25)' color='rgb(  0,   0, 255)'/>
	<use xlink:href='#gpPt5' transform='translate(1101.5,602.8) scale(2.25)' color='rgb(  0,   0, 255)'/>
	<use xlink:href='#gpPt5' transform='translate(1114.3,600.7) scale(2.25)' color='rgb(  0,   0, 255)'/>
	<use xlink:href='#gpPt5' transform='translate(1127.1,598.3) scale(2.25)' color='rgb(  0,   0, 255)'/>
	<use xlink:href='#gpPt5' transform='translate(1139.9,595.7) scale(2.25)' color='rgb(  0,   0, 255)'/>
	<use xlink:href='#gpPt5' transform='translate(1152.7,592.0) scale(2.25)' color='rgb(  0,   0, 255)'/>
	<use xlink:href='#gpPt5' transform='translate(1165.5,588.7) scale(2.25)' color='rgb(  0,   0, 255)'/>
	<use xlink:href='#gpPt5' transform='translate(1178.2,586.6) scale(2.25)' color='rgb(  0,   0, 255)'/>
	<use xlink:href='#gpPt5' transform='translate(1191.0,586.4) scale(2.25)' color='rgb(  0,   0, 255)'/>
	<use xlink:href='#gpPt5' transform='translate(1203.8,588.3) scale(2.25)' color='rgb(  0,   0, 255)'/>
	<use xlink:href='#gpPt5' transform='translate(1216.6,589.5) scale(2.25)' color='rgb(  0,   0, 255)'/>
	<use xlink:href='#gpPt5' transform='translate(1229.4,584.9) scale(2.25)' color='rgb(  0,   0, 255)'/>
	<use xlink:href='#gpPt5' transform='translate(1242.2,571.7) scale(2.25)' color='rgb(  0,   0, 255)'/>
	<use xlink:href='#gpPt5' transform='translate(1255.0,557.2) scale(2.25)' color='rgb(  0,   0, 255)'/>
</g>
	</g>
	<g id="gnuplot_plot_4" ><title>fit</title>
<g fill="none" color="black" stroke="currentColor" stroke-width="1.00" stroke-linecap="butt" stroke-linejoin="miter">
	<g transform="translate(1187.9,94.0)" stroke="none" fill="black" font-family="Arial" font-size="12.00"  text-anchor="end">
		<text><tspan font-family="Arial" >fit</tspan></text>
	</g>
</g>
<g fill="none" color="black" stroke="currentColor" stroke-width="1.00" stroke-linecap="butt" stroke-linejoin="miter">
	<path stroke='rgb(255,   0,   0)'  d='M1196.2,90.1 L1238.4,90.1 M103.7,100.9 L104.8,103.9 L106.0,110.7 L107.1,118.0 L108.2,124.3 L109.3,129.6
		L110.5,134.2 L111.6,138.5 L112.7,142.6 L113.8,146.7 L115.0,150.9 L116.1,155.0 L117.2,159.2 L118.3,163.4
		L119.5,167.6 L120.6,171.7 L121.7,175.8 L122.8,179.9 L124.0,183.8 L125.1,187.6 L126.2,191.4 L127.3,195.0
		L128.5,198.5 L129.6,201.9 L130.7,205.2 L131.8,208.3 L133.0,211.4 L134.1,214.3 L135.2,217.1 L136.3,219.9
		L137.5,222.5 L138.6,225.0 L139.7,227.5 L140.8,229.9 L142.0,232.2 L143.1,234.4 L144.2,236.6 L145.3,238.7
		L146.5,240.8 L147.6,242.8 L148.7,244.7 L149.8,246.7 L151.0,248.5 L152.1,250.4 L153.2,252.2 L154.3,253.9
		L155.5,255.7 L156.6,257.4 L157.7,259.1 L158.8,260.8 L160.0,262.4 L161.1,264.1 L162.2,265.7 L163.3,267.3
		L164.5,268.9 L165.6,270.4 L166.7,272.0 L167.8,273.6 L169.0,275.1 L170.1,276.6 L171.2,278.1 L172.4,279.7
		L173.5,281.2 L174.6,282.7 L175.7,284.2 L176.9,285.6 L178.0,287.1 L179.1,288.6 L180.2,290.1 L181.4,291.5
		L182.5,293.0 L183.6,294.5 L184.7,295.9 L185.9,297.4 L187.0,298.8 L188.1,300.3 L189.2,301.7 L190.4,303.1
		L191.5,304.6 L192.6,306.0 L193.7,307.4 L194.9,308.8 L196.0,310.3 L197.1,311.7 L198.2,313.1 L199.4,314.5
		L200.5,315.9 L201.6,317.3 L202.7,318.7 L203.9,320.1 L205.0,321.5 L206.1,322.9 L207.2,324.3 L208.4,325.7
		L209.5,327.1 L210.6,328.5 L211.7,329.8 L212.9,331.2 L214.0,332.6 L215.1,333.9 L216.2,335.3 L217.4,336.7
		L218.5,338.0 L219.6,339.4 L220.7,340.7 L221.9,342.1 L223.0,343.4 L224.1,344.8 L225.2,346.1 L226.4,347.4
		L227.5,348.8 L228.6,350.1 L229.7,351.4 L230.9,352.7 L232.0,354.0 L233.1,355.3 L234.2,356.7 L235.4,358.0
		L236.5,359.3 L237.6,360.6 L238.7,361.8 L239.9,363.1 L241.0,364.4 L242.1,365.7 L243.3,367.0 L244.4,368.2
		L245.5,369.5 L246.6,370.8 L247.8,372.0 L248.9,373.3 L250.0,374.5 L251.1,375.8 L252.3,377.0 L253.4,378.3
		L254.5,379.5 L255.6,380.7 L256.8,382.0 L257.9,383.2 L259.0,384.4 L260.1,385.6 L261.3,386.8 L262.4,388.0
		L263.5,389.2 L264.6,390.4 L265.8,391.6 L266.9,392.8 L268.0,394.0 L269.1,395.2 L270.3,396.3 L271.4,397.5
		L272.5,398.7 L273.6,399.9 L274.8,401.0 L275.9,402.2 L277.0,403.3 L278.1,404.5 L279.3,405.6 L280.4,406.7
		L281.5,407.9 L282.6,409.0 L283.8,410.1 L284.9,411.3 L286.0,412.4 L287.1,413.5 L288.3,414.6 L289.4,415.7
		L290.5,416.8 L291.6,417.9 L292.8,419.0 L293.9,420.1 L295.0,421.2 L296.1,422.3 L297.3,423.3 L298.4,424.4
		L299.5,425.5 L300.6,426.6 L301.8,427.6 L302.9,428.7 L304.0,429.7 L305.1,430.8 L306.3,431.8 L307.4,432.9
		L308.5,433.9 L309.7,435.0 L310.8,436.0 L311.9,437.0 L313.0,438.0 L314.2,439.1 L315.3,440.1 L316.4,441.1
		L317.5,442.1 L318.7,443.1 L319.8,444.1 L320.9,445.1 L322.0,446.1 L323.2,447.1 L324.3,448.1 L325.4,449.0
		L326.5,450.0 L327.7,451.0 L328.8,452.0 L329.9,452.9 L331.0,453.9 L332.2,454.9 L333.3,455.8 L334.4,456.8
		L335.5,457.7 L336.7,458.7 L337.8,459.6 L338.9,460.6 L340.0,461.5 L341.2,462.4 L342.3,463.4 L343.4,464.3
		L344.5,465.2 L345.7,466.1 L346.8,467.0 L347.9,468.0 L349.0,468.9 L350.2,469.8 L351.3,470.7 L352.4,471.6
		L353.5,472.5 L354.7,473.4 L355.8,474.3 L356.9,475.1 L358.0,476.0 L359.2,476.9 L360.3,477.8 L361.4,478.7
		L362.5,479.5 L363.7,480.4 L364.8,481.3 L365.9,482.1 L367.0,483.0 L368.2,483.8 L369.3,484.7 L370.4,485.5
		L371.5,486.4 L372.7,487.2 L373.8,488.1 L374.9,488.9 L376.1,489.7 L377.2,490.6 L378.3,491.4 L379.4,492.2
		L380.6,493.0 L381.7,493.8 L382.8,494.7 L383.9,495.5 L385.1,496.3 L386.2,497.1 L387.3,497.9 L388.4,498.7
		L389.6,499.5 L390.7,500.3 L391.8,501.1 L392.9,501.9 L394.1,502.7 L395.2,503.4 L396.3,504.2 L397.4,505.0
		L398.6,505.8 L399.7,506.5 L400.8,507.3 L401.9,508.1 L403.1,508.8 L404.2,509.6 L405.3,510.4 L406.4,511.1
		L407.6,511.9 L408.7,512.6 L409.8,513.4 L410.9,514.1 L412.1,514.9 L413.2,515.6 L414.3,516.3 L415.4,517.1
		L416.6,517.8 L417.7,518.5 L418.8,519.3 L419.9,520.0 L421.1,520.7 L422.2,521.4 L423.3,522.2 L424.4,522.9
		L425.6,523.6 L426.7,524.3 L427.8,525.0 L428.9,525.7 L430.1,526.4 L431.2,527.1 L432.3,527.8 L433.4,528.5
		L434.6,529.2 L435.7,529.9 L436.8,530.6 L437.9,531.3 L439.1,532.0 L440.2,532.6 L441.3,533.3 L442.5,534.0
		L443.6,534.7 L444.7,535.3 L445.8,536.0 L447.0,536.7 L448.1,537.3 L449.2,538.0 L450.3,538.7 L451.5,539.3
		L452.6,540.0 L453.7,540.6 L454.8,541.3 L456.0,541.9 L457.1,542.6 L458.2,543.2 L459.3,543.9 L460.5,544.5
		L461.6,545.2 L462.7,545.8 L463.8,546.4 L465.0,547.1 L466.1,547.7 L467.2,548.3 L468.3,548.9 L469.5,549.6
		L470.6,550.2 L471.7,550.8 L472.8,551.4 L474.0,552.0 L475.1,552.7 L476.2,553.3 L477.3,553.9 L478.5,554.5
		L479.6,555.1 L480.7,555.7 L481.8,556.3 L483.0,556.9 L484.1,557.5 L485.2,558.1 L486.3,558.7 L487.5,559.3
		L488.6,559.9 L489.7,560.4 L490.8,561.0 L492.0,561.6 L493.1,562.2 L494.2,562.8 L495.3,563.4 L496.5,563.9
		L497.6,564.5 L498.7,565.1 L499.8,565.6 L501.0,566.2 L502.1,566.8 L503.2,567.3 L504.3,567.9 L505.5,568.5
		L506.6,569.0 L507.7,569.6 L508.8,570.1 L510.0,570.7 L511.1,571.2 L512.2,571.8 L513.4,572.3 L514.5,572.9
		L515.6,573.4 L516.7,574.0 L517.9,574.5 L519.0,575.0 L520.1,575.6 L521.2,576.1 L522.4,576.7 L523.5,577.2
		L524.6,577.7 L525.7,578.2 L526.9,578.8 L528.0,579.3 L529.1,579.8 L530.2,580.3 L531.4,580.8 L532.5,581.4
		L533.6,581.9 L534.7,582.4 L535.9,582.9 L537.0,583.4 L538.1,583.9 L539.2,584.4 L540.4,584.9 L541.5,585.4
		L542.6,585.9 L543.7,586.4 L544.9,586.9 L546.0,587.4 L547.1,587.9 L548.2,588.4 L549.4,588.9 L550.5,589.4
		L551.6,589.9 L552.7,590.4 L553.9,590.9 L555.0,591.3 L556.1,591.8 L557.2,592.3 L558.4,592.8 L559.5,593.3
		L560.6,593.7 L561.7,594.2 L562.9,594.7 L564.0,595.2 L565.1,595.6 L566.2,596.1 L567.4,596.6 L568.5,597.0
		L569.6,597.5 L570.7,597.9 L571.9,598.4 L573.0,598.9 L574.1,599.3 L575.2,599.8 L576.4,600.2 L577.5,600.7
		L578.6,601.1 L579.8,601.6 L580.9,602.0 L582.0,602.5 L583.1,602.9 L584.3,603.4 L585.4,603.8 L586.5,604.2
		L587.6,604.7 L588.8,605.1 L589.9,605.5 L591.0,606.0 L592.1,606.4 L593.3,606.8 L594.4,607.3 L595.5,607.7
		L596.6,608.1 L597.8,608.5 L598.9,609.0 L600.0,609.4 L601.1,609.8 L602.3,610.2 L603.4,610.6 L604.5,611.1
		L605.6,611.5 L606.8,611.9 L607.9,612.3 L609.0,612.7 L610.1,613.1 L611.3,613.5 L612.4,613.9 L613.5,614.3
		L614.6,614.7 L615.8,615.1 L616.9,615.5 L618.0,615.9 L619.1,616.3 L620.3,616.7 L621.4,617.1 L622.5,617.5
		L623.6,617.9 L624.8,618.3 L625.9,618.7 L627.0,619.0 L628.1,619.4 L629.3,619.8 L630.4,620.2 L631.5,620.6
		L632.6,621.0 L633.8,621.3 L634.9,621.7 L636.0,622.1 L637.1,622.5 L638.3,622.8 L639.4,623.2 L640.5,623.6
		L641.6,623.9 L642.8,624.3 L643.9,624.7 L645.0,625.0 L646.2,625.4 L647.3,625.8 L648.4,626.1 L649.5,626.5
		L650.7,626.8 L651.8,627.2 L652.9,627.5 L654.0,627.9 L655.2,628.2 L656.3,628.6 L657.4,628.9 L658.5,629.3
		L659.7,629.6 L660.8,630.0 L661.9,630.3 L663.0,630.7 L664.2,631.0 L665.3,631.3 L666.4,631.7 L667.5,632.0
		L668.7,632.3 L669.8,632.7 L670.9,633.0 L672.0,633.3 L673.2,633.7 L674.3,634.0 L675.4,634.3 L676.5,634.6
		L677.7,635.0 L678.8,635.3 L679.9,635.6 L681.0,635.9 L682.2,636.2 L683.3,636.6 L684.4,636.9 L685.5,637.2
		L686.7,637.5 L687.8,637.8 L688.9,638.1 L690.0,638.4 L691.2,638.7 L692.3,639.0 L693.4,639.3 L694.5,639.7
		L695.7,640.0 L696.8,640.3 L697.9,640.6 L699.0,640.9 L700.2,641.1 L701.3,641.4 L702.4,641.7 L703.5,642.0
		L704.7,642.3 L705.8,642.6 L706.9,642.9 L708.0,643.2 L709.2,643.5 L710.3,643.7 L711.4,644.0 L712.5,644.3
		L713.7,644.6 L714.8,644.9 L715.9,645.1 L717.1,645.4 L718.2,645.7 L719.3,646.0 L720.4,646.2 L721.6,646.5
		L722.7,646.8 L723.8,647.0 L724.9,647.3 L726.1,647.6 L727.2,647.8 L728.3,648.1 L729.4,648.4 L730.6,648.6
		L731.7,648.9 L732.8,649.1 L733.9,649.4 L735.1,649.6 L736.2,649.9 L737.3,650.1 L738.4,650.4 L739.6,650.6
		L740.7,650.9 L741.8,651.1 L742.9,651.4 L744.1,651.6 L745.2,651.9 L746.3,652.1 L747.4,652.3 L748.6,652.6
		L749.7,652.8 L750.8,653.0 L751.9,653.3 L753.1,653.5 L754.2,653.7 L755.3,654.0 L756.4,654.2 L757.6,654.4
		L758.7,654.6 L759.8,654.9 L760.9,655.1 L762.1,655.3 L763.2,655.5 L764.3,655.7 L765.4,656.0 L766.6,656.2
		L767.7,656.4 L768.8,656.6 L769.9,656.8 L771.1,657.0 L772.2,657.2 L773.3,657.4 L774.4,657.6 L775.6,657.8
		L776.7,658.0 L777.8,658.2 L778.9,658.4 L780.1,658.6 L781.2,658.8 L782.3,659.0 L783.5,659.2 L784.6,659.4
		L785.7,659.6 L786.8,659.8 L788.0,660.0 L789.1,660.1 L790.2,660.3 L791.3,660.5 L792.5,660.7 L793.6,660.9
		L794.7,661.0 L795.8,661.2 L797.0,661.4 L798.1,661.6 L799.2,661.7 L800.3,661.9 L801.5,662.1 L802.6,662.2
		L803.7,662.4 L804.8,662.6 L806.0,662.7 L807.1,662.9 L808.2,663.0 L809.3,663.2 L810.5,663.4 L811.6,663.5
		L812.7,663.7 L813.8,663.8 L815.0,664.0 L816.1,664.1 L817.2,664.3 L818.3,664.4 L819.5,664.5 L820.6,664.7
		L821.7,664.8 L822.8,665.0 L824.0,665.1 L825.1,665.2 L826.2,665.4 L827.3,665.5 L828.5,665.6 L829.6,665.7
		L830.7,665.9 L831.8,666.0 L833.0,666.1 L834.1,666.2 L835.2,666.4 L836.3,666.5 L837.5,666.6 L838.6,666.7
		L839.7,666.8 L840.8,666.9 L842.0,667.0 L843.1,667.1 L844.2,667.2 L845.3,667.4 L846.5,667.5 L847.6,667.6
		L848.7,667.7 L849.9,667.7 L851.0,667.8 L852.1,667.9 L853.2,668.0 L854.4,668.1 L855.5,668.2 L856.6,668.3
		L857.7,668.4 L858.9,668.5 L860.0,668.5 L861.1,668.6 L862.2,668.7 L863.4,668.8 L864.5,668.8 L865.6,668.9
		L866.7,669.0 L867.9,669.0 L869.0,669.1 L870.1,669.2 L871.2,669.2 L872.4,669.3 L873.5,669.4 L874.6,669.4
		L875.7,669.5 L876.9,669.5 L878.0,669.6 L879.1,669.6 L880.2,669.7 L881.4,669.7 L882.5,669.7 L883.6,669.8
		L884.7,669.8 L885.9,669.9 L887.0,669.9 L888.1,669.9 L889.2,670.0 L890.4,670.0 L891.5,670.0 L892.6,670.0
		L893.7,670.1 L894.9,670.1 L896.0,670.1 L897.1,670.1 L898.2,670.1 L899.4,670.1 L900.5,670.1 L901.6,670.2
		L902.7,670.2 L903.9,670.2 L905.0,670.2 L906.1,670.2 L907.2,670.2 L908.4,670.2 L909.5,670.1 L910.6,670.1
		L911.7,670.1 L912.9,670.1 L914.0,670.1 L915.1,670.1 L916.2,670.1 L917.4,670.0 L918.5,670.0 L919.6,670.0
		L920.8,669.9 L921.9,669.9 L923.0,669.9 L924.1,669.8 L925.3,669.8 L926.4,669.8 L927.5,669.7 L928.6,669.7
		L929.8,669.6 L930.9,669.6 L932.0,669.5 L933.1,669.5 L934.3,669.4 L935.4,669.3 L936.5,669.3 L937.6,669.2
		L938.8,669.1 L939.9,669.1 L941.0,669.0 L942.1,668.9 L943.3,668.9 L944.4,668.8 L945.5,668.7 L946.6,668.6
		L947.8,668.5 L948.9,668.4 L950.0,668.3 L951.1,668.2 L952.3,668.1 L953.4,668.0 L954.5,667.9 L955.6,667.8
		L956.8,667.7 L957.9,667.6 L959.0,667.5 L960.1,667.4 L961.3,667.3 L962.4,667.2 L963.5,667.0 L964.6,666.9
		L965.8,666.8 L966.9,666.6 L968.0,666.5 L969.1,666.4 L970.3,666.2 L971.4,666.1 L972.5,666.0 L973.6,665.8
		L974.8,665.7 L975.9,665.5 L977.0,665.4 L978.1,665.2 L979.3,665.0 L980.4,664.9 L981.5,664.7 L982.6,664.5
		L983.8,664.4 L984.9,664.2 L986.0,664.0 L987.2,663.8 L988.3,663.7 L989.4,663.5 L990.5,663.3 L991.7,663.1
		L992.8,662.9 L993.9,662.7 L995.0,662.5 L996.2,662.3 L997.3,662.1 L998.4,661.9 L999.5,661.7 L1000.7,661.5
		L1001.8,661.2 L1002.9,661.0 L1004.0,660.8 L1005.2,660.6 L1006.3,660.4 L1007.4,660.1 L1008.5,659.9 L1009.7,659.7
		L1010.8,659.4 L1011.9,659.2 L1013.0,658.9 L1014.2,658.7 L1015.3,658.4 L1016.4,658.2 L1017.5,657.9 L1018.7,657.7
		L1019.8,657.4 L1020.9,657.1 L1022.0,656.9 L1023.2,656.6 L1024.3,656.3 L1025.4,656.1 L1026.5,655.8 L1027.7,655.5
		L1028.8,655.2 L1029.9,654.9 L1031.0,654.6 L1032.2,654.4 L1033.3,654.1 L1034.4,653.8 L1035.5,653.5 L1036.7,653.2
		L1037.8,652.9 L1038.9,652.5 L1040.0,652.2 L1041.2,651.9 L1042.3,651.6 L1043.4,651.3 L1044.5,651.0 L1045.7,650.6
		L1046.8,650.3 L1047.9,650.0 L1049.0,649.6 L1050.2,649.3 L1051.3,649.0 L1052.4,648.6 L1053.6,648.3 L1054.7,647.9
		L1055.8,647.6 L1056.9,647.2 L1058.1,646.9 L1059.2,646.5 L1060.3,646.1 L1061.4,645.8 L1062.6,645.4 L1063.7,645.1
		L1064.8,644.7 L1065.9,644.3 L1067.1,643.9 L1068.2,643.6 L1069.3,643.2 L1070.4,642.8 L1071.6,642.4 L1072.7,642.0
		L1073.8,641.6 L1074.9,641.2 L1076.1,640.8 L1077.2,640.4 L1078.3,640.0 L1079.4,639.6 L1080.6,639.2 L1081.7,638.8
		L1082.8,638.4 L1083.9,638.0 L1085.1,637.6 L1086.2,637.2 L1087.3,636.8 L1088.4,636.4 L1089.6,635.9 L1090.7,635.5
		L1091.8,635.1 L1092.9,634.7 L1094.1,634.2 L1095.2,633.8 L1096.3,633.4 L1097.4,633.0 L1098.6,632.5 L1099.7,632.1
		L1100.8,631.6 L1101.9,631.2 L1103.1,630.8 L1104.2,630.3 L1105.3,629.9 L1106.4,629.4 L1107.6,629.0 L1108.7,628.5
		L1109.8,628.1 L1110.9,627.6 L1112.1,627.2 L1113.2,626.7 L1114.3,626.3 L1115.4,625.8 L1116.6,625.4 L1117.7,624.9
		L1118.8,624.5 L1120.0,624.0 L1121.1,623.5 L1122.2,623.1 L1123.3,622.6 L1124.5,622.2 L1125.6,621.7 L1126.7,621.2
		L1127.8,620.8 L1129.0,620.3 L1130.1,619.9 L1131.2,619.4 L1132.3,618.9 L1133.5,618.5 L1134.6,618.0 L1135.7,617.6
		L1136.8,617.1 L1138.0,616.6 L1139.1,616.2 L1140.2,615.7 L1141.3,615.3 L1142.5,614.8 L1143.6,614.3 L1144.7,613.9
		L1145.8,613.4 L1147.0,613.0 L1148.1,612.5 L1149.2,612.0 L1150.3,611.6 L1151.5,611.1 L1152.6,610.7 L1153.7,610.2
		L1154.8,609.8 L1156.0,609.3 L1157.1,608.9 L1158.2,608.5 L1159.3,608.0 L1160.5,607.6 L1161.6,607.1 L1162.7,606.7
		L1163.8,606.3 L1165.0,605.8 L1166.1,605.4 L1167.2,605.0 L1168.3,604.5 L1169.5,604.1 L1170.6,603.7 L1171.7,603.3
		L1172.8,602.9 L1174.0,602.5 L1175.1,602.0 L1176.2,601.6 L1177.3,601.2 L1178.5,600.8 L1179.6,600.4 L1180.7,600.0
		L1181.8,599.7 L1183.0,599.3 L1184.1,598.9 L1185.2,598.5 L1186.3,598.1 L1187.5,597.8 L1188.6,597.4 L1189.7,597.0
		L1190.9,596.7 L1192.0,596.3 L1193.1,596.0 L1194.2,595.6 L1195.4,595.3 L1196.5,594.9 L1197.6,594.6 L1198.7,594.3
		L1199.9,594.0 L1201.0,593.6 L1202.1,593.3 L1203.2,593.0 L1204.4,592.7 L1205.5,592.4 L1206.6,592.1 L1207.7,591.8
		L1208.9,591.6 L1210.0,591.3 L1211.1,591.0 L1212.2,590.8 L1213.4,590.5 L1214.5,590.2 L1215.6,590.0 L1216.7,589.8
		L1217.9,589.5 L1219.0,589.3 L1220.1,589.1 L1221.2,588.9 L1222.4,588.7 L1223.5,588.5 L1224.6,588.3 L1225.7,588.1
		L1226.9,587.9 L1228.0,587.7 L1229.1,587.5 L1230.2,587.4 L1231.4,587.2 L1232.5,587.1 L1233.6,586.9 L1234.7,586.8
		L1235.9,586.7 L1237.0,586.6 L1238.1,586.4 L1239.2,586.3 L1240.4,586.2 L1241.5,586.1 L1242.6,586.1 L1243.7,586.0
		L1244.9,585.9 L1246.0,585.9 L1247.1,585.8 L1248.2,585.7 L1249.4,585.7 L1250.5,585.7 L1251.6,585.6 L1252.7,585.6
		L1253.9,585.6 L1255.0,585.6  '/></g>
	</g>
	<g id="gnuplot_plot_5" ><title>gnuplot_plot_5</title>
<g fill="none" color="black" stroke="currentColor" stroke-width="1.00" stroke-linecap="butt" stroke-linejoin="miter">
	<path stroke='rgb(  0, 100,   0)'  d='M103.7,86.7 L104.8,90.1 L106.0,97.9 L107.1,106.3 L108.2,113.5 L109.3,119.4 L110.5,124.5 L111.6,129.2
		L112.7,133.6 L113.8,138.0 L115.0,142.3 L116.1,146.7 L117.2,151.1 L118.3,155.5 L119.5,159.9 L120.6,164.3
		L121.7,168.6 L122.8,172.8 L124.0,176.9 L125.1,181.0 L126.2,184.9 L127.3,188.7 L128.5,192.4 L129.6,196.0
		L130.7,199.5 L131.8,202.8 L133.0,206.0 L134.1,209.2 L135.2,212.2 L136.3,215.0 L137.5,217.8 L138.6,220.5
		L139.7,223.1 L140.8,225.6 L142.0,228.1 L143.1,230.4 L144.2,232.7 L145.3,235.0 L146.5,237.1 L147.6,239.2
		L148.7,241.3 L149.8,243.3 L151.0,245.2 L152.1,247.1 L153.2,249.0 L154.3,250.9 L155.5,252.7 L156.6,254.4
		L157.7,256.2 L158.8,257.9 L160.0,259.6 L161.1,261.3 L162.2,262.9 L163.3,264.6 L164.5,266.2 L165.6,267.8
		L166.7,269.4 L167.8,271.0 L169.0,272.5 L170.1,274.1 L171.2,275.6 L172.4,277.2 L173.5,278.7 L174.6,280.2
		L175.7,281.7 L176.9,283.2 L178.0,284.7 L179.1,286.2 L180.2,287.7 L181.4,289.2 L182.5,290.6 L183.6,292.1
		L184.7,293.6 L185.9,295.0 L187.0,296.5 L188.1,297.9 L189.2,299.4 L190.4,300.8 L191.5,302.2 L192.6,303.7
		L193.7,305.1 L194.9,306.5 L196.0,307.9 L197.1,309.4 L198.2,310.8 L199.4,312.2 L200.5,313.6 L201.6,315.0
		L202.7,316.4 L203.9,317.8 L205.0,319.2 L206.1,320.6 L207.2,322.0 L208.4,323.3 L209.5,324.7 L210.6,326.1
		L211.7,327.5 L212.9,328.8 L214.0,330.2 L215.1,331.6 L216.2,332.9 L217.4,334.3 L218.5,335.6 L219.6,337.0
		L220.7,338.3 L221.9,339.7 L223.0,341.0 L224.1,342.4 L225.2,343.7 L226.4,345.0 L227.5,346.3 L228.6,347.7
		L229.7,349.0 L230.9,350.3 L232.0,351.6 L233.1,352.9 L234.2,354.2 L235.4,355.5 L236.5,356.8 L237.6,358.1
		L238.7,359.4 L239.9,360.7 L241.0,361.9 L242.1,363.2 L243.3,364.5 L244.4,365.7 L245.5,367.0 L246.6,368.3
		L247.8,369.5 L248.9,370.8 L250.0,372.0 L251.1,373.3 L252.3,374.5 L253.4,375.7 L254.5,377.0 L255.6,378.2
		L256.8,379.4 L257.9,380.6 L259.0,381.8 L260.1,383.0 L261.3,384.2 L262.4,385.4 L263.5,386.6 L264.6,387.8
		L265.8,389.0 L266.9,390.2 L268.0,391.4 L269.1,392.6 L270.3,393.7 L271.4,394.9 L272.5,396.1 L273.6,397.2
		L274.8,398.4 L275.9,399.5 L277.0,400.7 L278.1,401.8 L279.3,403.0 L280.4,404.1 L281.5,405.2 L282.6,406.4
		L283.8,407.5 L284.9,408.6 L286.0,409.7 L287.1,410.8 L288.3,411.9 L289.4,413.0 L290.5,414.1 L291.6,415.2
		L292.8,416.3 L293.9,417.4 L295.0,418.5 L296.1,419.6 L297.3,420.6 L298.4,421.7 L299.5,422.8 L300.6,423.8
		L301.8,424.9 L302.9,426.0 L304.0,427.0 L305.1,428.1 L306.3,429.1 L307.4,430.1 L308.5,431.2 L309.7,432.2
		L310.8,433.2 L311.9,434.3 L313.0,435.3 L314.2,436.3 L315.3,437.3 L316.4,438.3 L317.5,439.3 L318.7,440.3
		L319.8,441.3 L320.9,442.3 L322.0,443.3 L323.2,444.3 L324.3,445.3 L325.4,446.3 L326.5,447.2 L327.7,448.2
		L328.8,449.2 L329.9,450.1 L331.0,451.1 L332.2,452.1 L333.3,453.0 L334.4,454.0 L335.5,454.9 L336.7,455.9
		L337.8,456.8 L338.9,457.7 L340.0,458.7 L341.2,459.6 L342.3,460.5 L343.4,461.5 L344.5,462.4 L345.7,463.3
		L346.8,464.2 L347.9,465.1 L349.0,466.0 L350.2,466.9 L351.3,467.8 L352.4,468.7 L353.5,469.6 L354.7,470.5
		L355.8,471.4 L356.9,472.3 L358.0,473.2 L359.2,474.0 L360.3,474.9 L361.4,475.8 L362.5,476.7 L363.7,477.5
		L364.8,478.4 L365.9,479.2 L367.0,480.1 L368.2,480.9 L369.3,481.8 L370.4,482.6 L371.5,483.5 L372.7,484.3
		L373.8,485.2 L374.9,486.0 L376.1,486.8 L377.2,487.7 L378.3,488.5 L379.4,489.3 L380.6,490.1 L381.7,490.9
		L382.8,491.8 L383.9,492.6 L385.1,493.4 L386.2,494.2 L387.3,495.0 L388.4,495.8 L389.6,496.6 L390.7,497.4
		L391.8,498.2 L392.9,498.9 L394.1,499.7 L395.2,500.5 L396.3,501.3 L397.4,502.1 L398.6,502.8 L399.7,503.6
		L400.8,504.4 L401.9,505.2 L403.1,505.9 L404.2,506.7 L405.3,507.4 L406.4,508.2 L407.6,508.9 L408.7,509.7
		L409.8,510.4 L410.9,511.2 L412.1,511.9 L413.2,512.7 L414.3,513.4 L415.4,514.1 L416.6,514.9 L417.7,515.6
		L418.8,516.3 L419.9,517.0 L421.1,517.8 L422.2,518.5 L423.3,519.2 L424.4,519.9 L425.6,520.6 L426.7,521.3
		L427.8,522.0 L428.9,522.8 L430.1,523.5 L431.2,524.2 L432.3,524.9 L433.4,525.5 L434.6,526.2 L435.7,526.9
		L436.8,527.6 L437.9,528.3 L439.1,529.0 L440.2,529.7 L441.3,530.3 L442.5,531.0 L443.6,531.7 L444.7,532.4
		L445.8,533.0 L447.0,533.7 L448.1,534.4 L449.2,535.0 L450.3,535.7 L451.5,536.3 L452.6,537.0 L453.7,537.7
		L454.8,538.3 L456.0,538.9 L457.1,539.6 L458.2,540.2 L459.3,540.9 L460.5,541.5 L461.6,542.2 L462.7,542.8
		L463.8,543.4 L465.0,544.1 L466.1,544.7 L467.2,545.3 L468.3,545.9 L469.5,546.6 L470.6,547.2 L471.7,547.8
		L472.8,548.4 L474.0,549.0 L475.1,549.6 L476.2,550.3 L477.3,550.9 L478.5,551.5 L479.6,552.1 L480.7,552.7
		L481.8,553.3 L483.0,553.9 L484.1,554.5 L485.2,555.1 L486.3,555.7 L487.5,556.3 L488.6,556.8 L489.7,557.4
		L490.8,558.0 L492.0,558.6 L493.1,559.2 L494.2,559.8 L495.3,560.3 L496.5,560.9 L497.6,561.5 L498.7,562.0
		L499.8,562.6 L501.0,563.2 L502.1,563.7 L503.2,564.3 L504.3,564.9 L505.5,565.4 L506.6,566.0 L507.7,566.5
		L508.8,567.1 L510.0,567.6 L511.1,568.2 L512.2,568.7 L513.4,569.3 L514.5,569.8 L515.6,570.4 L516.7,570.9
		L517.9,571.5 L519.0,572.0 L520.1,572.5 L521.2,573.1 L522.4,573.6 L523.5,574.1 L524.6,574.7 L525.7,575.2
		L526.9,575.7 L528.0,576.2 L529.1,576.8 L530.2,577.3 L531.4,577.8 L532.5,578.3 L533.6,578.8 L534.7,579.3
		L535.9,579.8 L537.0,580.4 L538.1,580.9 L539.2,581.4 L540.4,581.9 L541.5,582.4 L542.6,582.9 L543.7,583.4
		L544.9,583.9 L546.0,584.4 L547.1,584.9 L548.2,585.4 L549.4,585.8 L550.5,586.3 L551.6,586.8 L552.7,587.3
		L553.9,587.8 L555.0,588.3 L556.1,588.8 L557.2,589.2 L558.4,589.7 L559.5,590.2 L560.6,590.7 L561.7,591.1
		L562.9,591.6 L564.0,592.1 L565.1,592.5 L566.2,593.0 L567.4,593.5 L568.5,593.9 L569.6,594.4 L570.7,594.9
		L571.9,595.3 L573.0,595.8 L574.1,596.2 L575.2,596.7 L576.4,597.1 L577.5,597.6 L578.6,598.0 L579.8,598.5
		L580.9,598.9 L582.0,599.4 L583.1,599.8 L584.3,600.3 L585.4,600.7 L586.5,601.1 L587.6,601.6 L588.8,602.0
		L589.9,602.4 L591.0,602.9 L592.1,603.3 L593.3,603.7 L594.4,604.2 L595.5,604.6 L596.6,605.0 L597.8,605.4
		L598.9,605.9 L600.0,606.3 L601.1,606.7 L602.3,607.1 L603.4,607.5 L604.5,607.9 L605.6,608.3 L606.8,608.8
		L607.9,609.2 L609.0,609.6 L610.1,610.0 L611.3,610.4 L612.4,610.8 L613.5,611.2 L614.6,611.6 L615.8,612.0
		L616.9,612.4 L618.0,612.8 L619.1,613.2 L620.3,613.6 L621.4,614.0 L622.5,614.4 L623.6,614.8 L624.8,615.1
		L625.9,615.5 L627.0,615.9 L628.1,616.3 L629.3,616.7 L630.4,617.1 L631.5,617.4 L632.6,617.8 L633.8,618.2
		L634.9,618.6 L636.0,618.9 L637.1,619.3 L638.3,619.7 L639.4,620.1 L640.5,620.4 L641.6,620.8 L642.8,621.2
		L643.9,621.5 L645.0,621.9 L646.2,622.2 L647.3,622.6 L648.4,623.0 L649.5,623.3 L650.7,623.7 L651.8,624.0
		L652.9,624.4 L654.0,624.7 L655.2,625.1 L656.3,625.4 L657.4,625.8 L658.5,626.1 L659.7,626.5 L660.8,626.8
		L661.9,627.1 L663.0,627.5 L664.2,627.8 L665.3,628.2 L666.4,628.5 L667.5,628.8 L668.7,629.2 L669.8,629.5
		L670.9,629.8 L672.0,630.2 L673.2,630.5 L674.3,630.8 L675.4,631.1 L676.5,631.5 L677.7,631.8 L678.8,632.1
		L679.9,632.4 L681.0,632.7 L682.2,633.1 L683.3,633.4 L684.4,633.7 L685.5,634.0 L686.7,634.3 L687.8,634.6
		L688.9,634.9 L690.0,635.2 L691.2,635.5 L692.3,635.8 L693.4,636.2 L694.5,636.5 L695.7,636.8 L696.8,637.1
		L697.9,637.3 L699.0,637.6 L700.2,637.9 L701.3,638.2 L702.4,638.5 L703.5,638.8 L704.7,639.1 L705.8,639.4
		L706.9,639.7 L708.0,640.0 L709.2,640.2 L710.3,640.5 L711.4,640.8 L712.5,641.1 L713.7,641.4 L714.8,641.6
		L715.9,641.9 L717.1,642.2 L718.2,642.5 L719.3,642.7 L720.4,643.0 L721.6,643.3 L722.7,643.5 L723.8,643.8
		L724.9,644.1 L726.1,644.3 L727.2,644.6 L728.3,644.9 L729.4,645.1 L730.6,645.4 L731.7,645.6 L732.8,645.9
		L733.9,646.1 L735.1,646.4 L736.2,646.6 L737.3,646.9 L738.4,647.1 L739.6,647.4 L740.7,647.6 L741.8,647.9
		L742.9,648.1 L744.1,648.4 L745.2,648.6 L746.3,648.8 L747.4,649.1 L748.6,649.3 L749.7,649.5 L750.8,649.8
		L751.9,650.0 L753.1,650.2 L754.2,650.5 L755.3,650.7 L756.4,650.9 L757.6,651.1 L758.7,651.4 L759.8,651.6
		L760.9,651.8 L762.1,652.0 L763.2,652.2 L764.3,652.5 L765.4,652.7 L766.6,652.9 L767.7,653.1 L768.8,653.3
		L769.9,653.5 L771.1,653.7 L772.2,653.9 L773.3,654.1 L774.4,654.3 L775.6,654.5 L776.7,654.7 L777.8,654.9
		L778.9,655.1 L780.1,655.3 L781.2,655.5 L782.3,655.7 L783.5,655.9 L784.6,656.1 L785.7,656.3 L786.8,656.5
		L788.0,656.6 L789.1,656.8 L790.2,657.0 L791.3,657.2 L792.5,657.4 L793.6,657.5 L794.7,657.7 L795.8,657.9
		L797.0,658.1 L798.1,658.2 L799.2,658.4 L800.3,658.6 L801.5,658.7 L802.6,658.9 L803.7,659.1 L804.8,659.2
		L806.0,659.4 L807.1,659.5 L808.2,659.7 L809.3,659.8 L810.5,660.0 L811.6,660.1 L812.7,660.3 L813.8,660.4
		L815.0,660.6 L816.1,660.7 L817.2,660.9 L818.3,661.0 L819.5,661.2 L820.6,661.3 L821.7,661.4 L822.8,661.6
		L824.0,661.7 L825.1,661.8 L826.2,662.0 L827.3,662.1 L828.5,662.2 L829.6,662.4 L830.7,662.5 L831.8,662.6
		L833.0,662.7 L834.1,662.8 L835.2,663.0 L836.3,663.1 L837.5,663.2 L838.6,663.3 L839.7,663.4 L840.8,663.5
		L842.0,663.6 L843.1,663.7 L844.2,663.8 L845.3,663.9 L846.5,664.0 L847.6,664.1 L848.7,664.2 L849.9,664.3
		L851.0,664.4 L852.1,664.5 L853.2,664.6 L854.4,664.7 L855.5,664.8 L856.6,664.8 L857.7,664.9 L858.9,665.0
		L860.0,665.1 L861.1,665.2 L862.2,665.2 L863.4,665.3 L864.5,665.4 L865.6,665.4 L866.7,665.5 L867.9,665.6
		L869.0,665.6 L870.1,665.7 L871.2,665.8 L872.4,665.8 L873.5,665.9 L874.6,665.9 L875.7,666.0 L876.9,666.0
		L878.0,666.1 L879.1,666.1 L880.2,666.2 L881.4,666.2 L882.5,666.2 L883.6,666.3 L884.7,666.3 L885.9,666.4
		L887.0,666.4 L888.1,666.4 L889.2,666.4 L890.4,666.5 L891.5,666.5 L892.6,666.5 L893.7,666.5 L894.9,666.5
		L896.0,666.6 L897.1,666.6 L898.2,666.6 L899.4,666.6 L900.5,666.6 L901.6,666.6 L902.7,666.6 L903.9,666.6
		L905.0,666.6 L906.1,666.6 L907.2,666.6 L908.4,666.6 L909.5,666.6 L910.6,666.6 L911.7,666.6 L912.9,666.5
		L914.0,666.5 L915.1,666.5 L916.2,666.5 L917.4,666.4 L918.5,666.4 L919.6,666.4 L920.8,666.4 L921.9,666.3
		L923.0,666.3 L924.1,666.2 L925.3,666.2 L926.4,666.2 L927.5,666.1 L928.6,666.1 L929.8,666.0 L930.9,666.0
		L932.0,665.9 L933.1,665.8 L934.3,665.8 L935.4,665.7 L936.5,665.7 L937.6,665.6 L938.8,665.5 L939.9,665.4
		L941.0,665.4 L942.1,665.3 L943.3,665.2 L944.4,665.1 L945.5,665.0 L946.6,665.0 L947.8,664.9 L948.9,664.8
		L950.0,664.7 L951.1,664.6 L952.3,664.5 L953.4,664.4 L954.5,664.3 L955.6,664.2 L956.8,664.1 L957.9,663.9
		L959.0,663.8 L960.1,663.7 L961.3,663.6 L962.4,663.5 L963.5,663.3 L964.6,663.2 L965.8,663.1 L966.9,662.9
		L968.0,662.8 L969.1,662.7 L970.3,662.5 L971.4,662.4 L972.5,662.2 L973.6,662.1 L974.8,661.9 L975.9,661.8
		L977.0,661.6 L978.1,661.5 L979.3,661.3 L980.4,661.1 L981.5,661.0 L982.6,660.8 L983.8,660.6 L984.9,660.5
		L986.0,660.3 L987.2,660.1 L988.3,659.9 L989.4,659.7 L990.5,659.5 L991.7,659.3 L992.8,659.1 L993.9,659.0
		L995.0,658.7 L996.2,658.5 L997.3,658.3 L998.4,658.1 L999.5,657.9 L1000.7,657.7 L1001.8,657.5 L1002.9,657.3
		L1004.0,657.0 L1005.2,656.8 L1006.3,656.6 L1007.4,656.4 L1008.5,656.1 L1009.7,655.9 L1010.8,655.6 L1011.9,655.4
		L1013.0,655.2 L1014.2,654.9 L1015.3,654.7 L1016.4,654.4 L1017.5,654.2 L1018.7,653.9 L1019.8,653.6 L1020.9,653.4
		L1022.0,653.1 L1023.2,652.8 L1024.3,652.6 L1025.4,652.3 L1026.5,652.0 L1027.7,651.7 L1028.8,651.4 L1029.9,651.1
		L1031.0,650.9 L1032.2,650.6 L1033.3,650.3 L1034.4,650.0 L1035.5,649.7 L1036.7,649.4 L1037.8,649.1 L1038.9,648.7
		L1040.0,648.4 L1041.2,648.1 L1042.3,647.8 L1043.4,647.5 L1044.5,647.2 L1045.7,646.8 L1046.8,646.5 L1047.9,646.2
		L1049.0,645.8 L1050.2,645.5 L1051.3,645.2 L1052.4,644.8 L1053.6,644.5 L1054.7,644.1 L1055.8,643.8 L1056.9,643.4
		L1058.1,643.1 L1059.2,642.7 L1060.3,642.4 L1061.4,642.0 L1062.6,641.6 L1063.7,641.3 L1064.8,640.9 L1065.9,640.5
		L1067.1,640.2 L1068.2,639.8 L1069.3,639.4 L1070.4,639.0 L1071.6,638.6 L1072.7,638.3 L1073.8,637.9 L1074.9,637.5
		L1076.1,637.1 L1077.2,636.7 L1078.3,636.3 L1079.4,635.9 L1080.6,635.5 L1081.7,635.1 L1082.8,634.7 L1083.9,634.3
		L1085.1,633.9 L1086.2,633.5 L1087.3,633.0 L1088.4,632.6 L1089.6,632.2 L1090.7,631.8 L1091.8,631.4 L1092.9,630.9
		L1094.1,630.5 L1095.2,630.1 L1096.3,629.7 L1097.4,629.2 L1098.6,628.8 L1099.7,628.4 L1100.8,627.9 L1101.9,627.5
		L1103.1,627.1 L1104.2,626.6 L1105.3,626.2 L1106.4,625.8 L1107.6,625.3 L1108.7,624.9 L1109.8,624.4 L1110.9,624.0
		L1112.1,623.5 L1113.2,623.1 L1114.3,622.6 L1115.4,622.2 L1116.6,621.7 L1117.7,621.3 L1118.8,620.8 L1120.0,620.4
		L1121.1,619.9 L1122.2,619.5 L1123.3,619.0 L1124.5,618.6 L1125.6,618.1 L1126.7,617.7 L1127.8,617.2 L1129.0,616.8
		L1130.1,616.3 L1131.2,615.9 L1132.3,615.4 L1133.5,614.9 L1134.6,614.5 L1135.7,614.0 L1136.8,613.6 L1138.0,613.1
		L1139.1,612.7 L1140.2,612.2 L1141.3,611.8 L1142.5,611.3 L1143.6,610.9 L1144.7,610.4 L1145.8,610.0 L1147.0,609.5
		L1148.1,609.1 L1149.2,608.6 L1150.3,608.2 L1151.5,607.7 L1152.6,607.3 L1153.7,606.8 L1154.8,606.4 L1156.0,606.0
		L1157.1,605.5 L1158.2,605.1 L1159.3,604.6 L1160.5,604.2 L1161.6,603.8 L1162.7,603.4 L1163.8,602.9 L1165.0,602.5
		L1166.1,602.1 L1167.2,601.7 L1168.3,601.2 L1169.5,600.8 L1170.6,600.4 L1171.7,600.0 L1172.8,599.6 L1174.0,599.2
		L1175.1,598.8 L1176.2,598.4 L1177.3,598.0 L1178.5,597.6 L1179.6,597.2 L1180.7,596.8 L1181.8,596.5 L1183.0,596.1
		L1184.1,595.7 L1185.2,595.3 L1186.3,595.0 L1187.5,594.6 L1188.6,594.2 L1189.7,593.9 L1190.9,593.5 L1192.0,593.2
		L1193.1,592.8 L1194.2,592.5 L1195.4,592.2 L1196.5,591.8 L1197.6,591.5 L1198.7,591.2 L1199.9,590.9 L1201.0,590.6
		L1202.1,590.3 L1203.2,590.0 L1204.4,589.7 L1205.5,589.4 L1206.6,589.1 L1207.7,588.8 L1208.9,588.5 L1210.0,588.3
		L1211.1,588.0 L1212.2,587.8 L1213.4,587.5 L1214.5,587.3 L1215.6,587.0 L1216.7,586.8 L1217.9,586.6 L1219.0,586.3
		L1220.1,586.1 L1221.2,585.9 L1222.4,585.7 L1223.5,585.5 L1224.6,585.3 L1225.7,585.1 L1226.9,585.0 L1228.0,584.8
		L1229.1,584.6 L1230.2,584.5 L1231.4,584.3 L1232.5,584.2 L1233.6,584.0 L1234.7,583.9 L1235.9,583.8 L1237.0,583.7
		L1238.1,583.6 L1239.2,583.5 L1240.4,583.4 L1241.5,583.3 L1242.6,583.2 L1243.7,583.1 L1244.9,583.0 L1246.0,583.0
		L1247.1,582.9 L1248.2,582.9 L1249.4,582.8 L1250.5,582.8 L1251.6,582.8 L1252.7,582.8 L1253.9,582.8 L1255.0,582.8
		 '/></g>
	</g>
	<g id="gnuplot_plot_6" ><title>gnuplot_plot_6</title>
<g fill="none" color="black" stroke="currentColor" stroke-width="1.00" stroke-linecap="butt" stroke-linejoin="miter">
	<path stroke='rgb(  0,   0, 255)'  d='M103.7,56.5 L104.8,61.0 L106.0,71.5 L107.1,83.1 L108.2,93.0 L109.3,100.9 L110.5,107.5 L111.6,113.1
		L112.7,118.3 L113.8,123.2 L115.0,128.0 L116.1,132.7 L117.2,137.4 L118.3,142.1 L119.5,146.7 L120.6,151.3
		L121.7,155.8 L122.8,160.3 L124.0,164.6 L125.1,168.8 L126.2,173.0 L127.3,177.0 L128.5,180.9 L129.6,184.6
		L130.7,188.3 L131.8,191.8 L133.0,195.2 L134.1,198.5 L135.2,201.6 L136.3,204.7 L137.5,207.6 L138.6,210.4
		L139.7,213.2 L140.8,215.8 L142.0,218.4 L143.1,220.9 L144.2,223.3 L145.3,225.6 L146.5,227.9 L147.6,230.1
		L148.7,232.3 L149.8,234.4 L151.0,236.4 L152.1,238.4 L153.2,240.4 L154.3,242.3 L155.5,244.2 L156.6,246.1
		L157.7,247.9 L158.8,249.7 L160.0,251.4 L161.1,253.2 L162.2,254.9 L163.3,256.6 L164.5,258.3 L165.6,259.9
		L166.7,261.6 L167.8,263.2 L169.0,264.8 L170.1,266.4 L171.2,268.0 L172.4,269.6 L173.5,271.2 L174.6,272.7
		L175.7,274.3 L176.9,275.8 L178.0,277.4 L179.1,278.9 L180.2,280.4 L181.4,281.9 L182.5,283.4 L183.6,284.9
		L184.7,286.4 L185.9,287.9 L187.0,289.4 L188.1,290.9 L189.2,292.3 L190.4,293.8 L191.5,295.3 L192.6,296.7
		L193.7,298.2 L194.9,299.6 L196.0,301.1 L197.1,302.5 L198.2,303.9 L199.4,305.4 L200.5,306.8 L201.6,308.2
		L202.7,309.6 L203.9,311.1 L205.0,312.5 L206.1,313.9 L207.2,315.3 L208.4,316.7 L209.5,318.1 L210.6,319.5
		L211.7,320.9 L212.9,322.3 L214.0,323.6 L215.1,325.0 L216.2,326.4 L217.4,327.8 L218.5,329.1 L219.6,330.5
		L220.7,331.9 L221.9,333.2 L223.0,334.6 L224.1,335.9 L225.2,337.3 L226.4,338.6 L227.5,339.9 L228.6,341.3
		L229.7,342.6 L230.9,343.9 L232.0,345.2 L233.1,346.6 L234.2,347.9 L235.4,349.2 L236.5,350.5 L237.6,351.8
		L238.7,353.1 L239.9,354.4 L241.0,355.7 L242.1,356.9 L243.3,358.2 L244.4,359.5 L245.5,360.8 L246.6,362.0
		L247.8,363.3 L248.9,364.6 L250.0,365.8 L251.1,367.1 L252.3,368.3 L253.4,369.5 L254.5,370.8 L255.6,372.0
		L256.8,373.2 L257.9,374.5 L259.0,375.7 L260.1,376.9 L261.3,378.1 L262.4,379.3 L263.5,380.5 L264.6,381.7
		L265.8,382.9 L266.9,384.1 L268.0,385.3 L269.1,386.5 L270.3,387.7 L271.4,388.8 L272.5,390.0 L273.6,391.2
		L274.8,392.3 L275.9,393.5 L277.0,394.6 L278.1,395.8 L279.3,396.9 L280.4,398.1 L281.5,399.2 L282.6,400.3
		L283.8,401.5 L284.9,402.6 L286.0,403.7 L287.1,404.8 L288.3,405.9 L289.4,407.1 L290.5,408.2 L291.6,409.3
		L292.8,410.4 L293.9,411.4 L295.0,412.5 L296.1,413.6 L297.3,414.7 L298.4,415.8 L299.5,416.8 L300.6,417.9
		L301.8,419.0 L302.9,420.0 L304.0,421.1 L305.1,422.1 L306.3,423.2 L307.4,424.2 L308.5,425.3 L309.7,426.3
		L310.8,427.3 L311.9,428.4 L313.0,429.4 L314.2,430.4 L315.3,431.4 L316.4,432.4 L317.5,433.4 L318.7,434.4
		L319.8,435.4 L320.9,436.4 L322.0,437.4 L323.2,438.4 L324.3,439.4 L325.4,440.4 L326.5,441.4 L327.7,442.3
		L328.8,443.3 L329.9,444.3 L331.0,445.3 L332.2,446.2 L333.3,447.2 L334.4,448.1 L335.5,449.1 L336.7,450.0
		L337.8,451.0 L338.9,451.9 L340.0,452.8 L341.2,453.8 L342.3,454.7 L343.4,455.6 L344.5,456.6 L345.7,457.5
		L346.8,458.4 L347.9,459.3 L349.0,460.2 L350.2,461.1 L351.3,462.0 L352.4,462.9 L353.5,463.8 L354.7,464.7
		L355.8,465.6 L356.9,466.5 L358.0,467.4 L359.2,468.2 L360.3,469.1 L361.4,470.0 L362.5,470.9 L363.7,471.7
		L364.8,472.6 L365.9,473.4 L367.0,474.3 L368.2,475.2 L369.3,476.0 L370.4,476.9 L371.5,477.7 L372.7,478.5
		L373.8,479.4 L374.9,480.2 L376.1,481.0 L377.2,481.9 L378.3,482.7 L379.4,483.5 L380.6,484.3 L381.7,485.2
		L382.8,486.0 L383.9,486.8 L385.1,487.6 L386.2,488.4 L387.3,489.2 L388.4,490.0 L389.6,490.8 L390.7,491.6
		L391.8,492.4 L392.9,493.2 L394.1,494.0 L395.2,494.7 L396.3,495.5 L397.4,496.3 L398.6,497.1 L399.7,497.8
		L400.8,498.6 L401.9,499.4 L403.1,500.1 L404.2,500.9 L405.3,501.7 L406.4,502.4 L407.6,503.2 L408.7,503.9
		L409.8,504.7 L410.9,505.4 L412.1,506.2 L413.2,506.9 L414.3,507.6 L415.4,508.4 L416.6,509.1 L417.7,509.8
		L418.8,510.6 L419.9,511.3 L421.1,512.0 L422.2,512.7 L423.3,513.4 L424.4,514.2 L425.6,514.9 L426.7,515.6
		L427.8,516.3 L428.9,517.0 L430.1,517.7 L431.2,518.4 L432.3,519.1 L433.4,519.8 L434.6,520.5 L435.7,521.2
		L436.8,521.8 L437.9,522.5 L439.1,523.2 L440.2,523.9 L441.3,524.6 L442.5,525.2 L443.6,525.9 L444.7,526.6
		L445.8,527.3 L447.0,527.9 L448.1,528.6 L449.2,529.3 L450.3,529.9 L451.5,530.6 L452.6,531.2 L453.7,531.9
		L454.8,532.5 L456.0,533.2 L457.1,533.8 L458.2,534.5 L459.3,535.1 L460.5,535.7 L461.6,536.4 L462.7,537.0
		L463.8,537.7 L465.0,538.3 L466.1,538.9 L467.2,539.5 L468.3,540.2 L469.5,540.8 L470.6,541.4 L471.7,542.0
		L472.8,542.6 L474.0,543.2 L475.1,543.9 L476.2,544.5 L477.3,545.1 L478.5,545.7 L479.6,546.3 L480.7,546.9
		L481.8,547.5 L483.0,548.1 L484.1,548.7 L485.2,549.3 L486.3,549.9 L487.5,550.5 L488.6,551.0 L489.7,551.6
		L490.8,552.2 L492.0,552.8 L493.1,553.4 L494.2,553.9 L495.3,554.5 L496.5,555.1 L497.6,555.7 L498.7,556.2
		L499.8,556.8 L501.0,557.4 L502.1,557.9 L503.2,558.5 L504.3,559.1 L505.5,559.6 L506.6,560.2 L507.7,560.7
		L508.8,561.3 L510.0,561.8 L511.1,562.4 L512.2,562.9 L513.4,563.5 L514.5,564.0 L515.6,564.5 L516.7,565.1
		L517.9,565.6 L519.0,566.2 L520.1,566.7 L521.2,567.2 L522.4,567.8 L523.5,568.3 L524.6,568.8 L525.7,569.3
		L526.9,569.9 L528.0,570.4 L529.1,570.9 L530.2,571.4 L531.4,571.9 L532.5,572.4 L533.6,573.0 L534.7,573.5
		L535.9,574.0 L537.0,574.5 L538.1,575.0 L539.2,575.5 L540.4,576.0 L541.5,576.5 L542.6,577.0 L543.7,577.5
		L544.9,578.0 L546.0,578.5 L547.1,579.0 L548.2,579.5 L549.4,579.9 L550.5,580.4 L551.6,580.9 L552.7,581.4
		L553.9,581.9 L555.0,582.4 L556.1,582.8 L557.2,583.3 L558.4,583.8 L559.5,584.3 L560.6,584.7 L561.7,585.2
		L562.9,585.7 L564.0,586.1 L565.1,586.6 L566.2,587.1 L567.4,587.5 L568.5,588.0 L569.6,588.5 L570.7,588.9
		L571.9,589.4 L573.0,589.8 L574.1,590.3 L575.2,590.7 L576.4,591.2 L577.5,591.6 L578.6,592.1 L579.8,592.5
		L580.9,593.0 L582.0,593.4 L583.1,593.8 L584.3,594.3 L585.4,594.7 L586.5,595.1 L587.6,595.6 L588.8,596.0
		L589.9,596.4 L591.0,596.9 L592.1,597.3 L593.3,597.7 L594.4,598.1 L595.5,598.6 L596.6,599.0 L597.8,599.4
		L598.9,599.8 L600.0,600.2 L601.1,600.7 L602.3,601.1 L603.4,601.5 L604.5,601.9 L605.6,602.3 L606.8,602.7
		L607.9,603.1 L609.0,603.5 L610.1,603.9 L611.3,604.3 L612.4,604.7 L613.5,605.1 L614.6,605.5 L615.8,605.9
		L616.9,606.3 L618.0,606.7 L619.1,607.1 L620.3,607.5 L621.4,607.9 L622.5,608.3 L623.6,608.6 L624.8,609.0
		L625.9,609.4 L627.0,609.8 L628.1,610.2 L629.3,610.5 L630.4,610.9 L631.5,611.3 L632.6,611.7 L633.8,612.0
		L634.9,612.4 L636.0,612.8 L637.1,613.1 L638.3,613.5 L639.4,613.9 L640.5,614.2 L641.6,614.6 L642.8,615.0
		L643.9,615.3 L645.0,615.7 L646.2,616.0 L647.3,616.4 L648.4,616.7 L649.5,617.1 L650.7,617.4 L651.8,617.8
		L652.9,618.1 L654.0,618.5 L655.2,618.8 L656.3,619.2 L657.4,619.5 L658.5,619.9 L659.7,620.2 L660.8,620.5
		L661.9,620.9 L663.0,621.2 L664.2,621.5 L665.3,621.9 L666.4,622.2 L667.5,622.5 L668.7,622.8 L669.8,623.2
		L670.9,623.5 L672.0,623.8 L673.2,624.1 L674.3,624.5 L675.4,624.8 L676.5,625.1 L677.7,625.4 L678.8,625.7
		L679.9,626.0 L681.0,626.4 L682.2,626.7 L683.3,627.0 L684.4,627.3 L685.5,627.6 L686.7,627.9 L687.8,628.2
		L688.9,628.5 L690.0,628.8 L691.2,629.1 L692.3,629.4 L693.4,629.7 L694.5,630.0 L695.7,630.3 L696.8,630.6
		L697.9,630.9 L699.0,631.2 L700.2,631.4 L701.3,631.7 L702.4,632.0 L703.5,632.3 L704.7,632.6 L705.8,632.9
		L706.9,633.1 L708.0,633.4 L709.2,633.7 L710.3,634.0 L711.4,634.2 L712.5,634.5 L713.7,634.8 L714.8,635.1
		L715.9,635.3 L717.1,635.6 L718.2,635.8 L719.3,636.1 L720.4,636.4 L721.6,636.6 L722.7,636.9 L723.8,637.2
		L724.9,637.4 L726.1,637.7 L727.2,637.9 L728.3,638.2 L729.4,638.4 L730.6,638.7 L731.7,638.9 L732.8,639.2
		L733.9,639.4 L735.1,639.6 L736.2,639.9 L737.3,640.1 L738.4,640.4 L739.6,640.6 L740.7,640.8 L741.8,641.1
		L742.9,641.3 L744.1,641.5 L745.2,641.8 L746.3,642.0 L747.4,642.2 L748.6,642.5 L749.7,642.7 L750.8,642.9
		L751.9,643.1 L753.1,643.3 L754.2,643.6 L755.3,643.8 L756.4,644.0 L757.6,644.2 L758.7,644.4 L759.8,644.6
		L760.9,644.8 L762.1,645.0 L763.2,645.2 L764.3,645.5 L765.4,645.7 L766.6,645.9 L767.7,646.1 L768.8,646.3
		L769.9,646.5 L771.1,646.7 L772.2,646.8 L773.3,647.0 L774.4,647.2 L775.6,647.4 L776.7,647.6 L777.8,647.8
		L778.9,648.0 L780.1,648.2 L781.2,648.3 L782.3,648.5 L783.5,648.7 L784.6,648.9 L785.7,649.1 L786.8,649.2
		L788.0,649.4 L789.1,649.6 L790.2,649.7 L791.3,649.9 L792.5,650.1 L793.6,650.2 L794.7,650.4 L795.8,650.6
		L797.0,650.7 L798.1,650.9 L799.2,651.0 L800.3,651.2 L801.5,651.3 L802.6,651.5 L803.7,651.6 L804.8,651.8
		L806.0,651.9 L807.1,652.1 L808.2,652.2 L809.3,652.4 L810.5,652.5 L811.6,652.6 L812.7,652.8 L813.8,652.9
		L815.0,653.0 L816.1,653.2 L817.2,653.3 L818.3,653.4 L819.5,653.6 L820.6,653.7 L821.7,653.8 L822.8,653.9
		L824.0,654.0 L825.1,654.2 L826.2,654.3 L827.3,654.4 L828.5,654.5 L829.6,654.6 L830.7,654.7 L831.8,654.8
		L833.0,654.9 L834.1,655.0 L835.2,655.1 L836.3,655.2 L837.5,655.3 L838.6,655.4 L839.7,655.5 L840.8,655.6
		L842.0,655.7 L843.1,655.8 L844.2,655.9 L845.3,656.0 L846.5,656.1 L847.6,656.1 L848.7,656.2 L849.9,656.3
		L851.0,656.4 L852.1,656.4 L853.2,656.5 L854.4,656.6 L855.5,656.7 L856.6,656.7 L857.7,656.8 L858.9,656.9
		L860.0,656.9 L861.1,657.0 L862.2,657.0 L863.4,657.1 L864.5,657.1 L865.6,657.2 L866.7,657.2 L867.9,657.3
		L869.0,657.3 L870.1,657.4 L871.2,657.4 L872.4,657.5 L873.5,657.5 L874.6,657.5 L875.7,657.6 L876.9,657.6
		L878.0,657.6 L879.1,657.7 L880.2,657.7 L881.4,657.7 L882.5,657.7 L883.6,657.7 L884.7,657.8 L885.9,657.8
		L887.0,657.8 L888.1,657.8 L889.2,657.8 L890.4,657.8 L891.5,657.8 L892.6,657.8 L893.7,657.8 L894.9,657.8
		L896.0,657.8 L897.1,657.8 L898.2,657.8 L899.4,657.8 L900.5,657.8 L901.6,657.8 L902.7,657.7 L903.9,657.7
		L905.0,657.7 L906.1,657.7 L907.2,657.6 L908.4,657.6 L909.5,657.6 L910.6,657.6 L911.7,657.5 L912.9,657.5
		L914.0,657.4 L915.1,657.4 L916.2,657.4 L917.4,657.3 L918.5,657.3 L919.6,657.2 L920.8,657.2 L921.9,657.1
		L923.0,657.0 L924.1,657.0 L925.3,656.9 L926.4,656.9 L927.5,656.8 L928.6,656.7 L929.8,656.6 L930.9,656.6
		L932.0,656.5 L933.1,656.4 L934.3,656.3 L935.4,656.2 L936.5,656.2 L937.6,656.1 L938.8,656.0 L939.9,655.9
		L941.0,655.8 L942.1,655.7 L943.3,655.6 L944.4,655.5 L945.5,655.4 L946.6,655.3 L947.8,655.2 L948.9,655.0
		L950.0,654.9 L951.1,654.8 L952.3,654.7 L953.4,654.6 L954.5,654.4 L955.6,654.3 L956.8,654.2 L957.9,654.0
		L959.0,653.9 L960.1,653.8 L961.3,653.6 L962.4,653.5 L963.5,653.3 L964.6,653.2 L965.8,653.0 L966.9,652.9
		L968.0,652.7 L969.1,652.6 L970.3,652.4 L971.4,652.2 L972.5,652.1 L973.6,651.9 L974.8,651.7 L975.9,651.5
		L977.0,651.4 L978.1,651.2 L979.3,651.0 L980.4,650.8 L981.5,650.6 L982.6,650.4 L983.8,650.2 L984.9,650.0
		L986.0,649.8 L987.2,649.6 L988.3,649.4 L989.4,649.2 L990.5,649.0 L991.7,648.8 L992.8,648.6 L993.9,648.4
		L995.0,648.1 L996.2,647.9 L997.3,647.7 L998.4,647.5 L999.5,647.2 L1000.7,647.0 L1001.8,646.8 L1002.9,646.5
		L1004.0,646.3 L1005.2,646.0 L1006.3,645.8 L1007.4,645.5 L1008.5,645.3 L1009.7,645.0 L1010.8,644.8 L1011.9,644.5
		L1013.0,644.2 L1014.2,644.0 L1015.3,643.7 L1016.4,643.4 L1017.5,643.1 L1018.7,642.9 L1019.8,642.6 L1020.9,642.3
		L1022.0,642.0 L1023.2,641.7 L1024.3,641.4 L1025.4,641.1 L1026.5,640.8 L1027.7,640.5 L1028.8,640.2 L1029.9,639.9
		L1031.0,639.6 L1032.2,639.3 L1033.3,639.0 L1034.4,638.7 L1035.5,638.4 L1036.7,638.1 L1037.8,637.7 L1038.9,637.4
		L1040.0,637.1 L1041.2,636.7 L1042.3,636.4 L1043.4,636.1 L1044.5,635.7 L1045.7,635.4 L1046.8,635.1 L1047.9,634.7
		L1049.0,634.4 L1050.2,634.0 L1051.3,633.7 L1052.4,633.3 L1053.6,632.9 L1054.7,632.6 L1055.8,632.2 L1056.9,631.9
		L1058.1,631.5 L1059.2,631.1 L1060.3,630.7 L1061.4,630.4 L1062.6,630.0 L1063.7,629.6 L1064.8,629.2 L1065.9,628.9
		L1067.1,628.5 L1068.2,628.1 L1069.3,627.7 L1070.4,627.3 L1071.6,626.9 L1072.7,626.5 L1073.8,626.1 L1074.9,625.7
		L1076.1,625.3 L1077.2,624.9 L1078.3,624.5 L1079.4,624.1 L1080.6,623.7 L1081.7,623.3 L1082.8,622.9 L1083.9,622.4
		L1085.1,622.0 L1086.2,621.6 L1087.3,621.2 L1088.4,620.8 L1089.6,620.3 L1090.7,619.9 L1091.8,619.5 L1092.9,619.1
		L1094.1,618.6 L1095.2,618.2 L1096.3,617.8 L1097.4,617.3 L1098.6,616.9 L1099.7,616.5 L1100.8,616.0 L1101.9,615.6
		L1103.1,615.2 L1104.2,614.7 L1105.3,614.3 L1106.4,613.8 L1107.6,613.4 L1108.7,612.9 L1109.8,612.5 L1110.9,612.1
		L1112.1,611.6 L1113.2,611.2 L1114.3,610.7 L1115.4,610.3 L1116.6,609.8 L1117.7,609.4 L1118.8,608.9 L1120.0,608.5
		L1121.1,608.0 L1122.2,607.6 L1123.3,607.1 L1124.5,606.7 L1125.6,606.2 L1126.7,605.8 L1127.8,605.3 L1129.0,604.8
		L1130.1,604.4 L1131.2,603.9 L1132.3,603.5 L1133.5,603.0 L1134.6,602.6 L1135.7,602.1 L1136.8,601.7 L1138.0,601.2
		L1139.1,600.8 L1140.2,600.3 L1141.3,599.9 L1142.5,599.4 L1143.6,599.0 L1144.7,598.6 L1145.8,598.1 L1147.0,597.7
		L1148.1,597.2 L1149.2,596.8 L1150.3,596.3 L1151.5,595.9 L1152.6,595.5 L1153.7,595.0 L1154.8,594.6 L1156.0,594.2
		L1157.1,593.7 L1158.2,593.3 L1159.3,592.9 L1160.5,592.5 L1161.6,592.0 L1162.7,591.6 L1163.8,591.2 L1165.0,590.8
		L1166.1,590.4 L1167.2,590.0 L1168.3,589.6 L1169.5,589.2 L1170.6,588.8 L1171.7,588.4 L1172.8,588.0 L1174.0,587.6
		L1175.1,587.2 L1176.2,586.8 L1177.3,586.4 L1178.5,586.0 L1179.6,585.6 L1180.7,585.3 L1181.8,584.9 L1183.0,584.5
		L1184.1,584.2 L1185.2,583.8 L1186.3,583.4 L1187.5,583.1 L1188.6,582.7 L1189.7,582.4 L1190.9,582.1 L1192.0,581.7
		L1193.1,581.4 L1194.2,581.1 L1195.4,580.7 L1196.5,580.4 L1197.6,580.1 L1198.7,579.8 L1199.9,579.5 L1201.0,579.2
		L1202.1,578.9 L1203.2,578.6 L1204.4,578.3 L1205.5,578.0 L1206.6,577.8 L1207.7,577.5 L1208.9,577.2 L1210.0,577.0
		L1211.1,576.7 L1212.2,576.5 L1213.4,576.2 L1214.5,576.0 L1215.6,575.8 L1216.7,575.5 L1217.9,575.3 L1219.0,575.1
		L1220.1,574.9 L1221.2,574.7 L1222.4,574.5 L1223.5,574.3 L1224.6,574.1 L1225.7,573.9 L1226.9,573.8 L1228.0,573.6
		L1229.1,573.4 L1230.2,573.3 L1231.4,573.1 L1232.5,573.0 L1233.6,572.9 L1234.7,572.8 L1235.9,572.6 L1237.0,572.5
		L1238.1,572.4 L1239.2,572.3 L1240.4,572.2 L1241.5,572.1 L1242.6,572.1 L1243.7,572.0 L1244.9,571.9 L1246.0,571.9
		L1247.1,571.8 L1248.2,571.8 L1249.4,571.7 L1250.5,571.7 L1251.6,571.7 L1252.7,571.7 L1253.9,571.6 L1255.0,571.6
		 '/></g>
	</g>
<g fill="none" color="white" stroke="rgb(  0,   0, 255)" stroke-width="2.00" stroke-linecap="butt" stroke-linejoin="miter">
</g>
<g fill="none" color="black" stroke="currentColor" stroke-width="2.00" stroke-linecap="butt" stroke-linejoin="miter">
</g>
<g fill="none" color="black" stroke="black" stroke-width="1.00" stroke-linecap="butt" stroke-linejoin="miter">
</g>
<g fill="none" color="black" stroke="currentColor" stroke-width="1.00" stroke-linecap="butt" stroke-linejoin="miter">
	<path stroke='black'  d='M103.7,54.1 L103.7,684.0 L1255.0,684.0 L1255.0,54.1 L103.7,54.1 Z  '/></g>
<g fill="none" color="black" stroke="currentColor" stroke-width="1.00" stroke-linecap="butt" stroke-linejoin="miter">
</g>
</g>
</svg>

