<?xml version="1.0" encoding="utf-8"  standalone="no"?>
<svg 
 width="1280" height="720"
 viewBox="0 0 1280 720"
 xmlns="http://www.w3.org/2000/svg"
 xmlns:xlink="http://www.w3.org/1999/xlink"
>

<title>Gnuplot</title>
<desc>Produced by GNUPLOT 5.0 patchlevel 6 </desc>

<g id="gnuplot_canvas">

<rect x="0" y="0" width="1280" height="720" fill="none"/>
<defs>

	<circle id='gpDot' r='0.5' stroke-width='0.5'/>
	<path id='gpPt0' stroke-width='0.222' stroke='currentColor' d='M-1,0 h2 M0,-1 v2'/>
	<path id='gpPt1' stroke-width='0.222' stroke='currentColor' d='M-1,-1 L1,1 M1,-1 L-1,1'/>
	<path id='gpPt2' stroke-width='0.222' stroke='currentColor' d='M-1,0 L1,0 M0,-1 L0,1 M-1,-1 L1,1 M-1,1 L1,-1'/>
	<rect id='gpPt3' stroke-width='0.222' stroke='currentColor' x='-1' y='-1' width='2' height='2'/>
	<rect id='gpPt4' stroke-width='0.222' stroke='currentColor' fill='currentColor' x='-1' y='-1' width='2' height='2'/>
	<circle id='gpPt5' stroke-width='0.222' stroke='currentColor' cx='0' cy='0' r='1'/>
	<use xlink:href='#gpPt5' id='gpPt6' fill='currentColor' stroke='none'/>
	<path id='gpPt7' stroke-width='0.222' stroke='currentColor' d='M0,-1.33 L-1.33,0.67 L1.33,0.67 z'/>
	<use xlink:href='#gpPt7' id='gpPt8' fill='currentColor' stroke='none'/>
	<use xlink:href='#gpPt7' id='gpPt9' stroke='currentColor' transform='rotate(180)'/>
	<use xlink:href='#gpPt9' id='gpPt10' fill='currentColor' stroke='none'/>
	<use xlink:href='#gpPt3' id='gpPt11' stroke='currentColor' transform='rotate(45)'/>
	<use xlink:href='#gpPt11' id='gpPt12' fill='currentColor' stroke='none'/>
	<path id='gpPt13' stroke-width='0.222' stroke='currentColor' d='M0,1.330 L1.265,0.411 L0.782,-1.067 L-0.782,-1.076 L-1.265,0.411 z'/>
	<use xlink:href='#gpPt13' id='gpPt14' fill='currentColor' stroke='none'/>
	<filter id='textbox' filterUnits='objectBoundingBox' x='0' y='0' height='1' width='1'>
	  <feFlood flood-color='white' flood-opacity='1' result='bgnd'/>
	  <feComposite in='SourceGraphic' in2='bgnd' operator='atop'/>
	</filter>
	<filter id='greybox' filterUnits='objectBoundingBox' x='0' y='0' height='1' width='1'>
	  <feFlood flood-color='lightgrey' flood-opacity='1' result='grey'/>
	  <feComposite in='SourceGraphic' in2='grey' operator='atop'/>
	</filter>
</defs>
<g fill="none" color="white" stroke="currentColor" stroke-width="1.00" stroke-linecap="butt" stroke-linejoin="miter">
</g>
<g fill="none" color="black" stroke="currentColor" stroke-width="1.00" stroke-linecap="butt" stroke-linejoin="miter">
	<path stroke='black'  d='M87.1,684.0 L96.1,684.0 M1255.0,684.0 L1246.0,684.0  '/>	<g transform="translate(78.8,687.9)" stroke="none" fill="black" font-family="Arial" font-size="12.00"  text-anchor="end">
		<text><tspan font-family="Arial" > 0.07208</tspan></text>
	</g>
</g>
<g fill="none" color="black" stroke="currentColor" stroke-width="1.00" stroke-linecap="butt" stroke-linejoin="miter">
	<path stroke='black'  d='M87.1,372.0 L96.1,372.0 M1255.0,372.0 L1246.0,372.0  '/>	<g transform="translate(78.8,375.9)" stroke="none" fill="black" font-family="Arial" font-size="12.00"  text-anchor="end">
		<text><tspan font-family="Arial" > 72.6329</tspan></text>
	</g>
</g>
<g fill="none" color="black" stroke="currentColor" stroke-width="1.00" stroke-linecap="butt" stroke-linejoin="miter">
	<path stroke='black'  d='M87.1,60.0 L96.1,60.0 M1255.0,60.0 L1246.0,60.0  '/>	<g transform="translate(78.8,63.9)" stroke="none" fill="black" font-family="Arial" font-size="12.00"  text-anchor="end">
		<text><tspan font-family="Arial" > 73190</tspan></text>
	</g>
</g>
<g fill="none" color="black" stroke="currentColor" stroke-width="1.00" stroke-linecap="butt" stroke-linejoin="miter">
	<path stroke='black'  d='M87.1,684.0 L87.1,675.0 M87.1,54.1 L87.1,63.1  '/>	<g transform="translate(87.1,705.9)" stroke="none" fill="black" font-family="Arial" font-size="12.00"  text-anchor="middle">
		<text><tspan font-family="Arial" > 0</tspan></text>
	</g>
</g>
<g fill="none" color="black" stroke="currentColor" stroke-width="1.00" stroke-linecap="butt" stroke-linejoin="miter">
	<path stroke='black'  d='M671.1,684.0 L671.1,675.0 M671.1,54.1 L671.1,63.1  '/>	<g transform="translate(671.1,705.9)" stroke="none" fill="black" font-family="Arial" font-size="12.00"  text-anchor="middle">
		<text><tspan font-family="Arial" >pi/2</tspan></text>
	</g>
</g>
<g fill="none" color="black" stroke="currentColor" stroke-width="1.00" stroke-linecap="butt" stroke-linejoin="miter">
	<path stroke='black'  d='M1255.0,684.0 L1255.0,675.0 M1255.0,54.1 L1255.0,63.1  '/>	<g transform="translate(1255.0,705.9)" stroke="none" fill="black" font-family="Arial" font-size="12.00"  text-anchor="middle">
		<text><tspan font-family="Arial" >pi</tspan></text>
	</g>
</g>
<g fill="none" color="black" stroke="currentColor" stroke-width="1.00" stroke-linecap="butt" stroke-linejoin="miter">
</g>
<g fill="none" color="black" stroke="currentColor" stroke-width="1.00" stroke-linecap="butt" stroke-linejoin="miter">
	<path stroke='black'  d='M87.1,54.1 L87.1,684.0 L1255.0,684.0 L1255.0,54.1 L87.1,54.1 Z  '/></g>
<g fill="none" color="black" stroke="currentColor" stroke-width="1.00" stroke-linecap="butt" stroke-linejoin="miter">
	<g transform="translate(671.0,31.0)" stroke="none" fill="black" font-family="Arial" font-size="12.00"  text-anchor="middle">
		<text><tspan font-family="Arial" >Material 34, with 2 components</tspan></text>
	</g>
</g>
	<g id="gnuplot_plot_1" ><title>scattering function</title>
<g fill="none" color="black" stroke="currentColor" stroke-width="1.00" stroke-linecap="butt" stroke-linejoin="miter">
	<g transform="translate(1187.9,76.0)" stroke="none" fill="black" font-family="Arial" font-size="12.00"  text-anchor="end">
		<text><tspan font-family="Arial" >scattering function</tspan></text>
	</g>
</g>
<g fill="none" color="black" stroke="currentColor" stroke-width="1.00" stroke-linecap="butt" stroke-linejoin="miter">
	<use xlink:href='#gpPt5' transform='translate(87.1,85.2) scale(2.25)' color='rgb(255,   0,   0)'/>
	<use xlink:href='#gpPt5' transform='translate(87.7,86.0) scale(2.25)' color='rgb(255,   0,   0)'/>
	<use xlink:href='#gpPt5' transform='translate(88.4,88.5) scale(2.25)' color='rgb(255,   0,   0)'/>
	<use xlink:href='#gpPt5' transform='translate(89.0,92.7) scale(2.25)' color='rgb(255,   0,   0)'/>
	<use xlink:href='#gpPt5' transform='translate(89.7,98.4) scale(2.25)' color='rgb(255,   0,   0)'/>
	<use xlink:href='#gpPt5' transform='translate(90.3,105.9) scale(2.25)' color='rgb(255,   0,   0)'/>
	<use xlink:href='#gpPt5' transform='translate(91.0,115.0) scale(2.25)' color='rgb(255,   0,   0)'/>
	<use xlink:href='#gpPt5' transform='translate(91.6,125.7) scale(2.25)' color='rgb(255,   0,   0)'/>
	<use xlink:href='#gpPt5' transform='translate(92.3,138.0) scale(2.25)' color='rgb(255,   0,   0)'/>
	<use xlink:href='#gpPt5' transform='translate(92.9,151.9) scale(2.25)' color='rgb(255,   0,   0)'/>
	<use xlink:href='#gpPt5' transform='translate(93.6,167.0) scale(2.25)' color='rgb(255,   0,   0)'/>
	<use xlink:href='#gpPt5' transform='translate(94.2,183.0) scale(2.25)' color='rgb(255,   0,   0)'/>
	<use xlink:href='#gpPt5' transform='translate(94.9,199.6) scale(2.25)' color='rgb(255,   0,   0)'/>
	<use xlink:href='#gpPt5' transform='translate(95.5,215.9) scale(2.25)' color='rgb(255,   0,   0)'/>
	<use xlink:href='#gpPt5' transform='translate(96.2,231.0) scale(2.25)' color='rgb(255,   0,   0)'/>
	<use xlink:href='#gpPt5' transform='translate(96.8,244.2) scale(2.25)' color='rgb(255,   0,   0)'/>
	<use xlink:href='#gpPt5' transform='translate(97.5,254.9) scale(2.25)' color='rgb(255,   0,   0)'/>
	<use xlink:href='#gpPt5' transform='translate(98.1,263.5) scale(2.25)' color='rgb(255,   0,   0)'/>
	<use xlink:href='#gpPt5' transform='translate(98.8,270.4) scale(2.25)' color='rgb(255,   0,   0)'/>
	<use xlink:href='#gpPt5' transform='translate(99.4,276.4) scale(2.25)' color='rgb(255,   0,   0)'/>
	<use xlink:href='#gpPt5' transform='translate(100.1,281.9) scale(2.25)' color='rgb(255,   0,   0)'/>
	<use xlink:href='#gpPt5' transform='translate(106.6,328.8) scale(2.25)' color='rgb(255,   0,   0)'/>
	<use xlink:href='#gpPt5' transform='translate(113.1,358.2) scale(2.25)' color='rgb(255,   0,   0)'/>
	<use xlink:href='#gpPt5' transform='translate(119.5,376.7) scale(2.25)' color='rgb(255,   0,   0)'/>
	<use xlink:href='#gpPt5' transform='translate(126.0,387.1) scale(2.25)' color='rgb(255,   0,   0)'/>
	<use xlink:href='#gpPt5' transform='translate(139.0,400.5) scale(2.25)' color='rgb(255,   0,   0)'/>
	<use xlink:href='#gpPt5' transform='translate(152.0,408.5) scale(2.25)' color='rgb(255,   0,   0)'/>
	<use xlink:href='#gpPt5' transform='translate(165.0,414.5) scale(2.25)' color='rgb(255,   0,   0)'/>
	<use xlink:href='#gpPt5' transform='translate(177.9,420.1) scale(2.25)' color='rgb(255,   0,   0)'/>
	<use xlink:href='#gpPt5' transform='translate(190.9,424.6) scale(2.25)' color='rgb(255,   0,   0)'/>
	<use xlink:href='#gpPt5' transform='translate(203.9,429.2) scale(2.25)' color='rgb(255,   0,   0)'/>
	<use xlink:href='#gpPt5' transform='translate(216.9,435.3) scale(2.25)' color='rgb(255,   0,   0)'/>
	<use xlink:href='#gpPt5' transform='translate(229.8,440.1) scale(2.25)' color='rgb(255,   0,   0)'/>
	<use xlink:href='#gpPt5' transform='translate(242.8,445.7) scale(2.25)' color='rgb(255,   0,   0)'/>
	<use xlink:href='#gpPt5' transform='translate(255.8,451.1) scale(2.25)' color='rgb(255,   0,   0)'/>
	<use xlink:href='#gpPt5' transform='translate(268.8,457.2) scale(2.25)' color='rgb(255,   0,   0)'/>
	<use xlink:href='#gpPt5' transform='translate(281.8,461.5) scale(2.25)' color='rgb(255,   0,   0)'/>
	<use xlink:href='#gpPt5' transform='translate(294.7,467.9) scale(2.25)' color='rgb(255,   0,   0)'/>
	<use xlink:href='#gpPt5' transform='translate(307.7,476.1) scale(2.25)' color='rgb(255,   0,   0)'/>
	<use xlink:href='#gpPt5' transform='translate(320.7,477.2) scale(2.25)' color='rgb(255,   0,   0)'/>
	<use xlink:href='#gpPt5' transform='translate(333.7,491.0) scale(2.25)' color='rgb(255,   0,   0)'/>
	<use xlink:href='#gpPt5' transform='translate(346.6,487.5) scale(2.25)' color='rgb(255,   0,   0)'/>
	<use xlink:href='#gpPt5' transform='translate(359.6,503.9) scale(2.25)' color='rgb(255,   0,   0)'/>
	<use xlink:href='#gpPt5' transform='translate(372.6,501.3) scale(2.25)' color='rgb(255,   0,   0)'/>
	<use xlink:href='#gpPt5' transform='translate(385.6,513.5) scale(2.25)' color='rgb(255,   0,   0)'/>
	<use xlink:href='#gpPt5' transform='translate(398.5,521.3) scale(2.25)' color='rgb(255,   0,   0)'/>
	<use xlink:href='#gpPt5' transform='translate(411.5,520.7) scale(2.25)' color='rgb(255,   0,   0)'/>
	<use xlink:href='#gpPt5' transform='translate(424.5,530.7) scale(2.25)' color='rgb(255,   0,   0)'/>
	<use xlink:href='#gpPt5' transform='translate(437.5,543.6) scale(2.25)' color='rgb(255,   0,   0)'/>
	<use xlink:href='#gpPt5' transform='translate(450.4,548.6) scale(2.25)' color='rgb(255,   0,   0)'/>
	<use xlink:href='#gpPt5' transform='translate(463.4,552.9) scale(2.25)' color='rgb(255,   0,   0)'/>
	<use xlink:href='#gpPt5' transform='translate(476.4,559.0) scale(2.25)' color='rgb(255,   0,   0)'/>
	<use xlink:href='#gpPt5' transform='translate(489.4,565.5) scale(2.25)' color='rgb(255,   0,   0)'/>
	<use xlink:href='#gpPt5' transform='translate(502.4,572.7) scale(2.25)' color='rgb(255,   0,   0)'/>
	<use xlink:href='#gpPt5' transform='translate(515.3,582.6) scale(2.25)' color='rgb(255,   0,   0)'/>
	<use xlink:href='#gpPt5' transform='translate(528.3,589.1) scale(2.25)' color='rgb(255,   0,   0)'/>
	<use xlink:href='#gpPt5' transform='translate(541.3,597.2) scale(2.25)' color='rgb(255,   0,   0)'/>
	<use xlink:href='#gpPt5' transform='translate(554.3,607.0) scale(2.25)' color='rgb(255,   0,   0)'/>
	<use xlink:href='#gpPt5' transform='translate(567.2,614.8) scale(2.25)' color='rgb(255,   0,   0)'/>
	<use xlink:href='#gpPt5' transform='translate(580.2,622.1) scale(2.25)' color='rgb(255,   0,   0)'/>
	<use xlink:href='#gpPt5' transform='translate(593.2,629.0) scale(2.25)' color='rgb(255,   0,   0)'/>
	<use xlink:href='#gpPt5' transform='translate(606.2,637.0) scale(2.25)' color='rgb(255,   0,   0)'/>
	<use xlink:href='#gpPt5' transform='translate(619.1,649.5) scale(2.25)' color='rgb(255,   0,   0)'/>
	<use xlink:href='#gpPt5' transform='translate(632.1,649.0) scale(2.25)' color='rgb(255,   0,   0)'/>
	<use xlink:href='#gpPt5' transform='translate(645.1,661.5) scale(2.25)' color='rgb(255,   0,   0)'/>
	<use xlink:href='#gpPt5' transform='translate(658.1,661.0) scale(2.25)' color='rgb(255,   0,   0)'/>
	<use xlink:href='#gpPt5' transform='translate(671.1,667.9) scale(2.25)' color='rgb(255,   0,   0)'/>
	<use xlink:href='#gpPt5' transform='translate(684.0,668.9) scale(2.25)' color='rgb(255,   0,   0)'/>
	<use xlink:href='#gpPt5' transform='translate(697.0,678.7) scale(2.25)' color='rgb(255,   0,   0)'/>
	<use xlink:href='#gpPt5' transform='translate(710.0,670.1) scale(2.25)' color='rgb(255,   0,   0)'/>
	<use xlink:href='#gpPt5' transform='translate(723.0,676.4) scale(2.25)' color='rgb(255,   0,   0)'/>
	<use xlink:href='#gpPt5' transform='translate(735.9,679.3) scale(2.25)' color='rgb(255,   0,   0)'/>
	<use xlink:href='#gpPt5' transform='translate(748.9,673.5) scale(2.25)' color='rgb(255,   0,   0)'/>
	<use xlink:href='#gpPt5' transform='translate(761.9,679.0) scale(2.25)' color='rgb(255,   0,   0)'/>
	<use xlink:href='#gpPt5' transform='translate(774.9,678.2) scale(2.25)' color='rgb(255,   0,   0)'/>
	<use xlink:href='#gpPt5' transform='translate(787.8,678.8) scale(2.25)' color='rgb(255,   0,   0)'/>
	<use xlink:href='#gpPt5' transform='translate(800.8,678.6) scale(2.25)' color='rgb(255,   0,   0)'/>
	<use xlink:href='#gpPt5' transform='translate(813.8,665.7) scale(2.25)' color='rgb(255,   0,   0)'/>
	<use xlink:href='#gpPt5' transform='translate(826.8,673.5) scale(2.25)' color='rgb(255,   0,   0)'/>
	<use xlink:href='#gpPt5' transform='translate(839.7,668.2) scale(2.25)' color='rgb(255,   0,   0)'/>
	<use xlink:href='#gpPt5' transform='translate(852.7,658.6) scale(2.25)' color='rgb(255,   0,   0)'/>
	<use xlink:href='#gpPt5' transform='translate(865.7,645.2) scale(2.25)' color='rgb(255,   0,   0)'/>
	<use xlink:href='#gpPt5' transform='translate(878.7,637.4) scale(2.25)' color='rgb(255,   0,   0)'/>
	<use xlink:href='#gpPt5' transform='translate(891.7,628.1) scale(2.25)' color='rgb(255,   0,   0)'/>
	<use xlink:href='#gpPt5' transform='translate(904.6,632.3) scale(2.25)' color='rgb(255,   0,   0)'/>
	<use xlink:href='#gpPt5' transform='translate(917.6,644.7) scale(2.25)' color='rgb(255,   0,   0)'/>
	<use xlink:href='#gpPt5' transform='translate(930.6,646.8) scale(2.25)' color='rgb(255,   0,   0)'/>
	<use xlink:href='#gpPt5' transform='translate(943.6,639.5) scale(2.25)' color='rgb(255,   0,   0)'/>
	<use xlink:href='#gpPt5' transform='translate(956.5,631.7) scale(2.25)' color='rgb(255,   0,   0)'/>
	<use xlink:href='#gpPt5' transform='translate(969.5,597.2) scale(2.25)' color='rgb(255,   0,   0)'/>
	<use xlink:href='#gpPt5' transform='translate(982.5,570.8) scale(2.25)' color='rgb(255,   0,   0)'/>
	<use xlink:href='#gpPt5' transform='translate(995.5,551.4) scale(2.25)' color='rgb(255,   0,   0)'/>
	<use xlink:href='#gpPt5' transform='translate(1008.4,548.0) scale(2.25)' color='rgb(255,   0,   0)'/>
	<use xlink:href='#gpPt5' transform='translate(1021.4,570.1) scale(2.25)' color='rgb(255,   0,   0)'/>
	<use xlink:href='#gpPt5' transform='translate(1034.4,585.2) scale(2.25)' color='rgb(255,   0,   0)'/>
	<use xlink:href='#gpPt5' transform='translate(1047.4,577.8) scale(2.25)' color='rgb(255,   0,   0)'/>
	<use xlink:href='#gpPt5' transform='translate(1060.3,583.4) scale(2.25)' color='rgb(255,   0,   0)'/>
	<use xlink:href='#gpPt5' transform='translate(1073.3,590.5) scale(2.25)' color='rgb(255,   0,   0)'/>
	<use xlink:href='#gpPt5' transform='translate(1086.3,584.7) scale(2.25)' color='rgb(255,   0,   0)'/>
	<use xlink:href='#gpPt5' transform='translate(1099.3,594.4) scale(2.25)' color='rgb(255,   0,   0)'/>
	<use xlink:href='#gpPt5' transform='translate(1112.3,593.7) scale(2.25)' color='rgb(255,   0,   0)'/>
	<use xlink:href='#gpPt5' transform='translate(1125.2,597.3) scale(2.25)' color='rgb(255,   0,   0)'/>
	<use xlink:href='#gpPt5' transform='translate(1138.2,596.8) scale(2.25)' color='rgb(255,   0,   0)'/>
	<use xlink:href='#gpPt5' transform='translate(1151.2,597.3) scale(2.25)' color='rgb(255,   0,   0)'/>
	<use xlink:href='#gpPt5' transform='translate(1164.2,603.2) scale(2.25)' color='rgb(255,   0,   0)'/>
	<use xlink:href='#gpPt5' transform='translate(1177.1,596.7) scale(2.25)' color='rgb(255,   0,   0)'/>
	<use xlink:href='#gpPt5' transform='translate(1190.1,600.4) scale(2.25)' color='rgb(255,   0,   0)'/>
	<use xlink:href='#gpPt5' transform='translate(1203.1,595.9) scale(2.25)' color='rgb(255,   0,   0)'/>
	<use xlink:href='#gpPt5' transform='translate(1216.1,595.9) scale(2.25)' color='rgb(255,   0,   0)'/>
	<use xlink:href='#gpPt5' transform='translate(1229.0,581.1) scale(2.25)' color='rgb(255,   0,   0)'/>
	<use xlink:href='#gpPt5' transform='translate(1242.0,561.9) scale(2.25)' color='rgb(255,   0,   0)'/>
	<use xlink:href='#gpPt5' transform='translate(1255.0,506.8) scale(2.25)' color='rgb(255,   0,   0)'/>
	<use xlink:href='#gpPt5' transform='translate(1217.3,72.1) scale(2.25)' color='rgb(255,   0,   0)'/>
</g>
	</g>
	<g id="gnuplot_plot_2" ><title>gnuplot_plot_2</title>
<g fill="none" color="black" stroke="currentColor" stroke-width="1.00" stroke-linecap="butt" stroke-linejoin="miter">
	<use xlink:href='#gpPt5' transform='translate(87.1,77.5) scale(2.25)' color='rgb(  0, 100,   0)'/>
	<use xlink:href='#gpPt5' transform='translate(87.7,78.5) scale(2.25)' color='rgb(  0, 100,   0)'/>
	<use xlink:href='#gpPt5' transform='translate(88.4,81.5) scale(2.25)' color='rgb(  0, 100,   0)'/>
	<use xlink:href='#gpPt5' transform='translate(89.0,86.4) scale(2.25)' color='rgb(  0, 100,   0)'/>
	<use xlink:href='#gpPt5' transform='translate(89.7,93.3) scale(2.25)' color='rgb(  0, 100,   0)'/>
	<use xlink:href='#gpPt5' transform='translate(90.3,102.1) scale(2.25)' color='rgb(  0, 100,   0)'/>
	<use xlink:href='#gpPt5' transform='translate(91.0,112.9) scale(2.25)' color='rgb(  0, 100,   0)'/>
	<use xlink:href='#gpPt5' transform='translate(91.6,125.6) scale(2.25)' color='rgb(  0, 100,   0)'/>
	<use xlink:href='#gpPt5' transform='translate(92.3,140.1) scale(2.25)' color='rgb(  0, 100,   0)'/>
	<use xlink:href='#gpPt5' transform='translate(92.9,156.3) scale(2.25)' color='rgb(  0, 100,   0)'/>
	<use xlink:href='#gpPt5' transform='translate(93.6,173.7) scale(2.25)' color='rgb(  0, 100,   0)'/>
	<use xlink:href='#gpPt5' transform='translate(94.2,191.7) scale(2.25)' color='rgb(  0, 100,   0)'/>
	<use xlink:href='#gpPt5' transform='translate(94.9,209.5) scale(2.25)' color='rgb(  0, 100,   0)'/>
	<use xlink:href='#gpPt5' transform='translate(95.5,225.8) scale(2.25)' color='rgb(  0, 100,   0)'/>
	<use xlink:href='#gpPt5' transform='translate(96.2,239.7) scale(2.25)' color='rgb(  0, 100,   0)'/>
	<use xlink:href='#gpPt5' transform='translate(96.8,250.8) scale(2.25)' color='rgb(  0, 100,   0)'/>
	<use xlink:href='#gpPt5' transform='translate(97.5,259.4) scale(2.25)' color='rgb(  0, 100,   0)'/>
	<use xlink:href='#gpPt5' transform='translate(98.1,266.4) scale(2.25)' color='rgb(  0, 100,   0)'/>
	<use xlink:href='#gpPt5' transform='translate(98.8,272.5) scale(2.25)' color='rgb(  0, 100,   0)'/>
	<use xlink:href='#gpPt5' transform='translate(99.4,278.3) scale(2.25)' color='rgb(  0, 100,   0)'/>
	<use xlink:href='#gpPt5' transform='translate(100.1,284.0) scale(2.25)' color='rgb(  0, 100,   0)'/>
	<use xlink:href='#gpPt5' transform='translate(106.6,332.0) scale(2.25)' color='rgb(  0, 100,   0)'/>
	<use xlink:href='#gpPt5' transform='translate(113.1,360.7) scale(2.25)' color='rgb(  0, 100,   0)'/>
	<use xlink:href='#gpPt5' transform='translate(119.5,378.4) scale(2.25)' color='rgb(  0, 100,   0)'/>
	<use xlink:href='#gpPt5' transform='translate(126.0,388.9) scale(2.25)' color='rgb(  0, 100,   0)'/>
	<use xlink:href='#gpPt5' transform='translate(139.0,402.1) scale(2.25)' color='rgb(  0, 100,   0)'/>
	<use xlink:href='#gpPt5' transform='translate(152.0,408.9) scale(2.25)' color='rgb(  0, 100,   0)'/>
	<use xlink:href='#gpPt5' transform='translate(165.0,414.3) scale(2.25)' color='rgb(  0, 100,   0)'/>
	<use xlink:href='#gpPt5' transform='translate(177.9,419.8) scale(2.25)' color='rgb(  0, 100,   0)'/>
	<use xlink:href='#gpPt5' transform='translate(190.9,424.7) scale(2.25)' color='rgb(  0, 100,   0)'/>
	<use xlink:href='#gpPt5' transform='translate(203.9,429.3) scale(2.25)' color='rgb(  0, 100,   0)'/>
	<use xlink:href='#gpPt5' transform='translate(216.9,435.2) scale(2.25)' color='rgb(  0, 100,   0)'/>
	<use xlink:href='#gpPt5' transform='translate(229.8,439.7) scale(2.25)' color='rgb(  0, 100,   0)'/>
	<use xlink:href='#gpPt5' transform='translate(242.8,445.1) scale(2.25)' color='rgb(  0, 100,   0)'/>
	<use xlink:href='#gpPt5' transform='translate(255.8,449.6) scale(2.25)' color='rgb(  0, 100,   0)'/>
	<use xlink:href='#gpPt5' transform='translate(268.8,457.3) scale(2.25)' color='rgb(  0, 100,   0)'/>
	<use xlink:href='#gpPt5' transform='translate(281.8,465.1) scale(2.25)' color='rgb(  0, 100,   0)'/>
	<use xlink:href='#gpPt5' transform='translate(294.7,468.4) scale(2.25)' color='rgb(  0, 100,   0)'/>
	<use xlink:href='#gpPt5' transform='translate(307.7,471.1) scale(2.25)' color='rgb(  0, 100,   0)'/>
	<use xlink:href='#gpPt5' transform='translate(320.7,484.7) scale(2.25)' color='rgb(  0, 100,   0)'/>
	<use xlink:href='#gpPt5' transform='translate(333.7,481.4) scale(2.25)' color='rgb(  0, 100,   0)'/>
	<use xlink:href='#gpPt5' transform='translate(346.6,497.7) scale(2.25)' color='rgb(  0, 100,   0)'/>
	<use xlink:href='#gpPt5' transform='translate(359.6,497.3) scale(2.25)' color='rgb(  0, 100,   0)'/>
	<use xlink:href='#gpPt5' transform='translate(372.6,510.2) scale(2.25)' color='rgb(  0, 100,   0)'/>
	<use xlink:href='#gpPt5' transform='translate(385.6,510.9) scale(2.25)' color='rgb(  0, 100,   0)'/>
	<use xlink:href='#gpPt5' transform='translate(398.5,516.3) scale(2.25)' color='rgb(  0, 100,   0)'/>
	<use xlink:href='#gpPt5' transform='translate(411.5,529.4) scale(2.25)' color='rgb(  0, 100,   0)'/>
	<use xlink:href='#gpPt5' transform='translate(424.5,529.4) scale(2.25)' color='rgb(  0, 100,   0)'/>
	<use xlink:href='#gpPt5' transform='translate(437.5,535.2) scale(2.25)' color='rgb(  0, 100,   0)'/>
	<use xlink:href='#gpPt5' transform='translate(450.4,542.6) scale(2.25)' color='rgb(  0, 100,   0)'/>
	<use xlink:href='#gpPt5' transform='translate(463.4,552.9) scale(2.25)' color='rgb(  0, 100,   0)'/>
	<use xlink:href='#gpPt5' transform='translate(476.4,562.6) scale(2.25)' color='rgb(  0, 100,   0)'/>
	<use xlink:href='#gpPt5' transform='translate(489.4,570.0) scale(2.25)' color='rgb(  0, 100,   0)'/>
	<use xlink:href='#gpPt5' transform='translate(502.4,576.5) scale(2.25)' color='rgb(  0, 100,   0)'/>
	<use xlink:href='#gpPt5' transform='translate(515.3,584.4) scale(2.25)' color='rgb(  0, 100,   0)'/>
	<use xlink:href='#gpPt5' transform='translate(528.3,591.7) scale(2.25)' color='rgb(  0, 100,   0)'/>
	<use xlink:href='#gpPt5' transform='translate(541.3,598.9) scale(2.25)' color='rgb(  0, 100,   0)'/>
	<use xlink:href='#gpPt5' transform='translate(554.3,611.0) scale(2.25)' color='rgb(  0, 100,   0)'/>
	<use xlink:href='#gpPt5' transform='translate(567.2,622.5) scale(2.25)' color='rgb(  0, 100,   0)'/>
	<use xlink:href='#gpPt5' transform='translate(580.2,630.5) scale(2.25)' color='rgb(  0, 100,   0)'/>
	<use xlink:href='#gpPt5' transform='translate(593.2,632.0) scale(2.25)' color='rgb(  0, 100,   0)'/>
	<use xlink:href='#gpPt5' transform='translate(606.2,640.1) scale(2.25)' color='rgb(  0, 100,   0)'/>
	<use xlink:href='#gpPt5' transform='translate(619.1,650.5) scale(2.25)' color='rgb(  0, 100,   0)'/>
	<use xlink:href='#gpPt5' transform='translate(632.1,652.8) scale(2.25)' color='rgb(  0, 100,   0)'/>
	<use xlink:href='#gpPt5' transform='translate(645.1,662.7) scale(2.25)' color='rgb(  0, 100,   0)'/>
	<use xlink:href='#gpPt5' transform='translate(658.1,667.5) scale(2.25)' color='rgb(  0, 100,   0)'/>
	<use xlink:href='#gpPt5' transform='translate(671.1,670.7) scale(2.25)' color='rgb(  0, 100,   0)'/>
	<use xlink:href='#gpPt5' transform='translate(684.0,672.8) scale(2.25)' color='rgb(  0, 100,   0)'/>
	<use xlink:href='#gpPt5' transform='translate(697.0,680.1) scale(2.25)' color='rgb(  0, 100,   0)'/>
	<use xlink:href='#gpPt5' transform='translate(710.0,677.5) scale(2.25)' color='rgb(  0, 100,   0)'/>
	<use xlink:href='#gpPt5' transform='translate(723.0,684.0) scale(2.25)' color='rgb(  0, 100,   0)'/>
	<use xlink:href='#gpPt5' transform='translate(735.9,681.2) scale(2.25)' color='rgb(  0, 100,   0)'/>
	<use xlink:href='#gpPt5' transform='translate(748.9,676.3) scale(2.25)' color='rgb(  0, 100,   0)'/>
	<use xlink:href='#gpPt5' transform='translate(761.9,683.6) scale(2.25)' color='rgb(  0, 100,   0)'/>
	<use xlink:href='#gpPt5' transform='translate(774.9,678.6) scale(2.25)' color='rgb(  0, 100,   0)'/>
	<use xlink:href='#gpPt5' transform='translate(787.8,675.9) scale(2.25)' color='rgb(  0, 100,   0)'/>
	<use xlink:href='#gpPt5' transform='translate(800.8,670.5) scale(2.25)' color='rgb(  0, 100,   0)'/>
	<use xlink:href='#gpPt5' transform='translate(813.8,670.9) scale(2.25)' color='rgb(  0, 100,   0)'/>
	<use xlink:href='#gpPt5' transform='translate(826.8,673.4) scale(2.25)' color='rgb(  0, 100,   0)'/>
	<use xlink:href='#gpPt5' transform='translate(839.7,668.2) scale(2.25)' color='rgb(  0, 100,   0)'/>
	<use xlink:href='#gpPt5' transform='translate(852.7,657.8) scale(2.25)' color='rgb(  0, 100,   0)'/>
	<use xlink:href='#gpPt5' transform='translate(865.7,651.1) scale(2.25)' color='rgb(  0, 100,   0)'/>
	<use xlink:href='#gpPt5' transform='translate(878.7,636.9) scale(2.25)' color='rgb(  0, 100,   0)'/>
	<use xlink:href='#gpPt5' transform='translate(891.7,629.4) scale(2.25)' color='rgb(  0, 100,   0)'/>
	<use xlink:href='#gpPt5' transform='translate(904.6,638.4) scale(2.25)' color='rgb(  0, 100,   0)'/>
	<use xlink:href='#gpPt5' transform='translate(917.6,631.9) scale(2.25)' color='rgb(  0, 100,   0)'/>
	<use xlink:href='#gpPt5' transform='translate(930.6,641.8) scale(2.25)' color='rgb(  0, 100,   0)'/>
	<use xlink:href='#gpPt5' transform='translate(943.6,653.0) scale(2.25)' color='rgb(  0, 100,   0)'/>
	<use xlink:href='#gpPt5' transform='translate(956.5,628.4) scale(2.25)' color='rgb(  0, 100,   0)'/>
	<use xlink:href='#gpPt5' transform='translate(969.5,602.1) scale(2.25)' color='rgb(  0, 100,   0)'/>
	<use xlink:href='#gpPt5' transform='translate(982.5,572.1) scale(2.25)' color='rgb(  0, 100,   0)'/>
	<use xlink:href='#gpPt5' transform='translate(995.5,547.6) scale(2.25)' color='rgb(  0, 100,   0)'/>
	<use xlink:href='#gpPt5' transform='translate(1008.4,545.8) scale(2.25)' color='rgb(  0, 100,   0)'/>
	<use xlink:href='#gpPt5' transform='translate(1021.4,568.0) scale(2.25)' color='rgb(  0, 100,   0)'/>
	<use xlink:href='#gpPt5' transform='translate(1034.4,582.5) scale(2.25)' color='rgb(  0, 100,   0)'/>
	<use xlink:href='#gpPt5' transform='translate(1047.4,579.9) scale(2.25)' color='rgb(  0, 100,   0)'/>
	<use xlink:href='#gpPt5' transform='translate(1060.3,582.4) scale(2.25)' color='rgb(  0, 100,   0)'/>
	<use xlink:href='#gpPt5' transform='translate(1073.3,585.9) scale(2.25)' color='rgb(  0, 100,   0)'/>
	<use xlink:href='#gpPt5' transform='translate(1086.3,590.3) scale(2.25)' color='rgb(  0, 100,   0)'/>
	<use xlink:href='#gpPt5' transform='translate(1099.3,591.0) scale(2.25)' color='rgb(  0, 100,   0)'/>
	<use xlink:href='#gpPt5' transform='translate(1112.3,596.2) scale(2.25)' color='rgb(  0, 100,   0)'/>
	<use xlink:href='#gpPt5' transform='translate(1125.2,597.8) scale(2.25)' color='rgb(  0, 100,   0)'/>
	<use xlink:href='#gpPt5' transform='translate(1138.2,599.7) scale(2.25)' color='rgb(  0, 100,   0)'/>
	<use xlink:href='#gpPt5' transform='translate(1151.2,602.2) scale(2.25)' color='rgb(  0, 100,   0)'/>
	<use xlink:href='#gpPt5' transform='translate(1164.2,602.1) scale(2.25)' color='rgb(  0, 100,   0)'/>
	<use xlink:href='#gpPt5' transform='translate(1177.1,602.7) scale(2.25)' color='rgb(  0, 100,   0)'/>
	<use xlink:href='#gpPt5' transform='translate(1190.1,606.7) scale(2.25)' color='rgb(  0, 100,   0)'/>
	<use xlink:href='#gpPt5' transform='translate(1203.1,600.5) scale(2.25)' color='rgb(  0, 100,   0)'/>
	<use xlink:href='#gpPt5' transform='translate(1216.1,592.6) scale(2.25)' color='rgb(  0, 100,   0)'/>
	<use xlink:href='#gpPt5' transform='translate(1229.0,584.5) scale(2.25)' color='rgb(  0, 100,   0)'/>
	<use xlink:href='#gpPt5' transform='translate(1242.0,565.5) scale(2.25)' color='rgb(  0, 100,   0)'/>
	<use xlink:href='#gpPt5' transform='translate(1255.0,525.3) scale(2.25)' color='rgb(  0, 100,   0)'/>
</g>
	</g>
	<g id="gnuplot_plot_3" ><title>gnuplot_plot_3</title>
<g fill="none" color="black" stroke="currentColor" stroke-width="1.00" stroke-linecap="butt" stroke-linejoin="miter">
	<use xlink:href='#gpPt5' transform='translate(87.1,60.0) scale(2.25)' color='rgb(  0,   0, 255)'/>
	<use xlink:href='#gpPt5' transform='translate(87.7,61.4) scale(2.25)' color='rgb(  0,   0, 255)'/>
	<use xlink:href='#gpPt5' transform='translate(88.4,65.8) scale(2.25)' color='rgb(  0,   0, 255)'/>
	<use xlink:href='#gpPt5' transform='translate(89.0,73.1) scale(2.25)' color='rgb(  0,   0, 255)'/>
	<use xlink:href='#gpPt5' transform='translate(89.7,83.3) scale(2.25)' color='rgb(  0,   0, 255)'/>
	<use xlink:href='#gpPt5' transform='translate(90.3,96.5) scale(2.25)' color='rgb(  0,   0, 255)'/>
	<use xlink:href='#gpPt5' transform='translate(91.0,112.4) scale(2.25)' color='rgb(  0,   0, 255)'/>
	<use xlink:href='#gpPt5' transform='translate(91.6,131.0) scale(2.25)' color='rgb(  0,   0, 255)'/>
	<use xlink:href='#gpPt5' transform='translate(92.3,151.8) scale(2.25)' color='rgb(  0,   0, 255)'/>
	<use xlink:href='#gpPt5' transform='translate(92.9,173.7) scale(2.25)' color='rgb(  0,   0, 255)'/>
	<use xlink:href='#gpPt5' transform='translate(93.6,195.3) scale(2.25)' color='rgb(  0,   0, 255)'/>
	<use xlink:href='#gpPt5' transform='translate(94.2,214.5) scale(2.25)' color='rgb(  0,   0, 255)'/>
	<use xlink:href='#gpPt5' transform='translate(94.9,229.8) scale(2.25)' color='rgb(  0,   0, 255)'/>
	<use xlink:href='#gpPt5' transform='translate(95.5,241.2) scale(2.25)' color='rgb(  0,   0, 255)'/>
	<use xlink:href='#gpPt5' transform='translate(96.2,249.9) scale(2.25)' color='rgb(  0,   0, 255)'/>
	<use xlink:href='#gpPt5' transform='translate(96.8,257.4) scale(2.25)' color='rgb(  0,   0, 255)'/>
	<use xlink:href='#gpPt5' transform='translate(97.5,264.6) scale(2.25)' color='rgb(  0,   0, 255)'/>
	<use xlink:href='#gpPt5' transform='translate(98.1,271.7) scale(2.25)' color='rgb(  0,   0, 255)'/>
	<use xlink:href='#gpPt5' transform='translate(98.8,278.7) scale(2.25)' color='rgb(  0,   0, 255)'/>
	<use xlink:href='#gpPt5' transform='translate(99.4,285.5) scale(2.25)' color='rgb(  0,   0, 255)'/>
	<use xlink:href='#gpPt5' transform='translate(100.1,292.0) scale(2.25)' color='rgb(  0,   0, 255)'/>
	<use xlink:href='#gpPt5' transform='translate(106.6,339.6) scale(2.25)' color='rgb(  0,   0, 255)'/>
	<use xlink:href='#gpPt5' transform='translate(113.1,366.2) scale(2.25)' color='rgb(  0,   0, 255)'/>
	<use xlink:href='#gpPt5' transform='translate(119.5,382.8) scale(2.25)' color='rgb(  0,   0, 255)'/>
	<use xlink:href='#gpPt5' transform='translate(126.0,392.1) scale(2.25)' color='rgb(  0,   0, 255)'/>
	<use xlink:href='#gpPt5' transform='translate(139.0,404.0) scale(2.25)' color='rgb(  0,   0, 255)'/>
	<use xlink:href='#gpPt5' transform='translate(152.0,411.0) scale(2.25)' color='rgb(  0,   0, 255)'/>
	<use xlink:href='#gpPt5' transform='translate(165.0,417.0) scale(2.25)' color='rgb(  0,   0, 255)'/>
	<use xlink:href='#gpPt5' transform='translate(177.9,422.3) scale(2.25)' color='rgb(  0,   0, 255)'/>
	<use xlink:href='#gpPt5' transform='translate(190.9,426.6) scale(2.25)' color='rgb(  0,   0, 255)'/>
	<use xlink:href='#gpPt5' transform='translate(203.9,431.6) scale(2.25)' color='rgb(  0,   0, 255)'/>
	<use xlink:href='#gpPt5' transform='translate(216.9,437.5) scale(2.25)' color='rgb(  0,   0, 255)'/>
	<use xlink:href='#gpPt5' transform='translate(229.8,444.0) scale(2.25)' color='rgb(  0,   0, 255)'/>
	<use xlink:href='#gpPt5' transform='translate(242.8,450.9) scale(2.25)' color='rgb(  0,   0, 255)'/>
	<use xlink:href='#gpPt5' transform='translate(255.8,453.6) scale(2.25)' color='rgb(  0,   0, 255)'/>
	<use xlink:href='#gpPt5' transform='translate(268.8,455.0) scale(2.25)' color='rgb(  0,   0, 255)'/>
	<use xlink:href='#gpPt5' transform='translate(281.8,458.9) scale(2.25)' color='rgb(  0,   0, 255)'/>
	<use xlink:href='#gpPt5' transform='translate(294.7,473.0) scale(2.25)' color='rgb(  0,   0, 255)'/>
	<use xlink:href='#gpPt5' transform='translate(307.7,475.2) scale(2.25)' color='rgb(  0,   0, 255)'/>
	<use xlink:href='#gpPt5' transform='translate(320.7,478.1) scale(2.25)' color='rgb(  0,   0, 255)'/>
	<use xlink:href='#gpPt5' transform='translate(333.7,487.9) scale(2.25)' color='rgb(  0,   0, 255)'/>
	<use xlink:href='#gpPt5' transform='translate(346.6,491.2) scale(2.25)' color='rgb(  0,   0, 255)'/>
	<use xlink:href='#gpPt5' transform='translate(359.6,502.6) scale(2.25)' color='rgb(  0,   0, 255)'/>
	<use xlink:href='#gpPt5' transform='translate(372.6,506.3) scale(2.25)' color='rgb(  0,   0, 255)'/>
	<use xlink:href='#gpPt5' transform='translate(385.6,508.5) scale(2.25)' color='rgb(  0,   0, 255)'/>
	<use xlink:href='#gpPt5' transform='translate(398.5,518.9) scale(2.25)' color='rgb(  0,   0, 255)'/>
	<use xlink:href='#gpPt5' transform='translate(411.5,523.1) scale(2.25)' color='rgb(  0,   0, 255)'/>
	<use xlink:href='#gpPt5' transform='translate(424.5,528.6) scale(2.25)' color='rgb(  0,   0, 255)'/>
	<use xlink:href='#gpPt5' transform='translate(437.5,536.5) scale(2.25)' color='rgb(  0,   0, 255)'/>
	<use xlink:href='#gpPt5' transform='translate(450.4,548.6) scale(2.25)' color='rgb(  0,   0, 255)'/>
	<use xlink:href='#gpPt5' transform='translate(463.4,552.9) scale(2.25)' color='rgb(  0,   0, 255)'/>
	<use xlink:href='#gpPt5' transform='translate(476.4,560.9) scale(2.25)' color='rgb(  0,   0, 255)'/>
	<use xlink:href='#gpPt5' transform='translate(489.4,569.6) scale(2.25)' color='rgb(  0,   0, 255)'/>
	<use xlink:href='#gpPt5' transform='translate(502.4,580.4) scale(2.25)' color='rgb(  0,   0, 255)'/>
	<use xlink:href='#gpPt5' transform='translate(515.3,589.0) scale(2.25)' color='rgb(  0,   0, 255)'/>
	<use xlink:href='#gpPt5' transform='translate(528.3,597.1) scale(2.25)' color='rgb(  0,   0, 255)'/>
	<use xlink:href='#gpPt5' transform='translate(541.3,606.5) scale(2.25)' color='rgb(  0,   0, 255)'/>
	<use xlink:href='#gpPt5' transform='translate(554.3,610.4) scale(2.25)' color='rgb(  0,   0, 255)'/>
	<use xlink:href='#gpPt5' transform='translate(567.2,618.6) scale(2.25)' color='rgb(  0,   0, 255)'/>
	<use xlink:href='#gpPt5' transform='translate(580.2,629.6) scale(2.25)' color='rgb(  0,   0, 255)'/>
	<use xlink:href='#gpPt5' transform='translate(593.2,640.6) scale(2.25)' color='rgb(  0,   0, 255)'/>
	<use xlink:href='#gpPt5' transform='translate(606.2,643.8) scale(2.25)' color='rgb(  0,   0, 255)'/>
	<use xlink:href='#gpPt5' transform='translate(619.1,649.9) scale(2.25)' color='rgb(  0,   0, 255)'/>
	<use xlink:href='#gpPt5' transform='translate(632.1,661.5) scale(2.25)' color='rgb(  0,   0, 255)'/>
	<use xlink:href='#gpPt5' transform='translate(645.1,663.6) scale(2.25)' color='rgb(  0,   0, 255)'/>
	<use xlink:href='#gpPt5' transform='translate(658.1,671.0) scale(2.25)' color='rgb(  0,   0, 255)'/>
	<use xlink:href='#gpPt5' transform='translate(671.1,668.2) scale(2.25)' color='rgb(  0,   0, 255)'/>
	<use xlink:href='#gpPt5' transform='translate(684.0,677.3) scale(2.25)' color='rgb(  0,   0, 255)'/>
	<use xlink:href='#gpPt5' transform='translate(697.0,679.9) scale(2.25)' color='rgb(  0,   0, 255)'/>
	<use xlink:href='#gpPt5' transform='translate(710.0,679.2) scale(2.25)' color='rgb(  0,   0, 255)'/>
	<use xlink:href='#gpPt5' transform='translate(723.0,682.5) scale(2.25)' color='rgb(  0,   0, 255)'/>
	<use xlink:href='#gpPt5' transform='translate(735.9,683.6) scale(2.25)' color='rgb(  0,   0, 255)'/>
	<use xlink:href='#gpPt5' transform='translate(748.9,682.1) scale(2.25)' color='rgb(  0,   0, 255)'/>
	<use xlink:href='#gpPt5' transform='translate(761.9,680.8) scale(2.25)' color='rgb(  0,   0, 255)'/>
	<use xlink:href='#gpPt5' transform='translate(774.9,680.0) scale(2.25)' color='rgb(  0,   0, 255)'/>
	<use xlink:href='#gpPt5' transform='translate(787.8,673.4) scale(2.25)' color='rgb(  0,   0, 255)'/>
	<use xlink:href='#gpPt5' transform='translate(800.8,677.5) scale(2.25)' color='rgb(  0,   0, 255)'/>
	<use xlink:href='#gpPt5' transform='translate(813.8,673.0) scale(2.25)' color='rgb(  0,   0, 255)'/>
	<use xlink:href='#gpPt5' transform='translate(826.8,669.0) scale(2.25)' color='rgb(  0,   0, 255)'/>
	<use xlink:href='#gpPt5' transform='translate(839.7,672.5) scale(2.25)' color='rgb(  0,   0, 255)'/>
	<use xlink:href='#gpPt5' transform='translate(852.7,662.7) scale(2.25)' color='rgb(  0,   0, 255)'/>
	<use xlink:href='#gpPt5' transform='translate(865.7,647.7) scale(2.25)' color='rgb(  0,   0, 255)'/>
	<use xlink:href='#gpPt5' transform='translate(878.7,638.2) scale(2.25)' color='rgb(  0,   0, 255)'/>
	<use xlink:href='#gpPt5' transform='translate(891.7,629.7) scale(2.25)' color='rgb(  0,   0, 255)'/>
	<use xlink:href='#gpPt5' transform='translate(904.6,637.7) scale(2.25)' color='rgb(  0,   0, 255)'/>
	<use xlink:href='#gpPt5' transform='translate(917.6,640.1) scale(2.25)' color='rgb(  0,   0, 255)'/>
	<use xlink:href='#gpPt5' transform='translate(930.6,652.2) scale(2.25)' color='rgb(  0,   0, 255)'/>
	<use xlink:href='#gpPt5' transform='translate(943.6,658.1) scale(2.25)' color='rgb(  0,   0, 255)'/>
	<use xlink:href='#gpPt5' transform='translate(956.5,650.8) scale(2.25)' color='rgb(  0,   0, 255)'/>
	<use xlink:href='#gpPt5' transform='translate(969.5,613.2) scale(2.25)' color='rgb(  0,   0, 255)'/>
	<use xlink:href='#gpPt5' transform='translate(982.5,573.0) scale(2.25)' color='rgb(  0,   0, 255)'/>
	<use xlink:href='#gpPt5' transform='translate(995.5,546.2) scale(2.25)' color='rgb(  0,   0, 255)'/>
	<use xlink:href='#gpPt5' transform='translate(1008.4,543.0) scale(2.25)' color='rgb(  0,   0, 255)'/>
	<use xlink:href='#gpPt5' transform='translate(1021.4,569.6) scale(2.25)' color='rgb(  0,   0, 255)'/>
	<use xlink:href='#gpPt5' transform='translate(1034.4,581.2) scale(2.25)' color='rgb(  0,   0, 255)'/>
	<use xlink:href='#gpPt5' transform='translate(1047.4,576.5) scale(2.25)' color='rgb(  0,   0, 255)'/>
	<use xlink:href='#gpPt5' transform='translate(1060.3,583.9) scale(2.25)' color='rgb(  0,   0, 255)'/>
	<use xlink:href='#gpPt5' transform='translate(1073.3,588.6) scale(2.25)' color='rgb(  0,   0, 255)'/>
	<use xlink:href='#gpPt5' transform='translate(1086.3,593.2) scale(2.25)' color='rgb(  0,   0, 255)'/>
	<use xlink:href='#gpPt5' transform='translate(1099.3,591.3) scale(2.25)' color='rgb(  0,   0, 255)'/>
	<use xlink:href='#gpPt5' transform='translate(1112.3,596.0) scale(2.25)' color='rgb(  0,   0, 255)'/>
	<use xlink:href='#gpPt5' transform='translate(1125.2,602.4) scale(2.25)' color='rgb(  0,   0, 255)'/>
	<use xlink:href='#gpPt5' transform='translate(1138.2,600.9) scale(2.25)' color='rgb(  0,   0, 255)'/>
	<use xlink:href='#gpPt5' transform='translate(1151.2,605.6) scale(2.25)' color='rgb(  0,   0, 255)'/>
	<use xlink:href='#gpPt5' transform='translate(1164.2,601.6) scale(2.25)' color='rgb(  0,   0, 255)'/>
	<use xlink:href='#gpPt5' transform='translate(1177.1,604.9) scale(2.25)' color='rgb(  0,   0, 255)'/>
	<use xlink:href='#gpPt5' transform='translate(1190.1,611.0) scale(2.25)' color='rgb(  0,   0, 255)'/>
	<use xlink:href='#gpPt5' transform='translate(1203.1,608.7) scale(2.25)' color='rgb(  0,   0, 255)'/>
	<use xlink:href='#gpPt5' transform='translate(1216.1,597.4) scale(2.25)' color='rgb(  0,   0, 255)'/>
	<use xlink:href='#gpPt5' transform='translate(1229.0,592.7) scale(2.25)' color='rgb(  0,   0, 255)'/>
	<use xlink:href='#gpPt5' transform='translate(1242.0,576.3) scale(2.25)' color='rgb(  0,   0, 255)'/>
	<use xlink:href='#gpPt5' transform='translate(1255.0,525.6) scale(2.25)' color='rgb(  0,   0, 255)'/>
</g>
	</g>
	<g id="gnuplot_plot_4" ><title>fit</title>
<g fill="none" color="black" stroke="currentColor" stroke-width="1.00" stroke-linecap="butt" stroke-linejoin="miter">
	<g transform="translate(1187.9,94.0)" stroke="none" fill="black" font-family="Arial" font-size="12.00"  text-anchor="end">
		<text><tspan font-family="Arial" >fit</tspan></text>
	</g>
</g>
<g fill="none" color="black" stroke="currentColor" stroke-width="1.00" stroke-linecap="butt" stroke-linejoin="miter">
	<path stroke='rgb(255,   0,   0)'  d='M1196.2,90.1 L1238.4,90.1 M87.1,54.1 L88.2,66.0 L89.4,92.8 L90.5,122.2 L91.7,149.3 L92.8,173.1
		L93.9,194.0 L95.1,212.3 L96.2,228.5 L97.4,243.0 L98.5,256.0 L99.7,267.8 L100.8,278.4 L101.9,288.2
		L103.1,297.1 L104.2,305.2 L105.4,312.7 L106.5,319.5 L107.6,325.8 L108.8,331.7 L109.9,337.0 L111.1,342.0
		L112.2,346.6 L113.4,350.8 L114.5,354.7 L115.6,358.4 L116.8,361.7 L117.9,364.9 L119.1,367.8 L120.2,370.5
		L121.3,373.0 L122.5,375.4 L123.6,377.6 L124.8,379.6 L125.9,381.6 L127.1,383.4 L128.2,385.1 L129.3,386.8
		L130.5,388.3 L131.6,389.8 L132.8,391.2 L133.9,392.5 L135.0,393.8 L136.2,395.0 L137.3,396.2 L138.5,397.3
		L139.6,398.4 L140.8,399.4 L141.9,400.4 L143.0,401.4 L144.2,402.4 L145.3,403.3 L146.5,404.2 L147.6,405.1
		L148.7,406.0 L149.9,406.9 L151.0,407.7 L152.2,408.5 L153.3,409.3 L154.5,410.1 L155.6,410.9 L156.7,411.7
		L157.9,412.5 L159.0,413.2 L160.2,414.0 L161.3,414.7 L162.4,415.5 L163.6,416.2 L164.7,417.0 L165.9,417.7
		L167.0,418.4 L168.2,419.1 L169.3,419.8 L170.4,420.5 L171.6,421.3 L172.7,422.0 L173.9,422.7 L175.0,423.4
		L176.1,424.0 L177.3,424.7 L178.4,425.4 L179.6,426.1 L180.7,426.8 L181.9,427.5 L183.0,428.2 L184.1,428.9
		L185.3,429.5 L186.4,430.2 L187.6,430.9 L188.7,431.6 L189.8,432.2 L191.0,432.9 L192.1,433.6 L193.3,434.3
		L194.4,434.9 L195.6,435.6 L196.7,436.3 L197.8,436.9 L199.0,437.6 L200.1,438.3 L201.3,438.9 L202.4,439.6
		L203.5,440.2 L204.7,440.9 L205.8,441.6 L207.0,442.2 L208.1,442.9 L209.3,443.5 L210.4,444.2 L211.5,444.8
		L212.7,445.5 L213.8,446.1 L215.0,446.8 L216.1,447.4 L217.2,448.1 L218.4,448.7 L219.5,449.3 L220.7,450.0
		L221.8,450.6 L223.0,451.3 L224.1,451.9 L225.2,452.5 L226.4,453.2 L227.5,453.8 L228.7,454.4 L229.8,455.1
		L230.9,455.7 L232.1,456.3 L233.2,457.0 L234.4,457.6 L235.5,458.2 L236.7,458.8 L237.8,459.4 L238.9,460.1
		L240.1,460.7 L241.2,461.3 L242.4,461.9 L243.5,462.5 L244.6,463.1 L245.8,463.7 L246.9,464.4 L248.1,465.0
		L249.2,465.6 L250.4,466.2 L251.5,466.8 L252.6,467.4 L253.8,468.0 L254.9,468.6 L256.1,469.2 L257.2,469.8
		L258.3,470.4 L259.5,470.9 L260.6,471.5 L261.8,472.1 L262.9,472.7 L264.1,473.3 L265.2,473.9 L266.3,474.5
		L267.5,475.0 L268.6,475.6 L269.8,476.2 L270.9,476.8 L272.0,477.3 L273.2,477.9 L274.3,478.5 L275.5,479.0
		L276.6,479.6 L277.8,480.2 L278.9,480.7 L280.0,481.3 L281.2,481.9 L282.3,482.4 L283.5,483.0 L284.6,483.5
		L285.7,484.1 L286.9,484.6 L288.0,485.2 L289.2,485.7 L290.3,486.3 L291.5,486.8 L292.6,487.4 L293.7,487.9
		L294.9,488.4 L296.0,489.0 L297.2,489.5 L298.3,490.0 L299.4,490.6 L300.6,491.1 L301.7,491.6 L302.9,492.2
		L304.0,492.7 L305.2,493.2 L306.3,493.7 L307.4,494.3 L308.6,494.8 L309.7,495.3 L310.9,495.8 L312.0,496.3
		L313.1,496.8 L314.3,497.3 L315.4,497.9 L316.6,498.4 L317.7,498.9 L318.9,499.4 L320.0,499.9 L321.1,500.4
		L322.3,500.9 L323.4,501.4 L324.6,501.9 L325.7,502.4 L326.8,502.9 L328.0,503.3 L329.1,503.8 L330.3,504.3
		L331.4,504.8 L332.6,505.3 L333.7,505.8 L334.8,506.3 L336.0,506.7 L337.1,507.2 L338.3,507.7 L339.4,508.2
		L340.5,508.6 L341.7,509.1 L342.8,509.6 L344.0,510.1 L345.1,510.5 L346.3,511.0 L347.4,511.5 L348.5,511.9
		L349.7,512.4 L350.8,512.9 L352.0,513.3 L353.1,513.8 L354.2,514.2 L355.4,514.7 L356.5,515.1 L357.7,515.6
		L358.8,516.0 L360.0,516.5 L361.1,516.9 L362.2,517.4 L363.4,517.8 L364.5,518.3 L365.7,518.7 L366.8,519.1
		L367.9,519.6 L369.1,520.0 L370.2,520.5 L371.4,520.9 L372.5,521.3 L373.7,521.8 L374.8,522.2 L375.9,522.6
		L377.1,523.0 L378.2,523.5 L379.4,523.9 L380.5,524.3 L381.6,524.7 L382.8,525.2 L383.9,525.6 L385.1,526.0
		L386.2,526.4 L387.4,526.8 L388.5,527.2 L389.6,527.7 L390.8,528.1 L391.9,528.5 L393.1,528.9 L394.2,529.3
		L395.3,529.7 L396.5,530.1 L397.6,530.5 L398.8,530.9 L399.9,531.3 L401.1,531.7 L402.2,532.1 L403.3,532.5
		L404.5,532.9 L405.6,533.3 L406.8,533.7 L407.9,534.1 L409.0,534.5 L410.2,534.9 L411.3,535.3 L412.5,535.6
		L413.6,536.0 L414.8,536.4 L415.9,536.8 L417.0,537.2 L418.2,537.6 L419.3,537.9 L420.5,538.3 L421.6,538.7
		L422.7,539.1 L423.9,539.5 L425.0,539.8 L426.2,540.2 L427.3,540.6 L428.5,540.9 L429.6,541.3 L430.7,541.7
		L431.9,542.0 L433.0,542.4 L434.2,542.8 L435.3,543.1 L436.4,543.5 L437.6,543.9 L438.7,544.2 L439.9,544.6
		L441.0,544.9 L442.2,545.3 L443.3,545.7 L444.4,546.0 L445.6,546.4 L446.7,546.7 L447.9,547.1 L449.0,547.4
		L450.1,547.8 L451.3,548.1 L452.4,548.5 L453.6,548.8 L454.7,549.2 L455.9,549.5 L457.0,549.8 L458.1,550.2
		L459.3,550.5 L460.4,550.9 L461.6,551.2 L462.7,551.5 L463.8,551.9 L465.0,552.2 L466.1,552.5 L467.3,552.9
		L468.4,553.2 L469.6,553.5 L470.7,553.9 L471.8,554.2 L473.0,554.5 L474.1,554.9 L475.3,555.2 L476.4,555.5
		L477.5,555.8 L478.7,556.2 L479.8,556.5 L481.0,556.8 L482.1,557.1 L483.2,557.5 L484.4,557.8 L485.5,558.1
		L486.7,558.4 L487.8,558.7 L489.0,559.0 L490.1,559.3 L491.2,559.7 L492.4,560.0 L493.5,560.3 L494.7,560.6
		L495.8,560.9 L496.9,561.2 L498.1,561.5 L499.2,561.8 L500.4,562.1 L501.5,562.4 L502.7,562.7 L503.8,563.0
		L504.9,563.3 L506.1,563.6 L507.2,563.9 L508.4,564.2 L509.5,564.5 L510.6,564.8 L511.8,565.1 L512.9,565.4
		L514.1,565.7 L515.2,566.0 L516.4,566.3 L517.5,566.6 L518.6,566.9 L519.8,567.2 L520.9,567.5 L522.1,567.8
		L523.2,568.1 L524.3,568.3 L525.5,568.6 L526.6,568.9 L527.8,569.2 L528.9,569.5 L530.1,569.8 L531.2,570.1
		L532.3,570.3 L533.5,570.6 L534.6,570.9 L535.8,571.2 L536.9,571.5 L538.0,571.7 L539.2,572.0 L540.3,572.3
		L541.5,572.6 L542.6,572.8 L543.8,573.1 L544.9,573.4 L546.0,573.6 L547.2,573.9 L548.3,574.2 L549.5,574.5
		L550.6,574.7 L551.7,575.0 L552.9,575.3 L554.0,575.5 L555.2,575.8 L556.3,576.1 L557.5,576.3 L558.6,576.6
		L559.7,576.8 L560.9,577.1 L562.0,577.4 L563.2,577.6 L564.3,577.9 L565.4,578.1 L566.6,578.4 L567.7,578.7
		L568.9,578.9 L570.0,579.2 L571.2,579.4 L572.3,579.7 L573.4,579.9 L574.6,580.2 L575.7,580.4 L576.9,580.7
		L578.0,580.9 L579.1,581.2 L580.3,581.4 L581.4,581.7 L582.6,581.9 L583.7,582.2 L584.9,582.4 L586.0,582.7
		L587.1,582.9 L588.3,583.2 L589.4,583.4 L590.6,583.6 L591.7,583.9 L592.8,584.1 L594.0,584.4 L595.1,584.6
		L596.3,584.8 L597.4,585.1 L598.6,585.3 L599.7,585.6 L600.8,585.8 L602.0,586.0 L603.1,586.3 L604.3,586.5
		L605.4,586.7 L606.5,587.0 L607.7,587.2 L608.8,587.4 L610.0,587.7 L611.1,587.9 L612.3,588.1 L613.4,588.3
		L614.5,588.6 L615.7,588.8 L616.8,589.0 L618.0,589.3 L619.1,589.5 L620.2,589.7 L621.4,589.9 L622.5,590.1
		L623.7,590.4 L624.8,590.6 L626.0,590.8 L627.1,591.0 L628.2,591.3 L629.4,591.5 L630.5,591.7 L631.7,591.9
		L632.8,592.1 L633.9,592.3 L635.1,592.6 L636.2,592.8 L637.4,593.0 L638.5,593.2 L639.7,593.4 L640.8,593.6
		L641.9,593.8 L643.1,594.1 L644.2,594.3 L645.4,594.5 L646.5,594.7 L647.6,594.9 L648.8,595.1 L649.9,595.3
		L651.1,595.5 L652.2,595.7 L653.4,595.9 L654.5,596.1 L655.6,596.4 L656.8,596.6 L657.9,596.8 L659.1,597.0
		L660.2,597.2 L661.3,597.4 L662.5,597.6 L663.6,597.8 L664.8,598.0 L665.9,598.2 L667.1,598.4 L668.2,598.6
		L669.3,598.8 L670.5,599.0 L671.6,599.2 L672.8,599.4 L673.9,599.6 L675.0,599.8 L676.2,600.0 L677.3,600.1
		L678.5,600.3 L679.6,600.5 L680.8,600.7 L681.9,600.9 L683.0,601.1 L684.2,601.3 L685.3,601.5 L686.5,601.7
		L687.6,601.9 L688.7,602.1 L689.9,602.2 L691.0,602.4 L692.2,602.6 L693.3,602.8 L694.5,603.0 L695.6,603.2
		L696.7,603.4 L697.9,603.6 L699.0,603.7 L700.2,603.9 L701.3,604.1 L702.4,604.3 L703.6,604.5 L704.7,604.6
		L705.9,604.8 L707.0,605.0 L708.2,605.2 L709.3,605.4 L710.4,605.5 L711.6,605.7 L712.7,605.9 L713.9,606.1
		L715.0,606.3 L716.1,606.4 L717.3,606.6 L718.4,606.8 L719.6,607.0 L720.7,607.1 L721.9,607.3 L723.0,607.5
		L724.1,607.6 L725.3,607.8 L726.4,608.0 L727.6,608.2 L728.7,608.3 L729.8,608.5 L731.0,608.7 L732.1,608.8
		L733.3,609.0 L734.4,609.2 L735.6,609.3 L736.7,609.5 L737.8,609.7 L739.0,609.8 L740.1,610.0 L741.3,610.2
		L742.4,610.3 L743.5,610.5 L744.7,610.7 L745.8,610.8 L747.0,611.0 L748.1,611.1 L749.3,611.3 L750.4,611.5
		L751.5,611.6 L752.7,611.8 L753.8,611.9 L755.0,612.1 L756.1,612.3 L757.2,612.4 L758.4,612.6 L759.5,612.7
		L760.7,612.9 L761.8,613.0 L763.0,613.2 L764.1,613.4 L765.2,613.5 L766.4,613.7 L767.5,613.8 L768.7,614.0
		L769.8,614.1 L770.9,614.3 L772.1,614.4 L773.2,614.6 L774.4,614.7 L775.5,614.9 L776.7,615.0 L777.8,615.2
		L778.9,615.3 L780.1,615.5 L781.2,615.6 L782.4,615.8 L783.5,615.9 L784.6,616.1 L785.8,616.2 L786.9,616.4
		L788.1,616.5 L789.2,616.6 L790.4,616.8 L791.5,616.9 L792.6,617.1 L793.8,617.2 L794.9,617.4 L796.1,617.5
		L797.2,617.7 L798.3,617.8 L799.5,617.9 L800.6,618.1 L801.8,618.2 L802.9,618.4 L804.1,618.5 L805.2,618.6
		L806.3,618.8 L807.5,618.9 L808.6,619.0 L809.8,619.2 L810.9,619.3 L812.0,619.5 L813.2,619.6 L814.3,619.7
		L815.5,619.9 L816.6,620.0 L817.8,620.1 L818.9,620.3 L820.0,620.4 L821.2,620.5 L822.3,620.7 L823.5,620.8
		L824.6,620.9 L825.7,621.0 L826.9,621.2 L828.0,621.3 L829.2,621.4 L830.3,621.6 L831.5,621.7 L832.6,621.8
		L833.7,621.9 L834.9,622.1 L836.0,622.2 L837.2,622.3 L838.3,622.5 L839.4,622.6 L840.6,622.7 L841.7,622.8
		L842.9,623.0 L844.0,623.1 L845.2,623.2 L846.3,623.3 L847.4,623.4 L848.6,623.6 L849.7,623.7 L850.9,623.8
		L852.0,623.9 L853.1,624.1 L854.3,624.2 L855.4,624.3 L856.6,624.4 L857.7,624.5 L858.9,624.7 L860.0,624.8
		L861.1,624.9 L862.3,625.0 L863.4,625.1 L864.6,625.2 L865.7,625.4 L866.8,625.5 L868.0,625.6 L869.1,625.7
		L870.3,625.8 L871.4,625.9 L872.5,626.0 L873.7,626.2 L874.8,626.3 L876.0,626.4 L877.1,626.5 L878.3,626.6
		L879.4,626.7 L880.5,626.8 L881.7,626.9 L882.8,627.0 L884.0,627.2 L885.1,627.3 L886.2,627.4 L887.4,627.5
		L888.5,627.6 L889.7,627.7 L890.8,627.8 L892.0,627.9 L893.1,628.0 L894.2,628.1 L895.4,628.2 L896.5,628.3
		L897.7,628.4 L898.8,628.5 L899.9,628.6 L901.1,628.8 L902.2,628.9 L903.4,629.0 L904.5,629.1 L905.7,629.2
		L906.8,629.3 L907.9,629.4 L909.1,629.5 L910.2,629.6 L911.4,629.7 L912.5,629.8 L913.6,629.9 L914.8,630.0
		L915.9,630.1 L917.1,630.2 L918.2,630.3 L919.4,630.4 L920.5,630.5 L921.6,630.6 L922.8,630.7 L923.9,630.7
		L925.1,630.8 L926.2,630.9 L927.3,631.0 L928.5,631.1 L929.6,631.2 L930.8,631.3 L931.9,631.4 L933.1,631.5
		L934.2,631.6 L935.3,631.7 L936.5,631.8 L937.6,631.9 L938.8,632.0 L939.9,632.1 L941.0,632.1 L942.2,632.2
		L943.3,632.3 L944.5,632.4 L945.6,632.5 L946.8,632.6 L947.9,632.7 L949.0,632.8 L950.2,632.9 L951.3,632.9
		L952.5,633.0 L953.6,633.1 L954.7,633.2 L955.9,633.3 L957.0,633.4 L958.2,633.5 L959.3,633.5 L960.5,633.6
		L961.6,633.7 L962.7,633.8 L963.9,633.9 L965.0,634.0 L966.2,634.0 L967.3,634.1 L968.4,634.2 L969.6,634.3
		L970.7,634.4 L971.9,634.5 L973.0,634.5 L974.2,634.6 L975.3,634.7 L976.4,634.8 L977.6,634.9 L978.7,634.9
		L979.9,635.0 L981.0,635.1 L982.1,635.2 L983.3,635.2 L984.4,635.3 L985.6,635.4 L986.7,635.5 L987.9,635.6
		L989.0,635.6 L990.1,635.7 L991.3,635.8 L992.4,635.9 L993.6,635.9 L994.7,636.0 L995.8,636.1 L997.0,636.1
		L998.1,636.2 L999.3,636.3 L1000.4,636.4 L1001.6,636.4 L1002.7,636.5 L1003.8,636.6 L1005.0,636.6 L1006.1,636.7
		L1007.3,636.8 L1008.4,636.9 L1009.5,636.9 L1010.7,637.0 L1011.8,637.1 L1013.0,637.1 L1014.1,637.2 L1015.3,637.3
		L1016.4,637.3 L1017.5,637.4 L1018.7,637.5 L1019.8,637.5 L1021.0,637.6 L1022.1,637.7 L1023.2,637.7 L1024.4,637.8
		L1025.5,637.9 L1026.7,637.9 L1027.8,638.0 L1029.0,638.1 L1030.1,638.1 L1031.2,638.2 L1032.4,638.2 L1033.5,638.3
		L1034.7,638.4 L1035.8,638.4 L1036.9,638.5 L1038.1,638.6 L1039.2,638.6 L1040.4,638.7 L1041.5,638.7 L1042.7,638.8
		L1043.8,638.8 L1044.9,638.9 L1046.1,639.0 L1047.2,639.0 L1048.4,639.1 L1049.5,639.1 L1050.6,639.2 L1051.8,639.3
		L1052.9,639.3 L1054.1,639.4 L1055.2,639.4 L1056.4,639.5 L1057.5,639.5 L1058.6,639.6 L1059.8,639.6 L1060.9,639.7
		L1062.1,639.8 L1063.2,639.8 L1064.3,639.9 L1065.5,639.9 L1066.6,640.0 L1067.8,640.0 L1068.9,640.1 L1070.1,640.1
		L1071.2,640.2 L1072.3,640.2 L1073.5,640.3 L1074.6,640.3 L1075.8,640.4 L1076.9,640.4 L1078.0,640.5 L1079.2,640.5
		L1080.3,640.6 L1081.5,640.6 L1082.6,640.7 L1083.8,640.7 L1084.9,640.8 L1086.0,640.8 L1087.2,640.9 L1088.3,640.9
		L1089.5,640.9 L1090.6,641.0 L1091.7,641.0 L1092.9,641.1 L1094.0,641.1 L1095.2,641.2 L1096.3,641.2 L1097.5,641.3
		L1098.6,641.3 L1099.7,641.3 L1100.9,641.4 L1102.0,641.4 L1103.2,641.5 L1104.3,641.5 L1105.4,641.6 L1106.6,641.6
		L1107.7,641.6 L1108.9,641.7 L1110.0,641.7 L1111.2,641.8 L1112.3,641.8 L1113.4,641.8 L1114.6,641.9 L1115.7,641.9
		L1116.9,641.9 L1118.0,642.0 L1119.1,642.0 L1120.3,642.1 L1121.4,642.1 L1122.6,642.1 L1123.7,642.2 L1124.9,642.2
		L1126.0,642.2 L1127.1,642.3 L1128.3,642.3 L1129.4,642.3 L1130.6,642.4 L1131.7,642.4 L1132.8,642.4 L1134.0,642.5
		L1135.1,642.5 L1136.3,642.5 L1137.4,642.6 L1138.6,642.6 L1139.7,642.6 L1140.8,642.7 L1142.0,642.7 L1143.1,642.7
		L1144.3,642.8 L1145.4,642.8 L1146.5,642.8 L1147.7,642.9 L1148.8,642.9 L1150.0,642.9 L1151.1,642.9 L1152.3,643.0
		L1153.4,643.0 L1154.5,643.0 L1155.7,643.1 L1156.8,643.1 L1158.0,643.1 L1159.1,643.1 L1160.2,643.2 L1161.4,643.2
		L1162.5,643.2 L1163.7,643.2 L1164.8,643.3 L1166.0,643.3 L1167.1,643.3 L1168.2,643.3 L1169.4,643.4 L1170.5,643.4
		L1171.7,643.4 L1172.8,643.4 L1173.9,643.5 L1175.1,643.5 L1176.2,643.5 L1177.4,643.5 L1178.5,643.5 L1179.7,643.6
		L1180.8,643.6 L1181.9,643.6 L1183.1,643.6 L1184.2,643.6 L1185.4,643.7 L1186.5,643.7 L1187.6,643.7 L1188.8,643.7
		L1189.9,643.7 L1191.1,643.7 L1192.2,643.8 L1193.4,643.8 L1194.5,643.8 L1195.6,643.8 L1196.8,643.8 L1197.9,643.8
		L1199.1,643.9 L1200.2,643.9 L1201.3,643.9 L1202.5,643.9 L1203.6,643.9 L1204.8,643.9 L1205.9,643.9 L1207.1,644.0
		L1208.2,644.0 L1209.3,644.0 L1210.5,644.0 L1211.6,644.0 L1212.8,644.0 L1213.9,644.0 L1215.0,644.0 L1216.2,644.1
		L1217.3,644.1 L1218.5,644.1 L1219.6,644.1 L1220.8,644.1 L1221.9,644.1 L1223.0,644.1 L1224.2,644.1 L1225.3,644.1
		L1226.5,644.1 L1227.6,644.1 L1228.7,644.2 L1229.9,644.2 L1231.0,644.2 L1232.2,644.2 L1233.3,644.2 L1234.5,644.2
		L1235.6,644.2 L1236.7,644.2 L1237.9,644.2 L1239.0,644.2 L1240.2,644.2 L1241.3,644.2 L1242.4,644.2 L1243.6,644.2
		L1244.7,644.2 L1245.9,644.2 L1247.0,644.2 L1248.2,644.2 L1249.3,644.2 L1250.4,644.2 L1251.6,644.2 L1252.7,644.2
		L1253.9,644.2 L1255.0,644.2  '/></g>
	</g>
	<g id="gnuplot_plot_5" ><title>gnuplot_plot_5</title>
<g fill="none" color="black" stroke="currentColor" stroke-width="1.00" stroke-linecap="butt" stroke-linejoin="miter">
	<path stroke='rgb(  0, 100,   0)'  d='M87.1,59.8 L88.2,71.7 L89.4,98.5 L90.5,127.9 L91.7,154.9 L92.8,178.7 L93.9,199.6 L95.1,217.9
		L96.2,234.1 L97.4,248.5 L98.5,261.4 L99.7,273.1 L100.8,283.6 L101.9,293.3 L103.1,302.0 L104.2,310.0
		L105.4,317.3 L106.5,324.0 L107.6,330.2 L108.8,335.8 L109.9,341.0 L111.1,345.8 L112.2,350.2 L113.4,354.2
		L114.5,358.0 L115.6,361.4 L116.8,364.6 L117.9,367.5 L119.1,370.3 L120.2,372.8 L121.3,375.2 L122.5,377.4
		L123.6,379.4 L124.8,381.4 L125.9,383.2 L127.1,384.9 L128.2,386.5 L129.3,388.0 L130.5,389.4 L131.6,390.8
		L132.8,392.1 L133.9,393.3 L135.0,394.5 L136.2,395.6 L137.3,396.7 L138.5,397.8 L139.6,398.8 L140.8,399.8
		L141.9,400.7 L143.0,401.7 L144.2,402.6 L145.3,403.5 L146.5,404.3 L147.6,405.2 L148.7,406.0 L149.9,406.8
		L151.0,407.6 L152.2,408.4 L153.3,409.2 L154.5,409.9 L155.6,410.7 L156.7,411.4 L157.9,412.2 L159.0,412.9
		L160.2,413.7 L161.3,414.4 L162.4,415.1 L163.6,415.8 L164.7,416.5 L165.9,417.2 L167.0,417.9 L168.2,418.6
		L169.3,419.3 L170.4,420.0 L171.6,420.7 L172.7,421.4 L173.9,422.1 L175.0,422.8 L176.1,423.4 L177.3,424.1
		L178.4,424.8 L179.6,425.5 L180.7,426.1 L181.9,426.8 L183.0,427.5 L184.1,428.2 L185.3,428.8 L186.4,429.5
		L187.6,430.2 L188.7,430.8 L189.8,431.5 L191.0,432.2 L192.1,432.8 L193.3,433.5 L194.4,434.2 L195.6,434.8
		L196.7,435.5 L197.8,436.1 L199.0,436.8 L200.1,437.5 L201.3,438.1 L202.4,438.8 L203.5,439.4 L204.7,440.1
		L205.8,440.7 L207.0,441.4 L208.1,442.0 L209.3,442.7 L210.4,443.3 L211.5,444.0 L212.7,444.6 L213.8,445.3
		L215.0,445.9 L216.1,446.5 L217.2,447.2 L218.4,447.8 L219.5,448.5 L220.7,449.1 L221.8,449.7 L223.0,450.4
		L224.1,451.0 L225.2,451.6 L226.4,452.3 L227.5,452.9 L228.7,453.5 L229.8,454.2 L230.9,454.8 L232.1,455.4
		L233.2,456.0 L234.4,456.7 L235.5,457.3 L236.7,457.9 L237.8,458.5 L238.9,459.1 L240.1,459.8 L241.2,460.4
		L242.4,461.0 L243.5,461.6 L244.6,462.2 L245.8,462.8 L246.9,463.4 L248.1,464.0 L249.2,464.6 L250.4,465.2
		L251.5,465.8 L252.6,466.4 L253.8,467.0 L254.9,467.6 L256.1,468.2 L257.2,468.8 L258.3,469.4 L259.5,470.0
		L260.6,470.6 L261.8,471.2 L262.9,471.7 L264.1,472.3 L265.2,472.9 L266.3,473.5 L267.5,474.1 L268.6,474.6
		L269.8,475.2 L270.9,475.8 L272.0,476.4 L273.2,476.9 L274.3,477.5 L275.5,478.1 L276.6,478.6 L277.8,479.2
		L278.9,479.8 L280.0,480.3 L281.2,480.9 L282.3,481.4 L283.5,482.0 L284.6,482.5 L285.7,483.1 L286.9,483.6
		L288.0,484.2 L289.2,484.7 L290.3,485.3 L291.5,485.8 L292.6,486.4 L293.7,486.9 L294.9,487.4 L296.0,488.0
		L297.2,488.5 L298.3,489.0 L299.4,489.6 L300.6,490.1 L301.7,490.6 L302.9,491.2 L304.0,491.7 L305.2,492.2
		L306.3,492.7 L307.4,493.3 L308.6,493.8 L309.7,494.3 L310.9,494.8 L312.0,495.3 L313.1,495.8 L314.3,496.3
		L315.4,496.8 L316.6,497.4 L317.7,497.9 L318.9,498.4 L320.0,498.9 L321.1,499.4 L322.3,499.9 L323.4,500.4
		L324.6,500.9 L325.7,501.4 L326.8,501.8 L328.0,502.3 L329.1,502.8 L330.3,503.3 L331.4,503.8 L332.6,504.3
		L333.7,504.8 L334.8,505.2 L336.0,505.7 L337.1,506.2 L338.3,506.7 L339.4,507.2 L340.5,507.6 L341.7,508.1
		L342.8,508.6 L344.0,509.0 L345.1,509.5 L346.3,510.0 L347.4,510.4 L348.5,510.9 L349.7,511.4 L350.8,511.8
		L352.0,512.3 L353.1,512.7 L354.2,513.2 L355.4,513.7 L356.5,514.1 L357.7,514.6 L358.8,515.0 L360.0,515.5
		L361.1,515.9 L362.2,516.4 L363.4,516.8 L364.5,517.2 L365.7,517.7 L366.8,518.1 L367.9,518.6 L369.1,519.0
		L370.2,519.4 L371.4,519.9 L372.5,520.3 L373.7,520.7 L374.8,521.2 L375.9,521.6 L377.1,522.0 L378.2,522.4
		L379.4,522.9 L380.5,523.3 L381.6,523.7 L382.8,524.1 L383.9,524.6 L385.1,525.0 L386.2,525.4 L387.4,525.8
		L388.5,526.2 L389.6,526.6 L390.8,527.0 L391.9,527.4 L393.1,527.9 L394.2,528.3 L395.3,528.7 L396.5,529.1
		L397.6,529.5 L398.8,529.9 L399.9,530.3 L401.1,530.7 L402.2,531.1 L403.3,531.5 L404.5,531.9 L405.6,532.3
		L406.8,532.7 L407.9,533.1 L409.0,533.4 L410.2,533.8 L411.3,534.2 L412.5,534.6 L413.6,535.0 L414.8,535.4
		L415.9,535.8 L417.0,536.1 L418.2,536.5 L419.3,536.9 L420.5,537.3 L421.6,537.7 L422.7,538.0 L423.9,538.4
		L425.0,538.8 L426.2,539.2 L427.3,539.5 L428.5,539.9 L429.6,540.3 L430.7,540.6 L431.9,541.0 L433.0,541.4
		L434.2,541.7 L435.3,542.1 L436.4,542.5 L437.6,542.8 L438.7,543.2 L439.9,543.5 L441.0,543.9 L442.2,544.3
		L443.3,544.6 L444.4,545.0 L445.6,545.3 L446.7,545.7 L447.9,546.0 L449.0,546.4 L450.1,546.7 L451.3,547.1
		L452.4,547.4 L453.6,547.8 L454.7,548.1 L455.9,548.5 L457.0,548.8 L458.1,549.1 L459.3,549.5 L460.4,549.8
		L461.6,550.2 L462.7,550.5 L463.8,550.8 L465.0,551.2 L466.1,551.5 L467.3,551.8 L468.4,552.2 L469.6,552.5
		L470.7,552.8 L471.8,553.2 L473.0,553.5 L474.1,553.8 L475.3,554.1 L476.4,554.5 L477.5,554.8 L478.7,555.1
		L479.8,555.4 L481.0,555.8 L482.1,556.1 L483.2,556.4 L484.4,556.7 L485.5,557.0 L486.7,557.4 L487.8,557.7
		L489.0,558.0 L490.1,558.3 L491.2,558.6 L492.4,558.9 L493.5,559.2 L494.7,559.6 L495.8,559.9 L496.9,560.2
		L498.1,560.5 L499.2,560.8 L500.4,561.1 L501.5,561.4 L502.7,561.7 L503.8,562.0 L504.9,562.3 L506.1,562.6
		L507.2,562.9 L508.4,563.2 L509.5,563.5 L510.6,563.8 L511.8,564.1 L512.9,564.4 L514.1,564.7 L515.2,565.0
		L516.4,565.3 L517.5,565.6 L518.6,565.9 L519.8,566.1 L520.9,566.4 L522.1,566.7 L523.2,567.0 L524.3,567.3
		L525.5,567.6 L526.6,567.9 L527.8,568.2 L528.9,568.4 L530.1,568.7 L531.2,569.0 L532.3,569.3 L533.5,569.6
		L534.6,569.8 L535.8,570.1 L536.9,570.4 L538.0,570.7 L539.2,571.0 L540.3,571.2 L541.5,571.5 L542.6,571.8
		L543.8,572.1 L544.9,572.3 L546.0,572.6 L547.2,572.9 L548.3,573.1 L549.5,573.4 L550.6,573.7 L551.7,573.9
		L552.9,574.2 L554.0,574.5 L555.2,574.7 L556.3,575.0 L557.5,575.3 L558.6,575.5 L559.7,575.8 L560.9,576.1
		L562.0,576.3 L563.2,576.6 L564.3,576.8 L565.4,577.1 L566.6,577.3 L567.7,577.6 L568.9,577.9 L570.0,578.1
		L571.2,578.4 L572.3,578.6 L573.4,578.9 L574.6,579.1 L575.7,579.4 L576.9,579.6 L578.0,579.9 L579.1,580.1
		L580.3,580.4 L581.4,580.6 L582.6,580.9 L583.7,581.1 L584.9,581.4 L586.0,581.6 L587.1,581.9 L588.3,582.1
		L589.4,582.3 L590.6,582.6 L591.7,582.8 L592.8,583.1 L594.0,583.3 L595.1,583.6 L596.3,583.8 L597.4,584.0
		L598.6,584.3 L599.7,584.5 L600.8,584.7 L602.0,585.0 L603.1,585.2 L604.3,585.4 L605.4,585.7 L606.5,585.9
		L607.7,586.1 L608.8,586.4 L610.0,586.6 L611.1,586.8 L612.3,587.1 L613.4,587.3 L614.5,587.5 L615.7,587.7
		L616.8,588.0 L618.0,588.2 L619.1,588.4 L620.2,588.6 L621.4,588.9 L622.5,589.1 L623.7,589.3 L624.8,589.5
		L626.0,589.8 L627.1,590.0 L628.2,590.2 L629.4,590.4 L630.5,590.6 L631.7,590.9 L632.8,591.1 L633.9,591.3
		L635.1,591.5 L636.2,591.7 L637.4,591.9 L638.5,592.2 L639.7,592.4 L640.8,592.6 L641.9,592.8 L643.1,593.0
		L644.2,593.2 L645.4,593.4 L646.5,593.6 L647.6,593.9 L648.8,594.1 L649.9,594.3 L651.1,594.5 L652.2,594.7
		L653.4,594.9 L654.5,595.1 L655.6,595.3 L656.8,595.5 L657.9,595.7 L659.1,595.9 L660.2,596.1 L661.3,596.3
		L662.5,596.5 L663.6,596.7 L664.8,596.9 L665.9,597.1 L667.1,597.3 L668.2,597.5 L669.3,597.7 L670.5,597.9
		L671.6,598.1 L672.8,598.3 L673.9,598.5 L675.0,598.7 L676.2,598.9 L677.3,599.1 L678.5,599.3 L679.6,599.5
		L680.8,599.7 L681.9,599.9 L683.0,600.1 L684.2,600.2 L685.3,600.4 L686.5,600.6 L687.6,600.8 L688.7,601.0
		L689.9,601.2 L691.0,601.4 L692.2,601.6 L693.3,601.8 L694.5,601.9 L695.6,602.1 L696.7,602.3 L697.9,602.5
		L699.0,602.7 L700.2,602.9 L701.3,603.0 L702.4,603.2 L703.6,603.4 L704.7,603.6 L705.9,603.8 L707.0,604.0
		L708.2,604.1 L709.3,604.3 L710.4,604.5 L711.6,604.7 L712.7,604.8 L713.9,605.0 L715.0,605.2 L716.1,605.4
		L717.3,605.5 L718.4,605.7 L719.6,605.9 L720.7,606.1 L721.9,606.2 L723.0,606.4 L724.1,606.6 L725.3,606.8
		L726.4,606.9 L727.6,607.1 L728.7,607.3 L729.8,607.4 L731.0,607.6 L732.1,607.8 L733.3,607.9 L734.4,608.1
		L735.6,608.3 L736.7,608.5 L737.8,608.6 L739.0,608.8 L740.1,608.9 L741.3,609.1 L742.4,609.3 L743.5,609.4
		L744.7,609.6 L745.8,609.8 L747.0,609.9 L748.1,610.1 L749.3,610.3 L750.4,610.4 L751.5,610.6 L752.7,610.7
		L753.8,610.9 L755.0,611.0 L756.1,611.2 L757.2,611.4 L758.4,611.5 L759.5,611.7 L760.7,611.8 L761.8,612.0
		L763.0,612.1 L764.1,612.3 L765.2,612.5 L766.4,612.6 L767.5,612.8 L768.7,612.9 L769.8,613.1 L770.9,613.2
		L772.1,613.4 L773.2,613.5 L774.4,613.7 L775.5,613.8 L776.7,614.0 L777.8,614.1 L778.9,614.3 L780.1,614.4
		L781.2,614.6 L782.4,614.7 L783.5,614.9 L784.6,615.0 L785.8,615.2 L786.9,615.3 L788.1,615.4 L789.2,615.6
		L790.4,615.7 L791.5,615.9 L792.6,616.0 L793.8,616.2 L794.9,616.3 L796.1,616.5 L797.2,616.6 L798.3,616.7
		L799.5,616.9 L800.6,617.0 L801.8,617.2 L802.9,617.3 L804.1,617.4 L805.2,617.6 L806.3,617.7 L807.5,617.8
		L808.6,618.0 L809.8,618.1 L810.9,618.3 L812.0,618.4 L813.2,618.5 L814.3,618.7 L815.5,618.8 L816.6,618.9
		L817.8,619.1 L818.9,619.2 L820.0,619.3 L821.2,619.5 L822.3,619.6 L823.5,619.7 L824.6,619.9 L825.7,620.0
		L826.9,620.1 L828.0,620.2 L829.2,620.4 L830.3,620.5 L831.5,620.6 L832.6,620.8 L833.7,620.9 L834.9,621.0
		L836.0,621.1 L837.2,621.3 L838.3,621.4 L839.4,621.5 L840.6,621.6 L841.7,621.8 L842.9,621.9 L844.0,622.0
		L845.2,622.1 L846.3,622.3 L847.4,622.4 L848.6,622.5 L849.7,622.6 L850.9,622.8 L852.0,622.9 L853.1,623.0
		L854.3,623.1 L855.4,623.2 L856.6,623.4 L857.7,623.5 L858.9,623.6 L860.0,623.7 L861.1,623.8 L862.3,623.9
		L863.4,624.1 L864.6,624.2 L865.7,624.3 L866.8,624.4 L868.0,624.5 L869.1,624.6 L870.3,624.8 L871.4,624.9
		L872.5,625.0 L873.7,625.1 L874.8,625.2 L876.0,625.3 L877.1,625.4 L878.3,625.5 L879.4,625.7 L880.5,625.8
		L881.7,625.9 L882.8,626.0 L884.0,626.1 L885.1,626.2 L886.2,626.3 L887.4,626.4 L888.5,626.5 L889.7,626.6
		L890.8,626.7 L892.0,626.9 L893.1,627.0 L894.2,627.1 L895.4,627.2 L896.5,627.3 L897.7,627.4 L898.8,627.5
		L899.9,627.6 L901.1,627.7 L902.2,627.8 L903.4,627.9 L904.5,628.0 L905.7,628.1 L906.8,628.2 L907.9,628.3
		L909.1,628.4 L910.2,628.5 L911.4,628.6 L912.5,628.7 L913.6,628.8 L914.8,628.9 L915.9,629.0 L917.1,629.1
		L918.2,629.2 L919.4,629.3 L920.5,629.4 L921.6,629.5 L922.8,629.6 L923.9,629.7 L925.1,629.8 L926.2,629.9
		L927.3,630.0 L928.5,630.1 L929.6,630.2 L930.8,630.3 L931.9,630.4 L933.1,630.4 L934.2,630.5 L935.3,630.6
		L936.5,630.7 L937.6,630.8 L938.8,630.9 L939.9,631.0 L941.0,631.1 L942.2,631.2 L943.3,631.3 L944.5,631.4
		L945.6,631.4 L946.8,631.5 L947.9,631.6 L949.0,631.7 L950.2,631.8 L951.3,631.9 L952.5,632.0 L953.6,632.1
		L954.7,632.1 L955.9,632.2 L957.0,632.3 L958.2,632.4 L959.3,632.5 L960.5,632.6 L961.6,632.7 L962.7,632.7
		L963.9,632.8 L965.0,632.9 L966.2,633.0 L967.3,633.1 L968.4,633.2 L969.6,633.2 L970.7,633.3 L971.9,633.4
		L973.0,633.5 L974.2,633.6 L975.3,633.6 L976.4,633.7 L977.6,633.8 L978.7,633.9 L979.9,634.0 L981.0,634.0
		L982.1,634.1 L983.3,634.2 L984.4,634.3 L985.6,634.3 L986.7,634.4 L987.9,634.5 L989.0,634.6 L990.1,634.6
		L991.3,634.7 L992.4,634.8 L993.6,634.9 L994.7,634.9 L995.8,635.0 L997.0,635.1 L998.1,635.2 L999.3,635.2
		L1000.4,635.3 L1001.6,635.4 L1002.7,635.4 L1003.8,635.5 L1005.0,635.6 L1006.1,635.7 L1007.3,635.7 L1008.4,635.8
		L1009.5,635.9 L1010.7,635.9 L1011.8,636.0 L1013.0,636.1 L1014.1,636.1 L1015.3,636.2 L1016.4,636.3 L1017.5,636.3
		L1018.7,636.4 L1019.8,636.5 L1021.0,636.5 L1022.1,636.6 L1023.2,636.7 L1024.4,636.7 L1025.5,636.8 L1026.7,636.9
		L1027.8,636.9 L1029.0,637.0 L1030.1,637.1 L1031.2,637.1 L1032.4,637.2 L1033.5,637.2 L1034.7,637.3 L1035.8,637.4
		L1036.9,637.4 L1038.1,637.5 L1039.2,637.6 L1040.4,637.6 L1041.5,637.7 L1042.7,637.7 L1043.8,637.8 L1044.9,637.8
		L1046.1,637.9 L1047.2,638.0 L1048.4,638.0 L1049.5,638.1 L1050.6,638.1 L1051.8,638.2 L1052.9,638.3 L1054.1,638.3
		L1055.2,638.4 L1056.4,638.4 L1057.5,638.5 L1058.6,638.5 L1059.8,638.6 L1060.9,638.6 L1062.1,638.7 L1063.2,638.7
		L1064.3,638.8 L1065.5,638.9 L1066.6,638.9 L1067.8,639.0 L1068.9,639.0 L1070.1,639.1 L1071.2,639.1 L1072.3,639.2
		L1073.5,639.2 L1074.6,639.3 L1075.8,639.3 L1076.9,639.4 L1078.0,639.4 L1079.2,639.5 L1080.3,639.5 L1081.5,639.6
		L1082.6,639.6 L1083.8,639.7 L1084.9,639.7 L1086.0,639.7 L1087.2,639.8 L1088.3,639.8 L1089.5,639.9 L1090.6,639.9
		L1091.7,640.0 L1092.9,640.0 L1094.0,640.1 L1095.2,640.1 L1096.3,640.2 L1097.5,640.2 L1098.6,640.2 L1099.7,640.3
		L1100.9,640.3 L1102.0,640.4 L1103.2,640.4 L1104.3,640.5 L1105.4,640.5 L1106.6,640.5 L1107.7,640.6 L1108.9,640.6
		L1110.0,640.7 L1111.2,640.7 L1112.3,640.7 L1113.4,640.8 L1114.6,640.8 L1115.7,640.9 L1116.9,640.9 L1118.0,640.9
		L1119.1,641.0 L1120.3,641.0 L1121.4,641.0 L1122.6,641.1 L1123.7,641.1 L1124.9,641.1 L1126.0,641.2 L1127.1,641.2
		L1128.3,641.3 L1129.4,641.3 L1130.6,641.3 L1131.7,641.4 L1132.8,641.4 L1134.0,641.4 L1135.1,641.5 L1136.3,641.5
		L1137.4,641.5 L1138.6,641.6 L1139.7,641.6 L1140.8,641.6 L1142.0,641.6 L1143.1,641.7 L1144.3,641.7 L1145.4,641.7
		L1146.5,641.8 L1147.7,641.8 L1148.8,641.8 L1150.0,641.9 L1151.1,641.9 L1152.3,641.9 L1153.4,641.9 L1154.5,642.0
		L1155.7,642.0 L1156.8,642.0 L1158.0,642.1 L1159.1,642.1 L1160.2,642.1 L1161.4,642.1 L1162.5,642.2 L1163.7,642.2
		L1164.8,642.2 L1166.0,642.2 L1167.1,642.3 L1168.2,642.3 L1169.4,642.3 L1170.5,642.3 L1171.7,642.3 L1172.8,642.4
		L1173.9,642.4 L1175.1,642.4 L1176.2,642.4 L1177.4,642.5 L1178.5,642.5 L1179.7,642.5 L1180.8,642.5 L1181.9,642.5
		L1183.1,642.6 L1184.2,642.6 L1185.4,642.6 L1186.5,642.6 L1187.6,642.6 L1188.8,642.7 L1189.9,642.7 L1191.1,642.7
		L1192.2,642.7 L1193.4,642.7 L1194.5,642.7 L1195.6,642.8 L1196.8,642.8 L1197.9,642.8 L1199.1,642.8 L1200.2,642.8
		L1201.3,642.8 L1202.5,642.8 L1203.6,642.9 L1204.8,642.9 L1205.9,642.9 L1207.1,642.9 L1208.2,642.9 L1209.3,642.9
		L1210.5,642.9 L1211.6,643.0 L1212.8,643.0 L1213.9,643.0 L1215.0,643.0 L1216.2,643.0 L1217.3,643.0 L1218.5,643.0
		L1219.6,643.0 L1220.8,643.0 L1221.9,643.0 L1223.0,643.1 L1224.2,643.1 L1225.3,643.1 L1226.5,643.1 L1227.6,643.1
		L1228.7,643.1 L1229.9,643.1 L1231.0,643.1 L1232.2,643.1 L1233.3,643.1 L1234.5,643.1 L1235.6,643.1 L1236.7,643.1
		L1237.9,643.1 L1239.0,643.1 L1240.2,643.1 L1241.3,643.2 L1242.4,643.2 L1243.6,643.2 L1244.7,643.2 L1245.9,643.2
		L1247.0,643.2 L1248.2,643.2 L1249.3,643.2 L1250.4,643.2 L1251.6,643.2 L1252.7,643.2 L1253.9,643.2 L1255.0,643.2
		 '/></g>
	</g>
	<g id="gnuplot_plot_6" ><title>gnuplot_plot_6</title>
<g fill="none" color="black" stroke="currentColor" stroke-width="1.00" stroke-linecap="butt" stroke-linejoin="miter">
	<path stroke='rgb(  0,   0, 255)'  d='M87.1,61.9 L88.2,73.8 L89.4,100.6 L90.5,130.0 L91.7,157.0 L92.8,180.9 L93.9,201.7 L95.1,220.0
		L96.2,236.2 L97.4,250.6 L98.5,263.6 L99.7,275.2 L100.8,285.8 L101.9,295.4 L103.1,304.2 L104.2,312.2
		L105.4,319.6 L106.5,326.3 L107.6,332.4 L108.8,338.1 L109.9,343.3 L111.1,348.1 L112.2,352.5 L113.4,356.6
		L114.5,360.3 L115.6,363.8 L116.8,367.0 L117.9,370.0 L119.1,372.7 L120.2,375.3 L121.3,377.7 L122.5,379.9
		L123.6,382.0 L124.8,383.9 L125.9,385.7 L127.1,387.4 L128.2,389.0 L129.3,390.6 L130.5,392.0 L131.6,393.4
		L132.8,394.7 L133.9,395.9 L135.0,397.1 L136.2,398.3 L137.3,399.4 L138.5,400.4 L139.6,401.5 L140.8,402.4
		L141.9,403.4 L143.0,404.3 L144.2,405.3 L145.3,406.1 L146.5,407.0 L147.6,407.9 L148.7,408.7 L149.9,409.5
		L151.0,410.3 L152.2,411.1 L153.3,411.9 L154.5,412.7 L155.6,413.4 L156.7,414.2 L157.9,414.9 L159.0,415.7
		L160.2,416.4 L161.3,417.1 L162.4,417.8 L163.6,418.5 L164.7,419.3 L165.9,420.0 L167.0,420.7 L168.2,421.4
		L169.3,422.1 L170.4,422.8 L171.6,423.5 L172.7,424.1 L173.9,424.8 L175.0,425.5 L176.1,426.2 L177.3,426.9
		L178.4,427.6 L179.6,428.2 L180.7,428.9 L181.9,429.6 L183.0,430.3 L184.1,430.9 L185.3,431.6 L186.4,432.3
		L187.6,432.9 L188.7,433.6 L189.8,434.3 L191.0,434.9 L192.1,435.6 L193.3,436.3 L194.4,436.9 L195.6,437.6
		L196.7,438.3 L197.8,438.9 L199.0,439.6 L200.1,440.2 L201.3,440.9 L202.4,441.5 L203.5,442.2 L204.7,442.8
		L205.8,443.5 L207.0,444.2 L208.1,444.8 L209.3,445.5 L210.4,446.1 L211.5,446.7 L212.7,447.4 L213.8,448.0
		L215.0,448.7 L216.1,449.3 L217.2,450.0 L218.4,450.6 L219.5,451.2 L220.7,451.9 L221.8,452.5 L223.0,453.2
		L224.1,453.8 L225.2,454.4 L226.4,455.1 L227.5,455.7 L228.7,456.3 L229.8,456.9 L230.9,457.6 L232.1,458.2
		L233.2,458.8 L234.4,459.4 L235.5,460.1 L236.7,460.7 L237.8,461.3 L238.9,461.9 L240.1,462.5 L241.2,463.2
		L242.4,463.8 L243.5,464.4 L244.6,465.0 L245.8,465.6 L246.9,466.2 L248.1,466.8 L249.2,467.4 L250.4,468.0
		L251.5,468.6 L252.6,469.2 L253.8,469.8 L254.9,470.4 L256.1,471.0 L257.2,471.6 L258.3,472.2 L259.5,472.8
		L260.6,473.4 L261.8,473.9 L262.9,474.5 L264.1,475.1 L265.2,475.7 L266.3,476.3 L267.5,476.9 L268.6,477.4
		L269.8,478.0 L270.9,478.6 L272.0,479.2 L273.2,479.7 L274.3,480.3 L275.5,480.9 L276.6,481.4 L277.8,482.0
		L278.9,482.5 L280.0,483.1 L281.2,483.7 L282.3,484.2 L283.5,484.8 L284.6,485.3 L285.7,485.9 L286.9,486.4
		L288.0,487.0 L289.2,487.5 L290.3,488.1 L291.5,488.6 L292.6,489.2 L293.7,489.7 L294.9,490.2 L296.0,490.8
		L297.2,491.3 L298.3,491.8 L299.4,492.4 L300.6,492.9 L301.7,493.4 L302.9,494.0 L304.0,494.5 L305.2,495.0
		L306.3,495.5 L307.4,496.0 L308.6,496.6 L309.7,497.1 L310.9,497.6 L312.0,498.1 L313.1,498.6 L314.3,499.1
		L315.4,499.6 L316.6,500.1 L317.7,500.7 L318.9,501.2 L320.0,501.7 L321.1,502.2 L322.3,502.7 L323.4,503.2
		L324.6,503.6 L325.7,504.1 L326.8,504.6 L328.0,505.1 L329.1,505.6 L330.3,506.1 L331.4,506.6 L332.6,507.1
		L333.7,507.6 L334.8,508.0 L336.0,508.5 L337.1,509.0 L338.3,509.5 L339.4,510.0 L340.5,510.4 L341.7,510.9
		L342.8,511.4 L344.0,511.8 L345.1,512.3 L346.3,512.8 L347.4,513.2 L348.5,513.7 L349.7,514.2 L350.8,514.6
		L352.0,515.1 L353.1,515.5 L354.2,516.0 L355.4,516.4 L356.5,516.9 L357.7,517.4 L358.8,517.8 L360.0,518.3
		L361.1,518.7 L362.2,519.1 L363.4,519.6 L364.5,520.0 L365.7,520.5 L366.8,520.9 L367.9,521.4 L369.1,521.8
		L370.2,522.2 L371.4,522.7 L372.5,523.1 L373.7,523.5 L374.8,524.0 L375.9,524.4 L377.1,524.8 L378.2,525.2
		L379.4,525.7 L380.5,526.1 L381.6,526.5 L382.8,526.9 L383.9,527.3 L385.1,527.8 L386.2,528.2 L387.4,528.6
		L388.5,529.0 L389.6,529.4 L390.8,529.8 L391.9,530.2 L393.1,530.7 L394.2,531.1 L395.3,531.5 L396.5,531.9
		L397.6,532.3 L398.8,532.7 L399.9,533.1 L401.1,533.5 L402.2,533.9 L403.3,534.3 L404.5,534.7 L405.6,535.1
		L406.8,535.5 L407.9,535.8 L409.0,536.2 L410.2,536.6 L411.3,537.0 L412.5,537.4 L413.6,537.8 L414.8,538.2
		L415.9,538.6 L417.0,538.9 L418.2,539.3 L419.3,539.7 L420.5,540.1 L421.6,540.5 L422.7,540.8 L423.9,541.2
		L425.0,541.6 L426.2,542.0 L427.3,542.3 L428.5,542.7 L429.6,543.1 L430.7,543.4 L431.9,543.8 L433.0,544.2
		L434.2,544.5 L435.3,544.9 L436.4,545.3 L437.6,545.6 L438.7,546.0 L439.9,546.3 L441.0,546.7 L442.2,547.1
		L443.3,547.4 L444.4,547.8 L445.6,548.1 L446.7,548.5 L447.9,548.8 L449.0,549.2 L450.1,549.5 L451.3,549.9
		L452.4,550.2 L453.6,550.6 L454.7,550.9 L455.9,551.3 L457.0,551.6 L458.1,551.9 L459.3,552.3 L460.4,552.6
		L461.6,553.0 L462.7,553.3 L463.8,553.6 L465.0,554.0 L466.1,554.3 L467.3,554.6 L468.4,555.0 L469.6,555.3
		L470.7,555.6 L471.8,556.0 L473.0,556.3 L474.1,556.6 L475.3,556.9 L476.4,557.3 L477.5,557.6 L478.7,557.9
		L479.8,558.2 L481.0,558.6 L482.1,558.9 L483.2,559.2 L484.4,559.5 L485.5,559.8 L486.7,560.2 L487.8,560.5
		L489.0,560.8 L490.1,561.1 L491.2,561.4 L492.4,561.7 L493.5,562.0 L494.7,562.3 L495.8,562.7 L496.9,563.0
		L498.1,563.3 L499.2,563.6 L500.4,563.9 L501.5,564.2 L502.7,564.5 L503.8,564.8 L504.9,565.1 L506.1,565.4
		L507.2,565.7 L508.4,566.0 L509.5,566.3 L510.6,566.6 L511.8,566.9 L512.9,567.2 L514.1,567.5 L515.2,567.8
		L516.4,568.1 L517.5,568.4 L518.6,568.7 L519.8,568.9 L520.9,569.2 L522.1,569.5 L523.2,569.8 L524.3,570.1
		L525.5,570.4 L526.6,570.7 L527.8,571.0 L528.9,571.2 L530.1,571.5 L531.2,571.8 L532.3,572.1 L533.5,572.4
		L534.6,572.6 L535.8,572.9 L536.9,573.2 L538.0,573.5 L539.2,573.8 L540.3,574.0 L541.5,574.3 L542.6,574.6
		L543.8,574.8 L544.9,575.1 L546.0,575.4 L547.2,575.7 L548.3,575.9 L549.5,576.2 L550.6,576.5 L551.7,576.7
		L552.9,577.0 L554.0,577.3 L555.2,577.5 L556.3,577.8 L557.5,578.1 L558.6,578.3 L559.7,578.6 L560.9,578.8
		L562.0,579.1 L563.2,579.4 L564.3,579.6 L565.4,579.9 L566.6,580.1 L567.7,580.4 L568.9,580.7 L570.0,580.9
		L571.2,581.2 L572.3,581.4 L573.4,581.7 L574.6,581.9 L575.7,582.2 L576.9,582.4 L578.0,582.7 L579.1,582.9
		L580.3,583.2 L581.4,583.4 L582.6,583.7 L583.7,583.9 L584.9,584.2 L586.0,584.4 L587.1,584.7 L588.3,584.9
		L589.4,585.1 L590.6,585.4 L591.7,585.6 L592.8,585.9 L594.0,586.1 L595.1,586.3 L596.3,586.6 L597.4,586.8
		L598.6,587.1 L599.7,587.3 L600.8,587.5 L602.0,587.8 L603.1,588.0 L604.3,588.2 L605.4,588.5 L606.5,588.7
		L607.7,588.9 L608.8,589.2 L610.0,589.4 L611.1,589.6 L612.3,589.9 L613.4,590.1 L614.5,590.3 L615.7,590.5
		L616.8,590.8 L618.0,591.0 L619.1,591.2 L620.2,591.4 L621.4,591.7 L622.5,591.9 L623.7,592.1 L624.8,592.3
		L626.0,592.6 L627.1,592.8 L628.2,593.0 L629.4,593.2 L630.5,593.4 L631.7,593.7 L632.8,593.9 L633.9,594.1
		L635.1,594.3 L636.2,594.5 L637.4,594.7 L638.5,595.0 L639.7,595.2 L640.8,595.4 L641.9,595.6 L643.1,595.8
		L644.2,596.0 L645.4,596.2 L646.5,596.4 L647.6,596.6 L648.8,596.9 L649.9,597.1 L651.1,597.3 L652.2,597.5
		L653.4,597.7 L654.5,597.9 L655.6,598.1 L656.8,598.3 L657.9,598.5 L659.1,598.7 L660.2,598.9 L661.3,599.1
		L662.5,599.3 L663.6,599.5 L664.8,599.7 L665.9,599.9 L667.1,600.1 L668.2,600.3 L669.3,600.5 L670.5,600.7
		L671.6,600.9 L672.8,601.1 L673.9,601.3 L675.0,601.5 L676.2,601.7 L677.3,601.9 L678.5,602.1 L679.6,602.3
		L680.8,602.5 L681.9,602.7 L683.0,602.9 L684.2,603.0 L685.3,603.2 L686.5,603.4 L687.6,603.6 L688.7,603.8
		L689.9,604.0 L691.0,604.2 L692.2,604.4 L693.3,604.6 L694.5,604.7 L695.6,604.9 L696.7,605.1 L697.9,605.3
		L699.0,605.5 L700.2,605.7 L701.3,605.8 L702.4,606.0 L703.6,606.2 L704.7,606.4 L705.9,606.6 L707.0,606.7
		L708.2,606.9 L709.3,607.1 L710.4,607.3 L711.6,607.5 L712.7,607.6 L713.9,607.8 L715.0,608.0 L716.1,608.2
		L717.3,608.3 L718.4,608.5 L719.6,608.7 L720.7,608.9 L721.9,609.0 L723.0,609.2 L724.1,609.4 L725.3,609.6
		L726.4,609.7 L727.6,609.9 L728.7,610.1 L729.8,610.2 L731.0,610.4 L732.1,610.6 L733.3,610.7 L734.4,610.9
		L735.6,611.1 L736.7,611.2 L737.8,611.4 L739.0,611.6 L740.1,611.7 L741.3,611.9 L742.4,612.1 L743.5,612.2
		L744.7,612.4 L745.8,612.6 L747.0,612.7 L748.1,612.9 L749.3,613.0 L750.4,613.2 L751.5,613.4 L752.7,613.5
		L753.8,613.7 L755.0,613.8 L756.1,614.0 L757.2,614.2 L758.4,614.3 L759.5,614.5 L760.7,614.6 L761.8,614.8
		L763.0,614.9 L764.1,615.1 L765.2,615.3 L766.4,615.4 L767.5,615.6 L768.7,615.7 L769.8,615.9 L770.9,616.0
		L772.1,616.2 L773.2,616.3 L774.4,616.5 L775.5,616.6 L776.7,616.8 L777.8,616.9 L778.9,617.1 L780.1,617.2
		L781.2,617.4 L782.4,617.5 L783.5,617.7 L784.6,617.8 L785.8,618.0 L786.9,618.1 L788.1,618.2 L789.2,618.4
		L790.4,618.5 L791.5,618.7 L792.6,618.8 L793.8,619.0 L794.9,619.1 L796.1,619.2 L797.2,619.4 L798.3,619.5
		L799.5,619.7 L800.6,619.8 L801.8,620.0 L802.9,620.1 L804.1,620.2 L805.2,620.4 L806.3,620.5 L807.5,620.6
		L808.6,620.8 L809.8,620.9 L810.9,621.1 L812.0,621.2 L813.2,621.3 L814.3,621.5 L815.5,621.6 L816.6,621.7
		L817.8,621.9 L818.9,622.0 L820.0,622.1 L821.2,622.3 L822.3,622.4 L823.5,622.5 L824.6,622.7 L825.7,622.8
		L826.9,622.9 L828.0,623.0 L829.2,623.2 L830.3,623.3 L831.5,623.4 L832.6,623.6 L833.7,623.7 L834.9,623.8
		L836.0,623.9 L837.2,624.1 L838.3,624.2 L839.4,624.3 L840.6,624.4 L841.7,624.6 L842.9,624.7 L844.0,624.8
		L845.2,624.9 L846.3,625.1 L847.4,625.2 L848.6,625.3 L849.7,625.4 L850.9,625.6 L852.0,625.7 L853.1,625.8
		L854.3,625.9 L855.4,626.0 L856.6,626.2 L857.7,626.3 L858.9,626.4 L860.0,626.5 L861.1,626.6 L862.3,626.7
		L863.4,626.9 L864.6,627.0 L865.7,627.1 L866.8,627.2 L868.0,627.3 L869.1,627.4 L870.3,627.6 L871.4,627.7
		L872.5,627.8 L873.7,627.9 L874.8,628.0 L876.0,628.1 L877.1,628.2 L878.3,628.3 L879.4,628.5 L880.5,628.6
		L881.7,628.7 L882.8,628.8 L884.0,628.9 L885.1,629.0 L886.2,629.1 L887.4,629.2 L888.5,629.3 L889.7,629.4
		L890.8,629.5 L892.0,629.6 L893.1,629.8 L894.2,629.9 L895.4,630.0 L896.5,630.1 L897.7,630.2 L898.8,630.3
		L899.9,630.4 L901.1,630.5 L902.2,630.6 L903.4,630.7 L904.5,630.8 L905.7,630.9 L906.8,631.0 L907.9,631.1
		L909.1,631.2 L910.2,631.3 L911.4,631.4 L912.5,631.5 L913.6,631.6 L914.8,631.7 L915.9,631.8 L917.1,631.9
		L918.2,632.0 L919.4,632.1 L920.5,632.2 L921.6,632.3 L922.8,632.4 L923.9,632.5 L925.1,632.6 L926.2,632.7
		L927.3,632.8 L928.5,632.9 L929.6,633.0 L930.8,633.1 L931.9,633.2 L933.1,633.2 L934.2,633.3 L935.3,633.4
		L936.5,633.5 L937.6,633.6 L938.8,633.7 L939.9,633.8 L941.0,633.9 L942.2,634.0 L943.3,634.1 L944.5,634.2
		L945.6,634.2 L946.8,634.3 L947.9,634.4 L949.0,634.5 L950.2,634.6 L951.3,634.7 L952.5,634.8 L953.6,634.9
		L954.7,634.9 L955.9,635.0 L957.0,635.1 L958.2,635.2 L959.3,635.3 L960.5,635.4 L961.6,635.5 L962.7,635.5
		L963.9,635.6 L965.0,635.7 L966.2,635.8 L967.3,635.9 L968.4,636.0 L969.6,636.0 L970.7,636.1 L971.9,636.2
		L973.0,636.3 L974.2,636.4 L975.3,636.4 L976.4,636.5 L977.6,636.6 L978.7,636.7 L979.9,636.8 L981.0,636.8
		L982.1,636.9 L983.3,637.0 L984.4,637.1 L985.6,637.1 L986.7,637.2 L987.9,637.3 L989.0,637.4 L990.1,637.4
		L991.3,637.5 L992.4,637.6 L993.6,637.7 L994.7,637.7 L995.8,637.8 L997.0,637.9 L998.1,638.0 L999.3,638.0
		L1000.4,638.1 L1001.6,638.2 L1002.7,638.2 L1003.8,638.3 L1005.0,638.4 L1006.1,638.5 L1007.3,638.5 L1008.4,638.6
		L1009.5,638.7 L1010.7,638.7 L1011.8,638.8 L1013.0,638.9 L1014.1,638.9 L1015.3,639.0 L1016.4,639.1 L1017.5,639.1
		L1018.7,639.2 L1019.8,639.3 L1021.0,639.3 L1022.1,639.4 L1023.2,639.5 L1024.4,639.5 L1025.5,639.6 L1026.7,639.7
		L1027.8,639.7 L1029.0,639.8 L1030.1,639.9 L1031.2,639.9 L1032.4,640.0 L1033.5,640.0 L1034.7,640.1 L1035.8,640.2
		L1036.9,640.2 L1038.1,640.3 L1039.2,640.3 L1040.4,640.4 L1041.5,640.5 L1042.7,640.5 L1043.8,640.6 L1044.9,640.6
		L1046.1,640.7 L1047.2,640.8 L1048.4,640.8 L1049.5,640.9 L1050.6,640.9 L1051.8,641.0 L1052.9,641.0 L1054.1,641.1
		L1055.2,641.2 L1056.4,641.2 L1057.5,641.3 L1058.6,641.3 L1059.8,641.4 L1060.9,641.4 L1062.1,641.5 L1063.2,641.5
		L1064.3,641.6 L1065.5,641.6 L1066.6,641.7 L1067.8,641.8 L1068.9,641.8 L1070.1,641.9 L1071.2,641.9 L1072.3,642.0
		L1073.5,642.0 L1074.6,642.1 L1075.8,642.1 L1076.9,642.2 L1078.0,642.2 L1079.2,642.3 L1080.3,642.3 L1081.5,642.4
		L1082.6,642.4 L1083.8,642.4 L1084.9,642.5 L1086.0,642.5 L1087.2,642.6 L1088.3,642.6 L1089.5,642.7 L1090.6,642.7
		L1091.7,642.8 L1092.9,642.8 L1094.0,642.9 L1095.2,642.9 L1096.3,642.9 L1097.5,643.0 L1098.6,643.0 L1099.7,643.1
		L1100.9,643.1 L1102.0,643.2 L1103.2,643.2 L1104.3,643.2 L1105.4,643.3 L1106.6,643.3 L1107.7,643.4 L1108.9,643.4
		L1110.0,643.5 L1111.2,643.5 L1112.3,643.5 L1113.4,643.6 L1114.6,643.6 L1115.7,643.6 L1116.9,643.7 L1118.0,643.7
		L1119.1,643.8 L1120.3,643.8 L1121.4,643.8 L1122.6,643.9 L1123.7,643.9 L1124.9,643.9 L1126.0,644.0 L1127.1,644.0
		L1128.3,644.0 L1129.4,644.1 L1130.6,644.1 L1131.7,644.2 L1132.8,644.2 L1134.0,644.2 L1135.1,644.3 L1136.3,644.3
		L1137.4,644.3 L1138.6,644.3 L1139.7,644.4 L1140.8,644.4 L1142.0,644.4 L1143.1,644.5 L1144.3,644.5 L1145.4,644.5
		L1146.5,644.6 L1147.7,644.6 L1148.8,644.6 L1150.0,644.7 L1151.1,644.7 L1152.3,644.7 L1153.4,644.7 L1154.5,644.8
		L1155.7,644.8 L1156.8,644.8 L1158.0,644.8 L1159.1,644.9 L1160.2,644.9 L1161.4,644.9 L1162.5,645.0 L1163.7,645.0
		L1164.8,645.0 L1166.0,645.0 L1167.1,645.0 L1168.2,645.1 L1169.4,645.1 L1170.5,645.1 L1171.7,645.1 L1172.8,645.2
		L1173.9,645.2 L1175.1,645.2 L1176.2,645.2 L1177.4,645.3 L1178.5,645.3 L1179.7,645.3 L1180.8,645.3 L1181.9,645.3
		L1183.1,645.4 L1184.2,645.4 L1185.4,645.4 L1186.5,645.4 L1187.6,645.4 L1188.8,645.4 L1189.9,645.5 L1191.1,645.5
		L1192.2,645.5 L1193.4,645.5 L1194.5,645.5 L1195.6,645.6 L1196.8,645.6 L1197.9,645.6 L1199.1,645.6 L1200.2,645.6
		L1201.3,645.6 L1202.5,645.6 L1203.6,645.7 L1204.8,645.7 L1205.9,645.7 L1207.1,645.7 L1208.2,645.7 L1209.3,645.7
		L1210.5,645.7 L1211.6,645.7 L1212.8,645.8 L1213.9,645.8 L1215.0,645.8 L1216.2,645.8 L1217.3,645.8 L1218.5,645.8
		L1219.6,645.8 L1220.8,645.8 L1221.9,645.8 L1223.0,645.9 L1224.2,645.9 L1225.3,645.9 L1226.5,645.9 L1227.6,645.9
		L1228.7,645.9 L1229.9,645.9 L1231.0,645.9 L1232.2,645.9 L1233.3,645.9 L1234.5,645.9 L1235.6,645.9 L1236.7,645.9
		L1237.9,645.9 L1239.0,645.9 L1240.2,645.9 L1241.3,645.9 L1242.4,646.0 L1243.6,646.0 L1244.7,646.0 L1245.9,646.0
		L1247.0,646.0 L1248.2,646.0 L1249.3,646.0 L1250.4,646.0 L1251.6,646.0 L1252.7,646.0 L1253.9,646.0 L1255.0,646.0
		 '/></g>
	</g>
<g fill="none" color="white" stroke="rgb(  0,   0, 255)" stroke-width="2.00" stroke-linecap="butt" stroke-linejoin="miter">
</g>
<g fill="none" color="black" stroke="currentColor" stroke-width="2.00" stroke-linecap="butt" stroke-linejoin="miter">
</g>
<g fill="none" color="black" stroke="black" stroke-width="1.00" stroke-linecap="butt" stroke-linejoin="miter">
</g>
<g fill="none" color="black" stroke="currentColor" stroke-width="1.00" stroke-linecap="butt" stroke-linejoin="miter">
	<path stroke='black'  d='M87.1,54.1 L87.1,684.0 L1255.0,684.0 L1255.0,54.1 L87.1,54.1 Z  '/></g>
<g fill="none" color="black" stroke="currentColor" stroke-width="1.00" stroke-linecap="butt" stroke-linejoin="miter">
</g>
</g>
</svg>

