# theta	likelihood
-3.14159265358979	0.0544680881742172
-2.95129083994051	0.0519148913366194
-2.77389085035867	0.0434042722205827
-2.55133448755133	0.0306383250418835
-2.3449054028997	0.0178723408538949
-2.1739563217749	0.0102127873503908
-1.95785088145079	0.00170213122506513
-1.78690178629981	0
-1.6159527192012	0.00510639367519528
-1.45790539888577	0.0195744720789598
-1.29985821883217	0.0400000097704523
-1.1353599760335	0.0765957570907744
-1.00634180689259	0.120000029311357
-0.874098176510071	0.175319146088817
-0.783785402006701	0.228085103037969
-0.670894539073867	0.305531925741276
-0.580581764570497	0.405957445964384
-0.49349459157058	0.495319150233858
-0.403181817067209	0.61361701131086
-0.332221810013526	0.707234047343926
-0.254810880476615	0.811914895629697
-0.177400091201541	0.894468086101697
-0.119341788852478	0.948936170574984
-0.0677345492484833	0.985531914194378
0.00322545780519926	1
0.0999890145299603	0.976170214662093
0.167723560342028	0.916595747616396
0.225781722429252	0.860425535618972
0.319319958174237	0.732765960205969
0.419308976140613	0.595744670456966
0.516072673127213	0.47659574376743
0.596709063905739	0.394042564398217
0.712825388080188	0.289361716112446
0.812814546308402	0.215319155859269
0.89345079682509	0.165957461360248
1.06117450086537	0.10127662284493
1.20309451497274	0.0612766130744771
1.3740435399928	0.0289361938168178
1.61272725108676	0.00765959051279286
1.77399989238198	0.00170213122506491
1.93849813518064	0.00425532806266271
2.12234900516716	0.00936172173785799
2.33845448756982	0.018723406466427
2.52875628003957	0.0297872594293505
2.71905807250931	0.0434042722205823
2.90613440373744	0.0510638257240864
3.0674071852945	0.0539179080822048
3.14159265358979	0.0536170225616842
