# theta	0.4	0.45	0.55	0.6	0.65
0	1.810E+00	1.454E+00	1.001E+00	8.553E-01	7.435E-01
0.00174532925199433	1.707E+00	1.388E+00	9.696E-01	8.328E-01	7.268E-01
0.00349065850398866	1.535E+00	1.266E+00	9.039E-01	7.829E-01	6.884E-01
0.00523598775598299	1.393E+00	1.158E+00	8.391E-01	7.317E-01	6.472E-01
0.00698131700797732	1.285E+00	1.074E+00	7.844E-01	6.869E-01	6.103E-01
0.00872664625997165	1.200E+00	1.006E+00	7.394E-01	6.496E-01	5.786E-01
0.010471975511966	1.132E+00	9.515E-01	7.021E-01	6.184E-01	5.518E-01
0.0122173047639603	1.074E+00	9.058E-01	6.707E-01	5.919E-01	5.287E-01
0.0139626340159546	1.024E+00	8.660E-01	6.437E-01	5.690E-01	5.090E-01
0.015707963267949	9.789E-01	8.303E-01	6.200E-01	5.490E-01	4.915E-01
0.0174532925199433	9.375E-01	7.982E-01	5.985E-01	5.309E-01	4.761E-01
0.0191986217719376	8.988E-01	7.684E-01	5.791E-01	5.146E-01	4.619E-01
0.020943951023932	8.627E-01	7.403E-01	5.610E-01	4.995E-01	4.490E-01
0.0226892802759263	8.284E-01	7.140E-01	5.440E-01	4.855E-01	4.371E-01
0.0244346095279206	7.959E-01	6.889E-01	5.279E-01	4.723E-01	4.256E-01
0.0261799387799149	7.651E-01	6.649E-01	5.127E-01	4.597E-01	4.149E-01
0.0279252680319093	7.355E-01	6.420E-01	4.981E-01	4.477E-01	4.047E-01
0.0296705972839036	7.073E-01	6.200E-01	4.842E-01	4.364E-01	3.949E-01
0.0314159265358979	6.802E-01	5.988E-01	4.706E-01	4.252E-01	3.855E-01
0.0331612557878923	6.543E-01	5.785E-01	4.576E-01	4.146E-01	3.764E-01
0.0349065850398866	6.295E-01	5.591E-01	4.449E-01	4.042E-01	3.676E-01
0.0523598775598299	4.326E-01	4.000E-01	3.389E-01	3.161E-01	2.925E-01
0.0698131700797732	3.063E-01	2.923E-01	2.614E-01	2.496E-01	2.350E-01
0.0872664625997165	2.247E-01	2.194E-01	2.055E-01	1.996E-01	1.910E-01
0.10471975511966	1.707E-01	1.694E-01	1.645E-01	1.617E-01	1.573E-01
0.139626340159546	1.077E-01	1.093E-01	1.112E-01	1.112E-01	1.110E-01
0.174532925199433	7.465E-02	7.668E-02	7.992E-02	8.120E-02	8.197E-02
0.20943951023932	5.589E-02	5.750E-02	6.051E-02	6.210E-02	6.301E-02
0.244346095279206	4.431E-02	4.543E-02	4.775E-02	4.922E-02	5.006E-02
0.279252680319093	3.644E-02	3.730E-02	3.893E-02	4.008E-02	4.082E-02
0.314159265358979	3.099E-02	3.145E-02	3.266E-02	3.329E-02	3.403E-02
0.349065850398866	2.687E-02	2.695E-02	2.783E-02	2.809E-02	2.883E-02
0.383972435438752	2.328E-02	2.332E-02	2.384E-02	2.411E-02	2.460E-02
0.418879020478639	2.031E-02	2.029E-02	2.058E-02	2.086E-02	2.112E-02
0.453785605518526	1.786E-02	1.781E-02	1.792E-02	1.811E-02	1.827E-02
0.488692190558412	1.583E-02	1.565E-02	1.573E-02	1.578E-02	1.587E-02
0.523598775598299	1.410E-02	1.382E-02	1.389E-02	1.378E-02	1.388E-02
0.558505360638185	1.248E-02	1.228E-02	1.223E-02	1.212E-02	1.220E-02
0.593411945678072	1.102E-02	1.090E-02	1.075E-02	1.072E-02	1.070E-02
0.628318530717959	9.792E-03	9.666E-03	9.495E-03	9.472E-03	9.396E-03
0.663225115757845	8.702E-03	8.543E-03	8.416E-03	8.365E-03	8.274E-03
0.698131700797732	7.783E-03	7.598E-03	7.495E-03	7.397E-03	7.331E-03
0.733038285837618	6.953E-03	6.849E-03	6.666E-03	6.566E-03	6.517E-03
0.767944870877505	6.185E-03	6.105E-03	5.922E-03	5.842E-03	5.775E-03
0.802851455917391	5.502E-03	5.407E-03	5.264E-03	5.217E-03	5.119E-03
0.837758040957278	4.925E-03	4.839E-03	4.698E-03	4.648E-03	4.556E-03
0.872664625997165	4.447E-03	4.367E-03	4.223E-03	4.140E-03	4.081E-03
0.907571211037051	3.969E-03	3.928E-03	3.777E-03	3.712E-03	3.656E-03
0.942477796076938	3.534E-03	3.524E-03	3.362E-03	3.347E-03	3.274E-03
0.977384381116825	3.190E-03	3.152E-03	3.031E-03	3.000E-03	2.923E-03
1.01229096615671	2.879E-03	2.827E-03	2.741E-03	2.685E-03	2.629E-03
1.0471975511966	2.613E-03	2.580E-03	2.475E-03	2.414E-03	2.385E-03
1.08210413623648	2.327E-03	2.342E-03	2.216E-03	2.205E-03	2.157E-03
1.11701072127637	2.106E-03	2.104E-03	2.009E-03	2.005E-03	1.943E-03
1.15191730631626	1.923E-03	1.899E-03	1.829E-03	1.806E-03	1.761E-03
1.18682389135614	1.745E-03	1.743E-03	1.666E-03	1.633E-03	1.611E-03
1.22173047639603	1.584E-03	1.596E-03	1.515E-03	1.498E-03	1.468E-03
1.25663706143592	1.443E-03	1.437E-03	1.381E-03	1.377E-03	1.337E-03
1.2915436464758	1.321E-03	1.312E-03	1.268E-03	1.254E-03	1.224E-03
1.32645023151569	1.224E-03	1.213E-03	1.172E-03	1.151E-03	1.128E-03
1.36135681655558	1.111E-03	1.129E-03	1.069E-03	1.071E-03	1.045E-03
1.39626340159546	1.024E-03	1.034E-03	9.875E-04	9.900E-04	9.656E-04
1.43116998663535	9.564E-04	9.452E-04	9.214E-04	9.064E-04	8.905E-04
1.46607657167524	8.950E-04	8.743E-04	8.629E-04	8.435E-04	8.294E-04
1.50098315671512	8.187E-04	8.297E-04	7.974E-04	7.951E-04	7.774E-04
1.53588974175501	7.696E-04	7.726E-04	7.457E-04	7.470E-04	7.289E-04
1.5707963267949	7.196E-04	7.181E-04	7.016E-04	6.954E-04	6.876E-04
1.60570291183478	6.786E-04	6.838E-04	6.641E-04	6.592E-04	6.494E-04
1.64060949687467	6.412E-04	6.545E-04	6.286E-04	6.282E-04	6.155E-04
1.67551608191456	6.183E-04	6.151E-04	6.044E-04	5.921E-04	5.884E-04
1.71042266695444	5.897E-04	5.873E-04	5.793E-04	5.584E-04	5.639E-04
1.74532925199433	5.629E-04	5.668E-04	5.523E-04	5.423E-04	5.389E-04
1.78023583703422	5.400E-04	5.489E-04	5.273E-04	5.291E-04	5.182E-04
1.8151424220741	5.259E-04	5.322E-04	5.140E-04	5.085E-04	5.053E-04
1.85004900711399	5.105E-04	5.156E-04	5.002E-04	4.917E-04	4.911E-04
1.88495559215388	4.957E-04	4.986E-04	4.839E-04	4.841E-04	4.751E-04
1.91986217719376	4.761E-04	4.896E-04	4.694E-04	4.742E-04	4.660E-04
1.95476876223365	4.636E-04	4.854E-04	4.616E-04	4.614E-04	4.613E-04
1.98967534727354	4.589E-04	4.670E-04	4.558E-04	4.574E-04	4.513E-04
2.02458193231342	4.456E-04	4.536E-04	4.488E-04	4.565E-04	4.433E-04
2.05948851735331	4.398E-04	4.484E-04	4.447E-04	4.528E-04	4.412E-04
2.0943951023932	4.465E-04	4.463E-04	4.500E-04	4.497E-04	4.453E-04
2.12930168743308	4.426E-04	4.481E-04	4.523E-04	4.551E-04	4.504E-04
2.16420827247297	4.513E-04	4.609E-04	4.594E-04	4.616E-04	4.595E-04
2.19911485751286	4.672E-04	4.708E-04	4.755E-04	4.717E-04	4.732E-04
2.23402144255274	4.808E-04	4.829E-04	4.947E-04	4.858E-04	4.880E-04
2.26892802759263	4.995E-04	5.064E-04	5.121E-04	5.069E-04	5.057E-04
2.30383461263251	5.202E-04	5.348E-04	5.360E-04	5.388E-04	5.315E-04
2.3387411976724	5.520E-04	5.779E-04	5.691E-04	5.785E-04	5.656E-04
2.37364778271229	6.058E-04	6.205E-04	6.156E-04	6.159E-04	6.049E-04
2.40855436775218	6.742E-04	6.670E-04	6.735E-04	6.620E-04	6.488E-04
2.44346095279206	7.506E-04	7.415E-04	7.345E-04	7.262E-04	7.024E-04
2.47836753783195	8.415E-04	8.311E-04	8.079E-04	8.012E-04	7.690E-04
2.51327412287183	9.458E-04	9.258E-04	8.908E-04	8.772E-04	8.400E-04
2.54818070791172	1.074E-03	1.050E-03	9.777E-04	9.584E-04	9.161E-04
2.58308729295161	1.166E-03	1.148E-03	1.052E-03	1.028E-03	9.782E-04
2.61799387799149	1.261E-03	1.211E-03	1.129E-03	1.081E-03	1.039E-03
2.65290046303138	1.348E-03	1.295E-03	1.201E-03	1.129E-03	1.100E-03
2.68780704807127	1.379E-03	1.358E-03	1.252E-03	1.186E-03	1.149E-03
2.72271363311115	1.378E-03	1.379E-03	1.271E-03	1.244E-03	1.189E-03
2.75762021815104	1.396E-03	1.418E-03	1.293E-03	1.297E-03	1.239E-03
2.79252680319093	1.441E-03	1.466E-03	1.352E-03	1.344E-03	1.282E-03
2.82743338823081	1.525E-03	1.523E-03	1.440E-03	1.394E-03	1.341E-03
2.8623399732707	1.634E-03	1.607E-03	1.521E-03	1.444E-03	1.406E-03
2.89724655831059	1.700E-03	1.689E-03	1.562E-03	1.508E-03	1.444E-03
2.93215314335047	1.762E-03	1.743E-03	1.566E-03	1.545E-03	1.436E-03
2.96705972839036	1.741E-03	1.748E-03	1.498E-03	1.524E-03	1.367E-03
3.00196631343025	1.692E-03	1.696E-03	1.393E-03	1.418E-03	1.269E-03
3.03687289847013	1.702E-03	1.657E-03	1.354E-03	1.314E-03	1.213E-03
3.07177948351002	1.847E-03	1.764E-03	1.457E-03	1.374E-03	1.291E-03
3.10668606854991	2.253E-03	2.129E-03	1.781E-03	1.610E-03	1.578E-03
3.14159265358979	2.865E-03	2.611E-03	2.136E-03	1.851E-03	1.869E-03
