# theta	0.4	0.45	0.55	0.6	0.65
0	3.420E-01	2.727E-01	1.847E-01	1.559E-01	1.333E-01
0.00174532925199433	3.357E-01	2.688E-01	1.829E-01	1.546E-01	1.323E-01
0.00349065850398866	3.182E-01	2.575E-01	1.777E-01	1.509E-01	1.296E-01
0.00523598775598299	2.925E-01	2.406E-01	1.696E-01	1.450E-01	1.252E-01
0.00698131700797732	2.629E-01	2.204E-01	1.593E-01	1.374E-01	1.196E-01
0.00872664625997165	2.336E-01	1.993E-01	1.479E-01	1.289E-01	1.130E-01
0.010471975511966	2.071E-01	1.791E-01	1.362E-01	1.198E-01	1.059E-01
0.0122173047639603	1.848E-01	1.611E-01	1.248E-01	1.108E-01	9.872E-02
0.0139626340159546	1.667E-01	1.459E-01	1.144E-01	1.022E-01	9.169E-02
0.015707963267949	1.521E-01	1.332E-01	1.051E-01	9.433E-02	8.509E-02
0.0174532925199433	1.400E-01	1.228E-01	9.705E-02	8.735E-02	7.906E-02
0.0191986217719376	1.299E-01	1.140E-01	9.017E-02	8.125E-02	7.367E-02
0.020943951023932	1.212E-01	1.065E-01	8.425E-02	7.594E-02	6.891E-02
0.0226892802759263	1.138E-01	9.996E-02	7.916E-02	7.134E-02	6.475E-02
0.0244346095279206	1.075E-01	9.429E-02	7.468E-02	6.732E-02	6.110E-02
0.0261799387799149	1.020E-01	8.936E-02	7.076E-02	6.377E-02	5.786E-02
0.0279252680319093	9.734E-02	8.506E-02	6.722E-02	6.061E-02	5.497E-02
0.0296705972839036	9.323E-02	8.132E-02	6.407E-02	5.774E-02	5.238E-02
0.0314159265358979	8.958E-02	7.801E-02	6.125E-02	5.518E-02	5.004E-02
0.0331612557878923	8.639E-02	7.505E-02	5.874E-02	5.286E-02	4.791E-02
0.0349065850398866	8.353E-02	7.243E-02	5.650E-02	5.078E-02	4.598E-02
0.0523598775598299	6.665E-02	5.668E-02	4.273E-02	3.785E-02	3.383E-02
0.0698131700797732	5.888E-02	4.950E-02	3.642E-02	3.185E-02	2.812E-02
0.0872664625997165	5.405E-02	4.522E-02	3.279E-02	2.845E-02	2.489E-02
0.10471975511966	5.037E-02	4.210E-02	3.034E-02	2.618E-02	2.278E-02
0.139626340159546	4.444E-02	3.728E-02	2.682E-02	2.306E-02	1.996E-02
0.174532925199433	3.944E-02	3.324E-02	2.406E-02	2.070E-02	1.790E-02
0.20943951023932	3.496E-02	2.967E-02	2.164E-02	1.866E-02	1.616E-02
0.244346095279206	3.097E-02	2.643E-02	1.944E-02	1.682E-02	1.460E-02
0.279252680319093	2.740E-02	2.352E-02	1.743E-02	1.513E-02	1.317E-02
0.314159265358979	2.422E-02	2.088E-02	1.561E-02	1.359E-02	1.186E-02
0.349065850398866	2.138E-02	1.852E-02	1.394E-02	1.218E-02	1.066E-02
0.383972435438752	1.885E-02	1.640E-02	1.244E-02	1.090E-02	9.569E-03
0.418879020478639	1.662E-02	1.451E-02	1.108E-02	9.741E-03	8.576E-03
0.453785605518526	1.465E-02	1.284E-02	9.864E-03	8.698E-03	7.678E-03
0.488692190558412	1.291E-02	1.135E-02	8.779E-03	7.762E-03	6.871E-03
0.523598775598299	1.138E-02	1.004E-02	7.810E-03	6.923E-03	6.145E-03
0.558505360638185	1.004E-02	8.885E-03	6.950E-03	6.176E-03	5.496E-03
0.593411945678072	8.866E-03	7.867E-03	6.184E-03	5.512E-03	4.914E-03
0.628318530717959	7.834E-03	6.968E-03	5.506E-03	4.920E-03	4.398E-03
0.663225115757845	6.931E-03	6.179E-03	4.906E-03	4.393E-03	3.935E-03
0.698131700797732	6.138E-03	5.487E-03	4.376E-03	3.929E-03	3.524E-03
0.733038285837618	5.444E-03	4.877E-03	3.905E-03	3.514E-03	3.162E-03
0.767944870877505	4.837E-03	4.342E-03	3.492E-03	3.147E-03	2.836E-03
0.802851455917391	4.303E-03	3.870E-03	3.123E-03	2.822E-03	2.547E-03
0.837758040957278	3.834E-03	3.455E-03	2.799E-03	2.533E-03	2.291E-03
0.872664625997165	3.423E-03	3.090E-03	2.512E-03	2.276E-03	2.062E-03
0.907571211037051	3.061E-03	2.770E-03	2.257E-03	2.049E-03	1.860E-03
0.942477796076938	2.744E-03	2.484E-03	2.032E-03	1.847E-03	1.679E-03
0.977384381116825	2.465E-03	2.233E-03	1.832E-03	1.668E-03	1.518E-03
1.01229096615671	2.218E-03	2.012E-03	1.655E-03	1.508E-03	1.374E-03
1.0471975511966	2.000E-03	1.817E-03	1.497E-03	1.366E-03	1.247E-03
1.08210413623648	1.807E-03	1.644E-03	1.357E-03	1.240E-03	1.133E-03
1.11701072127637	1.636E-03	1.490E-03	1.232E-03	1.127E-03	1.031E-03
1.15191730631626	1.485E-03	1.353E-03	1.121E-03	1.027E-03	9.402E-04
1.18682389135614	1.351E-03	1.232E-03	1.022E-03	9.373E-04	8.588E-04
1.22173047639603	1.233E-03	1.124E-03	9.344E-04	8.571E-04	7.862E-04
1.25663706143592	1.127E-03	1.028E-03	8.558E-04	7.858E-04	7.209E-04
1.2915436464758	1.033E-03	9.432E-04	7.856E-04	7.218E-04	6.630E-04
1.32645023151569	9.496E-04	8.672E-04	7.229E-04	6.646E-04	6.109E-04
1.36135681655558	8.746E-04	7.997E-04	6.668E-04	6.137E-04	5.644E-04
1.39626340159546	8.085E-04	7.388E-04	6.168E-04	5.678E-04	5.225E-04
1.43116998663535	7.495E-04	6.845E-04	5.720E-04	5.267E-04	4.849E-04
1.46607657167524	6.968E-04	6.364E-04	5.322E-04	4.901E-04	4.511E-04
1.50098315671512	6.495E-04	5.933E-04	4.962E-04	4.573E-04	4.214E-04
1.53588974175501	6.070E-04	5.549E-04	4.639E-04	4.279E-04	3.943E-04
1.5707963267949	5.693E-04	5.205E-04	4.354E-04	4.016E-04	3.703E-04
1.60570291183478	5.358E-04	4.897E-04	4.098E-04	3.781E-04	3.487E-04
1.64060949687467	5.062E-04	4.624E-04	3.871E-04	3.572E-04	3.296E-04
1.67551608191456	4.799E-04	4.380E-04	3.669E-04	3.384E-04	3.123E-04
1.71042266695444	4.564E-04	4.163E-04	3.488E-04	3.217E-04	2.969E-04
1.74532925199433	4.353E-04	3.972E-04	3.328E-04	3.072E-04	2.834E-04
1.78023583703422	4.165E-04	3.802E-04	3.186E-04	2.941E-04	2.716E-04
1.8151424220741	4.001E-04	3.655E-04	3.060E-04	2.828E-04	2.613E-04
1.85004900711399	3.861E-04	3.525E-04	2.954E-04	2.728E-04	2.521E-04
1.88495559215388	3.740E-04	3.414E-04	2.860E-04	2.640E-04	2.441E-04
1.91986217719376	3.636E-04	3.318E-04	2.777E-04	2.565E-04	2.373E-04
1.95476876223365	3.546E-04	3.235E-04	2.710E-04	2.503E-04	2.315E-04
1.98967534727354	3.474E-04	3.168E-04	2.653E-04	2.451E-04	2.267E-04
2.02458193231342	3.415E-04	3.115E-04	2.605E-04	2.409E-04	2.227E-04
2.05948851735331	3.376E-04	3.073E-04	2.570E-04	2.375E-04	2.195E-04
2.0943951023932	3.347E-04	3.046E-04	2.545E-04	2.349E-04	2.172E-04
2.12930168743308	3.330E-04	3.029E-04	2.528E-04	2.333E-04	2.157E-04
2.16420827247297	3.329E-04	3.026E-04	2.519E-04	2.326E-04	2.149E-04
2.19911485751286	3.341E-04	3.034E-04	2.520E-04	2.326E-04	2.149E-04
2.23402144255274	3.367E-04	3.052E-04	2.531E-04	2.333E-04	2.155E-04
2.26892802759263	3.409E-04	3.083E-04	2.550E-04	2.348E-04	2.167E-04
2.30383461263251	3.462E-04	3.124E-04	2.576E-04	2.370E-04	2.184E-04
2.3387411976724	3.530E-04	3.176E-04	2.611E-04	2.400E-04	2.209E-04
2.37364778271229	3.611E-04	3.242E-04	2.655E-04	2.438E-04	2.240E-04
2.40855436775218	3.707E-04	3.319E-04	2.705E-04	2.483E-04	2.278E-04
2.44346095279206	3.820E-04	3.409E-04	2.767E-04	2.533E-04	2.323E-04
2.47836753783195	3.950E-04	3.513E-04	2.836E-04	2.592E-04	2.372E-04
2.51327412287183	4.090E-04	3.627E-04	2.912E-04	2.657E-04	2.428E-04
2.54818070791172	4.248E-04	3.751E-04	2.996E-04	2.728E-04	2.488E-04
2.58308729295161	4.417E-04	3.886E-04	3.087E-04	2.803E-04	2.554E-04
2.61799387799149	4.599E-04	4.028E-04	3.184E-04	2.887E-04	2.626E-04
2.65290046303138	4.786E-04	4.180E-04	3.284E-04	2.973E-04	2.703E-04
2.68780704807127	4.972E-04	4.331E-04	3.386E-04	3.063E-04	2.782E-04
2.72271363311115	5.143E-04	4.470E-04	3.485E-04	3.157E-04	2.861E-04
2.75762021815104	5.298E-04	4.603E-04	3.580E-04	3.247E-04	2.938E-04
2.79252680319093	5.434E-04	4.715E-04	3.671E-04	3.320E-04	3.014E-04
2.82743338823081	5.525E-04	4.793E-04	3.741E-04	3.379E-04	3.075E-04
2.8623399732707	5.547E-04	4.814E-04	3.776E-04	3.417E-04	3.112E-04
2.89724655831059	5.479E-04	4.782E-04	3.778E-04	3.443E-04	3.138E-04
2.93215314335047	5.354E-04	4.722E-04	3.768E-04	3.457E-04	3.162E-04
2.96705972839036	5.233E-04	4.663E-04	3.769E-04	3.475E-04	3.191E-04
3.00196631343025	5.194E-04	4.653E-04	3.803E-04	3.511E-04	3.232E-04
3.03687289847013	5.286E-04	4.741E-04	3.883E-04	3.580E-04	3.301E-04
3.07177948351002	5.502E-04	4.914E-04	3.991E-04	3.666E-04	3.377E-04
3.10668606854991	5.731E-04	5.085E-04	4.088E-04	3.734E-04	3.441E-04
3.14159265358979	5.862E-04	5.189E-04	4.156E-04	3.786E-04	3.494E-04
