# theta	0.4	0.45	0.55	0.6	0.65
0	1.913E+00	1.528E+00	1.050E+00	8.981E-01	7.728E-01
0.00174532925199433	1.782E+00	1.442E+00	1.009E+00	8.682E-01	7.509E-01
0.00349065850398866	1.587E+00	1.301E+00	9.300E-01	8.077E-01	7.041E-01
0.00523598775598299	1.440E+00	1.188E+00	8.599E-01	7.511E-01	6.580E-01
0.00698131700797732	1.331E+00	1.102E+00	8.040E-01	7.048E-01	6.191E-01
0.00872664625997165	1.245E+00	1.035E+00	7.590E-01	6.670E-01	5.871E-01
0.010471975511966	1.173E+00	9.786E-01	7.218E-01	6.355E-01	5.604E-01
0.0122173047639603	1.110E+00	9.300E-01	6.899E-01	6.087E-01	5.375E-01
0.0139626340159546	1.054E+00	8.865E-01	6.617E-01	5.850E-01	5.174E-01
0.015707963267949	1.002E+00	8.466E-01	6.361E-01	5.637E-01	4.994E-01
0.0174532925199433	9.533E-01	8.094E-01	6.125E-01	5.441E-01	4.830E-01
0.0191986217719376	9.074E-01	7.744E-01	5.904E-01	5.258E-01	4.677E-01
0.020943951023932	8.638E-01	7.411E-01	5.694E-01	5.085E-01	4.533E-01
0.0226892802759263	8.226E-01	7.095E-01	5.494E-01	4.922E-01	4.396E-01
0.0244346095279206	7.834E-01	6.793E-01	5.304E-01	4.764E-01	4.267E-01
0.0261799387799149	7.462E-01	6.505E-01	5.120E-01	4.614E-01	4.141E-01
0.0279252680319093	7.108E-01	6.229E-01	4.945E-01	4.469E-01	4.022E-01
0.0296705972839036	6.773E-01	5.967E-01	4.775E-01	4.329E-01	3.906E-01
0.0314159265358979	6.454E-01	5.716E-01	4.612E-01	4.194E-01	3.794E-01
0.0331612557878923	6.153E-01	5.476E-01	4.454E-01	4.064E-01	3.685E-01
0.0349065850398866	5.867E-01	5.249E-01	4.303E-01	3.938E-01	3.581E-01
0.0523598775598299	3.714E-01	3.479E-01	3.067E-01	2.890E-01	2.694E-01
0.0698131700797732	2.459E-01	2.387E-01	2.232E-01	2.154E-01	2.054E-01
0.0872664625997165	1.710E-01	1.708E-01	1.669E-01	1.640E-01	1.597E-01
0.10471975511966	1.247E-01	1.271E-01	1.283E-01	1.278E-01	1.267E-01
0.139626340159546	7.497E-02	7.802E-02	8.180E-02	8.326E-02	8.442E-02
0.174532925199433	5.068E-02	5.301E-02	5.665E-02	5.862E-02	5.999E-02
0.20943951023932	3.780E-02	3.929E-02	4.206E-02	4.386E-02	4.504E-02
0.244346095279206	2.995E-02	3.101E-02	3.297E-02	3.435E-02	3.529E-02
0.279252680319093	2.486E-02	2.537E-02	2.690E-02	2.783E-02	2.857E-02
0.314159265358979	2.122E-02	2.141E-02	2.255E-02	2.306E-02	2.374E-02
0.349065850398866	1.836E-02	1.851E-02	1.920E-02	1.947E-02	2.010E-02
0.383972435438752	1.589E-02	1.605E-02	1.646E-02	1.674E-02	1.712E-02
0.418879020478639	1.393E-02	1.394E-02	1.425E-02	1.443E-02	1.467E-02
0.453785605518526	1.221E-02	1.220E-02	1.241E-02	1.252E-02	1.268E-02
0.488692190558412	1.077E-02	1.070E-02	1.086E-02	1.091E-02	1.102E-02
0.523598775598299	9.545E-03	9.494E-03	9.550E-03	9.526E-03	9.677E-03
0.558505360638185	8.387E-03	8.399E-03	8.385E-03	8.376E-03	8.474E-03
0.593411945678072	7.414E-03	7.360E-03	7.377E-03	7.369E-03	7.403E-03
0.628318530717959	6.536E-03	6.516E-03	6.466E-03	6.504E-03	6.501E-03
0.663225115757845	5.751E-03	5.752E-03	5.709E-03	5.723E-03	5.718E-03
0.698131700797732	5.166E-03	5.109E-03	5.092E-03	5.031E-03	5.060E-03
0.733038285837618	4.564E-03	4.557E-03	4.497E-03	4.481E-03	4.472E-03
0.767944870877505	4.055E-03	4.048E-03	3.972E-03	3.978E-03	3.960E-03
0.802851455917391	3.567E-03	3.563E-03	3.516E-03	3.525E-03	3.490E-03
0.837758040957278	3.218E-03	3.172E-03	3.146E-03	3.122E-03	3.094E-03
0.872664625997165	2.871E-03	2.854E-03	2.803E-03	2.789E-03	2.768E-03
0.907571211037051	2.548E-03	2.545E-03	2.489E-03	2.493E-03	2.469E-03
0.942477796076938	2.266E-03	2.258E-03	2.218E-03	2.238E-03	2.185E-03
0.977384381116825	2.041E-03	2.017E-03	1.992E-03	1.993E-03	1.953E-03
1.01229096615671	1.840E-03	1.806E-03	1.795E-03	1.771E-03	1.762E-03
1.0471975511966	1.645E-03	1.640E-03	1.612E-03	1.601E-03	1.583E-03
1.08210413623648	1.480E-03	1.455E-03	1.441E-03	1.461E-03	1.415E-03
1.11701072127637	1.317E-03	1.310E-03	1.292E-03	1.306E-03	1.277E-03
1.15191730631626	1.200E-03	1.185E-03	1.178E-03	1.167E-03	1.158E-03
1.18682389135614	1.100E-03	1.072E-03	1.076E-03	1.069E-03	1.049E-03
1.22173047639603	9.777E-04	9.712E-04	9.663E-04	9.770E-04	9.513E-04
1.25663706143592	8.851E-04	8.803E-04	8.717E-04	8.785E-04	8.628E-04
1.2915436464758	8.107E-04	7.972E-04	8.086E-04	7.972E-04	7.893E-04
1.32645023151569	7.485E-04	7.357E-04	7.394E-04	7.381E-04	7.260E-04
1.36135681655558	6.683E-04	6.723E-04	6.669E-04	6.846E-04	6.629E-04
1.39626340159546	6.060E-04	6.161E-04	6.142E-04	6.233E-04	6.095E-04
1.43116998663535	5.793E-04	5.701E-04	5.793E-04	5.693E-04	5.663E-04
1.46607657167524	5.297E-04	5.308E-04	5.364E-04	5.277E-04	5.283E-04
1.50098315671512	4.779E-04	4.874E-04	4.898E-04	4.997E-04	4.881E-04
1.53588974175501	4.508E-04	4.570E-04	4.590E-04	4.644E-04	4.560E-04
1.5707963267949	4.274E-04	4.267E-04	4.390E-04	4.288E-04	4.291E-04
1.60570291183478	4.017E-04	4.013E-04	4.086E-04	4.086E-04	4.059E-04
1.64060949687467	3.699E-04	3.794E-04	3.826E-04	3.932E-04	3.846E-04
1.67551608191456	3.603E-04	3.636E-04	3.708E-04	3.666E-04	3.693E-04
1.71042266695444	3.561E-04	3.456E-04	3.619E-04	3.471E-04	3.547E-04
1.74532925199433	3.302E-04	3.318E-04	3.404E-04	3.401E-04	3.386E-04
1.78023583703422	3.123E-04	3.213E-04	3.209E-04	3.345E-04	3.256E-04
1.8151424220741	3.082E-04	3.149E-04	3.164E-04	3.212E-04	3.200E-04
1.85004900711399	3.061E-04	3.069E-04	3.138E-04	3.111E-04	3.130E-04
1.88495559215388	2.913E-04	3.009E-04	2.988E-04	3.078E-04	3.039E-04
1.91986217719376	2.809E-04	2.921E-04	2.926E-04	3.067E-04	2.964E-04
1.95476876223365	2.834E-04	2.876E-04	2.914E-04	3.045E-04	2.948E-04
1.98967534727354	2.818E-04	2.877E-04	2.897E-04	2.964E-04	2.944E-04
2.02458193231342	2.781E-04	2.777E-04	2.900E-04	2.965E-04	2.913E-04
2.05948851735331	2.861E-04	2.743E-04	2.945E-04	2.985E-04	2.897E-04
2.0943951023932	2.829E-04	2.845E-04	2.958E-04	2.978E-04	2.975E-04
2.12930168743308	2.839E-04	2.852E-04	2.993E-04	3.053E-04	3.037E-04
2.16420827247297	2.899E-04	2.949E-04	3.079E-04	3.147E-04	3.113E-04
2.19911485751286	2.974E-04	3.106E-04	3.180E-04	3.188E-04	3.276E-04
2.23402144255274	3.142E-04	3.208E-04	3.361E-04	3.332E-04	3.432E-04
2.26892802759263	3.277E-04	3.383E-04	3.540E-04	3.571E-04	3.575E-04
2.30383461263251	3.514E-04	3.580E-04	3.777E-04	3.819E-04	3.791E-04
2.3387411976724	3.771E-04	3.925E-04	4.018E-04	4.200E-04	4.108E-04
2.37364778271229	4.328E-04	4.386E-04	4.498E-04	4.559E-04	4.485E-04
2.40855436775218	4.946E-04	4.912E-04	5.058E-04	4.923E-04	4.925E-04
2.44346095279206	5.608E-04	5.585E-04	5.541E-04	5.513E-04	5.407E-04
2.47836753783195	6.413E-04	6.345E-04	6.183E-04	6.150E-04	5.904E-04
2.51327412287183	7.337E-04	6.994E-04	6.806E-04	6.653E-04	6.399E-04
2.54818070791172	7.900E-04	7.819E-04	7.191E-04	7.156E-04	6.852E-04
2.58308729295161	8.448E-04	8.122E-04	7.703E-04	7.614E-04	7.184E-04
2.61799387799149	8.914E-04	8.260E-04	8.081E-04	7.685E-04	7.409E-04
2.65290046303138	9.006E-04	8.496E-04	8.312E-04	7.860E-04	7.668E-04
2.68780704807127	8.768E-04	8.577E-04	8.191E-04	8.129E-04	7.841E-04
2.72271363311115	8.600E-04	8.452E-04	8.146E-04	8.177E-04	7.857E-04
2.75762021815104	8.611E-04	8.591E-04	8.336E-04	8.356E-04	7.933E-04
2.79252680319093	9.093E-04	8.792E-04	8.613E-04	8.702E-04	8.288E-04
2.82743338823081	9.328E-04	9.287E-04	9.081E-04	9.037E-04	8.823E-04
2.8623399732707	1.026E-03	1.004E-03	9.942E-04	9.657E-04	9.484E-04
2.89724655831059	1.116E-03	1.075E-03	1.071E-03	1.035E-03	9.974E-04
2.93215314335047	1.168E-03	1.153E-03	1.113E-03	1.108E-03	1.037E-03
2.96705972839036	1.222E-03	1.180E-03	1.118E-03	1.131E-03	1.019E-03
3.00196631343025	1.222E-03	1.161E-03	1.078E-03	1.071E-03	9.468E-04
3.03687289847013	1.344E-03	1.166E-03	1.088E-03	9.866E-04	8.998E-04
3.07177948351002	1.397E-03	1.252E-03	1.144E-03	1.031E-03	9.662E-04
3.10668606854991	1.553E-03	1.530E-03	1.350E-03	1.307E-03	1.204E-03
3.14159265358979	1.976E-03	1.940E-03	1.663E-03	1.617E-03	1.477E-03
