# theta	likelihood
-3.14159265358979	0
-2.85163545884113	0.00554672735021744
-2.55466317289157	0.0301109075698692
-2.30913490995552	0.0649762140411382
-2.07296010064355	0.108557847130224
-1.85783056900601	0.166402534187345
-1.64503942183532	0.239302698818762
-1.48135391321129	0.300316937564761
-1.32234517352096	0.373217102196177
-1.16801306235877	0.451663994177811
-1.00432755373474	0.541996812044862
-0.87571746109958	0.622028522691784
-0.763475989529609	0.691759107087089
-0.609144018772986	0.782091915438395
-0.440781741215247	0.870839933671646
-0.312171648580091	0.928684625486639
-0.181223241680865	0.975435815022476
-0.0175377330568312	1
0.132117609171651	0.990491283081027
0.256050932873102	0.961172737265081
0.375307487640849	0.909667191648693
0.475857107079339	0.861331216752673
0.604467199714495	0.788431056879129
0.730738837680017	0.713946111645402
0.857010616051103	0.638668776110518
0.959898549753663	0.578446918149931
1.07681679025734	0.505546753518514
1.18204317862953	0.451663994177811
1.28726956700173	0.396196482782029
1.39249595537393	0.344690946681386
1.53981298333834	0.284469083962926
1.69414509450052	0.218700446315527
1.87186076952011	0.163232934919745
2.06360661093524	0.115689374114242
2.23664565742669	0.0768620923478337
2.4634669148307	0.0412044098490255
2.6832732294425	0.0198098288969735
2.87501907085763	0.00792390301155632
3.14159265358979	0.00316955168887811
