# theta	0.4	0.45	0.55	0.6	0.65
0	3.196E+00	2.545E+00	1.722E+00	1.453E+00	1.243E+00
0.00174532925199433	3.133E+00	2.506E+00	1.704E+00	1.440E+00	1.234E+00
0.00349065850398866	2.958E+00	2.393E+00	1.652E+00	1.403E+00	1.206E+00
0.00523598775598299	2.701E+00	2.223E+00	1.571E+00	1.344E+00	1.163E+00
0.00698131700797732	2.406E+00	2.022E+00	1.468E+00	1.269E+00	1.106E+00
0.00872664625997165	2.113E+00	1.811E+00	1.354E+00	1.183E+00	1.041E+00
0.010471975511966	1.848E+00	1.609E+00	1.237E+00	1.092E+00	9.699E-01
0.0122173047639603	1.625E+00	1.430E+00	1.123E+00	1.002E+00	8.981E-01
0.0139626340159546	1.445E+00	1.278E+00	1.019E+00	9.167E-01	8.278E-01
0.015707963267949	1.299E+00	1.151E+00	9.263E-01	8.383E-01	7.619E-01
0.0174532925199433	1.178E+00	1.047E+00	8.462E-01	7.686E-01	7.017E-01
0.0191986217719376	1.078E+00	9.596E-01	7.775E-01	7.077E-01	6.479E-01
0.020943951023932	9.918E-01	8.848E-01	7.187E-01	6.548E-01	6.004E-01
0.0226892802759263	9.183E-01	8.202E-01	6.679E-01	6.089E-01	5.589E-01
0.0244346095279206	8.557E-01	7.639E-01	6.234E-01	5.689E-01	5.225E-01
0.0261799387799149	8.020E-01	7.151E-01	5.842E-01	5.335E-01	4.903E-01
0.0279252680319093	7.557E-01	6.726E-01	5.492E-01	5.020E-01	4.615E-01
0.0296705972839036	7.154E-01	6.356E-01	5.179E-01	4.736E-01	4.357E-01
0.0314159265358979	6.796E-01	6.030E-01	4.901E-01	4.481E-01	4.125E-01
0.0331612557878923	6.484E-01	5.741E-01	4.653E-01	4.251E-01	3.914E-01
0.0349065850398866	6.206E-01	5.484E-01	4.431E-01	4.045E-01	3.722E-01
0.0523598775598299	4.613E-01	3.972E-01	3.088E-01	2.779E-01	2.527E-01
0.0698131700797732	3.939E-01	3.330E-01	2.498E-01	2.212E-01	1.981E-01
0.0872664625997165	3.567E-01	2.983E-01	2.183E-01	1.909E-01	1.687E-01
0.10471975511966	3.312E-01	2.756E-01	1.987E-01	1.722E-01	1.507E-01
0.139626340159546	2.940E-01	2.442E-01	1.738E-01	1.493E-01	1.293E-01
0.174532925199433	2.643E-01	2.200E-01	1.565E-01	1.340E-01	1.155E-01
0.20943951023932	2.381E-01	1.991E-01	1.421E-01	1.217E-01	1.048E-01
0.244346095279206	2.144E-01	1.800E-01	1.292E-01	1.109E-01	9.558E-02
0.279252680319093	1.928E-01	1.626E-01	1.175E-01	1.010E-01	8.721E-02
0.314159265358979	1.731E-01	1.466E-01	1.066E-01	9.191E-02	7.951E-02
0.349065850398866	1.553E-01	1.321E-01	9.667E-02	8.353E-02	7.241E-02
0.383972435438752	1.392E-01	1.188E-01	8.749E-02	7.580E-02	6.585E-02
0.418879020478639	1.247E-01	1.068E-01	7.909E-02	6.871E-02	5.981E-02
0.453785605518526	1.117E-01	9.596E-02	7.144E-02	6.222E-02	5.429E-02
0.488692190558412	1.000E-01	8.618E-02	6.449E-02	5.629E-02	4.924E-02
0.523598775598299	8.957E-02	7.736E-02	5.820E-02	5.092E-02	4.463E-02
0.558505360638185	8.024E-02	6.950E-02	5.252E-02	4.605E-02	4.045E-02
0.593411945678072	7.194E-02	6.243E-02	4.738E-02	4.163E-02	3.664E-02
0.628318530717959	6.453E-02	5.612E-02	4.276E-02	3.765E-02	3.320E-02
0.663225115757845	5.791E-02	5.047E-02	3.862E-02	3.407E-02	3.008E-02
0.698131700797732	5.203E-02	4.542E-02	3.489E-02	3.083E-02	2.727E-02
0.733038285837618	4.681E-02	4.095E-02	3.153E-02	2.791E-02	2.474E-02
0.767944870877505	4.214E-02	3.693E-02	2.853E-02	2.530E-02	2.245E-02
0.802851455917391	3.802E-02	3.335E-02	2.584E-02	2.294E-02	2.040E-02
0.837758040957278	3.433E-02	3.015E-02	2.343E-02	2.083E-02	1.854E-02
0.872664625997165	3.104E-02	2.730E-02	2.127E-02	1.893E-02	1.687E-02
0.907571211037051	2.811E-02	2.475E-02	1.933E-02	1.722E-02	1.537E-02
0.942477796076938	2.550E-02	2.247E-02	1.759E-02	1.569E-02	1.401E-02
0.977384381116825	2.316E-02	2.043E-02	1.602E-02	1.431E-02	1.280E-02
1.01229096615671	2.108E-02	1.861E-02	1.462E-02	1.307E-02	1.170E-02
1.0471975511966	1.922E-02	1.698E-02	1.336E-02	1.195E-02	1.071E-02
1.08210413623648	1.756E-02	1.552E-02	1.223E-02	1.094E-02	9.816E-03
1.11701072127637	1.607E-02	1.421E-02	1.121E-02	1.004E-02	9.013E-03
1.15191730631626	1.473E-02	1.304E-02	1.029E-02	9.224E-03	8.285E-03
1.18682389135614	1.353E-02	1.198E-02	9.468E-03	8.493E-03	7.632E-03
1.22173047639603	1.246E-02	1.104E-02	8.725E-03	7.830E-03	7.042E-03
1.25663706143592	1.150E-02	1.018E-02	8.056E-03	7.236E-03	6.508E-03
1.2915436464758	1.063E-02	9.419E-03	7.459E-03	6.697E-03	6.027E-03
1.32645023151569	9.858E-03	8.733E-03	6.917E-03	6.212E-03	5.594E-03
1.36135681655558	9.158E-03	8.114E-03	6.428E-03	5.777E-03	5.205E-03
1.39626340159546	8.526E-03	7.557E-03	5.988E-03	5.383E-03	4.852E-03
1.43116998663535	7.961E-03	7.054E-03	5.594E-03	5.030E-03	4.534E-03
1.46607657167524	7.454E-03	6.607E-03	5.238E-03	4.711E-03	4.248E-03
1.50098315671512	6.996E-03	6.203E-03	4.915E-03	4.426E-03	3.990E-03
1.53588974175501	6.587E-03	5.837E-03	4.627E-03	4.166E-03	3.759E-03
1.5707963267949	6.220E-03	5.512E-03	4.372E-03	3.934E-03	3.550E-03
1.60570291183478	5.889E-03	5.217E-03	4.138E-03	3.728E-03	3.362E-03
1.64060949687467	5.593E-03	4.955E-03	3.932E-03	3.540E-03	3.194E-03
1.67551608191456	5.330E-03	4.722E-03	3.748E-03	3.375E-03	3.045E-03
1.71042266695444	5.093E-03	4.513E-03	3.582E-03	3.227E-03	2.912E-03
1.74532925199433	4.885E-03	4.329E-03	3.436E-03	3.095E-03	2.794E-03
1.78023583703422	4.701E-03	4.165E-03	3.307E-03	2.979E-03	2.690E-03
1.8151424220741	4.537E-03	4.022E-03	3.194E-03	2.877E-03	2.600E-03
1.85004900711399	4.394E-03	3.895E-03	3.095E-03	2.788E-03	2.520E-03
1.88495559215388	4.271E-03	3.788E-03	3.009E-03	2.711E-03	2.451E-03
1.91986217719376	4.165E-03	3.693E-03	2.935E-03	2.645E-03	2.391E-03
1.95476876223365	4.075E-03	3.613E-03	2.873E-03	2.590E-03	2.342E-03
1.98967534727354	4.001E-03	3.548E-03	2.821E-03	2.544E-03	2.301E-03
2.02458193231342	3.942E-03	3.495E-03	2.779E-03	2.507E-03	2.268E-03
2.05948851735331	3.896E-03	3.455E-03	2.748E-03	2.478E-03	2.242E-03
2.0943951023932	3.861E-03	3.426E-03	2.725E-03	2.457E-03	2.223E-03
2.12930168743308	3.841E-03	3.408E-03	2.710E-03	2.444E-03	2.211E-03
2.16420827247297	3.834E-03	3.400E-03	2.703E-03	2.438E-03	2.205E-03
2.19911485751286	3.838E-03	3.404E-03	2.704E-03	2.439E-03	2.206E-03
2.23402144255274	3.855E-03	3.417E-03	2.712E-03	2.446E-03	2.213E-03
2.26892802759263	3.882E-03	3.439E-03	2.727E-03	2.459E-03	2.224E-03
2.30383461263251	3.924E-03	3.471E-03	2.750E-03	2.478E-03	2.239E-03
2.3387411976724	3.976E-03	3.514E-03	2.779E-03	2.504E-03	2.261E-03
2.37364778271229	4.038E-03	3.567E-03	2.815E-03	2.535E-03	2.288E-03
2.40855436775218	4.112E-03	3.629E-03	2.857E-03	2.572E-03	2.320E-03
2.44346095279206	4.201E-03	3.700E-03	2.907E-03	2.614E-03	2.357E-03
2.47836753783195	4.300E-03	3.780E-03	2.962E-03	2.662E-03	2.398E-03
2.51327412287183	4.411E-03	3.869E-03	3.023E-03	2.714E-03	2.442E-03
2.54818070791172	4.532E-03	3.967E-03	3.090E-03	2.771E-03	2.492E-03
2.58308729295161	4.663E-03	4.075E-03	3.162E-03	2.833E-03	2.545E-03
2.61799387799149	4.802E-03	4.185E-03	3.238E-03	2.900E-03	2.603E-03
2.65290046303138	4.946E-03	4.301E-03	3.319E-03	2.970E-03	2.666E-03
2.68780704807127	5.095E-03	4.420E-03	3.402E-03	3.042E-03	2.730E-03
2.72271363311115	5.238E-03	4.533E-03	3.483E-03	3.117E-03	2.795E-03
2.75762021815104	5.361E-03	4.640E-03	3.562E-03	3.190E-03	2.862E-03
2.79252680319093	5.465E-03	4.732E-03	3.636E-03	3.256E-03	2.929E-03
2.82743338823081	5.531E-03	4.797E-03	3.698E-03	3.310E-03	2.984E-03
2.8623399732707	5.560E-03	4.824E-03	3.738E-03	3.355E-03	3.022E-03
2.89724655831059	5.549E-03	4.829E-03	3.762E-03	3.393E-03	3.060E-03
2.93215314335047	5.529E-03	4.839E-03	3.792E-03	3.431E-03	3.104E-03
2.96705972839036	5.536E-03	4.869E-03	3.839E-03	3.478E-03	3.155E-03
3.00196631343025	5.604E-03	4.939E-03	3.912E-03	3.544E-03	3.216E-03
3.03687289847013	5.750E-03	5.065E-03	4.005E-03	3.626E-03	3.289E-03
3.07177948351002	5.945E-03	5.216E-03	4.099E-03	3.701E-03	3.355E-03
3.10668606854991	6.111E-03	5.333E-03	4.166E-03	3.742E-03	3.399E-03
3.14159265358979	6.199E-03	5.405E-03	4.218E-03	3.781E-03	3.442E-03
