# theta	0.4	0.45	0.55	0.6	0.65
0	3.183E-02	2.648E-02	1.917E-02	1.655E-02	1.443E-02
0.00174532925199433	3.181E-02	2.647E-02	1.916E-02	1.654E-02	1.442E-02
0.00349065850398866	3.174E-02	2.642E-02	1.914E-02	1.653E-02	1.441E-02
0.00523598775598299	3.163E-02	2.635E-02	1.911E-02	1.650E-02	1.439E-02
0.00698131700797732	3.148E-02	2.625E-02	1.906E-02	1.647E-02	1.437E-02
0.00872664625997165	3.130E-02	2.613E-02	1.900E-02	1.642E-02	1.433E-02
0.010471975511966	3.109E-02	2.599E-02	1.893E-02	1.638E-02	1.430E-02
0.0122173047639603	3.087E-02	2.584E-02	1.886E-02	1.632E-02	1.425E-02
0.0139626340159546	3.063E-02	2.568E-02	1.877E-02	1.626E-02	1.421E-02
0.015707963267949	3.038E-02	2.551E-02	1.869E-02	1.619E-02	1.415E-02
0.0174532925199433	3.012E-02	2.533E-02	1.859E-02	1.612E-02	1.410E-02
0.0191986217719376	2.986E-02	2.514E-02	1.849E-02	1.605E-02	1.404E-02
0.020943951023932	2.959E-02	2.495E-02	1.839E-02	1.597E-02	1.398E-02
0.0226892802759263	2.931E-02	2.476E-02	1.828E-02	1.589E-02	1.392E-02
0.0244346095279206	2.903E-02	2.456E-02	1.817E-02	1.580E-02	1.385E-02
0.0261799387799149	2.876E-02	2.436E-02	1.806E-02	1.572E-02	1.379E-02
0.0279252680319093	2.848E-02	2.416E-02	1.795E-02	1.563E-02	1.372E-02
0.0296705972839036	2.820E-02	2.396E-02	1.784E-02	1.554E-02	1.365E-02
0.0314159265358979	2.792E-02	2.375E-02	1.772E-02	1.545E-02	1.358E-02
0.0331612557878923	2.764E-02	2.355E-02	1.760E-02	1.536E-02	1.351E-02
0.0349065850398866	2.736E-02	2.335E-02	1.749E-02	1.527E-02	1.343E-02
0.0523598775598299	2.471E-02	2.137E-02	1.631E-02	1.434E-02	1.268E-02
0.0698131700797732	2.231E-02	1.953E-02	1.517E-02	1.343E-02	1.193E-02
0.0872664625997165	2.016E-02	1.786E-02	1.409E-02	1.255E-02	1.120E-02
0.10471975511966	1.824E-02	1.633E-02	1.308E-02	1.171E-02	1.051E-02
0.139626340159546	1.500E-02	1.370E-02	1.125E-02	1.018E-02	9.211E-03
0.174532925199433	1.241E-02	1.152E-02	9.675E-03	8.830E-03	8.046E-03
0.20943951023932	1.034E-02	9.710E-03	8.312E-03	7.643E-03	7.005E-03
0.244346095279206	8.669E-03	8.213E-03	7.141E-03	6.608E-03	6.089E-03
0.279252680319093	7.301E-03	6.967E-03	6.135E-03	5.703E-03	5.285E-03
0.314159265358979	6.175E-03	5.929E-03	5.273E-03	4.924E-03	4.579E-03
0.349065850398866	5.244E-03	5.055E-03	4.529E-03	4.248E-03	3.967E-03
0.383972435438752	4.465E-03	4.315E-03	3.894E-03	3.664E-03	3.434E-03
0.418879020478639	3.812E-03	3.690E-03	3.351E-03	3.162E-03	2.971E-03
0.453785605518526	3.266E-03	3.163E-03	2.886E-03	2.729E-03	2.572E-03
0.488692190558412	2.805E-03	2.718E-03	2.488E-03	2.358E-03	2.228E-03
0.523598775598299	2.415E-03	2.340E-03	2.148E-03	2.040E-03	1.932E-03
0.558505360638185	2.082E-03	2.018E-03	1.857E-03	1.767E-03	1.676E-03
0.593411945678072	1.800E-03	1.744E-03	1.609E-03	1.533E-03	1.457E-03
0.628318530717959	1.560E-03	1.511E-03	1.396E-03	1.332E-03	1.268E-03
0.663225115757845	1.357E-03	1.312E-03	1.214E-03	1.160E-03	1.106E-03
0.698131700797732	1.183E-03	1.143E-03	1.059E-03	1.012E-03	9.659E-04
0.733038285837618	1.033E-03	9.982E-04	9.248E-04	8.851E-04	8.459E-04
0.767944870877505	9.051E-04	8.735E-04	8.097E-04	7.758E-04	7.421E-04
0.802851455917391	7.949E-04	7.660E-04	7.106E-04	6.815E-04	6.523E-04
0.837758040957278	7.004E-04	6.744E-04	6.256E-04	6.002E-04	5.753E-04
0.872664625997165	6.185E-04	5.954E-04	5.520E-04	5.299E-04	5.084E-04
0.907571211037051	5.474E-04	5.264E-04	4.884E-04	4.692E-04	4.503E-04
0.942477796076938	4.859E-04	4.669E-04	4.332E-04	4.165E-04	3.997E-04
0.977384381116825	4.334E-04	4.159E-04	3.857E-04	3.706E-04	3.559E-04
1.01229096615671	3.876E-04	3.716E-04	3.443E-04	3.306E-04	3.178E-04
1.0471975511966	3.470E-04	3.326E-04	3.079E-04	2.960E-04	2.845E-04
1.08210413623648	3.112E-04	2.983E-04	2.761E-04	2.658E-04	2.553E-04
1.11701072127637	2.804E-04	2.685E-04	2.485E-04	2.392E-04	2.297E-04
1.15191730631626	2.539E-04	2.426E-04	2.244E-04	2.158E-04	2.074E-04
1.18682389135614	2.303E-04	2.200E-04	2.032E-04	1.954E-04	1.879E-04
1.22173047639603	2.094E-04	1.999E-04	1.845E-04	1.774E-04	1.706E-04
1.25663706143592	1.912E-04	1.822E-04	1.682E-04	1.616E-04	1.553E-04
1.2915436464758	1.751E-04	1.667E-04	1.537E-04	1.476E-04	1.419E-04
1.32645023151569	1.606E-04	1.529E-04	1.408E-04	1.354E-04	1.301E-04
1.36135681655558	1.476E-04	1.406E-04	1.295E-04	1.245E-04	1.195E-04
1.39626340159546	1.367E-04	1.299E-04	1.196E-04	1.149E-04	1.103E-04
1.43116998663535	1.272E-04	1.207E-04	1.109E-04	1.063E-04	1.021E-04
1.46607657167524	1.184E-04	1.124E-04	1.030E-04	9.871E-05	9.487E-05
1.50098315671512	1.104E-04	1.047E-04	9.601E-05	9.206E-05	8.833E-05
1.53588974175501	1.035E-04	9.805E-05	8.984E-05	8.614E-05	8.258E-05
1.5707963267949	9.737E-05	9.224E-05	8.437E-05	8.083E-05	7.750E-05
1.60570291183478	9.186E-05	8.700E-05	7.949E-05	7.620E-05	7.299E-05
1.64060949687467	8.697E-05	8.245E-05	7.522E-05	7.207E-05	6.897E-05
1.67551608191456	8.296E-05	7.858E-05	7.146E-05	6.840E-05	6.553E-05
1.71042266695444	7.942E-05	7.511E-05	6.816E-05	6.516E-05	6.240E-05
1.74532925199433	7.593E-05	7.180E-05	6.521E-05	6.232E-05	5.962E-05
1.78023583703422	7.283E-05	6.888E-05	6.262E-05	5.988E-05	5.716E-05
1.8151424220741	7.040E-05	6.657E-05	6.040E-05	5.772E-05	5.510E-05
1.85004900711399	6.835E-05	6.465E-05	5.848E-05	5.588E-05	5.330E-05
1.88495559215388	6.660E-05	6.294E-05	5.689E-05	5.427E-05	5.176E-05
1.91986217719376	6.506E-05	6.151E-05	5.553E-05	5.301E-05	5.045E-05
1.95476876223365	6.392E-05	6.043E-05	5.445E-05	5.195E-05	4.942E-05
1.98967534727354	6.318E-05	5.962E-05	5.367E-05	5.105E-05	4.858E-05
2.02458193231342	6.269E-05	5.904E-05	5.310E-05	5.041E-05	4.797E-05
2.05948851735331	6.255E-05	5.878E-05	5.276E-05	5.003E-05	4.755E-05
2.0943951023932	6.270E-05	5.887E-05	5.270E-05	4.991E-05	4.736E-05
2.12930168743308	6.313E-05	5.919E-05	5.285E-05	4.998E-05	4.738E-05
2.16420827247297	6.389E-05	5.979E-05	5.322E-05	5.027E-05	4.759E-05
2.19911485751286	6.513E-05	6.081E-05	5.388E-05	5.082E-05	4.802E-05
2.23402144255274	6.684E-05	6.226E-05	5.483E-05	5.155E-05	4.867E-05
2.26892802759263	6.890E-05	6.395E-05	5.600E-05	5.256E-05	4.954E-05
2.30383461263251	7.123E-05	6.591E-05	5.744E-05	5.380E-05	5.055E-05
2.3387411976724	7.405E-05	6.834E-05	5.916E-05	5.533E-05	5.185E-05
2.37364778271229	7.769E-05	7.123E-05	6.126E-05	5.706E-05	5.337E-05
2.40855436775218	8.193E-05	7.465E-05	6.376E-05	5.907E-05	5.516E-05
2.44346095279206	8.648E-05	7.852E-05	6.649E-05	6.137E-05	5.714E-05
2.47836753783195	9.149E-05	8.268E-05	6.937E-05	6.401E-05	5.932E-05
2.51327412287183	9.713E-05	8.723E-05	7.262E-05	6.685E-05	6.173E-05
2.54818070791172	1.033E-04	9.223E-05	7.617E-05	6.979E-05	6.432E-05
2.58308729295161	1.101E-04	9.740E-05	8.005E-05	7.289E-05	6.697E-05
2.61799387799149	1.171E-04	1.029E-04	8.385E-05	7.604E-05	6.979E-05
2.65290046303138	1.236E-04	1.086E-04	8.743E-05	7.926E-05	7.265E-05
2.68780704807127	1.294E-04	1.135E-04	9.086E-05	8.241E-05	7.523E-05
2.72271363311115	1.350E-04	1.177E-04	9.432E-05	8.531E-05	7.757E-05
2.75762021815104	1.404E-04	1.218E-04	9.726E-05	8.790E-05	7.976E-05
2.79252680319093	1.451E-04	1.257E-04	9.964E-05	8.995E-05	8.155E-05
2.82743338823081	1.488E-04	1.287E-04	1.013E-04	9.128E-05	8.286E-05
2.8623399732707	1.500E-04	1.296E-04	1.016E-04	9.155E-05	8.316E-05
2.89724655831059	1.469E-04	1.269E-04	9.984E-05	9.027E-05	8.204E-05
2.93215314335047	1.390E-04	1.204E-04	9.609E-05	8.734E-05	7.952E-05
2.96705972839036	1.272E-04	1.115E-04	9.081E-05	8.347E-05	7.637E-05
3.00196631343025	1.164E-04	1.039E-04	8.633E-05	8.034E-05	7.422E-05
3.03687289847013	1.142E-04	1.024E-04	8.618E-05	8.034E-05	7.477E-05
3.07177948351002	1.241E-04	1.100E-04	9.222E-05	8.499E-05	7.891E-05
3.10668606854991	1.426E-04	1.244E-04	1.020E-04	9.242E-05	8.508E-05
3.14159265358979	1.546E-04	1.335E-04	1.077E-04	9.663E-05	8.861E-05
