# theta	0.6	0.55	0.45
0	3.154E-02	3.617E-02	4.975E-02
0.00174532925199433	3.153E-02	3.616E-02	4.971E-02
0.00349065850398866	3.149E-02	3.611E-02	4.961E-02
0.00523598775598299	3.144E-02	3.604E-02	4.945E-02
0.00698131700797732	3.136E-02	3.594E-02	4.924E-02
0.00872664625997165	3.127E-02	3.581E-02	4.899E-02
0.010471975511966	3.117E-02	3.567E-02	4.870E-02
0.0122173047639603	3.105E-02	3.551E-02	4.838E-02
0.0139626340159546	3.092E-02	3.533E-02	4.803E-02
0.015707963267949	3.077E-02	3.514E-02	4.767E-02
0.0174532925199433	3.062E-02	3.494E-02	4.729E-02
0.0191986217719376	3.046E-02	3.473E-02	4.689E-02
0.020943951023932	3.030E-02	3.452E-02	4.649E-02
0.0226892802759263	3.013E-02	3.430E-02	4.608E-02
0.0244346095279206	2.995E-02	3.407E-02	4.566E-02
0.0261799387799149	2.977E-02	3.384E-02	4.524E-02
0.0279252680319093	2.959E-02	3.360E-02	4.482E-02
0.0296705972839036	2.940E-02	3.336E-02	4.439E-02
0.0314159265358979	2.922E-02	3.312E-02	4.395E-02
0.0331612557878923	2.903E-02	3.288E-02	4.353E-02
0.0349065850398866	2.883E-02	3.263E-02	4.309E-02
0.0523598775598299	2.686E-02	3.015E-02	3.887E-02
0.0698131700797732	2.490E-02	2.775E-02	3.497E-02
0.0872664625997165	2.303E-02	2.549E-02	3.145E-02
0.10471975511966	2.127E-02	2.340E-02	2.831E-02
0.139626340159546	1.809E-02	1.970E-02	2.307E-02
0.174532925199433	1.539E-02	1.658E-02	1.893E-02
0.20943951023932	1.308E-02	1.398E-02	1.563E-02
0.244346095279206	1.113E-02	1.181E-02	1.299E-02
0.279252680319093	9.468E-03	9.992E-03	1.086E-02
0.314159265358979	8.061E-03	8.473E-03	9.121E-03
0.349065850398866	6.866E-03	7.198E-03	7.687E-03
0.383972435438752	5.856E-03	6.121E-03	6.506E-03
0.418879020478639	5.005E-03	5.210E-03	5.521E-03
0.453785605518526	4.279E-03	4.448E-03	4.696E-03
0.488692190558412	3.664E-03	3.802E-03	4.006E-03
0.523598775598299	3.143E-03	3.259E-03	3.429E-03
0.558505360638185	2.701E-03	2.799E-03	2.944E-03
0.593411945678072	2.327E-03	2.408E-03	2.534E-03
0.628318530717959	2.010E-03	2.076E-03	2.187E-03
0.663225115757845	1.740E-03	1.796E-03	1.891E-03
0.698131700797732	1.509E-03	1.558E-03	1.641E-03
0.733038285837618	1.313E-03	1.355E-03	1.429E-03
0.767944870877505	1.145E-03	1.182E-03	1.248E-03
0.802851455917391	1.002E-03	1.033E-03	1.092E-03
0.837758040957278	8.791E-04	9.058E-04	9.586E-04
0.872664625997165	7.732E-04	7.974E-04	8.450E-04
0.907571211037051	6.822E-04	7.033E-04	7.473E-04
0.942477796076938	6.038E-04	6.220E-04	6.621E-04
0.977384381116825	5.358E-04	5.520E-04	5.875E-04
1.01229096615671	4.770E-04	4.920E-04	5.229E-04
1.0471975511966	4.257E-04	4.394E-04	4.688E-04
1.08210413623648	3.816E-04	3.933E-04	4.209E-04
1.11701072127637	3.430E-04	3.533E-04	3.781E-04
1.15191730631626	3.090E-04	3.186E-04	3.409E-04
1.18682389135614	2.792E-04	2.883E-04	3.090E-04
1.22173047639603	2.533E-04	2.614E-04	2.807E-04
1.25663706143592	2.307E-04	2.378E-04	2.552E-04
1.2915436464758	2.106E-04	2.173E-04	2.332E-04
1.32645023151569	1.929E-04	1.992E-04	2.144E-04
1.36135681655558	1.774E-04	1.830E-04	1.977E-04
1.39626340159546	1.636E-04	1.689E-04	1.823E-04
1.43116998663535	1.514E-04	1.565E-04	1.684E-04
1.46607657167524	1.406E-04	1.456E-04	1.566E-04
1.50098315671512	1.311E-04	1.357E-04	1.467E-04
1.53588974175501	1.228E-04	1.270E-04	1.375E-04
1.5707963267949	1.153E-04	1.194E-04	1.291E-04
1.60570291183478	1.087E-04	1.127E-04	1.222E-04
1.64060949687467	1.029E-04	1.068E-04	1.160E-04
1.67551608191456	9.768E-05	1.017E-04	1.102E-04
1.71042266695444	9.310E-05	9.711E-05	1.051E-04
1.74532925199433	8.932E-05	9.297E-05	1.012E-04
1.78023583703422	8.607E-05	8.939E-05	9.780E-05
1.8151424220741	8.309E-05	8.650E-05	9.469E-05
1.85004900711399	8.050E-05	8.404E-05	9.195E-05
1.88495559215388	7.847E-05	8.187E-05	8.978E-05
1.91986217719376	7.680E-05	8.008E-05	8.824E-05
1.95476876223365	7.542E-05	7.884E-05	8.703E-05
1.98967534727354	7.449E-05	7.785E-05	8.583E-05
2.02458193231342	7.390E-05	7.713E-05	8.510E-05
2.05948851735331	7.357E-05	7.686E-05	8.510E-05
2.0943951023932	7.354E-05	7.710E-05	8.554E-05
2.12930168743308	7.393E-05	7.764E-05	8.637E-05
2.16420827247297	7.468E-05	7.855E-05	8.780E-05
2.19911485751286	7.574E-05	7.999E-05	8.956E-05
2.23402144255274	7.715E-05	8.180E-05	9.180E-05
2.26892802759263	7.903E-05	8.395E-05	9.498E-05
2.30383461263251	8.135E-05	8.656E-05	9.885E-05
2.3387411976724	8.420E-05	8.969E-05	1.034E-04
2.37364778271229	8.734E-05	9.344E-05	1.083E-04
2.40855436775218	9.083E-05	9.762E-05	1.137E-04
2.44346095279206	9.488E-05	1.021E-04	1.202E-04
2.47836753783195	9.939E-05	1.071E-04	1.275E-04
2.51327412287183	1.040E-04	1.125E-04	1.350E-04
2.54818070791172	1.088E-04	1.180E-04	1.430E-04
2.58308729295161	1.136E-04	1.234E-04	1.503E-04
2.61799387799149	1.183E-04	1.289E-04	1.574E-04
2.65290046303138	1.228E-04	1.347E-04	1.649E-04
2.68780704807127	1.275E-04	1.398E-04	1.723E-04
2.72271363311115	1.321E-04	1.443E-04	1.788E-04
2.75762021815104	1.364E-04	1.485E-04	1.854E-04
2.79252680319093	1.400E-04	1.528E-04	1.915E-04
2.82743338823081	1.424E-04	1.567E-04	1.963E-04
2.8623399732707	1.434E-04	1.588E-04	1.996E-04
2.89724655831059	1.426E-04	1.573E-04	1.992E-04
2.93215314335047	1.388E-04	1.514E-04	1.925E-04
2.96705972839036	1.317E-04	1.417E-04	1.794E-04
3.00196631343025	1.239E-04	1.318E-04	1.642E-04
3.03687289847013	1.211E-04	1.291E-04	1.565E-04
3.07177948351002	1.282E-04	1.384E-04	1.679E-04
3.10668606854991	1.426E-04	1.563E-04	1.971E-04
3.14159265358979	1.513E-04	1.674E-04	2.168E-04
