# theta 0.423   0.532   0.55    0.635
0	9.195E+04	6.021E+04	5.448E+04	4.225E+04
1.74532925199433e-05	9.182E+04	6.013E+04	5.444E+04	4.221E+04
3.49065850398866e-05	9.131E+04	5.996E+04	5.410E+04	4.213E+04
5.23598775598299e-05	9.030E+04	5.959E+04	5.385E+04	4.199E+04
6.98131700797732e-05	8.929E+04	5.917E+04	5.338E+04	4.164E+04
8.72664625997165e-05	8.764E+04	5.844E+04	5.284E+04	4.143E+04
0.000174532925199433	7.732E+04	5.376E+04	4.891E+04	3.897E+04
0.000261799387799149	6.530E+04	4.753E+04	4.347E+04	3.556E+04
0.000349065850398866	5.535E+04	4.151E+04	3.820E+04	3.176E+04
0.000436332312998582	4.753E+04	3.645E+04	3.356E+04	2.838E+04
0.000523598775598299	4.087E+04	3.219E+04	2.980E+04	2.542E+04
0.000698131700797732	2.326E+04	2.531E+04	1.868E+04	1.839E+04
0.0010471975511966	1.428E+04	1.612E+04	1.253E+04	1.269E+04
0.00139626340159546	8.769E+03	1.095E+04	8.630E+03	9.220E+03
0.00174532925199433	5.765E+03	7.333E+03	5.872E+03	6.583E+03
0.0020943951023932	3.848E+03	5.090E+03	4.193E+03	4.673E+03
0.00244346095279206	2.618E+03	3.666E+03	3.054E+03	3.440E+03
0.00279252680319093	1.832E+03	2.648E+03	2.233E+03	2.598E+03
0.00314159265358979	1.400E+03	1.951E+03	1.670E+03	1.974E+03
0.00349065850398866	1.115E+03	1.440E+03	1.247E+03	1.532E+03
0.00383972435438753	9.123E+02	1.112E+03	9.811E+02	1.184E+03
0.00418879020478639	7.556E+02	9.047E+02	8.064E+02	9.266E+02
0.00453785605518526	6.422E+02	7.530E+02	6.744E+02	7.539E+02
0.00488692190558412	5.264E+02	6.404E+02	5.792E+02	6.323E+02
0.00523598775598299	4.219E+02	5.458E+02	4.957E+02	5.390E+02
0.00610865238198015	3.551E+02	3.865E+02	4.472E+02	4.697E+02
0.00698131700797732	2.419E+02	2.503E+02	3.165E+02	3.567E+02
0.00785398163397448	1.771E+02	1.772E+02	2.072E+02	2.565E+02
0.00872664625997165	1.301E+02	1.347E+02	1.525E+02	1.736E+02
0.00959931088596881	1.012E+02	1.071E+02	1.176E+02	1.286E+02
0.010471975511966	7.277E+01	8.386E+01	9.396E+01	1.012E+02
0.0113446401379631	5.122E+01	6.944E+01	7.446E+01	8.488E+01
0.0122173047639603	4.148E+01	5.333E+01	6.233E+01	6.961E+01
0.0130899693899575	3.723E+01	4.088E+01	4.813E+01	5.852E+01
0.0139626340159546	3.197E+01	3.115E+01	3.728E+01	4.830E+01
0.0148352986419518	2.642E+01	2.711E+01	2.850E+01	3.857E+01
0.015707963267949	2.125E+01	2.465E+01	2.471E+01	3.107E+01
0.0165806278939461	1.832E+01	2.245E+01	2.252E+01	2.446E+01
0.0174532925199433	1.525E+01	1.913E+01	2.088E+01	2.096E+01
0.0183259571459405	1.140E+01	1.649E+01	1.792E+01	1.876E+01
0.0191986217719376	8.995E+00	1.387E+01	1.558E+01	1.755E+01
0.0200712863979348	7.552E+00	1.231E+01	1.309E+01	1.580E+01
0.020943951023932	5.901E+00	1.082E+01	1.164E+01	1.405E+01
0.0218166156499291	4.917E+00	8.923E+00	1.027E+01	1.251E+01
0.0226892802759263	5.209E+00	7.089E+00	8.788E+00	1.082E+01
0.0235619449019235	4.994E+00	5.901E+00	6.998E+00	9.663E+00
0.0244346095279206	4.462E+00	5.121E+00	5.824E+00	8.611E+00
0.0253072741539178	3.979E+00	4.336E+00	4.943E+00	7.708E+00
0.0261799387799149	3.437E+00	3.516E+00	4.343E+00	6.583E+00
0.0270526034059121	3.038E+00	3.201E+00	3.558E+00	5.535E+00
0.0279252680319093	2.970E+00	3.419E+00	3.029E+00	4.691E+00
0.0287979326579064	2.738E+00	3.362E+00	2.972E+00	4.039E+00
0.0296705972839036	2.461E+00	3.091E+00	3.134E+00	3.612E+00
0.0305432619099008	2.437E+00	2.793E+00	2.962E+00	3.078E+00
0.0314159265358979	2.229E+00	2.572E+00	2.730E+00	2.575E+00
0.0322885911618951	2.055E+00	2.275E+00	2.494E+00	2.286E+00
0.0331612557878923	2.207E+00	2.050E+00	2.277E+00	2.352E+00
0.0340339204138894	2.365E+00	1.933E+00	2.021E+00	2.451E+00
0.0349065850398866	2.181E+00	1.936E+00	1.835E+00	2.368E+00
0.0436332312998582	2.048E+00	1.387E+00	1.766E+00	2.111E+00
0.0523598775598299	7.769E-01	5.431E-01	1.415E+00	1.118E+00
0.0610865238198015	5.090E-01	3.981E-01	5.575E-01	9.483E-01
0.0698131700797732	3.442E-01	3.364E-01	3.993E-01	3.910E-01
0.0785398163397448	2.384E-01	2.289E-01	3.162E-01	3.204E-01
0.0872664625997165	1.814E-01	1.692E-01	2.330E-01	2.492E-01
0.10471975511966	1.311E-01	1.264E-01	1.431E-01	2.067E-01
0.122173047639603	1.030E-01	8.982E-02	1.268E-01	1.196E-01
0.139626340159546	7.939E-02	7.102E-02	8.832E-02	1.001E-01
0.15707963267949	6.121E-02	5.680E-02	6.713E-02	7.292E-02
0.174532925199433	4.874E-02	5.024E-02	5.599E-02	6.009E-02
0.191986217719376	4.319E-02	4.497E-02	4.842E-02	4.995E-02
0.20943951023932	3.750E-02	3.976E-02	4.183E-02	4.307E-02
0.226892802759263	3.537E-02	3.747E-02	3.797E-02	4.027E-02
0.244346095279206	3.231E-02	3.301E-02	3.387E-02	3.522E-02
0.261799387799149	3.077E-02	3.184E-02	3.074E-02	3.255E-02
0.279252680319093	2.846E-02	2.910E-02	2.913E-02	2.903E-02
0.296705972839036	2.684E-02	2.710E-02	2.664E-02	2.838E-02
0.314159265358979	2.532E-02	2.626E-02	2.586E-02	2.693E-02
0.331612557878923	2.412E-02	2.506E-02	2.498E-02	2.578E-02
0.349065850398866	2.347E-02	2.407E-02	2.400E-02	2.395E-02
0.366519142918809	1.011E-01	1.556E-01	1.621E-01	1.836E-01
0.383972435438752	1.792E-01	2.868E-01	3.002E-01	3.428E-01
0.401425727958696	2.743E-01	3.142E-01	3.189E-01	3.350E-01
0.418879020478639	3.695E-01	3.415E-01	3.374E-01	3.270E-01
0.436332312998582	2.997E-01	2.775E-01	2.748E-01	2.671E-01
0.453785605518526	2.296E-01	2.142E-01	2.113E-01	2.067E-01
0.471238898038469	1.907E-01	1.785E-01	1.763E-01	1.724E-01
0.488692190558412	1.516E-01	1.428E-01	1.411E-01	1.376E-01
0.506145483078356	1.284E-01	1.206E-01	1.190E-01	1.159E-01
0.523598775598299	1.055E-01	9.804E-02	9.723E-02	9.413E-02
0.558505360638185	7.399E-02	6.987E-02	6.944E-02	6.720E-02
0.593411945678072	5.438E-02	5.074E-02	5.017E-02	4.940E-02
0.628318530717959	4.038E-02	3.780E-02	3.735E-02	3.649E-02
0.663225115757845	3.057E-02	2.917E-02	2.902E-02	2.855E-02
0.698131700797732	2.471E-02	2.360E-02	2.384E-02	2.321E-02
0.733038285837618	2.076E-02	2.032E-02	2.031E-02	2.006E-02
0.767944870877505	1.787E-02	1.830E-02	1.829E-02	1.802E-02
0.802851455917391	1.724E-02	3.193E-02	3.419E-02	4.356E-02
0.837758040957278	3.908E-02	4.183E-02	4.112E-02	3.992E-02
0.872664625997165	3.614E-02	3.335E-02	3.268E-02	3.164E-02
0.907571211037051	2.896E-02	2.684E-02	2.656E-02	2.568E-02
0.942477796076938	2.350E-02	2.212E-02	2.199E-02	2.105E-02
0.977384381116825	1.966E-02	1.884E-02	1.862E-02	1.822E-02
1.01229096615671	1.752E-02	1.709E-02	1.678E-02	1.681E-02
1.0471975511966	1.646E-02	1.637E-02	1.627E-02	1.638E-02
1.08210413623648	1.571E-02	1.612E-02	1.610E-02	1.604E-02
1.11701072127637	1.611E-02	1.611E-02	1.609E-02	1.601E-02
1.15191730631626	1.593E-02	1.606E-02	1.630E-02	1.636E-02
1.18682389135614	1.556E-02	1.610E-02	1.592E-02	1.612E-02
1.22173047639603	1.596E-02	1.618E-02	1.622E-02	1.622E-02
1.25663706143592	1.660E-02	1.627E-02	1.600E-02	1.621E-02
1.2915436464758	1.579E-02	1.593E-02	1.599E-02	1.556E-02
1.32645023151569	1.525E-02	1.548E-02	1.543E-02	1.539E-02
1.36135681655558	1.500E-02	1.501E-02	1.499E-02	1.505E-02
1.39626340159546	1.442E-02	1.467E-02	1.465E-02	1.422E-02
1.43116998663535	1.438E-02	1.420E-02	1.437E-02	1.396E-02
1.46607657167524	1.364E-02	1.369E-02	1.351E-02	1.373E-02
1.50098315671512	1.305E-02	1.333E-02	1.335E-02	1.324E-02
1.53588974175501	1.259E-02	1.288E-02	1.296E-02	1.291E-02
1.5707963267949	1.229E-02	1.260E-02	1.270E-02	1.254E-02
1.60570291183478	1.204E-02	1.201E-02	1.201E-02	1.186E-02
1.64060949687467	1.150E-02	1.162E-02	1.165E-02	1.166E-02
1.67551608191456	1.127E-02	1.122E-02	1.147E-02	1.130E-02
1.71042266695444	1.065E-02	1.076E-02	1.075E-02	1.076E-02
1.74532925199433	1.045E-02	1.026E-02	1.039E-02	1.035E-02
1.78023583703422	9.893E-03	9.763E-03	9.705E-03	9.834E-03
1.8151424220741	9.309E-03	9.294E-03	9.123E-03	9.182E-03
1.85004900711399	9.119E-03	8.908E-03	8.906E-03	8.670E-03
1.88495559215388	8.635E-03	8.404E-03	8.295E-03	8.325E-03
1.91986217719376	8.200E-03	7.985E-03	7.921E-03	7.884E-03
1.95476876223365	7.735E-03	7.585E-03	7.749E-03	7.484E-03
1.98967534727354	7.514E-03	7.235E-03	7.246E-03	7.260E-03
2.02458193231342	7.171E-03	6.707E-03	6.349E-03	5.659E-03
2.05948851735331	6.809E-03	5.344E-03	5.335E-03	4.967E-03
2.0943951023932	5.332E-03	4.844E-03	4.879E-03	4.673E-03
2.12930168743308	4.982E-03	4.487E-03	4.508E-03	4.348E-03
2.16420827247297	4.832E-03	4.518E-03	4.397E-03	4.341E-03
2.19911485751286	4.774E-03	4.518E-03	4.501E-03	4.481E-03
2.23402144255274	4.784E-03	4.567E-03	4.514E-03	4.482E-03
2.26892802759263	4.791E-03	4.668E-03	4.583E-03	4.604E-03
2.30383461263251	4.911E-03	4.754E-03	4.806E-03	4.474E-03
2.3387411976724	5.258E-03	5.030E-03	4.901E-03	4.778E-03
2.37364778271229	5.806E-03	5.402E-03	5.329E-03	5.319E-03
2.40855436775218	6.269E-03	5.998E-03	5.994E-03	5.753E-03
2.44346095279206	7.171E-03	6.815E-03	6.793E-03	6.608E-03
2.47836753783195	8.205E-03	7.821E-03	8.042E-03	7.769E-03
2.51327412287183	9.247E-03	8.890E-03	8.876E-03	8.866E-03
2.54818070791172	1.059E-02	1.013E-02	9.953E-03	9.672E-03
2.58308729295161	1.192E-02	1.134E-02	1.141E-02	1.094E-02
2.61799387799149	1.334E-02	1.251E-02	1.225E-02	1.187E-02
2.65290046303138	1.487E-02	1.378E-02	1.374E-02	1.320E-02
2.68780704807127	1.461E-02	1.434E-02	1.410E-02	1.401E-02
2.72271363311115	1.385E-02	1.381E-02	1.390E-02	1.343E-02
2.75762021815104	1.312E-02	1.263E-02	1.238E-02	1.242E-02
2.79252680319093	1.133E-02	1.102E-02	1.127E-02	1.077E-02
2.82743338823081	9.789E-03	9.392E-03	9.202E-03	9.089E-03
2.8623399732707	8.297E-03	7.966E-03	8.022E-03	7.697E-03
2.89724655831059	7.907E-03	7.333E-03	7.354E-03	7.073E-03
2.93215314335047	9.144E-03	8.321E-03	7.804E-03	7.734E-03
2.96705972839036	1.342E-02	1.284E-02	1.257E-02	1.235E-02
3.00196631343025	1.583E-02	1.458E-02	1.455E-02	1.409E-02
3.03687289847013	1.695E-02	1.560E-02	1.518E-02	1.458E-02
3.07177948351002	2.318E-02	2.137E-02	2.116E-02	2.035E-02
3.10668606854991	4.351E-02	3.949E-02	3.984E-02	3.688E-02
3.12413936106985	8.135E-02	7.158E-02	6.987E-02	6.285E-02
3.13286600732982	1.553E-01	1.343E-01	1.412E-01	1.293E-01
3.14159265358979	5.873E-01	5.364E-01	5.024E-01	4.898E-01
