<?xml version="1.0" encoding="utf-8"  standalone="no"?>
<svg 
 width="1280" height="720"
 viewBox="0 0 1280 720"
 xmlns="http://www.w3.org/2000/svg"
 xmlns:xlink="http://www.w3.org/1999/xlink"
>

<title>Gnuplot</title>
<desc>Produced by GNUPLOT 5.0 patchlevel 6 </desc>

<g id="gnuplot_canvas">

<rect x="0" y="0" width="1280" height="720" fill="none"/>
<defs>

	<circle id='gpDot' r='0.5' stroke-width='0.5'/>
	<path id='gpPt0' stroke-width='0.222' stroke='currentColor' d='M-1,0 h2 M0,-1 v2'/>
	<path id='gpPt1' stroke-width='0.222' stroke='currentColor' d='M-1,-1 L1,1 M1,-1 L-1,1'/>
	<path id='gpPt2' stroke-width='0.222' stroke='currentColor' d='M-1,0 L1,0 M0,-1 L0,1 M-1,-1 L1,1 M-1,1 L1,-1'/>
	<rect id='gpPt3' stroke-width='0.222' stroke='currentColor' x='-1' y='-1' width='2' height='2'/>
	<rect id='gpPt4' stroke-width='0.222' stroke='currentColor' fill='currentColor' x='-1' y='-1' width='2' height='2'/>
	<circle id='gpPt5' stroke-width='0.222' stroke='currentColor' cx='0' cy='0' r='1'/>
	<use xlink:href='#gpPt5' id='gpPt6' fill='currentColor' stroke='none'/>
	<path id='gpPt7' stroke-width='0.222' stroke='currentColor' d='M0,-1.33 L-1.33,0.67 L1.33,0.67 z'/>
	<use xlink:href='#gpPt7' id='gpPt8' fill='currentColor' stroke='none'/>
	<use xlink:href='#gpPt7' id='gpPt9' stroke='currentColor' transform='rotate(180)'/>
	<use xlink:href='#gpPt9' id='gpPt10' fill='currentColor' stroke='none'/>
	<use xlink:href='#gpPt3' id='gpPt11' stroke='currentColor' transform='rotate(45)'/>
	<use xlink:href='#gpPt11' id='gpPt12' fill='currentColor' stroke='none'/>
	<path id='gpPt13' stroke-width='0.222' stroke='currentColor' d='M0,1.330 L1.265,0.411 L0.782,-1.067 L-0.782,-1.076 L-1.265,0.411 z'/>
	<use xlink:href='#gpPt13' id='gpPt14' fill='currentColor' stroke='none'/>
	<filter id='textbox' filterUnits='objectBoundingBox' x='0' y='0' height='1' width='1'>
	  <feFlood flood-color='white' flood-opacity='1' result='bgnd'/>
	  <feComposite in='SourceGraphic' in2='bgnd' operator='atop'/>
	</filter>
	<filter id='greybox' filterUnits='objectBoundingBox' x='0' y='0' height='1' width='1'>
	  <feFlood flood-color='lightgrey' flood-opacity='1' result='grey'/>
	  <feComposite in='SourceGraphic' in2='grey' operator='atop'/>
	</filter>
</defs>
<g fill="none" color="white" stroke="currentColor" stroke-width="1.00" stroke-linecap="butt" stroke-linejoin="miter">
</g>
<g fill="none" color="black" stroke="currentColor" stroke-width="1.00" stroke-linecap="butt" stroke-linejoin="miter">
	<path stroke='black'  d='M112.0,677.8 L121.0,677.8 M1255.0,677.8 L1246.0,677.8  '/>	<g transform="translate(103.7,681.7)" stroke="none" fill="black" font-family="Arial" font-size="12.00"  text-anchor="end">
		<text><tspan font-family="Arial" > 0.0002102</tspan></text>
	</g>
</g>
<g fill="none" color="black" stroke="currentColor" stroke-width="1.00" stroke-linecap="butt" stroke-linejoin="miter">
	<path stroke='black'  d='M112.0,365.9 L121.0,365.9 M1255.0,365.9 L1246.0,365.9  '/>	<g transform="translate(103.7,369.8)" stroke="none" fill="black" font-family="Arial" font-size="12.00"  text-anchor="end">
		<text><tspan font-family="Arial" > 0.00987693</tspan></text>
	</g>
</g>
<g fill="none" color="black" stroke="currentColor" stroke-width="1.00" stroke-linecap="butt" stroke-linejoin="miter">
	<path stroke='black'  d='M112.0,54.1 L121.0,54.1 M1255.0,54.1 L1246.0,54.1  '/>	<g transform="translate(103.7,58.0)" stroke="none" fill="black" font-family="Arial" font-size="12.00"  text-anchor="end">
		<text><tspan font-family="Arial" > 0.4641</tspan></text>
	</g>
</g>
<g fill="none" color="black" stroke="currentColor" stroke-width="1.00" stroke-linecap="butt" stroke-linejoin="miter">
	<path stroke='black'  d='M112.0,684.0 L112.0,675.0 M112.0,54.1 L112.0,63.1  '/>	<g transform="translate(112.0,705.9)" stroke="none" fill="black" font-family="Arial" font-size="12.00"  text-anchor="middle">
		<text><tspan font-family="Arial" > 0</tspan></text>
	</g>
</g>
<g fill="none" color="black" stroke="currentColor" stroke-width="1.00" stroke-linecap="butt" stroke-linejoin="miter">
	<path stroke='black'  d='M683.5,684.0 L683.5,675.0 M683.5,54.1 L683.5,63.1  '/>	<g transform="translate(683.5,705.9)" stroke="none" fill="black" font-family="Arial" font-size="12.00"  text-anchor="middle">
		<text><tspan font-family="Arial" >pi/2</tspan></text>
	</g>
</g>
<g fill="none" color="black" stroke="currentColor" stroke-width="1.00" stroke-linecap="butt" stroke-linejoin="miter">
	<path stroke='black'  d='M1255.0,684.0 L1255.0,675.0 M1255.0,54.1 L1255.0,63.1  '/>	<g transform="translate(1255.0,705.9)" stroke="none" fill="black" font-family="Arial" font-size="12.00"  text-anchor="middle">
		<text><tspan font-family="Arial" >pi</tspan></text>
	</g>
</g>
<g fill="none" color="black" stroke="currentColor" stroke-width="1.00" stroke-linecap="butt" stroke-linejoin="miter">
</g>
<g fill="none" color="black" stroke="currentColor" stroke-width="1.00" stroke-linecap="butt" stroke-linejoin="miter">
	<path stroke='black'  d='M112.0,54.1 L112.0,684.0 L1255.0,684.0 L1255.0,54.1 L112.0,54.1 Z  '/></g>
<g fill="none" color="black" stroke="currentColor" stroke-width="1.00" stroke-linecap="butt" stroke-linejoin="miter">
	<g transform="translate(683.5,31.0)" stroke="none" fill="black" font-family="Arial" font-size="12.00"  text-anchor="middle">
		<text><tspan font-family="Arial" >Material 27</tspan></text>
	</g>
</g>
	<g id="gnuplot_plot_1" ><title>scattering function</title>
<g fill="none" color="black" stroke="currentColor" stroke-width="1.00" stroke-linecap="butt" stroke-linejoin="miter">
	<g transform="translate(1187.9,76.0)" stroke="none" fill="black" font-family="Arial" font-size="12.00"  text-anchor="end">
		<text><tspan font-family="Arial" >scattering function</tspan></text>
	</g>
</g>
<g fill="none" color="black" stroke="currentColor" stroke-width="1.00" stroke-linecap="butt" stroke-linejoin="miter">
	<use xlink:href='#gpPt0' transform='translate(112.0,54.1) scale(4.50)' color='black'/>
	<use xlink:href='#gpPt0' transform='translate(112.6,56.4) scale(4.50)' color='black'/>
	<use xlink:href='#gpPt0' transform='translate(113.3,61.4) scale(4.50)' color='black'/>
	<use xlink:href='#gpPt0' transform='translate(113.9,66.7) scale(4.50)' color='black'/>
	<use xlink:href='#gpPt0' transform='translate(114.5,71.5) scale(4.50)' color='black'/>
	<use xlink:href='#gpPt0' transform='translate(115.2,75.6) scale(4.50)' color='black'/>
	<use xlink:href='#gpPt0' transform='translate(115.8,79.4) scale(4.50)' color='black'/>
	<use xlink:href='#gpPt0' transform='translate(116.4,82.7) scale(4.50)' color='black'/>
	<use xlink:href='#gpPt0' transform='translate(117.1,85.7) scale(4.50)' color='black'/>
	<use xlink:href='#gpPt0' transform='translate(117.7,88.5) scale(4.50)' color='black'/>
	<use xlink:href='#gpPt0' transform='translate(118.4,91.1) scale(4.50)' color='black'/>
	<use xlink:href='#gpPt0' transform='translate(119.0,93.6) scale(4.50)' color='black'/>
	<use xlink:href='#gpPt0' transform='translate(119.6,96.1) scale(4.50)' color='black'/>
	<use xlink:href='#gpPt0' transform='translate(120.3,98.5) scale(4.50)' color='black'/>
	<use xlink:href='#gpPt0' transform='translate(120.9,100.8) scale(4.50)' color='black'/>
	<use xlink:href='#gpPt0' transform='translate(121.5,103.1) scale(4.50)' color='black'/>
	<use xlink:href='#gpPt0' transform='translate(122.2,105.4) scale(4.50)' color='black'/>
	<use xlink:href='#gpPt0' transform='translate(122.8,107.6) scale(4.50)' color='black'/>
	<use xlink:href='#gpPt0' transform='translate(123.4,109.9) scale(4.50)' color='black'/>
	<use xlink:href='#gpPt0' transform='translate(124.1,112.1) scale(4.50)' color='black'/>
	<use xlink:href='#gpPt0' transform='translate(124.7,114.4) scale(4.50)' color='black'/>
	<use xlink:href='#gpPt0' transform='translate(131.1,136.4) scale(4.50)' color='black'/>
	<use xlink:href='#gpPt0' transform='translate(137.4,157.4) scale(4.50)' color='black'/>
	<use xlink:href='#gpPt0' transform='translate(143.8,177.1) scale(4.50)' color='black'/>
	<use xlink:href='#gpPt0' transform='translate(150.1,195.2) scale(4.50)' color='black'/>
	<use xlink:href='#gpPt0' transform='translate(162.8,227.3) scale(4.50)' color='black'/>
	<use xlink:href='#gpPt0' transform='translate(175.5,254.5) scale(4.50)' color='black'/>
	<use xlink:href='#gpPt0' transform='translate(188.2,277.4) scale(4.50)' color='black'/>
	<use xlink:href='#gpPt0' transform='translate(200.9,296.9) scale(4.50)' color='black'/>
	<use xlink:href='#gpPt0' transform='translate(213.6,313.8) scale(4.50)' color='black'/>
	<use xlink:href='#gpPt0' transform='translate(226.3,328.2) scale(4.50)' color='black'/>
	<use xlink:href='#gpPt0' transform='translate(239.0,341.4) scale(4.50)' color='black'/>
	<use xlink:href='#gpPt0' transform='translate(251.7,354.0) scale(4.50)' color='black'/>
	<use xlink:href='#gpPt0' transform='translate(264.4,366.1) scale(4.50)' color='black'/>
	<use xlink:href='#gpPt0' transform='translate(277.1,377.5) scale(4.50)' color='black'/>
	<use xlink:href='#gpPt0' transform='translate(289.8,388.1) scale(4.50)' color='black'/>
	<use xlink:href='#gpPt0' transform='translate(302.5,398.3) scale(4.50)' color='black'/>
	<use xlink:href='#gpPt0' transform='translate(315.2,408.7) scale(4.50)' color='black'/>
	<use xlink:href='#gpPt0' transform='translate(327.9,419.2) scale(4.50)' color='black'/>
	<use xlink:href='#gpPt0' transform='translate(340.6,429.3) scale(4.50)' color='black'/>
	<use xlink:href='#gpPt0' transform='translate(353.3,439.1) scale(4.50)' color='black'/>
	<use xlink:href='#gpPt0' transform='translate(366.0,448.6) scale(4.50)' color='black'/>
	<use xlink:href='#gpPt0' transform='translate(378.7,458.1) scale(4.50)' color='black'/>
	<use xlink:href='#gpPt0' transform='translate(391.4,467.7) scale(4.50)' color='black'/>
	<use xlink:href='#gpPt0' transform='translate(404.1,477.4) scale(4.50)' color='black'/>
	<use xlink:href='#gpPt0' transform='translate(416.8,486.6) scale(4.50)' color='black'/>
	<use xlink:href='#gpPt0' transform='translate(429.5,495.3) scale(4.50)' color='black'/>
	<use xlink:href='#gpPt0' transform='translate(442.2,504.4) scale(4.50)' color='black'/>
	<use xlink:href='#gpPt0' transform='translate(454.9,513.8) scale(4.50)' color='black'/>
	<use xlink:href='#gpPt0' transform='translate(467.6,522.3) scale(4.50)' color='black'/>
	<use xlink:href='#gpPt0' transform='translate(480.3,530.5) scale(4.50)' color='black'/>
	<use xlink:href='#gpPt0' transform='translate(493.0,538.7) scale(4.50)' color='black'/>
	<use xlink:href='#gpPt0' transform='translate(505.7,547.7) scale(4.50)' color='black'/>
	<use xlink:href='#gpPt0' transform='translate(518.4,555.7) scale(4.50)' color='black'/>
	<use xlink:href='#gpPt0' transform='translate(531.1,563.3) scale(4.50)' color='black'/>
	<use xlink:href='#gpPt0' transform='translate(543.8,570.9) scale(4.50)' color='black'/>
	<use xlink:href='#gpPt0' transform='translate(556.5,578.7) scale(4.50)' color='black'/>
	<use xlink:href='#gpPt0' transform='translate(569.2,586.2) scale(4.50)' color='black'/>
	<use xlink:href='#gpPt0' transform='translate(581.9,593.1) scale(4.50)' color='black'/>
	<use xlink:href='#gpPt0' transform='translate(594.6,599.5) scale(4.50)' color='black'/>
	<use xlink:href='#gpPt0' transform='translate(607.3,607.0) scale(4.50)' color='black'/>
	<use xlink:href='#gpPt0' transform='translate(620.0,613.5) scale(4.50)' color='black'/>
	<use xlink:href='#gpPt0' transform='translate(632.7,619.0) scale(4.50)' color='black'/>
	<use xlink:href='#gpPt0' transform='translate(645.4,624.3) scale(4.50)' color='black'/>
	<use xlink:href='#gpPt0' transform='translate(658.1,630.8) scale(4.50)' color='black'/>
	<use xlink:href='#gpPt0' transform='translate(670.8,636.2) scale(4.50)' color='black'/>
	<use xlink:href='#gpPt0' transform='translate(683.5,641.2) scale(4.50)' color='black'/>
	<use xlink:href='#gpPt0' transform='translate(696.2,645.6) scale(4.50)' color='black'/>
	<use xlink:href='#gpPt0' transform='translate(708.9,650.0) scale(4.50)' color='black'/>
	<use xlink:href='#gpPt0' transform='translate(721.6,653.1) scale(4.50)' color='black'/>
	<use xlink:href='#gpPt0' transform='translate(734.3,656.5) scale(4.50)' color='black'/>
	<use xlink:href='#gpPt0' transform='translate(747.0,660.4) scale(4.50)' color='black'/>
	<use xlink:href='#gpPt0' transform='translate(759.7,664.2) scale(4.50)' color='black'/>
	<use xlink:href='#gpPt0' transform='translate(772.4,666.2) scale(4.50)' color='black'/>
	<use xlink:href='#gpPt0' transform='translate(785.1,668.3) scale(4.50)' color='black'/>
	<use xlink:href='#gpPt0' transform='translate(797.8,671.1) scale(4.50)' color='black'/>
	<use xlink:href='#gpPt0' transform='translate(810.5,673.5) scale(4.50)' color='black'/>
	<use xlink:href='#gpPt0' transform='translate(823.2,674.8) scale(4.50)' color='black'/>
	<use xlink:href='#gpPt0' transform='translate(835.9,675.8) scale(4.50)' color='black'/>
	<use xlink:href='#gpPt0' transform='translate(848.6,677.1) scale(4.50)' color='black'/>
	<use xlink:href='#gpPt0' transform='translate(861.3,677.8) scale(4.50)' color='black'/>
	<use xlink:href='#gpPt0' transform='translate(874.0,676.7) scale(4.50)' color='black'/>
	<use xlink:href='#gpPt0' transform='translate(886.7,676.3) scale(4.50)' color='black'/>
	<use xlink:href='#gpPt0' transform='translate(899.4,674.9) scale(4.50)' color='black'/>
	<use xlink:href='#gpPt0' transform='translate(912.1,672.0) scale(4.50)' color='black'/>
	<use xlink:href='#gpPt0' transform='translate(924.8,668.6) scale(4.50)' color='black'/>
	<use xlink:href='#gpPt0' transform='translate(937.5,665.7) scale(4.50)' color='black'/>
	<use xlink:href='#gpPt0' transform='translate(950.2,661.8) scale(4.50)' color='black'/>
	<use xlink:href='#gpPt0' transform='translate(962.9,656.8) scale(4.50)' color='black'/>
	<use xlink:href='#gpPt0' transform='translate(975.6,650.2) scale(4.50)' color='black'/>
	<use xlink:href='#gpPt0' transform='translate(988.3,642.7) scale(4.50)' color='black'/>
	<use xlink:href='#gpPt0' transform='translate(1001.0,635.5) scale(4.50)' color='black'/>
	<use xlink:href='#gpPt0' transform='translate(1013.7,627.6) scale(4.50)' color='black'/>
	<use xlink:href='#gpPt0' transform='translate(1026.4,619.6) scale(4.50)' color='black'/>
	<use xlink:href='#gpPt0' transform='translate(1039.1,611.9) scale(4.50)' color='black'/>
	<use xlink:href='#gpPt0' transform='translate(1051.8,605.8) scale(4.50)' color='black'/>
	<use xlink:href='#gpPt0' transform='translate(1064.5,600.0) scale(4.50)' color='black'/>
	<use xlink:href='#gpPt0' transform='translate(1077.2,594.9) scale(4.50)' color='black'/>
	<use xlink:href='#gpPt0' transform='translate(1089.9,591.5) scale(4.50)' color='black'/>
	<use xlink:href='#gpPt0' transform='translate(1102.6,590.2) scale(4.50)' color='black'/>
	<use xlink:href='#gpPt0' transform='translate(1115.3,588.9) scale(4.50)' color='black'/>
	<use xlink:href='#gpPt0' transform='translate(1128.0,585.2) scale(4.50)' color='black'/>
	<use xlink:href='#gpPt0' transform='translate(1140.7,580.0) scale(4.50)' color='black'/>
	<use xlink:href='#gpPt0' transform='translate(1153.4,575.4) scale(4.50)' color='black'/>
	<use xlink:href='#gpPt0' transform='translate(1166.1,573.2) scale(4.50)' color='black'/>
	<use xlink:href='#gpPt0' transform='translate(1178.8,573.0) scale(4.50)' color='black'/>
	<use xlink:href='#gpPt0' transform='translate(1191.5,576.7) scale(4.50)' color='black'/>
	<use xlink:href='#gpPt0' transform='translate(1204.2,582.8) scale(4.50)' color='black'/>
	<use xlink:href='#gpPt0' transform='translate(1216.9,585.2) scale(4.50)' color='black'/>
	<use xlink:href='#gpPt0' transform='translate(1229.6,579.2) scale(4.50)' color='black'/>
	<use xlink:href='#gpPt0' transform='translate(1242.3,562.7) scale(4.50)' color='black'/>
	<use xlink:href='#gpPt0' transform='translate(1255.0,547.7) scale(4.50)' color='black'/>
	<use xlink:href='#gpPt0' transform='translate(1217.3,72.1) scale(4.50)' color='black'/>
</g>
	</g>
	<g id="gnuplot_plot_2" ><title>1 (convex)</title>
<g fill="none" color="black" stroke="currentColor" stroke-width="1.00" stroke-linecap="butt" stroke-linejoin="miter">
	<g transform="translate(1187.9,94.0)" stroke="none" fill="black" font-family="Arial" font-size="12.00"  text-anchor="end">
		<text><tspan font-family="Arial" >1 (convex)</tspan></text>
	</g>
</g>
<g fill="none" color="black" stroke="currentColor" stroke-width="1.00" stroke-linecap="butt" stroke-linejoin="miter">
	<path stroke='rgb(  0, 158, 115)'  d='M1196.2,90.1 L1238.4,90.1 M112.0,101.6 L113.1,101.6 L114.2,101.7 L115.4,101.9 L116.5,102.1 L117.6,102.4
		L118.7,102.8 L119.8,103.2 L120.9,103.8 L122.1,104.3 L123.2,105.0 L124.3,105.7 L125.4,106.4 L126.5,107.2
		L127.6,108.1 L128.8,109.1 L129.9,110.1 L131.0,111.1 L132.1,112.2 L133.2,113.4 L134.3,114.6 L135.5,115.8
		L136.6,117.1 L137.7,118.5 L138.8,119.9 L139.9,121.3 L141.0,122.8 L142.2,124.3 L143.3,125.9 L144.4,127.4
		L145.5,129.1 L146.6,130.7 L147.8,132.4 L148.9,134.1 L150.0,135.9 L151.1,137.6 L152.2,139.4 L153.3,141.2
		L154.5,143.1 L155.6,144.9 L156.7,146.8 L157.8,148.7 L158.9,150.6 L160.0,152.5 L161.2,154.5 L162.3,156.4
		L163.4,158.4 L164.5,160.4 L165.6,162.4 L166.7,164.4 L167.9,166.4 L169.0,168.4 L170.1,170.4 L171.2,172.4
		L172.3,174.4 L173.5,176.4 L174.6,178.5 L175.7,180.5 L176.8,182.5 L177.9,184.6 L179.0,186.6 L180.2,188.6
		L181.3,190.7 L182.4,192.7 L183.5,194.7 L184.6,196.8 L185.7,198.8 L186.9,200.8 L188.0,202.8 L189.1,204.8
		L190.2,206.8 L191.3,208.8 L192.4,210.8 L193.6,212.8 L194.7,214.8 L195.8,216.8 L196.9,218.7 L198.0,220.7
		L199.1,222.7 L200.3,224.6 L201.4,226.6 L202.5,228.5 L203.6,230.4 L204.7,232.4 L205.9,234.3 L207.0,236.2
		L208.1,238.1 L209.2,240.0 L210.3,241.9 L211.4,243.7 L212.6,245.6 L213.7,247.5 L214.8,249.3 L215.9,251.2
		L217.0,253.0 L218.1,254.8 L219.3,256.6 L220.4,258.4 L221.5,260.2 L222.6,262.0 L223.7,263.8 L224.8,265.6
		L226.0,267.3 L227.1,269.1 L228.2,270.8 L229.3,272.6 L230.4,274.3 L231.6,276.0 L232.7,277.7 L233.8,279.4
		L234.9,281.1 L236.0,282.8 L237.1,284.5 L238.3,286.2 L239.4,287.8 L240.5,289.5 L241.6,291.1 L242.7,292.7
		L243.8,294.4 L245.0,296.0 L246.1,297.6 L247.2,299.2 L248.3,300.8 L249.4,302.4 L250.5,303.9 L251.7,305.5
		L252.8,307.1 L253.9,308.6 L255.0,310.2 L256.1,311.7 L257.2,313.2 L258.4,314.7 L259.5,316.2 L260.6,317.7
		L261.7,319.2 L262.8,320.7 L264.0,322.2 L265.1,323.7 L266.2,325.1 L267.3,326.6 L268.4,328.0 L269.5,329.5
		L270.7,330.9 L271.8,332.3 L272.9,333.7 L274.0,335.2 L275.1,336.6 L276.2,338.0 L277.4,339.3 L278.5,340.7
		L279.6,342.1 L280.7,343.5 L281.8,344.8 L282.9,346.2 L284.1,347.5 L285.2,348.9 L286.3,350.2 L287.4,351.5
		L288.5,352.9 L289.7,354.2 L290.8,355.5 L291.9,356.8 L293.0,358.1 L294.1,359.4 L295.2,360.6 L296.4,361.9
		L297.5,363.2 L298.6,364.4 L299.7,365.7 L300.8,367.0 L301.9,368.2 L303.1,369.4 L304.2,370.7 L305.3,371.9
		L306.4,373.1 L307.5,374.3 L308.6,375.5 L309.8,376.7 L310.9,377.9 L312.0,379.1 L313.1,380.3 L314.2,381.5
		L315.3,382.7 L316.5,383.8 L317.6,385.0 L318.7,386.2 L319.8,387.3 L320.9,388.5 L322.1,389.6 L323.2,390.7
		L324.3,391.9 L325.4,393.0 L326.5,394.1 L327.6,395.2 L328.8,396.3 L329.9,397.4 L331.0,398.5 L332.1,399.6
		L333.2,400.7 L334.3,401.8 L335.5,402.9 L336.6,404.0 L337.7,405.0 L338.8,406.1 L339.9,407.2 L341.0,408.2
		L342.2,409.3 L343.3,410.3 L344.4,411.4 L345.5,412.4 L346.6,413.4 L347.8,414.5 L348.9,415.5 L350.0,416.5
		L351.1,417.5 L352.2,418.5 L353.3,419.5 L354.5,420.5 L355.6,421.5 L356.7,422.5 L357.8,423.5 L358.9,424.5
		L360.0,425.5 L361.2,426.5 L362.3,427.4 L363.4,428.4 L364.5,429.4 L365.6,430.3 L366.7,431.3 L367.9,432.2
		L369.0,433.2 L370.1,434.1 L371.2,435.1 L372.3,436.0 L373.4,436.9 L374.6,437.9 L375.7,438.8 L376.8,439.7
		L377.9,440.6 L379.0,441.6 L380.2,442.5 L381.3,443.4 L382.4,444.3 L383.5,445.2 L384.6,446.1 L385.7,447.0
		L386.9,447.8 L388.0,448.7 L389.1,449.6 L390.2,450.5 L391.3,451.4 L392.4,452.2 L393.6,453.1 L394.7,454.0
		L395.8,454.8 L396.9,455.7 L398.0,456.5 L399.1,457.4 L400.3,458.2 L401.4,459.1 L402.5,459.9 L403.6,460.7
		L404.7,461.6 L405.9,462.4 L407.0,463.2 L408.1,464.1 L409.2,464.9 L410.3,465.7 L411.4,466.5 L412.6,467.3
		L413.7,468.1 L414.8,468.9 L415.9,469.7 L417.0,470.5 L418.1,471.3 L419.3,472.1 L420.4,472.9 L421.5,473.7
		L422.6,474.5 L423.7,475.3 L424.8,476.0 L426.0,476.8 L427.1,477.6 L428.2,478.4 L429.3,479.1 L430.4,479.9
		L431.5,480.6 L432.7,481.4 L433.8,482.2 L434.9,482.9 L436.0,483.7 L437.1,484.4 L438.3,485.2 L439.4,485.9
		L440.5,486.6 L441.6,487.4 L442.7,488.1 L443.8,488.8 L445.0,489.6 L446.1,490.3 L447.2,491.0 L448.3,491.7
		L449.4,492.4 L450.5,493.2 L451.7,493.9 L452.8,494.6 L453.9,495.3 L455.0,496.0 L456.1,496.7 L457.2,497.4
		L458.4,498.1 L459.5,498.8 L460.6,499.5 L461.7,500.2 L462.8,500.9 L464.0,501.5 L465.1,502.2 L466.2,502.9
		L467.3,503.6 L468.4,504.3 L469.5,504.9 L470.7,505.6 L471.8,506.3 L472.9,506.9 L474.0,507.6 L475.1,508.3
		L476.2,508.9 L477.4,509.6 L478.5,510.2 L479.6,510.9 L480.7,511.5 L481.8,512.2 L482.9,512.8 L484.1,513.5
		L485.2,514.1 L486.3,514.8 L487.4,515.4 L488.5,516.0 L489.6,516.7 L490.8,517.3 L491.9,517.9 L493.0,518.5
		L494.1,519.2 L495.2,519.8 L496.4,520.4 L497.5,521.0 L498.6,521.6 L499.7,522.3 L500.8,522.9 L501.9,523.5
		L503.1,524.1 L504.2,524.7 L505.3,525.3 L506.4,525.9 L507.5,526.5 L508.6,527.1 L509.8,527.7 L510.9,528.3
		L512.0,528.9 L513.1,529.5 L514.2,530.1 L515.3,530.6 L516.5,531.2 L517.6,531.8 L518.7,532.4 L519.8,533.0
		L520.9,533.5 L522.0,534.1 L523.2,534.7 L524.3,535.3 L525.4,535.8 L526.5,536.4 L527.6,537.0 L528.8,537.5
		L529.9,538.1 L531.0,538.7 L532.1,539.2 L533.2,539.8 L534.3,540.3 L535.5,540.9 L536.6,541.4 L537.7,542.0
		L538.8,542.5 L539.9,543.1 L541.0,543.6 L542.2,544.2 L543.3,544.7 L544.4,545.2 L545.5,545.8 L546.6,546.3
		L547.7,546.8 L548.9,547.4 L550.0,547.9 L551.1,548.4 L552.2,549.0 L553.3,549.5 L554.5,550.0 L555.6,550.5
		L556.7,551.0 L557.8,551.6 L558.9,552.1 L560.0,552.6 L561.2,553.1 L562.3,553.6 L563.4,554.1 L564.5,554.6
		L565.6,555.1 L566.7,555.7 L567.9,556.2 L569.0,556.7 L570.1,557.2 L571.2,557.7 L572.3,558.2 L573.4,558.7
		L574.6,559.2 L575.7,559.6 L576.8,560.1 L577.9,560.6 L579.0,561.1 L580.1,561.6 L581.3,562.1 L582.4,562.6
		L583.5,563.1 L584.6,563.5 L585.7,564.0 L586.9,564.5 L588.0,565.0 L589.1,565.4 L590.2,565.9 L591.3,566.4
		L592.4,566.9 L593.6,567.3 L594.7,567.8 L595.8,568.3 L596.9,568.7 L598.0,569.2 L599.1,569.7 L600.3,570.1
		L601.4,570.6 L602.5,571.0 L603.6,571.5 L604.7,571.9 L605.8,572.4 L607.0,572.9 L608.1,573.3 L609.2,573.8
		L610.3,574.2 L611.4,574.6 L612.6,575.1 L613.7,575.5 L614.8,576.0 L615.9,576.4 L617.0,576.9 L618.1,577.3
		L619.3,577.7 L620.4,578.2 L621.5,578.6 L622.6,579.0 L623.7,579.5 L624.8,579.9 L626.0,580.3 L627.1,580.8
		L628.2,581.2 L629.3,581.6 L630.4,582.0 L631.5,582.5 L632.7,582.9 L633.8,583.3 L634.9,583.7 L636.0,584.1
		L637.1,584.6 L638.2,585.0 L639.4,585.4 L640.5,585.8 L641.6,586.2 L642.7,586.6 L643.8,587.0 L645.0,587.4
		L646.1,587.8 L647.2,588.3 L648.3,588.7 L649.4,589.1 L650.5,589.5 L651.7,589.9 L652.8,590.3 L653.9,590.7
		L655.0,591.1 L656.1,591.5 L657.2,591.8 L658.4,592.2 L659.5,592.6 L660.6,593.0 L661.7,593.4 L662.8,593.8
		L663.9,594.2 L665.1,594.6 L666.2,595.0 L667.3,595.3 L668.4,595.7 L669.5,596.1 L670.7,596.5 L671.8,596.9
		L672.9,597.2 L674.0,597.6 L675.1,598.0 L676.2,598.4 L677.4,598.7 L678.5,599.1 L679.6,599.5 L680.7,599.9
		L681.8,600.2 L682.9,600.6 L684.1,601.0 L685.2,601.3 L686.3,601.7 L687.4,602.1 L688.5,602.4 L689.6,602.8
		L690.8,603.1 L691.9,603.5 L693.0,603.9 L694.1,604.2 L695.2,604.6 L696.3,604.9 L697.5,605.3 L698.6,605.6
		L699.7,606.0 L700.8,606.3 L701.9,606.7 L703.1,607.0 L704.2,607.4 L705.3,607.7 L706.4,608.1 L707.5,608.4
		L708.6,608.8 L709.8,609.1 L710.9,609.5 L712.0,609.8 L713.1,610.1 L714.2,610.5 L715.3,610.8 L716.5,611.1
		L717.6,611.5 L718.7,611.8 L719.8,612.1 L720.9,612.5 L722.0,612.8 L723.2,613.1 L724.3,613.5 L725.4,613.8
		L726.5,614.1 L727.6,614.4 L728.8,614.8 L729.9,615.1 L731.0,615.4 L732.1,615.7 L733.2,616.1 L734.3,616.4
		L735.5,616.7 L736.6,617.0 L737.7,617.3 L738.8,617.7 L739.9,618.0 L741.0,618.3 L742.2,618.6 L743.3,618.9
		L744.4,619.2 L745.5,619.5 L746.6,619.8 L747.7,620.1 L748.9,620.5 L750.0,620.8 L751.1,621.1 L752.2,621.4
		L753.3,621.7 L754.4,622.0 L755.6,622.3 L756.7,622.6 L757.8,622.9 L758.9,623.2 L760.0,623.5 L761.2,623.8
		L762.3,624.1 L763.4,624.4 L764.5,624.7 L765.6,625.0 L766.7,625.3 L767.9,625.5 L769.0,625.8 L770.1,626.1
		L771.2,626.4 L772.3,626.7 L773.4,627.0 L774.6,627.3 L775.7,627.6 L776.8,627.8 L777.9,628.1 L779.0,628.4
		L780.1,628.7 L781.3,629.0 L782.4,629.3 L783.5,629.5 L784.6,629.8 L785.7,630.1 L786.9,630.4 L788.0,630.6
		L789.1,630.9 L790.2,631.2 L791.3,631.5 L792.4,631.7 L793.6,632.0 L794.7,632.3 L795.8,632.5 L796.9,632.8
		L798.0,633.1 L799.1,633.3 L800.3,633.6 L801.4,633.9 L802.5,634.1 L803.6,634.4 L804.7,634.7 L805.8,634.9
		L807.0,635.2 L808.1,635.5 L809.2,635.7 L810.3,636.0 L811.4,636.2 L812.5,636.5 L813.7,636.7 L814.8,637.0
		L815.9,637.3 L817.0,637.5 L818.1,637.8 L819.3,638.0 L820.4,638.3 L821.5,638.5 L822.6,638.8 L823.7,639.0
		L824.8,639.3 L826.0,639.5 L827.1,639.8 L828.2,640.0 L829.3,640.2 L830.4,640.5 L831.5,640.7 L832.7,641.0
		L833.8,641.2 L834.9,641.5 L836.0,641.7 L837.1,641.9 L838.2,642.2 L839.4,642.4 L840.5,642.6 L841.6,642.9
		L842.7,643.1 L843.8,643.4 L845.0,643.6 L846.1,643.8 L847.2,644.0 L848.3,644.3 L849.4,644.5 L850.5,644.7
		L851.7,645.0 L852.8,645.2 L853.9,645.4 L855.0,645.6 L856.1,645.9 L857.2,646.1 L858.4,646.3 L859.5,646.5
		L860.6,646.8 L861.7,647.0 L862.8,647.2 L863.9,647.4 L865.1,647.7 L866.2,647.9 L867.3,648.1 L868.4,648.3
		L869.5,648.5 L870.6,648.7 L871.8,649.0 L872.9,649.2 L874.0,649.4 L875.1,649.6 L876.2,649.8 L877.4,650.0
		L878.5,650.2 L879.6,650.4 L880.7,650.6 L881.8,650.9 L882.9,651.1 L884.1,651.3 L885.2,651.5 L886.3,651.7
		L887.4,651.9 L888.5,652.1 L889.6,652.3 L890.8,652.5 L891.9,652.7 L893.0,652.9 L894.1,653.1 L895.2,653.3
		L896.3,653.5 L897.5,653.7 L898.6,653.9 L899.7,654.1 L900.8,654.3 L901.9,654.5 L903.0,654.7 L904.2,654.9
		L905.3,655.1 L906.4,655.2 L907.5,655.4 L908.6,655.6 L909.8,655.8 L910.9,656.0 L912.0,656.2 L913.1,656.4
		L914.2,656.6 L915.3,656.8 L916.5,656.9 L917.6,657.1 L918.7,657.3 L919.8,657.5 L920.9,657.7 L922.0,657.9
		L923.2,658.0 L924.3,658.2 L925.4,658.4 L926.5,658.6 L927.6,658.8 L928.7,658.9 L929.9,659.1 L931.0,659.3
		L932.1,659.5 L933.2,659.6 L934.3,659.8 L935.5,660.0 L936.6,660.2 L937.7,660.3 L938.8,660.5 L939.9,660.7
		L941.0,660.9 L942.2,661.0 L943.3,661.2 L944.4,661.4 L945.5,661.5 L946.6,661.7 L947.7,661.9 L948.9,662.0
		L950.0,662.2 L951.1,662.4 L952.2,662.5 L953.3,662.7 L954.4,662.8 L955.6,663.0 L956.7,663.2 L957.8,663.3
		L958.9,663.5 L960.0,663.6 L961.1,663.8 L962.3,664.0 L963.4,664.1 L964.5,664.3 L965.6,664.4 L966.7,664.6
		L967.9,664.7 L969.0,664.9 L970.1,665.0 L971.2,665.2 L972.3,665.4 L973.4,665.5 L974.6,665.7 L975.7,665.8
		L976.8,666.0 L977.9,666.1 L979.0,666.2 L980.1,666.4 L981.3,666.5 L982.4,666.7 L983.5,666.8 L984.6,667.0
		L985.7,667.1 L986.8,667.3 L988.0,667.4 L989.1,667.5 L990.2,667.7 L991.3,667.8 L992.4,668.0 L993.6,668.1
		L994.7,668.2 L995.8,668.4 L996.9,668.5 L998.0,668.7 L999.1,668.8 L1000.3,668.9 L1001.4,669.1 L1002.5,669.2
		L1003.6,669.3 L1004.7,669.5 L1005.8,669.6 L1007.0,669.7 L1008.1,669.9 L1009.2,670.0 L1010.3,670.1 L1011.4,670.2
		L1012.5,670.4 L1013.7,670.5 L1014.8,670.6 L1015.9,670.8 L1017.0,670.9 L1018.1,671.0 L1019.2,671.1 L1020.4,671.3
		L1021.5,671.4 L1022.6,671.5 L1023.7,671.6 L1024.8,671.7 L1026.0,671.9 L1027.1,672.0 L1028.2,672.1 L1029.3,672.2
		L1030.4,672.3 L1031.5,672.5 L1032.7,672.6 L1033.8,672.7 L1034.9,672.8 L1036.0,672.9 L1037.1,673.0 L1038.2,673.2
		L1039.4,673.3 L1040.5,673.4 L1041.6,673.5 L1042.7,673.6 L1043.8,673.7 L1044.9,673.8 L1046.1,673.9 L1047.2,674.0
		L1048.3,674.1 L1049.4,674.3 L1050.5,674.4 L1051.7,674.5 L1052.8,674.6 L1053.9,674.7 L1055.0,674.8 L1056.1,674.9
		L1057.2,675.0 L1058.4,675.1 L1059.5,675.2 L1060.6,675.3 L1061.7,675.4 L1062.8,675.5 L1063.9,675.6 L1065.1,675.7
		L1066.2,675.8 L1067.3,675.9 L1068.4,676.0 L1069.5,676.1 L1070.6,676.2 L1071.8,676.3 L1072.9,676.4 L1074.0,676.5
		L1075.1,676.6 L1076.2,676.7 L1077.3,676.7 L1078.5,676.8 L1079.6,676.9 L1080.7,677.0 L1081.8,677.1 L1082.9,677.2
		L1084.1,677.3 L1085.2,677.4 L1086.3,677.5 L1087.4,677.6 L1088.5,677.6 L1089.6,677.7 L1090.8,677.8 L1091.9,677.9
		L1093.0,678.0 L1094.1,678.1 L1095.2,678.1 L1096.3,678.2 L1097.5,678.3 L1098.6,678.4 L1099.7,678.5 L1100.8,678.5
		L1101.9,678.6 L1103.0,678.7 L1104.2,678.8 L1105.3,678.9 L1106.4,678.9 L1107.5,679.0 L1108.6,679.1 L1109.8,679.2
		L1110.9,679.2 L1112.0,679.3 L1113.1,679.4 L1114.2,679.5 L1115.3,679.5 L1116.5,679.6 L1117.6,679.7 L1118.7,679.7
		L1119.8,679.8 L1120.9,679.9 L1122.0,680.0 L1123.2,680.0 L1124.3,680.1 L1125.4,680.2 L1126.5,680.2 L1127.6,680.3
		L1128.7,680.4 L1129.9,680.4 L1131.0,680.5 L1132.1,680.5 L1133.2,680.6 L1134.3,680.7 L1135.4,680.7 L1136.6,680.8
		L1137.7,680.9 L1138.8,680.9 L1139.9,681.0 L1141.0,681.0 L1142.2,681.1 L1143.3,681.1 L1144.4,681.2 L1145.5,681.3
		L1146.6,681.3 L1147.7,681.4 L1148.9,681.4 L1150.0,681.5 L1151.1,681.5 L1152.2,681.6 L1153.3,681.6 L1154.4,681.7
		L1155.6,681.7 L1156.7,681.8 L1157.8,681.8 L1158.9,681.9 L1160.0,681.9 L1161.1,682.0 L1162.3,682.0 L1163.4,682.1
		L1164.5,682.1 L1165.6,682.2 L1166.7,682.2 L1167.9,682.3 L1169.0,682.3 L1170.1,682.4 L1171.2,682.4 L1172.3,682.4
		L1173.4,682.5 L1174.6,682.5 L1175.7,682.6 L1176.8,682.6 L1177.9,682.6 L1179.0,682.7 L1180.1,682.7 L1181.3,682.8
		L1182.4,682.8 L1183.5,682.8 L1184.6,682.9 L1185.7,682.9 L1186.8,682.9 L1188.0,683.0 L1189.1,683.0 L1190.2,683.0
		L1191.3,683.1 L1192.4,683.1 L1193.5,683.1 L1194.7,683.2 L1195.8,683.2 L1196.9,683.2 L1198.0,683.3 L1199.1,683.3
		L1200.3,683.3 L1201.4,683.3 L1202.5,683.4 L1203.6,683.4 L1204.7,683.4 L1205.8,683.4 L1207.0,683.5 L1208.1,683.5
		L1209.2,683.5 L1210.3,683.5 L1211.4,683.6 L1212.5,683.6 L1213.7,683.6 L1214.8,683.6 L1215.9,683.7 L1217.0,683.7
		L1218.1,683.7 L1219.2,683.7 L1220.4,683.7 L1221.5,683.7 L1222.6,683.8 L1223.7,683.8 L1224.8,683.8 L1226.0,683.8
		L1227.1,683.8 L1228.2,683.8 L1229.3,683.8 L1230.4,683.9 L1231.5,683.9 L1232.7,683.9 L1233.8,683.9 L1234.9,683.9
		L1236.0,683.9 L1237.1,683.9 L1238.2,683.9 L1239.4,683.9 L1240.5,684.0 L1241.6,684.0 L1242.7,684.0 L1243.8,684.0
		L1244.9,684.0 L1246.1,684.0 L1247.2,684.0 L1248.3,684.0 L1249.4,684.0 L1250.5,684.0 L1251.6,684.0 L1252.8,684.0
		L1253.9,684.0 L1255.0,684.0  '/></g>
	</g>
	<g id="gnuplot_plot_3" ><title>2 (convex)</title>
<g fill="none" color="black" stroke="currentColor" stroke-width="1.00" stroke-linecap="butt" stroke-linejoin="miter">
	<g transform="translate(1187.9,112.0)" stroke="none" fill="black" font-family="Arial" font-size="12.00"  text-anchor="end">
		<text><tspan font-family="Arial" >2 (convex)</tspan></text>
	</g>
</g>
<g fill="none" color="black" stroke="currentColor" stroke-width="1.00" stroke-linecap="butt" stroke-linejoin="miter">
	<path stroke='rgb( 86, 180, 233)'  d='M1196.2,108.1 L1238.4,108.1 M112.0,92.9 L113.1,93.0 L114.2,93.1 L115.4,93.4 L116.5,93.8 L117.6,94.3
		L118.7,94.8 L119.8,95.5 L120.9,96.3 L122.1,97.2 L123.2,98.2 L124.3,99.2 L125.4,100.4 L126.5,101.6
		L127.6,103.0 L128.8,104.4 L129.9,105.9 L131.0,107.5 L132.1,109.1 L133.2,110.8 L134.3,112.6 L135.5,114.4
		L136.6,116.3 L137.7,118.3 L138.8,120.3 L139.9,122.4 L141.0,124.5 L142.2,126.7 L143.3,128.9 L144.4,131.1
		L145.5,133.4 L146.6,135.7 L147.8,138.0 L148.9,140.4 L150.0,142.8 L151.1,145.2 L152.2,147.6 L153.3,150.1
		L154.5,152.6 L155.6,155.0 L156.7,157.5 L157.8,160.0 L158.9,162.6 L160.0,165.1 L161.2,167.6 L162.3,170.1
		L163.4,172.7 L164.5,175.2 L165.6,177.8 L166.7,180.3 L167.9,182.8 L169.0,185.4 L170.1,187.9 L171.2,190.4
		L172.3,192.9 L173.5,195.5 L174.6,198.0 L175.7,200.5 L176.8,203.0 L177.9,205.5 L179.0,207.9 L180.2,210.4
		L181.3,212.8 L182.4,215.3 L183.5,217.7 L184.6,220.2 L185.7,222.6 L186.9,225.0 L188.0,227.4 L189.1,229.7
		L190.2,232.1 L191.3,234.4 L192.4,236.8 L193.6,239.1 L194.7,241.4 L195.8,243.7 L196.9,246.0 L198.0,248.3
		L199.1,250.5 L200.3,252.8 L201.4,255.0 L202.5,257.2 L203.6,259.4 L204.7,261.6 L205.9,263.8 L207.0,266.0
		L208.1,268.1 L209.2,270.3 L210.3,272.4 L211.4,274.5 L212.6,276.6 L213.7,278.7 L214.8,280.7 L215.9,282.8
		L217.0,284.8 L218.1,286.9 L219.3,288.9 L220.4,290.9 L221.5,292.9 L222.6,294.9 L223.7,296.8 L224.8,298.8
		L226.0,300.7 L227.1,302.7 L228.2,304.6 L229.3,306.5 L230.4,308.4 L231.6,310.3 L232.7,312.1 L233.8,314.0
		L234.9,315.8 L236.0,317.6 L237.1,319.5 L238.3,321.3 L239.4,323.1 L240.5,324.9 L241.6,326.6 L242.7,328.4
		L243.8,330.1 L245.0,331.9 L246.1,333.6 L247.2,335.3 L248.3,337.0 L249.4,338.7 L250.5,340.4 L251.7,342.1
		L252.8,343.8 L253.9,345.4 L255.0,347.1 L256.1,348.7 L257.2,350.3 L258.4,352.0 L259.5,353.6 L260.6,355.2
		L261.7,356.7 L262.8,358.3 L264.0,359.9 L265.1,361.4 L266.2,363.0 L267.3,364.5 L268.4,366.1 L269.5,367.6
		L270.7,369.1 L271.8,370.6 L272.9,372.1 L274.0,373.6 L275.1,375.1 L276.2,376.5 L277.4,378.0 L278.5,379.4
		L279.6,380.9 L280.7,382.3 L281.8,383.8 L282.9,385.2 L284.1,386.6 L285.2,388.0 L286.3,389.4 L287.4,390.8
		L288.5,392.2 L289.7,393.5 L290.8,394.9 L291.9,396.2 L293.0,397.6 L294.1,398.9 L295.2,400.3 L296.4,401.6
		L297.5,402.9 L298.6,404.2 L299.7,405.5 L300.8,406.8 L301.9,408.1 L303.1,409.4 L304.2,410.7 L305.3,412.0
		L306.4,413.2 L307.5,414.5 L308.6,415.7 L309.8,417.0 L310.9,418.2 L312.0,419.5 L313.1,420.7 L314.2,421.9
		L315.3,423.1 L316.5,424.3 L317.6,425.5 L318.7,426.7 L319.8,427.9 L320.9,429.1 L322.1,430.3 L323.2,431.4
		L324.3,432.6 L325.4,433.8 L326.5,434.9 L327.6,436.1 L328.8,437.2 L329.9,438.4 L331.0,439.5 L332.1,440.6
		L333.2,441.7 L334.3,442.8 L335.5,444.0 L336.6,445.1 L337.7,446.2 L338.8,447.3 L339.9,448.3 L341.0,449.4
		L342.2,450.5 L343.3,451.6 L344.4,452.6 L345.5,453.7 L346.6,454.8 L347.8,455.8 L348.9,456.9 L350.0,457.9
		L351.1,458.9 L352.2,460.0 L353.3,461.0 L354.5,462.0 L355.6,463.0 L356.7,464.1 L357.8,465.1 L358.9,466.1
		L360.0,467.1 L361.2,468.1 L362.3,469.1 L363.4,470.0 L364.5,471.0 L365.6,472.0 L366.7,473.0 L367.9,473.9
		L369.0,474.9 L370.1,475.9 L371.2,476.8 L372.3,477.8 L373.4,478.7 L374.6,479.7 L375.7,480.6 L376.8,481.5
		L377.9,482.5 L379.0,483.4 L380.2,484.3 L381.3,485.2 L382.4,486.1 L383.5,487.1 L384.6,488.0 L385.7,488.9
		L386.9,489.8 L388.0,490.7 L389.1,491.5 L390.2,492.4 L391.3,493.3 L392.4,494.2 L393.6,495.1 L394.7,495.9
		L395.8,496.8 L396.9,497.7 L398.0,498.5 L399.1,499.4 L400.3,500.3 L401.4,501.1 L402.5,501.9 L403.6,502.8
		L404.7,503.6 L405.9,504.5 L407.0,505.3 L408.1,506.1 L409.2,507.0 L410.3,507.8 L411.4,508.6 L412.6,509.4
		L413.7,510.2 L414.8,511.0 L415.9,511.8 L417.0,512.6 L418.1,513.4 L419.3,514.2 L420.4,515.0 L421.5,515.8
		L422.6,516.6 L423.7,517.4 L424.8,518.2 L426.0,518.9 L427.1,519.7 L428.2,520.5 L429.3,521.3 L430.4,522.0
		L431.5,522.8 L432.7,523.5 L433.8,524.3 L434.9,525.1 L436.0,525.8 L437.1,526.5 L438.3,527.3 L439.4,528.0
		L440.5,528.8 L441.6,529.5 L442.7,530.2 L443.8,531.0 L445.0,531.7 L446.1,532.4 L447.2,533.1 L448.3,533.9
		L449.4,534.6 L450.5,535.3 L451.7,536.0 L452.8,536.7 L453.9,537.4 L455.0,538.1 L456.1,538.8 L457.2,539.5
		L458.4,540.2 L459.5,540.9 L460.6,541.6 L461.7,542.3 L462.8,542.9 L464.0,543.6 L465.1,544.3 L466.2,545.0
		L467.3,545.6 L468.4,546.3 L469.5,547.0 L470.7,547.6 L471.8,548.3 L472.9,549.0 L474.0,549.6 L475.1,550.3
		L476.2,550.9 L477.4,551.6 L478.5,552.2 L479.6,552.9 L480.7,553.5 L481.8,554.1 L482.9,554.8 L484.1,555.4
		L485.2,556.0 L486.3,556.7 L487.4,557.3 L488.5,557.9 L489.6,558.5 L490.8,559.2 L491.9,559.8 L493.0,560.4
		L494.1,561.0 L495.2,561.6 L496.4,562.2 L497.5,562.8 L498.6,563.4 L499.7,564.0 L500.8,564.6 L501.9,565.2
		L503.1,565.8 L504.2,566.4 L505.3,567.0 L506.4,567.6 L507.5,568.2 L508.6,568.8 L509.8,569.4 L510.9,569.9
		L512.0,570.5 L513.1,571.1 L514.2,571.7 L515.3,572.2 L516.5,572.8 L517.6,573.4 L518.7,573.9 L519.8,574.5
		L520.9,575.1 L522.0,575.6 L523.2,576.2 L524.3,576.7 L525.4,577.3 L526.5,577.8 L527.6,578.4 L528.8,578.9
		L529.9,579.5 L531.0,580.0 L532.1,580.5 L533.2,581.1 L534.3,581.6 L535.5,582.2 L536.6,582.7 L537.7,583.2
		L538.8,583.7 L539.9,584.3 L541.0,584.8 L542.2,585.3 L543.3,585.8 L544.4,586.3 L545.5,586.9 L546.6,587.4
		L547.7,587.9 L548.9,588.4 L550.0,588.9 L551.1,589.4 L552.2,589.9 L553.3,590.4 L554.5,590.9 L555.6,591.4
		L556.7,591.9 L557.8,592.4 L558.9,592.9 L560.0,593.4 L561.2,593.9 L562.3,594.4 L563.4,594.8 L564.5,595.3
		L565.6,595.8 L566.7,596.3 L567.9,596.8 L569.0,597.2 L570.1,597.7 L571.2,598.2 L572.3,598.7 L573.4,599.1
		L574.6,599.6 L575.7,600.1 L576.8,600.5 L577.9,601.0 L579.0,601.4 L580.1,601.9 L581.3,602.4 L582.4,602.8
		L583.5,603.3 L584.6,603.7 L585.7,604.2 L586.9,604.6 L588.0,605.1 L589.1,605.5 L590.2,605.9 L591.3,606.4
		L592.4,606.8 L593.6,607.2 L594.7,607.7 L595.8,608.1 L596.9,608.5 L598.0,609.0 L599.1,609.4 L600.3,609.8
		L601.4,610.3 L602.5,610.7 L603.6,611.1 L604.7,611.5 L605.8,611.9 L607.0,612.3 L608.1,612.8 L609.2,613.2
		L610.3,613.6 L611.4,614.0 L612.6,614.4 L613.7,614.8 L614.8,615.2 L615.9,615.6 L617.0,616.0 L618.1,616.4
		L619.3,616.8 L620.4,617.2 L621.5,617.6 L622.6,618.0 L623.7,618.4 L624.8,618.8 L626.0,619.1 L627.1,619.5
		L628.2,619.9 L629.3,620.3 L630.4,620.7 L631.5,621.0 L632.7,621.4 L633.8,621.8 L634.9,622.2 L636.0,622.5
		L637.1,622.9 L638.2,623.3 L639.4,623.6 L640.5,624.0 L641.6,624.4 L642.7,624.7 L643.8,625.1 L645.0,625.5
		L646.1,625.8 L647.2,626.2 L648.3,626.5 L649.4,626.9 L650.5,627.2 L651.7,627.6 L652.8,627.9 L653.9,628.3
		L655.0,628.6 L656.1,628.9 L657.2,629.3 L658.4,629.6 L659.5,630.0 L660.6,630.3 L661.7,630.6 L662.8,631.0
		L663.9,631.3 L665.1,631.6 L666.2,631.9 L667.3,632.3 L668.4,632.6 L669.5,632.9 L670.7,633.2 L671.8,633.6
		L672.9,633.9 L674.0,634.2 L675.1,634.5 L676.2,634.8 L677.4,635.1 L678.5,635.4 L679.6,635.7 L680.7,636.0
		L681.8,636.3 L682.9,636.7 L684.1,637.0 L685.2,637.3 L686.3,637.5 L687.4,637.8 L688.5,638.1 L689.6,638.4
		L690.8,638.7 L691.9,639.0 L693.0,639.3 L694.1,639.6 L695.2,639.9 L696.3,640.2 L697.5,640.4 L698.6,640.7
		L699.7,641.0 L700.8,641.3 L701.9,641.5 L703.1,641.8 L704.2,642.1 L705.3,642.4 L706.4,642.6 L707.5,642.9
		L708.6,643.2 L709.8,643.4 L710.9,643.7 L712.0,643.9 L713.1,644.2 L714.2,644.5 L715.3,644.7 L716.5,645.0
		L717.6,645.2 L718.7,645.5 L719.8,645.7 L720.9,646.0 L722.0,646.2 L723.2,646.5 L724.3,646.7 L725.4,646.9
		L726.5,647.2 L727.6,647.4 L728.8,647.6 L729.9,647.9 L731.0,648.1 L732.1,648.3 L733.2,648.6 L734.3,648.8
		L735.5,649.0 L736.6,649.2 L737.7,649.5 L738.8,649.7 L739.9,649.9 L741.0,650.1 L742.2,650.3 L743.3,650.5
		L744.4,650.8 L745.5,651.0 L746.6,651.2 L747.7,651.4 L748.9,651.6 L750.0,651.8 L751.1,652.0 L752.2,652.2
		L753.3,652.4 L754.4,652.6 L755.6,652.8 L756.7,653.0 L757.8,653.2 L758.9,653.3 L760.0,653.5 L761.2,653.7
		L762.3,653.9 L763.4,654.1 L764.5,654.3 L765.6,654.4 L766.7,654.6 L767.9,654.8 L769.0,655.0 L770.1,655.1
		L771.2,655.3 L772.3,655.5 L773.4,655.6 L774.6,655.8 L775.7,656.0 L776.8,656.1 L777.9,656.3 L779.0,656.4
		L780.1,656.6 L781.3,656.7 L782.4,656.9 L783.5,657.0 L784.6,657.2 L785.7,657.3 L786.9,657.5 L788.0,657.6
		L789.1,657.8 L790.2,657.9 L791.3,658.0 L792.4,658.2 L793.6,658.3 L794.7,658.4 L795.8,658.6 L796.9,658.7
		L798.0,658.8 L799.1,658.9 L800.3,659.1 L801.4,659.2 L802.5,659.3 L803.6,659.4 L804.7,659.5 L805.8,659.6
		L807.0,659.8 L808.1,659.9 L809.2,660.0 L810.3,660.1 L811.4,660.2 L812.5,660.3 L813.7,660.4 L814.8,660.5
		L815.9,660.6 L817.0,660.7 L818.1,660.7 L819.3,660.8 L820.4,660.9 L821.5,661.0 L822.6,661.1 L823.7,661.2
		L824.8,661.2 L826.0,661.3 L827.1,661.4 L828.2,661.5 L829.3,661.5 L830.4,661.6 L831.5,661.7 L832.7,661.7
		L833.8,661.8 L834.9,661.9 L836.0,661.9 L837.1,662.0 L838.2,662.0 L839.4,662.1 L840.5,662.1 L841.6,662.2
		L842.7,662.2 L843.8,662.3 L845.0,662.3 L846.1,662.3 L847.2,662.4 L848.3,662.4 L849.4,662.4 L850.5,662.5
		L851.7,662.5 L852.8,662.5 L853.9,662.5 L855.0,662.6 L856.1,662.6 L857.2,662.6 L858.4,662.6 L859.5,662.6
		L860.6,662.6 L861.7,662.6 L862.8,662.6 L863.9,662.7 L865.1,662.7 L866.2,662.7 L867.3,662.6 L868.4,662.6
		L869.5,662.6 L870.6,662.6 L871.8,662.6 L872.9,662.6 L874.0,662.6 L875.1,662.6 L876.2,662.5 L877.4,662.5
		L878.5,662.5 L879.6,662.5 L880.7,662.4 L881.8,662.4 L882.9,662.4 L884.1,662.3 L885.2,662.3 L886.3,662.2
		L887.4,662.2 L888.5,662.1 L889.6,662.1 L890.8,662.0 L891.9,662.0 L893.0,661.9 L894.1,661.9 L895.2,661.8
		L896.3,661.7 L897.5,661.7 L898.6,661.6 L899.7,661.5 L900.8,661.5 L901.9,661.4 L903.0,661.3 L904.2,661.2
		L905.3,661.1 L906.4,661.1 L907.5,661.0 L908.6,660.9 L909.8,660.8 L910.9,660.7 L912.0,660.6 L913.1,660.5
		L914.2,660.4 L915.3,660.3 L916.5,660.2 L917.6,660.0 L918.7,659.9 L919.8,659.8 L920.9,659.7 L922.0,659.6
		L923.2,659.4 L924.3,659.3 L925.4,659.2 L926.5,659.1 L927.6,658.9 L928.7,658.8 L929.9,658.6 L931.0,658.5
		L932.1,658.4 L933.2,658.2 L934.3,658.0 L935.5,657.9 L936.6,657.7 L937.7,657.6 L938.8,657.4 L939.9,657.3
		L941.0,657.1 L942.2,656.9 L943.3,656.7 L944.4,656.6 L945.5,656.4 L946.6,656.2 L947.7,656.0 L948.9,655.8
		L950.0,655.6 L951.1,655.5 L952.2,655.3 L953.3,655.1 L954.4,654.9 L955.6,654.7 L956.7,654.5 L957.8,654.2
		L958.9,654.0 L960.0,653.8 L961.1,653.6 L962.3,653.4 L963.4,653.2 L964.5,652.9 L965.6,652.7 L966.7,652.5
		L967.9,652.2 L969.0,652.0 L970.1,651.8 L971.2,651.5 L972.3,651.3 L973.4,651.0 L974.6,650.8 L975.7,650.5
		L976.8,650.3 L977.9,650.0 L979.0,649.8 L980.1,649.5 L981.3,649.2 L982.4,649.0 L983.5,648.7 L984.6,648.4
		L985.7,648.1 L986.8,647.9 L988.0,647.6 L989.1,647.3 L990.2,647.0 L991.3,646.7 L992.4,646.4 L993.6,646.1
		L994.7,645.8 L995.8,645.5 L996.9,645.2 L998.0,644.9 L999.1,644.6 L1000.3,644.3 L1001.4,644.0 L1002.5,643.6
		L1003.6,643.3 L1004.7,643.0 L1005.8,642.7 L1007.0,642.3 L1008.1,642.0 L1009.2,641.7 L1010.3,641.3 L1011.4,641.0
		L1012.5,640.6 L1013.7,640.3 L1014.8,639.9 L1015.9,639.6 L1017.0,639.2 L1018.1,638.9 L1019.2,638.5 L1020.4,638.2
		L1021.5,637.8 L1022.6,637.4 L1023.7,637.0 L1024.8,636.7 L1026.0,636.3 L1027.1,635.9 L1028.2,635.5 L1029.3,635.2
		L1030.4,634.8 L1031.5,634.4 L1032.7,634.0 L1033.8,633.6 L1034.9,633.2 L1036.0,632.8 L1037.1,632.4 L1038.2,632.0
		L1039.4,631.6 L1040.5,631.2 L1041.6,630.8 L1042.7,630.4 L1043.8,629.9 L1044.9,629.5 L1046.1,629.1 L1047.2,628.7
		L1048.3,628.3 L1049.4,627.8 L1050.5,627.4 L1051.7,627.0 L1052.8,626.5 L1053.9,626.1 L1055.0,625.7 L1056.1,625.2
		L1057.2,624.8 L1058.4,624.3 L1059.5,623.9 L1060.6,623.4 L1061.7,623.0 L1062.8,622.5 L1063.9,622.1 L1065.1,621.6
		L1066.2,621.2 L1067.3,620.7 L1068.4,620.2 L1069.5,619.8 L1070.6,619.3 L1071.8,618.8 L1072.9,618.4 L1074.0,617.9
		L1075.1,617.4 L1076.2,616.9 L1077.3,616.5 L1078.5,616.0 L1079.6,615.5 L1080.7,615.0 L1081.8,614.5 L1082.9,614.0
		L1084.1,613.6 L1085.2,613.1 L1086.3,612.6 L1087.4,612.1 L1088.5,611.6 L1089.6,611.1 L1090.8,610.6 L1091.9,610.1
		L1093.0,609.6 L1094.1,609.1 L1095.2,608.6 L1096.3,608.1 L1097.5,607.6 L1098.6,607.1 L1099.7,606.6 L1100.8,606.1
		L1101.9,605.6 L1103.0,605.1 L1104.2,604.6 L1105.3,604.1 L1106.4,603.6 L1107.5,603.1 L1108.6,602.6 L1109.8,602.0
		L1110.9,601.5 L1112.0,601.0 L1113.1,600.5 L1114.2,600.0 L1115.3,599.5 L1116.5,599.0 L1117.6,598.5 L1118.7,598.0
		L1119.8,597.4 L1120.9,596.9 L1122.0,596.4 L1123.2,595.9 L1124.3,595.4 L1125.4,594.9 L1126.5,594.4 L1127.6,593.9
		L1128.7,593.4 L1129.9,592.8 L1131.0,592.3 L1132.1,591.8 L1133.2,591.3 L1134.3,590.8 L1135.4,590.3 L1136.6,589.8
		L1137.7,589.3 L1138.8,588.8 L1139.9,588.3 L1141.0,587.8 L1142.2,587.3 L1143.3,586.8 L1144.4,586.3 L1145.5,585.8
		L1146.6,585.3 L1147.7,584.8 L1148.9,584.3 L1150.0,583.8 L1151.1,583.4 L1152.2,582.9 L1153.3,582.4 L1154.4,581.9
		L1155.6,581.4 L1156.7,581.0 L1157.8,580.5 L1158.9,580.0 L1160.0,579.5 L1161.1,579.1 L1162.3,578.6 L1163.4,578.1
		L1164.5,577.7 L1165.6,577.2 L1166.7,576.8 L1167.9,576.3 L1169.0,575.9 L1170.1,575.4 L1171.2,575.0 L1172.3,574.6
		L1173.4,574.1 L1174.6,573.7 L1175.7,573.3 L1176.8,572.8 L1177.9,572.4 L1179.0,572.0 L1180.1,571.6 L1181.3,571.2
		L1182.4,570.8 L1183.5,570.4 L1184.6,570.0 L1185.7,569.6 L1186.8,569.2 L1188.0,568.8 L1189.1,568.5 L1190.2,568.1
		L1191.3,567.7 L1192.4,567.3 L1193.5,567.0 L1194.7,566.6 L1195.8,566.3 L1196.9,565.9 L1198.0,565.6 L1199.1,565.3
		L1200.3,564.9 L1201.4,564.6 L1202.5,564.3 L1203.6,564.0 L1204.7,563.7 L1205.8,563.4 L1207.0,563.1 L1208.1,562.8
		L1209.2,562.5 L1210.3,562.2 L1211.4,561.9 L1212.5,561.7 L1213.7,561.4 L1214.8,561.2 L1215.9,560.9 L1217.0,560.7
		L1218.1,560.4 L1219.2,560.2 L1220.4,560.0 L1221.5,559.8 L1222.6,559.6 L1223.7,559.4 L1224.8,559.2 L1226.0,559.0
		L1227.1,558.8 L1228.2,558.6 L1229.3,558.4 L1230.4,558.3 L1231.5,558.1 L1232.7,558.0 L1233.8,557.8 L1234.9,557.7
		L1236.0,557.6 L1237.1,557.5 L1238.2,557.3 L1239.4,557.2 L1240.5,557.1 L1241.6,557.0 L1242.7,557.0 L1243.8,556.9
		L1244.9,556.8 L1246.1,556.8 L1247.2,556.7 L1248.3,556.7 L1249.4,556.6 L1250.5,556.6 L1251.6,556.6 L1252.8,556.5
		L1253.9,556.5 L1255.0,556.5  '/></g>
	</g>
	<g id="gnuplot_plot_4" ><title>4 (convex)</title>
<g fill="none" color="black" stroke="currentColor" stroke-width="1.00" stroke-linecap="butt" stroke-linejoin="miter">
	<g transform="translate(1187.9,130.0)" stroke="none" fill="black" font-family="Arial" font-size="12.00"  text-anchor="end">
		<text><tspan font-family="Arial" >4 (convex)</tspan></text>
	</g>
</g>
<g fill="none" color="black" stroke="currentColor" stroke-width="1.00" stroke-linecap="butt" stroke-linejoin="miter">
	<path stroke='rgb(230, 159,   0)'  d='M1196.2,126.1 L1238.4,126.1 M112.0,67.7 L113.1,68.2 L114.2,69.9 L115.4,72.7 L116.5,76.4 L117.6,80.9
		L118.7,86.0 L119.8,91.6 L120.9,97.5 L122.1,103.6 L123.2,109.8 L124.3,116.0 L125.4,122.0 L126.5,127.9
		L127.6,133.6 L128.8,139.0 L129.9,144.2 L131.0,149.1 L132.1,153.8 L133.2,158.2 L134.3,162.3 L135.5,166.2
		L136.6,169.9 L137.7,173.4 L138.8,176.7 L139.9,179.8 L141.0,182.8 L142.2,185.6 L143.3,188.4 L144.4,190.9
		L145.5,193.4 L146.6,195.8 L147.8,198.1 L148.9,200.4 L150.0,202.6 L151.1,204.7 L152.2,206.7 L153.3,208.8
		L154.5,210.7 L155.6,212.7 L156.7,214.6 L157.8,216.5 L158.9,218.3 L160.0,220.2 L161.2,222.0 L162.3,223.8
		L163.4,225.6 L164.5,227.4 L165.6,229.1 L166.7,230.9 L167.9,232.6 L169.0,234.3 L170.1,236.1 L171.2,237.8
		L172.3,239.5 L173.5,241.2 L174.6,242.9 L175.7,244.6 L176.8,246.3 L177.9,248.0 L179.0,249.7 L180.2,251.4
		L181.3,253.1 L182.4,254.7 L183.5,256.4 L184.6,258.1 L185.7,259.8 L186.9,261.4 L188.0,263.1 L189.1,264.8
		L190.2,266.4 L191.3,268.1 L192.4,269.7 L193.6,271.4 L194.7,273.0 L195.8,274.7 L196.9,276.3 L198.0,277.9
		L199.1,279.6 L200.3,281.2 L201.4,282.8 L202.5,284.5 L203.6,286.1 L204.7,287.7 L205.9,289.3 L207.0,290.9
		L208.1,292.5 L209.2,294.1 L210.3,295.7 L211.4,297.3 L212.6,298.9 L213.7,300.5 L214.8,302.0 L215.9,303.6
		L217.0,305.2 L218.1,306.7 L219.3,308.3 L220.4,309.9 L221.5,311.4 L222.6,313.0 L223.7,314.5 L224.8,316.0
		L226.0,317.6 L227.1,319.1 L228.2,320.6 L229.3,322.1 L230.4,323.6 L231.6,325.1 L232.7,326.6 L233.8,328.1
		L234.9,329.6 L236.0,331.1 L237.1,332.5 L238.3,334.0 L239.4,335.5 L240.5,336.9 L241.6,338.4 L242.7,339.8
		L243.8,341.3 L245.0,342.7 L246.1,344.1 L247.2,345.6 L248.3,347.0 L249.4,348.4 L250.5,349.8 L251.7,351.2
		L252.8,352.6 L253.9,354.0 L255.0,355.4 L256.1,356.7 L257.2,358.1 L258.4,359.5 L259.5,360.8 L260.6,362.2
		L261.7,363.6 L262.8,364.9 L264.0,366.2 L265.1,367.6 L266.2,368.9 L267.3,370.2 L268.4,371.5 L269.5,372.8
		L270.7,374.2 L271.8,375.5 L272.9,376.8 L274.0,378.0 L275.1,379.3 L276.2,380.6 L277.4,381.9 L278.5,383.1
		L279.6,384.4 L280.7,385.7 L281.8,386.9 L282.9,388.2 L284.1,389.4 L285.2,390.6 L286.3,391.9 L287.4,393.1
		L288.5,394.3 L289.7,395.5 L290.8,396.7 L291.9,397.9 L293.0,399.1 L294.1,400.3 L295.2,401.5 L296.4,402.7
		L297.5,403.9 L298.6,405.1 L299.7,406.2 L300.8,407.4 L301.9,408.5 L303.1,409.7 L304.2,410.8 L305.3,412.0
		L306.4,413.1 L307.5,414.3 L308.6,415.4 L309.8,416.5 L310.9,417.6 L312.0,418.8 L313.1,419.9 L314.2,421.0
		L315.3,422.1 L316.5,423.2 L317.6,424.3 L318.7,425.4 L319.8,426.4 L320.9,427.5 L322.1,428.6 L323.2,429.7
		L324.3,430.7 L325.4,431.8 L326.5,432.8 L327.6,433.9 L328.8,434.9 L329.9,436.0 L331.0,437.0 L332.1,438.1
		L333.2,439.1 L334.3,440.1 L335.5,441.1 L336.6,442.1 L337.7,443.2 L338.8,444.2 L339.9,445.2 L341.0,446.2
		L342.2,447.2 L343.3,448.2 L344.4,449.1 L345.5,450.1 L346.6,451.1 L347.8,452.1 L348.9,453.1 L350.0,454.0
		L351.1,455.0 L352.2,456.0 L353.3,456.9 L354.5,457.9 L355.6,458.8 L356.7,459.8 L357.8,460.7 L358.9,461.6
		L360.0,462.6 L361.2,463.5 L362.3,464.4 L363.4,465.4 L364.5,466.3 L365.6,467.2 L366.7,468.1 L367.9,469.0
		L369.0,469.9 L370.1,470.8 L371.2,471.7 L372.3,472.6 L373.4,473.5 L374.6,474.4 L375.7,475.3 L376.8,476.1
		L377.9,477.0 L379.0,477.9 L380.2,478.8 L381.3,479.6 L382.4,480.5 L383.5,481.4 L384.6,482.2 L385.7,483.1
		L386.9,483.9 L388.0,484.8 L389.1,485.6 L390.2,486.4 L391.3,487.3 L392.4,488.1 L393.6,488.9 L394.7,489.8
		L395.8,490.6 L396.9,491.4 L398.0,492.2 L399.1,493.1 L400.3,493.9 L401.4,494.7 L402.5,495.5 L403.6,496.3
		L404.7,497.1 L405.9,497.9 L407.0,498.7 L408.1,499.5 L409.2,500.2 L410.3,501.0 L411.4,501.8 L412.6,502.6
		L413.7,503.4 L414.8,504.1 L415.9,504.9 L417.0,505.7 L418.1,506.4 L419.3,507.2 L420.4,508.0 L421.5,508.7
		L422.6,509.5 L423.7,510.2 L424.8,511.0 L426.0,511.7 L427.1,512.5 L428.2,513.2 L429.3,513.9 L430.4,514.7
		L431.5,515.4 L432.7,516.1 L433.8,516.9 L434.9,517.6 L436.0,518.3 L437.1,519.0 L438.3,519.7 L439.4,520.4
		L440.5,521.2 L441.6,521.9 L442.7,522.6 L443.8,523.3 L445.0,524.0 L446.1,524.7 L447.2,525.4 L448.3,526.0
		L449.4,526.7 L450.5,527.4 L451.7,528.1 L452.8,528.8 L453.9,529.5 L455.0,530.2 L456.1,530.8 L457.2,531.5
		L458.4,532.2 L459.5,532.8 L460.6,533.5 L461.7,534.2 L462.8,534.8 L464.0,535.5 L465.1,536.1 L466.2,536.8
		L467.3,537.4 L468.4,538.1 L469.5,538.7 L470.7,539.4 L471.8,540.0 L472.9,540.7 L474.0,541.3 L475.1,541.9
		L476.2,542.6 L477.4,543.2 L478.5,543.8 L479.6,544.5 L480.7,545.1 L481.8,545.7 L482.9,546.3 L484.1,546.9
		L485.2,547.6 L486.3,548.2 L487.4,548.8 L488.5,549.4 L489.6,550.0 L490.8,550.6 L491.9,551.2 L493.0,551.8
		L494.1,552.4 L495.2,553.0 L496.4,553.6 L497.5,554.2 L498.6,554.8 L499.7,555.4 L500.8,555.9 L501.9,556.5
		L503.1,557.1 L504.2,557.7 L505.3,558.3 L506.4,558.8 L507.5,559.4 L508.6,560.0 L509.8,560.6 L510.9,561.1
		L512.0,561.7 L513.1,562.2 L514.2,562.8 L515.3,563.4 L516.5,563.9 L517.6,564.5 L518.7,565.0 L519.8,565.6
		L520.9,566.1 L522.0,566.7 L523.2,567.2 L524.3,567.8 L525.4,568.3 L526.5,568.9 L527.6,569.4 L528.8,569.9
		L529.9,570.5 L531.0,571.0 L532.1,571.5 L533.2,572.1 L534.3,572.6 L535.5,573.1 L536.6,573.6 L537.7,574.2
		L538.8,574.7 L539.9,575.2 L541.0,575.7 L542.2,576.2 L543.3,576.7 L544.4,577.2 L545.5,577.8 L546.6,578.3
		L547.7,578.8 L548.9,579.3 L550.0,579.8 L551.1,580.3 L552.2,580.8 L553.3,581.3 L554.5,581.8 L555.6,582.3
		L556.7,582.7 L557.8,583.2 L558.9,583.7 L560.0,584.2 L561.2,584.7 L562.3,585.2 L563.4,585.7 L564.5,586.1
		L565.6,586.6 L566.7,587.1 L567.9,587.6 L569.0,588.0 L570.1,588.5 L571.2,589.0 L572.3,589.4 L573.4,589.9
		L574.6,590.4 L575.7,590.8 L576.8,591.3 L577.9,591.7 L579.0,592.2 L580.1,592.7 L581.3,593.1 L582.4,593.6
		L583.5,594.0 L584.6,594.5 L585.7,594.9 L586.9,595.4 L588.0,595.8 L589.1,596.2 L590.2,596.7 L591.3,597.1
		L592.4,597.6 L593.6,598.0 L594.7,598.4 L595.8,598.9 L596.9,599.3 L598.0,599.7 L599.1,600.1 L600.3,600.6
		L601.4,601.0 L602.5,601.4 L603.6,601.8 L604.7,602.3 L605.8,602.7 L607.0,603.1 L608.1,603.5 L609.2,603.9
		L610.3,604.3 L611.4,604.7 L612.6,605.1 L613.7,605.6 L614.8,606.0 L615.9,606.4 L617.0,606.8 L618.1,607.2
		L619.3,607.6 L620.4,608.0 L621.5,608.4 L622.6,608.8 L623.7,609.1 L624.8,609.5 L626.0,609.9 L627.1,610.3
		L628.2,610.7 L629.3,611.1 L630.4,611.5 L631.5,611.9 L632.7,612.2 L633.8,612.6 L634.9,613.0 L636.0,613.4
		L637.1,613.7 L638.2,614.1 L639.4,614.5 L640.5,614.9 L641.6,615.2 L642.7,615.6 L643.8,616.0 L645.0,616.3
		L646.1,616.7 L647.2,617.0 L648.3,617.4 L649.4,617.8 L650.5,618.1 L651.7,618.5 L652.8,618.8 L653.9,619.2
		L655.0,619.5 L656.1,619.9 L657.2,620.2 L658.4,620.6 L659.5,620.9 L660.6,621.3 L661.7,621.6 L662.8,621.9
		L663.9,622.3 L665.1,622.6 L666.2,623.0 L667.3,623.3 L668.4,623.6 L669.5,624.0 L670.7,624.3 L671.8,624.6
		L672.9,624.9 L674.0,625.3 L675.1,625.6 L676.2,625.9 L677.4,626.2 L678.5,626.6 L679.6,626.9 L680.7,627.2
		L681.8,627.5 L682.9,627.8 L684.1,628.1 L685.2,628.4 L686.3,628.7 L687.4,629.1 L688.5,629.4 L689.6,629.7
		L690.8,630.0 L691.9,630.3 L693.0,630.6 L694.1,630.9 L695.2,631.2 L696.3,631.5 L697.5,631.8 L698.6,632.0
		L699.7,632.3 L700.8,632.6 L701.9,632.9 L703.1,633.2 L704.2,633.5 L705.3,633.8 L706.4,634.1 L707.5,634.3
		L708.6,634.6 L709.8,634.9 L710.9,635.2 L712.0,635.4 L713.1,635.7 L714.2,636.0 L715.3,636.3 L716.5,636.5
		L717.6,636.8 L718.7,637.1 L719.8,637.3 L720.9,637.6 L722.0,637.9 L723.2,638.1 L724.3,638.4 L725.4,638.6
		L726.5,638.9 L727.6,639.1 L728.8,639.4 L729.9,639.6 L731.0,639.9 L732.1,640.1 L733.2,640.4 L734.3,640.6
		L735.5,640.9 L736.6,641.1 L737.7,641.3 L738.8,641.6 L739.9,641.8 L741.0,642.1 L742.2,642.3 L743.3,642.5
		L744.4,642.8 L745.5,643.0 L746.6,643.2 L747.7,643.4 L748.9,643.7 L750.0,643.9 L751.1,644.1 L752.2,644.3
		L753.3,644.5 L754.4,644.8 L755.6,645.0 L756.7,645.2 L757.8,645.4 L758.9,645.6 L760.0,645.8 L761.2,646.0
		L762.3,646.2 L763.4,646.4 L764.5,646.6 L765.6,646.8 L766.7,647.0 L767.9,647.2 L769.0,647.4 L770.1,647.6
		L771.2,647.8 L772.3,648.0 L773.4,648.2 L774.6,648.4 L775.7,648.6 L776.8,648.8 L777.9,649.0 L779.0,649.1
		L780.1,649.3 L781.3,649.5 L782.4,649.7 L783.5,649.8 L784.6,650.0 L785.7,650.2 L786.9,650.4 L788.0,650.5
		L789.1,650.7 L790.2,650.9 L791.3,651.0 L792.4,651.2 L793.6,651.3 L794.7,651.5 L795.8,651.7 L796.9,651.8
		L798.0,652.0 L799.1,652.1 L800.3,652.3 L801.4,652.4 L802.5,652.6 L803.6,652.7 L804.7,652.8 L805.8,653.0
		L807.0,653.1 L808.1,653.3 L809.2,653.4 L810.3,653.5 L811.4,653.7 L812.5,653.8 L813.7,653.9 L814.8,654.0
		L815.9,654.2 L817.0,654.3 L818.1,654.4 L819.3,654.5 L820.4,654.7 L821.5,654.8 L822.6,654.9 L823.7,655.0
		L824.8,655.1 L826.0,655.2 L827.1,655.3 L828.2,655.4 L829.3,655.5 L830.4,655.6 L831.5,655.7 L832.7,655.8
		L833.8,655.9 L834.9,656.0 L836.0,656.1 L837.1,656.2 L838.2,656.3 L839.4,656.4 L840.5,656.5 L841.6,656.5
		L842.7,656.6 L843.8,656.7 L845.0,656.8 L846.1,656.8 L847.2,656.9 L848.3,657.0 L849.4,657.1 L850.5,657.1
		L851.7,657.2 L852.8,657.2 L853.9,657.3 L855.0,657.4 L856.1,657.4 L857.2,657.5 L858.4,657.5 L859.5,657.6
		L860.6,657.6 L861.7,657.7 L862.8,657.7 L863.9,657.7 L865.1,657.8 L866.2,657.8 L867.3,657.9 L868.4,657.9
		L869.5,657.9 L870.6,658.0 L871.8,658.0 L872.9,658.0 L874.0,658.0 L875.1,658.0 L876.2,658.1 L877.4,658.1
		L878.5,658.1 L879.6,658.1 L880.7,658.1 L881.8,658.1 L882.9,658.1 L884.1,658.1 L885.2,658.1 L886.3,658.1
		L887.4,658.1 L888.5,658.1 L889.6,658.1 L890.8,658.1 L891.9,658.1 L893.0,658.1 L894.1,658.0 L895.2,658.0
		L896.3,658.0 L897.5,658.0 L898.6,657.9 L899.7,657.9 L900.8,657.9 L901.9,657.8 L903.0,657.8 L904.2,657.8
		L905.3,657.7 L906.4,657.7 L907.5,657.6 L908.6,657.6 L909.8,657.5 L910.9,657.5 L912.0,657.4 L913.1,657.4
		L914.2,657.3 L915.3,657.2 L916.5,657.2 L917.6,657.1 L918.7,657.0 L919.8,656.9 L920.9,656.9 L922.0,656.8
		L923.2,656.7 L924.3,656.6 L925.4,656.5 L926.5,656.4 L927.6,656.4 L928.7,656.3 L929.9,656.2 L931.0,656.1
		L932.1,656.0 L933.2,655.8 L934.3,655.7 L935.5,655.6 L936.6,655.5 L937.7,655.4 L938.8,655.3 L939.9,655.2
		L941.0,655.0 L942.2,654.9 L943.3,654.8 L944.4,654.6 L945.5,654.5 L946.6,654.4 L947.7,654.2 L948.9,654.1
		L950.0,653.9 L951.1,653.8 L952.2,653.6 L953.3,653.5 L954.4,653.3 L955.6,653.2 L956.7,653.0 L957.8,652.8
		L958.9,652.7 L960.0,652.5 L961.1,652.3 L962.3,652.1 L963.4,651.9 L964.5,651.8 L965.6,651.6 L966.7,651.4
		L967.9,651.2 L969.0,651.0 L970.1,650.8 L971.2,650.6 L972.3,650.4 L973.4,650.2 L974.6,650.0 L975.7,649.8
		L976.8,649.5 L977.9,649.3 L979.0,649.1 L980.1,648.9 L981.3,648.7 L982.4,648.4 L983.5,648.2 L984.6,648.0
		L985.7,647.7 L986.8,647.5 L988.0,647.2 L989.1,647.0 L990.2,646.7 L991.3,646.5 L992.4,646.2 L993.6,645.9
		L994.7,645.7 L995.8,645.4 L996.9,645.1 L998.0,644.9 L999.1,644.6 L1000.3,644.3 L1001.4,644.0 L1002.5,643.7
		L1003.6,643.5 L1004.7,643.2 L1005.8,642.9 L1007.0,642.6 L1008.1,642.3 L1009.2,642.0 L1010.3,641.7 L1011.4,641.3
		L1012.5,641.0 L1013.7,640.7 L1014.8,640.4 L1015.9,640.1 L1017.0,639.7 L1018.1,639.4 L1019.2,639.1 L1020.4,638.7
		L1021.5,638.4 L1022.6,638.1 L1023.7,637.7 L1024.8,637.4 L1026.0,637.0 L1027.1,636.7 L1028.2,636.3 L1029.3,636.0
		L1030.4,635.6 L1031.5,635.2 L1032.7,634.9 L1033.8,634.5 L1034.9,634.1 L1036.0,633.7 L1037.1,633.4 L1038.2,633.0
		L1039.4,632.6 L1040.5,632.2 L1041.6,631.8 L1042.7,631.4 L1043.8,631.0 L1044.9,630.6 L1046.1,630.2 L1047.2,629.8
		L1048.3,629.4 L1049.4,629.0 L1050.5,628.6 L1051.7,628.1 L1052.8,627.7 L1053.9,627.3 L1055.0,626.9 L1056.1,626.4
		L1057.2,626.0 L1058.4,625.6 L1059.5,625.1 L1060.6,624.7 L1061.7,624.2 L1062.8,623.8 L1063.9,623.3 L1065.1,622.9
		L1066.2,622.4 L1067.3,622.0 L1068.4,621.5 L1069.5,621.1 L1070.6,620.6 L1071.8,620.1 L1072.9,619.7 L1074.0,619.2
		L1075.1,618.7 L1076.2,618.2 L1077.3,617.8 L1078.5,617.3 L1079.6,616.8 L1080.7,616.3 L1081.8,615.8 L1082.9,615.3
		L1084.1,614.8 L1085.2,614.4 L1086.3,613.9 L1087.4,613.4 L1088.5,612.9 L1089.6,612.4 L1090.8,611.8 L1091.9,611.3
		L1093.0,610.8 L1094.1,610.3 L1095.2,609.8 L1096.3,609.3 L1097.5,608.8 L1098.6,608.3 L1099.7,607.7 L1100.8,607.2
		L1101.9,606.7 L1103.0,606.2 L1104.2,605.7 L1105.3,605.1 L1106.4,604.6 L1107.5,604.1 L1108.6,603.5 L1109.8,603.0
		L1110.9,602.5 L1112.0,602.0 L1113.1,601.4 L1114.2,600.9 L1115.3,600.3 L1116.5,599.8 L1117.6,599.3 L1118.7,598.7
		L1119.8,598.2 L1120.9,597.7 L1122.0,597.1 L1123.2,596.6 L1124.3,596.0 L1125.4,595.5 L1126.5,595.0 L1127.6,594.4
		L1128.7,593.9 L1129.9,593.3 L1131.0,592.8 L1132.1,592.2 L1133.2,591.7 L1134.3,591.2 L1135.4,590.6 L1136.6,590.1
		L1137.7,589.5 L1138.8,589.0 L1139.9,588.5 L1141.0,587.9 L1142.2,587.4 L1143.3,586.8 L1144.4,586.3 L1145.5,585.8
		L1146.6,585.2 L1147.7,584.7 L1148.9,584.2 L1150.0,583.6 L1151.1,583.1 L1152.2,582.6 L1153.3,582.1 L1154.4,581.5
		L1155.6,581.0 L1156.7,580.5 L1157.8,580.0 L1158.9,579.5 L1160.0,578.9 L1161.1,578.4 L1162.3,577.9 L1163.4,577.4
		L1164.5,576.9 L1165.6,576.4 L1166.7,575.9 L1167.9,575.4 L1169.0,574.9 L1170.1,574.4 L1171.2,573.9 L1172.3,573.4
		L1173.4,573.0 L1174.6,572.5 L1175.7,572.0 L1176.8,571.5 L1177.9,571.1 L1179.0,570.6 L1180.1,570.2 L1181.3,569.7
		L1182.4,569.2 L1183.5,568.8 L1184.6,568.4 L1185.7,567.9 L1186.8,567.5 L1188.0,567.1 L1189.1,566.6 L1190.2,566.2
		L1191.3,565.8 L1192.4,565.4 L1193.5,565.0 L1194.7,564.6 L1195.8,564.2 L1196.9,563.8 L1198.0,563.4 L1199.1,563.0
		L1200.3,562.7 L1201.4,562.3 L1202.5,561.9 L1203.6,561.6 L1204.7,561.2 L1205.8,560.9 L1207.0,560.6 L1208.1,560.2
		L1209.2,559.9 L1210.3,559.6 L1211.4,559.3 L1212.5,559.0 L1213.7,558.7 L1214.8,558.4 L1215.9,558.1 L1217.0,557.8
		L1218.1,557.6 L1219.2,557.3 L1220.4,557.0 L1221.5,556.8 L1222.6,556.6 L1223.7,556.3 L1224.8,556.1 L1226.0,555.9
		L1227.1,555.7 L1228.2,555.5 L1229.3,555.3 L1230.4,555.1 L1231.5,554.9 L1232.7,554.7 L1233.8,554.6 L1234.9,554.4
		L1236.0,554.3 L1237.1,554.1 L1238.2,554.0 L1239.4,553.9 L1240.5,553.8 L1241.6,553.7 L1242.7,553.6 L1243.8,553.5
		L1244.9,553.4 L1246.1,553.3 L1247.2,553.3 L1248.3,553.2 L1249.4,553.2 L1250.5,553.1 L1251.6,553.1 L1252.8,553.1
		L1253.9,553.1 L1255.0,553.1  '/></g>
	</g>
	<g id="gnuplot_plot_5" ><title>8 (convex)</title>
<g fill="none" color="black" stroke="currentColor" stroke-width="1.00" stroke-linecap="butt" stroke-linejoin="miter">
	<g transform="translate(1187.9,148.0)" stroke="none" fill="black" font-family="Arial" font-size="12.00"  text-anchor="end">
		<text><tspan font-family="Arial" >8 (convex)</tspan></text>
	</g>
</g>
<g fill="none" color="black" stroke="currentColor" stroke-width="1.00" stroke-linecap="butt" stroke-linejoin="miter">
	<path stroke='rgb(240, 228,  66)'  d='M1196.2,144.1 L1238.4,144.1 M112.0,64.6 L113.1,65.7 L114.2,68.8 L115.4,73.3 L116.5,78.7 L117.6,84.4
		L118.7,90.1 L119.8,95.6 L120.9,100.9 L122.1,106.0 L123.2,110.8 L124.3,115.4 L125.4,119.9 L126.5,124.3
		L127.6,128.6 L128.8,132.7 L129.9,136.8 L131.0,140.8 L132.1,144.7 L133.2,148.5 L134.3,152.2 L135.5,155.8
		L136.6,159.3 L137.7,162.8 L138.8,166.1 L139.9,169.4 L141.0,172.5 L142.2,175.6 L143.3,178.6 L144.4,181.5
		L145.5,184.4 L146.6,187.2 L147.8,189.9 L148.9,192.5 L150.0,195.1 L151.1,197.6 L152.2,200.1 L153.3,202.5
		L154.5,204.8 L155.6,207.1 L156.7,209.4 L157.8,211.6 L158.9,213.8 L160.0,216.0 L161.2,218.1 L162.3,220.2
		L163.4,222.3 L164.5,224.3 L165.6,226.3 L166.7,228.3 L167.9,230.3 L169.0,232.3 L170.1,234.2 L171.2,236.1
		L172.3,238.0 L173.5,239.9 L174.6,241.8 L175.7,243.6 L176.8,245.5 L177.9,247.3 L179.0,249.1 L180.2,250.9
		L181.3,252.7 L182.4,254.5 L183.5,256.3 L184.6,258.0 L185.7,259.8 L186.9,261.5 L188.0,263.3 L189.1,265.0
		L190.2,266.7 L191.3,268.5 L192.4,270.2 L193.6,271.9 L194.7,273.6 L195.8,275.3 L196.9,277.0 L198.0,278.6
		L199.1,280.3 L200.3,282.0 L201.4,283.6 L202.5,285.3 L203.6,286.9 L204.7,288.6 L205.9,290.2 L207.0,291.8
		L208.1,293.5 L209.2,295.1 L210.3,296.7 L211.4,298.3 L212.6,299.9 L213.7,301.5 L214.8,303.1 L215.9,304.6
		L217.0,306.2 L218.1,307.8 L219.3,309.3 L220.4,310.9 L221.5,312.4 L222.6,314.0 L223.7,315.5 L224.8,317.1
		L226.0,318.6 L227.1,320.1 L228.2,321.6 L229.3,323.1 L230.4,324.6 L231.6,326.1 L232.7,327.6 L233.8,329.1
		L234.9,330.6 L236.0,332.1 L237.1,333.5 L238.3,335.0 L239.4,336.4 L240.5,337.9 L241.6,339.3 L242.7,340.8
		L243.8,342.2 L245.0,343.6 L246.1,345.0 L247.2,346.5 L248.3,347.9 L249.4,349.3 L250.5,350.7 L251.7,352.1
		L252.8,353.4 L253.9,354.8 L255.0,356.2 L256.1,357.6 L257.2,358.9 L258.4,360.3 L259.5,361.6 L260.6,363.0
		L261.7,364.3 L262.8,365.7 L264.0,367.0 L265.1,368.3 L266.2,369.6 L267.3,370.9 L268.4,372.2 L269.5,373.5
		L270.7,374.8 L271.8,376.1 L272.9,377.4 L274.0,378.7 L275.1,380.0 L276.2,381.2 L277.4,382.5 L278.5,383.7
		L279.6,385.0 L280.7,386.2 L281.8,387.5 L282.9,388.7 L284.1,389.9 L285.2,391.2 L286.3,392.4 L287.4,393.6
		L288.5,394.8 L289.7,396.0 L290.8,397.2 L291.9,398.4 L293.0,399.6 L294.1,400.8 L295.2,402.0 L296.4,403.1
		L297.5,404.3 L298.6,405.5 L299.7,406.6 L300.8,407.8 L301.9,408.9 L303.1,410.1 L304.2,411.2 L305.3,412.4
		L306.4,413.5 L307.5,414.6 L308.6,415.7 L309.8,416.8 L310.9,418.0 L312.0,419.1 L313.1,420.2 L314.2,421.3
		L315.3,422.3 L316.5,423.4 L317.6,424.5 L318.7,425.6 L319.8,426.7 L320.9,427.7 L322.1,428.8 L323.2,429.9
		L324.3,430.9 L325.4,432.0 L326.5,433.0 L327.6,434.1 L328.8,435.1 L329.9,436.1 L331.0,437.2 L332.1,438.2
		L333.2,439.2 L334.3,440.2 L335.5,441.3 L336.6,442.3 L337.7,443.3 L338.8,444.3 L339.9,445.3 L341.0,446.3
		L342.2,447.3 L343.3,448.2 L344.4,449.2 L345.5,450.2 L346.6,451.2 L347.8,452.1 L348.9,453.1 L350.0,454.1
		L351.1,455.0 L352.2,456.0 L353.3,456.9 L354.5,457.9 L355.6,458.8 L356.7,459.8 L357.8,460.7 L358.9,461.6
		L360.0,462.6 L361.2,463.5 L362.3,464.4 L363.4,465.3 L364.5,466.2 L365.6,467.1 L366.7,468.0 L367.9,468.9
		L369.0,469.8 L370.1,470.7 L371.2,471.6 L372.3,472.5 L373.4,473.4 L374.6,474.3 L375.7,475.2 L376.8,476.0
		L377.9,476.9 L379.0,477.8 L380.2,478.6 L381.3,479.5 L382.4,480.4 L383.5,481.2 L384.6,482.1 L385.7,482.9
		L386.9,483.8 L388.0,484.6 L389.1,485.4 L390.2,486.3 L391.3,487.1 L392.4,487.9 L393.6,488.8 L394.7,489.6
		L395.8,490.4 L396.9,491.2 L398.0,492.0 L399.1,492.8 L400.3,493.6 L401.4,494.5 L402.5,495.3 L403.6,496.1
		L404.7,496.8 L405.9,497.6 L407.0,498.4 L408.1,499.2 L409.2,500.0 L410.3,500.8 L411.4,501.6 L412.6,502.3
		L413.7,503.1 L414.8,503.9 L415.9,504.6 L417.0,505.4 L418.1,506.2 L419.3,506.9 L420.4,507.7 L421.5,508.4
		L422.6,509.2 L423.7,509.9 L424.8,510.7 L426.0,511.4 L427.1,512.1 L428.2,512.9 L429.3,513.6 L430.4,514.3
		L431.5,515.1 L432.7,515.8 L433.8,516.5 L434.9,517.2 L436.0,517.9 L437.1,518.7 L438.3,519.4 L439.4,520.1
		L440.5,520.8 L441.6,521.5 L442.7,522.2 L443.8,522.9 L445.0,523.6 L446.1,524.3 L447.2,525.0 L448.3,525.7
		L449.4,526.3 L450.5,527.0 L451.7,527.7 L452.8,528.4 L453.9,529.1 L455.0,529.7 L456.1,530.4 L457.2,531.1
		L458.4,531.7 L459.5,532.4 L460.6,533.1 L461.7,533.7 L462.8,534.4 L464.0,535.0 L465.1,535.7 L466.2,536.3
		L467.3,537.0 L468.4,537.6 L469.5,538.3 L470.7,538.9 L471.8,539.6 L472.9,540.2 L474.0,540.8 L475.1,541.5
		L476.2,542.1 L477.4,542.7 L478.5,543.4 L479.6,544.0 L480.7,544.6 L481.8,545.2 L482.9,545.8 L484.1,546.4
		L485.2,547.1 L486.3,547.7 L487.4,548.3 L488.5,548.9 L489.6,549.5 L490.8,550.1 L491.9,550.7 L493.0,551.3
		L494.1,551.9 L495.2,552.5 L496.4,553.1 L497.5,553.7 L498.6,554.2 L499.7,554.8 L500.8,555.4 L501.9,556.0
		L503.1,556.6 L504.2,557.1 L505.3,557.7 L506.4,558.3 L507.5,558.9 L508.6,559.4 L509.8,560.0 L510.9,560.6
		L512.0,561.1 L513.1,561.7 L514.2,562.2 L515.3,562.8 L516.5,563.4 L517.6,563.9 L518.7,564.5 L519.8,565.0
		L520.9,565.6 L522.0,566.1 L523.2,566.6 L524.3,567.2 L525.4,567.7 L526.5,568.3 L527.6,568.8 L528.8,569.3
		L529.9,569.9 L531.0,570.4 L532.1,570.9 L533.2,571.4 L534.3,572.0 L535.5,572.5 L536.6,573.0 L537.7,573.5
		L538.8,574.0 L539.9,574.6 L541.0,575.1 L542.2,575.6 L543.3,576.1 L544.4,576.6 L545.5,577.1 L546.6,577.6
		L547.7,578.1 L548.9,578.6 L550.0,579.1 L551.1,579.6 L552.2,580.1 L553.3,580.6 L554.5,581.1 L555.6,581.6
		L556.7,582.1 L557.8,582.6 L558.9,583.0 L560.0,583.5 L561.2,584.0 L562.3,584.5 L563.4,585.0 L564.5,585.4
		L565.6,585.9 L566.7,586.4 L567.9,586.9 L569.0,587.3 L570.1,587.8 L571.2,588.3 L572.3,588.7 L573.4,589.2
		L574.6,589.7 L575.7,590.1 L576.8,590.6 L577.9,591.0 L579.0,591.5 L580.1,591.9 L581.3,592.4 L582.4,592.8
		L583.5,593.3 L584.6,593.7 L585.7,594.2 L586.9,594.6 L588.0,595.1 L589.1,595.5 L590.2,595.9 L591.3,596.4
		L592.4,596.8 L593.6,597.2 L594.7,597.7 L595.8,598.1 L596.9,598.5 L598.0,599.0 L599.1,599.4 L600.3,599.8
		L601.4,600.2 L602.5,600.6 L603.6,601.1 L604.7,601.5 L605.8,601.9 L607.0,602.3 L608.1,602.7 L609.2,603.1
		L610.3,603.5 L611.4,604.0 L612.6,604.4 L613.7,604.8 L614.8,605.2 L615.9,605.6 L617.0,606.0 L618.1,606.4
		L619.3,606.8 L620.4,607.2 L621.5,607.6 L622.6,607.9 L623.7,608.3 L624.8,608.7 L626.0,609.1 L627.1,609.5
		L628.2,609.9 L629.3,610.3 L630.4,610.6 L631.5,611.0 L632.7,611.4 L633.8,611.8 L634.9,612.2 L636.0,612.5
		L637.1,612.9 L638.2,613.3 L639.4,613.6 L640.5,614.0 L641.6,614.4 L642.7,614.7 L643.8,615.1 L645.0,615.5
		L646.1,615.8 L647.2,616.2 L648.3,616.5 L649.4,616.9 L650.5,617.2 L651.7,617.6 L652.8,618.0 L653.9,618.3
		L655.0,618.6 L656.1,619.0 L657.2,619.3 L658.4,619.7 L659.5,620.0 L660.6,620.4 L661.7,620.7 L662.8,621.0
		L663.9,621.4 L665.1,621.7 L666.2,622.0 L667.3,622.4 L668.4,622.7 L669.5,623.0 L670.7,623.4 L671.8,623.7
		L672.9,624.0 L674.0,624.3 L675.1,624.7 L676.2,625.0 L677.4,625.3 L678.5,625.6 L679.6,625.9 L680.7,626.2
		L681.8,626.6 L682.9,626.9 L684.1,627.2 L685.2,627.5 L686.3,627.8 L687.4,628.1 L688.5,628.4 L689.6,628.7
		L690.8,629.0 L691.9,629.3 L693.0,629.6 L694.1,629.9 L695.2,630.2 L696.3,630.5 L697.5,630.8 L698.6,631.1
		L699.7,631.3 L700.8,631.6 L701.9,631.9 L703.1,632.2 L704.2,632.5 L705.3,632.8 L706.4,633.0 L707.5,633.3
		L708.6,633.6 L709.8,633.9 L710.9,634.1 L712.0,634.4 L713.1,634.7 L714.2,635.0 L715.3,635.2 L716.5,635.5
		L717.6,635.8 L718.7,636.0 L719.8,636.3 L720.9,636.5 L722.0,636.8 L723.2,637.1 L724.3,637.3 L725.4,637.6
		L726.5,637.8 L727.6,638.1 L728.8,638.3 L729.9,638.6 L731.0,638.8 L732.1,639.1 L733.2,639.3 L734.3,639.5
		L735.5,639.8 L736.6,640.0 L737.7,640.3 L738.8,640.5 L739.9,640.7 L741.0,641.0 L742.2,641.2 L743.3,641.4
		L744.4,641.6 L745.5,641.9 L746.6,642.1 L747.7,642.3 L748.9,642.5 L750.0,642.8 L751.1,643.0 L752.2,643.2
		L753.3,643.4 L754.4,643.6 L755.6,643.8 L756.7,644.0 L757.8,644.3 L758.9,644.5 L760.0,644.7 L761.2,644.9
		L762.3,645.1 L763.4,645.3 L764.5,645.5 L765.6,645.7 L766.7,645.9 L767.9,646.1 L769.0,646.3 L770.1,646.4
		L771.2,646.6 L772.3,646.8 L773.4,647.0 L774.6,647.2 L775.7,647.4 L776.8,647.6 L777.9,647.7 L779.0,647.9
		L780.1,648.1 L781.3,648.3 L782.4,648.4 L783.5,648.6 L784.6,648.8 L785.7,649.0 L786.9,649.1 L788.0,649.3
		L789.1,649.4 L790.2,649.6 L791.3,649.8 L792.4,649.9 L793.6,650.1 L794.7,650.2 L795.8,650.4 L796.9,650.5
		L798.0,650.7 L799.1,650.8 L800.3,651.0 L801.4,651.1 L802.5,651.3 L803.6,651.4 L804.7,651.6 L805.8,651.7
		L807.0,651.8 L808.1,652.0 L809.2,652.1 L810.3,652.2 L811.4,652.4 L812.5,652.5 L813.7,652.6 L814.8,652.7
		L815.9,652.8 L817.0,653.0 L818.1,653.1 L819.3,653.2 L820.4,653.3 L821.5,653.4 L822.6,653.5 L823.7,653.6
		L824.8,653.8 L826.0,653.9 L827.1,654.0 L828.2,654.1 L829.3,654.2 L830.4,654.3 L831.5,654.4 L832.7,654.5
		L833.8,654.5 L834.9,654.6 L836.0,654.7 L837.1,654.8 L838.2,654.9 L839.4,655.0 L840.5,655.1 L841.6,655.1
		L842.7,655.2 L843.8,655.3 L845.0,655.4 L846.1,655.4 L847.2,655.5 L848.3,655.6 L849.4,655.6 L850.5,655.7
		L851.7,655.8 L852.8,655.8 L853.9,655.9 L855.0,655.9 L856.1,656.0 L857.2,656.0 L858.4,656.1 L859.5,656.1
		L860.6,656.2 L861.7,656.2 L862.8,656.2 L863.9,656.3 L865.1,656.3 L866.2,656.4 L867.3,656.4 L868.4,656.4
		L869.5,656.4 L870.6,656.5 L871.8,656.5 L872.9,656.5 L874.0,656.5 L875.1,656.6 L876.2,656.6 L877.4,656.6
		L878.5,656.6 L879.6,656.6 L880.7,656.6 L881.8,656.6 L882.9,656.6 L884.1,656.6 L885.2,656.6 L886.3,656.6
		L887.4,656.6 L888.5,656.6 L889.6,656.6 L890.8,656.6 L891.9,656.6 L893.0,656.5 L894.1,656.5 L895.2,656.5
		L896.3,656.5 L897.5,656.4 L898.6,656.4 L899.7,656.4 L900.8,656.3 L901.9,656.3 L903.0,656.3 L904.2,656.2
		L905.3,656.2 L906.4,656.1 L907.5,656.1 L908.6,656.0 L909.8,656.0 L910.9,655.9 L912.0,655.9 L913.1,655.8
		L914.2,655.7 L915.3,655.7 L916.5,655.6 L917.6,655.5 L918.7,655.5 L919.8,655.4 L920.9,655.3 L922.0,655.2
		L923.2,655.2 L924.3,655.1 L925.4,655.0 L926.5,654.9 L927.6,654.8 L928.7,654.7 L929.9,654.6 L931.0,654.5
		L932.1,654.4 L933.2,654.3 L934.3,654.2 L935.5,654.1 L936.6,654.0 L937.7,653.9 L938.8,653.7 L939.9,653.6
		L941.0,653.5 L942.2,653.4 L943.3,653.2 L944.4,653.1 L945.5,653.0 L946.6,652.8 L947.7,652.7 L948.9,652.5
		L950.0,652.4 L951.1,652.3 L952.2,652.1 L953.3,652.0 L954.4,651.8 L955.6,651.6 L956.7,651.5 L957.8,651.3
		L958.9,651.1 L960.0,651.0 L961.1,650.8 L962.3,650.6 L963.4,650.5 L964.5,650.3 L965.6,650.1 L966.7,649.9
		L967.9,649.7 L969.0,649.5 L970.1,649.3 L971.2,649.1 L972.3,648.9 L973.4,648.7 L974.6,648.5 L975.7,648.3
		L976.8,648.1 L977.9,647.9 L979.0,647.7 L980.1,647.5 L981.3,647.2 L982.4,647.0 L983.5,646.8 L984.6,646.6
		L985.7,646.3 L986.8,646.1 L988.0,645.8 L989.1,645.6 L990.2,645.4 L991.3,645.1 L992.4,644.9 L993.6,644.6
		L994.7,644.3 L995.8,644.1 L996.9,643.8 L998.0,643.6 L999.1,643.3 L1000.3,643.0 L1001.4,642.7 L1002.5,642.5
		L1003.6,642.2 L1004.7,641.9 L1005.8,641.6 L1007.0,641.3 L1008.1,641.0 L1009.2,640.8 L1010.3,640.5 L1011.4,640.2
		L1012.5,639.9 L1013.7,639.5 L1014.8,639.2 L1015.9,638.9 L1017.0,638.6 L1018.1,638.3 L1019.2,638.0 L1020.4,637.7
		L1021.5,637.3 L1022.6,637.0 L1023.7,636.7 L1024.8,636.3 L1026.0,636.0 L1027.1,635.7 L1028.2,635.3 L1029.3,635.0
		L1030.4,634.6 L1031.5,634.3 L1032.7,633.9 L1033.8,633.6 L1034.9,633.2 L1036.0,632.8 L1037.1,632.5 L1038.2,632.1
		L1039.4,631.7 L1040.5,631.4 L1041.6,631.0 L1042.7,630.6 L1043.8,630.2 L1044.9,629.9 L1046.1,629.5 L1047.2,629.1
		L1048.3,628.7 L1049.4,628.3 L1050.5,627.9 L1051.7,627.5 L1052.8,627.1 L1053.9,626.7 L1055.0,626.3 L1056.1,625.9
		L1057.2,625.5 L1058.4,625.1 L1059.5,624.6 L1060.6,624.2 L1061.7,623.8 L1062.8,623.4 L1063.9,623.0 L1065.1,622.5
		L1066.2,622.1 L1067.3,621.7 L1068.4,621.2 L1069.5,620.8 L1070.6,620.4 L1071.8,619.9 L1072.9,619.5 L1074.0,619.0
		L1075.1,618.6 L1076.2,618.1 L1077.3,617.7 L1078.5,617.2 L1079.6,616.8 L1080.7,616.3 L1081.8,615.9 L1082.9,615.4
		L1084.1,614.9 L1085.2,614.5 L1086.3,614.0 L1087.4,613.5 L1088.5,613.1 L1089.6,612.6 L1090.8,612.1 L1091.9,611.6
		L1093.0,611.2 L1094.1,610.7 L1095.2,610.2 L1096.3,609.7 L1097.5,609.2 L1098.6,608.8 L1099.7,608.3 L1100.8,607.8
		L1101.9,607.3 L1103.0,606.8 L1104.2,606.3 L1105.3,605.8 L1106.4,605.3 L1107.5,604.8 L1108.6,604.3 L1109.8,603.8
		L1110.9,603.3 L1112.0,602.8 L1113.1,602.4 L1114.2,601.9 L1115.3,601.4 L1116.5,600.9 L1117.6,600.4 L1118.7,599.9
		L1119.8,599.3 L1120.9,598.8 L1122.0,598.3 L1123.2,597.8 L1124.3,597.3 L1125.4,596.8 L1126.5,596.3 L1127.6,595.8
		L1128.7,595.3 L1129.9,594.8 L1131.0,594.3 L1132.1,593.8 L1133.2,593.3 L1134.3,592.8 L1135.4,592.3 L1136.6,591.8
		L1137.7,591.3 L1138.8,590.8 L1139.9,590.3 L1141.0,589.8 L1142.2,589.3 L1143.3,588.8 L1144.4,588.3 L1145.5,587.8
		L1146.6,587.3 L1147.7,586.9 L1148.9,586.4 L1150.0,585.9 L1151.1,585.4 L1152.2,584.9 L1153.3,584.4 L1154.4,583.9
		L1155.6,583.5 L1156.7,583.0 L1157.8,582.5 L1158.9,582.0 L1160.0,581.6 L1161.1,581.1 L1162.3,580.6 L1163.4,580.2
		L1164.5,579.7 L1165.6,579.2 L1166.7,578.8 L1167.9,578.3 L1169.0,577.9 L1170.1,577.4 L1171.2,577.0 L1172.3,576.5
		L1173.4,576.1 L1174.6,575.6 L1175.7,575.2 L1176.8,574.8 L1177.9,574.4 L1179.0,573.9 L1180.1,573.5 L1181.3,573.1
		L1182.4,572.7 L1183.5,572.3 L1184.6,571.9 L1185.7,571.5 L1186.8,571.1 L1188.0,570.7 L1189.1,570.3 L1190.2,569.9
		L1191.3,569.5 L1192.4,569.2 L1193.5,568.8 L1194.7,568.4 L1195.8,568.1 L1196.9,567.7 L1198.0,567.4 L1199.1,567.0
		L1200.3,566.7 L1201.4,566.4 L1202.5,566.0 L1203.6,565.7 L1204.7,565.4 L1205.8,565.1 L1207.0,564.8 L1208.1,564.5
		L1209.2,564.2 L1210.3,563.9 L1211.4,563.6 L1212.5,563.3 L1213.7,563.1 L1214.8,562.8 L1215.9,562.6 L1217.0,562.3
		L1218.1,562.1 L1219.2,561.8 L1220.4,561.6 L1221.5,561.4 L1222.6,561.2 L1223.7,560.9 L1224.8,560.7 L1226.0,560.5
		L1227.1,560.4 L1228.2,560.2 L1229.3,560.0 L1230.4,559.8 L1231.5,559.7 L1232.7,559.5 L1233.8,559.4 L1234.9,559.2
		L1236.0,559.1 L1237.1,559.0 L1238.2,558.9 L1239.4,558.7 L1240.5,558.6 L1241.6,558.5 L1242.7,558.5 L1243.8,558.4
		L1244.9,558.3 L1246.1,558.2 L1247.2,558.2 L1248.3,558.1 L1249.4,558.1 L1250.5,558.1 L1251.6,558.0 L1252.8,558.0
		L1253.9,558.0 L1255.0,558.0  '/></g>
	</g>
<g fill="none" color="white" stroke="rgb(240, 228,  66)" stroke-width="2.00" stroke-linecap="butt" stroke-linejoin="miter">
</g>
<g fill="none" color="black" stroke="currentColor" stroke-width="2.00" stroke-linecap="butt" stroke-linejoin="miter">
</g>
<g fill="none" color="black" stroke="black" stroke-width="1.00" stroke-linecap="butt" stroke-linejoin="miter">
</g>
<g fill="none" color="black" stroke="currentColor" stroke-width="1.00" stroke-linecap="butt" stroke-linejoin="miter">
	<path stroke='black'  d='M112.0,54.1 L112.0,684.0 L1255.0,684.0 L1255.0,54.1 L112.0,54.1 Z  '/></g>
<g fill="none" color="black" stroke="currentColor" stroke-width="1.00" stroke-linecap="butt" stroke-linejoin="miter">
</g>
</g>
</svg>

