<?xml version="1.0" encoding="utf-8"  standalone="no"?>
<svg 
 width="1280" height="720"
 viewBox="0 0 1280 720"
 xmlns="http://www.w3.org/2000/svg"
 xmlns:xlink="http://www.w3.org/1999/xlink"
>

<title>Gnuplot</title>
<desc>Produced by GNUPLOT 5.0 patchlevel 6 </desc>

<g id="gnuplot_canvas">

<rect x="0" y="0" width="1280" height="720" fill="none"/>
<defs>

	<circle id='gpDot' r='0.5' stroke-width='0.5'/>
	<path id='gpPt0' stroke-width='0.222' stroke='currentColor' d='M-1,0 h2 M0,-1 v2'/>
	<path id='gpPt1' stroke-width='0.222' stroke='currentColor' d='M-1,-1 L1,1 M1,-1 L-1,1'/>
	<path id='gpPt2' stroke-width='0.222' stroke='currentColor' d='M-1,0 L1,0 M0,-1 L0,1 M-1,-1 L1,1 M-1,1 L1,-1'/>
	<rect id='gpPt3' stroke-width='0.222' stroke='currentColor' x='-1' y='-1' width='2' height='2'/>
	<rect id='gpPt4' stroke-width='0.222' stroke='currentColor' fill='currentColor' x='-1' y='-1' width='2' height='2'/>
	<circle id='gpPt5' stroke-width='0.222' stroke='currentColor' cx='0' cy='0' r='1'/>
	<use xlink:href='#gpPt5' id='gpPt6' fill='currentColor' stroke='none'/>
	<path id='gpPt7' stroke-width='0.222' stroke='currentColor' d='M0,-1.33 L-1.33,0.67 L1.33,0.67 z'/>
	<use xlink:href='#gpPt7' id='gpPt8' fill='currentColor' stroke='none'/>
	<use xlink:href='#gpPt7' id='gpPt9' stroke='currentColor' transform='rotate(180)'/>
	<use xlink:href='#gpPt9' id='gpPt10' fill='currentColor' stroke='none'/>
	<use xlink:href='#gpPt3' id='gpPt11' stroke='currentColor' transform='rotate(45)'/>
	<use xlink:href='#gpPt11' id='gpPt12' fill='currentColor' stroke='none'/>
	<path id='gpPt13' stroke-width='0.222' stroke='currentColor' d='M0,1.330 L1.265,0.411 L0.782,-1.067 L-0.782,-1.076 L-1.265,0.411 z'/>
	<use xlink:href='#gpPt13' id='gpPt14' fill='currentColor' stroke='none'/>
	<filter id='textbox' filterUnits='objectBoundingBox' x='0' y='0' height='1' width='1'>
	  <feFlood flood-color='white' flood-opacity='1' result='bgnd'/>
	  <feComposite in='SourceGraphic' in2='bgnd' operator='atop'/>
	</filter>
	<filter id='greybox' filterUnits='objectBoundingBox' x='0' y='0' height='1' width='1'>
	  <feFlood flood-color='lightgrey' flood-opacity='1' result='grey'/>
	  <feComposite in='SourceGraphic' in2='grey' operator='atop'/>
	</filter>
</defs>
<g fill="none" color="white" stroke="currentColor" stroke-width="1.00" stroke-linecap="butt" stroke-linejoin="miter">
</g>
<g fill="none" color="black" stroke="currentColor" stroke-width="1.00" stroke-linecap="butt" stroke-linejoin="miter">
	<path stroke='black'  d='M103.7,662.2 L112.7,662.2 M1255.0,662.2 L1246.0,662.2  '/>	<g transform="translate(95.4,666.1)" stroke="none" fill="black" font-family="Arial" font-size="12.00"  text-anchor="end">
		<text><tspan font-family="Arial" > 0.0005641</tspan></text>
	</g>
</g>
<g fill="none" color="black" stroke="currentColor" stroke-width="1.00" stroke-linecap="butt" stroke-linejoin="miter">
	<path stroke='black'  d='M103.7,359.2 L112.7,359.2 M1255.0,359.2 L1246.0,359.2  '/>	<g transform="translate(95.4,363.1)" stroke="none" fill="black" font-family="Arial" font-size="12.00"  text-anchor="end">
		<text><tspan font-family="Arial" > 0.0160243</tspan></text>
	</g>
</g>
<g fill="none" color="black" stroke="currentColor" stroke-width="1.00" stroke-linecap="butt" stroke-linejoin="miter">
	<path stroke='black'  d='M103.7,56.3 L112.7,56.3 M1255.0,56.3 L1246.0,56.3  '/>	<g transform="translate(95.4,60.2)" stroke="none" fill="black" font-family="Arial" font-size="12.00"  text-anchor="end">
		<text><tspan font-family="Arial" > 0.4552</tspan></text>
	</g>
</g>
<g fill="none" color="black" stroke="currentColor" stroke-width="1.00" stroke-linecap="butt" stroke-linejoin="miter">
	<path stroke='black'  d='M103.7,684.0 L103.7,675.0 M103.7,54.1 L103.7,63.1  '/>	<g transform="translate(103.7,705.9)" stroke="none" fill="black" font-family="Arial" font-size="12.00"  text-anchor="middle">
		<text><tspan font-family="Arial" > 0</tspan></text>
	</g>
</g>
<g fill="none" color="black" stroke="currentColor" stroke-width="1.00" stroke-linecap="butt" stroke-linejoin="miter">
	<path stroke='black'  d='M679.4,684.0 L679.4,675.0 M679.4,54.1 L679.4,63.1  '/>	<g transform="translate(679.4,705.9)" stroke="none" fill="black" font-family="Arial" font-size="12.00"  text-anchor="middle">
		<text><tspan font-family="Arial" >pi/2</tspan></text>
	</g>
</g>
<g fill="none" color="black" stroke="currentColor" stroke-width="1.00" stroke-linecap="butt" stroke-linejoin="miter">
	<path stroke='black'  d='M1255.0,684.0 L1255.0,675.0 M1255.0,54.1 L1255.0,63.1  '/>	<g transform="translate(1255.0,705.9)" stroke="none" fill="black" font-family="Arial" font-size="12.00"  text-anchor="middle">
		<text><tspan font-family="Arial" >pi</tspan></text>
	</g>
</g>
<g fill="none" color="black" stroke="currentColor" stroke-width="1.00" stroke-linecap="butt" stroke-linejoin="miter">
</g>
<g fill="none" color="black" stroke="currentColor" stroke-width="1.00" stroke-linecap="butt" stroke-linejoin="miter">
	<path stroke='black'  d='M103.7,54.1 L103.7,684.0 L1255.0,684.0 L1255.0,54.1 L103.7,54.1 Z  '/></g>
<g fill="none" color="black" stroke="currentColor" stroke-width="1.00" stroke-linecap="butt" stroke-linejoin="miter">
	<g transform="translate(679.3,31.0)" stroke="none" fill="black" font-family="Arial" font-size="12.00"  text-anchor="middle">
		<text><tspan font-family="Arial" >Material 21</tspan></text>
	</g>
</g>
	<g id="gnuplot_plot_1" ><title>scattering function</title>
<g fill="none" color="black" stroke="currentColor" stroke-width="1.00" stroke-linecap="butt" stroke-linejoin="miter">
	<g transform="translate(1187.9,76.0)" stroke="none" fill="black" font-family="Arial" font-size="12.00"  text-anchor="end">
		<text><tspan font-family="Arial" >scattering function</tspan></text>
	</g>
</g>
<g fill="none" color="black" stroke="currentColor" stroke-width="1.00" stroke-linecap="butt" stroke-linejoin="miter">
	<use xlink:href='#gpPt0' transform='translate(103.7,56.3) scale(4.50)' color='black'/>
	<use xlink:href='#gpPt0' transform='translate(104.3,57.3) scale(4.50)' color='black'/>
	<use xlink:href='#gpPt0' transform='translate(105.0,60.1) scale(4.50)' color='black'/>
	<use xlink:href='#gpPt0' transform='translate(105.6,64.7) scale(4.50)' color='black'/>
	<use xlink:href='#gpPt0' transform='translate(106.3,70.9) scale(4.50)' color='black'/>
	<use xlink:href='#gpPt0' transform='translate(106.9,78.3) scale(4.50)' color='black'/>
	<use xlink:href='#gpPt0' transform='translate(107.5,86.6) scale(4.50)' color='black'/>
	<use xlink:href='#gpPt0' transform='translate(108.2,95.4) scale(4.50)' color='black'/>
	<use xlink:href='#gpPt0' transform='translate(108.8,104.3) scale(4.50)' color='black'/>
	<use xlink:href='#gpPt0' transform='translate(109.5,113.1) scale(4.50)' color='black'/>
	<use xlink:href='#gpPt0' transform='translate(110.1,121.4) scale(4.50)' color='black'/>
	<use xlink:href='#gpPt0' transform='translate(110.7,129.2) scale(4.50)' color='black'/>
	<use xlink:href='#gpPt0' transform='translate(111.4,136.5) scale(4.50)' color='black'/>
	<use xlink:href='#gpPt0' transform='translate(112.0,143.3) scale(4.50)' color='black'/>
	<use xlink:href='#gpPt0' transform='translate(112.7,149.7) scale(4.50)' color='black'/>
	<use xlink:href='#gpPt0' transform='translate(113.3,155.7) scale(4.50)' color='black'/>
	<use xlink:href='#gpPt0' transform='translate(113.9,161.5) scale(4.50)' color='black'/>
	<use xlink:href='#gpPt0' transform='translate(114.6,166.9) scale(4.50)' color='black'/>
	<use xlink:href='#gpPt0' transform='translate(115.2,172.0) scale(4.50)' color='black'/>
	<use xlink:href='#gpPt0' transform='translate(115.9,176.9) scale(4.50)' color='black'/>
	<use xlink:href='#gpPt0' transform='translate(116.5,181.4) scale(4.50)' color='black'/>
	<use xlink:href='#gpPt0' transform='translate(122.9,215.4) scale(4.50)' color='black'/>
	<use xlink:href='#gpPt0' transform='translate(129.3,235.6) scale(4.50)' color='black'/>
	<use xlink:href='#gpPt0' transform='translate(135.7,248.5) scale(4.50)' color='black'/>
	<use xlink:href='#gpPt0' transform='translate(142.1,257.4) scale(4.50)' color='black'/>
	<use xlink:href='#gpPt0' transform='translate(154.9,270.0) scale(4.50)' color='black'/>
	<use xlink:href='#gpPt0' transform='translate(167.7,279.9) scale(4.50)' color='black'/>
	<use xlink:href='#gpPt0' transform='translate(180.5,288.8) scale(4.50)' color='black'/>
	<use xlink:href='#gpPt0' transform='translate(193.2,297.6) scale(4.50)' color='black'/>
	<use xlink:href='#gpPt0' transform='translate(206.0,306.4) scale(4.50)' color='black'/>
	<use xlink:href='#gpPt0' transform='translate(218.8,315.4) scale(4.50)' color='black'/>
	<use xlink:href='#gpPt0' transform='translate(231.6,324.4) scale(4.50)' color='black'/>
	<use xlink:href='#gpPt0' transform='translate(244.4,333.7) scale(4.50)' color='black'/>
	<use xlink:href='#gpPt0' transform='translate(257.2,343.0) scale(4.50)' color='black'/>
	<use xlink:href='#gpPt0' transform='translate(270.0,352.4) scale(4.50)' color='black'/>
	<use xlink:href='#gpPt0' transform='translate(282.8,361.9) scale(4.50)' color='black'/>
	<use xlink:href='#gpPt0' transform='translate(295.6,371.4) scale(4.50)' color='black'/>
	<use xlink:href='#gpPt0' transform='translate(308.4,380.9) scale(4.50)' color='black'/>
	<use xlink:href='#gpPt0' transform='translate(321.2,390.5) scale(4.50)' color='black'/>
	<use xlink:href='#gpPt0' transform='translate(334.0,400.0) scale(4.50)' color='black'/>
	<use xlink:href='#gpPt0' transform='translate(346.8,409.5) scale(4.50)' color='black'/>
	<use xlink:href='#gpPt0' transform='translate(359.5,418.9) scale(4.50)' color='black'/>
	<use xlink:href='#gpPt0' transform='translate(372.3,428.4) scale(4.50)' color='black'/>
	<use xlink:href='#gpPt0' transform='translate(385.1,437.7) scale(4.50)' color='black'/>
	<use xlink:href='#gpPt0' transform='translate(397.9,446.9) scale(4.50)' color='black'/>
	<use xlink:href='#gpPt0' transform='translate(410.7,456.1) scale(4.50)' color='black'/>
	<use xlink:href='#gpPt0' transform='translate(423.5,465.1) scale(4.50)' color='black'/>
	<use xlink:href='#gpPt0' transform='translate(436.3,474.1) scale(4.50)' color='black'/>
	<use xlink:href='#gpPt0' transform='translate(449.1,482.9) scale(4.50)' color='black'/>
	<use xlink:href='#gpPt0' transform='translate(461.9,491.6) scale(4.50)' color='black'/>
	<use xlink:href='#gpPt0' transform='translate(474.7,500.2) scale(4.50)' color='black'/>
	<use xlink:href='#gpPt0' transform='translate(487.5,508.7) scale(4.50)' color='black'/>
	<use xlink:href='#gpPt0' transform='translate(500.3,517.0) scale(4.50)' color='black'/>
	<use xlink:href='#gpPt0' transform='translate(513.1,525.2) scale(4.50)' color='black'/>
	<use xlink:href='#gpPt0' transform='translate(525.8,533.2) scale(4.50)' color='black'/>
	<use xlink:href='#gpPt0' transform='translate(538.6,541.1) scale(4.50)' color='black'/>
	<use xlink:href='#gpPt0' transform='translate(551.4,548.7) scale(4.50)' color='black'/>
	<use xlink:href='#gpPt0' transform='translate(564.2,556.2) scale(4.50)' color='black'/>
	<use xlink:href='#gpPt0' transform='translate(577.0,563.5) scale(4.50)' color='black'/>
	<use xlink:href='#gpPt0' transform='translate(589.8,570.7) scale(4.50)' color='black'/>
	<use xlink:href='#gpPt0' transform='translate(602.6,577.6) scale(4.50)' color='black'/>
	<use xlink:href='#gpPt0' transform='translate(615.4,584.3) scale(4.50)' color='black'/>
	<use xlink:href='#gpPt0' transform='translate(628.2,590.8) scale(4.50)' color='black'/>
	<use xlink:href='#gpPt0' transform='translate(641.0,597.1) scale(4.50)' color='black'/>
	<use xlink:href='#gpPt0' transform='translate(653.8,603.1) scale(4.50)' color='black'/>
	<use xlink:href='#gpPt0' transform='translate(666.6,608.9) scale(4.50)' color='black'/>
	<use xlink:href='#gpPt0' transform='translate(679.4,614.4) scale(4.50)' color='black'/>
	<use xlink:href='#gpPt0' transform='translate(692.1,619.6) scale(4.50)' color='black'/>
	<use xlink:href='#gpPt0' transform='translate(704.9,624.5) scale(4.50)' color='black'/>
	<use xlink:href='#gpPt0' transform='translate(717.7,629.2) scale(4.50)' color='black'/>
	<use xlink:href='#gpPt0' transform='translate(730.5,633.6) scale(4.50)' color='black'/>
	<use xlink:href='#gpPt0' transform='translate(743.3,637.7) scale(4.50)' color='black'/>
	<use xlink:href='#gpPt0' transform='translate(756.1,641.4) scale(4.50)' color='black'/>
	<use xlink:href='#gpPt0' transform='translate(768.9,644.9) scale(4.50)' color='black'/>
	<use xlink:href='#gpPt0' transform='translate(781.7,648.0) scale(4.50)' color='black'/>
	<use xlink:href='#gpPt0' transform='translate(794.5,650.8) scale(4.50)' color='black'/>
	<use xlink:href='#gpPt0' transform='translate(807.3,653.3) scale(4.50)' color='black'/>
	<use xlink:href='#gpPt0' transform='translate(820.1,655.5) scale(4.50)' color='black'/>
	<use xlink:href='#gpPt0' transform='translate(832.9,657.4) scale(4.50)' color='black'/>
	<use xlink:href='#gpPt0' transform='translate(845.6,659.0) scale(4.50)' color='black'/>
	<use xlink:href='#gpPt0' transform='translate(858.4,660.2) scale(4.50)' color='black'/>
	<use xlink:href='#gpPt0' transform='translate(871.2,661.1) scale(4.50)' color='black'/>
	<use xlink:href='#gpPt0' transform='translate(884.0,661.8) scale(4.50)' color='black'/>
	<use xlink:href='#gpPt0' transform='translate(896.8,662.1) scale(4.50)' color='black'/>
	<use xlink:href='#gpPt0' transform='translate(909.6,662.2) scale(4.50)' color='black'/>
	<use xlink:href='#gpPt0' transform='translate(922.4,661.9) scale(4.50)' color='black'/>
	<use xlink:href='#gpPt0' transform='translate(935.2,661.4) scale(4.50)' color='black'/>
	<use xlink:href='#gpPt0' transform='translate(948.0,660.7) scale(4.50)' color='black'/>
	<use xlink:href='#gpPt0' transform='translate(960.8,659.7) scale(4.50)' color='black'/>
	<use xlink:href='#gpPt0' transform='translate(973.6,658.4) scale(4.50)' color='black'/>
	<use xlink:href='#gpPt0' transform='translate(986.4,657.0) scale(4.50)' color='black'/>
	<use xlink:href='#gpPt0' transform='translate(999.2,655.3) scale(4.50)' color='black'/>
	<use xlink:href='#gpPt0' transform='translate(1011.9,653.4) scale(4.50)' color='black'/>
	<use xlink:href='#gpPt0' transform='translate(1024.7,651.4) scale(4.50)' color='black'/>
	<use xlink:href='#gpPt0' transform='translate(1037.5,649.2) scale(4.50)' color='black'/>
	<use xlink:href='#gpPt0' transform='translate(1050.3,646.9) scale(4.50)' color='black'/>
	<use xlink:href='#gpPt0' transform='translate(1063.1,644.4) scale(4.50)' color='black'/>
	<use xlink:href='#gpPt0' transform='translate(1075.9,642.0) scale(4.50)' color='black'/>
	<use xlink:href='#gpPt0' transform='translate(1088.7,639.4) scale(4.50)' color='black'/>
	<use xlink:href='#gpPt0' transform='translate(1101.5,637.0) scale(4.50)' color='black'/>
	<use xlink:href='#gpPt0' transform='translate(1114.3,634.7) scale(4.50)' color='black'/>
	<use xlink:href='#gpPt0' transform='translate(1127.1,632.6) scale(4.50)' color='black'/>
	<use xlink:href='#gpPt0' transform='translate(1139.9,630.9) scale(4.50)' color='black'/>
	<use xlink:href='#gpPt0' transform='translate(1152.7,629.8) scale(4.50)' color='black'/>
	<use xlink:href='#gpPt0' transform='translate(1165.5,629.2) scale(4.50)' color='black'/>
	<use xlink:href='#gpPt0' transform='translate(1178.2,628.4) scale(4.50)' color='black'/>
	<use xlink:href='#gpPt0' transform='translate(1191.0,627.1) scale(4.50)' color='black'/>
	<use xlink:href='#gpPt0' transform='translate(1203.8,625.1) scale(4.50)' color='black'/>
	<use xlink:href='#gpPt0' transform='translate(1216.6,622.7) scale(4.50)' color='black'/>
	<use xlink:href='#gpPt0' transform='translate(1229.4,620.3) scale(4.50)' color='black'/>
	<use xlink:href='#gpPt0' transform='translate(1242.2,618.7) scale(4.50)' color='black'/>
	<use xlink:href='#gpPt0' transform='translate(1255.0,617.3) scale(4.50)' color='black'/>
	<use xlink:href='#gpPt0' transform='translate(1217.3,72.1) scale(4.50)' color='black'/>
</g>
	</g>
	<g id="gnuplot_plot_2" ><title>1 (convex)</title>
<g fill="none" color="black" stroke="currentColor" stroke-width="1.00" stroke-linecap="butt" stroke-linejoin="miter">
	<g transform="translate(1187.9,94.0)" stroke="none" fill="black" font-family="Arial" font-size="12.00"  text-anchor="end">
		<text><tspan font-family="Arial" >1 (convex)</tspan></text>
	</g>
</g>
<g fill="none" color="black" stroke="currentColor" stroke-width="1.00" stroke-linecap="butt" stroke-linejoin="miter">
	<path stroke='rgb(  0, 158, 115)'  d='M1196.2,90.1 L1238.4,90.1 M103.7,147.4 L104.8,147.5 L106.0,147.5 L107.1,147.6 L108.2,147.7 L109.3,147.9
		L110.5,148.0 L111.6,148.2 L112.7,148.5 L113.8,148.8 L115.0,149.1 L116.1,149.4 L117.2,149.8 L118.3,150.2
		L119.5,150.6 L120.6,151.1 L121.7,151.6 L122.8,152.1 L124.0,152.6 L125.1,153.2 L126.2,153.8 L127.3,154.5
		L128.5,155.1 L129.6,155.8 L130.7,156.5 L131.8,157.3 L133.0,158.1 L134.1,158.9 L135.2,159.7 L136.3,160.5
		L137.5,161.4 L138.6,162.3 L139.7,163.2 L140.8,164.1 L142.0,165.1 L143.1,166.1 L144.2,167.1 L145.3,168.1
		L146.5,169.2 L147.6,170.2 L148.7,171.3 L149.8,172.4 L151.0,173.5 L152.1,174.7 L153.2,175.8 L154.3,177.0
		L155.5,178.2 L156.6,179.4 L157.7,180.6 L158.8,181.8 L160.0,183.1 L161.1,184.3 L162.2,185.6 L163.3,186.9
		L164.5,188.2 L165.6,189.5 L166.7,190.8 L167.8,192.1 L169.0,193.5 L170.1,194.8 L171.2,196.2 L172.4,197.6
		L173.5,198.9 L174.6,200.3 L175.7,201.7 L176.9,203.1 L178.0,204.5 L179.1,205.9 L180.2,207.3 L181.4,208.7
		L182.5,210.2 L183.6,211.6 L184.7,213.0 L185.9,214.5 L187.0,215.9 L188.1,217.4 L189.2,218.8 L190.4,220.3
		L191.5,221.7 L192.6,223.2 L193.7,224.7 L194.9,226.1 L196.0,227.6 L197.1,229.1 L198.2,230.5 L199.4,232.0
		L200.5,233.5 L201.6,235.0 L202.7,236.4 L203.9,237.9 L205.0,239.4 L206.1,240.9 L207.2,242.3 L208.4,243.8
		L209.5,245.3 L210.6,246.8 L211.7,248.2 L212.9,249.7 L214.0,251.2 L215.1,252.6 L216.2,254.1 L217.4,255.6
		L218.5,257.0 L219.6,258.5 L220.7,260.0 L221.9,261.4 L223.0,262.9 L224.1,264.3 L225.2,265.8 L226.4,267.2
		L227.5,268.7 L228.6,270.1 L229.7,271.6 L230.9,273.0 L232.0,274.4 L233.1,275.9 L234.2,277.3 L235.4,278.7
		L236.5,280.1 L237.6,281.5 L238.7,283.0 L239.9,284.4 L241.0,285.8 L242.1,287.2 L243.3,288.6 L244.4,290.0
		L245.5,291.4 L246.6,292.8 L247.8,294.1 L248.9,295.5 L250.0,296.9 L251.1,298.3 L252.3,299.6 L253.4,301.0
		L254.5,302.4 L255.6,303.7 L256.8,305.1 L257.9,306.4 L259.0,307.8 L260.1,309.1 L261.3,310.5 L262.4,311.8
		L263.5,313.1 L264.6,314.4 L265.8,315.8 L266.9,317.1 L268.0,318.4 L269.1,319.7 L270.3,321.0 L271.4,322.3
		L272.5,323.6 L273.6,324.9 L274.8,326.2 L275.9,327.4 L277.0,328.7 L278.1,330.0 L279.3,331.3 L280.4,332.5
		L281.5,333.8 L282.6,335.0 L283.8,336.3 L284.9,337.5 L286.0,338.8 L287.1,340.0 L288.3,341.3 L289.4,342.5
		L290.5,343.7 L291.6,344.9 L292.8,346.2 L293.9,347.4 L295.0,348.6 L296.1,349.8 L297.3,351.0 L298.4,352.2
		L299.5,353.4 L300.6,354.6 L301.8,355.7 L302.9,356.9 L304.0,358.1 L305.1,359.3 L306.3,360.4 L307.4,361.6
		L308.5,362.7 L309.7,363.9 L310.8,365.0 L311.9,366.2 L313.0,367.3 L314.2,368.5 L315.3,369.6 L316.4,370.7
		L317.5,371.9 L318.7,373.0 L319.8,374.1 L320.9,375.2 L322.0,376.3 L323.2,377.4 L324.3,378.5 L325.4,379.6
		L326.5,380.7 L327.7,381.8 L328.8,382.9 L329.9,384.0 L331.0,385.0 L332.2,386.1 L333.3,387.2 L334.4,388.2
		L335.5,389.3 L336.7,390.4 L337.8,391.4 L338.9,392.5 L340.0,393.5 L341.2,394.6 L342.3,395.6 L343.4,396.6
		L344.5,397.7 L345.7,398.7 L346.8,399.7 L347.9,400.7 L349.0,401.7 L350.2,402.8 L351.3,403.8 L352.4,404.8
		L353.5,405.8 L354.7,406.8 L355.8,407.8 L356.9,408.8 L358.0,409.7 L359.2,410.7 L360.3,411.7 L361.4,412.7
		L362.5,413.7 L363.7,414.6 L364.8,415.6 L365.9,416.6 L367.0,417.5 L368.2,418.5 L369.3,419.4 L370.4,420.4
		L371.5,421.3 L372.7,422.3 L373.8,423.2 L374.9,424.1 L376.1,425.1 L377.2,426.0 L378.3,426.9 L379.4,427.9
		L380.6,428.8 L381.7,429.7 L382.8,430.6 L383.9,431.5 L385.1,432.4 L386.2,433.3 L387.3,434.2 L388.4,435.1
		L389.6,436.0 L390.7,436.9 L391.8,437.8 L392.9,438.7 L394.1,439.6 L395.2,440.5 L396.3,441.3 L397.4,442.2
		L398.6,443.1 L399.7,443.9 L400.8,444.8 L401.9,445.7 L403.1,446.5 L404.2,447.4 L405.3,448.2 L406.4,449.1
		L407.6,449.9 L408.7,450.8 L409.8,451.6 L410.9,452.5 L412.1,453.3 L413.2,454.1 L414.3,454.9 L415.4,455.8
		L416.6,456.6 L417.7,457.4 L418.8,458.2 L419.9,459.1 L421.1,459.9 L422.2,460.7 L423.3,461.5 L424.4,462.3
		L425.6,463.1 L426.7,463.9 L427.8,464.7 L428.9,465.5 L430.1,466.3 L431.2,467.1 L432.3,467.9 L433.4,468.6
		L434.6,469.4 L435.7,470.2 L436.8,471.0 L437.9,471.7 L439.1,472.5 L440.2,473.3 L441.3,474.0 L442.5,474.8
		L443.6,475.6 L444.7,476.3 L445.8,477.1 L447.0,477.8 L448.1,478.6 L449.2,479.3 L450.3,480.1 L451.5,480.8
		L452.6,481.6 L453.7,482.3 L454.8,483.0 L456.0,483.8 L457.1,484.5 L458.2,485.2 L459.3,486.0 L460.5,486.7
		L461.6,487.4 L462.7,488.1 L463.8,488.8 L465.0,489.6 L466.1,490.3 L467.2,491.0 L468.3,491.7 L469.5,492.4
		L470.6,493.1 L471.7,493.8 L472.8,494.5 L474.0,495.2 L475.1,495.9 L476.2,496.6 L477.3,497.3 L478.5,498.0
		L479.6,498.6 L480.7,499.3 L481.8,500.0 L483.0,500.7 L484.1,501.4 L485.2,502.0 L486.3,502.7 L487.5,503.4
		L488.6,504.1 L489.7,504.7 L490.8,505.4 L492.0,506.1 L493.1,506.7 L494.2,507.4 L495.3,508.0 L496.5,508.7
		L497.6,509.3 L498.7,510.0 L499.8,510.6 L501.0,511.3 L502.1,511.9 L503.2,512.6 L504.3,513.2 L505.5,513.8
		L506.6,514.5 L507.7,515.1 L508.8,515.7 L510.0,516.4 L511.1,517.0 L512.2,517.6 L513.4,518.3 L514.5,518.9
		L515.6,519.5 L516.7,520.1 L517.9,520.7 L519.0,521.3 L520.1,522.0 L521.2,522.6 L522.4,523.2 L523.5,523.8
		L524.6,524.4 L525.7,525.0 L526.9,525.6 L528.0,526.2 L529.1,526.8 L530.2,527.4 L531.4,528.0 L532.5,528.6
		L533.6,529.2 L534.7,529.8 L535.9,530.3 L537.0,530.9 L538.1,531.5 L539.2,532.1 L540.4,532.7 L541.5,533.2
		L542.6,533.8 L543.7,534.4 L544.9,535.0 L546.0,535.5 L547.1,536.1 L548.2,536.7 L549.4,537.2 L550.5,537.8
		L551.6,538.4 L552.7,538.9 L553.9,539.5 L555.0,540.0 L556.1,540.6 L557.2,541.2 L558.4,541.7 L559.5,542.3
		L560.6,542.8 L561.7,543.4 L562.9,543.9 L564.0,544.4 L565.1,545.0 L566.2,545.5 L567.4,546.1 L568.5,546.6
		L569.6,547.1 L570.7,547.7 L571.9,548.2 L573.0,548.7 L574.1,549.3 L575.2,549.8 L576.4,550.3 L577.5,550.9
		L578.6,551.4 L579.8,551.9 L580.9,552.4 L582.0,552.9 L583.1,553.5 L584.3,554.0 L585.4,554.5 L586.5,555.0
		L587.6,555.5 L588.8,556.0 L589.9,556.5 L591.0,557.0 L592.1,557.5 L593.3,558.0 L594.4,558.5 L595.5,559.0
		L596.6,559.5 L597.8,560.0 L598.9,560.5 L600.0,561.0 L601.1,561.5 L602.3,562.0 L603.4,562.5 L604.5,563.0
		L605.6,563.5 L606.8,564.0 L607.9,564.5 L609.0,564.9 L610.1,565.4 L611.3,565.9 L612.4,566.4 L613.5,566.9
		L614.6,567.3 L615.8,567.8 L616.9,568.3 L618.0,568.8 L619.1,569.2 L620.3,569.7 L621.4,570.2 L622.5,570.6
		L623.6,571.1 L624.8,571.6 L625.9,572.0 L627.0,572.5 L628.1,572.9 L629.3,573.4 L630.4,573.9 L631.5,574.3
		L632.6,574.8 L633.8,575.2 L634.9,575.7 L636.0,576.1 L637.1,576.6 L638.3,577.0 L639.4,577.5 L640.5,577.9
		L641.6,578.3 L642.8,578.8 L643.9,579.2 L645.0,579.7 L646.2,580.1 L647.3,580.5 L648.4,581.0 L649.5,581.4
		L650.7,581.8 L651.8,582.3 L652.9,582.7 L654.0,583.1 L655.2,583.6 L656.3,584.0 L657.4,584.4 L658.5,584.8
		L659.7,585.3 L660.8,585.7 L661.9,586.1 L663.0,586.5 L664.2,586.9 L665.3,587.4 L666.4,587.8 L667.5,588.2
		L668.7,588.6 L669.8,589.0 L670.9,589.4 L672.0,589.8 L673.2,590.2 L674.3,590.7 L675.4,591.1 L676.5,591.5
		L677.7,591.9 L678.8,592.3 L679.9,592.7 L681.0,593.1 L682.2,593.5 L683.3,593.9 L684.4,594.3 L685.5,594.7
		L686.7,595.1 L687.8,595.5 L688.9,595.8 L690.0,596.2 L691.2,596.6 L692.3,597.0 L693.4,597.4 L694.5,597.8
		L695.7,598.2 L696.8,598.6 L697.9,598.9 L699.0,599.3 L700.2,599.7 L701.3,600.1 L702.4,600.5 L703.5,600.8
		L704.7,601.2 L705.8,601.6 L706.9,602.0 L708.0,602.3 L709.2,602.7 L710.3,603.1 L711.4,603.4 L712.5,603.8
		L713.7,604.2 L714.8,604.5 L715.9,604.9 L717.1,605.3 L718.2,605.6 L719.3,606.0 L720.4,606.4 L721.6,606.7
		L722.7,607.1 L723.8,607.4 L724.9,607.8 L726.1,608.1 L727.2,608.5 L728.3,608.8 L729.4,609.2 L730.6,609.6
		L731.7,609.9 L732.8,610.2 L733.9,610.6 L735.1,610.9 L736.2,611.3 L737.3,611.6 L738.4,612.0 L739.6,612.3
		L740.7,612.7 L741.8,613.0 L742.9,613.3 L744.1,613.7 L745.2,614.0 L746.3,614.4 L747.4,614.7 L748.6,615.0
		L749.7,615.4 L750.8,615.7 L751.9,616.0 L753.1,616.3 L754.2,616.7 L755.3,617.0 L756.4,617.3 L757.6,617.7
		L758.7,618.0 L759.8,618.3 L760.9,618.6 L762.1,619.0 L763.2,619.3 L764.3,619.6 L765.4,619.9 L766.6,620.2
		L767.7,620.6 L768.8,620.9 L769.9,621.2 L771.1,621.5 L772.2,621.8 L773.3,622.1 L774.4,622.4 L775.6,622.7
		L776.7,623.1 L777.8,623.4 L778.9,623.7 L780.1,624.0 L781.2,624.3 L782.3,624.6 L783.5,624.9 L784.6,625.2
		L785.7,625.5 L786.8,625.8 L788.0,626.1 L789.1,626.4 L790.2,626.7 L791.3,627.0 L792.5,627.3 L793.6,627.6
		L794.7,627.9 L795.8,628.2 L797.0,628.5 L798.1,628.8 L799.2,629.0 L800.3,629.3 L801.5,629.6 L802.6,629.9
		L803.7,630.2 L804.8,630.5 L806.0,630.8 L807.1,631.1 L808.2,631.3 L809.3,631.6 L810.5,631.9 L811.6,632.2
		L812.7,632.5 L813.8,632.7 L815.0,633.0 L816.1,633.3 L817.2,633.6 L818.3,633.8 L819.5,634.1 L820.6,634.4
		L821.7,634.7 L822.8,634.9 L824.0,635.2 L825.1,635.5 L826.2,635.8 L827.3,636.0 L828.5,636.3 L829.6,636.6
		L830.7,636.8 L831.8,637.1 L833.0,637.3 L834.1,637.6 L835.2,637.9 L836.3,638.1 L837.5,638.4 L838.6,638.7
		L839.7,638.9 L840.8,639.2 L842.0,639.4 L843.1,639.7 L844.2,639.9 L845.3,640.2 L846.5,640.4 L847.6,640.7
		L848.7,640.9 L849.9,641.2 L851.0,641.5 L852.1,641.7 L853.2,641.9 L854.4,642.2 L855.5,642.4 L856.6,642.7
		L857.7,642.9 L858.9,643.2 L860.0,643.4 L861.1,643.7 L862.2,643.9 L863.4,644.1 L864.5,644.4 L865.6,644.6
		L866.7,644.9 L867.9,645.1 L869.0,645.3 L870.1,645.6 L871.2,645.8 L872.4,646.0 L873.5,646.3 L874.6,646.5
		L875.7,646.7 L876.9,647.0 L878.0,647.2 L879.1,647.4 L880.2,647.7 L881.4,647.9 L882.5,648.1 L883.6,648.3
		L884.7,648.6 L885.9,648.8 L887.0,649.0 L888.1,649.2 L889.2,649.5 L890.4,649.7 L891.5,649.9 L892.6,650.1
		L893.7,650.3 L894.9,650.6 L896.0,650.8 L897.1,651.0 L898.2,651.2 L899.4,651.4 L900.5,651.6 L901.6,651.8
		L902.7,652.1 L903.9,652.3 L905.0,652.5 L906.1,652.7 L907.2,652.9 L908.4,653.1 L909.5,653.3 L910.6,653.5
		L911.7,653.7 L912.9,653.9 L914.0,654.1 L915.1,654.3 L916.2,654.5 L917.4,654.8 L918.5,655.0 L919.6,655.2
		L920.8,655.4 L921.9,655.6 L923.0,655.8 L924.1,655.9 L925.3,656.1 L926.4,656.3 L927.5,656.5 L928.6,656.7
		L929.8,656.9 L930.9,657.1 L932.0,657.3 L933.1,657.5 L934.3,657.7 L935.4,657.9 L936.5,658.1 L937.6,658.3
		L938.8,658.5 L939.9,658.6 L941.0,658.8 L942.1,659.0 L943.3,659.2 L944.4,659.4 L945.5,659.6 L946.6,659.7
		L947.8,659.9 L948.9,660.1 L950.0,660.3 L951.1,660.5 L952.3,660.6 L953.4,660.8 L954.5,661.0 L955.6,661.2
		L956.8,661.4 L957.9,661.5 L959.0,661.7 L960.1,661.9 L961.3,662.1 L962.4,662.2 L963.5,662.4 L964.6,662.6
		L965.8,662.7 L966.9,662.9 L968.0,663.1 L969.1,663.2 L970.3,663.4 L971.4,663.6 L972.5,663.7 L973.6,663.9
		L974.8,664.1 L975.9,664.2 L977.0,664.4 L978.1,664.6 L979.3,664.7 L980.4,664.9 L981.5,665.0 L982.6,665.2
		L983.8,665.4 L984.9,665.5 L986.0,665.7 L987.2,665.8 L988.3,666.0 L989.4,666.1 L990.5,666.3 L991.7,666.4
		L992.8,666.6 L993.9,666.8 L995.0,666.9 L996.2,667.1 L997.3,667.2 L998.4,667.4 L999.5,667.5 L1000.7,667.7
		L1001.8,667.8 L1002.9,667.9 L1004.0,668.1 L1005.2,668.2 L1006.3,668.4 L1007.4,668.5 L1008.5,668.7 L1009.7,668.8
		L1010.8,669.0 L1011.9,669.1 L1013.0,669.2 L1014.2,669.4 L1015.3,669.5 L1016.4,669.6 L1017.5,669.8 L1018.7,669.9
		L1019.8,670.1 L1020.9,670.2 L1022.0,670.3 L1023.2,670.5 L1024.3,670.6 L1025.4,670.7 L1026.5,670.9 L1027.7,671.0
		L1028.8,671.1 L1029.9,671.3 L1031.0,671.4 L1032.2,671.5 L1033.3,671.6 L1034.4,671.8 L1035.5,671.9 L1036.7,672.0
		L1037.8,672.1 L1038.9,672.3 L1040.0,672.4 L1041.2,672.5 L1042.3,672.6 L1043.4,672.8 L1044.5,672.9 L1045.7,673.0
		L1046.8,673.1 L1047.9,673.2 L1049.0,673.4 L1050.2,673.5 L1051.3,673.6 L1052.4,673.7 L1053.6,673.8 L1054.7,673.9
		L1055.8,674.0 L1056.9,674.2 L1058.1,674.3 L1059.2,674.4 L1060.3,674.5 L1061.4,674.6 L1062.6,674.7 L1063.7,674.8
		L1064.8,674.9 L1065.9,675.0 L1067.1,675.2 L1068.2,675.3 L1069.3,675.4 L1070.4,675.5 L1071.6,675.6 L1072.7,675.7
		L1073.8,675.8 L1074.9,675.9 L1076.1,676.0 L1077.2,676.1 L1078.3,676.2 L1079.4,676.3 L1080.6,676.4 L1081.7,676.5
		L1082.8,676.6 L1083.9,676.7 L1085.1,676.8 L1086.2,676.9 L1087.3,677.0 L1088.4,677.1 L1089.6,677.2 L1090.7,677.3
		L1091.8,677.3 L1092.9,677.4 L1094.1,677.5 L1095.2,677.6 L1096.3,677.7 L1097.4,677.8 L1098.6,677.9 L1099.7,678.0
		L1100.8,678.1 L1101.9,678.2 L1103.1,678.2 L1104.2,678.3 L1105.3,678.4 L1106.4,678.5 L1107.6,678.6 L1108.7,678.7
		L1109.8,678.7 L1110.9,678.8 L1112.1,678.9 L1113.2,679.0 L1114.3,679.1 L1115.4,679.1 L1116.6,679.2 L1117.7,679.3
		L1118.8,679.4 L1120.0,679.5 L1121.1,679.5 L1122.2,679.6 L1123.3,679.7 L1124.5,679.8 L1125.6,679.8 L1126.7,679.9
		L1127.8,680.0 L1129.0,680.0 L1130.1,680.1 L1131.2,680.2 L1132.3,680.3 L1133.5,680.3 L1134.6,680.4 L1135.7,680.5
		L1136.8,680.5 L1138.0,680.6 L1139.1,680.7 L1140.2,680.7 L1141.3,680.8 L1142.5,680.8 L1143.6,680.9 L1144.7,681.0
		L1145.8,681.0 L1147.0,681.1 L1148.1,681.2 L1149.2,681.2 L1150.3,681.3 L1151.5,681.3 L1152.6,681.4 L1153.7,681.4
		L1154.8,681.5 L1156.0,681.6 L1157.1,681.6 L1158.2,681.7 L1159.3,681.7 L1160.5,681.8 L1161.6,681.8 L1162.7,681.9
		L1163.8,681.9 L1165.0,682.0 L1166.1,682.0 L1167.2,682.1 L1168.3,682.1 L1169.5,682.2 L1170.6,682.2 L1171.7,682.3
		L1172.8,682.3 L1174.0,682.4 L1175.1,682.4 L1176.2,682.5 L1177.3,682.5 L1178.5,682.5 L1179.6,682.6 L1180.7,682.6
		L1181.8,682.7 L1183.0,682.7 L1184.1,682.8 L1185.2,682.8 L1186.3,682.8 L1187.5,682.9 L1188.6,682.9 L1189.7,682.9
		L1190.9,683.0 L1192.0,683.0 L1193.1,683.0 L1194.2,683.1 L1195.4,683.1 L1196.5,683.2 L1197.6,683.2 L1198.7,683.2
		L1199.9,683.2 L1201.0,683.3 L1202.1,683.3 L1203.2,683.3 L1204.4,683.4 L1205.5,683.4 L1206.6,683.4 L1207.7,683.4
		L1208.9,683.5 L1210.0,683.5 L1211.1,683.5 L1212.2,683.5 L1213.4,683.6 L1214.5,683.6 L1215.6,683.6 L1216.7,683.6
		L1217.9,683.7 L1219.0,683.7 L1220.1,683.7 L1221.2,683.7 L1222.4,683.7 L1223.5,683.8 L1224.6,683.8 L1225.7,683.8
		L1226.9,683.8 L1228.0,683.8 L1229.1,683.8 L1230.2,683.8 L1231.4,683.9 L1232.5,683.9 L1233.6,683.9 L1234.7,683.9
		L1235.9,683.9 L1237.0,683.9 L1238.1,683.9 L1239.2,683.9 L1240.4,683.9 L1241.5,684.0 L1242.6,684.0 L1243.7,684.0
		L1244.9,684.0 L1246.0,684.0 L1247.1,684.0 L1248.2,684.0 L1249.4,684.0 L1250.5,684.0 L1251.6,684.0 L1252.7,684.0
		L1253.9,684.0 L1255.0,684.0  '/></g>
	</g>
	<g id="gnuplot_plot_3" ><title>2 (convex)</title>
<g fill="none" color="black" stroke="currentColor" stroke-width="1.00" stroke-linecap="butt" stroke-linejoin="miter">
	<g transform="translate(1187.9,112.0)" stroke="none" fill="black" font-family="Arial" font-size="12.00"  text-anchor="end">
		<text><tspan font-family="Arial" >2 (convex)</tspan></text>
	</g>
</g>
<g fill="none" color="black" stroke="currentColor" stroke-width="1.00" stroke-linecap="butt" stroke-linejoin="miter">
	<path stroke='rgb( 86, 180, 233)'  d='M1196.2,108.1 L1238.4,108.1 M103.7,58.9 L104.8,61.3 L106.0,68.1 L107.1,78.6 L108.2,91.6 L109.3,106.0
		L110.5,120.9 L111.6,135.4 L112.7,149.2 L113.8,162.0 L115.0,173.5 L116.1,183.9 L117.2,193.0 L118.3,201.1
		L119.5,208.2 L120.6,214.3 L121.7,219.7 L122.8,224.4 L124.0,228.5 L125.1,232.1 L126.2,235.2 L127.3,238.0
		L128.5,240.5 L129.6,242.7 L130.7,244.7 L131.8,246.4 L133.0,248.1 L134.1,249.5 L135.2,250.9 L136.3,252.1
		L137.5,253.3 L138.6,254.4 L139.7,255.4 L140.8,256.4 L142.0,257.4 L143.1,258.3 L144.2,259.1 L145.3,260.0
		L146.5,260.8 L147.6,261.6 L148.7,262.3 L149.8,263.1 L151.0,263.8 L152.1,264.6 L153.2,265.3 L154.3,266.0
		L155.5,266.8 L156.6,267.5 L157.7,268.2 L158.8,268.9 L160.0,269.6 L161.1,270.4 L162.2,271.1 L163.3,271.8
		L164.5,272.5 L165.6,273.2 L166.7,274.0 L167.8,274.7 L169.0,275.4 L170.1,276.2 L171.2,276.9 L172.4,277.7
		L173.5,278.4 L174.6,279.2 L175.7,279.9 L176.9,280.7 L178.0,281.5 L179.1,282.2 L180.2,283.0 L181.4,283.8
		L182.5,284.6 L183.6,285.4 L184.7,286.2 L185.9,287.0 L187.0,287.8 L188.1,288.6 L189.2,289.4 L190.4,290.2
		L191.5,291.1 L192.6,291.9 L193.7,292.7 L194.9,293.6 L196.0,294.4 L197.1,295.2 L198.2,296.1 L199.4,296.9
		L200.5,297.8 L201.6,298.7 L202.7,299.5 L203.9,300.4 L205.0,301.3 L206.1,302.1 L207.2,303.0 L208.4,303.9
		L209.5,304.8 L210.6,305.7 L211.7,306.5 L212.9,307.4 L214.0,308.3 L215.1,309.2 L216.2,310.1 L217.4,311.0
		L218.5,311.9 L219.6,312.8 L220.7,313.8 L221.9,314.7 L223.0,315.6 L224.1,316.5 L225.2,317.4 L226.4,318.3
		L227.5,319.3 L228.6,320.2 L229.7,321.1 L230.9,322.0 L232.0,323.0 L233.1,323.9 L234.2,324.8 L235.4,325.7
		L236.5,326.7 L237.6,327.6 L238.7,328.5 L239.9,329.5 L241.0,330.4 L242.1,331.3 L243.3,332.3 L244.4,333.2
		L245.5,334.2 L246.6,335.1 L247.8,336.0 L248.9,337.0 L250.0,337.9 L251.1,338.9 L252.3,339.8 L253.4,340.7
		L254.5,341.7 L255.6,342.6 L256.8,343.6 L257.9,344.5 L259.0,345.4 L260.1,346.4 L261.3,347.3 L262.4,348.3
		L263.5,349.2 L264.6,350.1 L265.8,351.1 L266.9,352.0 L268.0,352.9 L269.1,353.9 L270.3,354.8 L271.4,355.8
		L272.5,356.7 L273.6,357.6 L274.8,358.6 L275.9,359.5 L277.0,360.4 L278.1,361.4 L279.3,362.3 L280.4,363.2
		L281.5,364.1 L282.6,365.1 L283.8,366.0 L284.9,366.9 L286.0,367.8 L287.1,368.8 L288.3,369.7 L289.4,370.6
		L290.5,371.5 L291.6,372.5 L292.8,373.4 L293.9,374.3 L295.0,375.2 L296.1,376.1 L297.3,377.0 L298.4,377.9
		L299.5,378.9 L300.6,379.8 L301.8,380.7 L302.9,381.6 L304.0,382.5 L305.1,383.4 L306.3,384.3 L307.4,385.2
		L308.5,386.1 L309.7,387.0 L310.8,387.9 L311.9,388.8 L313.0,389.7 L314.2,390.5 L315.3,391.4 L316.4,392.3
		L317.5,393.2 L318.7,394.1 L319.8,395.0 L320.9,395.9 L322.0,396.7 L323.2,397.6 L324.3,398.5 L325.4,399.4
		L326.5,400.2 L327.7,401.1 L328.8,402.0 L329.9,402.8 L331.0,403.7 L332.2,404.6 L333.3,405.4 L334.4,406.3
		L335.5,407.1 L336.7,408.0 L337.8,408.9 L338.9,409.7 L340.0,410.6 L341.2,411.4 L342.3,412.3 L343.4,413.1
		L344.5,413.9 L345.7,414.8 L346.8,415.6 L347.9,416.5 L349.0,417.3 L350.2,418.1 L351.3,419.0 L352.4,419.8
		L353.5,420.6 L354.7,421.4 L355.8,422.3 L356.9,423.1 L358.0,423.9 L359.2,424.7 L360.3,425.5 L361.4,426.4
		L362.5,427.2 L363.7,428.0 L364.8,428.8 L365.9,429.6 L367.0,430.4 L368.2,431.2 L369.3,432.0 L370.4,432.8
		L371.5,433.6 L372.7,434.4 L373.8,435.2 L374.9,436.0 L376.1,436.8 L377.2,437.6 L378.3,438.3 L379.4,439.1
		L380.6,439.9 L381.7,440.7 L382.8,441.5 L383.9,442.2 L385.1,443.0 L386.2,443.8 L387.3,444.5 L388.4,445.3
		L389.6,446.1 L390.7,446.8 L391.8,447.6 L392.9,448.4 L394.1,449.1 L395.2,449.9 L396.3,450.6 L397.4,451.4
		L398.6,452.1 L399.7,452.9 L400.8,453.6 L401.9,454.4 L403.1,455.1 L404.2,455.9 L405.3,456.6 L406.4,457.3
		L407.6,458.1 L408.7,458.8 L409.8,459.5 L410.9,460.3 L412.1,461.0 L413.2,461.7 L414.3,462.4 L415.4,463.2
		L416.6,463.9 L417.7,464.6 L418.8,465.3 L419.9,466.0 L421.1,466.7 L422.2,467.5 L423.3,468.2 L424.4,468.9
		L425.6,469.6 L426.7,470.3 L427.8,471.0 L428.9,471.7 L430.1,472.4 L431.2,473.1 L432.3,473.8 L433.4,474.5
		L434.6,475.2 L435.7,475.8 L436.8,476.5 L437.9,477.2 L439.1,477.9 L440.2,478.6 L441.3,479.3 L442.5,479.9
		L443.6,480.6 L444.7,481.3 L445.8,482.0 L447.0,482.6 L448.1,483.3 L449.2,484.0 L450.3,484.6 L451.5,485.3
		L452.6,485.9 L453.7,486.6 L454.8,487.3 L456.0,487.9 L457.1,488.6 L458.2,489.2 L459.3,489.9 L460.5,490.5
		L461.6,491.2 L462.7,491.8 L463.8,492.5 L465.0,493.1 L466.1,493.7 L467.2,494.4 L468.3,495.0 L469.5,495.7
		L470.6,496.3 L471.7,496.9 L472.8,497.6 L474.0,498.2 L475.1,498.8 L476.2,499.4 L477.3,500.1 L478.5,500.7
		L479.6,501.3 L480.7,501.9 L481.8,502.5 L483.0,503.1 L484.1,503.8 L485.2,504.4 L486.3,505.0 L487.5,505.6
		L488.6,506.2 L489.7,506.8 L490.8,507.4 L492.0,508.0 L493.1,508.6 L494.2,509.2 L495.3,509.8 L496.5,510.4
		L497.6,511.0 L498.7,511.6 L499.8,512.2 L501.0,512.8 L502.1,513.4 L503.2,513.9 L504.3,514.5 L505.5,515.1
		L506.6,515.7 L507.7,516.3 L508.8,516.8 L510.0,517.4 L511.1,518.0 L512.2,518.6 L513.4,519.1 L514.5,519.7
		L515.6,520.3 L516.7,520.8 L517.9,521.4 L519.0,522.0 L520.1,522.5 L521.2,523.1 L522.4,523.7 L523.5,524.2
		L524.6,524.8 L525.7,525.3 L526.9,525.9 L528.0,526.4 L529.1,527.0 L530.2,527.5 L531.4,528.1 L532.5,528.6
		L533.6,529.2 L534.7,529.7 L535.9,530.3 L537.0,530.8 L538.1,531.3 L539.2,531.9 L540.4,532.4 L541.5,532.9
		L542.6,533.5 L543.7,534.0 L544.9,534.5 L546.0,535.1 L547.1,535.6 L548.2,536.1 L549.4,536.6 L550.5,537.2
		L551.6,537.7 L552.7,538.2 L553.9,538.7 L555.0,539.2 L556.1,539.8 L557.2,540.3 L558.4,540.8 L559.5,541.3
		L560.6,541.8 L561.7,542.3 L562.9,542.8 L564.0,543.3 L565.1,543.8 L566.2,544.3 L567.4,544.8 L568.5,545.3
		L569.6,545.8 L570.7,546.3 L571.9,546.8 L573.0,547.3 L574.1,547.8 L575.2,548.3 L576.4,548.8 L577.5,549.3
		L578.6,549.8 L579.8,550.3 L580.9,550.7 L582.0,551.2 L583.1,551.7 L584.3,552.2 L585.4,552.7 L586.5,553.2
		L587.6,553.6 L588.8,554.1 L589.9,554.6 L591.0,555.1 L592.1,555.5 L593.3,556.0 L594.4,556.5 L595.5,556.9
		L596.6,557.4 L597.8,557.9 L598.9,558.3 L600.0,558.8 L601.1,559.3 L602.3,559.7 L603.4,560.2 L604.5,560.6
		L605.6,561.1 L606.8,561.6 L607.9,562.0 L609.0,562.5 L610.1,562.9 L611.3,563.4 L612.4,563.8 L613.5,564.3
		L614.6,564.7 L615.8,565.2 L616.9,565.6 L618.0,566.1 L619.1,566.5 L620.3,566.9 L621.4,567.4 L622.5,567.8
		L623.6,568.3 L624.8,568.7 L625.9,569.1 L627.0,569.6 L628.1,570.0 L629.3,570.4 L630.4,570.9 L631.5,571.3
		L632.6,571.7 L633.8,572.1 L634.9,572.6 L636.0,573.0 L637.1,573.4 L638.3,573.8 L639.4,574.3 L640.5,574.7
		L641.6,575.1 L642.8,575.5 L643.9,575.9 L645.0,576.3 L646.2,576.8 L647.3,577.2 L648.4,577.6 L649.5,578.0
		L650.7,578.4 L651.8,578.8 L652.9,579.2 L654.0,579.6 L655.2,580.0 L656.3,580.4 L657.4,580.8 L658.5,581.2
		L659.7,581.6 L660.8,582.0 L661.9,582.4 L663.0,582.8 L664.2,583.2 L665.3,583.6 L666.4,584.0 L667.5,584.4
		L668.7,584.8 L669.8,585.2 L670.9,585.6 L672.0,586.0 L673.2,586.4 L674.3,586.7 L675.4,587.1 L676.5,587.5
		L677.7,587.9 L678.8,588.3 L679.9,588.7 L681.0,589.0 L682.2,589.4 L683.3,589.8 L684.4,590.2 L685.5,590.6
		L686.7,590.9 L687.8,591.3 L688.9,591.7 L690.0,592.0 L691.2,592.4 L692.3,592.8 L693.4,593.2 L694.5,593.5
		L695.7,593.9 L696.8,594.3 L697.9,594.6 L699.0,595.0 L700.2,595.3 L701.3,595.7 L702.4,596.1 L703.5,596.4
		L704.7,596.8 L705.8,597.1 L706.9,597.5 L708.0,597.8 L709.2,598.2 L710.3,598.6 L711.4,598.9 L712.5,599.3
		L713.7,599.6 L714.8,600.0 L715.9,600.3 L717.1,600.7 L718.2,601.0 L719.3,601.3 L720.4,601.7 L721.6,602.0
		L722.7,602.4 L723.8,602.7 L724.9,603.1 L726.1,603.4 L727.2,603.7 L728.3,604.1 L729.4,604.4 L730.6,604.7
		L731.7,605.1 L732.8,605.4 L733.9,605.7 L735.1,606.1 L736.2,606.4 L737.3,606.7 L738.4,607.1 L739.6,607.4
		L740.7,607.7 L741.8,608.0 L742.9,608.4 L744.1,608.7 L745.2,609.0 L746.3,609.3 L747.4,609.6 L748.6,610.0
		L749.7,610.3 L750.8,610.6 L751.9,610.9 L753.1,611.2 L754.2,611.6 L755.3,611.9 L756.4,612.2 L757.6,612.5
		L758.7,612.8 L759.8,613.1 L760.9,613.4 L762.1,613.7 L763.2,614.0 L764.3,614.4 L765.4,614.7 L766.6,615.0
		L767.7,615.3 L768.8,615.6 L769.9,615.9 L771.1,616.2 L772.2,616.5 L773.3,616.8 L774.4,617.1 L775.6,617.4
		L776.7,617.7 L777.8,618.0 L778.9,618.3 L780.1,618.6 L781.2,618.8 L782.3,619.1 L783.5,619.4 L784.6,619.7
		L785.7,620.0 L786.8,620.3 L788.0,620.6 L789.1,620.9 L790.2,621.2 L791.3,621.4 L792.5,621.7 L793.6,622.0
		L794.7,622.3 L795.8,622.6 L797.0,622.9 L798.1,623.1 L799.2,623.4 L800.3,623.7 L801.5,624.0 L802.6,624.3
		L803.7,624.5 L804.8,624.8 L806.0,625.1 L807.1,625.4 L808.2,625.6 L809.3,625.9 L810.5,626.2 L811.6,626.4
		L812.7,626.7 L813.8,627.0 L815.0,627.2 L816.1,627.5 L817.2,627.8 L818.3,628.0 L819.5,628.3 L820.6,628.6
		L821.7,628.8 L822.8,629.1 L824.0,629.3 L825.1,629.6 L826.2,629.9 L827.3,630.1 L828.5,630.4 L829.6,630.6
		L830.7,630.9 L831.8,631.2 L833.0,631.4 L834.1,631.7 L835.2,631.9 L836.3,632.2 L837.5,632.4 L838.6,632.7
		L839.7,632.9 L840.8,633.2 L842.0,633.4 L843.1,633.7 L844.2,633.9 L845.3,634.1 L846.5,634.4 L847.6,634.6
		L848.7,634.9 L849.9,635.1 L851.0,635.4 L852.1,635.6 L853.2,635.8 L854.4,636.1 L855.5,636.3 L856.6,636.6
		L857.7,636.8 L858.9,637.0 L860.0,637.3 L861.1,637.5 L862.2,637.7 L863.4,638.0 L864.5,638.2 L865.6,638.4
		L866.7,638.7 L867.9,638.9 L869.0,639.1 L870.1,639.3 L871.2,639.6 L872.4,639.8 L873.5,640.0 L874.6,640.2
		L875.7,640.5 L876.9,640.7 L878.0,640.9 L879.1,641.1 L880.2,641.4 L881.4,641.6 L882.5,641.8 L883.6,642.0
		L884.7,642.2 L885.9,642.4 L887.0,642.7 L888.1,642.9 L889.2,643.1 L890.4,643.3 L891.5,643.5 L892.6,643.7
		L893.7,643.9 L894.9,644.1 L896.0,644.4 L897.1,644.6 L898.2,644.8 L899.4,645.0 L900.5,645.2 L901.6,645.4
		L902.7,645.6 L903.9,645.8 L905.0,646.0 L906.1,646.2 L907.2,646.4 L908.4,646.6 L909.5,646.8 L910.6,647.0
		L911.7,647.2 L912.9,647.4 L914.0,647.6 L915.1,647.8 L916.2,648.0 L917.4,648.2 L918.5,648.4 L919.6,648.6
		L920.8,648.8 L921.9,649.0 L923.0,649.2 L924.1,649.4 L925.3,649.6 L926.4,649.7 L927.5,649.9 L928.6,650.1
		L929.8,650.3 L930.9,650.5 L932.0,650.7 L933.1,650.9 L934.3,651.1 L935.4,651.2 L936.5,651.4 L937.6,651.6
		L938.8,651.8 L939.9,652.0 L941.0,652.1 L942.1,652.3 L943.3,652.5 L944.4,652.7 L945.5,652.9 L946.6,653.0
		L947.8,653.2 L948.9,653.4 L950.0,653.6 L951.1,653.7 L952.3,653.9 L953.4,654.1 L954.5,654.3 L955.6,654.4
		L956.8,654.6 L957.9,654.8 L959.0,654.9 L960.1,655.1 L961.3,655.3 L962.4,655.4 L963.5,655.6 L964.6,655.8
		L965.8,655.9 L966.9,656.1 L968.0,656.3 L969.1,656.4 L970.3,656.6 L971.4,656.8 L972.5,656.9 L973.6,657.1
		L974.8,657.2 L975.9,657.4 L977.0,657.6 L978.1,657.7 L979.3,657.9 L980.4,658.0 L981.5,658.2 L982.6,658.3
		L983.8,658.5 L984.9,658.6 L986.0,658.8 L987.2,658.9 L988.3,659.1 L989.4,659.2 L990.5,659.4 L991.7,659.5
		L992.8,659.7 L993.9,659.8 L995.0,660.0 L996.2,660.1 L997.3,660.3 L998.4,660.4 L999.5,660.6 L1000.7,660.7
		L1001.8,660.9 L1002.9,661.0 L1004.0,661.1 L1005.2,661.3 L1006.3,661.4 L1007.4,661.6 L1008.5,661.7 L1009.7,661.8
		L1010.8,662.0 L1011.9,662.1 L1013.0,662.2 L1014.2,662.4 L1015.3,662.5 L1016.4,662.6 L1017.5,662.8 L1018.7,662.9
		L1019.8,663.0 L1020.9,663.2 L1022.0,663.3 L1023.2,663.4 L1024.3,663.6 L1025.4,663.7 L1026.5,663.8 L1027.7,663.9
		L1028.8,664.1 L1029.9,664.2 L1031.0,664.3 L1032.2,664.5 L1033.3,664.6 L1034.4,664.7 L1035.5,664.8 L1036.7,664.9
		L1037.8,665.1 L1038.9,665.2 L1040.0,665.3 L1041.2,665.4 L1042.3,665.5 L1043.4,665.7 L1044.5,665.8 L1045.7,665.9
		L1046.8,666.0 L1047.9,666.1 L1049.0,666.2 L1050.2,666.4 L1051.3,666.5 L1052.4,666.6 L1053.6,666.7 L1054.7,666.8
		L1055.8,666.9 L1056.9,667.0 L1058.1,667.1 L1059.2,667.2 L1060.3,667.4 L1061.4,667.5 L1062.6,667.6 L1063.7,667.7
		L1064.8,667.8 L1065.9,667.9 L1067.1,668.0 L1068.2,668.1 L1069.3,668.2 L1070.4,668.3 L1071.6,668.4 L1072.7,668.5
		L1073.8,668.6 L1074.9,668.7 L1076.1,668.8 L1077.2,668.9 L1078.3,669.0 L1079.4,669.1 L1080.6,669.2 L1081.7,669.3
		L1082.8,669.4 L1083.9,669.5 L1085.1,669.6 L1086.2,669.7 L1087.3,669.8 L1088.4,669.9 L1089.6,669.9 L1090.7,670.0
		L1091.8,670.1 L1092.9,670.2 L1094.1,670.3 L1095.2,670.4 L1096.3,670.5 L1097.4,670.6 L1098.6,670.7 L1099.7,670.7
		L1100.8,670.8 L1101.9,670.9 L1103.1,671.0 L1104.2,671.1 L1105.3,671.2 L1106.4,671.2 L1107.6,671.3 L1108.7,671.4
		L1109.8,671.5 L1110.9,671.6 L1112.1,671.6 L1113.2,671.7 L1114.3,671.8 L1115.4,671.9 L1116.6,672.0 L1117.7,672.0
		L1118.8,672.1 L1120.0,672.2 L1121.1,672.2 L1122.2,672.3 L1123.3,672.4 L1124.5,672.5 L1125.6,672.5 L1126.7,672.6
		L1127.8,672.7 L1129.0,672.7 L1130.1,672.8 L1131.2,672.9 L1132.3,673.0 L1133.5,673.0 L1134.6,673.1 L1135.7,673.2
		L1136.8,673.2 L1138.0,673.3 L1139.1,673.3 L1140.2,673.4 L1141.3,673.5 L1142.5,673.5 L1143.6,673.6 L1144.7,673.7
		L1145.8,673.7 L1147.0,673.8 L1148.1,673.8 L1149.2,673.9 L1150.3,673.9 L1151.5,674.0 L1152.6,674.1 L1153.7,674.1
		L1154.8,674.2 L1156.0,674.2 L1157.1,674.3 L1158.2,674.3 L1159.3,674.4 L1160.5,674.4 L1161.6,674.5 L1162.7,674.5
		L1163.8,674.6 L1165.0,674.6 L1166.1,674.7 L1167.2,674.7 L1168.3,674.8 L1169.5,674.8 L1170.6,674.9 L1171.7,674.9
		L1172.8,675.0 L1174.0,675.0 L1175.1,675.1 L1176.2,675.1 L1177.3,675.1 L1178.5,675.2 L1179.6,675.2 L1180.7,675.3
		L1181.8,675.3 L1183.0,675.3 L1184.1,675.4 L1185.2,675.4 L1186.3,675.5 L1187.5,675.5 L1188.6,675.5 L1189.7,675.6
		L1190.9,675.6 L1192.0,675.6 L1193.1,675.7 L1194.2,675.7 L1195.4,675.7 L1196.5,675.8 L1197.6,675.8 L1198.7,675.8
		L1199.9,675.9 L1201.0,675.9 L1202.1,675.9 L1203.2,676.0 L1204.4,676.0 L1205.5,676.0 L1206.6,676.0 L1207.7,676.1
		L1208.9,676.1 L1210.0,676.1 L1211.1,676.1 L1212.2,676.2 L1213.4,676.2 L1214.5,676.2 L1215.6,676.2 L1216.7,676.2
		L1217.9,676.3 L1219.0,676.3 L1220.1,676.3 L1221.2,676.3 L1222.4,676.3 L1223.5,676.4 L1224.6,676.4 L1225.7,676.4
		L1226.9,676.4 L1228.0,676.4 L1229.1,676.4 L1230.2,676.5 L1231.4,676.5 L1232.5,676.5 L1233.6,676.5 L1234.7,676.5
		L1235.9,676.5 L1237.0,676.5 L1238.1,676.5 L1239.2,676.5 L1240.4,676.5 L1241.5,676.6 L1242.6,676.6 L1243.7,676.6
		L1244.9,676.6 L1246.0,676.6 L1247.1,676.6 L1248.2,676.6 L1249.4,676.6 L1250.5,676.6 L1251.6,676.6 L1252.7,676.6
		L1253.9,676.6 L1255.0,676.6  '/></g>
	</g>
	<g id="gnuplot_plot_4" ><title>4 (convex)</title>
<g fill="none" color="black" stroke="currentColor" stroke-width="1.00" stroke-linecap="butt" stroke-linejoin="miter">
	<g transform="translate(1187.9,130.0)" stroke="none" fill="black" font-family="Arial" font-size="12.00"  text-anchor="end">
		<text><tspan font-family="Arial" >4 (convex)</tspan></text>
	</g>
</g>
<g fill="none" color="black" stroke="currentColor" stroke-width="1.00" stroke-linecap="butt" stroke-linejoin="miter">
	<path stroke='rgb(230, 159,   0)'  d='M1196.2,126.1 L1238.4,126.1 M103.7,56.0 L104.8,58.7 L106.0,66.3 L107.1,77.8 L108.2,91.8 L109.3,107.0
		L110.5,122.3 L111.6,136.9 L112.7,150.5 L113.8,162.7 L115.0,173.6 L116.1,183.0 L117.2,191.3 L118.3,198.4
		L119.5,204.5 L120.6,209.8 L121.7,214.3 L122.8,218.2 L124.0,221.6 L125.1,224.6 L126.2,227.2 L127.3,229.5
		L128.5,231.5 L129.6,233.4 L130.7,235.0 L131.8,236.6 L133.0,238.0 L134.1,239.2 L135.2,240.4 L136.3,241.6
		L137.5,242.6 L138.6,243.7 L139.7,244.6 L140.8,245.6 L142.0,246.5 L143.1,247.4 L144.2,248.3 L145.3,249.1
		L146.5,250.0 L147.6,250.8 L148.7,251.6 L149.8,252.4 L151.0,253.3 L152.1,254.1 L153.2,254.9 L154.3,255.7
		L155.5,256.5 L156.6,257.3 L157.7,258.2 L158.8,259.0 L160.0,259.8 L161.1,260.6 L162.2,261.5 L163.3,262.3
		L164.5,263.2 L165.6,264.0 L166.7,264.9 L167.8,265.8 L169.0,266.6 L170.1,267.5 L171.2,268.4 L172.4,269.3
		L173.5,270.2 L174.6,271.1 L175.7,272.0 L176.9,272.9 L178.0,273.8 L179.1,274.7 L180.2,275.7 L181.4,276.6
		L182.5,277.5 L183.6,278.5 L184.7,279.4 L185.9,280.4 L187.0,281.3 L188.1,282.3 L189.2,283.3 L190.4,284.3
		L191.5,285.2 L192.6,286.2 L193.7,287.2 L194.9,288.2 L196.0,289.2 L197.1,290.2 L198.2,291.2 L199.4,292.2
		L200.5,293.2 L201.6,294.3 L202.7,295.3 L203.9,296.3 L205.0,297.3 L206.1,298.4 L207.2,299.4 L208.4,300.4
		L209.5,301.5 L210.6,302.5 L211.7,303.5 L212.9,304.6 L214.0,305.6 L215.1,306.7 L216.2,307.7 L217.4,308.8
		L218.5,309.8 L219.6,310.9 L220.7,312.0 L221.9,313.0 L223.0,314.1 L224.1,315.1 L225.2,316.2 L226.4,317.3
		L227.5,318.3 L228.6,319.4 L229.7,320.5 L230.9,321.5 L232.0,322.6 L233.1,323.7 L234.2,324.7 L235.4,325.8
		L236.5,326.9 L237.6,327.9 L238.7,329.0 L239.9,330.1 L241.0,331.1 L242.1,332.2 L243.3,333.3 L244.4,334.3
		L245.5,335.4 L246.6,336.5 L247.8,337.5 L248.9,338.6 L250.0,339.7 L251.1,340.7 L252.3,341.8 L253.4,342.9
		L254.5,343.9 L255.6,345.0 L256.8,346.0 L257.9,347.1 L259.0,348.2 L260.1,349.2 L261.3,350.3 L262.4,351.3
		L263.5,352.4 L264.6,353.4 L265.8,354.5 L266.9,355.5 L268.0,356.6 L269.1,357.6 L270.3,358.7 L271.4,359.7
		L272.5,360.8 L273.6,361.8 L274.8,362.8 L275.9,363.9 L277.0,364.9 L278.1,366.0 L279.3,367.0 L280.4,368.0
		L281.5,369.0 L282.6,370.1 L283.8,371.1 L284.9,372.1 L286.0,373.1 L287.1,374.2 L288.3,375.2 L289.4,376.2
		L290.5,377.2 L291.6,378.2 L292.8,379.2 L293.9,380.2 L295.0,381.2 L296.1,382.2 L297.3,383.2 L298.4,384.2
		L299.5,385.2 L300.6,386.2 L301.8,387.2 L302.9,388.2 L304.0,389.2 L305.1,390.2 L306.3,391.2 L307.4,392.2
		L308.5,393.1 L309.7,394.1 L310.8,395.1 L311.9,396.1 L313.0,397.0 L314.2,398.0 L315.3,399.0 L316.4,399.9
		L317.5,400.9 L318.7,401.8 L319.8,402.8 L320.9,403.8 L322.0,404.7 L323.2,405.7 L324.3,406.6 L325.4,407.5
		L326.5,408.5 L327.7,409.4 L328.8,410.4 L329.9,411.3 L331.0,412.2 L332.2,413.2 L333.3,414.1 L334.4,415.0
		L335.5,415.9 L336.7,416.8 L337.8,417.8 L338.9,418.7 L340.0,419.6 L341.2,420.5 L342.3,421.4 L343.4,422.3
		L344.5,423.2 L345.7,424.1 L346.8,425.0 L347.9,425.9 L349.0,426.8 L350.2,427.7 L351.3,428.6 L352.4,429.5
		L353.5,430.4 L354.7,431.2 L355.8,432.1 L356.9,433.0 L358.0,433.9 L359.2,434.7 L360.3,435.6 L361.4,436.5
		L362.5,437.3 L363.7,438.2 L364.8,439.1 L365.9,439.9 L367.0,440.8 L368.2,441.6 L369.3,442.5 L370.4,443.3
		L371.5,444.2 L372.7,445.0 L373.8,445.8 L374.9,446.7 L376.1,447.5 L377.2,448.4 L378.3,449.2 L379.4,450.0
		L380.6,450.8 L381.7,451.7 L382.8,452.5 L383.9,453.3 L385.1,454.1 L386.2,454.9 L387.3,455.7 L388.4,456.6
		L389.6,457.4 L390.7,458.2 L391.8,459.0 L392.9,459.8 L394.1,460.6 L395.2,461.4 L396.3,462.2 L397.4,462.9
		L398.6,463.7 L399.7,464.5 L400.8,465.3 L401.9,466.1 L403.1,466.9 L404.2,467.6 L405.3,468.4 L406.4,469.2
		L407.6,470.0 L408.7,470.7 L409.8,471.5 L410.9,472.3 L412.1,473.0 L413.2,473.8 L414.3,474.5 L415.4,475.3
		L416.6,476.1 L417.7,476.8 L418.8,477.6 L419.9,478.3 L421.1,479.0 L422.2,479.8 L423.3,480.5 L424.4,481.3
		L425.6,482.0 L426.7,482.7 L427.8,483.5 L428.9,484.2 L430.1,484.9 L431.2,485.6 L432.3,486.4 L433.4,487.1
		L434.6,487.8 L435.7,488.5 L436.8,489.2 L437.9,490.0 L439.1,490.7 L440.2,491.4 L441.3,492.1 L442.5,492.8
		L443.6,493.5 L444.7,494.2 L445.8,494.9 L447.0,495.6 L448.1,496.3 L449.2,497.0 L450.3,497.7 L451.5,498.3
		L452.6,499.0 L453.7,499.7 L454.8,500.4 L456.0,501.1 L457.1,501.7 L458.2,502.4 L459.3,503.1 L460.5,503.8
		L461.6,504.4 L462.7,505.1 L463.8,505.8 L465.0,506.4 L466.1,507.1 L467.2,507.8 L468.3,508.4 L469.5,509.1
		L470.6,509.7 L471.7,510.4 L472.8,511.0 L474.0,511.7 L475.1,512.3 L476.2,513.0 L477.3,513.6 L478.5,514.3
		L479.6,514.9 L480.7,515.5 L481.8,516.2 L483.0,516.8 L484.1,517.4 L485.2,518.1 L486.3,518.7 L487.5,519.3
		L488.6,519.9 L489.7,520.6 L490.8,521.2 L492.0,521.8 L493.1,522.4 L494.2,523.0 L495.3,523.6 L496.5,524.3
		L497.6,524.9 L498.7,525.5 L499.8,526.1 L501.0,526.7 L502.1,527.3 L503.2,527.9 L504.3,528.5 L505.5,529.1
		L506.6,529.7 L507.7,530.3 L508.8,530.9 L510.0,531.5 L511.1,532.1 L512.2,532.6 L513.4,533.2 L514.5,533.8
		L515.6,534.4 L516.7,535.0 L517.9,535.5 L519.0,536.1 L520.1,536.7 L521.2,537.3 L522.4,537.8 L523.5,538.4
		L524.6,539.0 L525.7,539.6 L526.9,540.1 L528.0,540.7 L529.1,541.2 L530.2,541.8 L531.4,542.4 L532.5,542.9
		L533.6,543.5 L534.7,544.0 L535.9,544.6 L537.0,545.1 L538.1,545.7 L539.2,546.2 L540.4,546.8 L541.5,547.3
		L542.6,547.9 L543.7,548.4 L544.9,548.9 L546.0,549.5 L547.1,550.0 L548.2,550.5 L549.4,551.1 L550.5,551.6
		L551.6,552.1 L552.7,552.7 L553.9,553.2 L555.0,553.7 L556.1,554.2 L557.2,554.8 L558.4,555.3 L559.5,555.8
		L560.6,556.3 L561.7,556.8 L562.9,557.4 L564.0,557.9 L565.1,558.4 L566.2,558.9 L567.4,559.4 L568.5,559.9
		L569.6,560.4 L570.7,560.9 L571.9,561.4 L573.0,561.9 L574.1,562.4 L575.2,562.9 L576.4,563.4 L577.5,563.9
		L578.6,564.4 L579.8,564.9 L580.9,565.4 L582.0,565.9 L583.1,566.4 L584.3,566.8 L585.4,567.3 L586.5,567.8
		L587.6,568.3 L588.8,568.8 L589.9,569.2 L591.0,569.7 L592.1,570.2 L593.3,570.7 L594.4,571.1 L595.5,571.6
		L596.6,572.1 L597.8,572.6 L598.9,573.0 L600.0,573.5 L601.1,574.0 L602.3,574.4 L603.4,574.9 L604.5,575.3
		L605.6,575.8 L606.8,576.3 L607.9,576.7 L609.0,577.2 L610.1,577.6 L611.3,578.1 L612.4,578.5 L613.5,579.0
		L614.6,579.4 L615.8,579.9 L616.9,580.3 L618.0,580.8 L619.1,581.2 L620.3,581.6 L621.4,582.1 L622.5,582.5
		L623.6,583.0 L624.8,583.4 L625.9,583.8 L627.0,584.3 L628.1,584.7 L629.3,585.1 L630.4,585.6 L631.5,586.0
		L632.6,586.4 L633.8,586.8 L634.9,587.3 L636.0,587.7 L637.1,588.1 L638.3,588.5 L639.4,588.9 L640.5,589.4
		L641.6,589.8 L642.8,590.2 L643.9,590.6 L645.0,591.0 L646.2,591.4 L647.3,591.8 L648.4,592.2 L649.5,592.6
		L650.7,593.1 L651.8,593.5 L652.9,593.9 L654.0,594.3 L655.2,594.7 L656.3,595.1 L657.4,595.5 L658.5,595.9
		L659.7,596.3 L660.8,596.6 L661.9,597.0 L663.0,597.4 L664.2,597.8 L665.3,598.2 L666.4,598.6 L667.5,599.0
		L668.7,599.4 L669.8,599.8 L670.9,600.1 L672.0,600.5 L673.2,600.9 L674.3,601.3 L675.4,601.7 L676.5,602.0
		L677.7,602.4 L678.8,602.8 L679.9,603.2 L681.0,603.5 L682.2,603.9 L683.3,604.3 L684.4,604.6 L685.5,605.0
		L686.7,605.4 L687.8,605.7 L688.9,606.1 L690.0,606.5 L691.2,606.8 L692.3,607.2 L693.4,607.5 L694.5,607.9
		L695.7,608.3 L696.8,608.6 L697.9,609.0 L699.0,609.3 L700.2,609.7 L701.3,610.0 L702.4,610.4 L703.5,610.7
		L704.7,611.1 L705.8,611.4 L706.9,611.7 L708.0,612.1 L709.2,612.4 L710.3,612.8 L711.4,613.1 L712.5,613.5
		L713.7,613.8 L714.8,614.1 L715.9,614.5 L717.1,614.8 L718.2,615.1 L719.3,615.5 L720.4,615.8 L721.6,616.1
		L722.7,616.4 L723.8,616.8 L724.9,617.1 L726.1,617.4 L727.2,617.7 L728.3,618.1 L729.4,618.4 L730.6,618.7
		L731.7,619.0 L732.8,619.3 L733.9,619.6 L735.1,620.0 L736.2,620.3 L737.3,620.6 L738.4,620.9 L739.6,621.2
		L740.7,621.5 L741.8,621.8 L742.9,622.1 L744.1,622.4 L745.2,622.7 L746.3,623.0 L747.4,623.3 L748.6,623.6
		L749.7,623.9 L750.8,624.2 L751.9,624.5 L753.1,624.8 L754.2,625.1 L755.3,625.4 L756.4,625.7 L757.6,626.0
		L758.7,626.3 L759.8,626.6 L760.9,626.9 L762.1,627.1 L763.2,627.4 L764.3,627.7 L765.4,628.0 L766.6,628.3
		L767.7,628.6 L768.8,628.8 L769.9,629.1 L771.1,629.4 L772.2,629.7 L773.3,629.9 L774.4,630.2 L775.6,630.5
		L776.7,630.8 L777.8,631.0 L778.9,631.3 L780.1,631.6 L781.2,631.8 L782.3,632.1 L783.5,632.4 L784.6,632.6
		L785.7,632.9 L786.8,633.1 L788.0,633.4 L789.1,633.7 L790.2,633.9 L791.3,634.2 L792.5,634.4 L793.6,634.7
		L794.7,634.9 L795.8,635.2 L797.0,635.4 L798.1,635.7 L799.2,635.9 L800.3,636.2 L801.5,636.4 L802.6,636.7
		L803.7,636.9 L804.8,637.1 L806.0,637.4 L807.1,637.6 L808.2,637.9 L809.3,638.1 L810.5,638.3 L811.6,638.6
		L812.7,638.8 L813.8,639.0 L815.0,639.3 L816.1,639.5 L817.2,639.7 L818.3,639.9 L819.5,640.2 L820.6,640.4
		L821.7,640.6 L822.8,640.8 L824.0,641.1 L825.1,641.3 L826.2,641.5 L827.3,641.7 L828.5,641.9 L829.6,642.1
		L830.7,642.3 L831.8,642.6 L833.0,642.8 L834.1,643.0 L835.2,643.2 L836.3,643.4 L837.5,643.6 L838.6,643.8
		L839.7,644.0 L840.8,644.2 L842.0,644.4 L843.1,644.6 L844.2,644.8 L845.3,645.0 L846.5,645.2 L847.6,645.4
		L848.7,645.6 L849.9,645.8 L851.0,646.0 L852.1,646.1 L853.2,646.3 L854.4,646.5 L855.5,646.7 L856.6,646.9
		L857.7,647.1 L858.9,647.3 L860.0,647.4 L861.1,647.6 L862.2,647.8 L863.4,648.0 L864.5,648.1 L865.6,648.3
		L866.7,648.5 L867.9,648.7 L869.0,648.8 L870.1,649.0 L871.2,649.2 L872.4,649.3 L873.5,649.5 L874.6,649.6
		L875.7,649.8 L876.9,650.0 L878.0,650.1 L879.1,650.3 L880.2,650.4 L881.4,650.6 L882.5,650.7 L883.6,650.9
		L884.7,651.0 L885.9,651.2 L887.0,651.3 L888.1,651.5 L889.2,651.6 L890.4,651.8 L891.5,651.9 L892.6,652.0
		L893.7,652.2 L894.9,652.3 L896.0,652.5 L897.1,652.6 L898.2,652.7 L899.4,652.8 L900.5,653.0 L901.6,653.1
		L902.7,653.2 L903.9,653.4 L905.0,653.5 L906.1,653.6 L907.2,653.7 L908.4,653.8 L909.5,654.0 L910.6,654.1
		L911.7,654.2 L912.9,654.3 L914.0,654.4 L915.1,654.5 L916.2,654.6 L917.4,654.7 L918.5,654.8 L919.6,654.9
		L920.8,655.0 L921.9,655.1 L923.0,655.2 L924.1,655.3 L925.3,655.4 L926.4,655.5 L927.5,655.6 L928.6,655.7
		L929.8,655.8 L930.9,655.9 L932.0,656.0 L933.1,656.0 L934.3,656.1 L935.4,656.2 L936.5,656.3 L937.6,656.4
		L938.8,656.4 L939.9,656.5 L941.0,656.6 L942.1,656.7 L943.3,656.7 L944.4,656.8 L945.5,656.9 L946.6,656.9
		L947.8,657.0 L948.9,657.0 L950.0,657.1 L951.1,657.2 L952.3,657.2 L953.4,657.3 L954.5,657.3 L955.6,657.4
		L956.8,657.4 L957.9,657.4 L959.0,657.5 L960.1,657.5 L961.3,657.6 L962.4,657.6 L963.5,657.6 L964.6,657.7
		L965.8,657.7 L966.9,657.7 L968.0,657.8 L969.1,657.8 L970.3,657.8 L971.4,657.8 L972.5,657.9 L973.6,657.9
		L974.8,657.9 L975.9,657.9 L977.0,657.9 L978.1,657.9 L979.3,657.9 L980.4,657.9 L981.5,658.0 L982.6,658.0
		L983.8,658.0 L984.9,658.0 L986.0,657.9 L987.2,657.9 L988.3,657.9 L989.4,657.9 L990.5,657.9 L991.7,657.9
		L992.8,657.9 L993.9,657.9 L995.0,657.8 L996.2,657.8 L997.3,657.8 L998.4,657.8 L999.5,657.7 L1000.7,657.7
		L1001.8,657.7 L1002.9,657.6 L1004.0,657.6 L1005.2,657.6 L1006.3,657.5 L1007.4,657.5 L1008.5,657.4 L1009.7,657.4
		L1010.8,657.3 L1011.9,657.3 L1013.0,657.2 L1014.2,657.2 L1015.3,657.1 L1016.4,657.0 L1017.5,657.0 L1018.7,656.9
		L1019.8,656.8 L1020.9,656.8 L1022.0,656.7 L1023.2,656.6 L1024.3,656.5 L1025.4,656.5 L1026.5,656.4 L1027.7,656.3
		L1028.8,656.2 L1029.9,656.1 L1031.0,656.0 L1032.2,655.9 L1033.3,655.8 L1034.4,655.7 L1035.5,655.6 L1036.7,655.5
		L1037.8,655.4 L1038.9,655.3 L1040.0,655.2 L1041.2,655.1 L1042.3,655.0 L1043.4,654.8 L1044.5,654.7 L1045.7,654.6
		L1046.8,654.5 L1047.9,654.3 L1049.0,654.2 L1050.2,654.1 L1051.3,653.9 L1052.4,653.8 L1053.6,653.7 L1054.7,653.5
		L1055.8,653.4 L1056.9,653.2 L1058.1,653.1 L1059.2,652.9 L1060.3,652.8 L1061.4,652.6 L1062.6,652.4 L1063.7,652.3
		L1064.8,652.1 L1065.9,651.9 L1067.1,651.8 L1068.2,651.6 L1069.3,651.4 L1070.4,651.3 L1071.6,651.1 L1072.7,650.9
		L1073.8,650.7 L1074.9,650.5 L1076.1,650.3 L1077.2,650.1 L1078.3,649.9 L1079.4,649.8 L1080.6,649.6 L1081.7,649.4
		L1082.8,649.2 L1083.9,648.9 L1085.1,648.7 L1086.2,648.5 L1087.3,648.3 L1088.4,648.1 L1089.6,647.9 L1090.7,647.7
		L1091.8,647.4 L1092.9,647.2 L1094.1,647.0 L1095.2,646.8 L1096.3,646.5 L1097.4,646.3 L1098.6,646.1 L1099.7,645.8
		L1100.8,645.6 L1101.9,645.4 L1103.1,645.1 L1104.2,644.9 L1105.3,644.6 L1106.4,644.4 L1107.6,644.1 L1108.7,643.9
		L1109.8,643.6 L1110.9,643.4 L1112.1,643.1 L1113.2,642.9 L1114.3,642.6 L1115.4,642.4 L1116.6,642.1 L1117.7,641.8
		L1118.8,641.6 L1120.0,641.3 L1121.1,641.0 L1122.2,640.8 L1123.3,640.5 L1124.5,640.2 L1125.6,639.9 L1126.7,639.7
		L1127.8,639.4 L1129.0,639.1 L1130.1,638.8 L1131.2,638.5 L1132.3,638.3 L1133.5,638.0 L1134.6,637.7 L1135.7,637.4
		L1136.8,637.1 L1138.0,636.8 L1139.1,636.6 L1140.2,636.3 L1141.3,636.0 L1142.5,635.7 L1143.6,635.4 L1144.7,635.1
		L1145.8,634.8 L1147.0,634.5 L1148.1,634.3 L1149.2,634.0 L1150.3,633.7 L1151.5,633.4 L1152.6,633.1 L1153.7,632.8
		L1154.8,632.5 L1156.0,632.2 L1157.1,631.9 L1158.2,631.6 L1159.3,631.4 L1160.5,631.1 L1161.6,630.8 L1162.7,630.5
		L1163.8,630.2 L1165.0,629.9 L1166.1,629.6 L1167.2,629.3 L1168.3,629.1 L1169.5,628.8 L1170.6,628.5 L1171.7,628.2
		L1172.8,627.9 L1174.0,627.7 L1175.1,627.4 L1176.2,627.1 L1177.3,626.8 L1178.5,626.6 L1179.6,626.3 L1180.7,626.0
		L1181.8,625.8 L1183.0,625.5 L1184.1,625.2 L1185.2,625.0 L1186.3,624.7 L1187.5,624.5 L1188.6,624.2 L1189.7,624.0
		L1190.9,623.7 L1192.0,623.5 L1193.1,623.2 L1194.2,623.0 L1195.4,622.7 L1196.5,622.5 L1197.6,622.3 L1198.7,622.1
		L1199.9,621.8 L1201.0,621.6 L1202.1,621.4 L1203.2,621.2 L1204.4,621.0 L1205.5,620.7 L1206.6,620.5 L1207.7,620.3
		L1208.9,620.1 L1210.0,619.9 L1211.1,619.8 L1212.2,619.6 L1213.4,619.4 L1214.5,619.2 L1215.6,619.0 L1216.7,618.9
		L1217.9,618.7 L1219.0,618.5 L1220.1,618.4 L1221.2,618.2 L1222.4,618.1 L1223.5,617.9 L1224.6,617.8 L1225.7,617.7
		L1226.9,617.5 L1228.0,617.4 L1229.1,617.3 L1230.2,617.2 L1231.4,617.1 L1232.5,616.9 L1233.6,616.8 L1234.7,616.7
		L1235.9,616.7 L1237.0,616.6 L1238.1,616.5 L1239.2,616.4 L1240.4,616.3 L1241.5,616.3 L1242.6,616.2 L1243.7,616.2
		L1244.9,616.1 L1246.0,616.1 L1247.1,616.0 L1248.2,616.0 L1249.4,616.0 L1250.5,615.9 L1251.6,615.9 L1252.7,615.9
		L1253.9,615.9 L1255.0,615.9  '/></g>
	</g>
	<g id="gnuplot_plot_5" ><title>8 (convex)</title>
<g fill="none" color="black" stroke="currentColor" stroke-width="1.00" stroke-linecap="butt" stroke-linejoin="miter">
	<g transform="translate(1187.9,148.0)" stroke="none" fill="black" font-family="Arial" font-size="12.00"  text-anchor="end">
		<text><tspan font-family="Arial" >8 (convex)</tspan></text>
	</g>
</g>
<g fill="none" color="black" stroke="currentColor" stroke-width="1.00" stroke-linecap="butt" stroke-linejoin="miter">
	<path stroke='rgb(240, 228,  66)'  d='M1196.2,144.1 L1238.4,144.1 M103.7,54.1 L104.8,57.3 L106.0,66.0 L107.1,78.5 L108.2,92.9 L109.3,107.8
		L110.5,122.3 L111.6,136.1 L112.7,148.7 L113.8,160.3 L115.0,170.6 L116.1,179.8 L117.2,188.0 L118.3,195.1
		L119.5,201.4 L120.6,206.9 L121.7,211.8 L122.8,216.0 L124.0,219.7 L125.1,223.0 L126.2,226.0 L127.3,228.5
		L128.5,230.9 L129.6,233.0 L130.7,234.9 L131.8,236.6 L133.0,238.2 L134.1,239.7 L135.2,241.0 L136.3,242.3
		L137.5,243.5 L138.6,244.6 L139.7,245.7 L140.8,246.8 L142.0,247.8 L143.1,248.8 L144.2,249.7 L145.3,250.6
		L146.5,251.5 L147.6,252.4 L148.7,253.3 L149.8,254.2 L151.0,255.0 L152.1,255.9 L153.2,256.7 L154.3,257.6
		L155.5,258.4 L156.6,259.3 L157.7,260.1 L158.8,261.0 L160.0,261.8 L161.1,262.7 L162.2,263.5 L163.3,264.4
		L164.5,265.3 L165.6,266.1 L166.7,267.0 L167.8,267.9 L169.0,268.8 L170.1,269.6 L171.2,270.5 L172.4,271.4
		L173.5,272.3 L174.6,273.2 L175.7,274.1 L176.9,275.1 L178.0,276.0 L179.1,276.9 L180.2,277.8 L181.4,278.8
		L182.5,279.7 L183.6,280.7 L184.7,281.6 L185.9,282.6 L187.0,283.5 L188.1,284.5 L189.2,285.5 L190.4,286.5
		L191.5,287.4 L192.6,288.4 L193.7,289.4 L194.9,290.4 L196.0,291.4 L197.1,292.4 L198.2,293.4 L199.4,294.4
		L200.5,295.4 L201.6,296.4 L202.7,297.5 L203.9,298.5 L205.0,299.5 L206.1,300.5 L207.2,301.6 L208.4,302.6
		L209.5,303.6 L210.6,304.7 L211.7,305.7 L212.9,306.8 L214.0,307.8 L215.1,308.8 L216.2,309.9 L217.4,310.9
		L218.5,312.0 L219.6,313.0 L220.7,314.1 L221.9,315.2 L223.0,316.2 L224.1,317.3 L225.2,318.3 L226.4,319.4
		L227.5,320.4 L228.6,321.5 L229.7,322.6 L230.9,323.6 L232.0,324.7 L233.1,325.8 L234.2,326.8 L235.4,327.9
		L236.5,329.0 L237.6,330.0 L238.7,331.1 L239.9,332.1 L241.0,333.2 L242.1,334.3 L243.3,335.3 L244.4,336.4
		L245.5,337.5 L246.6,338.5 L247.8,339.6 L248.9,340.7 L250.0,341.7 L251.1,342.8 L252.3,343.8 L253.4,344.9
		L254.5,346.0 L255.6,347.0 L256.8,348.1 L257.9,349.1 L259.0,350.2 L260.1,351.2 L261.3,352.3 L262.4,353.3
		L263.5,354.4 L264.6,355.4 L265.8,356.5 L266.9,357.5 L268.0,358.6 L269.1,359.6 L270.3,360.7 L271.4,361.7
		L272.5,362.7 L273.6,363.8 L274.8,364.8 L275.9,365.9 L277.0,366.9 L278.1,367.9 L279.3,368.9 L280.4,370.0
		L281.5,371.0 L282.6,372.0 L283.8,373.0 L284.9,374.1 L286.0,375.1 L287.1,376.1 L288.3,377.1 L289.4,378.1
		L290.5,379.1 L291.6,380.1 L292.8,381.2 L293.9,382.2 L295.0,383.2 L296.1,384.2 L297.3,385.2 L298.4,386.2
		L299.5,387.1 L300.6,388.1 L301.8,389.1 L302.9,390.1 L304.0,391.1 L305.1,392.1 L306.3,393.1 L307.4,394.0
		L308.5,395.0 L309.7,396.0 L310.8,397.0 L311.9,397.9 L313.0,398.9 L314.2,399.9 L315.3,400.8 L316.4,401.8
		L317.5,402.7 L318.7,403.7 L319.8,404.7 L320.9,405.6 L322.0,406.6 L323.2,407.5 L324.3,408.4 L325.4,409.4
		L326.5,410.3 L327.7,411.3 L328.8,412.2 L329.9,413.1 L331.0,414.1 L332.2,415.0 L333.3,415.9 L334.4,416.8
		L335.5,417.8 L336.7,418.7 L337.8,419.6 L338.9,420.5 L340.0,421.4 L341.2,422.3 L342.3,423.2 L343.4,424.1
		L344.5,425.0 L345.7,425.9 L346.8,426.8 L347.9,427.7 L349.0,428.6 L350.2,429.5 L351.3,430.4 L352.4,431.3
		L353.5,432.2 L354.7,433.0 L355.8,433.9 L356.9,434.8 L358.0,435.7 L359.2,436.5 L360.3,437.4 L361.4,438.3
		L362.5,439.1 L363.7,440.0 L364.8,440.8 L365.9,441.7 L367.0,442.5 L368.2,443.4 L369.3,444.2 L370.4,445.1
		L371.5,445.9 L372.7,446.8 L373.8,447.6 L374.9,448.4 L376.1,449.3 L377.2,450.1 L378.3,450.9 L379.4,451.8
		L380.6,452.6 L381.7,453.4 L382.8,454.2 L383.9,455.0 L385.1,455.9 L386.2,456.7 L387.3,457.5 L388.4,458.3
		L389.6,459.1 L390.7,459.9 L391.8,460.7 L392.9,461.5 L394.1,462.3 L395.2,463.1 L396.3,463.9 L397.4,464.7
		L398.6,465.5 L399.7,466.2 L400.8,467.0 L401.9,467.8 L403.1,468.6 L404.2,469.4 L405.3,470.1 L406.4,470.9
		L407.6,471.7 L408.7,472.4 L409.8,473.2 L410.9,474.0 L412.1,474.7 L413.2,475.5 L414.3,476.3 L415.4,477.0
		L416.6,477.8 L417.7,478.5 L418.8,479.3 L419.9,480.0 L421.1,480.7 L422.2,481.5 L423.3,482.2 L424.4,483.0
		L425.6,483.7 L426.7,484.4 L427.8,485.2 L428.9,485.9 L430.1,486.6 L431.2,487.3 L432.3,488.1 L433.4,488.8
		L434.6,489.5 L435.7,490.2 L436.8,490.9 L437.9,491.6 L439.1,492.3 L440.2,493.0 L441.3,493.8 L442.5,494.5
		L443.6,495.2 L444.7,495.9 L445.8,496.6 L447.0,497.2 L448.1,497.9 L449.2,498.6 L450.3,499.3 L451.5,500.0
		L452.6,500.7 L453.7,501.4 L454.8,502.1 L456.0,502.7 L457.1,503.4 L458.2,504.1 L459.3,504.8 L460.5,505.4
		L461.6,506.1 L462.7,506.8 L463.8,507.4 L465.0,508.1 L466.1,508.8 L467.2,509.4 L468.3,510.1 L469.5,510.7
		L470.6,511.4 L471.7,512.0 L472.8,512.7 L474.0,513.3 L475.1,514.0 L476.2,514.6 L477.3,515.3 L478.5,515.9
		L479.6,516.5 L480.7,517.2 L481.8,517.8 L483.0,518.4 L484.1,519.1 L485.2,519.7 L486.3,520.3 L487.5,521.0
		L488.6,521.6 L489.7,522.2 L490.8,522.8 L492.0,523.4 L493.1,524.1 L494.2,524.7 L495.3,525.3 L496.5,525.9
		L497.6,526.5 L498.7,527.1 L499.8,527.7 L501.0,528.3 L502.1,528.9 L503.2,529.5 L504.3,530.1 L505.5,530.7
		L506.6,531.3 L507.7,531.9 L508.8,532.5 L510.0,533.1 L511.1,533.7 L512.2,534.3 L513.4,534.8 L514.5,535.4
		L515.6,536.0 L516.7,536.6 L517.9,537.2 L519.0,537.7 L520.1,538.3 L521.2,538.9 L522.4,539.5 L523.5,540.0
		L524.6,540.6 L525.7,541.2 L526.9,541.7 L528.0,542.3 L529.1,542.8 L530.2,543.4 L531.4,544.0 L532.5,544.5
		L533.6,545.1 L534.7,545.6 L535.9,546.2 L537.0,546.7 L538.1,547.3 L539.2,547.8 L540.4,548.4 L541.5,548.9
		L542.6,549.5 L543.7,550.0 L544.9,550.5 L546.0,551.1 L547.1,551.6 L548.2,552.1 L549.4,552.7 L550.5,553.2
		L551.6,553.7 L552.7,554.3 L553.9,554.8 L555.0,555.3 L556.1,555.8 L557.2,556.3 L558.4,556.9 L559.5,557.4
		L560.6,557.9 L561.7,558.4 L562.9,558.9 L564.0,559.4 L565.1,560.0 L566.2,560.5 L567.4,561.0 L568.5,561.5
		L569.6,562.0 L570.7,562.5 L571.9,563.0 L573.0,563.5 L574.1,564.0 L575.2,564.5 L576.4,565.0 L577.5,565.5
		L578.6,566.0 L579.8,566.5 L580.9,566.9 L582.0,567.4 L583.1,567.9 L584.3,568.4 L585.4,568.9 L586.5,569.4
		L587.6,569.8 L588.8,570.3 L589.9,570.8 L591.0,571.3 L592.1,571.8 L593.3,572.2 L594.4,572.7 L595.5,573.2
		L596.6,573.6 L597.8,574.1 L598.9,574.6 L600.0,575.0 L601.1,575.5 L602.3,576.0 L603.4,576.4 L604.5,576.9
		L605.6,577.4 L606.8,577.8 L607.9,578.3 L609.0,578.7 L610.1,579.2 L611.3,579.6 L612.4,580.1 L613.5,580.5
		L614.6,581.0 L615.8,581.4 L616.9,581.9 L618.0,582.3 L619.1,582.7 L620.3,583.2 L621.4,583.6 L622.5,584.1
		L623.6,584.5 L624.8,584.9 L625.9,585.4 L627.0,585.8 L628.1,586.2 L629.3,586.7 L630.4,587.1 L631.5,587.5
		L632.6,587.9 L633.8,588.4 L634.9,588.8 L636.0,589.2 L637.1,589.6 L638.3,590.0 L639.4,590.5 L640.5,590.9
		L641.6,591.3 L642.8,591.7 L643.9,592.1 L645.0,592.5 L646.2,592.9 L647.3,593.4 L648.4,593.8 L649.5,594.2
		L650.7,594.6 L651.8,595.0 L652.9,595.4 L654.0,595.8 L655.2,596.2 L656.3,596.6 L657.4,597.0 L658.5,597.4
		L659.7,597.8 L660.8,598.2 L661.9,598.6 L663.0,598.9 L664.2,599.3 L665.3,599.7 L666.4,600.1 L667.5,600.5
		L668.7,600.9 L669.8,601.3 L670.9,601.6 L672.0,602.0 L673.2,602.4 L674.3,602.8 L675.4,603.2 L676.5,603.5
		L677.7,603.9 L678.8,604.3 L679.9,604.7 L681.0,605.0 L682.2,605.4 L683.3,605.8 L684.4,606.1 L685.5,606.5
		L686.7,606.9 L687.8,607.2 L688.9,607.6 L690.0,608.0 L691.2,608.3 L692.3,608.7 L693.4,609.0 L694.5,609.4
		L695.7,609.7 L696.8,610.1 L697.9,610.4 L699.0,610.8 L700.2,611.1 L701.3,611.5 L702.4,611.8 L703.5,612.2
		L704.7,612.5 L705.8,612.9 L706.9,613.2 L708.0,613.6 L709.2,613.9 L710.3,614.2 L711.4,614.6 L712.5,614.9
		L713.7,615.3 L714.8,615.6 L715.9,615.9 L717.1,616.3 L718.2,616.6 L719.3,616.9 L720.4,617.2 L721.6,617.6
		L722.7,617.9 L723.8,618.2 L724.9,618.5 L726.1,618.9 L727.2,619.2 L728.3,619.5 L729.4,619.8 L730.6,620.1
		L731.7,620.5 L732.8,620.8 L733.9,621.1 L735.1,621.4 L736.2,621.7 L737.3,622.0 L738.4,622.3 L739.6,622.6
		L740.7,623.0 L741.8,623.3 L742.9,623.6 L744.1,623.9 L745.2,624.2 L746.3,624.5 L747.4,624.8 L748.6,625.1
		L749.7,625.4 L750.8,625.7 L751.9,626.0 L753.1,626.3 L754.2,626.6 L755.3,626.8 L756.4,627.1 L757.6,627.4
		L758.7,627.7 L759.8,628.0 L760.9,628.3 L762.1,628.6 L763.2,628.9 L764.3,629.1 L765.4,629.4 L766.6,629.7
		L767.7,630.0 L768.8,630.3 L769.9,630.5 L771.1,630.8 L772.2,631.1 L773.3,631.4 L774.4,631.6 L775.6,631.9
		L776.7,632.2 L777.8,632.4 L778.9,632.7 L780.1,633.0 L781.2,633.2 L782.3,633.5 L783.5,633.8 L784.6,634.0
		L785.7,634.3 L786.8,634.5 L788.0,634.8 L789.1,635.0 L790.2,635.3 L791.3,635.6 L792.5,635.8 L793.6,636.1
		L794.7,636.3 L795.8,636.6 L797.0,636.8 L798.1,637.1 L799.2,637.3 L800.3,637.5 L801.5,637.8 L802.6,638.0
		L803.7,638.3 L804.8,638.5 L806.0,638.7 L807.1,639.0 L808.2,639.2 L809.3,639.5 L810.5,639.7 L811.6,639.9
		L812.7,640.1 L813.8,640.4 L815.0,640.6 L816.1,640.8 L817.2,641.1 L818.3,641.3 L819.5,641.5 L820.6,641.7
		L821.7,642.0 L822.8,642.2 L824.0,642.4 L825.1,642.6 L826.2,642.8 L827.3,643.0 L828.5,643.3 L829.6,643.5
		L830.7,643.7 L831.8,643.9 L833.0,644.1 L834.1,644.3 L835.2,644.5 L836.3,644.7 L837.5,644.9 L838.6,645.1
		L839.7,645.3 L840.8,645.5 L842.0,645.7 L843.1,645.9 L844.2,646.1 L845.3,646.3 L846.5,646.5 L847.6,646.7
		L848.7,646.9 L849.9,647.1 L851.0,647.3 L852.1,647.4 L853.2,647.6 L854.4,647.8 L855.5,648.0 L856.6,648.2
		L857.7,648.4 L858.9,648.5 L860.0,648.7 L861.1,648.9 L862.2,649.1 L863.4,649.2 L864.5,649.4 L865.6,649.6
		L866.7,649.7 L867.9,649.9 L869.0,650.1 L870.1,650.2 L871.2,650.4 L872.4,650.6 L873.5,650.7 L874.6,650.9
		L875.7,651.0 L876.9,651.2 L878.0,651.4 L879.1,651.5 L880.2,651.7 L881.4,651.8 L882.5,652.0 L883.6,652.1
		L884.7,652.3 L885.9,652.4 L887.0,652.6 L888.1,652.7 L889.2,652.8 L890.4,653.0 L891.5,653.1 L892.6,653.3
		L893.7,653.4 L894.9,653.5 L896.0,653.7 L897.1,653.8 L898.2,653.9 L899.4,654.0 L900.5,654.2 L901.6,654.3
		L902.7,654.4 L903.9,654.5 L905.0,654.7 L906.1,654.8 L907.2,654.9 L908.4,655.0 L909.5,655.1 L910.6,655.2
		L911.7,655.3 L912.9,655.5 L914.0,655.6 L915.1,655.7 L916.2,655.8 L917.4,655.9 L918.5,656.0 L919.6,656.1
		L920.8,656.2 L921.9,656.3 L923.0,656.4 L924.1,656.5 L925.3,656.6 L926.4,656.6 L927.5,656.7 L928.6,656.8
		L929.8,656.9 L930.9,657.0 L932.0,657.1 L933.1,657.2 L934.3,657.2 L935.4,657.3 L936.5,657.4 L937.6,657.5
		L938.8,657.5 L939.9,657.6 L941.0,657.7 L942.1,657.7 L943.3,657.8 L944.4,657.9 L945.5,657.9 L946.6,658.0
		L947.8,658.0 L948.9,658.1 L950.0,658.2 L951.1,658.2 L952.3,658.3 L953.4,658.3 L954.5,658.3 L955.6,658.4
		L956.8,658.4 L957.9,658.5 L959.0,658.5 L960.1,658.6 L961.3,658.6 L962.4,658.6 L963.5,658.7 L964.6,658.7
		L965.8,658.7 L966.9,658.7 L968.0,658.8 L969.1,658.8 L970.3,658.8 L971.4,658.8 L972.5,658.8 L973.6,658.9
		L974.8,658.9 L975.9,658.9 L977.0,658.9 L978.1,658.9 L979.3,658.9 L980.4,658.9 L981.5,658.9 L982.6,658.9
		L983.8,658.9 L984.9,658.9 L986.0,658.9 L987.2,658.9 L988.3,658.9 L989.4,658.9 L990.5,658.8 L991.7,658.8
		L992.8,658.8 L993.9,658.8 L995.0,658.7 L996.2,658.7 L997.3,658.7 L998.4,658.7 L999.5,658.6 L1000.7,658.6
		L1001.8,658.6 L1002.9,658.5 L1004.0,658.5 L1005.2,658.4 L1006.3,658.4 L1007.4,658.3 L1008.5,658.3 L1009.7,658.2
		L1010.8,658.2 L1011.9,658.1 L1013.0,658.1 L1014.2,658.0 L1015.3,657.9 L1016.4,657.9 L1017.5,657.8 L1018.7,657.7
		L1019.8,657.7 L1020.9,657.6 L1022.0,657.5 L1023.2,657.4 L1024.3,657.3 L1025.4,657.3 L1026.5,657.2 L1027.7,657.1
		L1028.8,657.0 L1029.9,656.9 L1031.0,656.8 L1032.2,656.7 L1033.3,656.6 L1034.4,656.5 L1035.5,656.4 L1036.7,656.3
		L1037.8,656.2 L1038.9,656.1 L1040.0,655.9 L1041.2,655.8 L1042.3,655.7 L1043.4,655.6 L1044.5,655.4 L1045.7,655.3
		L1046.8,655.2 L1047.9,655.1 L1049.0,654.9 L1050.2,654.8 L1051.3,654.6 L1052.4,654.5 L1053.6,654.4 L1054.7,654.2
		L1055.8,654.1 L1056.9,653.9 L1058.1,653.8 L1059.2,653.6 L1060.3,653.4 L1061.4,653.3 L1062.6,653.1 L1063.7,653.0
		L1064.8,652.8 L1065.9,652.6 L1067.1,652.4 L1068.2,652.3 L1069.3,652.1 L1070.4,651.9 L1071.6,651.7 L1072.7,651.5
		L1073.8,651.4 L1074.9,651.2 L1076.1,651.0 L1077.2,650.8 L1078.3,650.6 L1079.4,650.4 L1080.6,650.2 L1081.7,650.0
		L1082.8,649.8 L1083.9,649.6 L1085.1,649.4 L1086.2,649.1 L1087.3,648.9 L1088.4,648.7 L1089.6,648.5 L1090.7,648.3
		L1091.8,648.0 L1092.9,647.8 L1094.1,647.6 L1095.2,647.4 L1096.3,647.1 L1097.4,646.9 L1098.6,646.7 L1099.7,646.4
		L1100.8,646.2 L1101.9,645.9 L1103.1,645.7 L1104.2,645.5 L1105.3,645.2 L1106.4,645.0 L1107.6,644.7 L1108.7,644.5
		L1109.8,644.2 L1110.9,643.9 L1112.1,643.7 L1113.2,643.4 L1114.3,643.2 L1115.4,642.9 L1116.6,642.6 L1117.7,642.4
		L1118.8,642.1 L1120.0,641.8 L1121.1,641.6 L1122.2,641.3 L1123.3,641.0 L1124.5,640.8 L1125.6,640.5 L1126.7,640.2
		L1127.8,639.9 L1129.0,639.7 L1130.1,639.4 L1131.2,639.1 L1132.3,638.8 L1133.5,638.5 L1134.6,638.2 L1135.7,638.0
		L1136.8,637.7 L1138.0,637.4 L1139.1,637.1 L1140.2,636.8 L1141.3,636.5 L1142.5,636.2 L1143.6,636.0 L1144.7,635.7
		L1145.8,635.4 L1147.0,635.1 L1148.1,634.8 L1149.2,634.5 L1150.3,634.2 L1151.5,633.9 L1152.6,633.6 L1153.7,633.4
		L1154.8,633.1 L1156.0,632.8 L1157.1,632.5 L1158.2,632.2 L1159.3,631.9 L1160.5,631.6 L1161.6,631.3 L1162.7,631.1
		L1163.8,630.8 L1165.0,630.5 L1166.1,630.2 L1167.2,629.9 L1168.3,629.6 L1169.5,629.4 L1170.6,629.1 L1171.7,628.8
		L1172.8,628.5 L1174.0,628.3 L1175.1,628.0 L1176.2,627.7 L1177.3,627.4 L1178.5,627.2 L1179.6,626.9 L1180.7,626.6
		L1181.8,626.4 L1183.0,626.1 L1184.1,625.8 L1185.2,625.6 L1186.3,625.3 L1187.5,625.1 L1188.6,624.8 L1189.7,624.6
		L1190.9,624.3 L1192.0,624.1 L1193.1,623.8 L1194.2,623.6 L1195.4,623.4 L1196.5,623.1 L1197.6,622.9 L1198.7,622.7
		L1199.9,622.5 L1201.0,622.2 L1202.1,622.0 L1203.2,621.8 L1204.4,621.6 L1205.5,621.4 L1206.6,621.2 L1207.7,621.0
		L1208.9,620.8 L1210.0,620.6 L1211.1,620.4 L1212.2,620.2 L1213.4,620.1 L1214.5,619.9 L1215.6,619.7 L1216.7,619.5
		L1217.9,619.4 L1219.0,619.2 L1220.1,619.1 L1221.2,618.9 L1222.4,618.8 L1223.5,618.6 L1224.6,618.5 L1225.7,618.3
		L1226.9,618.2 L1228.0,618.1 L1229.1,618.0 L1230.2,617.9 L1231.4,617.7 L1232.5,617.6 L1233.6,617.5 L1234.7,617.4
		L1235.9,617.4 L1237.0,617.3 L1238.1,617.2 L1239.2,617.1 L1240.4,617.0 L1241.5,617.0 L1242.6,616.9 L1243.7,616.9
		L1244.9,616.8 L1246.0,616.8 L1247.1,616.7 L1248.2,616.7 L1249.4,616.7 L1250.5,616.6 L1251.6,616.6 L1252.7,616.6
		L1253.9,616.6 L1255.0,616.6  '/></g>
	</g>
<g fill="none" color="white" stroke="rgb(240, 228,  66)" stroke-width="2.00" stroke-linecap="butt" stroke-linejoin="miter">
</g>
<g fill="none" color="black" stroke="currentColor" stroke-width="2.00" stroke-linecap="butt" stroke-linejoin="miter">
</g>
<g fill="none" color="black" stroke="black" stroke-width="1.00" stroke-linecap="butt" stroke-linejoin="miter">
</g>
<g fill="none" color="black" stroke="currentColor" stroke-width="1.00" stroke-linecap="butt" stroke-linejoin="miter">
	<path stroke='black'  d='M103.7,54.1 L103.7,684.0 L1255.0,684.0 L1255.0,54.1 L103.7,54.1 Z  '/></g>
<g fill="none" color="black" stroke="currentColor" stroke-width="1.00" stroke-linecap="butt" stroke-linejoin="miter">
</g>
</g>
</svg>

