<?xml version="1.0" encoding="utf-8"  standalone="no"?>
<svg 
 width="1280" height="720"
 viewBox="0 0 1280 720"
 xmlns="http://www.w3.org/2000/svg"
 xmlns:xlink="http://www.w3.org/1999/xlink"
>

<title>Gnuplot</title>
<desc>Produced by GNUPLOT 5.0 patchlevel 6 </desc>

<g id="gnuplot_canvas">

<rect x="0" y="0" width="1280" height="720" fill="none"/>
<defs>

	<circle id='gpDot' r='0.5' stroke-width='0.5'/>
	<path id='gpPt0' stroke-width='0.222' stroke='currentColor' d='M-1,0 h2 M0,-1 v2'/>
	<path id='gpPt1' stroke-width='0.222' stroke='currentColor' d='M-1,-1 L1,1 M1,-1 L-1,1'/>
	<path id='gpPt2' stroke-width='0.222' stroke='currentColor' d='M-1,0 L1,0 M0,-1 L0,1 M-1,-1 L1,1 M-1,1 L1,-1'/>
	<rect id='gpPt3' stroke-width='0.222' stroke='currentColor' x='-1' y='-1' width='2' height='2'/>
	<rect id='gpPt4' stroke-width='0.222' stroke='currentColor' fill='currentColor' x='-1' y='-1' width='2' height='2'/>
	<circle id='gpPt5' stroke-width='0.222' stroke='currentColor' cx='0' cy='0' r='1'/>
	<use xlink:href='#gpPt5' id='gpPt6' fill='currentColor' stroke='none'/>
	<path id='gpPt7' stroke-width='0.222' stroke='currentColor' d='M0,-1.33 L-1.33,0.67 L1.33,0.67 z'/>
	<use xlink:href='#gpPt7' id='gpPt8' fill='currentColor' stroke='none'/>
	<use xlink:href='#gpPt7' id='gpPt9' stroke='currentColor' transform='rotate(180)'/>
	<use xlink:href='#gpPt9' id='gpPt10' fill='currentColor' stroke='none'/>
	<use xlink:href='#gpPt3' id='gpPt11' stroke='currentColor' transform='rotate(45)'/>
	<use xlink:href='#gpPt11' id='gpPt12' fill='currentColor' stroke='none'/>
	<path id='gpPt13' stroke-width='0.222' stroke='currentColor' d='M0,1.330 L1.265,0.411 L0.782,-1.067 L-0.782,-1.076 L-1.265,0.411 z'/>
	<use xlink:href='#gpPt13' id='gpPt14' fill='currentColor' stroke='none'/>
	<filter id='textbox' filterUnits='objectBoundingBox' x='0' y='0' height='1' width='1'>
	  <feFlood flood-color='white' flood-opacity='1' result='bgnd'/>
	  <feComposite in='SourceGraphic' in2='bgnd' operator='atop'/>
	</filter>
	<filter id='greybox' filterUnits='objectBoundingBox' x='0' y='0' height='1' width='1'>
	  <feFlood flood-color='lightgrey' flood-opacity='1' result='grey'/>
	  <feComposite in='SourceGraphic' in2='grey' operator='atop'/>
	</filter>
</defs>
<g fill="none" color="white" stroke="currentColor" stroke-width="1.00" stroke-linecap="butt" stroke-linejoin="miter">
</g>
<g fill="none" color="black" stroke="currentColor" stroke-width="1.00" stroke-linecap="butt" stroke-linejoin="miter">
	<path stroke='black'  d='M103.7,646.3 L112.7,646.3 M1255.0,646.3 L1246.0,646.3  '/>	<g transform="translate(95.4,650.2)" stroke="none" fill="black" font-family="Arial" font-size="12.00"  text-anchor="end">
		<text><tspan font-family="Arial" > 0.0009404</tspan></text>
	</g>
</g>
<g fill="none" color="black" stroke="currentColor" stroke-width="1.00" stroke-linecap="butt" stroke-linejoin="miter">
	<path stroke='black'  d='M103.7,350.2 L112.7,350.2 M1255.0,350.2 L1246.0,350.2  '/>	<g transform="translate(95.4,354.1)" stroke="none" fill="black" font-family="Arial" font-size="12.00"  text-anchor="end">
		<text><tspan font-family="Arial" > 1.57116</tspan></text>
	</g>
</g>
<g fill="none" color="black" stroke="currentColor" stroke-width="1.00" stroke-linecap="butt" stroke-linejoin="miter">
	<path stroke='black'  d='M103.7,54.1 L112.7,54.1 M1255.0,54.1 L1246.0,54.1  '/>	<g transform="translate(95.4,58.0)" stroke="none" fill="black" font-family="Arial" font-size="12.00"  text-anchor="end">
		<text><tspan font-family="Arial" > 2625</tspan></text>
	</g>
</g>
<g fill="none" color="black" stroke="currentColor" stroke-width="1.00" stroke-linecap="butt" stroke-linejoin="miter">
	<path stroke='black'  d='M103.7,684.0 L103.7,675.0 M103.7,54.1 L103.7,63.1  '/>	<g transform="translate(103.7,705.9)" stroke="none" fill="black" font-family="Arial" font-size="12.00"  text-anchor="middle">
		<text><tspan font-family="Arial" > 0</tspan></text>
	</g>
</g>
<g fill="none" color="black" stroke="currentColor" stroke-width="1.00" stroke-linecap="butt" stroke-linejoin="miter">
	<path stroke='black'  d='M679.4,684.0 L679.4,675.0 M679.4,54.1 L679.4,63.1  '/>	<g transform="translate(679.4,705.9)" stroke="none" fill="black" font-family="Arial" font-size="12.00"  text-anchor="middle">
		<text><tspan font-family="Arial" >pi/2</tspan></text>
	</g>
</g>
<g fill="none" color="black" stroke="currentColor" stroke-width="1.00" stroke-linecap="butt" stroke-linejoin="miter">
	<path stroke='black'  d='M1255.0,684.0 L1255.0,675.0 M1255.0,54.1 L1255.0,63.1  '/>	<g transform="translate(1255.0,705.9)" stroke="none" fill="black" font-family="Arial" font-size="12.00"  text-anchor="middle">
		<text><tspan font-family="Arial" >pi</tspan></text>
	</g>
</g>
<g fill="none" color="black" stroke="currentColor" stroke-width="1.00" stroke-linecap="butt" stroke-linejoin="miter">
</g>
<g fill="none" color="black" stroke="currentColor" stroke-width="1.00" stroke-linecap="butt" stroke-linejoin="miter">
	<path stroke='black'  d='M103.7,54.1 L103.7,684.0 L1255.0,684.0 L1255.0,54.1 L103.7,54.1 Z  '/></g>
<g fill="none" color="black" stroke="currentColor" stroke-width="1.00" stroke-linecap="butt" stroke-linejoin="miter">
	<g transform="translate(679.3,31.0)" stroke="none" fill="black" font-family="Arial" font-size="12.00"  text-anchor="middle">
		<text><tspan font-family="Arial" >Material 38</tspan></text>
	</g>
</g>
	<g id="gnuplot_plot_1" ><title>scattering function</title>
<g fill="none" color="black" stroke="currentColor" stroke-width="1.00" stroke-linecap="butt" stroke-linejoin="miter">
	<g transform="translate(1187.9,76.0)" stroke="none" fill="black" font-family="Arial" font-size="12.00"  text-anchor="end">
		<text><tspan font-family="Arial" >scattering function</tspan></text>
	</g>
</g>
<g fill="none" color="black" stroke="currentColor" stroke-width="1.00" stroke-linecap="butt" stroke-linejoin="miter">
	<use xlink:href='#gpPt0' transform='translate(103.7,54.1) scale(4.50)' color='black'/>
	<use xlink:href='#gpPt0' transform='translate(103.7,54.1) scale(4.50)' color='black'/>
	<use xlink:href='#gpPt0' transform='translate(103.7,54.3) scale(4.50)' color='black'/>
	<use xlink:href='#gpPt0' transform='translate(103.7,54.5) scale(4.50)' color='black'/>
	<use xlink:href='#gpPt0' transform='translate(103.7,54.7) scale(4.50)' color='black'/>
	<use xlink:href='#gpPt0' transform='translate(103.7,55.1) scale(4.50)' color='black'/>
	<use xlink:href='#gpPt0' transform='translate(103.8,57.4) scale(4.50)' color='black'/>
	<use xlink:href='#gpPt0' transform='translate(103.8,60.8) scale(4.50)' color='black'/>
	<use xlink:href='#gpPt0' transform='translate(103.8,64.5) scale(4.50)' color='black'/>
	<use xlink:href='#gpPt0' transform='translate(103.9,68.1) scale(4.50)' color='black'/>
	<use xlink:href='#gpPt0' transform='translate(103.9,71.4) scale(4.50)' color='black'/>
	<use xlink:href='#gpPt0' transform='translate(104.0,83.6) scale(4.50)' color='black'/>
	<use xlink:href='#gpPt0' transform='translate(104.1,94.6) scale(4.50)' color='black'/>
	<use xlink:href='#gpPt0' transform='translate(104.2,105.1) scale(4.50)' color='black'/>
	<use xlink:href='#gpPt0' transform='translate(104.3,115.4) scale(4.50)' color='black'/>
	<use xlink:href='#gpPt0' transform='translate(104.5,124.9) scale(4.50)' color='black'/>
	<use xlink:href='#gpPt0' transform='translate(104.6,134.1) scale(4.50)' color='black'/>
	<use xlink:href='#gpPt0' transform='translate(104.7,143.7) scale(4.50)' color='black'/>
	<use xlink:href='#gpPt0' transform='translate(104.9,153.1) scale(4.50)' color='black'/>
	<use xlink:href='#gpPt0' transform='translate(105.0,162.7) scale(4.50)' color='black'/>
	<use xlink:href='#gpPt0' transform='translate(105.1,171.4) scale(4.50)' color='black'/>
	<use xlink:href='#gpPt0' transform='translate(105.2,178.9) scale(4.50)' color='black'/>
	<use xlink:href='#gpPt0' transform='translate(105.4,185.6) scale(4.50)' color='black'/>
	<use xlink:href='#gpPt0' transform='translate(105.5,191.4) scale(4.50)' color='black'/>
	<use xlink:href='#gpPt0' transform='translate(105.6,196.7) scale(4.50)' color='black'/>
	<use xlink:href='#gpPt0' transform='translate(105.9,200.2) scale(4.50)' color='black'/>
	<use xlink:href='#gpPt0' transform='translate(106.3,211.1) scale(4.50)' color='black'/>
	<use xlink:href='#gpPt0' transform='translate(106.6,222.6) scale(4.50)' color='black'/>
	<use xlink:href='#gpPt0' transform='translate(106.9,231.1) scale(4.50)' color='black'/>
	<use xlink:href='#gpPt0' transform='translate(107.2,236.5) scale(4.50)' color='black'/>
	<use xlink:href='#gpPt0' transform='translate(107.5,240.8) scale(4.50)' color='black'/>
	<use xlink:href='#gpPt0' transform='translate(107.9,246.1) scale(4.50)' color='black'/>
	<use xlink:href='#gpPt0' transform='translate(108.2,251.8) scale(4.50)' color='black'/>
	<use xlink:href='#gpPt0' transform='translate(108.5,257.4) scale(4.50)' color='black'/>
	<use xlink:href='#gpPt0' transform='translate(108.8,262.1) scale(4.50)' color='black'/>
	<use xlink:href='#gpPt0' transform='translate(109.1,266.6) scale(4.50)' color='black'/>
	<use xlink:href='#gpPt0' transform='translate(109.5,270.3) scale(4.50)' color='black'/>
	<use xlink:href='#gpPt0' transform='translate(109.8,273.3) scale(4.50)' color='black'/>
	<use xlink:href='#gpPt0' transform='translate(110.1,275.4) scale(4.50)' color='black'/>
	<use xlink:href='#gpPt0' transform='translate(110.4,278.3) scale(4.50)' color='black'/>
	<use xlink:href='#gpPt0' transform='translate(110.7,281.6) scale(4.50)' color='black'/>
	<use xlink:href='#gpPt0' transform='translate(111.1,284.6) scale(4.50)' color='black'/>
	<use xlink:href='#gpPt0' transform='translate(111.4,287.0) scale(4.50)' color='black'/>
	<use xlink:href='#gpPt0' transform='translate(111.7,289.5) scale(4.50)' color='black'/>
	<use xlink:href='#gpPt0' transform='translate(112.0,292.3) scale(4.50)' color='black'/>
	<use xlink:href='#gpPt0' transform='translate(112.3,295.0) scale(4.50)' color='black'/>
	<use xlink:href='#gpPt0' transform='translate(112.7,297.5) scale(4.50)' color='black'/>
	<use xlink:href='#gpPt0' transform='translate(113.0,300.0) scale(4.50)' color='black'/>
	<use xlink:href='#gpPt0' transform='translate(113.3,302.3) scale(4.50)' color='black'/>
	<use xlink:href='#gpPt0' transform='translate(113.6,305.1) scale(4.50)' color='black'/>
	<use xlink:href='#gpPt0' transform='translate(113.9,307.3) scale(4.50)' color='black'/>
	<use xlink:href='#gpPt0' transform='translate(114.3,309.5) scale(4.50)' color='black'/>
	<use xlink:href='#gpPt0' transform='translate(114.6,311.4) scale(4.50)' color='black'/>
	<use xlink:href='#gpPt0' transform='translate(114.9,313.6) scale(4.50)' color='black'/>
	<use xlink:href='#gpPt0' transform='translate(115.2,315.8) scale(4.50)' color='black'/>
	<use xlink:href='#gpPt0' transform='translate(115.5,318.3) scale(4.50)' color='black'/>
	<use xlink:href='#gpPt0' transform='translate(115.9,320.9) scale(4.50)' color='black'/>
	<use xlink:href='#gpPt0' transform='translate(116.2,323.5) scale(4.50)' color='black'/>
	<use xlink:href='#gpPt0' transform='translate(116.5,326.1) scale(4.50)' color='black'/>
	<use xlink:href='#gpPt0' transform='translate(119.7,351.6) scale(4.50)' color='black'/>
	<use xlink:href='#gpPt0' transform='translate(122.9,378.7) scale(4.50)' color='black'/>
	<use xlink:href='#gpPt0' transform='translate(126.1,414.7) scale(4.50)' color='black'/>
	<use xlink:href='#gpPt0' transform='translate(129.3,431.3) scale(4.50)' color='black'/>
	<use xlink:href='#gpPt0' transform='translate(132.5,437.7) scale(4.50)' color='black'/>
	<use xlink:href='#gpPt0' transform='translate(135.7,446.5) scale(4.50)' color='black'/>
	<use xlink:href='#gpPt0' transform='translate(142.1,462.4) scale(4.50)' color='black'/>
	<use xlink:href='#gpPt0' transform='translate(148.5,469.7) scale(4.50)' color='black'/>
	<use xlink:href='#gpPt0' transform='translate(154.9,503.7) scale(4.50)' color='black'/>
	<use xlink:href='#gpPt0' transform='translate(161.3,519.7) scale(4.50)' color='black'/>
	<use xlink:href='#gpPt0' transform='translate(167.7,511.8) scale(4.50)' color='black'/>
	<use xlink:href='#gpPt0' transform='translate(174.1,526.4) scale(4.50)' color='black'/>
	<use xlink:href='#gpPt0' transform='translate(180.5,540.7) scale(4.50)' color='black'/>
	<use xlink:href='#gpPt0' transform='translate(186.8,547.9) scale(4.50)' color='black'/>
	<use xlink:href='#gpPt0' transform='translate(193.2,550.0) scale(4.50)' color='black'/>
	<use xlink:href='#gpPt0' transform='translate(199.6,550.2) scale(4.50)' color='black'/>
	<use xlink:href='#gpPt0' transform='translate(206.0,561.2) scale(4.50)' color='black'/>
	<use xlink:href='#gpPt0' transform='translate(212.4,566.4) scale(4.50)' color='black'/>
	<use xlink:href='#gpPt0' transform='translate(218.8,564.5) scale(4.50)' color='black'/>
	<use xlink:href='#gpPt0' transform='translate(225.2,568.6) scale(4.50)' color='black'/>
	<use xlink:href='#gpPt0' transform='translate(231.6,571.4) scale(4.50)' color='black'/>
	<use xlink:href='#gpPt0' transform='translate(238.0,506.0) scale(4.50)' color='black'/>
	<use xlink:href='#gpPt0' transform='translate(244.4,482.2) scale(4.50)' color='black'/>
	<use xlink:href='#gpPt0' transform='translate(250.8,480.4) scale(4.50)' color='black'/>
	<use xlink:href='#gpPt0' transform='translate(257.2,479.0) scale(4.50)' color='black'/>
	<use xlink:href='#gpPt0' transform='translate(263.6,487.5) scale(4.50)' color='black'/>
	<use xlink:href='#gpPt0' transform='translate(270.0,498.2) scale(4.50)' color='black'/>
	<use xlink:href='#gpPt0' transform='translate(276.4,505.5) scale(4.50)' color='black'/>
	<use xlink:href='#gpPt0' transform='translate(282.8,514.4) scale(4.50)' color='black'/>
	<use xlink:href='#gpPt0' transform='translate(289.2,521.3) scale(4.50)' color='black'/>
	<use xlink:href='#gpPt0' transform='translate(295.6,529.8) scale(4.50)' color='black'/>
	<use xlink:href='#gpPt0' transform='translate(308.4,542.7) scale(4.50)' color='black'/>
	<use xlink:href='#gpPt0' transform='translate(321.2,556.3) scale(4.50)' color='black'/>
	<use xlink:href='#gpPt0' transform='translate(334.0,566.6) scale(4.50)' color='black'/>
	<use xlink:href='#gpPt0' transform='translate(346.8,575.6) scale(4.50)' color='black'/>
	<use xlink:href='#gpPt0' transform='translate(359.5,582.7) scale(4.50)' color='black'/>
	<use xlink:href='#gpPt0' transform='translate(372.3,587.7) scale(4.50)' color='black'/>
	<use xlink:href='#gpPt0' transform='translate(385.1,591.5) scale(4.50)' color='black'/>
	<use xlink:href='#gpPt0' transform='translate(397.9,562.4) scale(4.50)' color='black'/>
	<use xlink:href='#gpPt0' transform='translate(410.7,554.8) scale(4.50)' color='black'/>
	<use xlink:href='#gpPt0' transform='translate(423.5,564.7) scale(4.50)' color='black'/>
	<use xlink:href='#gpPt0' transform='translate(436.3,573.9) scale(4.50)' color='black'/>
	<use xlink:href='#gpPt0' transform='translate(449.1,581.1) scale(4.50)' color='black'/>
	<use xlink:href='#gpPt0' transform='translate(461.9,588.7) scale(4.50)' color='black'/>
	<use xlink:href='#gpPt0' transform='translate(474.7,592.3) scale(4.50)' color='black'/>
	<use xlink:href='#gpPt0' transform='translate(487.5,594.2) scale(4.50)' color='black'/>
	<use xlink:href='#gpPt0' transform='translate(500.3,594.4) scale(4.50)' color='black'/>
	<use xlink:href='#gpPt0' transform='translate(513.1,595.4) scale(4.50)' color='black'/>
	<use xlink:href='#gpPt0' transform='translate(525.8,595.2) scale(4.50)' color='black'/>
	<use xlink:href='#gpPt0' transform='translate(538.6,595.0) scale(4.50)' color='black'/>
	<use xlink:href='#gpPt0' transform='translate(551.4,594.5) scale(4.50)' color='black'/>
	<use xlink:href='#gpPt0' transform='translate(564.2,594.5) scale(4.50)' color='black'/>
	<use xlink:href='#gpPt0' transform='translate(577.0,594.6) scale(4.50)' color='black'/>
	<use xlink:href='#gpPt0' transform='translate(589.8,596.0) scale(4.50)' color='black'/>
	<use xlink:href='#gpPt0' transform='translate(602.6,596.3) scale(4.50)' color='black'/>
	<use xlink:href='#gpPt0' transform='translate(615.4,596.3) scale(4.50)' color='black'/>
	<use xlink:href='#gpPt0' transform='translate(628.2,597.5) scale(4.50)' color='black'/>
	<use xlink:href='#gpPt0' transform='translate(641.0,599.3) scale(4.50)' color='black'/>
	<use xlink:href='#gpPt0' transform='translate(653.8,598.7) scale(4.50)' color='black'/>
	<use xlink:href='#gpPt0' transform='translate(666.6,601.1) scale(4.50)' color='black'/>
	<use xlink:href='#gpPt0' transform='translate(679.4,601.0) scale(4.50)' color='black'/>
	<use xlink:href='#gpPt0' transform='translate(692.1,602.1) scale(4.50)' color='black'/>
	<use xlink:href='#gpPt0' transform='translate(704.9,603.3) scale(4.50)' color='black'/>
	<use xlink:href='#gpPt0' transform='translate(717.7,603.7) scale(4.50)' color='black'/>
	<use xlink:href='#gpPt0' transform='translate(730.5,605.3) scale(4.50)' color='black'/>
	<use xlink:href='#gpPt0' transform='translate(743.3,607.8) scale(4.50)' color='black'/>
	<use xlink:href='#gpPt0' transform='translate(756.1,609.1) scale(4.50)' color='black'/>
	<use xlink:href='#gpPt0' transform='translate(768.9,611.8) scale(4.50)' color='black'/>
	<use xlink:href='#gpPt0' transform='translate(781.7,612.6) scale(4.50)' color='black'/>
	<use xlink:href='#gpPt0' transform='translate(794.5,615.9) scale(4.50)' color='black'/>
	<use xlink:href='#gpPt0' transform='translate(807.3,616.6) scale(4.50)' color='black'/>
	<use xlink:href='#gpPt0' transform='translate(820.1,619.6) scale(4.50)' color='black'/>
	<use xlink:href='#gpPt0' transform='translate(832.9,621.8) scale(4.50)' color='black'/>
	<use xlink:href='#gpPt0' transform='translate(845.6,627.6) scale(4.50)' color='black'/>
	<use xlink:href='#gpPt0' transform='translate(858.4,637.3) scale(4.50)' color='black'/>
	<use xlink:href='#gpPt0' transform='translate(871.2,641.7) scale(4.50)' color='black'/>
	<use xlink:href='#gpPt0' transform='translate(884.0,644.6) scale(4.50)' color='black'/>
	<use xlink:href='#gpPt0' transform='translate(896.8,645.8) scale(4.50)' color='black'/>
	<use xlink:href='#gpPt0' transform='translate(909.6,646.3) scale(4.50)' color='black'/>
	<use xlink:href='#gpPt0' transform='translate(922.4,645.0) scale(4.50)' color='black'/>
	<use xlink:href='#gpPt0' transform='translate(935.2,645.4) scale(4.50)' color='black'/>
	<use xlink:href='#gpPt0' transform='translate(948.0,643.8) scale(4.50)' color='black'/>
	<use xlink:href='#gpPt0' transform='translate(960.8,643.0) scale(4.50)' color='black'/>
	<use xlink:href='#gpPt0' transform='translate(973.6,639.8) scale(4.50)' color='black'/>
	<use xlink:href='#gpPt0' transform='translate(986.4,635.6) scale(4.50)' color='black'/>
	<use xlink:href='#gpPt0' transform='translate(999.2,631.1) scale(4.50)' color='black'/>
	<use xlink:href='#gpPt0' transform='translate(1011.9,624.1) scale(4.50)' color='black'/>
	<use xlink:href='#gpPt0' transform='translate(1024.7,618.8) scale(4.50)' color='black'/>
	<use xlink:href='#gpPt0' transform='translate(1037.5,614.4) scale(4.50)' color='black'/>
	<use xlink:href='#gpPt0' transform='translate(1050.3,607.9) scale(4.50)' color='black'/>
	<use xlink:href='#gpPt0' transform='translate(1063.1,604.6) scale(4.50)' color='black'/>
	<use xlink:href='#gpPt0' transform='translate(1075.9,600.2) scale(4.50)' color='black'/>
	<use xlink:href='#gpPt0' transform='translate(1088.7,598.0) scale(4.50)' color='black'/>
	<use xlink:href='#gpPt0' transform='translate(1101.5,600.5) scale(4.50)' color='black'/>
	<use xlink:href='#gpPt0' transform='translate(1114.3,604.0) scale(4.50)' color='black'/>
	<use xlink:href='#gpPt0' transform='translate(1127.1,608.1) scale(4.50)' color='black'/>
	<use xlink:href='#gpPt0' transform='translate(1139.9,616.0) scale(4.50)' color='black'/>
	<use xlink:href='#gpPt0' transform='translate(1152.7,621.4) scale(4.50)' color='black'/>
	<use xlink:href='#gpPt0' transform='translate(1165.5,623.8) scale(4.50)' color='black'/>
	<use xlink:href='#gpPt0' transform='translate(1178.2,619.3) scale(4.50)' color='black'/>
	<use xlink:href='#gpPt0' transform='translate(1191.0,602.0) scale(4.50)' color='black'/>
	<use xlink:href='#gpPt0' transform='translate(1203.8,599.0) scale(4.50)' color='black'/>
	<use xlink:href='#gpPt0' transform='translate(1216.6,594.7) scale(4.50)' color='black'/>
	<use xlink:href='#gpPt0' transform='translate(1229.4,580.2) scale(4.50)' color='black'/>
	<use xlink:href='#gpPt0' transform='translate(1242.2,555.8) scale(4.50)' color='black'/>
	<use xlink:href='#gpPt0' transform='translate(1248.6,530.5) scale(4.50)' color='black'/>
	<use xlink:href='#gpPt0' transform='translate(1251.8,504.9) scale(4.50)' color='black'/>
	<use xlink:href='#gpPt0' transform='translate(1255.0,452.7) scale(4.50)' color='black'/>
	<use xlink:href='#gpPt0' transform='translate(1217.3,72.1) scale(4.50)' color='black'/>
</g>
	</g>
	<g id="gnuplot_plot_2" ><title>1 (convex)</title>
<g fill="none" color="black" stroke="currentColor" stroke-width="1.00" stroke-linecap="butt" stroke-linejoin="miter">
	<g transform="translate(1187.9,94.0)" stroke="none" fill="black" font-family="Arial" font-size="12.00"  text-anchor="end">
		<text><tspan font-family="Arial" >1 (convex)</tspan></text>
	</g>
</g>
<g fill="none" color="black" stroke="currentColor" stroke-width="1.00" stroke-linecap="butt" stroke-linejoin="miter">
	<path stroke='rgb(  0, 158, 115)'  d='M1196.2,90.1 L1238.4,90.1 M103.7,180.5 L104.8,181.1 L106.0,183.0 L107.1,185.9 L108.2,189.9 L109.3,194.6
		L110.5,199.9 L111.6,205.6 L112.7,211.5 L113.8,217.6 L115.0,223.8 L116.1,229.9 L117.2,236.0 L118.3,242.0
		L119.5,247.8 L120.6,253.5 L121.7,259.1 L122.8,264.5 L124.0,269.7 L125.1,274.8 L126.2,279.7 L127.3,284.5
		L128.5,289.1 L129.6,293.6 L130.7,297.9 L131.8,302.2 L133.0,306.3 L134.1,310.2 L135.2,314.1 L136.3,317.9
		L137.5,321.5 L138.6,325.1 L139.7,328.5 L140.8,331.9 L142.0,335.2 L143.1,338.4 L144.2,341.6 L145.3,344.6
		L146.5,347.6 L147.6,350.5 L148.7,353.4 L149.8,356.2 L151.0,358.9 L152.1,361.6 L153.2,364.2 L154.3,366.8
		L155.5,369.3 L156.6,371.7 L157.7,374.2 L158.8,376.5 L160.0,378.8 L161.1,381.1 L162.2,383.4 L163.3,385.6
		L164.5,387.7 L165.6,389.9 L166.7,391.9 L167.8,394.0 L169.0,396.0 L170.1,398.0 L171.2,400.0 L172.4,401.9
		L173.5,403.8 L174.6,405.6 L175.7,407.5 L176.9,409.3 L178.0,411.1 L179.1,412.8 L180.2,414.5 L181.4,416.3
		L182.5,417.9 L183.6,419.6 L184.7,421.2 L185.9,422.8 L187.0,424.4 L188.1,426.0 L189.2,427.6 L190.4,429.1
		L191.5,430.6 L192.6,432.1 L193.7,433.6 L194.9,435.0 L196.0,436.5 L197.1,437.9 L198.2,439.3 L199.4,440.7
		L200.5,442.1 L201.6,443.4 L202.7,444.8 L203.9,446.1 L205.0,447.4 L206.1,448.7 L207.2,450.0 L208.4,451.3
		L209.5,452.5 L210.6,453.8 L211.7,455.0 L212.9,456.2 L214.0,457.4 L215.1,458.6 L216.2,459.8 L217.4,461.0
		L218.5,462.1 L219.6,463.3 L220.7,464.4 L221.9,465.5 L223.0,466.7 L224.1,467.8 L225.2,468.9 L226.4,469.9
		L227.5,471.0 L228.6,472.1 L229.7,473.1 L230.9,474.2 L232.0,475.2 L233.1,476.2 L234.2,477.3 L235.4,478.3
		L236.5,479.3 L237.6,480.3 L238.7,481.3 L239.9,482.2 L241.0,483.2 L242.1,484.2 L243.3,485.1 L244.4,486.1
		L245.5,487.0 L246.6,487.9 L247.8,488.8 L248.9,489.8 L250.0,490.7 L251.1,491.6 L252.3,492.5 L253.4,493.3
		L254.5,494.2 L255.6,495.1 L256.8,496.0 L257.9,496.8 L259.0,497.7 L260.1,498.5 L261.3,499.4 L262.4,500.2
		L263.5,501.0 L264.6,501.8 L265.8,502.7 L266.9,503.5 L268.0,504.3 L269.1,505.1 L270.3,505.9 L271.4,506.7
		L272.5,507.4 L273.6,508.2 L274.8,509.0 L275.9,509.8 L277.0,510.5 L278.1,511.3 L279.3,512.0 L280.4,512.8
		L281.5,513.5 L282.6,514.3 L283.8,515.0 L284.9,515.7 L286.0,516.4 L287.1,517.2 L288.3,517.9 L289.4,518.6
		L290.5,519.3 L291.6,520.0 L292.8,520.7 L293.9,521.4 L295.0,522.1 L296.1,522.7 L297.3,523.4 L298.4,524.1
		L299.5,524.8 L300.6,525.4 L301.8,526.1 L302.9,526.8 L304.0,527.4 L305.1,528.1 L306.3,528.7 L307.4,529.4
		L308.5,530.0 L309.7,530.6 L310.8,531.3 L311.9,531.9 L313.0,532.5 L314.2,533.2 L315.3,533.8 L316.4,534.4
		L317.5,535.0 L318.7,535.6 L319.8,536.2 L320.9,536.8 L322.0,537.4 L323.2,538.0 L324.3,538.6 L325.4,539.2
		L326.5,539.8 L327.7,540.4 L328.8,540.9 L329.9,541.5 L331.0,542.1 L332.2,542.7 L333.3,543.2 L334.4,543.8
		L335.5,544.4 L336.7,544.9 L337.8,545.5 L338.9,546.0 L340.0,546.6 L341.2,547.1 L342.3,547.7 L343.4,548.2
		L344.5,548.7 L345.7,549.3 L346.8,549.8 L347.9,550.3 L349.0,550.9 L350.2,551.4 L351.3,551.9 L352.4,552.4
		L353.5,553.0 L354.7,553.5 L355.8,554.0 L356.9,554.5 L358.0,555.0 L359.2,555.5 L360.3,556.0 L361.4,556.5
		L362.5,557.0 L363.7,557.5 L364.8,558.0 L365.9,558.5 L367.0,559.0 L368.2,559.5 L369.3,560.0 L370.4,560.4
		L371.5,560.9 L372.7,561.4 L373.8,561.9 L374.9,562.4 L376.1,562.8 L377.2,563.3 L378.3,563.8 L379.4,564.2
		L380.6,564.7 L381.7,565.2 L382.8,565.6 L383.9,566.1 L385.1,566.5 L386.2,567.0 L387.3,567.4 L388.4,567.9
		L389.6,568.3 L390.7,568.8 L391.8,569.2 L392.9,569.7 L394.1,570.1 L395.2,570.5 L396.3,571.0 L397.4,571.4
		L398.6,571.8 L399.7,572.3 L400.8,572.7 L401.9,573.1 L403.1,573.5 L404.2,574.0 L405.3,574.4 L406.4,574.8
		L407.6,575.2 L408.7,575.6 L409.8,576.1 L410.9,576.5 L412.1,576.9 L413.2,577.3 L414.3,577.7 L415.4,578.1
		L416.6,578.5 L417.7,578.9 L418.8,579.3 L419.9,579.7 L421.1,580.1 L422.2,580.5 L423.3,580.9 L424.4,581.3
		L425.6,581.7 L426.7,582.1 L427.8,582.5 L428.9,582.9 L430.1,583.2 L431.2,583.6 L432.3,584.0 L433.4,584.4
		L434.6,584.8 L435.7,585.1 L436.8,585.5 L437.9,585.9 L439.1,586.3 L440.2,586.6 L441.3,587.0 L442.5,587.4
		L443.6,587.8 L444.7,588.1 L445.8,588.5 L447.0,588.8 L448.1,589.2 L449.2,589.6 L450.3,589.9 L451.5,590.3
		L452.6,590.6 L453.7,591.0 L454.8,591.4 L456.0,591.7 L457.1,592.1 L458.2,592.4 L459.3,592.8 L460.5,593.1
		L461.6,593.4 L462.7,593.8 L463.8,594.1 L465.0,594.5 L466.1,594.8 L467.2,595.2 L468.3,595.5 L469.5,595.8
		L470.6,596.2 L471.7,596.5 L472.8,596.8 L474.0,597.2 L475.1,597.5 L476.2,597.8 L477.3,598.2 L478.5,598.5
		L479.6,598.8 L480.7,599.1 L481.8,599.5 L483.0,599.8 L484.1,600.1 L485.2,600.4 L486.3,600.8 L487.5,601.1
		L488.6,601.4 L489.7,601.7 L490.8,602.0 L492.0,602.3 L493.1,602.7 L494.2,603.0 L495.3,603.3 L496.5,603.6
		L497.6,603.9 L498.7,604.2 L499.8,604.5 L501.0,604.8 L502.1,605.1 L503.2,605.4 L504.3,605.7 L505.5,606.0
		L506.6,606.3 L507.7,606.6 L508.8,606.9 L510.0,607.2 L511.1,607.5 L512.2,607.8 L513.4,608.1 L514.5,608.4
		L515.6,608.7 L516.7,609.0 L517.9,609.3 L519.0,609.6 L520.1,609.8 L521.2,610.1 L522.4,610.4 L523.5,610.7
		L524.6,611.0 L525.7,611.3 L526.9,611.6 L528.0,611.8 L529.1,612.1 L530.2,612.4 L531.4,612.7 L532.5,613.0
		L533.6,613.2 L534.7,613.5 L535.9,613.8 L537.0,614.1 L538.1,614.3 L539.2,614.6 L540.4,614.9 L541.5,615.1
		L542.6,615.4 L543.7,615.7 L544.9,615.9 L546.0,616.2 L547.1,616.5 L548.2,616.7 L549.4,617.0 L550.5,617.3
		L551.6,617.5 L552.7,617.8 L553.9,618.1 L555.0,618.3 L556.1,618.6 L557.2,618.8 L558.4,619.1 L559.5,619.4
		L560.6,619.6 L561.7,619.9 L562.9,620.1 L564.0,620.4 L565.1,620.6 L566.2,620.9 L567.4,621.1 L568.5,621.4
		L569.6,621.6 L570.7,621.9 L571.9,622.1 L573.0,622.4 L574.1,622.6 L575.2,622.9 L576.4,623.1 L577.5,623.3
		L578.6,623.6 L579.8,623.8 L580.9,624.1 L582.0,624.3 L583.1,624.6 L584.3,624.8 L585.4,625.0 L586.5,625.3
		L587.6,625.5 L588.8,625.7 L589.9,626.0 L591.0,626.2 L592.1,626.4 L593.3,626.7 L594.4,626.9 L595.5,627.1
		L596.6,627.4 L597.8,627.6 L598.9,627.8 L600.0,628.1 L601.1,628.3 L602.3,628.5 L603.4,628.7 L604.5,629.0
		L605.6,629.2 L606.8,629.4 L607.9,629.6 L609.0,629.9 L610.1,630.1 L611.3,630.3 L612.4,630.5 L613.5,630.8
		L614.6,631.0 L615.8,631.2 L616.9,631.4 L618.0,631.6 L619.1,631.8 L620.3,632.1 L621.4,632.3 L622.5,632.5
		L623.6,632.7 L624.8,632.9 L625.9,633.1 L627.0,633.3 L628.1,633.6 L629.3,633.8 L630.4,634.0 L631.5,634.2
		L632.6,634.4 L633.8,634.6 L634.9,634.8 L636.0,635.0 L637.1,635.2 L638.3,635.4 L639.4,635.6 L640.5,635.8
		L641.6,636.0 L642.8,636.3 L643.9,636.5 L645.0,636.7 L646.2,636.9 L647.3,637.1 L648.4,637.3 L649.5,637.5
		L650.7,637.7 L651.8,637.9 L652.9,638.1 L654.0,638.3 L655.2,638.4 L656.3,638.6 L657.4,638.8 L658.5,639.0
		L659.7,639.2 L660.8,639.4 L661.9,639.6 L663.0,639.8 L664.2,640.0 L665.3,640.2 L666.4,640.4 L667.5,640.6
		L668.7,640.8 L669.8,640.9 L670.9,641.1 L672.0,641.3 L673.2,641.5 L674.3,641.7 L675.4,641.9 L676.5,642.1
		L677.7,642.3 L678.8,642.4 L679.9,642.6 L681.0,642.8 L682.2,643.0 L683.3,643.2 L684.4,643.4 L685.5,643.5
		L686.7,643.7 L687.8,643.9 L688.9,644.1 L690.0,644.3 L691.2,644.4 L692.3,644.6 L693.4,644.8 L694.5,645.0
		L695.7,645.1 L696.8,645.3 L697.9,645.5 L699.0,645.7 L700.2,645.8 L701.3,646.0 L702.4,646.2 L703.5,646.4
		L704.7,646.5 L705.8,646.7 L706.9,646.9 L708.0,647.0 L709.2,647.2 L710.3,647.4 L711.4,647.5 L712.5,647.7
		L713.7,647.9 L714.8,648.0 L715.9,648.2 L717.1,648.4 L718.2,648.5 L719.3,648.7 L720.4,648.9 L721.6,649.0
		L722.7,649.2 L723.8,649.4 L724.9,649.5 L726.1,649.7 L727.2,649.8 L728.3,650.0 L729.4,650.2 L730.6,650.3
		L731.7,650.5 L732.8,650.6 L733.9,650.8 L735.1,651.0 L736.2,651.1 L737.3,651.3 L738.4,651.4 L739.6,651.6
		L740.7,651.7 L741.8,651.9 L742.9,652.1 L744.1,652.2 L745.2,652.4 L746.3,652.5 L747.4,652.7 L748.6,652.8
		L749.7,653.0 L750.8,653.1 L751.9,653.3 L753.1,653.4 L754.2,653.6 L755.3,653.7 L756.4,653.9 L757.6,654.0
		L758.7,654.2 L759.8,654.3 L760.9,654.5 L762.1,654.6 L763.2,654.8 L764.3,654.9 L765.4,655.0 L766.6,655.2
		L767.7,655.3 L768.8,655.5 L769.9,655.6 L771.1,655.8 L772.2,655.9 L773.3,656.1 L774.4,656.2 L775.6,656.3
		L776.7,656.5 L777.8,656.6 L778.9,656.8 L780.1,656.9 L781.2,657.0 L782.3,657.2 L783.5,657.3 L784.6,657.4
		L785.7,657.6 L786.8,657.7 L788.0,657.9 L789.1,658.0 L790.2,658.1 L791.3,658.3 L792.5,658.4 L793.6,658.5
		L794.7,658.7 L795.8,658.8 L797.0,658.9 L798.1,659.1 L799.2,659.2 L800.3,659.3 L801.5,659.5 L802.6,659.6
		L803.7,659.7 L804.8,659.8 L806.0,660.0 L807.1,660.1 L808.2,660.2 L809.3,660.4 L810.5,660.5 L811.6,660.6
		L812.7,660.7 L813.8,660.9 L815.0,661.0 L816.1,661.1 L817.2,661.2 L818.3,661.4 L819.5,661.5 L820.6,661.6
		L821.7,661.7 L822.8,661.9 L824.0,662.0 L825.1,662.1 L826.2,662.2 L827.3,662.4 L828.5,662.5 L829.6,662.6
		L830.7,662.7 L831.8,662.8 L833.0,663.0 L834.1,663.1 L835.2,663.2 L836.3,663.3 L837.5,663.4 L838.6,663.6
		L839.7,663.7 L840.8,663.8 L842.0,663.9 L843.1,664.0 L844.2,664.1 L845.3,664.2 L846.5,664.4 L847.6,664.5
		L848.7,664.6 L849.9,664.7 L851.0,664.8 L852.1,664.9 L853.2,665.0 L854.4,665.2 L855.5,665.3 L856.6,665.4
		L857.7,665.5 L858.9,665.6 L860.0,665.7 L861.1,665.8 L862.2,665.9 L863.4,666.0 L864.5,666.1 L865.6,666.3
		L866.7,666.4 L867.9,666.5 L869.0,666.6 L870.1,666.7 L871.2,666.8 L872.4,666.9 L873.5,667.0 L874.6,667.1
		L875.7,667.2 L876.9,667.3 L878.0,667.4 L879.1,667.5 L880.2,667.6 L881.4,667.7 L882.5,667.8 L883.6,667.9
		L884.7,668.0 L885.9,668.1 L887.0,668.2 L888.1,668.3 L889.2,668.4 L890.4,668.5 L891.5,668.6 L892.6,668.7
		L893.7,668.8 L894.9,668.9 L896.0,669.0 L897.1,669.1 L898.2,669.2 L899.4,669.3 L900.5,669.4 L901.6,669.5
		L902.7,669.6 L903.9,669.7 L905.0,669.8 L906.1,669.9 L907.2,670.0 L908.4,670.1 L909.5,670.2 L910.6,670.3
		L911.7,670.4 L912.9,670.5 L914.0,670.6 L915.1,670.6 L916.2,670.7 L917.4,670.8 L918.5,670.9 L919.6,671.0
		L920.8,671.1 L921.9,671.2 L923.0,671.3 L924.1,671.4 L925.3,671.5 L926.4,671.5 L927.5,671.6 L928.6,671.7
		L929.8,671.8 L930.9,671.9 L932.0,672.0 L933.1,672.1 L934.3,672.2 L935.4,672.2 L936.5,672.3 L937.6,672.4
		L938.8,672.5 L939.9,672.6 L941.0,672.7 L942.1,672.7 L943.3,672.8 L944.4,672.9 L945.5,673.0 L946.6,673.1
		L947.8,673.2 L948.9,673.2 L950.0,673.3 L951.1,673.4 L952.3,673.5 L953.4,673.6 L954.5,673.6 L955.6,673.7
		L956.8,673.8 L957.9,673.9 L959.0,674.0 L960.1,674.0 L961.3,674.1 L962.4,674.2 L963.5,674.3 L964.6,674.4
		L965.8,674.4 L966.9,674.5 L968.0,674.6 L969.1,674.7 L970.3,674.7 L971.4,674.8 L972.5,674.9 L973.6,675.0
		L974.8,675.0 L975.9,675.1 L977.0,675.2 L978.1,675.3 L979.3,675.3 L980.4,675.4 L981.5,675.5 L982.6,675.5
		L983.8,675.6 L984.9,675.7 L986.0,675.8 L987.2,675.8 L988.3,675.9 L989.4,676.0 L990.5,676.0 L991.7,676.1
		L992.8,676.2 L993.9,676.2 L995.0,676.3 L996.2,676.4 L997.3,676.4 L998.4,676.5 L999.5,676.6 L1000.7,676.6
		L1001.8,676.7 L1002.9,676.8 L1004.0,676.8 L1005.2,676.9 L1006.3,677.0 L1007.4,677.0 L1008.5,677.1 L1009.7,677.2
		L1010.8,677.2 L1011.9,677.3 L1013.0,677.4 L1014.2,677.4 L1015.3,677.5 L1016.4,677.5 L1017.5,677.6 L1018.7,677.7
		L1019.8,677.7 L1020.9,677.8 L1022.0,677.9 L1023.2,677.9 L1024.3,678.0 L1025.4,678.0 L1026.5,678.1 L1027.7,678.1
		L1028.8,678.2 L1029.9,678.3 L1031.0,678.3 L1032.2,678.4 L1033.3,678.4 L1034.4,678.5 L1035.5,678.6 L1036.7,678.6
		L1037.8,678.7 L1038.9,678.7 L1040.0,678.8 L1041.2,678.8 L1042.3,678.9 L1043.4,678.9 L1044.5,679.0 L1045.7,679.1
		L1046.8,679.1 L1047.9,679.2 L1049.0,679.2 L1050.2,679.3 L1051.3,679.3 L1052.4,679.4 L1053.6,679.4 L1054.7,679.5
		L1055.8,679.5 L1056.9,679.6 L1058.1,679.6 L1059.2,679.7 L1060.3,679.7 L1061.4,679.8 L1062.6,679.8 L1063.7,679.9
		L1064.8,679.9 L1065.9,680.0 L1067.1,680.0 L1068.2,680.1 L1069.3,680.1 L1070.4,680.2 L1071.6,680.2 L1072.7,680.3
		L1073.8,680.3 L1074.9,680.4 L1076.1,680.4 L1077.2,680.4 L1078.3,680.5 L1079.4,680.5 L1080.6,680.6 L1081.7,680.6
		L1082.8,680.7 L1083.9,680.7 L1085.1,680.8 L1086.2,680.8 L1087.3,680.8 L1088.4,680.9 L1089.6,680.9 L1090.7,681.0
		L1091.8,681.0 L1092.9,681.1 L1094.1,681.1 L1095.2,681.1 L1096.3,681.2 L1097.4,681.2 L1098.6,681.3 L1099.7,681.3
		L1100.8,681.3 L1101.9,681.4 L1103.1,681.4 L1104.2,681.4 L1105.3,681.5 L1106.4,681.5 L1107.6,681.6 L1108.7,681.6
		L1109.8,681.6 L1110.9,681.7 L1112.1,681.7 L1113.2,681.7 L1114.3,681.8 L1115.4,681.8 L1116.6,681.9 L1117.7,681.9
		L1118.8,681.9 L1120.0,682.0 L1121.1,682.0 L1122.2,682.0 L1123.3,682.1 L1124.5,682.1 L1125.6,682.1 L1126.7,682.2
		L1127.8,682.2 L1129.0,682.2 L1130.1,682.3 L1131.2,682.3 L1132.3,682.3 L1133.5,682.3 L1134.6,682.4 L1135.7,682.4
		L1136.8,682.4 L1138.0,682.5 L1139.1,682.5 L1140.2,682.5 L1141.3,682.6 L1142.5,682.6 L1143.6,682.6 L1144.7,682.6
		L1145.8,682.7 L1147.0,682.7 L1148.1,682.7 L1149.2,682.7 L1150.3,682.8 L1151.5,682.8 L1152.6,682.8 L1153.7,682.9
		L1154.8,682.9 L1156.0,682.9 L1157.1,682.9 L1158.2,683.0 L1159.3,683.0 L1160.5,683.0 L1161.6,683.0 L1162.7,683.0
		L1163.8,683.1 L1165.0,683.1 L1166.1,683.1 L1167.2,683.1 L1168.3,683.2 L1169.5,683.2 L1170.6,683.2 L1171.7,683.2
		L1172.8,683.2 L1174.0,683.3 L1175.1,683.3 L1176.2,683.3 L1177.3,683.3 L1178.5,683.3 L1179.6,683.4 L1180.7,683.4
		L1181.8,683.4 L1183.0,683.4 L1184.1,683.4 L1185.2,683.5 L1186.3,683.5 L1187.5,683.5 L1188.6,683.5 L1189.7,683.5
		L1190.9,683.5 L1192.0,683.6 L1193.1,683.6 L1194.2,683.6 L1195.4,683.6 L1196.5,683.6 L1197.6,683.6 L1198.7,683.6
		L1199.9,683.7 L1201.0,683.7 L1202.1,683.7 L1203.2,683.7 L1204.4,683.7 L1205.5,683.7 L1206.6,683.7 L1207.7,683.8
		L1208.9,683.8 L1210.0,683.8 L1211.1,683.8 L1212.2,683.8 L1213.4,683.8 L1214.5,683.8 L1215.6,683.8 L1216.7,683.8
		L1217.9,683.8 L1219.0,683.9 L1220.1,683.9 L1221.2,683.9 L1222.4,683.9 L1223.5,683.9 L1224.6,683.9 L1225.7,683.9
		L1226.9,683.9 L1228.0,683.9 L1229.1,683.9 L1230.2,683.9 L1231.4,683.9 L1232.5,683.9 L1233.6,683.9 L1234.7,684.0
		L1235.9,684.0 L1237.0,684.0 L1238.1,684.0 L1239.2,684.0 L1240.4,684.0 L1241.5,684.0 L1242.6,684.0 L1243.7,684.0
		L1244.9,684.0 L1246.0,684.0 L1247.1,684.0 L1248.2,684.0 L1249.4,684.0 L1250.5,684.0 L1251.6,684.0 L1252.7,684.0
		L1253.9,684.0 L1255.0,684.0  '/></g>
	</g>
	<g id="gnuplot_plot_3" ><title>2 (convex)</title>
<g fill="none" color="black" stroke="currentColor" stroke-width="1.00" stroke-linecap="butt" stroke-linejoin="miter">
	<g transform="translate(1187.9,112.0)" stroke="none" fill="black" font-family="Arial" font-size="12.00"  text-anchor="end">
		<text><tspan font-family="Arial" >2 (convex)</tspan></text>
	</g>
</g>
<g fill="none" color="black" stroke="currentColor" stroke-width="1.00" stroke-linecap="butt" stroke-linejoin="miter">
	<path stroke='rgb( 86, 180, 233)'  d='M1196.2,108.1 L1238.4,108.1 M103.7,81.1 L104.8,115.3 L106.0,165.2 L107.1,205.0 L108.2,236.0 L109.3,261.1
		L110.5,281.9 L111.6,299.8 L112.7,315.4 L113.8,329.2 L115.0,341.5 L116.1,352.7 L117.2,362.9 L118.3,372.3
		L119.5,381.0 L120.6,389.1 L121.7,396.6 L122.8,403.6 L124.0,410.2 L125.1,416.4 L126.2,422.2 L127.3,427.7
		L128.5,433.0 L129.6,437.9 L130.7,442.6 L131.8,447.1 L133.0,451.3 L134.1,455.4 L135.2,459.2 L136.3,462.9
		L137.5,466.4 L138.6,469.7 L139.7,472.9 L140.8,476.0 L142.0,478.9 L143.1,481.6 L144.2,484.3 L145.3,486.8
		L146.5,489.2 L147.6,491.5 L148.7,493.7 L149.8,495.8 L151.0,497.8 L152.1,499.7 L153.2,501.6 L154.3,503.3
		L155.5,505.0 L156.6,506.6 L157.7,508.2 L158.8,509.6 L160.0,511.0 L161.1,512.4 L162.2,513.6 L163.3,514.9
		L164.5,516.1 L165.6,517.2 L166.7,518.3 L167.8,519.3 L169.0,520.3 L170.1,521.2 L171.2,522.1 L172.4,523.0
		L173.5,523.8 L174.6,524.6 L175.7,525.4 L176.9,526.2 L178.0,526.9 L179.1,527.5 L180.2,528.2 L181.4,528.8
		L182.5,529.4 L183.6,530.0 L184.7,530.6 L185.9,531.1 L187.0,531.6 L188.1,532.1 L189.2,532.6 L190.4,533.1
		L191.5,533.5 L192.6,534.0 L193.7,534.4 L194.9,534.8 L196.0,535.2 L197.1,535.6 L198.2,536.0 L199.4,536.3
		L200.5,536.7 L201.6,537.0 L202.7,537.3 L203.9,537.7 L205.0,538.0 L206.1,538.3 L207.2,538.6 L208.4,538.8
		L209.5,539.1 L210.6,539.4 L211.7,539.7 L212.9,539.9 L214.0,540.2 L215.1,540.4 L216.2,540.6 L217.4,540.9
		L218.5,541.1 L219.6,541.3 L220.7,541.6 L221.9,541.8 L223.0,542.0 L224.1,542.2 L225.2,542.4 L226.4,542.6
		L227.5,542.8 L228.6,543.0 L229.7,543.2 L230.9,543.3 L232.0,543.5 L233.1,543.7 L234.2,543.9 L235.4,544.1
		L236.5,544.2 L237.6,544.4 L238.7,544.6 L239.9,544.7 L241.0,544.9 L242.1,545.1 L243.3,545.2 L244.4,545.4
		L245.5,545.5 L246.6,545.7 L247.8,545.9 L248.9,546.0 L250.0,546.2 L251.1,546.3 L252.3,546.5 L253.4,546.6
		L254.5,546.7 L255.6,546.9 L256.8,547.0 L257.9,547.2 L259.0,547.3 L260.1,547.5 L261.3,547.6 L262.4,547.7
		L263.5,547.9 L264.6,548.0 L265.8,548.1 L266.9,548.3 L268.0,548.4 L269.1,548.5 L270.3,548.7 L271.4,548.8
		L272.5,548.9 L273.6,549.1 L274.8,549.2 L275.9,549.3 L277.0,549.5 L278.1,549.6 L279.3,549.7 L280.4,549.9
		L281.5,550.0 L282.6,550.1 L283.8,550.2 L284.9,550.4 L286.0,550.5 L287.1,550.6 L288.3,550.8 L289.4,550.9
		L290.5,551.0 L291.6,551.1 L292.8,551.3 L293.9,551.4 L295.0,551.5 L296.1,551.6 L297.3,551.8 L298.4,551.9
		L299.5,552.0 L300.6,552.1 L301.8,552.3 L302.9,552.4 L304.0,552.5 L305.1,552.6 L306.3,552.8 L307.4,552.9
		L308.5,553.0 L309.7,553.1 L310.8,553.3 L311.9,553.4 L313.0,553.5 L314.2,553.6 L315.3,553.8 L316.4,553.9
		L317.5,554.0 L318.7,554.1 L319.8,554.3 L320.9,554.4 L322.0,554.5 L323.2,554.6 L324.3,554.8 L325.4,554.9
		L326.5,555.0 L327.7,555.1 L328.8,555.3 L329.9,555.4 L331.0,555.5 L332.2,555.6 L333.3,555.8 L334.4,555.9
		L335.5,556.0 L336.7,556.1 L337.8,556.3 L338.9,556.4 L340.0,556.5 L341.2,556.6 L342.3,556.8 L343.4,556.9
		L344.5,557.0 L345.7,557.1 L346.8,557.3 L347.9,557.4 L349.0,557.5 L350.2,557.6 L351.3,557.8 L352.4,557.9
		L353.5,558.0 L354.7,558.1 L355.8,558.3 L356.9,558.4 L358.0,558.5 L359.2,558.6 L360.3,558.8 L361.4,558.9
		L362.5,559.0 L363.7,559.1 L364.8,559.3 L365.9,559.4 L367.0,559.5 L368.2,559.6 L369.3,559.8 L370.4,559.9
		L371.5,560.0 L372.7,560.2 L373.8,560.3 L374.9,560.4 L376.1,560.5 L377.2,560.7 L378.3,560.8 L379.4,560.9
		L380.6,561.0 L381.7,561.2 L382.8,561.3 L383.9,561.4 L385.1,561.6 L386.2,561.7 L387.3,561.8 L388.4,561.9
		L389.6,562.1 L390.7,562.2 L391.8,562.3 L392.9,562.4 L394.1,562.6 L395.2,562.7 L396.3,562.8 L397.4,563.0
		L398.6,563.1 L399.7,563.2 L400.8,563.3 L401.9,563.5 L403.1,563.6 L404.2,563.7 L405.3,563.9 L406.4,564.0
		L407.6,564.1 L408.7,564.2 L409.8,564.4 L410.9,564.5 L412.1,564.6 L413.2,564.8 L414.3,564.9 L415.4,565.0
		L416.6,565.1 L417.7,565.3 L418.8,565.4 L419.9,565.5 L421.1,565.7 L422.2,565.8 L423.3,565.9 L424.4,566.0
		L425.6,566.2 L426.7,566.3 L427.8,566.4 L428.9,566.6 L430.1,566.7 L431.2,566.8 L432.3,566.9 L433.4,567.1
		L434.6,567.2 L435.7,567.3 L436.8,567.5 L437.9,567.6 L439.1,567.7 L440.2,567.8 L441.3,568.0 L442.5,568.1
		L443.6,568.2 L444.7,568.4 L445.8,568.5 L447.0,568.6 L448.1,568.7 L449.2,568.9 L450.3,569.0 L451.5,569.1
		L452.6,569.3 L453.7,569.4 L454.8,569.5 L456.0,569.6 L457.1,569.8 L458.2,569.9 L459.3,570.0 L460.5,570.2
		L461.6,570.3 L462.7,570.4 L463.8,570.5 L465.0,570.7 L466.1,570.8 L467.2,570.9 L468.3,571.1 L469.5,571.2
		L470.6,571.3 L471.7,571.4 L472.8,571.6 L474.0,571.7 L475.1,571.8 L476.2,572.0 L477.3,572.1 L478.5,572.2
		L479.6,572.3 L480.7,572.5 L481.8,572.6 L483.0,572.7 L484.1,572.9 L485.2,573.0 L486.3,573.1 L487.5,573.2
		L488.6,573.4 L489.7,573.5 L490.8,573.6 L492.0,573.7 L493.1,573.9 L494.2,574.0 L495.3,574.1 L496.5,574.3
		L497.6,574.4 L498.7,574.5 L499.8,574.6 L501.0,574.8 L502.1,574.9 L503.2,575.0 L504.3,575.1 L505.5,575.3
		L506.6,575.4 L507.7,575.5 L508.8,575.6 L510.0,575.8 L511.1,575.9 L512.2,576.0 L513.4,576.1 L514.5,576.3
		L515.6,576.4 L516.7,576.5 L517.9,576.6 L519.0,576.8 L520.1,576.9 L521.2,577.0 L522.4,577.2 L523.5,577.3
		L524.6,577.4 L525.7,577.5 L526.9,577.6 L528.0,577.8 L529.1,577.9 L530.2,578.0 L531.4,578.1 L532.5,578.3
		L533.6,578.4 L534.7,578.5 L535.9,578.6 L537.0,578.8 L538.1,578.9 L539.2,579.0 L540.4,579.1 L541.5,579.3
		L542.6,579.4 L543.7,579.5 L544.9,579.6 L546.0,579.8 L547.1,579.9 L548.2,580.0 L549.4,580.1 L550.5,580.2
		L551.6,580.4 L552.7,580.5 L553.9,580.6 L555.0,580.7 L556.1,580.9 L557.2,581.0 L558.4,581.1 L559.5,581.2
		L560.6,581.3 L561.7,581.5 L562.9,581.6 L564.0,581.7 L565.1,581.8 L566.2,581.9 L567.4,582.1 L568.5,582.2
		L569.6,582.3 L570.7,582.4 L571.9,582.5 L573.0,582.7 L574.1,582.8 L575.2,582.9 L576.4,583.0 L577.5,583.1
		L578.6,583.3 L579.8,583.4 L580.9,583.5 L582.0,583.6 L583.1,583.7 L584.3,583.9 L585.4,584.0 L586.5,584.1
		L587.6,584.2 L588.8,584.3 L589.9,584.4 L591.0,584.6 L592.1,584.7 L593.3,584.8 L594.4,584.9 L595.5,585.0
		L596.6,585.1 L597.8,585.3 L598.9,585.4 L600.0,585.5 L601.1,585.6 L602.3,585.7 L603.4,585.8 L604.5,586.0
		L605.6,586.1 L606.8,586.2 L607.9,586.3 L609.0,586.4 L610.1,586.5 L611.3,586.7 L612.4,586.8 L613.5,586.9
		L614.6,587.0 L615.8,587.1 L616.9,587.2 L618.0,587.3 L619.1,587.5 L620.3,587.6 L621.4,587.7 L622.5,587.8
		L623.6,587.9 L624.8,588.0 L625.9,588.1 L627.0,588.2 L628.1,588.4 L629.3,588.5 L630.4,588.6 L631.5,588.7
		L632.6,588.8 L633.8,588.9 L634.9,589.0 L636.0,589.1 L637.1,589.3 L638.3,589.4 L639.4,589.5 L640.5,589.6
		L641.6,589.7 L642.8,589.8 L643.9,589.9 L645.0,590.0 L646.2,590.1 L647.3,590.2 L648.4,590.4 L649.5,590.5
		L650.7,590.6 L651.8,590.7 L652.9,590.8 L654.0,590.9 L655.2,591.0 L656.3,591.1 L657.4,591.2 L658.5,591.3
		L659.7,591.4 L660.8,591.5 L661.9,591.7 L663.0,591.8 L664.2,591.9 L665.3,592.0 L666.4,592.1 L667.5,592.2
		L668.7,592.3 L669.8,592.4 L670.9,592.5 L672.0,592.6 L673.2,592.7 L674.3,592.8 L675.4,592.9 L676.5,593.0
		L677.7,593.1 L678.8,593.2 L679.9,593.3 L681.0,593.4 L682.2,593.6 L683.3,593.7 L684.4,593.8 L685.5,593.9
		L686.7,594.0 L687.8,594.1 L688.9,594.2 L690.0,594.3 L691.2,594.4 L692.3,594.5 L693.4,594.6 L694.5,594.7
		L695.7,594.8 L696.8,594.9 L697.9,595.0 L699.0,595.1 L700.2,595.2 L701.3,595.3 L702.4,595.4 L703.5,595.5
		L704.7,595.6 L705.8,595.7 L706.9,595.8 L708.0,595.9 L709.2,596.0 L710.3,596.1 L711.4,596.2 L712.5,596.3
		L713.7,596.4 L714.8,596.5 L715.9,596.6 L717.1,596.7 L718.2,596.8 L719.3,596.9 L720.4,597.0 L721.6,597.1
		L722.7,597.2 L723.8,597.3 L724.9,597.4 L726.1,597.5 L727.2,597.6 L728.3,597.7 L729.4,597.8 L730.6,597.8
		L731.7,597.9 L732.8,598.0 L733.9,598.1 L735.1,598.2 L736.2,598.3 L737.3,598.4 L738.4,598.5 L739.6,598.6
		L740.7,598.7 L741.8,598.8 L742.9,598.9 L744.1,599.0 L745.2,599.1 L746.3,599.2 L747.4,599.3 L748.6,599.4
		L749.7,599.4 L750.8,599.5 L751.9,599.6 L753.1,599.7 L754.2,599.8 L755.3,599.9 L756.4,600.0 L757.6,600.1
		L758.7,600.2 L759.8,600.3 L760.9,600.4 L762.1,600.5 L763.2,600.5 L764.3,600.6 L765.4,600.7 L766.6,600.8
		L767.7,600.9 L768.8,601.0 L769.9,601.1 L771.1,601.2 L772.2,601.3 L773.3,601.3 L774.4,601.4 L775.6,601.5
		L776.7,601.6 L777.8,601.7 L778.9,601.8 L780.1,601.9 L781.2,602.0 L782.3,602.0 L783.5,602.1 L784.6,602.2
		L785.7,602.3 L786.8,602.4 L788.0,602.5 L789.1,602.6 L790.2,602.6 L791.3,602.7 L792.5,602.8 L793.6,602.9
		L794.7,603.0 L795.8,603.1 L797.0,603.2 L798.1,603.2 L799.2,603.3 L800.3,603.4 L801.5,603.5 L802.6,603.6
		L803.7,603.7 L804.8,603.7 L806.0,603.8 L807.1,603.9 L808.2,604.0 L809.3,604.1 L810.5,604.1 L811.6,604.2
		L812.7,604.3 L813.8,604.4 L815.0,604.5 L816.1,604.5 L817.2,604.6 L818.3,604.7 L819.5,604.8 L820.6,604.9
		L821.7,604.9 L822.8,605.0 L824.0,605.1 L825.1,605.2 L826.2,605.3 L827.3,605.3 L828.5,605.4 L829.6,605.5
		L830.7,605.6 L831.8,605.7 L833.0,605.7 L834.1,605.8 L835.2,605.9 L836.3,606.0 L837.5,606.0 L838.6,606.1
		L839.7,606.2 L840.8,606.3 L842.0,606.3 L843.1,606.4 L844.2,606.5 L845.3,606.6 L846.5,606.6 L847.6,606.7
		L848.7,606.8 L849.9,606.9 L851.0,606.9 L852.1,607.0 L853.2,607.1 L854.4,607.2 L855.5,607.2 L856.6,607.3
		L857.7,607.4 L858.9,607.5 L860.0,607.5 L861.1,607.6 L862.2,607.7 L863.4,607.7 L864.5,607.8 L865.6,607.9
		L866.7,608.0 L867.9,608.0 L869.0,608.1 L870.1,608.2 L871.2,608.2 L872.4,608.3 L873.5,608.4 L874.6,608.5
		L875.7,608.5 L876.9,608.6 L878.0,608.7 L879.1,608.7 L880.2,608.8 L881.4,608.9 L882.5,608.9 L883.6,609.0
		L884.7,609.1 L885.9,609.1 L887.0,609.2 L888.1,609.3 L889.2,609.3 L890.4,609.4 L891.5,609.5 L892.6,609.5
		L893.7,609.6 L894.9,609.7 L896.0,609.7 L897.1,609.8 L898.2,609.9 L899.4,609.9 L900.5,610.0 L901.6,610.1
		L902.7,610.1 L903.9,610.2 L905.0,610.3 L906.1,610.3 L907.2,610.4 L908.4,610.5 L909.5,610.5 L910.6,610.6
		L911.7,610.6 L912.9,610.7 L914.0,610.8 L915.1,610.8 L916.2,610.9 L917.4,611.0 L918.5,611.0 L919.6,611.1
		L920.8,611.1 L921.9,611.2 L923.0,611.3 L924.1,611.3 L925.3,611.4 L926.4,611.4 L927.5,611.5 L928.6,611.6
		L929.8,611.6 L930.9,611.7 L932.0,611.7 L933.1,611.8 L934.3,611.9 L935.4,611.9 L936.5,612.0 L937.6,612.0
		L938.8,612.1 L939.9,612.1 L941.0,612.2 L942.1,612.3 L943.3,612.3 L944.4,612.4 L945.5,612.4 L946.6,612.5
		L947.8,612.5 L948.9,612.6 L950.0,612.7 L951.1,612.7 L952.3,612.8 L953.4,612.8 L954.5,612.9 L955.6,612.9
		L956.8,613.0 L957.9,613.0 L959.0,613.1 L960.1,613.2 L961.3,613.2 L962.4,613.3 L963.5,613.3 L964.6,613.4
		L965.8,613.4 L966.9,613.5 L968.0,613.5 L969.1,613.6 L970.3,613.6 L971.4,613.7 L972.5,613.7 L973.6,613.8
		L974.8,613.8 L975.9,613.9 L977.0,613.9 L978.1,614.0 L979.3,614.0 L980.4,614.1 L981.5,614.1 L982.6,614.2
		L983.8,614.2 L984.9,614.3 L986.0,614.3 L987.2,614.4 L988.3,614.4 L989.4,614.5 L990.5,614.5 L991.7,614.6
		L992.8,614.6 L993.9,614.7 L995.0,614.7 L996.2,614.8 L997.3,614.8 L998.4,614.9 L999.5,614.9 L1000.7,615.0
		L1001.8,615.0 L1002.9,615.1 L1004.0,615.1 L1005.2,615.1 L1006.3,615.2 L1007.4,615.2 L1008.5,615.3 L1009.7,615.3
		L1010.8,615.4 L1011.9,615.4 L1013.0,615.5 L1014.2,615.5 L1015.3,615.5 L1016.4,615.6 L1017.5,615.6 L1018.7,615.7
		L1019.8,615.7 L1020.9,615.8 L1022.0,615.8 L1023.2,615.8 L1024.3,615.9 L1025.4,615.9 L1026.5,616.0 L1027.7,616.0
		L1028.8,616.1 L1029.9,616.1 L1031.0,616.1 L1032.2,616.2 L1033.3,616.2 L1034.4,616.3 L1035.5,616.3 L1036.7,616.3
		L1037.8,616.4 L1038.9,616.4 L1040.0,616.5 L1041.2,616.5 L1042.3,616.5 L1043.4,616.6 L1044.5,616.6 L1045.7,616.7
		L1046.8,616.7 L1047.9,616.7 L1049.0,616.8 L1050.2,616.8 L1051.3,616.8 L1052.4,616.9 L1053.6,616.9 L1054.7,616.9
		L1055.8,617.0 L1056.9,617.0 L1058.1,617.1 L1059.2,617.1 L1060.3,617.1 L1061.4,617.2 L1062.6,617.2 L1063.7,617.2
		L1064.8,617.3 L1065.9,617.3 L1067.1,617.3 L1068.2,617.4 L1069.3,617.4 L1070.4,617.4 L1071.6,617.5 L1072.7,617.5
		L1073.8,617.5 L1074.9,617.6 L1076.1,617.6 L1077.2,617.6 L1078.3,617.7 L1079.4,617.7 L1080.6,617.7 L1081.7,617.8
		L1082.8,617.8 L1083.9,617.8 L1085.1,617.9 L1086.2,617.9 L1087.3,617.9 L1088.4,618.0 L1089.6,618.0 L1090.7,618.0
		L1091.8,618.0 L1092.9,618.1 L1094.1,618.1 L1095.2,618.1 L1096.3,618.2 L1097.4,618.2 L1098.6,618.2 L1099.7,618.2
		L1100.8,618.3 L1101.9,618.3 L1103.1,618.3 L1104.2,618.4 L1105.3,618.4 L1106.4,618.4 L1107.6,618.4 L1108.7,618.5
		L1109.8,618.5 L1110.9,618.5 L1112.1,618.5 L1113.2,618.6 L1114.3,618.6 L1115.4,618.6 L1116.6,618.6 L1117.7,618.7
		L1118.8,618.7 L1120.0,618.7 L1121.1,618.7 L1122.2,618.8 L1123.3,618.8 L1124.5,618.8 L1125.6,618.8 L1126.7,618.9
		L1127.8,618.9 L1129.0,618.9 L1130.1,618.9 L1131.2,619.0 L1132.3,619.0 L1133.5,619.0 L1134.6,619.0 L1135.7,619.0
		L1136.8,619.1 L1138.0,619.1 L1139.1,619.1 L1140.2,619.1 L1141.3,619.1 L1142.5,619.2 L1143.6,619.2 L1144.7,619.2
		L1145.8,619.2 L1147.0,619.2 L1148.1,619.3 L1149.2,619.3 L1150.3,619.3 L1151.5,619.3 L1152.6,619.3 L1153.7,619.4
		L1154.8,619.4 L1156.0,619.4 L1157.1,619.4 L1158.2,619.4 L1159.3,619.5 L1160.5,619.5 L1161.6,619.5 L1162.7,619.5
		L1163.8,619.5 L1165.0,619.5 L1166.1,619.6 L1167.2,619.6 L1168.3,619.6 L1169.5,619.6 L1170.6,619.6 L1171.7,619.6
		L1172.8,619.6 L1174.0,619.7 L1175.1,619.7 L1176.2,619.7 L1177.3,619.7 L1178.5,619.7 L1179.6,619.7 L1180.7,619.7
		L1181.8,619.8 L1183.0,619.8 L1184.1,619.8 L1185.2,619.8 L1186.3,619.8 L1187.5,619.8 L1188.6,619.8 L1189.7,619.8
		L1190.9,619.9 L1192.0,619.9 L1193.1,619.9 L1194.2,619.9 L1195.4,619.9 L1196.5,619.9 L1197.6,619.9 L1198.7,619.9
		L1199.9,619.9 L1201.0,620.0 L1202.1,620.0 L1203.2,620.0 L1204.4,620.0 L1205.5,620.0 L1206.6,620.0 L1207.7,620.0
		L1208.9,620.0 L1210.0,620.0 L1211.1,620.0 L1212.2,620.0 L1213.4,620.1 L1214.5,620.1 L1215.6,620.1 L1216.7,620.1
		L1217.9,620.1 L1219.0,620.1 L1220.1,620.1 L1221.2,620.1 L1222.4,620.1 L1223.5,620.1 L1224.6,620.1 L1225.7,620.1
		L1226.9,620.1 L1228.0,620.1 L1229.1,620.1 L1230.2,620.1 L1231.4,620.1 L1232.5,620.1 L1233.6,620.2 L1234.7,620.2
		L1235.9,620.2 L1237.0,620.2 L1238.1,620.2 L1239.2,620.2 L1240.4,620.2 L1241.5,620.2 L1242.6,620.2 L1243.7,620.2
		L1244.9,620.2 L1246.0,620.2 L1247.1,620.2 L1248.2,620.2 L1249.4,620.2 L1250.5,620.2 L1251.6,620.2 L1252.7,620.2
		L1253.9,620.2 L1255.0,620.2  '/></g>
	</g>
	<g id="gnuplot_plot_4" ><title>4 (convex)</title>
<g fill="none" color="black" stroke="currentColor" stroke-width="1.00" stroke-linecap="butt" stroke-linejoin="miter">
	<g transform="translate(1187.9,130.0)" stroke="none" fill="black" font-family="Arial" font-size="12.00"  text-anchor="end">
		<text><tspan font-family="Arial" >4 (convex)</tspan></text>
	</g>
</g>
<g fill="none" color="black" stroke="currentColor" stroke-width="1.00" stroke-linecap="butt" stroke-linejoin="miter">
	<path stroke='rgb(230, 159,   0)'  d='M1196.2,126.1 L1238.4,126.1 M103.7,57.8 L104.8,158.2 L106.0,204.7 L107.1,227.7 L108.2,246.0 L109.3,262.5
		L110.5,277.7 L111.6,291.7 L112.7,304.5 L113.8,316.3 L115.0,327.2 L116.1,337.2 L117.2,346.6 L118.3,355.3
		L119.5,363.4 L120.6,371.1 L121.7,378.2 L122.8,385.0 L124.0,391.4 L125.1,397.5 L126.2,403.2 L127.3,408.7
		L128.5,413.8 L129.6,418.8 L130.7,423.5 L131.8,428.0 L133.0,432.3 L134.1,436.4 L135.2,440.4 L136.3,444.2
		L137.5,447.8 L138.6,451.2 L139.7,454.6 L140.8,457.8 L142.0,460.9 L143.1,463.8 L144.2,466.6 L145.3,469.4
		L146.5,472.0 L147.6,474.5 L148.7,476.9 L149.8,479.3 L151.0,481.5 L152.1,483.7 L153.2,485.7 L154.3,487.7
		L155.5,489.7 L156.6,491.5 L157.7,493.3 L158.8,495.0 L160.0,496.7 L161.1,498.3 L162.2,499.8 L163.3,501.3
		L164.5,502.7 L165.6,504.1 L166.7,505.4 L167.8,506.6 L169.0,507.9 L170.1,509.1 L171.2,510.2 L172.4,511.3
		L173.5,512.4 L174.6,513.4 L175.7,514.4 L176.9,515.3 L178.0,516.2 L179.1,517.1 L180.2,518.0 L181.4,518.8
		L182.5,519.6 L183.6,520.4 L184.7,521.1 L185.9,521.9 L187.0,522.6 L188.1,523.2 L189.2,523.9 L190.4,524.5
		L191.5,525.1 L192.6,525.7 L193.7,526.3 L194.9,526.9 L196.0,527.4 L197.1,528.0 L198.2,528.5 L199.4,529.0
		L200.5,529.5 L201.6,529.9 L202.7,530.4 L203.9,530.9 L205.0,531.3 L206.1,531.7 L207.2,532.1 L208.4,532.5
		L209.5,532.9 L210.6,533.3 L211.7,533.7 L212.9,534.1 L214.0,534.4 L215.1,534.8 L216.2,535.1 L217.4,535.5
		L218.5,535.8 L219.6,536.1 L220.7,536.4 L221.9,536.7 L223.0,537.1 L224.1,537.4 L225.2,537.6 L226.4,537.9
		L227.5,538.2 L228.6,538.5 L229.7,538.8 L230.9,539.0 L232.0,539.3 L233.1,539.6 L234.2,539.8 L235.4,540.1
		L236.5,540.3 L237.6,540.6 L238.7,540.8 L239.9,541.1 L241.0,541.3 L242.1,541.5 L243.3,541.8 L244.4,542.0
		L245.5,542.2 L246.6,542.5 L247.8,542.7 L248.9,542.9 L250.0,543.1 L251.1,543.3 L252.3,543.5 L253.4,543.8
		L254.5,544.0 L255.6,544.2 L256.8,544.4 L257.9,544.6 L259.0,544.8 L260.1,545.0 L261.3,545.2 L262.4,545.4
		L263.5,545.6 L264.6,545.8 L265.8,546.0 L266.9,546.2 L268.0,546.4 L269.1,546.6 L270.3,546.8 L271.4,546.9
		L272.5,547.1 L273.6,547.3 L274.8,547.5 L275.9,547.7 L277.0,547.9 L278.1,548.1 L279.3,548.2 L280.4,548.4
		L281.5,548.6 L282.6,548.8 L283.8,549.0 L284.9,549.2 L286.0,549.3 L287.1,549.5 L288.3,549.7 L289.4,549.9
		L290.5,550.1 L291.6,550.2 L292.8,550.4 L293.9,550.6 L295.0,550.8 L296.1,550.9 L297.3,551.1 L298.4,551.3
		L299.5,551.5 L300.6,551.6 L301.8,551.8 L302.9,552.0 L304.0,552.2 L305.1,552.3 L306.3,552.5 L307.4,552.7
		L308.5,552.8 L309.7,553.0 L310.8,553.2 L311.9,553.4 L313.0,553.5 L314.2,553.7 L315.3,553.9 L316.4,554.1
		L317.5,554.2 L318.7,554.4 L319.8,554.6 L320.9,554.7 L322.0,554.9 L323.2,555.1 L324.3,555.2 L325.4,555.4
		L326.5,555.6 L327.7,555.8 L328.8,555.9 L329.9,556.1 L331.0,556.3 L332.2,556.4 L333.3,556.6 L334.4,556.8
		L335.5,556.9 L336.7,557.1 L337.8,557.3 L338.9,557.4 L340.0,557.6 L341.2,557.8 L342.3,558.0 L343.4,558.1
		L344.5,558.3 L345.7,558.5 L346.8,558.6 L347.9,558.8 L349.0,559.0 L350.2,559.1 L351.3,559.3 L352.4,559.5
		L353.5,559.6 L354.7,559.8 L355.8,560.0 L356.9,560.1 L358.0,560.3 L359.2,560.5 L360.3,560.6 L361.4,560.8
		L362.5,561.0 L363.7,561.1 L364.8,561.3 L365.9,561.5 L367.0,561.6 L368.2,561.8 L369.3,562.0 L370.4,562.1
		L371.5,562.3 L372.7,562.5 L373.8,562.7 L374.9,562.8 L376.1,563.0 L377.2,563.2 L378.3,563.3 L379.4,563.5
		L380.6,563.7 L381.7,563.8 L382.8,564.0 L383.9,564.2 L385.1,564.3 L386.2,564.5 L387.3,564.7 L388.4,564.8
		L389.6,565.0 L390.7,565.2 L391.8,565.3 L392.9,565.5 L394.1,565.7 L395.2,565.8 L396.3,566.0 L397.4,566.2
		L398.6,566.3 L399.7,566.5 L400.8,566.6 L401.9,566.8 L403.1,567.0 L404.2,567.1 L405.3,567.3 L406.4,567.5
		L407.6,567.6 L408.7,567.8 L409.8,568.0 L410.9,568.1 L412.1,568.3 L413.2,568.5 L414.3,568.6 L415.4,568.8
		L416.6,569.0 L417.7,569.1 L418.8,569.3 L419.9,569.5 L421.1,569.6 L422.2,569.8 L423.3,570.0 L424.4,570.1
		L425.6,570.3 L426.7,570.4 L427.8,570.6 L428.9,570.8 L430.1,570.9 L431.2,571.1 L432.3,571.3 L433.4,571.4
		L434.6,571.6 L435.7,571.8 L436.8,571.9 L437.9,572.1 L439.1,572.3 L440.2,572.4 L441.3,572.6 L442.5,572.7
		L443.6,572.9 L444.7,573.1 L445.8,573.2 L447.0,573.4 L448.1,573.6 L449.2,573.7 L450.3,573.9 L451.5,574.0
		L452.6,574.2 L453.7,574.4 L454.8,574.5 L456.0,574.7 L457.1,574.8 L458.2,575.0 L459.3,575.2 L460.5,575.3
		L461.6,575.5 L462.7,575.7 L463.8,575.8 L465.0,576.0 L466.1,576.1 L467.2,576.3 L468.3,576.5 L469.5,576.6
		L470.6,576.8 L471.7,576.9 L472.8,577.1 L474.0,577.3 L475.1,577.4 L476.2,577.6 L477.3,577.7 L478.5,577.9
		L479.6,578.0 L480.7,578.2 L481.8,578.4 L483.0,578.5 L484.1,578.7 L485.2,578.8 L486.3,579.0 L487.5,579.2
		L488.6,579.3 L489.7,579.5 L490.8,579.6 L492.0,579.8 L493.1,579.9 L494.2,580.1 L495.3,580.3 L496.5,580.4
		L497.6,580.6 L498.7,580.7 L499.8,580.9 L501.0,581.0 L502.1,581.2 L503.2,581.3 L504.3,581.5 L505.5,581.7
		L506.6,581.8 L507.7,582.0 L508.8,582.1 L510.0,582.3 L511.1,582.4 L512.2,582.6 L513.4,582.7 L514.5,582.9
		L515.6,583.0 L516.7,583.2 L517.9,583.3 L519.0,583.5 L520.1,583.7 L521.2,583.8 L522.4,584.0 L523.5,584.1
		L524.6,584.3 L525.7,584.4 L526.9,584.6 L528.0,584.7 L529.1,584.9 L530.2,585.0 L531.4,585.2 L532.5,585.3
		L533.6,585.5 L534.7,585.6 L535.9,585.8 L537.0,585.9 L538.1,586.1 L539.2,586.2 L540.4,586.4 L541.5,586.5
		L542.6,586.7 L543.7,586.8 L544.9,587.0 L546.0,587.1 L547.1,587.3 L548.2,587.4 L549.4,587.6 L550.5,587.7
		L551.6,587.8 L552.7,588.0 L553.9,588.1 L555.0,588.3 L556.1,588.4 L557.2,588.6 L558.4,588.7 L559.5,588.9
		L560.6,589.0 L561.7,589.2 L562.9,589.3 L564.0,589.5 L565.1,589.6 L566.2,589.7 L567.4,589.9 L568.5,590.0
		L569.6,590.2 L570.7,590.3 L571.9,590.5 L573.0,590.6 L574.1,590.7 L575.2,590.9 L576.4,591.0 L577.5,591.2
		L578.6,591.3 L579.8,591.5 L580.9,591.6 L582.0,591.7 L583.1,591.9 L584.3,592.0 L585.4,592.2 L586.5,592.3
		L587.6,592.4 L588.8,592.6 L589.9,592.7 L591.0,592.9 L592.1,593.0 L593.3,593.1 L594.4,593.3 L595.5,593.4
		L596.6,593.6 L597.8,593.7 L598.9,593.8 L600.0,594.0 L601.1,594.1 L602.3,594.2 L603.4,594.4 L604.5,594.5
		L605.6,594.7 L606.8,594.8 L607.9,594.9 L609.0,595.1 L610.1,595.2 L611.3,595.3 L612.4,595.5 L613.5,595.6
		L614.6,595.7 L615.8,595.9 L616.9,596.0 L618.0,596.1 L619.1,596.3 L620.3,596.4 L621.4,596.5 L622.5,596.7
		L623.6,596.8 L624.8,596.9 L625.9,597.1 L627.0,597.2 L628.1,597.3 L629.3,597.5 L630.4,597.6 L631.5,597.7
		L632.6,597.9 L633.8,598.0 L634.9,598.1 L636.0,598.3 L637.1,598.4 L638.3,598.5 L639.4,598.6 L640.5,598.8
		L641.6,598.9 L642.8,599.0 L643.9,599.2 L645.0,599.3 L646.2,599.4 L647.3,599.5 L648.4,599.7 L649.5,599.8
		L650.7,599.9 L651.8,600.1 L652.9,600.2 L654.0,600.3 L655.2,600.4 L656.3,600.6 L657.4,600.7 L658.5,600.8
		L659.7,600.9 L660.8,601.1 L661.9,601.2 L663.0,601.3 L664.2,601.4 L665.3,601.6 L666.4,601.7 L667.5,601.8
		L668.7,601.9 L669.8,602.1 L670.9,602.2 L672.0,602.3 L673.2,602.4 L674.3,602.5 L675.4,602.7 L676.5,602.8
		L677.7,602.9 L678.8,603.0 L679.9,603.1 L681.0,603.3 L682.2,603.4 L683.3,603.5 L684.4,603.6 L685.5,603.7
		L686.7,603.9 L687.8,604.0 L688.9,604.1 L690.0,604.2 L691.2,604.3 L692.3,604.5 L693.4,604.6 L694.5,604.7
		L695.7,604.8 L696.8,604.9 L697.9,605.0 L699.0,605.2 L700.2,605.3 L701.3,605.4 L702.4,605.5 L703.5,605.6
		L704.7,605.7 L705.8,605.9 L706.9,606.0 L708.0,606.1 L709.2,606.2 L710.3,606.3 L711.4,606.4 L712.5,606.5
		L713.7,606.7 L714.8,606.8 L715.9,606.9 L717.1,607.0 L718.2,607.1 L719.3,607.2 L720.4,607.3 L721.6,607.4
		L722.7,607.6 L723.8,607.7 L724.9,607.8 L726.1,607.9 L727.2,608.0 L728.3,608.1 L729.4,608.2 L730.6,608.3
		L731.7,608.4 L732.8,608.5 L733.9,608.7 L735.1,608.8 L736.2,608.9 L737.3,609.0 L738.4,609.1 L739.6,609.2
		L740.7,609.3 L741.8,609.4 L742.9,609.5 L744.1,609.6 L745.2,609.7 L746.3,609.8 L747.4,609.9 L748.6,610.0
		L749.7,610.1 L750.8,610.3 L751.9,610.4 L753.1,610.5 L754.2,610.6 L755.3,610.7 L756.4,610.8 L757.6,610.9
		L758.7,611.0 L759.8,611.1 L760.9,611.2 L762.1,611.3 L763.2,611.4 L764.3,611.5 L765.4,611.6 L766.6,611.7
		L767.7,611.8 L768.8,611.9 L769.9,612.0 L771.1,612.1 L772.2,612.2 L773.3,612.3 L774.4,612.4 L775.6,612.5
		L776.7,612.6 L777.8,612.7 L778.9,612.8 L780.1,612.9 L781.2,613.0 L782.3,613.1 L783.5,613.2 L784.6,613.3
		L785.7,613.4 L786.8,613.5 L788.0,613.6 L789.1,613.7 L790.2,613.8 L791.3,613.9 L792.5,614.0 L793.6,614.1
		L794.7,614.2 L795.8,614.2 L797.0,614.3 L798.1,614.4 L799.2,614.5 L800.3,614.6 L801.5,614.7 L802.6,614.8
		L803.7,614.9 L804.8,615.0 L806.0,615.1 L807.1,615.2 L808.2,615.3 L809.3,615.4 L810.5,615.5 L811.6,615.6
		L812.7,615.6 L813.8,615.7 L815.0,615.8 L816.1,615.9 L817.2,616.0 L818.3,616.1 L819.5,616.2 L820.6,616.3
		L821.7,616.4 L822.8,616.5 L824.0,616.5 L825.1,616.6 L826.2,616.7 L827.3,616.8 L828.5,616.9 L829.6,617.0
		L830.7,617.1 L831.8,617.2 L833.0,617.2 L834.1,617.3 L835.2,617.4 L836.3,617.5 L837.5,617.6 L838.6,617.7
		L839.7,617.8 L840.8,617.8 L842.0,617.9 L843.1,618.0 L844.2,618.1 L845.3,618.2 L846.5,618.3 L847.6,618.3
		L848.7,618.4 L849.9,618.5 L851.0,618.6 L852.1,618.7 L853.2,618.8 L854.4,618.8 L855.5,618.9 L856.6,619.0
		L857.7,619.1 L858.9,619.2 L860.0,619.3 L861.1,619.3 L862.2,619.4 L863.4,619.5 L864.5,619.6 L865.6,619.7
		L866.7,619.7 L867.9,619.8 L869.0,619.9 L870.1,620.0 L871.2,620.0 L872.4,620.1 L873.5,620.2 L874.6,620.3
		L875.7,620.4 L876.9,620.4 L878.0,620.5 L879.1,620.6 L880.2,620.7 L881.4,620.7 L882.5,620.8 L883.6,620.9
		L884.7,621.0 L885.9,621.0 L887.0,621.1 L888.1,621.2 L889.2,621.3 L890.4,621.3 L891.5,621.4 L892.6,621.5
		L893.7,621.6 L894.9,621.6 L896.0,621.7 L897.1,621.8 L898.2,621.8 L899.4,621.9 L900.5,622.0 L901.6,622.1
		L902.7,622.1 L903.9,622.2 L905.0,622.3 L906.1,622.3 L907.2,622.4 L908.4,622.5 L909.5,622.6 L910.6,622.6
		L911.7,622.7 L912.9,622.8 L914.0,622.8 L915.1,622.9 L916.2,623.0 L917.4,623.0 L918.5,623.1 L919.6,623.2
		L920.8,623.2 L921.9,623.3 L923.0,623.4 L924.1,623.4 L925.3,623.5 L926.4,623.6 L927.5,623.6 L928.6,623.7
		L929.8,623.8 L930.9,623.8 L932.0,623.9 L933.1,624.0 L934.3,624.0 L935.4,624.1 L936.5,624.2 L937.6,624.2
		L938.8,624.3 L939.9,624.3 L941.0,624.4 L942.1,624.5 L943.3,624.5 L944.4,624.6 L945.5,624.7 L946.6,624.7
		L947.8,624.8 L948.9,624.8 L950.0,624.9 L951.1,625.0 L952.3,625.0 L953.4,625.1 L954.5,625.1 L955.6,625.2
		L956.8,625.3 L957.9,625.3 L959.0,625.4 L960.1,625.4 L961.3,625.5 L962.4,625.5 L963.5,625.6 L964.6,625.7
		L965.8,625.7 L966.9,625.8 L968.0,625.8 L969.1,625.9 L970.3,625.9 L971.4,626.0 L972.5,626.1 L973.6,626.1
		L974.8,626.2 L975.9,626.2 L977.0,626.3 L978.1,626.3 L979.3,626.4 L980.4,626.4 L981.5,626.5 L982.6,626.5
		L983.8,626.6 L984.9,626.6 L986.0,626.7 L987.2,626.7 L988.3,626.8 L989.4,626.9 L990.5,626.9 L991.7,627.0
		L992.8,627.0 L993.9,627.1 L995.0,627.1 L996.2,627.2 L997.3,627.2 L998.4,627.3 L999.5,627.3 L1000.7,627.4
		L1001.8,627.4 L1002.9,627.4 L1004.0,627.5 L1005.2,627.5 L1006.3,627.6 L1007.4,627.6 L1008.5,627.7 L1009.7,627.7
		L1010.8,627.8 L1011.9,627.8 L1013.0,627.9 L1014.2,627.9 L1015.3,628.0 L1016.4,628.0 L1017.5,628.0 L1018.7,628.1
		L1019.8,628.1 L1020.9,628.2 L1022.0,628.2 L1023.2,628.3 L1024.3,628.3 L1025.4,628.3 L1026.5,628.4 L1027.7,628.4
		L1028.8,628.5 L1029.9,628.5 L1031.0,628.5 L1032.2,628.6 L1033.3,628.6 L1034.4,628.7 L1035.5,628.7 L1036.7,628.7
		L1037.8,628.8 L1038.9,628.8 L1040.0,628.9 L1041.2,628.9 L1042.3,628.9 L1043.4,629.0 L1044.5,629.0 L1045.7,629.0
		L1046.8,629.1 L1047.9,629.1 L1049.0,629.1 L1050.2,629.2 L1051.3,629.2 L1052.4,629.2 L1053.6,629.3 L1054.7,629.3
		L1055.8,629.3 L1056.9,629.4 L1058.1,629.4 L1059.2,629.4 L1060.3,629.5 L1061.4,629.5 L1062.6,629.5 L1063.7,629.6
		L1064.8,629.6 L1065.9,629.6 L1067.1,629.6 L1068.2,629.7 L1069.3,629.7 L1070.4,629.7 L1071.6,629.8 L1072.7,629.8
		L1073.8,629.8 L1074.9,629.8 L1076.1,629.9 L1077.2,629.9 L1078.3,629.9 L1079.4,629.9 L1080.6,629.9 L1081.7,630.0
		L1082.8,630.0 L1083.9,630.0 L1085.1,630.0 L1086.2,630.1 L1087.3,630.1 L1088.4,630.1 L1089.6,630.1 L1090.7,630.1
		L1091.8,630.1 L1092.9,630.2 L1094.1,630.2 L1095.2,630.2 L1096.3,630.2 L1097.4,630.2 L1098.6,630.2 L1099.7,630.2
		L1100.8,630.2 L1101.9,630.2 L1103.1,630.3 L1104.2,630.3 L1105.3,630.3 L1106.4,630.3 L1107.6,630.3 L1108.7,630.3
		L1109.8,630.3 L1110.9,630.3 L1112.1,630.3 L1113.2,630.3 L1114.3,630.3 L1115.4,630.3 L1116.6,630.3 L1117.7,630.3
		L1118.8,630.3 L1120.0,630.3 L1121.1,630.3 L1122.2,630.2 L1123.3,630.2 L1124.5,630.2 L1125.6,630.2 L1126.7,630.2
		L1127.8,630.2 L1129.0,630.1 L1130.1,630.1 L1131.2,630.1 L1132.3,630.1 L1133.5,630.0 L1134.6,630.0 L1135.7,630.0
		L1136.8,629.9 L1138.0,629.9 L1139.1,629.9 L1140.2,629.8 L1141.3,629.8 L1142.5,629.7 L1143.6,629.7 L1144.7,629.6
		L1145.8,629.6 L1147.0,629.5 L1148.1,629.5 L1149.2,629.4 L1150.3,629.3 L1151.5,629.2 L1152.6,629.2 L1153.7,629.1
		L1154.8,629.0 L1156.0,628.9 L1157.1,628.8 L1158.2,628.7 L1159.3,628.6 L1160.5,628.5 L1161.6,628.4 L1162.7,628.2
		L1163.8,628.1 L1165.0,628.0 L1166.1,627.8 L1167.2,627.7 L1168.3,627.5 L1169.5,627.3 L1170.6,627.1 L1171.7,627.0
		L1172.8,626.8 L1174.0,626.5 L1175.1,626.3 L1176.2,626.1 L1177.3,625.8 L1178.5,625.6 L1179.6,625.3 L1180.7,625.0
		L1181.8,624.7 L1183.0,624.4 L1184.1,624.0 L1185.2,623.7 L1186.3,623.3 L1187.5,622.9 L1188.6,622.5 L1189.7,622.0
		L1190.9,621.5 L1192.0,621.0 L1193.1,620.5 L1194.2,619.9 L1195.4,619.4 L1196.5,618.7 L1197.6,618.1 L1198.7,617.4
		L1199.9,616.6 L1201.0,615.8 L1202.1,615.0 L1203.2,614.1 L1204.4,613.2 L1205.5,612.2 L1206.6,611.1 L1207.7,610.0
		L1208.9,608.8 L1210.0,607.6 L1211.1,606.2 L1212.2,604.8 L1213.4,603.3 L1214.5,601.8 L1215.6,600.1 L1216.7,598.4
		L1217.9,596.5 L1219.0,594.5 L1220.1,592.5 L1221.2,590.3 L1222.4,588.0 L1223.5,585.5 L1224.6,583.0 L1225.7,580.3
		L1226.9,577.4 L1228.0,574.5 L1229.1,571.3 L1230.2,568.1 L1231.4,564.7 L1232.5,561.1 L1233.6,557.4 L1234.7,553.6
		L1235.9,549.6 L1237.0,545.4 L1238.1,541.2 L1239.2,536.8 L1240.4,532.4 L1241.5,527.9 L1242.6,523.3 L1243.7,518.8
		L1244.9,514.4 L1246.0,510.0 L1247.1,505.9 L1248.2,502.0 L1249.4,498.5 L1250.5,495.4 L1251.6,493.0 L1252.7,491.1
		L1253.9,490.0 L1255.0,489.6  '/></g>
	</g>
	<g id="gnuplot_plot_5" ><title>8 (convex)</title>
<g fill="none" color="black" stroke="currentColor" stroke-width="1.00" stroke-linecap="butt" stroke-linejoin="miter">
	<g transform="translate(1187.9,148.0)" stroke="none" fill="black" font-family="Arial" font-size="12.00"  text-anchor="end">
		<text><tspan font-family="Arial" >8 (convex)</tspan></text>
	</g>
</g>
<g fill="none" color="black" stroke="currentColor" stroke-width="1.00" stroke-linecap="butt" stroke-linejoin="miter">
	<path stroke='rgb(240, 228,  66)'  d='M1196.2,144.1 L1238.4,144.1 M103.7,60.9 L104.8,156.8 L106.0,203.1 L107.1,227.3 L108.2,245.6 L109.3,261.8
		L110.5,276.5 L111.6,290.0 L112.7,302.4 L113.8,313.9 L115.0,324.5 L116.1,334.3 L117.2,343.5 L118.3,352.0
		L119.5,360.1 L120.6,367.6 L121.7,374.7 L122.8,381.3 L124.0,387.7 L125.1,393.6 L126.2,399.3 L127.3,404.7
		L128.5,409.8 L129.6,414.7 L130.7,419.4 L131.8,423.8 L133.0,428.1 L134.1,432.2 L135.2,436.1 L136.3,439.8
		L137.5,443.4 L138.6,446.8 L139.7,450.1 L140.8,453.2 L142.0,456.2 L143.1,459.2 L144.2,461.9 L145.3,464.6
		L146.5,467.2 L147.6,469.7 L148.7,472.0 L149.8,474.3 L151.0,476.5 L152.1,478.6 L153.2,480.7 L154.3,482.6
		L155.5,484.5 L156.6,486.3 L157.7,488.0 L158.8,489.7 L160.0,491.3 L161.1,492.9 L162.2,494.4 L163.3,495.8
		L164.5,497.2 L165.6,498.5 L166.7,499.8 L167.8,501.1 L169.0,502.3 L170.1,503.4 L171.2,504.5 L172.4,505.6
		L173.5,506.6 L174.6,507.6 L175.7,508.6 L176.9,509.5 L178.0,510.4 L179.1,511.3 L180.2,512.2 L181.4,513.0
		L182.5,513.8 L183.6,514.5 L184.7,515.3 L185.9,516.0 L187.0,516.7 L188.1,517.4 L189.2,518.0 L190.4,518.7
		L191.5,519.3 L192.6,519.9 L193.7,520.5 L194.9,521.0 L196.0,521.6 L197.1,522.1 L198.2,522.7 L199.4,523.2
		L200.5,523.7 L201.6,524.2 L202.7,524.7 L203.9,525.1 L205.0,525.6 L206.1,526.0 L207.2,526.5 L208.4,526.9
		L209.5,527.3 L210.6,527.7 L211.7,528.1 L212.9,528.5 L214.0,528.9 L215.1,529.3 L216.2,529.7 L217.4,530.0
		L218.5,530.4 L219.6,530.8 L220.7,531.1 L221.9,531.5 L223.0,531.8 L224.1,532.1 L225.2,532.5 L226.4,532.8
		L227.5,533.1 L228.6,533.4 L229.7,533.7 L230.9,534.0 L232.0,534.3 L233.1,534.7 L234.2,535.0 L235.4,535.2
		L236.5,535.5 L237.6,535.8 L238.7,536.1 L239.9,536.4 L241.0,536.7 L242.1,537.0 L243.3,537.2 L244.4,537.5
		L245.5,537.8 L246.6,538.1 L247.8,538.3 L248.9,538.6 L250.0,538.9 L251.1,539.1 L252.3,539.4 L253.4,539.6
		L254.5,539.9 L255.6,540.2 L256.8,540.4 L257.9,540.7 L259.0,540.9 L260.1,541.2 L261.3,541.4 L262.4,541.7
		L263.5,541.9 L264.6,542.2 L265.8,542.4 L266.9,542.7 L268.0,542.9 L269.1,543.2 L270.3,543.4 L271.4,543.6
		L272.5,543.9 L273.6,544.1 L274.8,544.4 L275.9,544.6 L277.0,544.8 L278.1,545.1 L279.3,545.3 L280.4,545.6
		L281.5,545.8 L282.6,546.0 L283.8,546.3 L284.9,546.5 L286.0,546.7 L287.1,547.0 L288.3,547.2 L289.4,547.4
		L290.5,547.7 L291.6,547.9 L292.8,548.1 L293.9,548.4 L295.0,548.6 L296.1,548.8 L297.3,549.0 L298.4,549.3
		L299.5,549.5 L300.6,549.7 L301.8,550.0 L302.9,550.2 L304.0,550.4 L305.1,550.6 L306.3,550.9 L307.4,551.1
		L308.5,551.3 L309.7,551.6 L310.8,551.8 L311.9,552.0 L313.0,552.2 L314.2,552.5 L315.3,552.7 L316.4,552.9
		L317.5,553.1 L318.7,553.4 L319.8,553.6 L320.9,553.8 L322.0,554.0 L323.2,554.3 L324.3,554.5 L325.4,554.7
		L326.5,554.9 L327.7,555.2 L328.8,555.4 L329.9,555.6 L331.0,555.8 L332.2,556.0 L333.3,556.3 L334.4,556.5
		L335.5,556.7 L336.7,556.9 L337.8,557.2 L338.9,557.4 L340.0,557.6 L341.2,557.8 L342.3,558.0 L343.4,558.3
		L344.5,558.5 L345.7,558.7 L346.8,558.9 L347.9,559.2 L349.0,559.4 L350.2,559.6 L351.3,559.8 L352.4,560.0
		L353.5,560.3 L354.7,560.5 L355.8,560.7 L356.9,560.9 L358.0,561.1 L359.2,561.4 L360.3,561.6 L361.4,561.8
		L362.5,562.0 L363.7,562.2 L364.8,562.4 L365.9,562.7 L367.0,562.9 L368.2,563.1 L369.3,563.3 L370.4,563.5
		L371.5,563.8 L372.7,564.0 L373.8,564.2 L374.9,564.4 L376.1,564.6 L377.2,564.8 L378.3,565.1 L379.4,565.3
		L380.6,565.5 L381.7,565.7 L382.8,565.9 L383.9,566.1 L385.1,566.3 L386.2,566.6 L387.3,566.8 L388.4,567.0
		L389.6,567.2 L390.7,567.4 L391.8,567.6 L392.9,567.8 L394.1,568.1 L395.2,568.3 L396.3,568.5 L397.4,568.7
		L398.6,568.9 L399.7,569.1 L400.8,569.3 L401.9,569.5 L403.1,569.8 L404.2,570.0 L405.3,570.2 L406.4,570.4
		L407.6,570.6 L408.7,570.8 L409.8,571.0 L410.9,571.2 L412.1,571.4 L413.2,571.7 L414.3,571.9 L415.4,572.1
		L416.6,572.3 L417.7,572.5 L418.8,572.7 L419.9,572.9 L421.1,573.1 L422.2,573.3 L423.3,573.5 L424.4,573.7
		L425.6,573.9 L426.7,574.2 L427.8,574.4 L428.9,574.6 L430.1,574.8 L431.2,575.0 L432.3,575.2 L433.4,575.4
		L434.6,575.6 L435.7,575.8 L436.8,576.0 L437.9,576.2 L439.1,576.4 L440.2,576.6 L441.3,576.8 L442.5,577.0
		L443.6,577.2 L444.7,577.4 L445.8,577.6 L447.0,577.8 L448.1,578.0 L449.2,578.2 L450.3,578.4 L451.5,578.6
		L452.6,578.8 L453.7,579.0 L454.8,579.2 L456.0,579.4 L457.1,579.6 L458.2,579.8 L459.3,580.0 L460.5,580.2
		L461.6,580.4 L462.7,580.6 L463.8,580.8 L465.0,581.0 L466.1,581.2 L467.2,581.4 L468.3,581.6 L469.5,581.8
		L470.6,582.0 L471.7,582.2 L472.8,582.4 L474.0,582.6 L475.1,582.8 L476.2,583.0 L477.3,583.2 L478.5,583.4
		L479.6,583.6 L480.7,583.8 L481.8,584.0 L483.0,584.1 L484.1,584.3 L485.2,584.5 L486.3,584.7 L487.5,584.9
		L488.6,585.1 L489.7,585.3 L490.8,585.5 L492.0,585.7 L493.1,585.9 L494.2,586.1 L495.3,586.2 L496.5,586.4
		L497.6,586.6 L498.7,586.8 L499.8,587.0 L501.0,587.2 L502.1,587.4 L503.2,587.6 L504.3,587.7 L505.5,587.9
		L506.6,588.1 L507.7,588.3 L508.8,588.5 L510.0,588.7 L511.1,588.9 L512.2,589.0 L513.4,589.2 L514.5,589.4
		L515.6,589.6 L516.7,589.8 L517.9,590.0 L519.0,590.1 L520.1,590.3 L521.2,590.5 L522.4,590.7 L523.5,590.9
		L524.6,591.0 L525.7,591.2 L526.9,591.4 L528.0,591.6 L529.1,591.8 L530.2,591.9 L531.4,592.1 L532.5,592.3
		L533.6,592.5 L534.7,592.6 L535.9,592.8 L537.0,593.0 L538.1,593.2 L539.2,593.4 L540.4,593.5 L541.5,593.7
		L542.6,593.9 L543.7,594.1 L544.9,594.2 L546.0,594.4 L547.1,594.6 L548.2,594.8 L549.4,594.9 L550.5,595.1
		L551.6,595.3 L552.7,595.4 L553.9,595.6 L555.0,595.8 L556.1,596.0 L557.2,596.1 L558.4,596.3 L559.5,596.5
		L560.6,596.6 L561.7,596.8 L562.9,597.0 L564.0,597.1 L565.1,597.3 L566.2,597.5 L567.4,597.6 L568.5,597.8
		L569.6,598.0 L570.7,598.1 L571.9,598.3 L573.0,598.5 L574.1,598.6 L575.2,598.8 L576.4,599.0 L577.5,599.1
		L578.6,599.3 L579.8,599.5 L580.9,599.6 L582.0,599.8 L583.1,599.9 L584.3,600.1 L585.4,600.3 L586.5,600.4
		L587.6,600.6 L588.8,600.7 L589.9,600.9 L591.0,601.1 L592.1,601.2 L593.3,601.4 L594.4,601.5 L595.5,601.7
		L596.6,601.9 L597.8,602.0 L598.9,602.2 L600.0,602.3 L601.1,602.5 L602.3,602.6 L603.4,602.8 L604.5,603.0
		L605.6,603.1 L606.8,603.3 L607.9,603.4 L609.0,603.6 L610.1,603.7 L611.3,603.9 L612.4,604.0 L613.5,604.2
		L614.6,604.3 L615.8,604.5 L616.9,604.6 L618.0,604.8 L619.1,604.9 L620.3,605.1 L621.4,605.2 L622.5,605.4
		L623.6,605.5 L624.8,605.7 L625.9,605.8 L627.0,606.0 L628.1,606.1 L629.3,606.3 L630.4,606.4 L631.5,606.6
		L632.6,606.7 L633.8,606.9 L634.9,607.0 L636.0,607.1 L637.1,607.3 L638.3,607.4 L639.4,607.6 L640.5,607.7
		L641.6,607.9 L642.8,608.0 L643.9,608.1 L645.0,608.3 L646.2,608.4 L647.3,608.6 L648.4,608.7 L649.5,608.8
		L650.7,609.0 L651.8,609.1 L652.9,609.3 L654.0,609.4 L655.2,609.5 L656.3,609.7 L657.4,609.8 L658.5,610.0
		L659.7,610.1 L660.8,610.2 L661.9,610.4 L663.0,610.5 L664.2,610.6 L665.3,610.8 L666.4,610.9 L667.5,611.0
		L668.7,611.2 L669.8,611.3 L670.9,611.4 L672.0,611.6 L673.2,611.7 L674.3,611.8 L675.4,612.0 L676.5,612.1
		L677.7,612.2 L678.8,612.4 L679.9,612.5 L681.0,612.6 L682.2,612.7 L683.3,612.9 L684.4,613.0 L685.5,613.1
		L686.7,613.3 L687.8,613.4 L688.9,613.5 L690.0,613.6 L691.2,613.8 L692.3,613.9 L693.4,614.0 L694.5,614.1
		L695.7,614.3 L696.8,614.4 L697.9,614.5 L699.0,614.6 L700.2,614.7 L701.3,614.9 L702.4,615.0 L703.5,615.1
		L704.7,615.2 L705.8,615.4 L706.9,615.5 L708.0,615.6 L709.2,615.7 L710.3,615.8 L711.4,615.9 L712.5,616.1
		L713.7,616.2 L714.8,616.3 L715.9,616.4 L717.1,616.5 L718.2,616.6 L719.3,616.8 L720.4,616.9 L721.6,617.0
		L722.7,617.1 L723.8,617.2 L724.9,617.3 L726.1,617.5 L727.2,617.6 L728.3,617.7 L729.4,617.8 L730.6,617.9
		L731.7,618.0 L732.8,618.1 L733.9,618.2 L735.1,618.3 L736.2,618.4 L737.3,618.6 L738.4,618.7 L739.6,618.8
		L740.7,618.9 L741.8,619.0 L742.9,619.1 L744.1,619.2 L745.2,619.3 L746.3,619.4 L747.4,619.5 L748.6,619.6
		L749.7,619.7 L750.8,619.8 L751.9,619.9 L753.1,620.0 L754.2,620.1 L755.3,620.2 L756.4,620.3 L757.6,620.4
		L758.7,620.5 L759.8,620.6 L760.9,620.7 L762.1,620.8 L763.2,620.9 L764.3,621.0 L765.4,621.1 L766.6,621.2
		L767.7,621.3 L768.8,621.4 L769.9,621.5 L771.1,621.6 L772.2,621.7 L773.3,621.8 L774.4,621.9 L775.6,622.0
		L776.7,622.1 L777.8,622.2 L778.9,622.3 L780.1,622.4 L781.2,622.5 L782.3,622.6 L783.5,622.6 L784.6,622.7
		L785.7,622.8 L786.8,622.9 L788.0,623.0 L789.1,623.1 L790.2,623.2 L791.3,623.3 L792.5,623.4 L793.6,623.4
		L794.7,623.5 L795.8,623.6 L797.0,623.7 L798.1,623.8 L799.2,623.9 L800.3,624.0 L801.5,624.0 L802.6,624.1
		L803.7,624.2 L804.8,624.3 L806.0,624.4 L807.1,624.4 L808.2,624.5 L809.3,624.6 L810.5,624.7 L811.6,624.8
		L812.7,624.8 L813.8,624.9 L815.0,625.0 L816.1,625.1 L817.2,625.1 L818.3,625.2 L819.5,625.3 L820.6,625.4
		L821.7,625.4 L822.8,625.5 L824.0,625.6 L825.1,625.7 L826.2,625.7 L827.3,625.8 L828.5,625.9 L829.6,625.9
		L830.7,626.0 L831.8,626.1 L833.0,626.2 L834.1,626.2 L835.2,626.3 L836.3,626.4 L837.5,626.4 L838.6,626.5
		L839.7,626.6 L840.8,626.6 L842.0,626.7 L843.1,626.7 L844.2,626.8 L845.3,626.9 L846.5,626.9 L847.6,627.0
		L848.7,627.1 L849.9,627.1 L851.0,627.2 L852.1,627.2 L853.2,627.3 L854.4,627.3 L855.5,627.4 L856.6,627.5
		L857.7,627.5 L858.9,627.6 L860.0,627.6 L861.1,627.7 L862.2,627.7 L863.4,627.8 L864.5,627.8 L865.6,627.9
		L866.7,627.9 L867.9,628.0 L869.0,628.0 L870.1,628.1 L871.2,628.1 L872.4,628.2 L873.5,628.2 L874.6,628.3
		L875.7,628.3 L876.9,628.4 L878.0,628.4 L879.1,628.5 L880.2,628.5 L881.4,628.5 L882.5,628.6 L883.6,628.6
		L884.7,628.7 L885.9,628.7 L887.0,628.7 L888.1,628.8 L889.2,628.8 L890.4,628.9 L891.5,628.9 L892.6,628.9
		L893.7,629.0 L894.9,629.0 L896.0,629.0 L897.1,629.1 L898.2,629.1 L899.4,629.1 L900.5,629.2 L901.6,629.2
		L902.7,629.2 L903.9,629.2 L905.0,629.3 L906.1,629.3 L907.2,629.3 L908.4,629.3 L909.5,629.4 L910.6,629.4
		L911.7,629.4 L912.9,629.4 L914.0,629.5 L915.1,629.5 L916.2,629.5 L917.4,629.5 L918.5,629.5 L919.6,629.5
		L920.8,629.6 L921.9,629.6 L923.0,629.6 L924.1,629.6 L925.3,629.6 L926.4,629.6 L927.5,629.6 L928.6,629.6
		L929.8,629.7 L930.9,629.7 L932.0,629.7 L933.1,629.7 L934.3,629.7 L935.4,629.7 L936.5,629.7 L937.6,629.7
		L938.8,629.7 L939.9,629.7 L941.0,629.7 L942.1,629.7 L943.3,629.7 L944.4,629.7 L945.5,629.7 L946.6,629.7
		L947.8,629.7 L948.9,629.7 L950.0,629.6 L951.1,629.6 L952.3,629.6 L953.4,629.6 L954.5,629.6 L955.6,629.6
		L956.8,629.6 L957.9,629.6 L959.0,629.5 L960.1,629.5 L961.3,629.5 L962.4,629.5 L963.5,629.5 L964.6,629.4
		L965.8,629.4 L966.9,629.4 L968.0,629.4 L969.1,629.3 L970.3,629.3 L971.4,629.3 L972.5,629.2 L973.6,629.2
		L974.8,629.2 L975.9,629.1 L977.0,629.1 L978.1,629.1 L979.3,629.0 L980.4,629.0 L981.5,629.0 L982.6,628.9
		L983.8,628.9 L984.9,628.8 L986.0,628.8 L987.2,628.7 L988.3,628.7 L989.4,628.6 L990.5,628.6 L991.7,628.5
		L992.8,628.5 L993.9,628.4 L995.0,628.4 L996.2,628.3 L997.3,628.3 L998.4,628.2 L999.5,628.1 L1000.7,628.1
		L1001.8,628.0 L1002.9,627.9 L1004.0,627.9 L1005.2,627.8 L1006.3,627.7 L1007.4,627.7 L1008.5,627.6 L1009.7,627.5
		L1010.8,627.4 L1011.9,627.4 L1013.0,627.3 L1014.2,627.2 L1015.3,627.1 L1016.4,627.0 L1017.5,626.9 L1018.7,626.9
		L1019.8,626.8 L1020.9,626.7 L1022.0,626.6 L1023.2,626.5 L1024.3,626.4 L1025.4,626.3 L1026.5,626.2 L1027.7,626.1
		L1028.8,626.0 L1029.9,625.9 L1031.0,625.8 L1032.2,625.7 L1033.3,625.6 L1034.4,625.5 L1035.5,625.3 L1036.7,625.2
		L1037.8,625.1 L1038.9,625.0 L1040.0,624.9 L1041.2,624.8 L1042.3,624.6 L1043.4,624.5 L1044.5,624.4 L1045.7,624.3
		L1046.8,624.1 L1047.9,624.0 L1049.0,623.9 L1050.2,623.7 L1051.3,623.6 L1052.4,623.5 L1053.6,623.3 L1054.7,623.2
		L1055.8,623.0 L1056.9,622.9 L1058.1,622.7 L1059.2,622.6 L1060.3,622.4 L1061.4,622.3 L1062.6,622.1 L1063.7,622.0
		L1064.8,621.8 L1065.9,621.7 L1067.1,621.5 L1068.2,621.3 L1069.3,621.2 L1070.4,621.0 L1071.6,620.8 L1072.7,620.6
		L1073.8,620.5 L1074.9,620.3 L1076.1,620.1 L1077.2,619.9 L1078.3,619.8 L1079.4,619.6 L1080.6,619.4 L1081.7,619.2
		L1082.8,619.0 L1083.9,618.8 L1085.1,618.6 L1086.2,618.4 L1087.3,618.2 L1088.4,618.0 L1089.6,617.8 L1090.7,617.6
		L1091.8,617.4 L1092.9,617.2 L1094.1,617.0 L1095.2,616.8 L1096.3,616.6 L1097.4,616.4 L1098.6,616.1 L1099.7,615.9
		L1100.8,615.7 L1101.9,615.5 L1103.1,615.3 L1104.2,615.0 L1105.3,614.8 L1106.4,614.6 L1107.6,614.4 L1108.7,614.1
		L1109.8,613.9 L1110.9,613.7 L1112.1,613.4 L1113.2,613.2 L1114.3,612.9 L1115.4,612.7 L1116.6,612.4 L1117.7,612.2
		L1118.8,612.0 L1120.0,611.7 L1121.1,611.5 L1122.2,611.2 L1123.3,611.0 L1124.5,610.7 L1125.6,610.4 L1126.7,610.2
		L1127.8,609.9 L1129.0,609.7 L1130.1,609.4 L1131.2,609.1 L1132.3,608.9 L1133.5,608.6 L1134.6,608.3 L1135.7,608.1
		L1136.8,607.8 L1138.0,607.5 L1139.1,607.3 L1140.2,607.0 L1141.3,606.7 L1142.5,606.5 L1143.6,606.2 L1144.7,605.9
		L1145.8,605.6 L1147.0,605.4 L1148.1,605.1 L1149.2,604.8 L1150.3,604.5 L1151.5,604.2 L1152.6,604.0 L1153.7,603.7
		L1154.8,603.4 L1156.0,603.1 L1157.1,602.8 L1158.2,602.6 L1159.3,602.3 L1160.5,602.0 L1161.6,601.7 L1162.7,601.4
		L1163.8,601.2 L1165.0,600.9 L1166.1,600.6 L1167.2,600.3 L1168.3,600.0 L1169.5,599.8 L1170.6,599.5 L1171.7,599.2
		L1172.8,598.9 L1174.0,598.6 L1175.1,598.4 L1176.2,598.1 L1177.3,597.8 L1178.5,597.5 L1179.6,597.3 L1180.7,597.0
		L1181.8,596.7 L1183.0,596.5 L1184.1,596.2 L1185.2,595.9 L1186.3,595.7 L1187.5,595.4 L1188.6,595.1 L1189.7,594.9
		L1190.9,594.6 L1192.0,594.3 L1193.1,594.1 L1194.2,593.8 L1195.4,593.6 L1196.5,593.3 L1197.6,593.1 L1198.7,592.8
		L1199.9,592.6 L1201.0,592.3 L1202.1,592.1 L1203.2,591.8 L1204.4,591.6 L1205.5,591.3 L1206.6,591.1 L1207.7,590.8
		L1208.9,590.6 L1210.0,590.3 L1211.1,590.1 L1212.2,589.8 L1213.4,589.6 L1214.5,589.3 L1215.6,589.1 L1216.7,588.8
		L1217.9,588.5 L1219.0,588.3 L1220.1,588.0 L1221.2,587.7 L1222.4,587.4 L1223.5,587.0 L1224.6,586.7 L1225.7,586.3
		L1226.9,585.9 L1228.0,585.5 L1229.1,585.0 L1230.2,584.4 L1231.4,583.8 L1232.5,583.1 L1233.6,582.3 L1234.7,581.3
		L1235.9,580.2 L1237.0,578.9 L1238.1,577.3 L1239.2,575.3 L1240.4,573.0 L1241.5,570.0 L1242.6,566.4 L1243.7,561.9
		L1244.9,556.4 L1246.0,549.5 L1247.1,541.1 L1248.2,530.9 L1249.4,518.9 L1250.5,505.1 L1251.6,490.3 L1252.7,475.9
		L1253.9,464.8 L1255.0,460.5  '/></g>
	</g>
<g fill="none" color="white" stroke="rgb(240, 228,  66)" stroke-width="2.00" stroke-linecap="butt" stroke-linejoin="miter">
</g>
<g fill="none" color="black" stroke="currentColor" stroke-width="2.00" stroke-linecap="butt" stroke-linejoin="miter">
</g>
<g fill="none" color="black" stroke="black" stroke-width="1.00" stroke-linecap="butt" stroke-linejoin="miter">
</g>
<g fill="none" color="black" stroke="currentColor" stroke-width="1.00" stroke-linecap="butt" stroke-linejoin="miter">
	<path stroke='black'  d='M103.7,54.1 L103.7,684.0 L1255.0,684.0 L1255.0,54.1 L103.7,54.1 Z  '/></g>
<g fill="none" color="black" stroke="currentColor" stroke-width="1.00" stroke-linecap="butt" stroke-linejoin="miter">
</g>
</g>
</svg>

